%time,field.header.seq,field.header.frame_id,field.point_id,field.x,field.y,field.z,field.velocity,field.intensity,normalized_x,normalized_y,normalized_z,normalized_intensity,normalized_velocity,normalized_range,range
1648218525737269142,38375,0,0,0.00524778757244,0.0454158857465,0.0103768147528,0.0,11.3999996185,0.0017551129004816054,0.015189259446989964,0.003470506606287625,11.3999996185,0.0,0.015390725945674161,0.04688091548763233
1648218525737274875,38376,0,1,0.0334800891578,0.0146502861753,-0.029364483431,0.0,11.3999996185,0.011197354233377926,0.0048997612626421405,-0.009820897468561872,11.3999996185,0.0,0.016576161922664173,0.046880914477022494
1648218525737277448,38377,0,2,1.76208484173,-0.0,0.262125611305,0.0,11.3999996185,0.5893260340234113,-0.0,0.08766742853010033,11.3999996185,0.0,0.8334328699754564,1.7814749017476106
1648218525842555744,38378,1,0,0.00524778757244,0.0454158857465,0.0103768147528,0.0,18.2000007629,0.0017551129004816054,0.015189259446989964,0.003470506606287625,18.2000007629,0.0,0.015390725945674161,0.04688091548763233
1648218525842561797,38379,1,1,0.0335027687252,0.0146502861753,-0.0293386057019,0.0,18.2000007629,0.011204939372976588,0.0048997612626421405,-0.00981224270966555,18.2000007629,0.0,0.01658640989289275,0.04688091489939147
1648218525842564711,38380,1,2,1.67782843113,0.0527410283685,-0.174599990249,0.0,18.2000007629,0.5611466324849498,0.017639139922575247,-0.05839464556822742,18.2000007629,0.0,0.7937771888607073,1.6877129545560985
1648218525842574274,38381,1,3,2.06985998154,-1.19546329975,-0.0554755665362,0.0,18.2000007629,0.6922608633913043,-0.39982050158862875,-0.018553701182675582,18.2000007629,0.0,1.0575001841404714,2.390926678656717
1648218525842578747,38382,1,4,1.73263955116,0.0556710883975,0.410503864288,0.0809188112617,18.2000007629,0.5794781107558528,0.018619093109531772,0.1372922623036789,18.2000007629,0.010934974494824324,0.8197172880442172,1.78147481231778
1648218526037569748,38383,3,0,0.00520934164524,0.0454158857465,0.0103961685672,0.0,17.2000007629,0.001742254730849498,0.015189259446989964,0.0034769794539130433,17.2000007629,0.0,0.015387803795288944,0.0468809155136033
1648218526037574298,38384,3,1,0.0335027687252,0.0146502861753,-0.0293386057019,0.0,17.2000007629,0.011204939372976588,0.0048997612626421405,-0.00981224270966555,17.2000007629,0.0,0.01658640989289275,0.04688091489939147
1648218526037727883,38385,3,2,1.73332595825,-0.0,-0.0663111880422,0.0,17.2000007629,0.5797076783444816,-0.0,-0.022177654863612038,17.2000007629,0.0,0.8198304609265856,1.734593915359687
1648218526037731466,38386,3,3,1.80702424049,-0.171408340335,0.219469562173,0.161837622523,17.2000007629,0.6043559332742475,-0.05732720412541805,0.07340119136220735,17.2000007629,0.021869948989594594,0.8566087768056143,1.8283556310453581
1648218526037734089,38387,3,4,0.734103381634,0.514225006104,1.59359633923,0.161837622523,17.2000007629,0.24551952563010032,0.17198160739264212,0.5329753642909699,17.2000007629,0.021869948989594594,0.38747560982933604,1.8283556613078296
1648218526037735285,38388,3,5,1.46158981323,-0.234404578805,0.243675202131,-0.485512852669,17.2000007629,0.48882602449163876,-0.07839618020234114,0.08149672312073578,17.2000007629,-0.06560984495527027,0.6957353846908453,1.5001892856689916
1648218526142646065,38389,4,0,0.0052226819098,0.0454158857465,0.0103894732893,0.0,19.8999996185,0.001746716357792642,0.015189259446989964,0.003474740230535117,19.8999996185,0.0,0.015388815374067449,0.04688091551686221
1648218526142658548,38390,4,1,0.0335027687252,0.0146502861753,-0.0293386057019,0.0,19.8999996185,0.011204939372976588,0.0048997612626421405,-0.00981224270966555,19.8999996185,0.0,0.01658640989289275,0.04688091489939147
1648218526142921611,38391,4,2,1.71464729309,0.108412116766,-0.238846421242,0.0,19.8999996185,0.5734606331404682,0.03625823303210702,-0.0798817462347826,19.8999996185,0.0,0.8118059219951183,1.734593940869926
1648218526142929455,38392,4,3,1.78289675713,0.117202289402,0.569258391857,0.0,19.8999996185,0.5962865408461538,0.03919809010100334,0.19038742202575248,19.8999996185,0.0,0.8441870455391448,1.8752366090510708
1648218526142940950,38393,4,4,2.07050204277,-1.19546329975,-0.0204579271376,0.0,19.8999996185,0.6924755995886287,-0.39982050158862875,-0.006842116099531772,19.8999996185,0.0,1.0577813316285385,2.3909265436116325
1648218526142942902,38394,4,5,1.74285709858,-0.22268435359,0.294131964445,0.161837622523,19.8999996185,0.5828953506956521,-0.07447637243812709,0.0983718944632107,19.8999996185,0.021869948989594594,0.8276960249854757,1.781474894550234
1648218526142944808,38395,4,6,1.6114128828,0.668053030968,0.361533463001,0.404594063759,19.8999996185,0.5389340745150502,0.22342910734715715,0.12091420167257523,19.8999996185,0.05467487348094594,0.7942420533796575,1.7814748878131383
1648218526142947206,38396,4,7,0.360946208239,-0.796975553036,-1.33237683773,-0.647350490093,19.8999996185,0.12071779539765885,-0.2665470077043478,-0.44561098251839465,19.8999996185,-0.08747979595851352,0.31653258847626364,1.5939511394953563
1648218526142948412,38397,4,8,1.5643825531,-0.199243888259,0.231709554791,-0.647350490093,19.8999996185,0.523204867257525,-0.06663675192608695,0.07749483437826087,19.8999996185,-0.08747979595851352,0.7429179786162047,1.593951133891401
1648218526337401745,38398,6,0,0.00529174832627,0.0454158857465,0.010354465805,0.0,27.1000003815,0.0017698154937357859,0.015189259446989964,0.0034630320418060196,27.1000003815,0.0,0.015394092903179077,0.04688091552641263
1648218526337407312,38399,6,1,0.0335027687252,0.0146502861753,-0.0293386057019,0.0,27.1000003815,0.011204939372976588,0.0048997612626421405,-0.00981224270966555,27.1000003815,0.0,0.01658640989289275,0.04688091489939147
1648218526337411363,38400,6,2,1.73258185387,0.054206058383,-0.0635445863008,0.0,27.1000003815,0.5794588140033444,0.01812911651605351,-0.021252370000267556,27.1000003815,0.0,0.8196790220067717,1.734593926996508
1648218526337424280,38401,6,3,2.07045841217,-1.19546329975,-0.0244698785245,0.0,27.1000003815,0.6924610074147156,-0.39982050158862875,-0.008183905861036789,27.1000003815,0.0,1.0577622261501818,2.390926454855874
1648218526337431942,38402,6,4,1.69722390175,0.399952799082,0.549866676331,0.0809188112617,27.1000003815,0.5676334119565217,0.13376347795384613,0.1839018984384615,27.1000003815,0.010934974494824324,0.8138231065613176,1.8283557027844228
1648218526337545578,38403,6,5,1.50676727295,-0.650472700596,0.561563670635,0.566431701183,27.1000003815,0.5039355427926421,-0.21754939819264213,0.18781393666722407,27.1000003815,0.07654482448418919,0.7451374391569722,1.734593930933372
1648218526442578418,38404,7,0,0.00510282302275,0.0454158857465,0.0104488637298,0.0,25.0,0.0017066297734949832,0.015189259446989964,0.003494603254113712,25.0,0.0,0.015379817063786324,0.046880915458047304
1648218526442599448,38405,7,1,0.0335027687252,0.0146502861753,-0.0293386057019,0.0,25.0,0.011204939372976588,0.0048997612626421405,-0.00981224270966555,25.0,0.0,0.01658640989289275,0.04688091489939147
1648218526442611050,38406,7,2,2.06947636604,-1.19546329975,-0.0683023482561,0.0,25.0,0.6921325638929765,-0.39982050158862875,-0.022843594734481606,25.0,0.0,1.057332211508149,2.3909266281976493
1648218526442615402,38407,7,3,1.7535957098,0.114272229373,0.504706323147,0.0809188112617,25.0,0.5864868594648829,0.03821813691404682,0.16879810138695653,25.0,0.010934974494824324,0.8302977168697644,1.828355689809673
1648218526442740694,38408,7,4,1.59922122955,-0.433648467064,0.513085246086,0.242756426334,25.0,0.5348565985117056,-0.14503293212842808,0.17160041675117058,25.0,0.03280492247756756,0.7701803122287618,1.7345939016903933
1648218526637547654,38409,9,0,0.00510282302275,0.0454158857465,0.0104488637298,0.0,34.7000007629,0.0017066297734949832,0.015189259446989964,0.003494603254113712,34.7000007629,0.0,0.015379817063786324,0.046880915458047304
1648218526637552760,38410,9,1,0.0335027687252,0.0146502861753,-0.0293386057019,0.0,34.7000007629,0.011204939372976588,0.0048997612626421405,-0.00981224270966555,34.7000007629,0.0,0.01658640989289275,0.04688091489939147
1648218526637562901,38411,9,2,1.72935819626,0.054206058383,-0.123280145228,0.0,34.7000007629,0.5783806676454849,0.01812911651605351,-0.041230817802006686,34.7000007629,0.0,0.8181546664767771,1.734593918455988
1648218526637565904,38412,9,3,1.77187120914,0.234404578805,0.56748509407,0.0,34.7000007629,0.5925990666020067,0.07839618020234114,0.18979434584280935,34.7000007629,0.0,0.841720421841752,1.8752366304911046
1648218526637738285,38413,9,4,1.75008702278,-0.114272229373,0.516741275787,0.0809188112617,34.7000007629,0.5853133855451504,-0.03821813691404682,0.17282316915953178,34.7000007629,0.010934974494824324,0.8286399366346234,1.8283556207179215
1648218526742601484,38414,10,0,0.00509680015966,0.0454158857465,0.0104518029839,0.0,20.2000007629,0.0017046154380133778,0.015189259446989964,0.003495586282240802,20.2000007629,0.0,0.015379370277452876,0.046880915473366265
1648218526742613601,38415,10,1,0.0335027687252,0.0146502861753,-0.0293386057019,0.0,20.2000007629,0.011204939372976588,0.0048997612626421405,-0.00981224270966555,20.2000007629,0.0,0.01658640989289275,0.04688091489939147
1648218526742615977,38416,10,2,1.72634744644,-0.0,-0.168939307332,0.0,20.2000007629,0.5773737279063544,-0.0,-0.056501440579264206,20.2000007629,0.0,0.8165297565630796,1.734593899272024
1648218526742617954,38417,10,3,1.68138659,-0.171408340335,0.697454571724,0.161837622523,20.2000007629,0.562336652173913,-0.05732720412541805,0.23326239856989966,20.2000007629,0.021869948989594594,0.7973276798714355,1.8283556994706844
1648218526937520098,38418,12,0,0.00510282302275,0.0454158857465,0.0104488637298,0.0,32.5999984741,0.0017066297734949832,0.015189259446989964,0.003494603254113712,32.5999984741,0.0,0.015379817063786324,0.046880915458047304
1648218526937527726,38419,12,1,0.0335027687252,0.0146502861753,-0.0293386057019,0.0,32.5999984741,0.011204939372976588,0.0048997612626421405,-0.00981224270966555,32.5999984741,0.0,0.01658640989289275,0.04688091489939147
1648218526937529486,38420,12,2,1.72992670536,0.054206058383,-0.115028806031,0.0,32.5999984741,0.5785708044682274,0.01812911651605351,-0.038471172585618725,32.5999984741,0.0,0.8184234945501481,1.7345939954064302
1648218526937533483,38421,12,3,1.71688711643,0.117202289402,0.745033383369,0.0809188112617,32.5999984741,0.5742097379364548,0.03919809010100334,0.24917504460501672,32.5999984741,0.010934974494824324,0.8130006989847367,1.875236648942914
1648218527042526817,38422,13,0,0.00529174832627,0.0454158857465,0.010354465805,0.0,20.1000003815,0.0017698154937357859,0.015189259446989964,0.0034630320418060196,20.1000003815,0.0,0.015394092903179077,0.04688091552641263
1648218527042547843,38423,13,1,0.0334885679185,0.0146502861753,-0.0293548125774,0.0,20.1000003815,0.011200189939297658,0.0048997612626421405,-0.009817663069364548,20.1000003815,0.0,0.01657999305740438,0.04688091389578978
1648218527042557073,38424,13,2,1.72796738148,0.054206058383,-0.141444653273,0.0,20.1000003815,0.5779155122006688,0.01812911651605351,-0.047305904104682266,20.1000003815,0.0,0.8174969989853024,1.7345939461913813
1648218527042559503,38425,13,3,0.588286161423,-1.62618172169,0.135161146522,0.0,20.1000003815,0.1967512245561873,-0.5438734855150501,0.04520439683010034,20.1000003815,0.0,0.6109177170249753,1.7345939395747936
1648218527042561102,38426,13,4,1.84034919739,-0.175803437829,0.31419801712,0.0809188112617,20.1000003815,0.6155014038093645,-0.05879713639765886,0.10508294886956521,20.1000003815,0.010934974494824324,0.8724339857153444,1.8752366280148893
1648218527042571661,38427,13,5,1.50253784657,1.45037841797,0.298945784569,-0.161837622523,20.1000003815,0.5025210189197323,0.4850763939698996,0.09998186774882943,20.1000003815,-0.021869948989594594,0.8604381772673114,2.1096412296407054
1648218527237592323,38428,15,0,0.00524778757244,0.0454158857465,0.0103768147528,0.0,23.6000003815,0.0017551129004816054,0.015189259446989964,0.003470506606287625,23.6000003815,0.0,0.015390725945674161,0.04688091548763233
1648218527237594970,38429,15,1,0.0334505960345,0.0146502861753,-0.0293980780989,0.0,23.6000003815,0.011187490312541805,0.0048997612626421405,-0.009832133143444815,23.6000003815,0.0,0.016562836092207215,0.04688091569061464
1648218527237736447,38430,15,2,1.73150098324,0.054206058383,-0.0882155895233,0.0,23.6000003815,0.5790973188093644,0.01812911651605351,-0.029503541646588628,23.6000003815,0.0,0.819167915735255,1.7345938838706456
1648218527237739333,38431,15,3,0.731617629528,-1.57197570801,0.0494364760816,0.0,23.6000003815,0.24468817041070234,-0.5257443839498328,0.01653393848882943,23.6000003815,0.0,0.6294058775803282,1.7345938854893608
1648218527237742710,38432,15,4,1.82366228104,-0.175803437829,0.399826943874,0.0,23.6000003815,0.6099204953311037,-0.05879713639765886,0.13372138591103677,23.6000003815,0.0,0.8645594973733403,1.8752366648207726
1648218527342632517,38433,16,0,0.00505680404603,0.0454158857465,0.0104712126777,0.0,16.7000007629,0.0016912388113812708,0.015189259446989964,0.0035020778186287626,16.7000007629,0.0,0.015376416356948017,0.04688091552263791
1648218527342641136,38434,16,1,0.0334505960345,0.0146502861753,-0.0293980780989,0.0,16.7000007629,0.011187490312541805,0.0048997612626421405,-0.009832133143444815,16.7000007629,0.0,0.016562836092207215,0.04688091569061464
1648218527342646373,38435,16,2,1.72545993328,0.054206058383,-0.169309452176,0.0,16.7000007629,0.5770769007625418,0.01812911651605351,-0.05662523484147156,16.7000007629,0.0,0.8163113154018224,1.7345938915827475
1648218527342658302,38436,16,3,0.930976629257,-1.46356356144,-0.00895562861115,0.0,16.7000007629,0.31136342115618726,-0.4894861409498327,-0.0029951935154347827,16.7000007629,0.0,0.6584003662287332,1.7345938965306786
1648218527342793048,38437,16,4,1.82160317898,-0.117202289402,0.429578483105,0.0,16.7000007629,0.6092318324347825,-0.03919809010100334,0.14367173347993312,16.7000007629,0.0,0.8624751251898527,1.8752365694647448
1648218527342797552,38438,16,5,2.0700776577,-1.19546329975,-0.046649903059,0.0,16.7000007629,0.6923336647826087,-0.39982050158862875,-0.015601974267224079,16.7000007629,0.0,1.0575954993631629,2.390926645343452
