%time,field.header.seq,field.header.frame_id,field.point_id,field.x,field.y,field.z,field.velocity,field.intensity,normalized_x,normalized_y,normalized_z,normalized_intensity,normalized_velocity,normalized_range,range
1648296031771087190,72489,0,0,0.0127217965201,0.0439508594573,0.010212643072,0.0,15.0,0.004254781444849498,0.014699284099431437,0.0034155996896321067,15.0,0.0,0.015883176109414296,0.046880915437416903
1648296031771096724,72490,0,1,0.033517640084,0.0146502861753,-0.0293216109276,0.0,15.0,0.011209913071571907,0.0048997612626421405,-0.009806558838662207,15.0,0.0,0.016593129981268932,0.04688091241868381
1648296031771103016,72491,0,2,2.24388742447,-1.2306240797,0.58557510376,0.0,15.0,0.7504640215618729,-0.4115799597658863,0.19584451630769228,15.0,0.0,1.1383279661848456,2.6253313317323617
1648296031771105446,72492,0,3,1.8020876646,-0.0,0.518644869328,-0.0809188112617,15.0,0.6027049045484949,-0.0,0.17345982251772574,15.0,-0.010934974494824324,0.8523534501212632,1.8752366387695554
1648296031876059172,72493,1,0,0.0127419224009,0.0439508594573,0.0101875215769,0.0,14.8000001907,0.004261512508662207,0.014699284099431437,0.0034071978518060196,14.8000001907,0.0,0.01588678478354783,0.04688091540686569
1648296031876069978,72494,1,1,0.033517640084,0.0146502861753,-0.0293216109276,0.0,14.8000001907,0.011209913071571907,0.0048997612626421405,-0.009806558838662207,14.8000001907,0.0,0.016593129981268932,0.04688091241868381
1648296031876077925,72495,1,2,1.91450464725,-0.120132349432,0.121556445956,0.0,14.8000001907,0.6403025576086956,-0.040178043288294316,0.040654329751170566,14.8000001907,0.0,0.9064154708095785,1.922117528996433
1648296031876082330,72496,1,3,2.24301290512,-1.2306240797,0.588915944099,0.0,14.8000001907,0.750171540173913,-0.4115799597658863,0.19696185421371237,14.8000001907,0.0,1.1379423283517887,2.625331313812859
1648296031876090306,72497,1,4,1.75544774532,-0.171408340335,0.481567025185,-0.323675245047,14.8000001907,0.5871062693377925,-0.05732720412541805,0.16105920574749163,14.8000001907,-0.04373989797932432,0.8322703595132525,1.828355656165124
1648296032071302688,72498,3,0,0.0127217965201,0.0439508594573,0.010212643072,0.0,26.2999992371,0.004254781444849498,0.014699284099431437,0.0034155996896321067,26.2999992371,0.0,0.015883176109414296,0.046880915437416903
1648296032071332306,72499,3,1,0.0335269682109,0.0146502861753,-0.0293109472841,0.0,26.2999992371,0.01121303284645485,0.0048997612626421405,-0.00980299240270903,26.2999992371,0.0,0.016597345319726262,0.046880914166899254
1648296032071340067,72500,3,2,1.89023923874,-0.180198520422,0.298429697752,0.0,26.2999992371,0.632187036367893,-0.06026706368628762,0.09980926346220735,26.2999992371,0.0,0.8960764570440439,1.9221176267166904
1648296032071344560,72501,3,3,2.24327278137,-1.2306240797,0.58792579174,0.0,26.2999992371,0.7502584553076922,-0.4115799597658863,0.1966306995785953,26.2999992371,0.0,1.1380569242363308,2.625331433127268
1648296032176166390,72502,4,0,0.0127217965201,0.0439508594573,0.010212643072,0.0,15.1000003815,0.004254781444849498,0.014699284099431437,0.0034155996896321067,15.1000003815,0.0,0.015883176109414296,0.046880915437416903
1648296032176192735,72503,4,1,0.0335404723883,0.0146502861753,-0.0292954929173,0.0,15.1000003815,0.011217549293745818,0.0048997612626421405,-0.009797823718160533,15.1000003815,0.0,0.016603447977637752,0.046880913795659694
1648296032176202656,72504,4,2,2.24052429199,-1.2306240797,0.598313987255,0.0,15.1000003815,0.749339228090301,-0.4115799597658863,0.2001050124598662,15.1000003815,0.0,1.1368450293645238,2.6253312849771433
1648296032176209303,72505,4,3,1.68197631836,-0.278355449438,0.516842842102,0.161837622523,15.1000003815,0.5625338857391304,-0.09309546803946488,0.17285713782675585,15.1000003815,0.021869948989594594,0.8009716046021963,1.7814748427041467
1648296032371142822,72506,6,0,0.0127217965201,0.0439508594573,0.010212643072,0.0,24.1000003815,0.004254781444849498,0.014699284099431437,0.0034155996896321067,24.1000003815,0.0,0.015883176109414296,0.046880915437416903
1648296032371150265,72507,6,1,0.0335269682109,0.0146502861753,-0.0293109472841,0.0,24.1000003815,0.01121303284645485,0.0048997612626421405,-0.00980299240270903,24.1000003815,0.0,0.016597345319726262,0.046880914166899254
1648296032371161810,72508,6,2,1.44982719421,-1.68478298187,0.744351089001,0.0,24.1000003815,0.4848920381973244,-0.5634725691872909,0.24894685250869564,24.1000003815,0.0,0.8875482598939831,2.344045889646059
1648296032371200867,72509,6,3,2.2423017025,-1.2306240797,0.591618359089,0.0,24.1000003815,0.7499336797658862,-0.4115799597658863,0.19786567193612037,24.1000003815,0.0,1.13762872299151,2.6253313759186727
1648296032371235992,72510,6,4,1.85768997669,-0.117202289402,0.22751685977,0.161837622523,24.1000003815,0.6213009955484949,-0.03919809010100334,0.07609259524080267,24.1000003815,0.021869948989594594,0.8795262045025539,1.875236611101427
1648296032476251603,72511,7,0,0.0127217965201,0.0439508594573,0.010212643072,0.0,30.7000007629,0.004254781444849498,0.014699284099431437,0.0034155996896321067,30.7000007629,0.0,0.015883176109414296,0.046880915437416903
1648296032476256067,72512,7,1,0.0335041433573,0.0146502861753,-0.0293370354921,0.0,30.7000007629,0.011205399116153847,0.0048997612626421405,-0.009811717555886288,30.7000007629,0.0,0.016587031052466603,0.046880914651800804
1648296032476258641,72513,7,2,2.24592852592,-1.2306240797,0.577697336674,0.0,30.7000007629,0.7511466641872909,-0.4115799597658863,0.1932098115966555,30.7000007629,0.0,1.1392281095198968,2.6253313661095983
1648296032476263564,72514,7,3,1.66429579258,-0.158223092556,0.231214061379,0.161837622523,30.7000007629,0.5566206664147156,-0.05291742225953177,0.0773291175180602,30.7000007629,0.021869948989594594,0.7889571510155148,1.687712941941504
1648296032671226282,72515,9,0,0.0127004906535,0.0439508594573,0.0102391270921,0.0,20.5,0.004247655736956521,0.014699284099431437,0.003424457221438127,20.5,0.0,0.01587936118221376,0.046880915450566385
1648296032671237759,72516,9,1,0.033517640084,0.0146502861753,-0.0293216109276,0.0,20.5,0.011209913071571907,0.0048997612626421405,-0.009806558838662207,20.5,0.0,0.016593129981268932,0.04688091241868381
1648296032671267261,72517,9,2,1.50066769123,-1.68478298187,0.635652601719,0.0,20.5,0.5018955489063545,-0.5634725691872909,0.21259284338428092,20.5,0.0,0.9062558249470996,2.344045956369559
1648296032671273031,72518,9,3,2.19906830788,-1.31266570091,0.577383697033,0.0,20.5,0.7354743504615384,-0.4390186290668896,0.19310491539565214,20.5,0.0,1.1289740462213536,2.6253313312165463
1648296032671278904,72519,9,4,1.91693782806,-0.120132349432,0.0738477408886,-0.242756426334,20.5,0.6411163304548495,-0.040178043288294316,0.02469824109986622,20.5,-0.03280492247756756,0.9075651896774466,1.922117558023388
1648296032671307717,72520,9,5,1.93129980564,-0.184593603015,0.336096972227,-0.0809188112617,20.5,0.645919667438127,-0.06173699097491638,0.11240701412274247,20.5,-0.010934974494824324,0.9155522320552761,1.9689984541079044
1648296032776247669,72521,10,0,0.0127217965201,0.0439508594573,0.010212643072,0.0,11.6000003815,0.004254781444849498,0.014699284099431437,0.0034155996896321067,11.6000003815,0.0,0.015883176109414296,0.046880915437416903
1648296032776257072,72522,10,1,0.0335041433573,0.0146502861753,-0.0293370354921,0.0,11.6000003815,0.011205399116153847,0.0048997612626421405,-0.009811717555886288,11.6000003815,0.0,0.016587031052466603,0.046880914651800804
1648296032776262700,72523,10,2,2.24606585503,-1.2306240797,0.577163040638,0.0,11.6000003815,0.7511925936555183,-0.4115799597658863,0.1930311172702341,11.6000003815,0.0,1.1392886766779953,2.625331336450243
1648296032971299269,72524,12,0,0.0127004906535,0.0439508594573,0.0102391270921,0.0,15.3000001907,0.004247655736956521,0.014699284099431437,0.003424457221438127,15.3000001907,0.0,0.01587936118221376,0.046880915450566385
1648296032971309431,72525,12,1,0.033517640084,0.0146502861753,-0.0293216109276,0.0,15.3000001907,0.011209913071571907,0.0048997612626421405,-0.009806558838662207,15.3000001907,0.0,0.016593129981268932,0.04688091241868381
1648296032971402292,72526,12,2,1.82073128223,-0.114272229373,0.121506661177,0.0,15.3000001907,0.6089402281705685,-0.03821813691404682,0.04063767932341137,15.3000001907,0.0,0.8620191581154266,1.8283556582916676
1648296032971412343,72527,12,3,1.88886880875,-0.120132349432,0.33508002758,0.0,15.3000001907,0.6317286985785953,-0.040178043288294316,0.11206689885618729,15.3000001907,0.0,0.8943022824403879,1.922117525785484
1648296032971414939,72528,12,4,2.24695324898,-1.2306240797,0.573699295521,0.0,15.3000001907,0.7514893809297659,-0.4115799597658863,0.19187267408729095,15.3000001907,0.0,1.1396800615002853,2.6253314857976586
1648296033076242914,72529,13,0,0.0127419224009,0.0439508594573,0.0101875215769,0.0,15.3999996185,0.004261512508662207,0.014699284099431437,0.0034071978518060196,15.3999996185,0.0,0.01588678478354783,0.04688091540686569
1648296033076261880,72530,13,1,0.0335041433573,0.0146502861753,-0.0293370354921,0.0,15.3999996185,0.011205399116153847,0.0048997612626421405,-0.009811717555886288,15.3999996185,0.0,0.016587031052466603,0.046880914651800804
1648296033076265910,72531,13,2,2.24391412735,-1.2306240797,0.585472762585,0.0,15.3999996185,0.7504729522909699,-0.4115799597658863,0.19581028848996654,15.3999996185,0.0,1.1383397416946917,2.6253313299824264
1648296033076276542,72532,13,3,1.90493500233,-0.0600661747158,0.249299809337,0.0809188112617,15.3999996185,0.6371020074682274,-0.020089021644080267,0.08337786265451504,15.3999996185,0.010934974494824324,0.9012222282160527,1.922117505092353
1648296033271121961,72533,15,0,0.0127217965201,0.0439508594573,0.010212643072,0.0,16.0,0.004254781444849498,0.014699284099431437,0.0034155996896321067,16.0,0.0,0.015883176109414296,0.046880915437416903
1648296033271139664,72534,15,1,0.0335269682109,0.0146502861753,-0.0293109472841,0.0,16.0,0.01121303284645485,0.0048997612626421405,-0.00980299240270903,16.0,0.0,0.016597345319726262,0.046880914166899254
1648296033271152627,72535,15,2,2.2444498539,-1.2306240797,0.583415985107,0.0,16.0,0.7506521250501672,-0.4115799597658863,0.19512240304581938,16.0,0.0,1.1385759917394853,2.625331404582586
1648296033271170234,72536,15,3,1.81806612015,-0.117202289402,0.444309800863,0.0809188112617,16.0,0.6080488696153845,-0.03919809010100334,0.1485985956063545,16.0,0.010934974494824324,0.8608038951751207,1.8752365165549818
