%time,field.header.seq,field.header.frame_id,field.point_id,field.x,field.y,field.z,field.velocity,field.intensity,normalized_x,normalized_y,normalized_z,normalized_intensity,normalized_velocity,normalized_range,range
1648127771186304150,128666,0,0,0.0125831468031,0.0439508594573,0.0103829959407,0.0,12.8999996185,0.0042084103020401335,0.014699284099431437,0.003472573893210702,12.8999996185,0.0,0.015858448460566152,0.04688091546896556
1648127771186353330,128667,0,1,0.0328981243074,0.0146502861753,-0.0300150439143,0.0,12.8999996185,0.011002717159665552,0.0048997612626421405,-0.010038476225518393,12.8999996185,0.0,0.016313406456717926,0.04688091647078464
1648127771186385621,128668,0,2,1.35951268673,-0.0,-0.0095922742039,0.0,12.8999996185,0.45468651730100335,-0.0,-0.0032081184628428095,12.8999996185,0.0,0.6430238393952679,1.3595465262741933
1648127771186389089,128669,0,3,1.85857105255,-1.31852579117,0.549321889877,0.0,12.8999996185,0.6215956697491639,-0.44097852547491634,0.1837196956110368,12.8999996185,0.0,0.9834756800408715,2.3440458950403102
1648127771186402881,128670,0,4,2.4007704258,-0.984499275684,0.399283528328,0.0,12.8999996185,0.8029332527759198,-0.32926397180066885,0.1335396415812709,12.8999996185,0.0,1.1822936944569187,2.6253313690298774
1648127771186405347,128671,0,5,1.43599426746,0.328166425228,0.284245043993,0.161837622523,12.8999996185,0.4802656412909698,0.10975465726688963,0.09506523210468226,12.8999996185,0.021869948989594594,0.6880089077919161,1.500189316006313
1648127771291171592,128672,1,0,0.0126038333401,0.0439508594573,0.0103578744456,0.0,34.5,0.004215328876287625,0.014699284099431437,0.003464172055384615,34.5,0.0,0.01586212306427883,0.04688091535935669
1648127771291174667,128673,1,1,0.0328981243074,0.0146502861753,-0.0300150439143,0.0,34.5,0.011002717159665552,0.0048997612626421405,-0.010038476225518393,34.5,0.0,0.016313406456717926,0.04688091647078464
1648127771291180444,128674,1,2,1.34732174873,-0.0,0.18190908432,0.0,34.5,0.4506092805117056,-0.0,0.0608391586354515,34.5,0.0,0.6372577558308364,1.3595465455654712
1648127771291209642,128675,1,3,1.86691129208,-1.31852579117,0.520272374153,0.0,34.5,0.6243850475183946,-0.44097852547491634,0.17400413851270902,34.5,0.0,0.987003259902989,2.344045941909648
1648127771291224903,128676,1,4,2.43195104599,-0.902457654476,0.404412299395,0.0,34.5,0.8133615538428093,-0.30182530250033446,0.13525494963043477,34.5,0.0,1.1892066884140018,2.6253314107205834
1648127771291314169,128677,1,5,1.24466335773,-0.0,0.65486741066,0.0809188112617,34.5,0.4162753704782608,-0.0,0.2190192008896321,34.5,0.010934974494824324,0.5887022746122411,1.4064274597789432
1648127771291316560,128678,1,6,1.47649466991,0.43511351943,0.155132815242,0.242756426334,34.5,0.49381092639130425,0.1455229161973244,0.05188388469632107,34.5,0.03280492247756756,0.7133550176352934,1.5470702878112257
1648127771486279227,128679,3,0,0.0125890737399,0.0439508594573,0.0103758089244,0.0,35.9000015259,0.004210392555150501,0.014699284099431437,0.003470170208829431,35.9000015259,0.0,0.01585950074790286,0.0468809154720728
1648127771486283616,128680,3,1,0.0328981243074,0.0146502861753,-0.0300150439143,0.0,35.9000015259,0.011002717159665552,0.0048997612626421405,-0.010038476225518393,35.9000015259,0.0,0.016313406456717926,0.04688091647078464
1648127771486284824,128681,3,2,1.35831177235,0.0424858294427,0.0393815524876,0.0,35.9000015259,0.4542848736956521,0.01420930750591973,0.013171087788494983,35.9000015259,0.0,0.6426129452144167,1.3595465506132425
1648127771486289323,128682,3,3,1.8721562624,-1.31852579117,0.501070797443,0.0,35.9000015259,0.6261392181939799,-0.44097852547491634,0.16758220650267558,35.9000015259,0.0,0.9892232816968918,2.344045920385131
1648127771486291607,128683,3,4,2.42752957344,-0.902457654476,0.430157601833,0.0,35.9000015259,0.8118828004816053,-0.30182530250033446,0.14386541867324415,35.9000015259,0.0,1.1871840112910579,2.6253314477343292
1648127771486296933,128684,3,5,1.40149188042,-0.13624766469,0.359669446945,0.0809188112617,35.9000015259,0.46872638141137124,-0.04556778083277591,0.12029078493143813,35.9000015259,0.010934974494824324,0.6644435746638088,1.4533083045528876
1648127771486298434,128685,3,6,1.38199031353,0.73837441206,0.62712097168,0.566431701183,35.9000015259,0.46220411823745816,0.24694796389966553,0.20973945541137123,35.9000015259,0.07654482448418919,0.6987478734890883,1.6877128642623325
1648127771591264683,128686,4,0,0.0125934295356,0.0439508594573,0.0103705218062,0.0,24.7999992371,0.004211849343010033,0.014699284099431437,0.0034684019418729094,24.7999992371,0.0,0.01586027436119016,0.046880915488462134
1648127771591271519,128687,4,1,0.0328737124801,0.0146502861753,-0.0300417765975,0.0,24.7999992371,0.010994552668929765,0.0048997612626421405,-0.010047416922240803,24.7999992371,0.0,0.016302393603720582,0.04688091507614338
1648127771591279042,128688,4,2,1.35812175274,-0.0,0.0622252747416,0.0,24.7999992371,0.4542213219866221,-0.0,0.0208111286761204,24.7999992371,0.0,0.6423659538725174,1.3595464979478404
1648127771591283522,128689,4,3,1.86490559578,-1.31852579117,0.527416646481,0.0,24.7999992371,0.6237142460802675,-0.44097852547491634,0.17639352725117055,24.7999992371,0.0,0.9861546437841199,2.3440459599029397
1648127771591298606,128690,4,4,2.43218278885,-0.902457654476,0.403015822172,0.0,24.7999992371,0.8134390598160535,-0.30182530250033446,0.13478790039197322,24.7999992371,0.0,1.189312709634547,2.625331348500882
1648127771591505414,128691,4,5,1.44909286499,-0.234404578805,0.309438973665,0.0809188112617,24.7999992371,0.4846464431404682,-0.07839618020234114,0.10349129554013377,24.7999992371,0.010934974494824324,0.6898625303404528,1.500189360165084
1648127771591508643,128692,4,6,1.27908957005,-0.580151319504,0.648676276207,0.404594063759,24.7999992371,0.42778915386287625,-0.19403054164013378,0.21694858736020065,24.7999992371,0.05467487348094594,0.6353384699627396,1.547070325824494
1648127771786250065,128693,6,0,0.0125934295356,0.0439508594573,0.0103705218062,0.0,29.2000007629,0.004211849343010033,0.014699284099431437,0.0034684019418729094,29.2000007629,0.0,0.01586027436119016,0.046880915488462134
1648127771786364945,128694,6,1,0.0328981243074,0.0146502861753,-0.0300150439143,0.0,29.2000007629,0.011002717159665552,0.0048997612626421405,-0.010038476225518393,29.2000007629,0.0,0.016313406456717926,0.04688091647078464
1648127771786369201,128695,6,2,1.43888163567,0.241729736328,0.514405488968,0.0,29.2000007629,0.48123131627759197,0.08084606566153846,0.17204196955451503,29.2000007629,0.0,0.6853489956697079,1.5470703390518437
1648127771786372129,128696,6,3,1.87830376625,-1.31852579117,0.47751006484,0.0,29.2000007629,0.6281952395484949,-0.44097852547491634,0.15970236282274247,29.2000007629,0.0,0.9918268890853953,2.3440458959484793
1648127771786373674,128697,6,4,2.41346168518,-0.902457654476,0.503127634525,0.0,29.2000007629,0.8071778211304348,-0.30182530250033446,0.1682701118812709,29.2000007629,0.0,1.1807500087144487,2.6253313201531214
1648127771786375940,128698,6,5,1.35878562927,0.0424858294427,0.0162287186831,0.0809188112617,29.2000007629,0.454443354270903,0.01420930750591973,0.005427665111404681,29.2000007629,0.010934974494824324,0.6428370158148772,1.3595465432724985
1648127771786377265,128699,6,6,1.38931131363,0.046880915761,0.564078330994,0.0809188112617,29.2000007629,0.46465261325418056,0.015679236040468225,0.18865496019866218,29.2000007629,0.010934974494824324,0.6573050588963171,1.5001893580278067
1648127771891361014,128700,7,0,0.0125726731494,0.0439508594573,0.0103956768289,0.0,19.2999992371,0.004204907407826087,0.014699284099431437,0.0034768149929431435,19.2999992371,0.0,0.01585658997554579,0.04688091566818964
1648127771891375771,128701,7,1,0.0328101180494,0.0146502861753,-0.0301112178713,0.0,19.2999992371,0.010973283628561871,0.0048997612626421405,-0.010070641428528428,19.2999992371,0.0,0.016273707863195052,0.046880914806844864
1648127771891395611,128702,7,2,1.86445128918,-1.31852579117,0.529020547867,0.0,19.2999992371,0.6235623040735786,-0.44097852547491634,0.176929949119398,19.2999992371,0.0,0.985962450630414,2.3440459918207535
1648127771891515783,128703,7,3,2.42780470848,-0.902457654476,0.428601980209,0.0,19.2999992371,0.8119748188896321,-0.30182530250033446,0.1433451438826087,19.2999992371,0.0,1.187309869516429,2.625331441566771
1648127771891520178,128704,7,4,1.35918176174,-0.0,0.0314923934639,0.0809188112617,19.2999992371,0.45457584004682267,-0.0,0.010532573064849499,19.2999992371,0.010934974494824324,0.6428673181213593,1.3595465539262475
1648127771891522070,128705,7,5,1.45474183559,0.241729736328,0.467674195766,-0.0809188112617,19.2999992371,0.4865357309665551,0.08084606566153846,0.1564127745036789,19.2999992371,-0.010934974494824324,0.6927987596317345,1.547070207529814
1648127772086247220,128706,9,0,0.0125934295356,0.0439508594573,0.0103705218062,0.0,17.2999992371,0.004211849343010033,0.014699284099431437,0.0034684019418729094,17.2999992371,0.0,0.01586027436119016,0.046880915488462134
1648127772086258839,128707,9,1,0.0328981243074,0.0146502861753,-0.0300150439143,0.0,17.2999992371,0.011002717159665552,0.0048997612626421405,-0.010038476225518393,17.2999992371,0.0,0.016313406456717926,0.04688091647078464
1648127772086345504,128708,9,2,1.35934221745,-0.0,-0.0235710535198,0.0,17.2999992371,0.4546295041638796,-0.0,-0.007883295491571905,17.2999992371,0.0,0.642943210643514,1.3595465636402149
1648127772086349146,128709,9,3,1.86579477787,-1.31852579117,0.52426224947,0.0,17.2999992371,0.6240116313946488,-0.44097852547491634,0.17533854497324414,17.2999992371,0.0,0.9865308369035676,2.3440459298671565
1648127772086352124,128710,9,4,2.39382529259,-0.984499275684,0.439005613327,0.0,17.2999992371,0.8006104657491638,-0.32926397180066885,0.146824619841806,17.2999992371,0.0,1.1791390922449045,2.625331271249123
1648127772086353820,128711,9,5,1.38181638718,0.193383783102,0.668290793896,-0.161837622523,17.2999992371,0.46214594888963206,0.06467685053578595,0.22350862672107022,17.2999992371,-0.021869948989594594,0.6567654460653554,1.547070263644213
1648127772191297712,128712,10,0,0.0126038333401,0.0439508594573,0.0103578744456,0.0,35.2000007629,0.004215328876287625,0.014699284099431437,0.003464172055384615,35.2000007629,0.0,0.01586212306427883,0.04688091535935669
1648127772191304236,128713,10,1,0.0328981243074,0.0146502861753,-0.0300150439143,0.0,35.2000007629,0.011002717159665552,0.0048997612626421405,-0.010038476225518393,35.2000007629,0.0,0.016313406456717926,0.04688091647078464
1648127772191430265,128714,10,2,1.35854125023,0.0424858294427,-0.0304520782083,0.0,35.2000007629,0.45436162215050163,0.01420930750591973,-0.010184641541237457,35.2000007629,0.0,0.6427214573874659,1.359546506503963
1648127772191433850,128715,10,3,1.49033105373,-0.0483459457755,0.412313818932,0.0,35.2000007629,0.4984384795083612,-0.016169212633946488,0.13789759830501672,35.2000007629,0.0,0.7050838809293656,1.5470703492301796
1648127772191443270,128716,10,4,1.86422336102,-1.31852579117,0.529822826385,0.0,35.2000007629,0.6234860739197324,-0.44097852547491634,0.17719826969397992,35.2000007629,0.0,0.9858660297797646,2.344045910197104
1648127772191448985,128717,10,5,2.41420602798,-0.902457654476,0.499543964863,0.0,35.2000007629,0.8074267652107023,-0.30182530250033446,0.1670715601548495,35.2000007629,0.0,1.181090375706557,2.6253313574648702
1648127772191452018,128718,10,6,1.36385703087,0.234404578805,0.579237937927,-0.0809188112617,35.2000007629,0.4561394752073578,0.07839618020234114,0.19372506285183944,35.2000007629,-0.010934974494824324,0.6498249016121231,1.500189353365836
