%time,field.header.seq,field.header.frame_id,field.point_id,field.x,field.y,field.z,field.velocity,field.intensity,normalized_x,normalized_y,normalized_z,normalized_intensity,normalized_velocity,normalized_range,range
1648295805572316114,66079,0,0,0.0127100823447,0.0439508594573,0.0102272182703,0.0,15.8999996185,0.004250863660434782,0.014699284099431437,0.003420474337892977,15.8999996185,0.0,0.01588107794688408,0.04688091545386831
1648295805572327145,66080,0,1,0.0335041433573,0.0146502861753,-0.0293370354921,0.0,15.8999996185,0.011205399116153847,0.0048997612626421405,-0.009811717555886288,15.8999996185,0.0,0.016587031052466603,0.046880914651800804
1648295805572360390,66081,0,2,0.451138198376,-0.0,1.03073704243,0.0,15.8999996185,0.15088234059397992,-0.0,0.34472810783612035,15.8999996185,0.0,0.213379852390603,1.1251420020029856
1648295805572364776,66082,0,3,1.92207050323,-0.0,-0.0134522281587,0.0,15.8999996185,0.6428329442240802,-0.0,-0.0044990729627759195,15.8999996185,0.0,0.9091030680619216,1.922117577524658
1648295805572409391,66083,0,4,2.24301552773,-1.2306240797,0.588906109333,0.0,15.8999996185,0.7501724173010033,-0.4115799597658863,0.19695856499431438,15.8999996185,0.0,1.1379434848178314,2.6253313483796847
1648295805767409165,66084,2,0,0.0126802325249,0.0439508594573,0.0102642038837,0.0,15.8000001907,0.004240880443110368,0.014699284099431437,0.0034328441082608695,15.8000001907,0.0,0.015875738940323687,0.0468809153631521
1648295805767435216,66085,2,1,0.0335041433573,0.0146502861753,-0.0293370354921,0.0,15.8000001907,0.011205399116153847,0.0048997612626421405,-0.009811717555886288,15.8000001907,0.0,0.016587031052466603,0.046880914651800804
1648295805767438088,66086,2,2,0.438160806894,-0.0,1.0363202095,0.0,15.8000001907,0.14654207588428092,-0.0,0.3465953877926421,15.8000001907,0.0,0.20724179117385735,1.1251419774037963
1648295805767519545,66087,2,3,1.91232740879,-0.120132349432,-0.152012869716,0.0,15.8000001907,0.6395743842107022,-0.040178043288294316,-0.0508404246541806,15.8000001907,0.0,0.9053866914415486,1.9221175334377503
1648295805767523012,66088,2,4,2.24076628685,-1.2306240797,0.597407281399,0.0,15.8000001907,0.7494201628260869,-0.4115799597658863,0.1998017663541806,15.8000001907,0.0,1.1369517246486087,2.625331338648429
1648295805872468080,66089,3,0,0.0127016305923,0.0439508594573,0.0102377133444,0.0,15.8999996185,0.0042480369873913034,0.014699284099431437,0.0034239843961204014,15.8999996185,0.0,0.01587956515551629,0.04688091553351634
1648295805872470753,66090,3,1,0.0335269682109,0.0146502861753,-0.0293109472841,0.0,15.8999996185,0.01121303284645485,0.0048997612626421405,-0.00980299240270903,15.8999996185,0.0,0.016597345319726262,0.046880914166899254
1648295805872472623,66091,3,2,1.91667222977,-0.0600661747158,0.13151307404,0.0,15.8999996185,0.6410275015953177,-0.020089021644080267,0.043984305698996654,15.8999996185,0.0,0.9067723443035117,1.922117600554124
1648295805872478904,66092,3,3,2.24065566063,-1.2306240797,0.597822785378,0.0,15.8999996185,0.7493831640903009,-0.4115799597658863,0.19994073089565217,15.8999996185,0.0,1.136902949474963,2.6253315024521844
1648295805872487520,66093,3,4,1.72972083092,-0.108412116766,-0.0716147497296,-0.647350490093,15.8999996185,0.5785019501404682,-0.03625823303210702,-0.02395142131424749,15.8999996185,-0.08747979595851352,0.8189283681099709,1.7345939041629004
1648295806067490014,66094,5,0,0.0127004906535,0.0439508594573,0.0102391270921,0.0,22.7999992371,0.004247655736956521,0.014699284099431437,0.003424457221438127,22.7999992371,0.0,0.01587936118221376,0.046880915450566385
1648295806067511680,66095,5,1,0.0335041433573,0.0146502861753,-0.0293370354921,0.0,22.7999992371,0.011205399116153847,0.0048997612626421405,-0.009811717555886288,22.7999992371,0.0,0.016587031052466603,0.046880914651800804
1648295806067639846,66096,5,2,2.24207520485,-1.2306240797,0.592475831509,0.0,22.7999992371,0.7498579280434782,-0.4115799597658863,0.19815245200969897,22.7999992371,0.0,1.137528851405627,2.6253313049333262
1648295806067669781,66097,5,3,1.90988492966,-0.0600661747158,0.208008125424,0.0809188112617,22.7999992371,0.6387575015585284,-0.020089021644080267,0.06956793492441471,22.7999992371,0.010934974494824324,0.9035628701895642,1.9221175224553202
1648295806067678620,66098,5,4,1.02866470814,-0.487854540348,-1.3086874485,-0.647350490093,22.7999992371,0.344035019444816,-0.16316205362809363,-0.4376881098662207,22.7999992371,-0.08747979595851352,0.5131686320820154,1.734593892578995
1648295806067710507,66099,5,5,1.59848988056,0.162618175149,0.6536064744,-0.647350490093,22.7999992371,0.5346120001872909,0.05438734954816053,0.21859748307692306,22.7999992371,-0.08747979595851352,0.7580092118697408,1.734593898443988
1648295806067767043,66100,5,6,1.87142038345,-0.117202289402,0.0237023718655,-0.0809188112617,22.7999992371,0.6258931048327759,-0.03919809010100334,0.007927214670735786,22.7999992371,-0.010934974494824324,0.8860140222490787,1.875236633245326
1648295806172624718,66101,6,0,0.0126887271181,0.0439508594573,0.0102537022904,0.0,16.7000007629,0.004243721444180602,0.014699284099431437,0.0034293318696989963,16.7000007629,0.0,0.015877257207319986,0.046880915664832074
1648295806172626965,66102,6,1,0.0335134975612,0.0146502861753,-0.0293263476342,0.0,16.7000007629,0.01120852761244147,0.0048997612626421405,-0.009808143021471571,16.7000007629,0.0,0.016591258026702325,0.04688091370019032
1648295806172629566,66103,6,2,2.24180197716,-1.2306240797,0.593509078026,0.0,16.7000007629,0.7497665475451505,-0.4115799597658863,0.19849801940668893,16.7000007629,0.0,1.1374083764929979,2.6253313611876177
1648295806172637703,66104,6,3,1.08273637295,-0.271030306816,-1.32779538631,-0.323675245047,16.7000007629,0.36211918827759193,-0.09064558756387958,-0.44407872451839464,16.7000007629,-0.04373989797932432,0.5200742596807163,1.7345939203248173
1648295806172643732,66105,6,4,1.63503789902,0.37944239378,0.437596559525,-0.323675245047,16.7000007629,0.5468354177324415,0.12690381062876252,0.1463533643896321,16.7000007629,-0.04373989797932432,0.7836852208159398,1.7345939612305092
1648295806172648138,66106,6,5,1.86563587189,-0.175803437829,-0.0707707852125,-0.0809188112617,16.7000007629,0.6239584855819397,-0.05879713639765886,-0.02366915893394649,16.7000007629,-0.010934974494824324,0.8843672804372514,1.875236667536887
1648295806367478196,66107,8,0,0.0127100823447,0.0439508594573,0.0102272182703,0.0,14.1000003815,0.004250863660434782,0.014699284099431437,0.003420474337892977,14.1000003815,0.0,0.01588107794688408,0.04688091545386831
1648295806367521359,66108,8,1,0.0335269682109,0.0146502861753,-0.0293109472841,0.0,14.1000003815,0.01121303284645485,0.0048997612626421405,-0.00980299240270903,14.1000003815,0.0,0.016597345319726262,0.046880914166899254
1648295806367525894,66109,8,2,0.451138198376,-0.0,1.03073704243,0.0,14.1000003815,0.15088234059397992,-0.0,0.34472810783612035,14.1000003815,0.0,0.213379852390603,1.1251420020029856
1648295806367527711,66110,8,3,1.86936926842,-0.0586011447012,0.13614988327,0.0,14.1000003815,0.6252071131839465,-0.019599045050568562,0.0455350780167224,14.1000003815,0.0,0.8843935726352281,1.8752366108275116
1648295806367530259,66111,8,4,2.24085259438,-1.2306240797,0.59708404541,0.0,14.1000003815,0.7494490282207358,-0.4115799597658863,0.1996936606722408,14.1000003815,0.0,1.1369897779148672,2.625331470988039
1648295806472427185,66112,9,0,0.0127016305923,0.0439508594573,0.0102377133444,0.0,15.1000003815,0.0042480369873913034,0.014699284099431437,0.0034239843961204014,15.1000003815,0.0,0.01587956515551629,0.04688091553351634
1648295806472435525,66113,9,1,0.0335269682109,0.0146502861753,-0.0293109472841,0.0,15.1000003815,0.01121303284645485,0.0048997612626421405,-0.00980299240270903,15.1000003815,0.0,0.016597345319726262,0.046880914166899254
1648295806472439815,66114,9,2,0.451138198376,-0.0,1.03073704243,0.0,15.1000003815,0.15088234059397992,-0.0,0.34472810783612035,15.1000003815,0.0,0.213379852390603,1.1251420020029856
1648295806472446228,66115,9,3,1.8624958992,-0.117202289402,0.18407830596,0.0,15.1000003815,0.6229083274916387,-0.03919809010100334,0.06156465082274247,15.1000003815,0.0,0.8817970623586969,1.8752365647840248
1648295806472586029,66116,9,4,2.24123835564,-1.2306240797,0.595634460449,0.0,15.1000003815,0.7495780453645485,-0.4115799597658863,0.19920884964849497,15.1000003815,0.0,1.137159863636579,2.625331484366067
1648295806667428649,66117,11,0,0.0127121871337,0.0439508594573,0.0102246021852,0.0,15.3999996185,0.004251567603244147,0.014699284099431437,0.003419599393043478,15.3999996185,0.0,0.01588145482018912,0.04688091550517269
1648295806667433368,66118,11,1,0.0335041433573,0.0146502861753,-0.0293370354921,0.0,15.3999996185,0.011205399116153847,0.0048997612626421405,-0.009811717555886288,15.3999996185,0.0,0.016587031052466603,0.046880914651800804
1648295806667436370,66119,11,2,1.83754622936,-0.0,0.374080359936,0.0,15.3999996185,0.6145639563076922,-0.0,0.1251104882729097,15.3999996185,0.0,0.8691246819560046,1.8752365879336401
1648295806667445766,66120,11,3,2.24001765251,-1.2306240797,0.600208520889,0.0,15.3999996185,0.7491697834481605,-0.4115799597658863,0.2007386357488294,15.3999996185,0.0,1.1366216574324177,2.6253314033930355
1648295806772373396,66121,12,0,0.0127217965201,0.0439508594573,0.010212643072,0.0,15.1999998093,0.004254781444849498,0.014699284099431437,0.0034155996896321067,15.1999998093,0.0,0.015883176109414296,0.046880915437416903
1648295806772378880,66122,12,1,0.0334416292608,0.0146502861753,-0.0294082760811,0.0,15.1999998093,0.011184491391571906,0.0048997612626421405,-0.009835543839832775,15.1999998093,0.0,0.016558784852977005,0.04688091461028868
1648295806772384621,66123,12,2,1.83825600147,0.0586011447012,0.365913897753,0.0,15.1999998093,0.6148013382842809,0.019599045050568562,0.12237923001772574,15.1999998093,0.0,0.8696812598183197,1.8752365721875084
1648295806772392044,66124,12,3,2.23785853386,-1.2306240797,0.608209371567,0.0,15.1999998093,0.7484476701872909,-0.4115799597658863,0.20341450554080265,15.1999998093,0.0,1.1356697994128646,2.625331423414847
1648295806772394998,66125,12,4,1.96089804173,-0.061531201005,0.167474687099,0.0809188112617,15.1999998093,0.6558187430535116,-0.020578996991638794,0.05601160103645485,15.1999998093,0.010934974494824324,0.927696039981716,1.9689984737364765
1648295806967377552,66126,14,0,0.0126898419112,0.0439508594573,0.0102523220703,0.0,16.3999996185,0.004244094284682274,0.014699284099431437,0.0034288702576254176,16.3999996185,0.0,0.015877456522703608,0.046880915547797754
1648295806967379615,66127,14,1,0.0334790125489,0.0146502861753,-0.0293657127768,0.0,16.3999996185,0.011196994163511704,0.0048997612626421405,-0.009821308621003345,16.3999996185,0.0,0.016575675462143884,0.04688091566039538
1648295806967385770,66128,14,2,2.2403793335,-1.2306240797,0.598856508732,0.0,16.3999996185,0.7492907469899664,-0.4115799597658863,0.20028645776989967,16.3999996185,0.0,1.1367811180391996,2.6253312746322237
1648295806967390384,66129,14,3,1.8405983448,-0.0,0.358761936426,0.0809188112617,16.3999996185,0.6155847307023411,-0.0,0.1199872697076923,16.3999996185,0.010934974494824324,0.8705682749490402,1.8752366234447944
1648295807072401280,66130,15,0,0.0127004906535,0.0439508594573,0.0102391270921,0.0,24.0,0.004247655736956521,0.014699284099431437,0.003424457221438127,24.0,0.0,0.01587936118221376,0.046880915450566385
1648295807072405710,66131,15,1,0.033492513001,0.0146502861753,-0.029350310564,0.0,24.0,0.011201509364882942,0.0048997612626421405,-0.009816157379264213,24.0,0.0,0.01658177567493931,0.04688091341200158
1648295807072407993,66132,15,2,1.92156708241,-0.0,-0.0459989607334,0.0,24.0,0.6426645760568561,-0.0,-0.015384267803812707,24.0,0.0,0.9088649595163614,1.9221175709592357
1648295807072411998,66133,15,3,2.24097061157,-1.2306240797,0.596640884876,0.0,24.0,0.7494884988528427,-0.4115799597658863,0.19954544644682273,24.0,0.0,1.1370418123825807,2.6253314558286744
