%time,field.header.seq,field.header.frame_id,field.point_id,field.x,field.y,field.z,field.velocity,field.intensity,normalized_x,normalized_y,normalized_z,normalized_intensity,normalized_velocity,normalized_range,range
1648219255550393915,67996,0,0,0.00565798487514,0.0454158857465,0.0101589746773,0.0,12.3000001907,0.0018923026338260869,0.015189259446989964,0.0033976503937458193,12.3000001907,0.0,0.015423203981791337,0.046880915493199116
1648219255550401121,67997,0,1,0.0334842801094,0.0146502861753,-0.0293597038835,0.0,12.3000001907,0.011198755889431438,0.0048997612626421405,-0.009819298957692306,12.3000001907,0.0,0.016578055596873812,0.046880914150534136
1648219255550405099,67998,0,2,0.911132693291,1.46356356144,0.19140252471,0.0809188112617,12.3000001907,0.3047266532745819,0.4894861409498327,0.06401422231103679,12.3000001907,0.010934974494824324,0.6521605236548852,1.7345939033745075
1648219255655523370,67999,1,0,0.0122110880911,0.0439508594573,0.0108181107789,0.0,19.7000007629,0.004083975950200668,0.014699284099431437,0.0036180972504682276,19.7000007629,0.0,0.01579324767612516,0.046880915522507595
1648219255655526960,68000,1,1,0.0334981679916,0.0146502861753,-0.0293438583612,0.0,19.7000007629,0.011203400666086955,0.0048997612626421405,-0.009813999451906355,19.7000007629,0.0,0.016584330960296344,0.04688091474506239
1648219255655528717,68001,1,2,1.92117869854,0.0600661747158,0.000471167149954,0.0,19.7000007629,0.6425346817859531,0.020089021644080267,0.00015758098660668894,19.7000007629,0.0,0.908903297048794,1.9221175195776454
1648219255655530502,68002,1,3,1.07638382912,1.50165438652,-0.530064105988,0.0,19.7000007629,0.3599945916789298,0.5022255473311037,-0.1772789652133779,19.7000007629,0.0,0.7151382471020449,1.9221175824081755
1648219255655533814,68003,1,4,2.01238536835,0.451228827238,0.0409581661224,-0.0809188112617,19.7000007629,0.6730385847324414,0.15091265125016723,0.013698383318528426,19.7000007629,-0.010934974494824324,0.9637097599301617,2.0627602615553404
1648219255850379641,68004,3,0,0.00558340921998,0.0454158857465,0.0102001521736,0.0,11.6999998093,0.0018673609431371235,0.015189259446989964,0.0034114221316387957,11.6999998093,0.0,0.01541712282924028,0.04688091553096522
1648219255850387151,68005,3,1,0.0334842801094,0.0146502861753,-0.0293597038835,0.0,11.6999998093,0.011198755889431438,0.0048997612626421405,-0.009819298957692306,11.6999998093,0.0,0.016578055596873812,0.046880914150534136
1648219255850390232,68006,3,2,0.823857545853,1.51776957512,0.162635549903,0.0,11.6999998093,0.27553764075351167,0.5076152425150501,0.05439316050267558,11.6999998093,0.0,0.6399337601483732,1.7345939182157664
1648219255850392415,68007,3,3,2.10446739197,-1.12074685097,-0.177970036864,0.0,11.6999998093,0.7038352481505017,-0.3748317227324415,-0.05952175145953177,11.6999998093,0.0,1.0636103297000865,2.390926565548503
1648219255850394461,68008,3,4,1.85878682137,0.117202289402,0.218374311924,-0.0809188112617,11.6999998093,0.6216678332341137,0.03919809010100334,0.07303488693110367,11.6999998093,-0.010934974494824324,0.8800444761621777,1.875236562156396
1648219255955405281,68009,4,0,0.00558724580333,0.0454158857465,0.0101980511099,0.0,14.3999996185,0.0018686440813812707,0.015189259446989964,0.0034107194347491637,14.3999996185,0.0,0.01541743376680232,0.0468809155226954
1648219255955410384,68010,4,1,0.0334694497287,0.0146502861753,-0.0293766111135,0.0,14.3999996185,0.011193795895886286,0.0048997612626421405,-0.009824953549665552,14.3999996185,0.0,0.016571354608130556,0.04688091542060558
1648219255955418386,68011,4,2,1.0051099062,1.40935754776,-0.110821098089,0.0,14.3999996185,0.336157159264214,0.4713570393846154,-0.037063912404347824,14.3999996185,0.0,0.6694630161753539,1.7345938823687534
1648219255955422225,68012,4,3,1.87230849266,0.0586011447012,0.0868292674422,-0.0809188112617,14.3999996185,0.6261901313244147,0.019599045050568562,0.029039888776655517,14.3999996185,-0.010934974494824324,0.8857834293454974,1.8752366537404288
1648219256150402437,68013,6,0,0.00540754338726,0.0454158857465,0.0102944662794,0.0,22.2000007629,0.001808542938882943,0.015189259446989964,0.0034429653108361204,22.2000007629,0.0,0.015403092471044268,0.046880915515825246
1648219256150405780,68014,6,1,0.0334378667176,0.0146502861753,-0.029412554577,0.0,22.2000007629,0.01118323301591973,0.0048997612626421405,-0.009836974774916388,22.2000007629,0.0,0.016557084942936142,0.04688091490561134
1648219256255459774,68015,7,0,0.00558340921998,0.0454158857465,0.0102001521736,0.0,22.7000007629,0.0018673609431371235,0.015189259446989964,0.0034114221316387957,22.7000007629,0.0,0.01541712282924028,0.04688091553096522
1648219256255464185,68016,7,1,0.0334981679916,0.0146502861753,-0.0293438583612,0.0,22.7000007629,0.011203400666086955,0.0048997612626421405,-0.009813999451906355,22.7000007629,0.0,0.016584330960296344,0.04688091474506239
1648219256255467714,68017,7,2,2.11080789566,-1.12074685097,-0.0703305527568,0.0,22.7000007629,0.7059558179464882,-0.3748317227324415,-0.023521923998929765,22.7000007629,0.0,1.0664173920897766,2.3909265699704885
1648219256450500994,68018,9,0,0.0122110880911,0.0439508594573,0.0108181107789,0.0,12.6000003815,0.004083975950200668,0.014699284099431437,0.0036180972504682276,12.6000003815,0.0,0.01579324767612516,0.046880915522507595
1648219256450508077,68019,9,1,0.0334378667176,0.0146502861753,-0.029412554577,0.0,12.6000003815,0.01118323301591973,0.0048997612626421405,-0.009836974774916388,12.6000003815,0.0,0.016557084942936142,0.04688091490561134
1648219256450513756,68020,9,2,1.0099594593,1.40935754776,-0.0500915572047,0.0,12.6000003815,0.33777908337792645,0.4713570393846154,-0.016753029165451506,12.6000003815,0.0,0.6710937914425182,1.7345938922297695
1648219256450518565,68021,9,3,1.80764532089,-0.0,0.274413824081,0.0,12.6000003815,0.6045636524715718,-0.0,0.09177719868929765,12.6000003815,0.0,0.8549821166431114,1.8283556965159349
1648219256555531011,68022,10,0,0.00538475764915,0.0454158857465,0.0103064030409,0.0,14.5,0.0018009222906856185,0.015189259446989964,0.003446957538762542,14.5,0.0,0.015401306592044408,0.046880915485095785
1648219256555543410,68023,10,1,0.0334149859846,0.0146502861753,-0.0294385440648,0.0,14.5,0.011175580596856187,0.0048997612626421405,-0.009845666911304347,14.5,0.0,0.01654674783105567,0.04688091349391959
1648219256555558258,68024,10,2,1.91788578033,0.120132349432,0.042641390115,0.0,14.5,0.6414333713478261,0.040178043288294316,0.014261334486622071,14.5,0.0,0.9080131138478961,1.9221175655830747
1648219256555774405,68025,10,3,1.78407096863,0.171408340335,0.36137881875,0.0809188112617,14.5,0.596679253722408,0.05732720412541805,0.12086248118729095,14.5,0.010934974494824324,0.8457769634946892,1.8283557342284162
1648219256555824862,68026,10,4,1.87426376343,0.0586011447012,-0.0146194947883,-0.0809188112617,14.5,0.6268440680367893,0.019599045050568562,-0.004889463139899665,14.5,-0.010934974494824324,0.8867080093428253,1.8752366460516237
1648219256750490855,68027,12,0,0.0122335832566,0.0439508594573,0.0107926651835,0.0,17.1000003815,0.004091499416923076,0.014699284099431437,0.003609587017892976,17.1000003815,0.0,0.015797141766571623,0.046880915393096086
1648219256750493209,68028,12,1,0.033423896879,0.0146502861753,-0.0294284299016,0.0,17.1000003815,0.01117856082909699,0.0048997612626421405,-0.009842284248026755,17.1000003815,0.0,0.01655077354236145,0.0468809156701274
1648219256750496383,68029,12,2,1.78322923183,0.114272229373,0.387194693089,0.0,17.1000003815,0.5963977363979933,0.03821813691404682,0.12949655287257525,17.1000003815,0.0,0.8442992040446808,1.8283556453860865
1648219256750502925,68030,12,3,1.89382946491,0.180198520422,0.274726122618,0.0,17.1000003815,0.6333877809063545,0.06026706368628762,0.09188164636053511,17.1000003815,0.0,0.8977707285094114,1.9221175800070858
1648219256855532769,68031,13,0,0.0122110880911,0.0439508594573,0.0108181107789,0.0,15.3999996185,0.004083975950200668,0.014699284099431437,0.0036180972504682276,15.3999996185,0.0,0.01579324767612516,0.046880915522507595
1648219256855534499,68032,13,1,0.0335209183395,0.0146502861753,-0.0293178688735,0.0,15.3999996185,0.011211009478093645,0.0048997612626421405,-0.009805307315551839,15.3999996185,0.0,0.016594611398484137,0.04688091601734499
1648219256855539455,68033,13,2,0.921234369278,1.46356356144,-0.134628891945,0.0,15.3999996185,0.30810514022675584,0.4894861409498327,-0.04502638526588628,15.3999996185,0.0,0.6553275799554428,1.7345939006177524
1648219256855654012,68034,13,3,1.86087739468,0.175803437829,0.15080049634,0.0,15.3999996185,0.622367021632107,0.05879713639765886,0.05043494860869565,15.3999996185,0.0,0.8821216029998381,1.8752366027997398
1648219256855655758,68035,13,4,1.8653677702,0.12306240201,0.618234097958,0.161837622523,15.3999996185,0.6238688194648829,0.04115799398327759,0.20676725684214045,15.3999996185,0.021869948989594594,0.883243221468323,1.9689983932871384
1648219257050541979,68036,15,0,0.00558340921998,0.0454158857465,0.0102001521736,0.0,20.2000007629,0.0018673609431371235,0.015189259446989964,0.0034114221316387957,20.2000007629,0.0,0.01541712282924028,0.04688091553096522
1648219257050557863,68037,15,1,0.033385772258,0.0146502861753,-0.0294716712087,0.0,20.2000007629,0.01116581011973244,0.0048997612626421405,-0.009856746223645484,20.2000007629,0.0,0.016533550486532746,0.04688091379351458
1648219257050562299,68038,15,2,1.79603374004,0.114272229373,0.322628825903,0.0,20.2000007629,0.6006801806153845,0.03821813691404682,0.10790261735886288,20.2000007629,0.0,0.8503493310148734,1.8283557359199807
1648219257050663087,68039,15,3,1.95430493355,0.061531201005,0.232079640031,0.0809188112617,20.2000007629,0.6536136901505016,0.020578996991638794,0.07761860870602007,20.2000007629,0.010934974494824324,0.9245783942000234,1.9689984310079849
1648219257155443022,68040,16,0,0.00562270963565,0.0454158857465,0.0101785408333,0.0,13.1000003815,0.0018805048948662205,0.015189259446989964,0.003404194258628762,13.1000003815,0.0,0.015420317761551009,0.04688091546974235
1648219257155445105,68041,16,1,0.0334466174245,0.0146502861753,-0.0294026006013,0.0,13.1000003815,0.011186159673745819,0.0048997612626421405,-0.009833645686053511,13.1000003815,0.0,0.016561038521903233,0.04688091321933288
1648219257155446730,68042,16,2,1.00682771206,1.40935754776,0.0939431190491,0.0,13.1000003815,0.33673167627424744,0.4713570393846154,0.031419103360903006,13.1000003815,0.0,0.6700402243077344,1.7345939146718832
1648219257155626119,68043,16,3,1.78388524055,0.0571361146867,0.396703511477,0.0809188112617,13.1000003815,0.5966171373076923,0.0191090684570903,0.13267675969130435,13.1000003815,0.010934974494824324,0.8439604099457209,1.8283557539690698
1648219257350443565,68044,18,0,0.0122110880911,0.0439508594573,0.0108181107789,0.0,17.1000003815,0.004083975950200668,0.014699284099431437,0.0036180972504682276,17.1000003815,0.0,0.01579324767612516,0.046880915522507595
1648219257350451903,68045,18,1,0.0333628132939,0.0146502861753,-0.0294976588339,0.0,17.1000003815,0.011158131536421404,0.0048997612626421405,-0.0098654377370903,17.1000003815,0.0,0.016523179451880688,0.04688091373451434
1648219257350459553,68046,18,2,1.00312483311,1.40935754776,-0.127545446157,0.0,17.1000003815,0.33549325522073575,0.4713570393846154,-0.04265733985183946,17.1000003815,0.0,0.6687966112164754,1.7345938916834207
1648219257350461777,68047,18,3,0.400632381439,-1.46356356144,0.840411424637,0.0,17.1000003815,0.13399076302307691,-0.4894861409498327,0.2810740550625418,17.1000003815,0.0,0.5248844933249336,1.7345938908265568
1648219257350470645,68048,18,4,1.79234433174,0.114272229373,0.342531859875,0.0809188112617,17.1000003815,0.5994462647959866,0.03821813691404682,0.11455915045986621,17.1000003815,0.010934974494824324,0.8486060774852494,1.8283556604106899
1648219257350472307,68049,18,5,1.93250513077,0.184593603015,0.329095244408,0.323675245047,17.1000003815,0.6463227862107023,0.06173699097491638,0.11006529913311035,17.1000003815,0.04373989797932432,0.916121031308073,1.968998364300589
1648219257350564777,68050,18,6,1.91219127178,0.12306240201,0.453139215708,-0.161837622523,17.1000003815,0.639528853438127,0.04115799398327759,0.1515515771598662,17.1000003815,-0.021869948989594594,0.9053663839730842,1.9689984671077188
1648219257455497415,68051,19,0,0.0122110880911,0.0439508594573,0.0108181107789,0.0,20.7000007629,0.004083975950200668,0.014699284099431437,0.0036180972504682276,20.7000007629,0.0,0.01579324767612516,0.046880915522507595
1648219257455503561,68052,19,1,0.0334842801094,0.0146502861753,-0.0293597038835,0.0,20.7000007629,0.011198755889431438,0.0048997612626421405,-0.009819298957692306,20.7000007629,0.0,0.016578055596873812,0.046880914150534136
1648219257455649178,68053,19,2,1.01119422913,1.40935754776,-0.0036864685826,0.0,20.7000007629,0.3381920498762542,0.4713570393846154,-0.0012329326363210702,20.7000007629,0.0,0.6715096304420626,1.7345939168878999
1648219257455653318,68054,19,3,1.81581580639,-0.0586011447012,0.464640855789,0.0809188112617,20.7000007629,0.6072962563177258,-0.019599045050568562,0.15539827952809362,20.7000007629,0.010934974494824324,0.85907019994989,1.875236588210776
