%time,field.header.seq,field.header.frame_id,field.point_id,field.x,field.y,field.z,field.velocity,field.intensity,normalized_x,normalized_y,normalized_z,normalized_intensity,normalized_velocity,normalized_range,range
1648295880168662545,68206,0,0,0.0126887271181,0.0439508594573,0.0102537022904,0.0,15.1999998093,0.004243721444180602,0.014699284099431437,0.0034293318696989963,15.1999998093,0.0,0.015877257207319986,0.046880915664832074
1648295880168667162,68207,0,1,0.0335404723883,0.0146502861753,-0.0292954929173,0.0,15.1999998093,0.011217549293745818,0.0048997612626421405,-0.009797823718160533,15.1999998093,0.0,0.016603447977637752,0.046880913795659694
1648295880168674565,68208,0,2,2.20348763466,-1.31266570091,0.560281991959,0.0,15.1999998093,0.736952386173913,-0.4390186290668896,0.18738528159163878,15.1999998093,0.0,1.1309000820773778,2.6253313903122035
1648295880168677859,68209,0,3,0.753292500973,0.316446185112,1.47674882412,0.566431701183,15.1999998093,0.2519372912953177,0.10583484451906354,0.49389592779933106,15.1999998093,0.07654482448418919,0.37167971669815114,1.6877129109045466
1648295880168772129,68210,0,4,1.61992502213,-0.316446185112,-0.352249026299,0.566431701183,15.1999998093,0.5417809438561872,-0.10583484451906354,-0.11780903889598662,15.1999998093,0.07654482448418919,0.773468937039993,1.6877128434432833
1648295880274078433,68211,1,0,0.0127100823447,0.0439508594573,0.0102272182703,0.0,16.2999992371,0.004250863660434782,0.014699284099431437,0.003420474337892977,16.2999992371,0.0,0.01588107794688408,0.04688091545386831
1648295880274082462,68212,1,1,0.0335269682109,0.0146502861753,-0.0293109472841,0.0,16.2999992371,0.01121303284645485,0.0048997612626421405,-0.00980299240270903,16.2999992371,0.0,0.016597345319726262,0.046880914166899254
1648295880274084329,68213,1,2,2.2498652935,-1.2306240797,0.562170386314,0.0,16.2999992371,0.7524633088628763,-0.4115799597658863,0.18801685161003343,16.2999992371,0.0,1.1409645593315443,2.6253314091142372
1648295880468904969,68214,3,0,0.0127302780747,0.0439508594573,0.0102020688355,0.0,15.3999996185,0.004257618085183946,0.014699284099431437,0.003412063155685619,15.3999996185,0.0,0.015884696300350495,0.04688091547121072
1648295880468906915,68215,3,1,0.0335269682109,0.0146502861753,-0.0293109472841,0.0,15.3999996185,0.01121303284645485,0.0048997612626421405,-0.00980299240270903,15.3999996185,0.0,0.016597345319726262,0.046880914166899254
1648295880468911477,68216,3,2,2.20873856544,-1.31266570091,0.539210677147,0.0,15.3999996185,0.7387085503143812,-0.4390186290668896,0.18033801911270902,15.3999996185,0.0,1.1331893051396666,2.625331492813206
1648295880469031101,68217,3,3,1.90612530708,0.120132349432,0.21631129086,0.161837622523,15.3999996185,0.637500102702341,0.040178043288294316,0.07234491333110367,15.3999996185,0.021869948989594594,0.9024561136440191,1.9221175932352308
1648295880469033999,68218,3,4,1.65908133984,-0.37944239378,0.335094898939,0.485512852669,15.3999996185,0.5548767022876253,-0.12690381062876252,0.1120718725548495,15.3999996185,0.06560984495527027,0.794909357496363,1.7345939045487635
1648295880573936013,68219,4,0,0.0126275550574,0.0439508594573,0.0103289419785,0.0,27.0,0.004223262561003344,0.014699284099431437,0.003454495644983277,27.0,0.0,0.01586634319413717,0.04688091547909687
1648295880573937935,68220,4,1,0.033517640084,0.0146502861753,-0.0293216109276,0.0,27.0,0.011209913071571907,0.0048997612626421405,-0.009806558838662207,27.0,0.0,0.016593129981268932,0.04688091241868381
1648295880573944871,68221,4,2,2.24605035782,-1.2306240797,0.577223002911,0.0,27.0,0.7511874106421405,-0.4115799597658863,0.19305117154214047,27.0,0.0,1.139281841817632,2.6253312610964765
1648295880573947500,68222,4,3,1.68042230606,-0.334026515484,0.488118618727,0.323675245047,27.0,0.5620141491839464,-0.11171455367357858,0.1632503741561873,27.0,0.04373989797932432,0.8026206758291224,1.781474845654113
1648295880768924356,68223,6,0,0.0127100823447,0.0439508594573,0.0102272182703,0.0,26.6000003815,0.004250863660434782,0.014699284099431437,0.003420474337892977,26.6000003815,0.0,0.01588107794688408,0.04688091545386831
1648295880769106099,68224,6,1,0.0335269682109,0.0146502861753,-0.0293109472841,0.0,26.6000003815,0.01121303284645485,0.0048997612626421405,-0.00980299240270903,26.6000003815,0.0,0.016597345319726262,0.046880914166899254
1648295880769110574,68225,6,2,2.24827218056,-1.2306240797,0.568508207798,0.0,26.6000003815,0.7519304951705684,-0.4115799597658863,0.1901365243471572,26.6000003815,0.0,1.1402618131007463,2.6253314087465576
1648295880769117002,68226,6,3,1.80892539024,-0.117202289402,0.480171710253,0.242756426334,26.6000003815,0.6049917693110367,-0.03919809010100334,0.16059254523511704,26.6000003815,0.03280492247756756,0.8564850098721889,1.8752366025180123
1648295880874017021,68227,7,0,0.0127100823447,0.0439508594573,0.0102272182703,0.0,29.3999996185,0.004250863660434782,0.014699284099431437,0.003420474337892977,29.3999996185,0.0,0.01588107794688408,0.04688091545386831
1648295880874022957,68228,7,1,0.0335269682109,0.0146502861753,-0.0293109472841,0.0,29.3999996185,0.01121303284645485,0.0048997612626421405,-0.00980299240270903,29.3999996185,0.0,0.016597345319726262,0.046880914166899254
1648295880874025574,68229,7,2,2.24950385094,-1.2306240797,0.563614368439,0.0,29.3999996185,0.7523424250635451,-0.4115799597658863,0.1884997887755853,29.3999996185,0.0,1.140805115864178,2.6253312852366375
1648295880874029117,68230,7,3,1.809273839,-0.351606875658,0.345562160015,0.0809188112617,29.3999996185,0.6051083073578595,-0.11759427279531771,0.11557262876755853,29.3999996185,0.010934974494824324,0.8637942696390426,1.8752366319838174
1648295880874031036,68231,7,4,1.18515062332,0.293005734682,-1.42340362072,0.0809188112617,29.3999996185,0.3963714459264214,0.09799522899063544,-0.4760547226488294,29.3999996185,0.010934974494824324,0.5690551038313698,1.8752365792057089
1648295881068909837,68232,9,0,0.0127004906535,0.0439508594573,0.0102391270921,0.0,13.6000003815,0.004247655736956521,0.014699284099431437,0.003424457221438127,13.6000003815,0.0,0.01587936118221376,0.046880915450566385
1648295881068918473,68233,9,1,0.0335269682109,0.0146502861753,-0.0293109472841,0.0,13.6000003815,0.01121303284645485,0.0048997612626421405,-0.00980299240270903,13.6000003815,0.0,0.016597345319726262,0.046880914166899254
1648295881068921614,68234,9,2,1.81393516064,-0.171408340335,0.152127593756,0.0,13.6000003815,0.60666727780602,-0.05732720412541805,0.05087879389832775,13.6000003815,0.0,0.8598702112842209,1.8283556521980215
1648295881069017581,68235,9,3,2.24825668335,-1.2306240797,0.56856906414,0.0,13.6000003815,0.7519253121571906,-0.4115799597658863,0.19015687763879596,13.6000003815,0.0,1.140254977365267,2.625331316322275
1648295881173940154,68236,10,0,0.0127100823447,0.0439508594573,0.0102272182703,0.0,15.8000001907,0.004250863660434782,0.014699284099431437,0.003420474337892977,15.8000001907,0.0,0.01588107794688408,0.04688091545386831
1648295881173942729,68237,10,1,0.0335269682109,0.0146502861753,-0.0293109472841,0.0,15.8000001907,0.01121303284645485,0.0048997612626421405,-0.00980299240270903,15.8000001907,0.0,0.016597345319726262,0.046880914166899254
1648295881173944578,68238,10,2,1.85640537739,-0.175803437829,0.198405086994,0.0,15.8000001907,0.6208713636755853,-0.05879713639765886,0.06635621638595317,15.8000001907,0.0,0.8800111384029902,1.8752366124039122
1648295881173946136,68239,10,3,2.24533820152,-1.2306240797,0.579987287521,0.0,15.8000001907,0.7509492312775919,-0.4115799597658863,0.1939756814451505,15.8000001907,0.0,1.1389677603838053,2.6253313159349063
1648295881369001403,68240,12,0,0.0127100823447,0.0439508594573,0.0102272182703,0.0,16.0,0.004250863660434782,0.014699284099431437,0.003420474337892977,16.0,0.0,0.01588107794688408,0.04688091545386831
1648295881369004498,68241,12,1,0.0335269682109,0.0146502861753,-0.0293109472841,0.0,16.0,0.01121303284645485,0.0048997612626421405,-0.00980299240270903,16.0,0.0,0.016597345319726262,0.046880914166899254
1648295881369151833,68242,12,2,1.84508955479,-0.0586011447012,0.3297316432,0.0,16.0,0.6170868076220735,-0.019599045050568562,0.11027814153846152,16.0,0.0,0.8729125837386571,1.8752366559671403
1648295881369169495,68243,12,3,2.24789690971,-1.2306240797,0.569990217686,0.0,16.0,0.7518049865250837,-0.4115799597658863,0.19063217982809363,16.0,0.0,1.1400962848851193,2.6253314058379322
1648295881473941790,68244,13,0,0.0127207012847,0.0439508594573,0.0102140065283,0.0,15.6000003815,0.004254415145384615,0.014699284099431437,0.003416055695083612,15.6000003815,0.0,0.01588297986822227,0.04688091528084813
1648295881473949520,68245,13,1,0.033517640084,0.0146502861753,-0.0293216109276,0.0,15.6000003815,0.011209913071571907,0.0048997612626421405,-0.009806558838662207,15.6000003815,0.0,0.016593129981268932,0.04688091241868381
1648295881473953635,68246,13,2,1.84056031704,-0.293005734682,0.207359269261,0.0,15.6000003815,0.6155720123879598,-0.09799522899063544,0.06935092617424748,15.6000003815,0.0,0.8760484403134635,1.8752366538032952
1648295881473959179,68247,13,3,2.24705648422,-1.2306240797,0.573294639587,0.0,15.6000003815,0.7515239077658862,-0.4115799597658863,0.19173733765451503,15.6000003815,0.0,1.1397255946798357,2.625331448139798
1648295881669024416,68248,15,0,0.0127090075985,0.0439508594573,0.0102285537869,0.0,15.6999998093,0.00425050421354515,0.014699284099431437,0.0034209209989632104,15.6999998093,0.0,0.01588088552866395,0.046880915453365174
1648295881669028913,68249,15,1,0.0335041433573,0.0146502861753,-0.0293370354921,0.0,15.6999998093,0.011205399116153847,0.0048997612626421405,-0.009811717555886288,15.6999998093,0.0,0.016587031052466603,0.046880914651800804
1648295881669201561,68250,15,2,1.86324155331,-0.175803437829,0.118052989244,0.0,15.6999998093,0.6231577101371237,-0.05879713639765886,0.03948260509832775,15.6999998093,0.0,0.8832373218197088,1.8752366365349735
1648295881669221580,68251,15,3,2.24569582939,-1.2306240797,0.578601062298,0.0,15.6999998093,0.7510688392608694,-0.4115799597658863,0.19351206096923076,15.6999998093,0.0,1.1391254829465576,2.6253313263223528
