%time,field.header.seq,field.header.frame_id,field.point_id,field.x,field.y,field.z,field.velocity,field.intensity,normalized_x,normalized_y,normalized_z,normalized_intensity,normalized_velocity,normalized_range,range
1648219281650789110,68666,0,0,0.00556434690952,0.0454158857465,0.0102105634287,0.0,25.1000003815,0.0018609855884682272,0.015189259446989964,0.0034149041567558525,25.1000003815,0.0,0.015415580990314532,0.04688091552220511
1648219281650793473,68667,0,1,0.0334149859846,0.0146502861753,-0.0294385440648,0.0,25.1000003815,0.011175580596856187,0.0048997612626421405,-0.009845666911304347,25.1000003815,0.0,0.01654674783105567,0.04688091349391959
1648219281650800925,68668,0,2,1.9127613306,-0.120132349432,0.146452367306,0.0,25.1000003815,0.6397195085618729,-0.040178043288294316,0.048980724851505016,25.1000003815,0.0,0.9055917261281512,1.9221175783776252
1648219281650819706,68669,0,3,0.434516310692,-1.2306240797,0.140894159675,-0.647350490093,25.1000003815,0.1453231808334448,-0.4115799597658863,0.04712179253344481,25.1000003815,-0.08747979595851352,0.4600388212488037,1.31266569012273
1648219281650924633,68670,0,4,0.530780136585,-1.45037841797,-0.0900068506598,-0.647350490093,25.1000003815,0.17751844032943143,-0.4850763939698996,-0.0301026256387291,25.1000003815,-0.08747979595851352,0.5461910849701128,1.5470702446469735
1648219281755792529,68671,1,0,0.00558724580333,0.0454158857465,0.0101980511099,0.0,23.6000003815,0.0018686440813812707,0.015189259446989964,0.0034107194347491637,23.6000003815,0.0,0.01541743376680232,0.0468809155226954
1648219281755796800,68672,1,1,0.0334149859846,0.0146502861753,-0.0294385440648,0.0,23.6000003815,0.011175580596856187,0.0048997612626421405,-0.009845666911304347,23.6000003815,0.0,0.01654674783105567,0.04688091349391959
1648219281755808988,68673,1,2,2.10427951813,-1.12074685097,-0.180178374052,0.0,23.6000003815,0.7037724140903009,-0.3748317227324415,-0.060260325769899654,23.6000003815,0.0,1.0635271703325448,2.3909266071664805
1648219281755812372,68674,1,3,0.673809707165,1.2306240797,-0.0978935360909,0.404594063759,23.6000003815,0.22535441711204013,0.4115799597658863,-0.0327403130738796,23.6000003815,0.05467487348094594,0.5205451852670461,1.4064274924131837
1648219281755815406,68675,1,4,0.986918210983,1.24527430534,0.126350805163,0.404594063759,23.6000003815,0.3300729802618729,0.41647970078260865,0.042257794368896325,23.6000003815,0.05467487348094594,0.6255810784877374,1.59395112116879
1648219281951357839,68676,3,0,0.0122110880911,0.0439508594573,0.0108181107789,0.0,28.6000003815,0.004083975950200668,0.014699284099431437,0.0036180972504682276,28.6000003815,0.0,0.01579324767612516,0.046880915522507595
1648219281951436771,68677,3,1,0.0334149859846,0.0146502861753,-0.0294385440648,0.0,28.6000003815,0.011175580596856187,0.0048997612626421405,-0.009845666911304347,28.6000003815,0.0,0.01654674783105567,0.04688091349391959
1648219281951585701,68678,3,2,2.10579180717,-1.21890377998,0.151064544916,0.0,28.6000003815,0.7042781963779264,-0.407660127083612,0.05052325916923076,28.6000003815,0.0,1.0761980928251624,2.43780763324847
1648219281951600306,68679,3,3,0.910181641579,1.29508531094,0.187092512846,0.161837622523,28.6000003815,0.3044085757789297,0.4331388999799331,0.06257274677123746,28.6000003815,0.021869948989594594,0.6106868826913996,1.593951125863974
1648219281951616035,68680,3,4,0.859299182892,1.0987714529,0.179845705628,0.323675245047,28.6000003815,0.28739103106755853,0.3674820912709029,0.06014906542742475,28.6000003815,0.04373989797932432,0.5479327485020264,1.4064274845365006
1648219281951655954,68681,3,5,1.9130846262,0.180198520422,-0.0466057695448,-0.0809188112617,28.6000003815,0.639827634180602,0.06026706368628762,-0.015587213894581939,28.6000003815,-0.010934974494824324,0.9068577186569343,1.9221176840973955
1648219282056392382,68682,4,0,0.0122335832566,0.0439508594573,0.0107926651835,0.0,17.3999996185,0.004091499416923076,0.014699284099431437,0.003609587017892976,17.3999996185,0.0,0.015797141766571623,0.046880915393096086
1648219282056437710,68683,4,1,0.0334981679916,0.0146502861753,-0.0293438583612,0.0,17.3999996185,0.011203400666086955,0.0048997612626421405,-0.009813999451906355,17.3999996185,0.0,0.016584330960296344,0.04688091474506239
1648219282056456463,68684,4,2,0.907120645046,1.33317601681,0.303485959768,0.0809188112617,17.3999996185,0.3033848311190635,0.44587826649163875,0.10150032099264214,17.3999996185,0.010934974494824324,0.6187827890591934,1.640832070701433
1648219282056512237,68685,4,3,1.77219200134,0.111342176795,-0.14349578321,-0.647350490093,17.3999996185,0.5927063549632107,0.037238186219063545,-0.047991900739130434,17.3999996185,-0.08747979595851352,0.8390401235581267,1.7814748411768198
1648219282056549773,68686,4,4,1.9183371067,0.120132349432,-0.00932138040662,-0.161837622523,17.3999996185,0.6415843166220735,0.040178043288294316,-0.0031175185306421406,17.3999996185,-0.021869948989594594,0.9082263736719509,1.9221175625998697
1648219282251341124,68687,6,0,0.0122110880911,0.0439508594573,0.0108181107789,0.0,32.0999984741,0.004083975950200668,0.014699284099431437,0.0036180972504682276,32.0999984741,0.0,0.01579324767612516,0.046880915522507595
1648219282251376975,68688,6,1,0.0334981679916,0.0146502861753,-0.0293438583612,0.0,32.0999984741,0.011203400666086955,0.0048997612626421405,-0.009813999451906355,32.0999984741,0.0,0.016584330960296344,0.04688091474506239
1648219282251391250,68689,6,2,2.13994932175,-1.14272224903,0.240225374699,0.0,32.0999984741,0.7157021142976588,-0.3821813541906354,0.08034293468193979,32.0999984741,0.0,1.081906474844876,2.437807512650607
1648219282251398704,68690,6,3,0.916647851467,1.29508531094,0.152285590768,0.161837622523,32.0999984741,0.30657118778160536,0.4331388999799331,0.0509316357083612,32.0999984741,0.021869948989594594,0.6128467125076834,1.5939511119752645
1648219282251405968,68691,6,4,0.894501805305,0.334026515484,-1.50397658348,0.566431701183,32.0999984741,0.29916448337959867,0.11171455367357858,-0.5030022018327759,32.0999984741,0.07654482448418919,0.43758304095800055,1.7814748823366724
1648219282251412599,68692,6,5,1.87313973904,0.0586011447012,-0.0665238648653,-0.242756426334,32.0999984741,0.6264681401471571,0.019599045050568562,-0.022248784235886287,32.0999984741,-0.03280492247756756,0.8861764969834003,1.8752365186097852
1648219282356640746,68693,7,0,0.00562270963565,0.0454158857465,0.0101785408333,0.0,31.1000003815,0.0018805048948662205,0.015189259446989964,0.003404194258628762,31.1000003815,0.0,0.015420317761551009,0.04688091546974235
1648219282356662266,68694,7,1,0.0334149859846,0.0146502861753,-0.0294385440648,0.0,31.1000003815,0.011175580596856187,0.0048997612626421405,-0.009845666911304347,31.1000003815,0.0,0.01654674783105567,0.04688091349391959
1648219282356682556,68695,7,2,2.10915255547,-1.12074685097,-0.109231092036,0.0,31.1000003815,0.7054021924648829,-0.3748317227324415,-0.03653213780468227,31.1000003815,0.0,1.0656844404583832,2.390926481026169
1648219282356699877,68696,7,3,1.77391338348,0.111342176795,0.120361477137,-0.404594063759,31.1000003815,0.5932820680535117,0.037238186219063545,0.040254674627759196,31.1000003815,-0.05467487348094594,0.8398535033329259,1.7814748546082573
1648219282551506711,68697,9,0,0.00556060066447,0.0454158857465,0.0102126039565,0.0,32.0999984741,0.001859732663702341,0.015189259446989964,0.003415586607525083,32.0999984741,0.0,0.015415278580319484,0.04688091549299315
1648219282551575665,68698,9,1,0.0334149859846,0.0146502861753,-0.0294385440648,0.0,32.0999984741,0.011175580596856187,0.0048997612626421405,-0.009845666911304347,32.0999984741,0.0,0.01654674783105567,0.04688091349391959
1648219282551600987,68699,9,2,2.14619779587,-1.14272224903,0.175859674811,0.0,32.0999984741,0.7177919049732441,-0.3821813541906354,0.05881594475284281,32.0999984741,0.0,1.0846718513823548,2.4378075688310714
1648219282551609222,68700,9,3,0.851764678955,1.29508531094,0.371390849352,0.323675245047,32.0999984741,0.28487113008528425,0.4331388999799331,0.12421098640535116,32.0999984741,0.04373989797932432,0.5915339619903158,1.5939511265751753
1648219282551704410,68701,9,4,0.982610106468,1.37126672268,0.0497974008322,0.485512852669,32.0999984741,0.3286321426314381,0.4586176330033444,0.016654649107759198,32.0999984741,0.06560984495527027,0.6529382081350807,1.6877128983308285
1648219282656437418,68702,10,0,0.0122335832566,0.0439508594573,0.0107926651835,0.0,30.6000003815,0.004091499416923076,0.014699284099431437,0.003609587017892976,30.6000003815,0.0,0.015797141766571623,0.046880915393096086
1648219282656487377,68703,10,1,0.0334149859846,0.0146502861753,-0.0294385440648,0.0,30.6000003815,0.011175580596856187,0.0048997612626421405,-0.009845666911304347,30.6000003815,0.0,0.01654674783105567,0.04688091349391959
1648219282656561743,68704,10,2,0.178585737944,-0.726654171944,0.052180737257,0.0,30.6000003815,0.05972767155317726,-0.24302815115183943,0.0174517515909699,30.6000003815,0.0,0.25728869339831034,0.7500946478553938
1648219282656583395,68705,10,3,2.10117340088,-1.21890377998,0.205546960235,0.0,30.6000003815,0.7027335788896321,-0.407660127083612,0.0687448027541806,30.6000003815,0.0,1.0741767754945588,2.4378075474239154
1648219282656595432,68706,10,4,1.70826232433,0.162618175149,0.253398925066,0.161837622523,30.6000003815,0.571325192083612,0.05438734954816053,0.08474880436989965,30.6000003815,0.021869948989594594,0.8098042566013259,1.7345938587573546
1648219282851410563,68707,12,0,0.00566155510023,0.0454158857465,0.0101569853723,0.0,31.1000003815,0.0018934966890401337,0.015189259446989964,0.003396985074347826,31.1000003815,0.0,0.015423497073322436,0.04688091547895794
1648219282851443930,68708,12,1,0.0334149859846,0.0146502861753,-0.0294385440648,0.0,31.1000003815,0.011175580596856187,0.0048997612626421405,-0.009845666911304347,31.1000003815,0.0,0.01654674783105567,0.04688091349391959
1648219282851471753,68709,12,2,1.03636717796,1.44744825363,0.0670024231076,0.161837622523,31.1000003815,0.3466110963076923,0.484096405896321,0.02240883715973244,31.1000003815,0.021869948989594594,0.6889323873711964,1.7814748662811948
1648219282851480348,68710,12,3,1.75339210033,0.111342176795,0.294740349054,0.485512852669,31.1000003815,0.5864187626521739,0.037238186219063545,0.09857536757658862,31.1000003815,0.06560984495527027,0.8301569808740386,1.7814748977163757
1648219282956548854,68711,13,0,0.00562270963565,0.0454158857465,0.0101785408333,0.0,28.8999996185,0.0018805048948662205,0.015189259446989964,0.003404194258628762,28.8999996185,0.0,0.015420317761551009,0.04688091546974235
1648219282956577479,68712,13,1,0.0334981679916,0.0146502861753,-0.0293438583612,0.0,28.8999996185,0.011203400666086955,0.0048997612626421405,-0.009813999451906355,28.8999996185,0.0,0.016584330960296344,0.04688091474506239
1648219282956636319,68713,13,2,1.81826424599,0.0571361146867,-0.183126315475,0.0,28.8999996185,0.6081151324381271,0.0191090684570903,-0.061246259356187285,28.8999996185,0.0,0.8602169407177351,1.8283557233937067
1648219282956660157,68714,13,3,1.47304391861,-0.125992462039,-1.37041509151,-0.647350490093,28.8999996185,0.4926568289665551,-0.04213794717023411,-0.45833280652508357,28.8999996185,-0.08747979595851352,0.697995063626158,2.0158794630837713
1648219282956715889,68715,13,4,1.82333934307,0.629962325096,0.585107684135,-0.647350490093,28.8999996185,0.6098124893210702,0.2106897408347826,0.19568818867391305,28.8999996185,-0.08747979595851352,0.8877683882392686,2.0158794341579855
1648219283151416983,68716,15,0,0.00562270963565,0.0454158857465,0.0101785408333,0.0,21.8999996185,0.0018805048948662205,0.015189259446989964,0.003404194258628762,21.8999996185,0.0,0.015420317761551009,0.04688091546974235
1648219283151436278,68717,15,1,0.0334981679916,0.0146502861753,-0.0293438583612,0.0,21.8999996185,0.011203400666086955,0.0048997612626421405,-0.009813999451906355,21.8999996185,0.0,0.016584330960296344,0.04688091474506239
1648219283151476823,68718,15,2,1.82330930233,0.114272229373,-0.0732778087258,0.0,21.8999996185,0.6098024422508361,0.03821813691404682,-0.02450762833638796,21.8999996185,0.0,0.8632373156550576,1.8283557070823615
1648219283151628708,68719,15,3,1.9524641037,0.061531201005,0.247088015079,0.161837622523,21.8999996185,0.652998027993311,0.020578996991638794,0.08263813213344481,21.8999996185,0.021869948989594594,0.9237079323268192,1.968998388046532
1648219283256441951,68720,16,0,0.00566155510023,0.0454158857465,0.0101569853723,0.0,30.8999996185,0.0018934966890401337,0.015189259446989964,0.003396985074347826,30.8999996185,0.0,0.015423497073322436,0.04688091547895794
1648219283256467356,68721,16,1,0.0334842801094,0.0146502861753,-0.0293597038835,0.0,30.8999996185,0.011198755889431438,0.0048997612626421405,-0.009819298957692306,30.8999996185,0.0,0.016578055596873812,0.046880914150534136
1648219283256521507,68722,16,2,1.87140262127,0.117202289402,0.0250575318933,0.0,30.8999996185,0.6258871643043478,0.03919809010100334,0.008380445449264213,30.8999996185,0.0,0.8860056292989574,1.8752365257326555
1648219283256560685,68723,16,3,2.07708859444,0.202173948288,0.54352170229,0.242756426334,30.8999996185,0.6946784596789297,0.06761670511304348,0.181779833541806,30.8999996185,0.03280492247756756,0.9847478578266241,2.1565220090180652
1648219283451463426,68724,18,0,0.00562270963565,0.0454158857465,0.0101785408333,0.0,21.3999996185,0.0018805048948662205,0.015189259446989964,0.003404194258628762,21.3999996185,0.0,0.015420317761551009,0.04688091546974235
1648219283451521963,68725,18,1,0.0334149859846,0.0146502861753,-0.0294385440648,0.0,21.3999996185,0.011175580596856187,0.0048997612626421405,-0.009845666911304347,21.3999996185,0.0,0.01654674783105567,0.04688091349391959
1648219283451560857,68726,18,2,1.82461428642,0.114272229373,0.0246750395745,0.0,21.3999996185,0.6102388917792642,0.03821813691404682,0.008252521596822741,21.3999996185,0.0,0.8638539437133744,1.828355625744577
1648219283556322343,68727,19,0,0.00556060066447,0.0454158857465,0.0102126039565,0.0,17.2999992371,0.001859732663702341,0.015189259446989964,0.003415586607525083,17.2999992371,0.0,0.015415278580319484,0.04688091549299315
1648219283556355606,68728,19,1,0.0334378667176,0.0146502861753,-0.029412554577,0.0,17.2999992371,0.01118323301591973,0.0048997612626421405,-0.009836974774916388,17.2999992371,0.0,0.016557084942936142,0.04688091490561134
1648219283556386223,68729,19,2,1.8599344492,0.117202289402,0.208374276757,0.0,17.2999992371,0.622051655250836,0.03919809010100334,0.06969039356421404,17.2999992371,0.0,0.8805867440906525,1.8752366173835184
1648219283556402513,68730,19,3,2.09534025192,0.134782627225,0.491904675961,-0.161837622523,17.2999992371,0.7007826929498328,0.04507780174749164,0.16451661403377926,17.2999992371,-0.021869948989594594,0.9920810318146525,2.156522046757264
1648219283751264835,68731,21,0,0.00566155510023,0.0454158857465,0.0101569853723,0.0,15.6999998093,0.0018934966890401337,0.015189259446989964,0.003396985074347826,15.6999998093,0.0,0.015423497073322436,0.04688091547895794
1648219283751275544,68732,21,1,0.0334326848388,0.0146502861753,-0.029418444261,0.0,15.6999998093,0.011181499946086955,0.0048997612626421405,-0.009838944568896321,15.6999998093,0.0,0.016554743807125908,0.04688091470189418
1648219283751310667,68733,21,2,1.82024991512,0.171408340335,-0.0139299817383,0.0,15.6999998093,0.608779235826087,0.05732720412541805,-0.004658856768662207,15.6999998093,0.0,0.8628503487157122,1.8283557140288638
