%time,field.header.seq,field.header.frame_id,field.point_id,field.x,field.y,field.z,field.velocity,field.intensity,normalized_x,normalized_y,normalized_z,normalized_intensity,normalized_velocity,normalized_range,range
1648294796860247552,24739,0,0,0.00634802924469,0.0454158857465,0.00974269397557,0.0,14.3000001907,0.002123086703909699,0.015189259446989964,0.003258426078785953,14.3000001907,0.0,0.015483171408100157,0.046880915512948214
1648294796860258200,24740,0,1,0.0335281863809,0.0146502861753,-0.0293095558882,0.0,14.3000001907,0.011213440261170568,0.0048997612626421405,-0.0098025270529097,14.3000001907,0.0,0.016597895812800207,0.04688091544940301
1648294796860271218,24741,0,2,0.458481401205,-0.612381994724,-0.456285297871,0.0,14.3000001907,0.15333826127257524,-0.20481003168026754,-0.15260377855217389,14.3000001907,0.0,0.29828240614737117,0.8907374336841765
1648294796860278334,24742,0,3,1.91604459286,-0.0600661747158,0.140360563993,0.0,14.3000001907,0.6408175895852842,-0.020089021644080267,0.04694333243913044,14.3000001907,0.0,0.9064755567771279,1.9221175601657319
1648294796860356533,24743,0,4,2.23589682579,-1.2306240797,0.615381717682,0.0,14.3000001907,0.7477915805317724,-0.4115799597658863,0.20581328350568562,14.3000001907,0.0,1.134805075380482,2.625331388524603
1648294796965061993,24744,1,0,0.0126799661666,0.0439508594573,0.0102645335719,0.0,14.8000001907,0.004240791360066889,0.014699284099431437,0.00343295437187291,14.8000001907,0.0,0.015875691347309377,0.04688091550375397
1648294796965066528,24745,1,1,0.033514522016,0.0146502861753,-0.0293251797557,0.0,14.8000001907,0.011208870239464881,0.0048997612626421405,-0.009807752426655518,14.8000001907,0.0,0.016591720963215706,0.0468809155060271
1648294796965069054,24746,1,2,1.91517484188,-0.120132349432,0.110496617854,0.0,14.8000001907,0.6405267029698997,-0.040178043288294316,0.03695539058662207,14.8000001907,0.0,0.9067321487613947,1.9221175715619763
1648294796965080070,24747,1,3,2.23271393776,-1.2306240797,0.626830875874,0.0,14.8000001907,0.7467270694849497,-0.4115799597658863,0.20964243340267558,14.8000001907,0.0,1.133402265695658,2.6253312363117542
1648294797160281717,24748,3,0,0.0127002792433,0.0439508594573,0.010239389725,0.0,14.3999996185,0.004247585031204013,0.014699284099431437,0.003424545058528428,14.3999996185,0.0,0.015879323355559413,0.04688091553962624
1648294797160286281,24749,3,1,0.0335994325578,0.0146502861753,-0.0292278509587,0.0,14.3999996185,0.011237268413979932,0.0048997612626421405,-0.009775200989531772,14.3999996185,0.0,0.01663009510635915,0.0468809132258355
1648294797160288458,24750,3,2,0.443021088839,-0.612381994724,-0.471310675144,0.0,14.3999996185,0.14816758824046822,-0.20481003168026754,-0.1576289883424749,14.3999996185,0.0,0.293009244712289,0.8907374164830685
1648294797160290402,24751,3,3,1.48031294346,-1.68478298187,0.681711912155,0.0,14.3999996185,0.4950879409565217,-0.5634725691872909,0.22799729503511706,14.3999996185,0.0,0.8987354865518903,2.344045912039268
1648294797160374718,24752,3,4,2.23490738869,-1.2306240797,0.618965804577,0.0,14.3999996185,0.7474606651137123,-0.4115799597658863,0.20701197477491637,14.3999996185,0.0,1.134368967781363,2.6253314702708073
1648294797160399190,24753,3,5,1.90240061283,-0.12306240201,0.492628216743,0.0809188112617,14.3999996185,0.6362543855618729,-0.04115799398327759,0.1647586009173913,14.3999996185,0.010934974494824324,0.9007403992062087,1.9689984780125702
1648294797160402620,24754,3,6,0.891903162003,0.054206058383,1.48673689365,0.323675245047,14.3999996185,0.29829537190735783,0.01812911651605351,0.4972364192809364,14.3999996185,0.04373989797932432,0.42224272956245257,1.734593940406925
1648294797160405192,24755,3,7,1.61185193062,-0.596266627312,-0.234979853034,0.323675245047,14.3999996185,0.5390809132508361,-0.19942027669297657,-0.07858857961003345,14.3999996185,0.04373989797932432,0.7880259569449564,1.7345939203229468
1648294797265216899,24756,4,0,0.0126799661666,0.0439508594573,0.0102645335719,0.0,24.2999992371,0.004240791360066889,0.014699284099431437,0.00343295437187291,24.2999992371,0.0,0.015875691347309377,0.04688091550375397
1648294797265222589,24757,4,1,0.0335281863809,0.0146502861753,-0.0293095558882,0.0,24.2999992371,0.011213440261170568,0.0048997612626421405,-0.0098025270529097,24.2999992371,0.0,0.016597895812800207,0.04688091544940301
1648294797265226780,24758,4,2,0.416727662086,-0.612381994724,-0.49471154809,0.0,24.2999992371,0.13937380002876254,-0.20481003168026754,-0.16545536725418059,24.2999992371,0.0,0.2842485907542677,0.8907374291133234
1648294797265229056,24759,4,3,1.91556453705,-0.120132349432,0.103521592915,0.0,24.2999992371,0.6406570358026755,-0.040178043288294316,0.034622606326086956,24.2999992371,0.0,0.906916286219085,1.922117581518699
1648294797265236538,24760,4,4,2.23587059975,-1.2306240797,0.615477085114,0.0,24.2999992371,0.7477828092809364,-0.4115799597658863,0.20584517896789298,24.2999992371,0.0,1.134793515575881,2.625331408920467
1648294797460312614,24761,6,0,0.0126799661666,0.0439508594573,0.0102645335719,0.0,14.6000003815,0.004240791360066889,0.014699284099431437,0.00343295437187291,14.6000003815,0.0,0.015875691347309377,0.04688091550375397
1648294797460341408,24762,6,1,0.033514522016,0.0146502861753,-0.0293251797557,0.0,14.6000003815,0.011208870239464881,0.0048997612626421405,-0.009807752426655518,14.6000003815,0.0,0.016591720963215706,0.0468809155060271
1648294797460415670,24763,6,2,0.40390843153,-0.612381994724,-0.505232036114,0.0,14.6000003815,0.13508643194983277,-0.20481003168026754,-0.16897392512173912,14.6000003815,0.0,0.280078269901015,0.8907374129557308
1648294797460424972,24764,6,3,2.23470616341,-1.2306240797,0.619691491127,0.0,14.6000003815,0.7473933656889631,-0.4115799597658863,0.20725467930668892,14.6000003815,0.0,1.1342802781643702,2.62533137079785
1648294797460427600,24765,6,4,1.95913732052,-0.061531201005,0.186948001385,-0.0809188112617,14.6000003815,0.655229873083612,-0.020578996991638794,0.06252441517892976,14.6000003815,-0.010934974494824324,0.9268634571928676,1.968998396285088
1648294797565245465,24766,7,0,0.0126596167684,0.0439508594573,0.0102896206081,0.0,14.5,0.004233985541270903,0.014699284099431437,0.0034413446849832774,14.5,0.0,0.015872057842736712,0.046880915477587756
1648294797565297030,24767,7,1,0.0335372425616,0.0146502861753,-0.0292991939932,0.0,14.5,0.011216469084147156,0.0048997612626421405,-0.00979906153618729,14.5,0.0,0.016601988370738802,0.04688091607791967
1648294797565298925,24768,7,2,0.425425589085,-0.612381994724,-0.487251996994,0.0,14.5,0.1422828057140468,-0.20481003168026754,-0.1629605341117057,14.5,0.0,0.28711660119295535,0.890737418033567
1648294797565300740,24769,7,3,1.47364521027,-1.68478298187,0.696008205414,0.0,14.5,0.49285792985618726,-0.5634725691872909,0.2327786640180602,14.5,0.0,0.8962807675448465,2.3440459303849184
1648294797565303172,24770,7,4,2.19020533562,-1.31266570091,0.610143303871,0.0,14.5,0.7325101456923077,-0.4390186290668896,0.2040613056424749,14.5,0.0,1.12511314264482,2.6253315039785887
1648294797565311830,24771,7,5,1.96205925941,-0.0,0.165161907673,0.0809188112617,14.5,0.6562071101705685,-0.0,0.05523809621170569,14.5,0.010934974494824324,0.9280169949288738,1.968998474652203
1648294797565332876,24772,7,6,1.27282273769,-0.0,-1.24642491341,-0.647350490093,14.5,0.4256932233076923,-0.0,-0.41686451953511705,14.5,-0.08747979595851352,0.602021129812057,1.781474890743564
1648294797565487329,24773,7,7,1.55077266693,0.723724126816,0.494955003262,-0.647350490093,14.5,0.5186530658628762,0.24204820294849494,0.16553679038862876,14.5,-0.08747979595851352,0.7723919587932786,1.7814749314786475
1648294797760303828,24774,9,0,0.00631579104811,0.0454158857465,0.00976362358779,0.0,21.7000007629,0.0021123046983645482,0.015189259446989964,0.003265425949093645,21.7000007629,0.0,0.015480221730499849,0.04688091552291377
1648294797760308816,24775,9,1,0.033514522016,0.0146502861753,-0.0293251797557,0.0,21.7000007629,0.011208870239464881,0.0048997612626421405,-0.009807752426655518,21.7000007629,0.0,0.016591720963215706,0.0468809155060271
1648294797760486072,24776,9,2,0.392189413309,-0.612381994724,-0.514382064342,0.0,21.7000007629,0.13116702786254178,-0.20481003168026754,-0.1720341352314381,21.7000007629,0.0,0.27632721088133505,0.8907374200574153
1648294797760495447,24777,9,3,2.18743348122,-1.31266570091,0.620006799698,0.0,21.7000007629,0.7315831040869564,-0.4390186290668896,0.20736013367826084,21.7000007629,0.0,1.1239061495688971,2.6253313902781006
1648294797760496473,24778,9,4,1.72574102879,-0.334026515484,0.289649754763,0.0809188112617,21.7000007629,0.5771709126387959,-0.11171455367357858,0.09687282767993309,21.7000007629,0.010934974494824324,0.823852332821294,1.7814748923096884
1648294797760497381,24779,9,5,1.96389818192,-0.12306240201,-0.0701018124819,0.0809188112617,21.7000007629,0.6568221344214047,-0.04115799398327759,-0.023445422234749165,21.7000007629,0.010934974494824324,0.9297981571290121,1.9689983971172755
1648294797865296096,24780,10,0,0.0126820653677,0.0439508594573,0.0102619398385,0.0,14.1999998093,0.004241493434013378,0.014699284099431437,0.003432086902508361,14.1999998093,0.0,0.015876066456693705,0.04688091550167238
1648294797865303444,24781,10,1,0.0335372425616,0.0146502861753,-0.0292991939932,0.0,14.1999998093,0.011216469084147156,0.0048997612626421405,-0.00979906153618729,14.1999998093,0.0,0.016601988370738802,0.04688091607791967
1648294797865308870,24782,10,2,2.19124126434,-1.31266570091,0.60641169548,0.0,14.1999998093,0.7328566101471571,-0.4390186290668896,0.20281327608026753,14.1999998093,0.0,1.1255642934726278,2.6253313439081993
1648294797865324160,24783,10,3,1.91769695282,-0.120132349432,0.0504256002605,0.0809188112617,14.1999998093,0.6413702183344482,-0.040178043288294316,0.01686474925100334,14.1999998093,0.010934974494824324,0.9079238894837118,1.922117614870848
1648294797865417274,24784,10,4,1.7407169342,-0.285680562258,0.480807483196,-0.242756426334,14.1999998093,0.5821795766555183,-0.09554533854782607,0.16080517832642138,14.1999998093,-0.03280492247756756,0.8288516336883314,1.8283557270290607
1648294798060376635,24785,12,0,0.012702328153,0.0439508594573,0.0102368472144,0.0,22.8999996185,0.004248270285284281,0.014699284099431437,0.003423694720535117,22.8999996185,0.0,0.01587968998026903,0.04688091539670276
1648294798060399340,24786,12,1,0.033514522016,0.0146502861753,-0.0293251797557,0.0,22.8999996185,0.011208870239464881,0.0048997612626421405,-0.009807752426655518,22.8999996185,0.0,0.016591720963215706,0.0468809155060271
1648294798060402404,24787,12,2,0.383774220943,-0.640217542648,-0.486057639122,0.0,22.8999996185,0.12835258225518395,-0.21411957948093643,-0.16256108331839464,22.8999996185,0.0,0.2807061899214917,0.8907374378140299
1648294798060417483,24788,12,3,1.91829001904,-0.0600661747158,0.1053160429,0.0,22.8999996185,0.6415685682408027,-0.020089021644080267,0.03522275682274247,22.8999996185,0.0,0.9075373404437546,1.9221175852131387
1648294798060518402,24789,12,4,2.19012904167,-1.31266570091,0.610416889191,0.0,22.8999996185,0.7324846293210702,-0.4390186290668896,0.20415280574949832,22.8999996185,0.0,1.125079917628531,2.625331453382889
1648294798165360152,24790,13,0,0.00631579104811,0.0454158857465,0.00976362358779,0.0,14.6000003815,0.0021123046983645482,0.015189259446989964,0.003265425949093645,14.6000003815,0.0,0.015480221730499849,0.04688091552291377
1648294798165365384,24791,13,1,0.0335372425616,0.0146502861753,-0.0292991939932,0.0,14.6000003815,0.011216469084147156,0.0048997612626421405,-0.00979906153618729,14.6000003815,0.0,0.016601988370738802,0.04688091607791967
1648294798165376103,24792,13,2,0.394843667746,-0.5845464468,-0.543890714645,0.0,14.6000003815,0.13205473837658863,-0.19550048387959865,-0.1819032490451505,14.6000003815,0.0,0.2703652105071504,0.8907374360060701
1648294798165377985,24793,13,3,1.91551828384,-0.120132349432,0.104373291135,0.0,14.6000003815,0.6406415665016721,-0.040178043288294316,0.03490745522909699,14.6000003815,0.0,0.9068944308032268,1.9221175460953845
1648294798165380408,24794,13,4,2.23201847076,-1.2306240797,0.629303216934,0.0,14.6000003815,0.7464944718260869,-0.4115799597658863,0.210469303322408,14.6000003815,0.0,1.133095784218927,2.625331334935604
1648294798165383814,24795,13,5,1.76482021809,-0.285680562258,0.38298946619,0.0809188112617,14.6000003815,0.5902408756153845,-0.09554533854782607,0.1280901224715719,14.6000003815,0.010934974494824324,0.8401770612273644,1.8283557413817977
1648294798360371268,24796,15,0,0.0126820653677,0.0439508594573,0.0102619398385,0.0,13.5,0.004241493434013378,0.014699284099431437,0.003432086902508361,13.5,0.0,0.015876066456693705,0.04688091550167238
1648294798360376299,24797,15,1,0.0335509069264,0.0146502861753,-0.0292835440487,0.0,13.5,0.011221039105819395,0.0048997612626421405,-0.009793827441036788,13.5,0.0,0.016608163584802046,0.0468809150151135
1648294798360379616,24798,15,2,0.410390555859,-0.612381994724,-0.499981045723,0.0,13.5,0.13725436650802675,-0.20481003168026754,-0.1672177410444816,13.5,0.0,0.2821784388076305,0.8907374258908564
1648294798360381736,24799,15,3,1.91704571247,-0.120132349432,0.0709935650229,0.0,13.5,0.6411524121973243,-0.040178043288294316,0.023743667231739127,13.5,0.0,0.9076161669424865,1.9221176164205778
1648294798360383271,24800,15,4,2.23341202736,-1.2306240797,0.62433975935,0.0,13.5,0.7469605442675584,-0.4115799597658863,0.20880928406354513,13.5,0.0,1.13370991557182,2.6253314161452064
1648294798465350656,24801,16,0,0.012702328153,0.0439508594573,0.0102368472144,0.0,14.6999998093,0.004248270285284281,0.014699284099431437,0.003423694720535117,14.6999998093,0.0,0.01587968998026903,0.04688091539670276
1648294798465356475,24802,16,1,0.033514522016,0.0146502861753,-0.0293251797557,0.0,14.6999998093,0.011208870239464881,0.0048997612626421405,-0.009807752426655518,14.6999998093,0.0,0.016591720963215706,0.0468809155060271
1648294798465363549,24803,16,2,0.396215796471,-0.612381994724,-0.511287093163,0.0,14.6999998093,0.13251364430468227,-0.20481003168026754,-0.17099902781371237,14.6999998093,0.0,0.27760922342510147,0.8907374228527531
1648294798465365454,24804,16,3,1.91486227512,-0.120132349432,0.115786224604,0.0,14.6999998093,0.6404221655919732,-0.040178043288294316,0.03872448983411371,14.6999998093,0.0,0.9065844558150672,1.922117520825884
1648294798465375908,24805,16,4,2.18837881088,-1.31266570091,0.616662502289,0.0,14.6999998093,0.7318992678528429,-0.4390186290668896,0.20624163956153843,14.6999998093,0.0,1.124317763461392,2.6253315417263847
