%time,field.header.seq,field.header.frame_id,field.point_id,field.x,field.y,field.z,field.velocity,field.intensity,normalized_x,normalized_y,normalized_z,normalized_intensity,normalized_velocity,normalized_range,range
1648294735060004693,22763,0,0,0.0126678450033,0.0439508594573,0.0102794887498,0.0,15.3999996185,0.004236737459297658,0.014699284099431437,0.0034379561036120398,15.3999996185,0.0,0.015873526439762208,0.046880915445629195
1648294735060150116,22764,0,1,0.0335877910256,0.0146502861753,-0.0292412284762,0.0,15.3999996185,0.011233374924949833,0.0048997612626421405,-0.009779675075652174,15.3999996185,0.0,0.016624833377807784,0.04688091332082697
1648294735060154076,22765,0,2,0.406604111195,-0.73837441206,-0.0396236740053,0.0,15.3999996185,0.13598799705518394,-0.24694796389966553,-0.013252064884715718,15.3999996185,0.0,0.3129996286904378,0.843856451754269
1648294735060162377,22766,0,3,2.24102067947,-1.2306240797,0.596452474594,0.0,15.3999996185,0.7495052439698996,-0.4115799597658863,0.1994824329745819,15.3999996185,0.0,1.137063887720319,2.625331382092356
1648294735060167653,22767,0,4,1.84259533882,-0.0586011447012,0.343395799398,0.0809188112617,15.3999996185,0.6162526216789297,-0.019599045050568562,0.11484809344414716,15.3999996185,0.010934974494824324,0.8717331644598606,1.8752366122294202
1648294735060172094,22768,0,5,1.96879196167,-0.0,-0.0285137481987,-0.161837622523,15.3999996185,0.6584588500568561,-0.0,-0.009536370635016722,15.3999996185,-0.021869948989594594,0.931201436014998,1.9689984312265834
1648294735165055968,22769,1,0,0.0126699265093,0.0439508594573,0.0102769229561,0.0,24.0,0.004237433615150501,0.014699284099431437,0.0034370979786287623,24.0,0.0,0.015873898082116214,0.04688091541589194
1648294735165075410,22770,1,1,0.0335372425616,0.0146502861753,-0.0292991939932,0.0,24.0,0.011216469084147156,0.0048997612626421405,-0.00979906153618729,24.0,0.0,0.016601988370738802,0.04688091607791967
1648294735165086333,22771,1,2,2.24075746536,-1.2306240797,0.597440481186,0.0,24.0,0.7494172124949833,-0.4115799597658863,0.1998128699618729,24.0,0.0,1.136947835236248,2.6253313643545653
1648294735165089316,22772,1,3,1.7595294714,0.278355449438,-0.0150675307959,0.404594063759,24.0,0.5884713951170568,0.09309546803946488,-0.005039307958494983,24.0,0.05467487348094594,0.837415029666603,1.7814748798232547
1648294735165178023,22773,1,4,1.69556379318,-0.389697611332,0.383212476969,0.404594063759,24.0,0.5670781916989966,-0.13033364927491636,0.12816470801638796,24.0,0.05467487348094594,0.8124913606522379,1.7814748405536165
1648294735165181493,22774,1,5,0.353664726019,-0.76474493742,-0.0466922186315,-0.0809188112617,24.0,0.11828251706321069,-0.2557675375986622,-0.015616126632608694,24.0,-0.010934974494824324,0.30561174875141917,0.8438564575923715
1648294735165184655,22775,1,6,1.96441984177,-0.12306240201,0.0535255409777,-0.0809188112617,24.0,0.6569966025986622,-0.04115799398327759,0.017901518721638796,24.0,-0.010934974494824324,0.9300446506061397,1.9689983882840276
1648294735360048512,22776,3,0,0.0126902572811,0.0439508594573,0.0102518079802,0.0,17.6000003815,0.004244233204381271,0.014699284099431437,0.0034286983211371234,17.6000003815,0.0,0.015877530791094153,0.04688091556015881
1648294735360067767,22777,3,1,0.0335372425616,0.0146502861753,-0.0292991939932,0.0,17.6000003815,0.011216469084147156,0.0048997612626421405,-0.00979906153618729,17.6000003815,0.0,0.016601988370738802,0.04688091607791967
1648294735360070269,22778,3,2,1.91385221481,-0.120132349432,0.131430625916,0.0,17.6000003815,0.6400843527792641,-0.040178043288294316,0.04395673107558528,17.6000003815,0.0,0.9061071859930121,1.9221176059080947
1648294735360214768,22779,3,3,2.23995065689,-1.2306240797,0.600458681583,0.0,17.6000003815,0.7491473768862876,-0.4115799597658863,0.2008223015327759,17.6000003815,0.0,1.136592120275387,2.6253314455755503
1648294735465205281,22780,4,0,0.0126902572811,0.0439508594573,0.0102518079802,0.0,15.0,0.004244233204381271,0.014699284099431437,0.0034286983211371234,15.0,0.0,0.015877530791094153,0.04688091556015881
1648294735465214942,22781,4,1,0.0335372425616,0.0146502861753,-0.0292991939932,0.0,15.0,0.011216469084147156,0.0048997612626421405,-0.00979906153618729,15.0,0.0,0.016601988370738802,0.04688091607791967
1648294735465218325,22782,4,2,1.96395146847,-0.12306240201,0.068592056632,0.0,15.0,0.6568399560100334,-0.04115799398327759,0.022940487167892976,15.0,0.0,0.929823335957564,1.9689983736730072
1648294735465219977,22783,4,3,2.24152207375,-1.2306240797,0.594565808773,0.0,15.0,0.7496729343645485,-0.4115799597658863,0.198851441061204,15.0,0.0,1.1372849600334975,2.625331471187565
1648294735465222586,22784,4,4,0.407919347286,-0.73837441206,-0.0223324093968,0.161837622523,15.0,0.1364278753464883,-0.24694796389966553,-0.007469033243076922,15.0,0.021869948989594594,0.3133822381969093,0.8438564467873984
1648294735465224171,22785,4,5,1.76457893848,-0.228544458747,0.42061060667,0.161837622523,15.0,0.5901601800936455,-0.07643627382842809,0.14067244370234114,15.0,0.021869948989594594,0.8381053515478245,1.828355731851564
1648294735660058552,22786,6,0,0.00631579104811,0.0454158857465,0.00976362358779,0.0,22.3999996185,0.0021123046983645482,0.015189259446989964,0.003265425949093645,22.3999996185,0.0,0.015480221730499849,0.04688091552291377
1648294735660062062,22787,6,1,0.0335372425616,0.0146502861753,-0.0292991939932,0.0,22.3999996185,0.011216469084147156,0.0048997612626421405,-0.00979906153618729,22.3999996185,0.0,0.016601988370738802,0.04688091607791967
1648294735660155145,22788,6,2,1.96021938324,-0.184593603015,0.0204983297735,0.0,22.3999996185,0.6555917669698996,-0.06173699097491638,0.006855628686789297,22.3999996185,0.0,0.9291999708846677,1.9689984789804609
1648294735660158313,22789,6,3,2.23792886734,-1.2306240797,0.60795044899,0.0,22.3999996185,0.748471193090301,-0.4115799597658863,0.20332790936120398,22.3999996185,0.0,1.1357008043727563,2.6253314056016452
1648294735765068552,22790,7,0,0.0126799661666,0.0439508594573,0.0102645335719,0.0,15.1000003815,0.004240791360066889,0.014699284099431437,0.00343295437187291,15.1000003815,0.0,0.015875691347309377,0.04688091550375397
1648294735765076530,22791,7,1,0.0335372425616,0.0146502861753,-0.0292991939932,0.0,15.1000003815,0.011216469084147156,0.0048997612626421405,-0.00979906153618729,15.1000003815,0.0,0.016601988370738802,0.04688091607791967
1648294735765081185,22792,7,2,0.398250997066,-0.668053030968,-0.434182524681,0.0,15.1000003815,0.1331943134,-0.22342910734715715,-0.1452115467160535,15.1000003815,0.0,0.2922362336435068,0.8907374324614195
1648294735765099966,22793,7,3,1.9545404911,-0.184593603015,0.150504171848,0.0,15.1000003815,0.6536924719397993,-0.06173699097491638,0.05033584342742475,15.1000003815,0.0,0.9265199144088417,1.9689984345771179
1648294735765247179,22794,7,4,2.23517751694,-1.2306240797,0.617988824844,0.0,15.1000003815,0.7475510090100334,-0.4115799597658863,0.20668522570033443,15.1000003815,0.0,1.1344880278895528,2.6253312829819406
1648294735960147816,22795,9,0,0.0126799661666,0.0439508594573,0.0102645335719,0.0,14.8000001907,0.004240791360066889,0.014699284099431437,0.00343295437187291,14.8000001907,0.0,0.015875691347309377,0.04688091550375397
1648294735960170475,22796,9,1,0.0335372425616,0.0146502861753,-0.0292991939932,0.0,14.8000001907,0.011216469084147156,0.0048997612626421405,-0.00979906153618729,14.8000001907,0.0,0.016601988370738802,0.04688091607791967
1648294735960173207,22797,9,2,2.23552179337,-1.2306240797,0.616742670536,0.0,14.8000001907,0.7476661516287624,-0.4115799597658863,0.2062684516842809,14.8000001907,0.0,1.13463977184991,2.6253313763846213
1648294736065379018,22798,10,0,0.0126902572811,0.0439508594573,0.0102518079802,0.0,15.6000003815,0.004244233204381271,0.014699284099431437,0.0034286983211371234,15.6000003815,0.0,0.015877530791094153,0.04688091556015881
1648294736065387066,22799,10,1,0.033514522016,0.0146502861753,-0.0293251797557,0.0,15.6000003815,0.011208870239464881,0.0048997612626421405,-0.009807752426655518,15.6000003815,0.0,0.016591720963215706,0.0468809155060271
1648294736065390406,22800,10,2,1.86574852467,-0.120132349432,-0.446191519499,0.0,15.6000003815,0.6239961620969899,-0.040178043288294316,-0.14922793294280934,15.6000003815,0.0,0.8833780027745891,1.9221176370766595
1648294736065392477,22801,10,3,0.447312265635,0.660727918148,1.74868130684,0.0,15.6000003815,0.1496027644264214,0.22097923683879597,0.5848432464347826,15.6000003815,0.0,0.3059310336692101,1.922117571247752
1648294736065437641,22802,10,4,2.23440337181,-1.2306240797,0.620782792568,0.0,15.6000003815,0.7472920975953177,-0.4115799597658863,0.2076196630662207,15.6000003815,0.0,1.134146825388013,2.625331470317966
1648294736260088154,22803,12,0,0.0126799661666,0.0439508594573,0.0102645335719,0.0,15.6000003815,0.004240791360066889,0.014699284099431437,0.00343295437187291,15.6000003815,0.0,0.015875691347309377,0.04688091550375397
1648294736260091353,22804,12,1,0.0335372425616,0.0146502861753,-0.0292991939932,0.0,15.6000003815,0.011216469084147156,0.0048997612626421405,-0.00979906153618729,15.6000003815,0.0,0.016601988370738802,0.04688091607791967
1648294736260094005,22805,12,2,1.89339053631,-0.0,0.331071585417,0.0,15.6000003815,0.6332409820434782,-0.0,0.11072628274816053,15.6000003815,0.0,0.8955379850563444,1.9221176128579633
1648294736260227299,22806,12,3,2.23594760895,-1.2306240797,0.615196585655,0.0,15.6000003815,0.7478085648662207,-0.4115799597658863,0.20575136643979933,15.6000003815,0.0,1.1348274594207886,2.625331250434555
1648294736365346919,22807,13,0,0.00631579104811,0.0454158857465,0.00976362358779,0.0,15.3999996185,0.0021123046983645482,0.015189259446989964,0.003265425949093645,15.3999996185,0.0,0.015480221730499849,0.04688091552291377
1648294736365355510,22808,13,1,0.0335281863809,0.0146502861753,-0.0293095558882,0.0,15.3999996185,0.011213440261170568,0.0048997612626421405,-0.0098025270529097,15.3999996185,0.0,0.016597895812800207,0.04688091544940301
1648294736365359451,22809,13,2,2.23801851273,-1.2306240797,0.607620418072,0.0,15.3999996185,0.7485011748260869,-0.4115799597658863,0.20321753112775917,15.3999996185,0.0,1.135740322746777,2.625331419329313
1648294736560230954,22810,15,0,0.0126799661666,0.0439508594573,0.0102645335719,0.0,14.8999996185,0.004240791360066889,0.014699284099431437,0.00343295437187291,14.8999996185,0.0,0.015875691347309377,0.04688091550375397
1648294736560258648,22811,15,1,0.0335372425616,0.0146502861753,-0.0292991939932,0.0,14.8999996185,0.011216469084147156,0.0048997612626421405,-0.00979906153618729,14.8999996185,0.0,0.016601988370738802,0.04688091607791967
1648294736560263330,22812,15,2,1.95341551304,-0.24612480402,0.0233506597579,0.0,14.8999996185,0.6533162250969899,-0.08231598796655518,0.0078095852033110355,14.8999996185,0.0,0.9275883256191141,1.9689984355124153
1648294736560274232,22813,15,3,2.23358297348,-1.2306240797,0.623727679253,0.0,14.8999996185,0.747017716882943,-0.4115799597658863,0.20860457500100332,14.8999996185,0.0,1.1337852538972706,2.6253313586714273
