%time,field.header.seq,field.header.frame_id,field.point_id,field.x,field.y,field.z,field.velocity,field.intensity,normalized_x,normalized_y,normalized_z,normalized_intensity,normalized_velocity,normalized_range,range
1648295973975284657,70881,0,0,0.0127909947187,0.0439508594573,0.0101258400828,0.0,15.1000003815,0.004277924655083612,0.014699284099431437,0.0033865685895652173,15.1000003815,0.0,0.015895604164200314,0.04688091541674061
1648295973975288664,70882,0,1,0.0335269682109,0.0146502861753,-0.0293109472841,0.0,15.1000003815,0.01121303284645485,0.0048997612626421405,-0.00980299240270903,15.1000003815,0.0,0.016597345319726262,0.046880914166899254
1648295973975293296,70883,0,2,1.90749835968,-0.120132349432,0.20384927094,0.0,15.1000003815,0.637959317618729,-0.040178043288294316,0.06817701369230769,15.1000003815,0.0,0.9031048981350864,1.9221176599846097
1648295973975298977,70884,0,3,2.24552106857,-1.2306240797,0.579279065132,0.0,15.1000003815,0.7510103908260869,-0.4115799597658863,0.19373881776989965,15.1000003815,0.0,1.1390484087774286,2.6253313562728477
1648295974170258243,70885,2,0,0.0127004906535,0.0439508594573,0.0102391270921,0.0,15.1000003815,0.004247655736956521,0.014699284099431437,0.003424457221438127,15.1000003815,0.0,0.01587936118221376,0.046880915450566385
1648295974170275523,70886,2,1,0.0334552153945,0.0146502861753,-0.0293928217143,0.0,15.1000003815,0.011189035248996655,0.0048997612626421405,-0.00983037515528428,15.1000003815,0.0,0.016564923182359397,0.0468809160580209
1648295974170282204,70887,2,2,1.9148362875,-0.0600661747158,0.155980676413,0.0,15.1000003815,0.6404134740802675,-0.020089021644080267,0.05216745030535117,15.1000003815,0.0,0.9059041915996036,1.9221175626600024
1648295974170286467,70888,2,3,2.24273276329,-1.2306240797,0.589982271194,0.0,15.1000003815,0.7500778472541805,-0.4115799597658863,0.19731848534916388,15.1000003815,0.0,1.1378187980358823,2.6253313987752294
1648295974170296516,70889,2,4,1.71719169617,-0.108412116766,-0.219808742404,-0.647350490093,15.1000003815,0.5743116040702341,-0.03625823303210702,-0.07351462956655518,15.1000003815,-0.08747979595851352,0.8130081774509167,1.73459401350694
1648295974275296835,70890,3,0,0.0127217965201,0.0439508594573,0.010212643072,0.0,20.3999996185,0.004254781444849498,0.014699284099431437,0.0034155996896321067,20.3999996185,0.0,0.015883176109414296,0.046880915437416903
1648295974275324329,70891,3,1,0.0335269682109,0.0146502861753,-0.0293109472841,0.0,20.3999996185,0.01121303284645485,0.0048997612626421405,-0.00980299240270903,20.3999996185,0.0,0.016597345319726262,0.046880914166899254
1648295974275357208,70892,3,2,1.48367142677,-1.68478298187,0.674371242523,0.0,20.3999996185,0.4962111795217391,-0.5634725691872909,0.22554222157959863,20.3999996185,0.0,0.8999735582733737,2.344045897877111
1648295974275364047,70893,3,3,2.2441110611,-1.2306240797,0.584717452526,0.0,20.3999996185,0.7505388164214046,-0.4115799597658863,0.19555767643010033,20.3999996185,0.0,1.1384265866499141,2.6253313275427415
1648295974275414632,70894,3,4,1.66321468353,-0.263705134392,-0.112032167614,-0.647350490093,20.3999996185,0.5562590914816052,-0.08819569712107023,-0.03746895237926421,20.3999996185,-0.08747979595851352,0.791597646978914,1.6877128570923408
1648295974275425202,70895,3,5,1.91291356087,0.120132349432,0.144451126456,-0.161837622523,20.3999996185,0.6397704216956521,0.040178043288294316,0.04831141353043478,20.3999996185,-0.021869948989594594,0.9056636572788714,1.9221176344528976
1648295974470366150,70896,5,0,0.0127217965201,0.0439508594573,0.010212643072,0.0,20.6000003815,0.004254781444849498,0.014699284099431437,0.0034155996896321067,20.6000003815,0.0,0.015883176109414296,0.046880915437416903
1648295974470376430,70897,5,1,0.033517640084,0.0146502861753,-0.0293216109276,0.0,20.6000003815,0.011209913071571907,0.0048997612626421405,-0.009806558838662207,20.6000003815,0.0,0.016593129981268932,0.04688091241868381
1648295974470385812,70898,5,2,1.47082221508,-1.68478298187,0.701953947544,0.0,20.6000003815,0.4919137843076923,-0.5634725691872909,0.23476720653645483,20.6000003815,0.0,0.8952428042773402,2.344045867478751
1648295974470391802,70899,5,3,2.24517893791,-1.2306240797,0.580604076385,0.0,20.6000003815,0.7508959658561872,-0.4115799597658863,0.19418196534615384,20.6000003815,0.0,1.1388975223254643,2.6253314423681875
1648295974470421946,70900,5,4,0.87123042345,-0.542060613632,-1.39855062962,-0.647350490093,20.6000003815,0.2913814125250836,-0.18129117512775916,-0.4677426854916388,20.6000003815,-0.08747979595851352,0.45019189831607337,1.734593907289676
1648295974470461640,70901,5,5,1.72200477123,0.108412116766,0.178220942616,-0.647350490093,20.6000003815,0.5759213281705685,0.03625823303210702,0.05960566642675585,20.6000003815,-0.08747979595851352,0.8152824123861092,1.734593993875081
1648295974470468075,70902,5,6,1.92060577869,-0.0600661747158,0.0469207689166,-0.161837622523,20.6000003815,0.6423430697959865,-0.020089021644080267,0.015692564855050165,20.6000003815,-0.021869948989594594,0.9086323829913171,1.9221175981292444
1648295974575434065,70903,6,0,0.0127004906535,0.0439508594573,0.0102391270921,0.0,31.2000007629,0.004247655736956521,0.014699284099431437,0.003424457221438127,31.2000007629,0.0,0.01587936118221376,0.046880915450566385
1648295974575444205,70904,6,1,0.0335269682109,0.0146502861753,-0.0293109472841,0.0,31.2000007629,0.01121303284645485,0.0048997612626421405,-0.00980299240270903,31.2000007629,0.0,0.016597345319726262,0.046880914166899254
1648295974575446734,70905,6,2,2.24621391296,-1.2306240797,0.576587319374,0.0,31.2000007629,0.7512421113578595,-0.4115799597658863,0.19283856835250834,31.2000007629,0.0,1.13935397617936,2.625331503862977
1648295974575482118,70906,6,3,1.91710293293,-0.0600661747158,0.125077575445,-0.0809188112617,31.2000007629,0.6411715494749164,-0.020089021644080267,0.041831965031772576,31.2000007629,-0.010934974494824324,0.9069760087801367,1.922117582426475
1648295974770582032,70907,8,0,0.0126802325249,0.0439508594573,0.0102642038837,0.0,18.7000007629,0.004240880443110368,0.014699284099431437,0.0034328441082608695,18.7000007629,0.0,0.015875738940323687,0.0468809153631521
1648295974770591557,70908,8,1,0.0335269682109,0.0146502861753,-0.0293109472841,0.0,18.7000007629,0.01121303284645485,0.0048997612626421405,-0.00980299240270903,18.7000007629,0.0,0.016597345319726262,0.046880914166899254
1648295974770614675,70909,8,2,1.91080272198,-0.180198520422,0.104390650988,0.0,18.7000007629,0.6390644555117057,-0.06026706368628762,0.0349132612,18.7000007629,0.0,0.9057808098885252,1.9221175710924014
1648295974770630695,70910,8,3,2.24603271484,-1.2306240797,0.577292561531,0.0,18.7000007629,0.751181509979933,-0.4115799597658863,0.1930744352946488,18.7000007629,0.0,1.139274060598394,2.625331461600237
1648295974875364472,70911,9,0,0.0127217965201,0.0439508594573,0.010212643072,0.0,14.8000001907,0.004254781444849498,0.014699284099431437,0.0034155996896321067,14.8000001907,0.0,0.015883176109414296,0.046880915437416903
1648295974875375252,70912,9,1,0.0335269682109,0.0146502861753,-0.0293109472841,0.0,14.8000001907,0.01121303284645485,0.0048997612626421405,-0.00980299240270903,14.8000001907,0.0,0.016597345319726262,0.046880914166899254
1648295974875382471,70913,9,2,1.8664649725,-0.117202289402,0.138146460056,0.0,14.8000001907,0.6242357767558528,-0.03919809010100334,0.046202829450167224,14.8000001907,0.0,0.8836725073416805,1.8752366023082259
1648295974875385708,70914,9,3,2.24299836159,-1.2306240797,0.588971853256,0.0,14.8000001907,0.7501666761170569,-0.4115799597658863,0.1969805529284281,14.8000001907,0.0,1.1379359152403596,2.625331430421825
1648295975070362613,70915,11,0,0.0127016305923,0.0439508594573,0.0102377133444,0.0,14.8999996185,0.0042480369873913034,0.014699284099431437,0.0034239843961204014,14.8999996185,0.0,0.01587956515551629,0.04688091553351634
1648295975070393952,70916,11,1,0.0335269682109,0.0146502861753,-0.0293109472841,0.0,14.8999996185,0.01121303284645485,0.0048997612626421405,-0.00980299240270903,14.8999996185,0.0,0.016597345319726262,0.046880914166899254
1648295975070407842,70917,11,2,1.86910057068,-0.117202289402,0.0961191877723,0.0,14.8999996185,0.6251172477190635,-0.03919809010100334,0.03214688554257525,14.8999996185,0.0,0.884917870233888,1.8752365765991708
1648295975070437980,70918,11,3,2.24228858948,-1.2306240797,0.5916685462,0.0,14.8999996185,0.7499292941404683,-0.4115799597658863,0.1978824569230769,14.8999996185,0.0,1.137622940917126,2.6253314862340913
1648295975175499629,70919,12,0,0.0127004906535,0.0439508594573,0.0102391270921,0.0,15.8000001907,0.004247655736956521,0.014699284099431437,0.003424457221438127,15.8000001907,0.0,0.01587936118221376,0.046880915450566385
1648295975175507490,70920,12,1,0.0334416292608,0.0146502861753,-0.0294082760811,0.0,15.8000001907,0.011184491391571906,0.0048997612626421405,-0.009835543839832775,15.8000001907,0.0,0.016558784852977005,0.04688091461028868
1648295975175510174,70921,12,2,1.95813572407,-0.061531201005,0.197162598372,0.0,15.8000001907,0.654894890993311,-0.020578996991638794,0.06594066835183947,15.8000001907,0.0,0.9263898378196207,1.968998398367317
1648295975175520828,70922,12,3,2.24371743202,-1.2306240797,0.586226642132,0.0,15.8000001907,0.7504071678996654,-0.4115799597658863,0.19606242211772576,15.8000001907,0.0,1.138253002873826,2.625331448833319
1648295975370460687,70923,14,0,0.0127004906535,0.0439508594573,0.0102391270921,0.0,15.5,0.004247655736956521,0.014699284099431437,0.003424457221438127,15.5,0.0,0.01587936118221376,0.046880915450566385
1648295975370479702,70924,14,1,0.0335404723883,0.0146502861753,-0.0292954929173,0.0,15.5,0.011217549293745818,0.0048997612626421405,-0.009797823718160533,15.5,0.0,0.016603447977637752,0.046880913795659694
1648295975370482662,70925,14,2,1.89277839661,-0.120132349432,0.312240689993,0.0,15.5,0.6330362530468227,-0.040178043288294316,0.10442832441237457,15.5,0.0,0.8961495804304088,1.9221176052835267
1648295975370486807,70926,14,3,2.24206280708,-1.2306240797,0.592523336411,0.0,15.5,0.7498537816321069,-0.4115799597658863,0.19816833993678928,15.5,0.0,1.1375233847868058,2.6253314382417594
1648295975475388654,70927,15,0,0.0127217965201,0.0439508594573,0.010212643072,0.0,15.5,0.004254781444849498,0.014699284099431437,0.0034155996896321067,15.5,0.0,0.015883176109414296,0.046880915437416903
1648295975475415581,70928,15,1,0.0335269682109,0.0146502861753,-0.0293109472841,0.0,15.5,0.01121303284645485,0.0048997612626421405,-0.00980299240270903,15.5,0.0,0.016597345319726262,0.046880914166899254
1648295975475431672,70929,15,2,1.86904084682,-0.117202289402,0.0972731411457,0.0,15.5,0.6250972731839464,-0.03919809010100334,0.03253282312565217,15.5,0.0,0.8848896497030445,1.8752365524677264
1648295975475435119,70930,15,3,2.24476003647,-1.2306240797,0.582221865654,0.0,15.5,0.7507558650401338,-0.4115799597658863,0.19472303199130434,15.5,0.0,1.1387127825159458,2.6253315119648972
