%time,field.header.seq,field.header.frame_id,field.point_id,field.x,field.y,field.z,field.velocity,field.intensity,normalized_x,normalized_y,normalized_z,normalized_intensity,normalized_velocity,normalized_range,range
1648295792867168661,65671,0,0,0.0127004906535,0.0439508594573,0.0102391270921,0.0,12.3999996185,0.004247655736956521,0.014699284099431437,0.003424457221438127,12.3999996185,0.0,0.01587936118221376,0.046880915450566385
1648295792867176558,65672,0,1,0.0334051251411,0.0146502861753,-0.0294497366995,0.0,12.3999996185,0.011172282655886287,0.0048997612626421405,-0.009849410267391303,12.3999996185,0.0,0.016542293067072764,0.04688091575876707
1648295792867279139,65673,0,2,1.91680884361,-0.120132349432,0.0771251395345,0.0,12.3999996185,0.6410731918428093,-0.040178043288294316,0.025794361048327757,12.3999996185,0.0,0.9075042422829388,1.9221176372609907
1648295792867283414,65674,0,3,2.24173331261,-1.2306240797,0.593767940998,0.0,12.3999996185,0.749743582812709,-0.4115799597658863,0.19858459565150502,12.3999996185,0.0,1.1373781003776025,2.6253312625571428
1648295792867291772,65675,0,4,1.96762692928,-0.061531201005,0.0401617102325,-0.161837622523,12.3999996185,0.6580692071170567,-0.020578996991638794,0.013432010111204012,12.3999996185,-0.021869948989594594,0.9308778963046256,1.968998421658524
1648295792972327192,65676,1,0,0.0127334436402,0.0439508594573,0.0101981181651,0.0,24.1000003815,0.004258676802742474,0.014699284099431437,0.003410741861237458,24.1000003815,0.0,0.015885263902631005,0.0468809156062766
1648295792972332159,65677,1,1,0.0335410349071,0.0146502861753,-0.0292948503047,0.0,24.1000003815,0.011217737427123745,0.0048997612626421405,-0.009797608797558527,24.1000003815,0.0,0.016603702189532134,0.046880914688519765
1648295792972337092,65678,1,2,1.91714394093,-0.120132349432,0.0682870447636,0.0,24.1000003815,0.6411852645250835,-0.040178043288294316,0.022838476509565213,24.1000003815,0.0,0.9076625816076581,1.9221175281723044
1648295792972340735,65679,1,3,2.23982024193,-1.2306240797,0.600944757462,0.0,24.1000003815,0.7491037598428093,-0.4115799597658863,0.20098486871638796,24.1000003815,0.0,1.1365346230107358,2.625331396836959
1648295793167251540,65680,3,0,0.0127004906535,0.0439508594573,0.0102391270921,0.0,15.3000001907,0.004247655736956521,0.014699284099431437,0.003424457221438127,15.3000001907,0.0,0.01587936118221376,0.046880915450566385
1648295793167275223,65681,3,1,0.0335134975612,0.0146502861753,-0.0293263476342,0.0,15.3000001907,0.01120852761244147,0.0048997612626421405,-0.009808143021471571,15.3000001907,0.0,0.016591258026702325,0.04688091370019032
1648295793167303852,65682,3,2,0.412429183722,-0.0,1.04682695866,0.0,15.3000001907,0.13793618184682274,-0.0,0.350109350722408,15.3000001907,0.0,0.19507121910973824,1.1251419967999332
1648295793167538384,65683,3,3,2.2417011261,-1.2306240797,0.593889594078,0.0,15.3000001907,0.7497328180936454,-0.4115799597658863,0.19862528230033444,15.3000001907,0.0,1.1373639084893483,2.6253312960938118
1648295793167544152,65684,3,4,1.86590087414,-0.117202289402,0.145566940308,-0.0809188112617,15.3000001907,0.62404711509699,-0.03919809010100334,0.04868459542073578,15.3000001907,-0.010934974494824324,0.8834059621653672,1.8752365671744244
1648295793272209824,65685,4,0,0.0127121871337,0.0439508594573,0.0102246021852,0.0,18.7000007629,0.004251567603244147,0.014699284099431437,0.003419599393043478,18.7000007629,0.0,0.01588145482018912,0.04688091550517269
1648295793272224682,65686,4,1,0.0335134975612,0.0146502861753,-0.0293263476342,0.0,18.7000007629,0.01120852761244147,0.0048997612626421405,-0.009808143021471571,18.7000007629,0.0,0.016591258026702325,0.04688091370019032
1648295793272229581,65687,4,2,0.412429183722,-0.0,1.04682695866,0.0,18.7000007629,0.13793618184682274,-0.0,0.350109350722408,18.7000007629,0.0,0.19507121910973824,1.1251419967999332
1648295793272233212,65688,4,3,2.23935508728,-1.2306240797,0.602676033974,0.0,18.7000007629,0.7489481897257524,-0.4115799597658863,0.20156389096120403,18.7000007629,0.0,1.1363295495004309,2.6253314522914852
1648295793272418129,65689,4,4,1.4564384222,-0.0,-0.942126989365,-0.647350490093,18.7000007629,0.4871031512374582,-0.0,-0.315092638583612,18.7000007629,-0.08747979595851352,0.6888678827546862,1.7345939414601863
1648295793272506275,65690,4,5,1.5350331068,0.596266627312,0.544936239719,-0.647350490093,18.7000007629,0.5133889989297659,0.19942027669297657,0.18225292298294313,18.7000007629,-0.08747979595851352,0.752930923259576,1.7345939107402548
1648295793272510041,65691,4,6,1.91536188126,-0.120132349432,0.107204765081,-0.0809188112617,18.7000007629,0.6405892579464882,-0.040178043288294316,0.0358544364819398,18.7000007629,-0.010934974494824324,0.9068205279741637,1.92211752481995
1648295793467071206,65692,6,0,0.0127207012847,0.0439508594573,0.0102140065283,0.0,18.1000003815,0.004254415145384615,0.014699284099431437,0.003416055695083612,18.1000003815,0.0,0.01588297986822227,0.04688091528084813
1648295793467075566,65693,6,1,0.0334906764328,0.0146502861753,-0.0293524079025,0.0,18.1000003815,0.011200895128026755,0.0048997612626421405,-0.009816858830267557,18.1000003815,0.0,0.01658094580441645,0.04688091448147568
1648295793467189876,65694,6,2,2.24207162857,-1.2306240797,0.592489302158,0.0,18.1000003815,0.7498567319632107,-0.4115799597658863,0.19815695724347823,18.1000003815,0.0,1.1375272744958609,2.6253312907798283
1648295793467215377,65695,6,3,1.86523425579,-0.0586011447012,0.184334933758,0.0809188112617,18.1000003815,0.6238241658160535,-0.019599045050568562,0.06165047951772575,18.1000003815,0.010934974494824324,0.88243827108704,1.8752365959889787
1648295793572186090,65696,7,0,0.0127207012847,0.0439508594573,0.0102140065283,0.0,22.2999992371,0.004254415145384615,0.014699284099431437,0.003416055695083612,22.2999992371,0.0,0.01588297986822227,0.04688091528084813
1648295793572189700,65697,7,1,0.0335134975612,0.0146502861753,-0.0293263476342,0.0,22.2999992371,0.01120852761244147,0.0048997612626421405,-0.009808143021471571,22.2999992371,0.0,0.016591258026702325,0.04688091370019032
1648295793572197750,65698,7,2,0.426844120026,-0.0,1.04103243351,0.0,22.2999992371,0.1427572307779264,-0.0,0.34817138244481605,22.2999992371,0.0,0.20188921189296935,1.1251419601190433
1648295793572219425,65699,7,3,1.0532194376,0.351606875658,0.181785091758,0.0,22.2999992371,0.35224730354515044,0.11759427279531771,0.06079768955117057,22.2999992371,0.0,0.5118444477611517,1.1251419458601233
1648295793572262305,65700,7,4,1.80076229572,-0.0571361146867,0.311247766018,0.0,22.2999992371,0.6022616373645484,-0.0191090684570903,0.10409624281538461,22.2999992371,0.0,0.8519409112017988,1.8283556965589196
1648295793572266241,65701,7,5,2.24031949043,-1.2306240797,0.599080979824,0.0,22.2999992371,0.7492707325852843,-0.4115799597658863,0.20036153171371235,22.2999992371,0.0,1.1367547337480788,2.6253314200544073
1648295793572318054,65702,7,6,1.95539724827,-0.0,0.231033086777,0.0809188112617,22.2999992371,0.653979012799331,-0.0,0.07726859089531772,22.2999992371,0.010934974494824324,0.9248659894081819,1.9689983965782187
1648295793767235387,65703,9,0,0.0127004906535,0.0439508594573,0.0102391270921,0.0,15.8999996185,0.004247655736956521,0.014699284099431437,0.003424457221438127,15.8999996185,0.0,0.01587936118221376,0.046880915450566385
1648295793767241539,65704,9,1,0.0335269682109,0.0146502861753,-0.0293109472841,0.0,15.8999996185,0.01121303284645485,0.0048997612626421405,-0.00980299240270903,15.8999996185,0.0,0.016597345319726262,0.046880914166899254
1648295793767244305,65705,9,2,1.86012172699,-0.175803437829,0.159851416945,0.0,15.8999996185,0.6221142899632106,-0.05879713639765886,0.053462012356187284,15.8999996185,0.0,0.8817649816143892,1.8752365620027995
1648295793767354553,65706,9,3,2.24108505249,-1.2306240797,0.596210360527,0.0,15.8999996185,0.7495267734080266,-0.4115799597658863,0.19940145837023412,15.8999996185,0.0,1.13709227039488,2.625331337570805
1648295793872322019,65707,10,0,0.0127121871337,0.0439508594573,0.0102246021852,0.0,15.1000003815,0.004251567603244147,0.014699284099431437,0.003419599393043478,15.1000003815,0.0,0.01588145482018912,0.04688091550517269
1648295793872331385,65708,10,1,0.0335134975612,0.0146502861753,-0.0293263476342,0.0,15.1000003815,0.01120852761244147,0.0048997612626421405,-0.009808143021471571,15.1000003815,0.0,0.016591258026702325,0.04688091370019032
1648295793872359937,65709,10,2,2.24016904831,-1.2306240797,0.599643111229,0.0,15.1000003815,0.7492204174949831,-0.4115799597658863,0.20054953552809365,15.1000003815,0.0,1.1366884055287985,2.6253313793477573
1648295793872365375,65710,10,3,1.77090013027,-0.114272229373,0.440158098936,0.0809188112617,15.1000003815,0.5922742910602007,-0.03821813691404682,0.14721006653377924,15.1000003815,0.010934974494824324,0.8384737907000478,1.8283557000362736
1648295794067177406,65711,12,0,0.0127217965201,0.0439508594573,0.010212643072,0.0,21.0,0.004254781444849498,0.014699284099431437,0.0034155996896321067,21.0,0.0,0.015883176109414296,0.046880915437416903
1648295794067181741,65712,12,1,0.0335041433573,0.0146502861753,-0.0293370354921,0.0,21.0,0.011205399116153847,0.0048997612626421405,-0.009811717555886288,21.0,0.0,0.016587031052466603,0.046880914651800804
1648295794067190434,65713,12,2,1.74591648579,-0.228544458747,0.492369294167,0.0,21.0,0.5839185571204013,-0.07643627382842809,0.16467200473812707,21.0,0.0,0.8293155410674017,1.8283556729520032
1648295794067299872,65714,12,3,1.92101860046,-0.0,0.0649865344167,0.0,21.0,0.6424811372775919,-0.0,0.021734626895217393,21.0,0.0,0.9086055379068608,1.922117507586045
1648295794067302123,65715,12,4,2.24238109589,-1.2306240797,0.591317415237,0.0,21.0,0.7499602327391304,-0.4115799597658863,0.19776502181839464,21.0,0.0,1.1376637309245425,2.6253313867595605
1648295794172209214,65716,13,0,0.0127207012847,0.0439508594573,0.0102140065283,0.0,14.6999998093,0.004254415145384615,0.014699284099431437,0.003416055695083612,14.6999998093,0.0,0.01588297986822227,0.04688091528084813
1648295794172213646,65717,13,1,0.0335041433573,0.0146502861753,-0.0293370354921,0.0,14.6999998093,0.011205399116153847,0.0048997612626421405,-0.009811717555886288,14.6999998093,0.0,0.016587031052466603,0.046880914651800804
1648295794172220763,65718,13,2,2.23987340927,-1.2306240797,0.600746512413,0.0,14.6999998093,0.7491215415618728,-0.4115799597658863,0.2009185660244147,14.6999998093,0.0,1.1365580633407877,2.625331386181308
1648295794172230756,65719,13,3,1.85315179825,-0.0,0.286951184273,-0.0809188112617,14.6999998093,0.6197832101170568,-0.0,0.09597029574347825,14.6999998093,-0.010934974494824324,0.8765058214786754,1.8752366702666856
1648295794367172851,65720,15,0,0.0127004906535,0.0439508594573,0.0102391270921,0.0,12.3000001907,0.004247655736956521,0.014699284099431437,0.003424457221438127,12.3000001907,0.0,0.01587936118221376,0.046880915450566385
1648295794367183145,65721,15,1,0.0334696359932,0.0146502861753,-0.029376398772,0.0,12.3000001907,0.011193858191705685,0.0048997612626421405,-0.009824882532441471,12.3000001907,0.0,0.016571438768644125,0.04688091534246167
1648295794367187014,65722,15,2,2.23905491829,-1.2306240797,0.603790283203,0.0,12.3000001907,0.7488477987591973,-0.4115799597658863,0.20193654956622073,12.3000001907,0.0,1.1361972164610679,2.625331456930052
1648295794367286288,65723,15,3,1.76175844669,-0.171408340335,0.457942157984,0.0809188112617,12.3000001907,0.5892168718026756,-0.05732720412541805,0.15315791236923076,12.3000001907,0.010934974494824324,0.8352481382000791,1.8283557267881445
1648295794367289720,65724,15,4,1.9149479866,-0.120132349432,-0.114360652864,-0.0809188112617,12.3000001907,0.640450831638796,-0.040178043288294316,-0.038247709987959864,12.3000001907,-0.010934974494824324,0.9066249558974907,1.9221175644811446
