%time,field.header.seq,field.header.frame_id,field.point_id,field.x,field.y,field.z,field.velocity,field.intensity,normalized_x,normalized_y,normalized_z,normalized_intensity,normalized_velocity,normalized_range,range
1648295993175586041,71402,0,0,0.0127004906535,0.0439508594573,0.0102391270921,0.0,15.0,0.004247655736956521,0.014699284099431437,0.003424457221438127,15.0,0.0,0.01587936118221376,0.046880915450566385
1648295993175595412,71403,0,1,0.0335404723883,0.0146502861753,-0.0292954929173,0.0,15.0,0.011217549293745818,0.0048997612626421405,-0.009797823718160533,15.0,0.0,0.016603447977637752,0.046880913795659694
1648295993175607523,71404,0,2,1.92054867744,-0.0600661747158,0.0492037013173,0.0,15.0,0.6423239723879598,-0.020089021644080267,0.0164560873970903,15.0,0.0,0.9086053817797435,1.9221176269897855
1648295993175618262,71405,0,3,2.24410247803,-1.2306240797,0.584751069546,0.0,15.0,0.7505359458294313,-0.4115799597658863,0.195568919580602,15.0,0.0,1.138422801618558,2.625331478265754
1648295993370621219,71406,2,0,0.0127004906535,0.0439508594573,0.0102391270921,0.0,15.0,0.004247655736956521,0.014699284099431437,0.003424457221438127,15.0,0.0,0.01587936118221376,0.046880915450566385
1648295993370628667,71407,2,1,0.0334186702967,0.0146502861753,-0.029434364289,0.0,15.0,0.01117681280826087,0.0048997612626421405,-0.009844268992976588,15.0,0.0,0.016548412296431853,0.04688091520560668
1648295993370656240,71408,2,2,1.91829717159,-0.120132349432,-0.0155059872195,0.0,15.0,0.6415709603979932,-0.040178043288294316,-0.005185948902842809,15.0,0.0,0.9082075036105366,1.9221176487275426
1648295993370664013,71409,2,3,2.24358153343,-1.2306240797,0.586745858192,0.0,15.0,0.7503617168662207,-0.4115799597658863,0.19623607297391302,15.0,0.0,1.1381930748153992,2.6253312981014507
1648295993475716534,71410,3,0,0.0127217965201,0.0439508594573,0.010212643072,0.0,15.3000001907,0.004254781444849498,0.014699284099431437,0.0034155996896321067,15.3000001907,0.0,0.015883176109414296,0.046880915437416903
1648295993475725627,71411,3,1,0.0335404723883,0.0146502861753,-0.0292954929173,0.0,15.3000001907,0.011217549293745818,0.0048997612626421405,-0.009797823718160533,15.3000001907,0.0,0.016603447977637752,0.046880913795659694
1648295993475733902,71412,3,2,1.44655454159,-1.68478298187,0.750691413879,0.0,15.3000001907,0.483797505548495,-0.5634725691872909,0.25106736250133777,15.3000001907,0.0,0.8863528580517007,2.3440459331389127
1648295993475748962,71413,3,3,2.24254441261,-1.2306240797,0.590697824955,0.0,15.3000001907,0.7500148537157191,-0.4115799597658863,0.1975578009882943,15.3000001907,0.0,1.1377357447444953,2.6253314054557704
1648295993475757972,71414,3,4,1.59862756729,-0.307656019926,0.205104008317,0.404594063759,15.3000001907,0.5346580492608696,-0.10289498994180601,0.06859665829999999,15.3000001907,0.05467487348094594,0.7630896659200681,1.6408320997969144
1648295993475769250,71415,3,5,0.937381327152,0.307656019926,-1.31110405922,0.404594063759,15.3000001907,0.31350546058595313,0.10289498994180601,-0.43849634087625416,15.3000001907,0.05467487348094594,0.4551469285731209,1.640832055145533
1648295993670582735,71416,5,0,0.0127004906535,0.0439508594573,0.0102391270921,0.0,20.5,0.004247655736956521,0.014699284099431437,0.003424457221438127,20.5,0.0,0.01587936118221376,0.046880915450566385
1648295993670589855,71417,5,1,0.0335269682109,0.0146502861753,-0.0293109472841,0.0,20.5,0.01121303284645485,0.0048997612626421405,-0.00980299240270903,20.5,0.0,0.016597345319726262,0.046880914166899254
1648295993670601411,71418,5,2,1.47236800194,-1.68478298187,0.698705852032,0.0,20.5,0.49243076987959866,-0.5634725691872909,0.23368088696722406,20.5,0.0,0.8958110640503135,2.344045881974011
1648295993670625505,71419,5,3,2.24194598198,-1.2306240797,0.592965364456,0.0,20.5,0.7498147096923076,-0.4115799597658863,0.19831617540334448,20.5,0.0,1.1374718726293005,2.625331471471398
1648295993670689976,71420,5,4,1.79640126228,0.175803437829,0.50847619772,0.485512852669,20.5,0.6008030977525084,0.05879713639765886,0.17005892900334446,20.5,0.06560984495527027,0.8516958540386265,1.8752366217417635
1648295993670695820,71421,5,5,1.08126282692,-0.556710898876,-1.30176663399,-0.566431701183,20.5,0.3616263635183946,-0.18619093607892975,-0.43537345618394646,20.5,-0.07654482448418919,0.5442557471088608,1.7814748651541532
1648295993670705387,71422,5,6,1.71889925003,0.167013257742,0.437200754881,-0.566431701183,20.5,0.5748826923177257,0.05585727683678929,0.14622098825451504,20.5,-0.07654482448418919,0.8149234658718422,1.7814748272383218
1648295993670748195,71423,5,7,1.85407662392,-0.117202289402,0.255295336246,-0.0809188112617,20.5,0.620092516361204,-0.03919809010100334,0.08538305560066889,20.5,-0.010934974494824324,0.8778188582856411,1.8752365751330187
1648295993775793412,71424,6,0,0.0127217965201,0.0439508594573,0.010212643072,0.0,15.1000003815,0.004254781444849498,0.014699284099431437,0.0034155996896321067,15.1000003815,0.0,0.015883176109414296,0.046880915437416903
1648295993775812897,71425,6,1,0.0334416292608,0.0146502861753,-0.0294082760811,0.0,15.1000003815,0.011184491391571906,0.0048997612626421405,-0.009835543839832775,15.1000003815,0.0,0.016558784852977005,0.04688091461028868
1648295993775819276,71426,6,2,1.90890455246,-0.0600661747158,0.216820955276,0.0,15.1000003815,0.6384296162073578,-0.020089021644080267,0.07251536965752509,15.1000003815,0.0,0.9030992849581738,1.9221175464560691
1648295993775829357,71427,6,3,2.24256324768,-1.2306240797,0.590626180172,0.0,15.1000003815,0.7500211530702341,-0.4115799597658863,0.197533839522408,15.1000003815,0.0,1.1377440500334404,2.625331375290957
1648295993775832951,71428,6,4,1.84662258625,0.120132349432,0.519701242447,0.242756426334,15.1000003815,0.617599527173913,0.040178043288294316,0.17381312456421402,15.1000003815,0.03280492247756756,0.874341253226312,1.9221176183651318
1648295993970697202,71429,8,0,0.0127004906535,0.0439508594573,0.0102391270921,0.0,35.0999984741,0.004247655736956521,0.014699284099431437,0.003424457221438127,35.0999984741,0.0,0.01587936118221376,0.046880915450566385
1648295993970700955,71430,8,1,0.0335269682109,0.0146502861753,-0.0293109472841,0.0,35.0999984741,0.01121303284645485,0.0048997612626421405,-0.00980299240270903,35.0999984741,0.0,0.016597345319726262,0.046880914166899254
1648295993970703958,71431,8,2,1.81965947151,-0.234404578805,0.387822508812,0.0,35.0999984741,0.6085817630468228,-0.07839618020234114,0.1297065246862876,35.0999984741,0.0,0.8642276816306431,1.875236624312259
1648295993970726169,71432,8,3,2.24486923218,-1.2306240797,0.581800162792,0.0,35.0999984741,0.7507923853444816,-0.4115799597658863,0.19458199424481604,35.0999984741,0.0,1.138760938504391,2.6253313932817495
1648295994075609016,71433,9,0,0.0128108067438,0.0439508594573,0.0101007642224,0.0,15.0,0.004284550750434783,0.014699284099431437,0.0033781820141806015,15.0,0.0,0.01589917303830298,0.046880915672999006
1648295994075683176,71434,9,1,0.0335404723883,0.0146502861753,-0.0292954929173,0.0,15.0,0.011217549293745818,0.0048997612626421405,-0.009797823718160533,15.0,0.0,0.016603447977637752,0.046880913795659694
1648295994075693850,71435,9,2,1.81490325928,-0.0586011447012,0.468192726374,0.0,15.0,0.6069910566153845,-0.019599045050568562,0.15658619611170568,15.0,0.0,0.8586386947890342,1.8752366153995015
1648295994075700147,71436,9,3,2.2400560379,-1.2306240797,0.600065231323,0.0,15.0,0.7491826213712375,-0.4115799597658863,0.20069071281705686,15.0,0.0,1.1366385809087454,2.625331400092652
1648295994270598301,71437,11,0,0.0127217965201,0.0439508594573,0.010212643072,0.0,15.5,0.004254781444849498,0.014699284099431437,0.0034155996896321067,15.5,0.0,0.015883176109414296,0.046880915437416903
1648295994270609248,71438,11,1,0.0335041433573,0.0146502861753,-0.0293370354921,0.0,15.5,0.011205399116153847,0.0048997612626421405,-0.009811717555886288,15.5,0.0,0.016587031052466603,0.046880914651800804
1648295994270624469,71439,11,2,1.86022555828,-0.0,0.236797913909,0.0,15.5,0.6221490161471571,-0.0,0.07919662672541807,15.5,0.0,0.8798515764523873,1.8752366196589145
1648295994270633960,71440,11,3,2.24101543427,-1.2306240797,0.596471726894,0.0,15.5,0.749503489722408,-0.4115799597658863,0.19948887187090297,15.5,0.0,1.1370615750666382,2.625331278745168
1648295994375936380,71441,12,0,0.0127334436402,0.0439508594573,0.0101981181651,0.0,15.6999998093,0.004258676802742474,0.014699284099431437,0.003410741861237458,15.6999998093,0.0,0.015885263902631005,0.0468809156062766
1648295994375947419,71442,12,1,0.0335269682109,0.0146502861753,-0.0293109472841,0.0,15.6999998093,0.01121303284645485,0.0048997612626421405,-0.00980299240270903,15.6999998093,0.0,0.016597345319726262,0.046880914166899254
1648295994375953886,71443,12,2,1.85807418823,-0.117202289402,0.2243578583,0.0,15.6999998093,0.6214294943913043,-0.03919809010100334,0.07503607301003344,15.6999998093,0.0,0.8797077487816227,1.8752366555154063
1648295994375961134,71444,12,3,2.24198555946,-1.2306240797,0.592815518379,0.0,15.6999998093,0.7498279463076923,-0.4115799597658863,0.19826605965852842,15.6999998093,0.0,1.1374893236461219,2.6253314292095777
1648295994570667035,71445,14,0,0.0127217965201,0.0439508594573,0.010212643072,0.0,15.5,0.004254781444849498,0.014699284099431437,0.0034155996896321067,15.5,0.0,0.015883176109414296,0.046880915437416903
1648295994570680170,71446,14,1,0.0335269682109,0.0146502861753,-0.0293109472841,0.0,15.5,0.01121303284645485,0.0048997612626421405,-0.00980299240270903,15.5,0.0,0.016597345319726262,0.046880914166899254
1648295994570686673,71447,14,2,1.8690341711,-0.0586011447012,0.14067569375,0.0,15.5,0.6250950405016722,-0.019599045050568562,0.04704872700668896,15.5,0.0,0.8842351168588978,1.8752366457894851
1648295994570708590,71448,14,3,2.2444524765,-1.2306240797,0.583405911922,0.0,15.5,0.750653002173913,-0.4115799597658863,0.1951190340876254,15.5,0.0,1.1385771482979559,2.625331408197829
1648295994675679162,71449,15,0,0.0127004906535,0.0439508594573,0.0102391270921,0.0,14.6999998093,0.004247655736956521,0.014699284099431437,0.003424457221438127,14.6999998093,0.0,0.01587936118221376,0.046880915450566385
1648295994675684090,71450,15,1,0.033554457128,0.0146502861753,-0.0292794778943,0.0,14.6999998093,0.011222226464214047,0.0048997612626421405,-0.009792467523177258,14.6999998093,0.0,0.016609768031465726,0.04688091620196622
1648295994675686375,71451,15,2,2.24309277534,-1.2306240797,0.588611781597,0.0,14.6999998093,0.7501982526220735,-0.4115799597658863,0.1968601276244147,14.6999998093,0.0,1.1379775480014154,2.6253313417080846
