%time,field.header.seq,field.header.frame_id,field.point_id,field.x,field.y,field.z,field.velocity,field.intensity,normalized_x,normalized_y,normalized_z,normalized_intensity,normalized_velocity,normalized_range,range
1648125596286107083,32067,0,0,0.0126454373822,0.0439508594573,0.0103070409968,0.0,11.3000001907,0.004229243271638795,0.014699284099431437,0.003447170901939799,11.3000001907,0.0,0.015869528989141485,0.046880915389230546
1648125596286113321,32068,0,1,0.0328296348453,0.0146502861753,-0.0300899371505,0.0,11.3000001907,0.010979810985050166,0.0048997612626421405,-0.010063524130602006,11.3000001907,0.0,0.016282510831126296,0.04688091431291589
1648125596286120449,32069,0,2,1.23203897476,-0.039555773139,0.287622004747,0.0,11.3000001907,0.41205316881605347,-0.013229355564882942,0.09619465041705685,11.3000001907,0.0,0.5828813290124879,1.2657847811263097
1648125596286126922,32070,0,3,1.52950751781,0.145037829876,0.181651473045,0.0,11.3000001907,0.5115409758561872,0.048507635410033445,0.06075300101839465,11.3000001907,0.0,0.7250526399185602,1.5470702882519156
1648125596286133278,32071,0,4,1.22904706001,-0.338421612978,0.87655043602,0.0,11.3000001907,0.41105252843143814,-0.11318448594581938,0.2931606809431438,11.3000001907,0.0,0.5922322940524064,1.5470703056864314
1648125596286143680,32072,0,5,2.42242693901,-0.902457654476,0.45802038908,0.0,11.3000001907,0.8101762337826087,-0.30182530250033446,0.1531840766153846,11.3000001907,0.0,1.1848500212270594,2.625331363804706
1648125596286156903,32073,0,6,1.32777810097,-0.375047326088,0.588993012905,-0.0809188112617,11.3000001907,0.4440729434682274,-0.1254338883237458,0.19698762973411368,11.3000001907,-0.010934974494824324,0.6404180030113807,1.5001893052119013
1648125596286167385,32074,0,7,1.47076237202,0.140642747283,-0.260087758303,-0.0809188112617,11.3000001907,0.49189376990635447,0.047037708121404675,-0.08698587234214046,11.3000001907,-0.010934974494824324,0.6972313157989145,1.5001893144974359
1648125596391304549,32075,1,0,0.0126454373822,0.0439508594573,0.0103070409968,0.0,17.7999992371,0.004229243271638795,0.014699284099431437,0.003447170901939799,17.7999992371,0.0,0.015869528989141485,0.046880915389230546
1648125596391332642,32076,1,1,0.032754637301,0.0146502861753,-0.0301715619862,0.0,17.7999992371,0.010954728194314381,0.0048997612626421405,-0.010090823406755852,17.7999992371,0.0,0.016248686102374597,0.046880916185857074
1648125596391347920,32077,1,2,1.23363673687,-0.079111546278,0.272199988365,0.0,17.7999992371,0.4125875374147157,-0.026458711129765885,0.0910367854063545,17.7999992371,0.0,0.5840864794313657,1.2657847640794482
1648125596391360647,32078,1,3,1.37296676636,-0.375047326088,0.474204331636,0.0,17.7999992371,0.4591862094849498,-0.1254338883237458,0.1585967664334448,17.7999992371,0.0,0.661390663906232,1.5001893168787528
1648125596391369617,32079,1,4,0.315717548132,0.140642747283,1.45983219147,0.0,17.7999992371,0.10559115322140467,0.047037708121404675,0.48823819112709027,17.7999992371,0.0,0.1565615829715795,1.5001893146579515
1648125596391374585,32080,1,5,1.43830835819,-0.328166425228,0.272293835878,0.323675245047,17.7999992371,0.48103958467892977,-0.10975465726688963,0.09106817253444816,17.7999992371,0.04373989797932432,0.6890894345786523,1.5001893443640018
1648125596391481500,32081,1,6,1.0808968544,0.187523663044,-1.02326190472,0.323675245047,17.7999992371,0.3615039646822742,0.0627169441618729,-0.3422280617792642,17.7999992371,0.04373989797932432,0.51507635166741,1.5001893412847782
1648125596586109868,32082,3,0,0.0126355709508,0.0439508594573,0.0103191342205,0.0,33.7999992371,0.00422594346180602,0.014699284099431437,0.003451215458361204,33.7999992371,0.0,0.015867770773506908,0.04688091542780209
1648125596586118925,32083,3,1,0.0327790863812,0.0146502861753,-0.0301449969411,0.0,33.7999992371,0.010962905144214047,0.0048997612626421405,-0.010081938776287625,33.7999992371,0.0,0.016259712138686776,0.046880915408973045
1648125596586129004,32084,3,2,1.24207997322,-0.039555773139,0.240590259433,0.0,33.7999992371,0.41541136228093645,-0.013229355564882942,0.08046496971003343,33.7999992371,0.0,0.587629318255028,1.2657847336719061
1648125596586159349,32085,3,3,1.47520720959,0.241729736328,0.398443251848,0.0809188112617,33.7999992371,0.49338033765551836,0.08084606566153846,0.13325861265819397,33.7999992371,0.010934974494824324,0.7024132697373366,1.5470703285871419
1648125596586175043,32086,3,4,1.36484885216,0.515690088272,0.349026322365,0.323675245047,33.7999992371,0.4564711880133779,0.17247160142876253,0.11673121149331102,33.7999992371,0.04373989797932432,0.6681903503284757,1.5001893314139016
1648125596691508133,32087,4,0,0.0126454373822,0.0439508594573,0.0103070409968,0.0,33.0999984741,0.004229243271638795,0.014699284099431437,0.003447170901939799,33.0999984741,0.0,0.015869528989141485,0.046880915389230546
1648125596691524625,32088,4,1,0.0328052677214,0.0146502861753,-0.0301165021956,0.0,33.0999984741,0.01097166144528428,0.0048997612626421405,-0.010072408761070234,33.0999984741,0.0,0.01627152021695464,0.04688091487789562
1648125596691542824,32089,4,2,1.24105870724,-0.039555773139,0.245803982019,0.0,33.0999984741,0.4150698017525083,-0.013229355564882942,0.08220868963846154,33.0999984741,0.0,0.5871464012513362,1.2657847256074948
1648125596691553602,32090,4,3,2.38514900208,-0.984499275684,0.483932614326,0.0,33.0999984741,0.797708696347826,-0.32926397180066885,0.16185037268428093,33.0999984741,0.0,1.1751991710275531,2.6253314764337734
1648125596691558389,32091,4,4,1.41145646572,0.193383783102,0.603174746037,0.161837622523,33.0999984741,0.47205901863545147,0.06467685053578595,0.20173068429331104,33.0999984741,0.021869948989594594,0.6707179206979335,1.5470702687487838
1648125596886315318,32092,6,0,0.0126355709508,0.0439508594573,0.0103191342205,0.0,33.5999984741,0.00422594346180602,0.014699284099431437,0.003451215458361204,33.5999984741,0.0,0.015867770773506908,0.04688091542780209
1648125596886321674,32093,6,1,0.0328296348453,0.0146502861753,-0.0300899371505,0.0,33.5999984741,0.010979810985050166,0.0048997612626421405,-0.010063524130602006,33.5999984741,0.0,0.016282510831126296,0.04688091431291589
1648125596886330136,32094,6,2,1.17635071278,-0.0380907431245,0.316977441311,0.0,33.5999984741,0.39342833203344474,-0.01273937897140468,0.10601252217759195,33.5999984741,0.0,0.5565375069748794,1.218903852840682
1648125596886546817,32095,6,3,1.3950521946,0.131852582097,-0.120343275368,0.0,33.5999984741,0.4665726403344482,0.04409785354414715,-0.04024858707959866,33.5999984741,0.0,0.6613052835903533,1.4064274716423242
1648125596886551523,32096,6,4,2.38095521927,-0.984499275684,0.504161000252,0.0,33.5999984741,0.7963060934013377,-0.32926397180066885,0.16861571914782605,33.5999984741,0.0,1.1732951682769992,2.6253313874950095
1648125596886555483,32097,6,5,1.37743759155,0.338421612978,0.617707908154,0.161837622523,33.5999984741,0.46068146874581933,0.11318448594581938,0.20659127363010032,33.5999984741,0.021869948989594594,0.6612605833938917,1.5470703172582965
1648125596886557903,32098,6,6,1.3582457304,-0.53180539608,0.515536785126,0.161837622523,33.5999984741,0.45426278608695647,-0.17786133648160535,0.17242032947357858,33.5999984741,0.021869948989594594,0.6665913385740853,1.5470703346220838
1648125596991389363,32099,7,0,0.0126355709508,0.0439508594573,0.0103191342205,0.0,29.1000003815,0.00422594346180602,0.014699284099431437,0.003451215458361204,29.1000003815,0.0,0.015867770773506908,0.04688091542780209
1648125596991400875,32100,7,1,0.032842002809,0.0146502861753,-0.0300764385611,0.0,29.1000003815,0.010983947427759197,0.0048997612626421405,-0.010059009552207357,29.1000003815,0.0,0.016288089594008386,0.04688091498727572
1648125596991411830,32101,7,2,1.23257815838,-0.079111546278,0.276953786612,0.0,29.1000003815,0.41223349778595314,-0.026458711129765885,0.09262668448561871,29.1000003815,0.0,0.5835863062035737,1.2657847183422044
1648125596991428566,32102,7,3,2.41760587692,-0.902457654476,0.482822269201,0.0,29.1000003815,0.8085638384347826,-0.30182530250033446,0.16147901979966556,29.1000003815,0.0,1.1826451178938664,2.6253314720006022
1648125596991432460,32103,7,4,1.48202645779,0.199243888259,0.551887333393,0.0809188112617,29.1000003815,0.49566102267224077,0.06663675192608695,0.18457770347591973,29.1000003815,0.010934974494824324,0.7041307801113668,1.5939511213828912
1648125597186385806,32104,9,0,0.0126454373822,0.0439508594573,0.0103070409968,0.0,16.6000003815,0.004229243271638795,0.014699284099431437,0.003447170901939799,16.6000003815,0.0,0.015869528989141485,0.046880915389230546
1648125597186391802,32105,9,1,0.0327914953232,0.0146502861753,-0.0301314946264,0.0,16.6000003815,0.010967055292040133,0.0048997612626421405,-0.010077422951973244,16.6000003815,0.0,0.01626530860414949,0.046880913162719064
1648125597186581501,32106,9,2,1.23974084854,-0.039555773139,0.252366662025,0.0,16.6000003815,0.4146290463344482,-0.013229355564882942,0.08440356589464883,16.6000003815,0.0,0.5865232373717942,1.2657847221502336
1648125597186586664,32107,9,3,1.39012384415,-0.547920703888,0.554994344711,0.0,16.6000003815,0.4649243625919732,-0.18325107153444814,0.18561683769598658,16.6000003815,0.0,0.6825615584558132,1.5939511041699763
1648125597186588729,32108,9,4,1.46228957176,0.298865824938,0.559525191784,0.0,16.6000003815,0.489060057444816,0.09995512539732442,0.18713217116521735,16.6000003815,0.0,0.6988207972499447,1.5939510698998376
1648125597186593780,32109,9,5,2.41806769371,-0.902457654476,0.480503290892,0.0,16.6000003815,0.8087182922107022,-0.30182530250033446,0.16070344176989965,16.6000003815,0.0,1.1828563165244577,2.625331331859726
1648125597291285470,32110,10,0,0.0127119580284,0.0439508594573,0.0102248871699,0.0,13.3000001907,0.004251490979397993,0.014699284099431437,0.003419694705652174,13.3000001907,0.0,0.015881413795112917,0.04688091553701064
1648125597291291345,32111,10,1,0.0327790863812,0.0146502861753,-0.0301449969411,0.0,13.3000001907,0.010962905144214047,0.0048997612626421405,-0.010081938776287625,13.3000001907,0.0,0.016259712138686776,0.046880915408973045
1648125597291297775,32112,10,2,1.23758602142,-0.079111546278,0.253640174866,0.0,13.3000001907,0.41390836836789296,-0.026458711129765885,0.08482948992173912,13.3000001907,0.0,0.5859525050757878,1.2657847903473702
1648125597291300802,32113,10,3,1.26271748543,0.199243888259,0.952116847038,0.0,13.3000001907,0.422313540277592,0.06663675192608695,0.3184337281063545,13.3000001907,0.0,0.600947509613648,1.5939510862736064
1648125597291313849,32114,10,4,2.41952586174,-0.902457654476,0.473105937243,0.0,13.3000001907,0.8092059738260868,-0.30182530250033446,0.15822941044916386,13.3000001907,0.0,1.1835231849782535,2.625331301303816
1648125597486337506,32115,12,0,0.0126454373822,0.0439508594573,0.0103070409968,0.0,12.8000001907,0.004229243271638795,0.014699284099431437,0.003447170901939799,12.8000001907,0.0,0.015869528989141485,0.046880915389230546
1648125597486345586,32116,12,1,0.0328296348453,0.0146502861753,-0.0300899371505,0.0,12.8000001907,0.010979810985050166,0.0048997612626421405,-0.010063524130602006,12.8000001907,0.0,0.016282510831126296,0.04688091431291589
1648125597486348691,32117,12,2,1.24204456806,-0.039555773139,0.240773037076,0.0,12.8000001907,0.415399521090301,-0.013229355564882942,0.08052609935652173,12.8000001907,0.0,0.5876125765270557,1.2657847461629395
1648125597486354216,32118,12,3,1.86083495617,-1.31852579117,0.541603624821,0.0,12.8000001907,0.6223528281505016,-0.44097852547491634,0.18113833606053512,12.8000001907,0.0,0.9844329054556674,2.3440459642472726
1648125597486462712,32119,12,4,2.42345690727,-0.902457654476,0.452538907528,0.0,12.8000001907,0.8105207047725751,-0.30182530250033446,0.15135080519331104,12.8000001907,0.0,1.1853211121715002,2.6253313433438517
1648125597591428441,32120,13,0,0.0126355709508,0.0439508594573,0.0103191342205,0.0,12.6000003815,0.00422594346180602,0.014699284099431437,0.003451215458361204,12.6000003815,0.0,0.015867770773506908,0.04688091542780209
1648125597591449348,32121,13,1,0.0328052677214,0.0146502861753,-0.0301165021956,0.0,12.6000003815,0.01097166144528428,0.0048997612626421405,-0.010072408761070234,12.6000003815,0.0,0.01627152021695464,0.04688091487789562
1648125597591451634,32122,13,2,1.24229764938,-0.039555773139,0.239463731647,0.0,12.6000003815,0.4154841636722408,-0.013229355564882942,0.08008820456421403,12.6000003815,0.0,0.5877322488799681,1.2657847319422066
1648125597591453617,32123,13,3,2.38653063774,-0.984499275684,0.477071344852,0.0,12.6000003815,0.7981707818528427,-0.32926397180066885,0.15955563372976586,12.6000003815,0.0,1.175826499587889,2.6253312889562923
1648125597591460227,32124,13,4,1.25511229038,0.149432912469,0.971103966236,0.0809188112617,12.6000003815,0.4197699967826087,0.04997756269866221,0.3247839351959866,12.6000003815,0.010934974494824324,0.5957444562654707,1.5939510563474613
1648125597786327492,32125,15,0,0.0126355709508,0.0439508594573,0.0103191342205,0.0,12.8999996185,0.00422594346180602,0.014699284099431437,0.003451215458361204,12.8999996185,0.0,0.015867770773506908,0.04688091542780209
1648125597786334702,32126,15,1,0.0328296348453,0.0146502861753,-0.0300899371505,0.0,12.8999996185,0.010979810985050166,0.0048997612626421405,-0.010063524130602006,12.8999996185,0.0,0.016282510831126296,0.04688091431291589
1648125597786339520,32127,15,2,1.18559205532,-0.0380907431245,0.280441045761,0.0,12.8999996185,0.3965190820468227,-0.01273937897140468,0.09379299189331103,12.8999996185,0.0,0.5609073512007904,1.2189038544927164
1648125597786341408,32128,15,3,1.35623216629,-0.0424858294427,0.0848296433687,0.0,12.8999996185,0.4535893532742475,-0.01420930750591973,0.028371118183511703,12.8999996185,0.0,0.6416295716589892,1.3595465431448683
1648125597786343315,32129,15,4,2.38422656059,-0.984499275684,0.488456994295,0.0,12.8999996185,0.7974001874882943,-0.32926397180066885,0.1633635432424749,12.8999996185,0.0,1.174780354423194,2.6253314745610408
1648125597891403543,32130,16,0,0.0126454373822,0.0439508594573,0.0103070409968,0.0,12.8999996185,0.004229243271638795,0.014699284099431437,0.003447170901939799,12.8999996185,0.0,0.015869528989141485,0.046880915389230546
1648125597891423981,32131,16,1,0.0327670387924,0.0146502861753,-0.0301580931991,0.0,12.8999996185,0.010958875850301001,0.0048997612626421405,-0.010086318795685618,12.8999996185,0.0,0.016254278828527258,0.04688091617754962
1648125597891427245,32132,16,2,1.21348917484,-0.039555773139,0.357896924019,0.0,12.8999996185,0.40584922235451504,-0.013229355564882942,0.11969796789933108,12.8999996185,0.0,0.5741099184130085,1.2657846755529751
1648125597891431429,32133,16,3,1.35845983028,-0.0,0.0543484389782,0.0,12.8999996185,0.45433439139799325,-0.0,0.018176735444214047,12.8999996185,0.0,0.6425258581675681,1.3595465653311523
1648125597891437130,32134,16,4,1.35684454441,0.0849716588855,-0.0109329391271,0.0,12.8999996185,0.45379416201003336,0.028418615011872907,-0.003656501380301003,12.8999996185,0.0,0.6423907694137345,1.3595465529605415
1648125597891441351,32135,16,5,1.86554956436,-1.31852579117,0.525134027004,0.0,12.8999996185,0.6239296201872909,-0.44097852547491634,0.17563010936588627,12.8999996185,0.0,0.9864270889549545,2.3440459008691996
1648125597891598496,32136,16,6,2.41484189034,-0.902457654476,0.496461927891,0.0,12.8999996185,0.8076394282073578,-0.30182530250033446,0.16604077855886287,12.8999996185,0.0,1.181381143077726,2.62533152559985
1648125598086372580,32137,18,0,0.0126355709508,0.0439508594573,0.0103191342205,0.0,12.8999996185,0.00422594346180602,0.014699284099431437,0.003451215458361204,12.8999996185,0.0,0.015867770773506908,0.04688091542780209
1648125598086381214,32138,18,1,0.0327914953232,0.0146502861753,-0.0301314946264,0.0,12.8999996185,0.010967055292040133,0.0048997612626421405,-0.010077422951973244,12.8999996185,0.0,0.01626530860414949,0.046880913162719064
1648125598086411050,32139,18,2,1.23440873623,-0.039555773139,0.277275204659,0.0,12.8999996185,0.41284573118060197,-0.013229355564882942,0.09273418216020067,12.8999996185,0.0,0.5840018932818231,1.2657847867581045
1648125598086496711,32140,18,3,2.41850852966,-0.902457654476,0.478280603886,0.0,12.8999996185,0.8088657289832776,-0.30182530250033446,0.15996006818929764,12.8999996185,0.0,1.1830579226211693,2.625331533771317
1648125598191403146,32141,19,0,0.0126355709508,0.0439508594573,0.0103191342205,0.0,13.5,0.00422594346180602,0.014699284099431437,0.003451215458361204,13.5,0.0,0.015867770773506908,0.04688091542780209
1648125598191416862,32142,19,1,0.0328296348453,0.0146502861753,-0.0300899371505,0.0,13.5,0.010979810985050166,0.0048997612626421405,-0.010063524130602006,13.5,0.0,0.016282510831126296,0.04688091431291589
1648125598191418992,32143,19,2,1.23433017731,-0.039555773139,0.277624249458,0.0,13.5,0.41281945729431435,-0.013229355564882942,0.09285091955117057,13.5,0.0,0.5839647459309565,1.2657846853607757
1648125598191420950,32144,19,3,2.42052292824,-0.902457654476,0.467978775501,0.0,13.5,0.809539440882943,-0.30182530250033446,0.15651464063578593,13.5,0.0,1.183979191506149,2.6253314454707013
1648125598386417184,32145,21,0,0.0127021931112,0.0439508594573,0.0102370148525,0.0,13.3999996185,0.004248225120802675,0.014699284099431437,0.0034237507867892975,13.3999996185,0.0,0.0158796658148034,0.04688091541298931
1648125598386423502,32146,21,1,0.032754637301,0.0146502861753,-0.0301715619862,0.0,13.3999996185,0.010954728194314381,0.0048997612626421405,-0.010090823406755852,13.3999996185,0.0,0.016248686102374597,0.046880916185857074
1648125598386425634,32147,21,2,1.23549902439,-0.039555773139,0.27237585187,0.0,13.3999996185,0.4132103760501672,-0.013229355564882942,0.09109560263210702,13.3999996185,0.0,0.5845174467881205,1.2657847775744397
1648125598386516559,32148,21,3,2.42225456238,-0.902457654476,0.458930879831,0.0,13.3999996185,0.8101185827357859,-0.30182530250033446,0.1534885885722408,13.3999996185,0.0,1.1847711801934984,2.6253313191967798
1648125598491615658,32149,22,0,0.0126151693985,0.0439508594573,0.0103440657258,0.0,13.5,0.004219120200167224,0.014699284099431437,0.00345955375444816,13.5,0.0,0.01586413891652226,0.046880915538498796
1648125598491623038,32150,22,1,0.0328296348453,0.0146502861753,-0.0300899371505,0.0,13.5,0.010979810985050166,0.0048997612626421405,-0.010063524130602006,13.5,0.0,0.016282510831126296,0.04688091431291589
1648125598491626427,32151,22,2,1.23352766037,-0.039555773139,0.28116863966,0.0,13.5,0.4125510569799331,-0.013229355564882942,0.09403633433444815,13.5,0.0,0.5835852680450236,1.2657847178785044
1648125598491631796,32152,22,3,1.89114153385,-1.24527442455,0.606157243252,0.0,13.5,0.6324888073076922,-0.4164797406521739,0.2027281750006689,13.5,0.0,0.9866810817648811,2.344045924686146
1648125598491653656,32153,22,4,2.41471147537,-0.902457654476,0.497095763683,0.0,13.5,0.807595811160535,-0.30182530250033446,0.1662527637735786,13.5,0.0,1.1813215064653244,2.6253315077676325
1648125598686387522,32154,24,0,0.0126151693985,0.0439508594573,0.0103440657258,0.0,13.1999998093,0.004219120200167224,0.014699284099431437,0.00345955375444816,13.1999998093,0.0,0.01586413891652226,0.046880915538498796
1648125598686393008,32155,24,1,0.0327790863812,0.0146502861753,-0.0301449969411,0.0,13.1999998093,0.010962905144214047,0.0048997612626421405,-0.010081938776287625,13.1999998093,0.0,0.016259712138686776,0.046880915408973045
1648125598686394864,32156,24,2,1.30505514145,-0.0410208031535,0.13505423069,0.0,13.1999998093,0.4364732914548495,-0.013719332158361203,0.04516863902675585,13.1999998093,0.0,0.6174188921483789,1.3126657128696952
1648125598686398905,32157,24,3,1.87512004375,-1.31852579117,0.48986312747,0.0,13.1999998093,0.6271304494147156,-0.44097852547491634,0.16383382189632106,13.1999998093,0.0,0.9904782991546245,2.3440459304604433
1648125598686592710,32158,24,4,2.38643336296,-0.984499275684,0.47755843401,0.0,13.1999998093,0.7981382484816053,-0.32926397180066885,0.15971853980267556,13.1999998093,0.0,1.1757823312605618,2.625331422423649
1648125598791532813,32159,25,0,0.0127222454175,0.0439508594573,0.0102120842785,0.0,11.6000003815,0.004254931577759197,0.014699284099431437,0.003415412802173913,11.6000003815,0.0,0.01588325654576613,0.04688091552870553
1648125598791540904,32160,25,1,0.0327914953232,0.0146502861753,-0.0301314946264,0.0,11.6000003815,0.010967055292040133,0.0048997612626421405,-0.010077422951973244,11.6000003815,0.0,0.01626530860414949,0.046880913162719064
1648125598791545106,32161,25,2,1.24359607697,-0.079111546278,0.222308531404,0.0,11.6000003815,0.41591842039130433,-0.026458711129765885,0.0743506793993311,11.6000003815,0.0,0.5887922623780342,1.2657847062374683
1648125598791550443,32162,25,3,1.85327208042,-1.39177727699,0.350555866957,0.0,11.6000003815,0.6198234382675585,-0.4654773501638796,0.11724276486856186,11.6000003815,0.0,0.9924874572342074,2.344045820513743
1648125598791555354,32163,25,4,2.38985586166,-0.984499275684,0.460125863552,0.0,11.6000003815,0.7992828968762542,-0.32926397180066885,0.15388824867959866,11.6000003815,0.0,1.1773364266868436,2.62533153594788
1648125598986458466,32164,27,0,0.0127119580284,0.0439508594573,0.0102248871699,0.0,11.8000001907,0.004251490979397993,0.014699284099431437,0.003419694705652174,11.8000001907,0.0,0.015881413795112917,0.04688091553701064
1648125598986461780,32165,27,1,0.0328791700304,0.0146502861753,-0.0300358030945,0.0,11.8000001907,0.010996377936588628,0.0048997612626421405,-0.010045419095150502,11.8000001907,0.0,0.016304855592107367,0.04688091482082784
1648125598986464706,32166,27,2,1.24124383926,-0.039555773139,0.244867652655,0.0,11.8000001907,0.4151317188160535,-0.013229355564882942,0.08189553600501671,11.8000001907,0.0,0.587233942975884,1.2657847743618575
1648125598986769693,32167,27,3,1.85397076607,-1.31852579117,0.564653396606,0.0,11.8000001907,0.6200571123979932,-0.44097852547491634,0.1888472898347826,11.8000001907,0.0,0.9815313062764257,2.3440459299513203
1648125598986775476,32168,27,4,2.38812875748,-0.984499275684,0.469006478786,0.0,11.8000001907,0.7987052700602006,-0.32926397180066885,0.1568583541090301,11.8000001907,0.0,1.1765521577770481,2.6253313816104304
1648125599091585488,32169,28,0,0.0126151693985,0.0439508594573,0.0103440657258,0.0,12.3000001907,0.004219120200167224,0.014699284099431437,0.00345955375444816,12.3000001907,0.0,0.01586413891652226,0.046880915538498796
1648125599091591373,32170,28,1,0.0327914953232,0.0146502861753,-0.0301314946264,0.0,12.3000001907,0.010967055292040133,0.0048997612626421405,-0.010077422951973244,12.3000001907,0.0,0.01626530860414949,0.046880913162719064
1648125599091595401,32171,28,2,1.23999631405,-0.039555773139,0.25110822916,0.0,12.3000001907,0.4147144863043478,-0.013229355564882942,0.08398268533779263,12.3000001907,0.0,0.586644037002014,1.2657846818468304
1648125599091598300,32172,28,3,1.86603868008,-1.31852579117,0.523393273354,0.0,12.3000001907,0.6240932040401337,-0.44097852547491634,0.17504791750969897,12.3000001907,0.0,0.9866340327538835,2.344045890362942
1648125599091601338,32173,28,4,2.38689184189,-0.984499275684,0.475260943174,0.0,12.3000001907,0.7982915859163878,-0.32926397180066885,0.15895014821872908,12.3000001907,0.0,1.1759905082166926,2.62533130343772
1648125599286135923,32174,30,0,0.0126151693985,0.0439508594573,0.0103440657258,0.0,12.8000001907,0.004219120200167224,0.014699284099431437,0.00345955375444816,12.8000001907,0.0,0.01586413891652226,0.046880915538498796
1648125599286149234,32175,30,1,0.0327914953232,0.0146502861753,-0.0301314946264,0.0,12.8000001907,0.010967055292040133,0.0048997612626421405,-0.010077422951973244,12.8000001907,0.0,0.01626530860414949,0.046880913162719064
1648125599286155888,32176,30,2,1.24051427841,-0.079111546278,0.238907217979,0.0,12.8000001907,0.4148877185317726,-0.026458711129765885,0.0799020795916388,12.8000001907,0.0,0.5873361059662918,1.2657847251788295
1648125599286159236,32177,30,3,2.38543057442,-0.984499275684,0.482541769743,0.0,12.8000001907,0.7978028676989966,-0.32926397180066885,0.16138520727190633,12.8000001907,0.0,1.17532701600169,2.625331295045781
1648125599391409393,32178,31,0,0.0126355709508,0.0439508594573,0.0103191342205,0.0,12.3999996185,0.00422594346180602,0.014699284099431437,0.003451215458361204,12.3999996185,0.0,0.015867770773506908,0.04688091542780209
1648125599391431400,32179,31,1,0.0327914953232,0.0146502861753,-0.0301314946264,0.0,12.3999996185,0.010967055292040133,0.0048997612626421405,-0.010077422951973244,12.3999996185,0.0,0.01626530860414949,0.046880913162719064
1648125599391434651,32180,31,2,1.24358081818,-0.039555773139,0.232708439231,0.0,12.3999996185,0.41591331711705687,-0.013229355564882942,0.07782890944180602,12.3999996185,0.0,0.5883390098908019,1.2657847874829238
1648125599391440032,32181,31,3,2.38334703445,-0.984499275684,0.492729693651,0.0,12.3999996185,0.7971060315886287,-0.32926397180066885,0.16479253968260868,12.3999996185,0.0,1.1743810345521999,2.625331305083101
1648125599586598053,32182,33,0,0.0126355709508,0.0439508594573,0.0103191342205,0.0,12.1000003815,0.00422594346180602,0.014699284099431437,0.003451215458361204,12.1000003815,0.0,0.015867770773506908,0.04688091542780209
1648125599586601524,32183,33,1,0.0328296348453,0.0146502861753,-0.0300899371505,0.0,12.1000003815,0.010979810985050166,0.0048997612626421405,-0.010063524130602006,12.1000003815,0.0,0.016282510831126296,0.04688091431291589
1648125599586604113,32184,33,2,1.18956232071,-0.0380907431245,0.263091653585,0.0,12.1000003815,0.3978469300033444,-0.01273937897140468,0.08799051959364547,12.1000003815,0.0,0.5627847290063485,1.2189038673130983
1648125599586628740,32185,33,3,1.35164868832,-0.0424858294427,0.140027299523,0.0,12.1000003815,0.45205641749832776,-0.01420930750591973,0.046831872750167224,12.1000003815,0.0,0.6394622065631734,1.35954656667299
1648125599586632141,32186,33,4,1.85886096954,-1.31852579117,0.548340082169,0.0,12.1000003815,0.6216926319531773,-0.44097852547491634,0.18339133182909698,12.1000003815,0.0,0.9835982498864914,2.344045906498584
1648125599586636255,32187,33,5,2.38742136955,-0.984499275684,0.472594320774,0.0,12.1000003815,0.7984686854682275,-0.32926397180066885,0.15805830126220735,12.1000003815,0.0,1.1762309494621666,2.625331409866982
1648125599691543225,32188,34,0,0.0126355709508,0.0439508594573,0.0103191342205,0.0,12.6999998093,0.00422594346180602,0.014699284099431437,0.003451215458361204,12.6999998093,0.0,0.015867770773506908,0.04688091542780209
1648125599691550478,32189,34,1,0.0327790863812,0.0146502861753,-0.0301449969411,0.0,12.6999998093,0.010962905144214047,0.0048997612626421405,-0.010081938776287625,12.6999998093,0.0,0.016259712138686776,0.046880915408973045
1648125599691553437,32190,34,2,1.18388056755,-0.0380907431245,0.287580549717,0.0,12.6999998093,0.3959466781103678,-0.01273937897140468,0.09618078585852842,12.6999998093,0.0,0.5600980589056237,1.218903882802011
1648125599691669972,32191,34,3,1.35088300705,-0.0424858294427,0.147230669856,0.0,12.6999998093,0.45180033680602005,-0.01420930750591973,0.04924102670769231,12.6999998093,0.0,0.6391001432450661,1.3595465474142954
1648125599691672746,32192,34,4,1.85523581505,-1.31852579117,0.560482859612,0.0,12.6999998093,0.6204802057023411,-0.44097852547491634,0.18745246140869562,12.6999998093,0.0,0.9820658996558583,2.3440459098199327
1648125599691675290,32193,34,5,2.39193439484,-0.984499275684,0.449194848537,0.0,12.6999998093,0.7999780584749163,-0.32926397180066885,0.15023239081505016,12.6999998093,0.0,1.17828033642616,2.6253314047931346
1648125599886428676,32194,36,0,0.0126151693985,0.0439508594573,0.0103440657258,0.0,12.6999998093,0.004219120200167224,0.014699284099431437,0.00345955375444816,12.6999998093,0.0,0.01586413891652226,0.046880915538498796
1648125599886435116,32195,36,1,0.0327914953232,0.0146502861753,-0.0301314946264,0.0,12.6999998093,0.010967055292040133,0.0048997612626421405,-0.010077422951973244,12.6999998093,0.0,0.01626530860414949,0.046880913162719064
1648125599886439567,32196,36,2,1.19161295891,-0.076181486249,0.244911417365,0.0,12.6999998093,0.39853276217725747,-0.02547875794280936,0.08191017303177257,12.6999998093,0.0,0.5641860439283989,1.218903878509329
1648125599886529882,32197,36,3,1.35512721539,0.0424858294427,0.100955598056,0.0,12.6999998093,0.4532198044782608,0.01420930750591973,0.03376441406555184,12.6999998093,0.0,0.6411070790144371,1.3595465598400573
1648125599886536282,32198,36,4,2.38780069351,-0.984499275684,0.47067412734,0.0,12.6999998093,0.7985955496688962,-0.32926397180066885,0.15741609610033444,12.6999998093,0.0,1.1764031906739647,2.6253314285812426
1648125599991572792,32199,37,0,0.0126355709508,0.0439508594573,0.0103191342205,0.0,12.3000001907,0.00422594346180602,0.014699284099431437,0.003451215458361204,12.3000001907,0.0,0.015867770773506908,0.04688091542780209
1648125599991592139,32200,37,1,0.032842002809,0.0146502861753,-0.0300764385611,0.0,12.3000001907,0.010983947427759197,0.0048997612626421405,-0.010059009552207357,12.3000001907,0.0,0.016288089594008386,0.04688091498727572
1648125599991598600,32201,37,2,1.23846042156,-0.079111546278,0.249335572124,0.0,12.3000001907,0.41420080988628755,-0.026458711129765885,0.0833898234528428,12.3000001907,0.0,0.5863656582846248,1.2657847684545234
1648125599991602324,32202,37,3,2.38834142685,-0.984499275684,0.467922627926,0.0,12.3000001907,0.7987763969397992,-0.32926397180066885,0.15649586218260866,12.3000001907,0.0,1.1766487274213178,2.6253314420764835
1648125600186505585,32203,39,0,0.0126355709508,0.0439508594573,0.0103191342205,0.0,12.8999996185,0.00422594346180602,0.014699284099431437,0.003451215458361204,12.8999996185,0.0,0.015867770773506908,0.04688091542780209
1648125600186645278,32204,39,1,0.0328296348453,0.0146502861753,-0.0300899371505,0.0,12.8999996185,0.010979810985050166,0.0048997612626421405,-0.010063524130602006,12.8999996185,0.0,0.016282510831126296,0.04688091431291589
1648125600186649134,32205,39,2,1.35046947002,-0.0424858294427,0.150977194309,0.0,12.8999996185,0.4516620301070234,-0.01420930750591973,0.05049404491939799,12.8999996185,0.0,0.6389045963996449,1.3595465966126175
1648125600186654102,32206,39,3,2.39166259766,-0.984499275684,0.450639337301,0.0,12.8999996185,0.7998871564080267,-0.32926397180066885,0.15071549742508358,12.8999996185,0.0,1.1781569034296704,2.6253313347444704
1648125600291383043,32207,40,0,0.0126355709508,0.0439508594573,0.0103191342205,0.0,12.0,0.00422594346180602,0.014699284099431437,0.003451215458361204,12.0,0.0,0.015867770773506908,0.04688091542780209
1648125600291400476,32208,40,1,0.0327914953232,0.0146502861753,-0.0301314946264,0.0,12.0,0.010967055292040133,0.0048997612626421405,-0.010077422951973244,12.0,0.0,0.01626530860414949,0.046880913162719064
1648125600291403952,32209,40,2,1.18737697601,-0.0380907431245,0.272785037756,0.0,12.0,0.39711604548829427,-0.01273937897140468,0.09123245409899665,12.0,0.0,0.5617513675507155,1.2189038783653003
1648125600291406269,32210,40,3,1.29055416584,-0.0410208031535,0.236386433244,0.0,12.0,0.43162346683612035,-0.013719332158361203,0.07905900777391303,12.0,0.0,0.6105619168619465,1.3126657255676923
1648125600291409610,32211,40,4,1.83043277264,-1.31852579117,0.636833548546,0.0,12.0,0.6121848737926421,-0.44097852547491634,0.21298780887826088,12.0,0.0,0.9715980132395586,2.3440459393298423
1648125600291413348,32212,40,5,2.39032363892,-0.984499275684,0.457688361406,0.0,12.0,0.7994393441204013,-0.32926397180066885,0.15307303057056856,12.0,0.0,1.1775488495095507,2.6253313236177602
1648125600486522957,32213,42,0,0.0126355709508,0.0439508594573,0.0103191342205,0.0,12.6999998093,0.00422594346180602,0.014699284099431437,0.003451215458361204,12.6999998093,0.0,0.015867770773506908,0.04688091542780209
1648125600486536435,32214,42,1,0.0329290106893,0.0146502861753,-0.0299811512232,0.0,12.6999998093,0.011013047053277592,0.0048997612626421405,-0.010027140877324415,12.6999998093,0.0,0.016327341217304826,0.04688091358604914
1648125600486554138,32215,42,2,1.22377610207,-0.039555773139,0.320964574814,0.0,12.6999998093,0.40928966624414714,-0.013229355564882942,0.10734601164347825,12.6999998093,0.0,0.5789741597318078,1.2657846836930042
1648125600486559689,32216,42,3,2.3928334713,-0.984499275684,0.444380253553,0.0,12.6999998093,0.8002787529431438,-0.32926397180066885,0.14862215837892975,12.6999998093,0.0,1.1786886475869776,2.625331341934529
1648125600591465095,32217,43,0,0.0126355709508,0.0439508594573,0.0103191342205,0.0,13.1000003815,0.00422594346180602,0.014699284099431437,0.003451215458361204,13.1000003815,0.0,0.015867770773506908,0.04688091542780209
1648125600591474680,32218,43,1,0.0327914953232,0.0146502861753,-0.0301314946264,0.0,13.1000003815,0.010967055292040133,0.0048997612626421405,-0.010077422951973244,13.1000003815,0.0,0.01626530860414949,0.046880913162719064
1648125600591492550,32219,43,2,1.22604596615,-0.039555773139,0.31218200922,0.0,13.1000003815,0.41004881811036786,-0.013229355564882942,0.10440869873578594,13.1000003815,0.0,0.5800474828116067,1.2657847278198404
1648125600591499632,32220,43,3,2.03334903717,-0.9713139534,0.799106180668,0.0,13.1000003815,0.6800498452073578,-0.3248541650167224,0.2672595921966555,13.1000003815,0.0,1.0151186198971105,2.390926554917884
1648125600591523230,32221,43,4,2.42017269135,-0.902457654476,0.469786137342,0.0,13.1000003815,0.809422304799331,-0.30182530250033446,0.15711910947892974,13.1000003815,0.0,1.1838190099177917,2.6253313484048717
1648125600786434097,32222,45,0,0.0127021931112,0.0439508594573,0.0102370148525,0.0,12.6000003815,0.004248225120802675,0.014699284099431437,0.0034237507867892975,12.6000003815,0.0,0.0158796658148034,0.04688091541298931
1648125600786453727,32223,45,1,0.0327914953232,0.0146502861753,-0.0301314946264,0.0,12.6000003815,0.010967055292040133,0.0048997612626421405,-0.010077422951973244,12.6000003815,0.0,0.01626530860414949,0.046880913162719064
1648125600786462839,32224,45,2,1.23343706131,-0.039555773139,0.28156581521,0.0,12.6000003815,0.4125207562909699,-0.013229355564882942,0.09416916896655518,12.6000003815,0.0,0.5835424274124459,1.2657847177528037
1648125600786745006,32225,45,3,2.2481238842,-0.914177834988,0.230486243963,0.0,12.6000003815,0.7518808977257524,-0.30574509531371236,0.07708570032207357,12.6000003815,0.0,1.1064040094098349,2.4378076259930794
1648125600786808898,32226,45,4,2.42240667343,-0.902457654476,0.458127588034,0.0,12.6000003815,0.8101694559966554,-0.30182530250033446,0.15321992910836119,12.6000003815,0.0,1.1848407522064943,2.625331368897719
1648125600891496296,32227,46,0,0.0127222454175,0.0439508594573,0.0102120842785,0.0,13.5,0.004254931577759197,0.014699284099431437,0.003415412802173913,13.5,0.0,0.01588325654576613,0.04688091552870553
1648125600891502676,32228,46,1,0.0327914953232,0.0146502861753,-0.0301314946264,0.0,13.5,0.010967055292040133,0.0048997612626421405,-0.010077422951973244,13.5,0.0,0.01626530860414949,0.046880913162719064
1648125600891507758,32229,46,2,1.21159470081,-0.079111546278,0.35775795579,0.0,13.5,0.405215619,-0.026458711129765885,0.11965149023076924,13.5,0.0,0.5736719089843556,1.2657847805675377
1648125600891510756,32230,46,3,2.24338579178,-0.83799636364,0.455947101116,0.0,13.5,0.7502962514314382,-0.28026634235451503,0.1524906692695652,13.5,0.0,1.0974689756348077,2.4378075139867637
1648125600891537924,32231,46,4,1.20197272301,-0.076181486249,-2.11951971054,0.0,13.5,0.4019975662240802,-0.02547875794280936,-0.7088694684080268,13.5,0.0,0.569081060664011,2.437807590659022
1648125600891564986,32232,46,5,2.41321325302,-0.902457654476,0.504318714142,0.0,13.5,0.807094733451505,-0.30182530250033446,0.16866846626822743,13.5,0.0,1.180636409213154,2.6253314815671436
