%time,field.header.seq,field.header.frame_id,field.point_id,field.x,field.y,field.z,field.velocity,field.intensity,normalized_x,normalized_y,normalized_z,normalized_intensity,normalized_velocity,normalized_range,range
1648295941769922744,69993,0,0,0.0127100823447,0.0439508594573,0.0102272182703,0.0,15.3000001907,0.004250863660434782,0.014699284099431437,0.003420474337892977,15.3000001907,0.0,0.01588107794688408,0.04688091545386831
1648295941770054925,69994,0,1,0.0335404723883,0.0146502861753,-0.0292954929173,0.0,15.3000001907,0.011217549293745818,0.0048997612626421405,-0.009797823718160533,15.3000001907,0.0,0.016603447977637752,0.046880913795659694
1648295941770060931,69995,0,2,1.47801077366,-1.68478298187,0.686689138412,0.0,15.3000001907,0.49431798450167225,-0.5634725691872909,0.22966191920133777,15.3000001907,0.0,0.8978874516497696,2.3440459713637907
1648295941770063201,69996,0,3,2.30336499214,0.366257160902,0.234343245625,0.0,15.3000001907,0.7703561846622073,0.12249403374648829,0.07837566743311036,15.3000001907,0.0,1.0963129529464257,2.344045936345565
1648295941770079847,69997,0,4,2.24185061455,-1.2306240797,0.593325138092,0.0,15.3000001907,0.7497828142307692,-0.4115799597658863,0.19843650103411373,15.3000001907,0.0,1.1374298221483878,2.625331316803191
1648295941770081023,69998,0,5,1.8137909174,-0.234404578805,0.414402544498,0.404594063759,15.3000001907,0.6066190359197324,-0.07839618020234114,0.1385961687284281,15.3000001907,0.05467487348094594,0.8614634470194827,1.8752366430650558
1648295941875407025,69999,1,0,0.0127100823447,0.0439508594573,0.0102272182703,0.0,36.2000007629,0.004250863660434782,0.014699284099431437,0.003420474337892977,36.2000007629,0.0,0.01588107794688408,0.04688091545386831
1648295941875491268,70000,1,1,0.0335404723883,0.0146502861753,-0.0292954929173,0.0,36.2000007629,0.011217549293745818,0.0048997612626421405,-0.009797823718160533,36.2000007629,0.0,0.016603447977637752,0.046880913795659694
1648295941875507568,70001,1,2,2.24075198174,-1.2306240797,0.59746158123,0.0,36.2000007629,0.7494153785083612,-0.4115799597658863,0.1998199268327759,36.2000007629,0.0,1.1369454174983729,2.6253314857851877
1648295941875526207,70002,1,3,1.88948309422,-0.120132349432,0.3315987885,-0.0809188112617,36.2000007629,0.6319341452240802,-0.040178043288294316,0.11090260484949832,36.2000007629,-0.010934974494824324,0.8945925346003363,1.9221175565656503
1648295942070350034,70003,3,0,0.0127004906535,0.0439508594573,0.0102391270921,0.0,15.0,0.004247655736956521,0.014699284099431437,0.003424457221438127,15.0,0.0,0.01587936118221376,0.046880915450566385
1648295942070423675,70004,3,1,0.0335269682109,0.0146502861753,-0.0293109472841,0.0,15.0,0.01121303284645485,0.0048997612626421405,-0.00980299240270903,15.0,0.0,0.016597345319726262,0.046880914166899254
1648295942070450447,70005,3,2,2.24064683914,-1.2306240797,0.597855389118,0.0,15.0,0.7493802137591973,-0.4115799597658863,0.1999516351565217,15.0,0.0,1.1368990600877673,2.6253313980492026
1648295942175486934,70006,4,0,0.0127100823447,0.0439508594573,0.0102272182703,0.0,15.5,0.004250863660434782,0.014699284099431437,0.003420474337892977,15.5,0.0,0.01588107794688408,0.04688091545386831
1648295942175519217,70007,4,1,0.0334552153945,0.0146502861753,-0.0293928217143,0.0,15.5,0.011189035248996655,0.0048997612626421405,-0.00983037515528428,15.5,0.0,0.016564923182359397,0.0468809160580209
1648295942175535558,70008,4,2,2.24481725693,-1.2306240797,0.582000434399,0.0,15.5,0.7507750023177256,-0.4115799597658863,0.1946489747153846,15.5,0.0,1.1387380170571502,2.6253313406480383
1648295942370426184,70009,6,0,0.0127100823447,0.0439508594573,0.0102272182703,0.0,15.3000001907,0.004250863660434782,0.014699284099431437,0.003420474337892977,15.3000001907,0.0,0.01588107794688408,0.04688091545386831
1648295942370480415,70010,6,1,0.0335269682109,0.0146502861753,-0.0293109472841,0.0,15.3000001907,0.01121303284645485,0.0048997612626421405,-0.00980299240270903,15.3000001907,0.0,0.016597345319726262,0.046880914166899254
1648295942370508085,70011,6,2,2.24319958687,-1.2306240797,0.588204979897,0.0,15.3000001907,0.7502339755418059,-0.4115799597658863,0.19672407354414717,15.3000001907,0.0,1.1380246479735905,2.62533142868607
1648295942370515731,70012,6,3,1.84619760513,-0.234404578805,0.230480834842,-0.0809188112617,15.3000001907,0.6174573930200669,-0.07839618020234114,0.07708389125150501,15.3000001907,-0.010934974494824324,0.8767287068760738,1.875236656793473
1648295942370547560,70013,6,4,1.02045845985,0.351606875658,1.53347623348,-0.0809188112617,15.3000001907,0.34129045479933107,0.11759427279531771,0.5128683055117057,15.3000001907,-0.010934974494824324,0.49677637027995614,1.8752365775915907
1648295942370581415,70014,6,5,1.96362507343,0.12306240201,-0.0773751586676,-0.0809188112617,15.3000001907,0.6567307937892977,0.04115799398327759,-0.025877979487491636,15.3000001907,-0.010934974494824324,0.9296691086031469,1.9689983999410159
1648295942475517452,70015,7,0,0.0128108067438,0.0439508594573,0.0101007642224,0.0,12.1000003815,0.004284550750434783,0.014699284099431437,0.0033781820141806015,12.1000003815,0.0,0.01589917303830298,0.046880915672999006
1648295942475551664,70016,7,1,0.0335404723883,0.0146502861753,-0.0292954929173,0.0,12.1000003815,0.011217549293745818,0.0048997612626421405,-0.009797823718160533,12.1000003815,0.0,0.016603447977637752,0.046880913795659694
1648295942475590434,70017,7,2,1.86731791496,-0.0586011447012,0.161871254444,0.0,12.1000003815,0.6245210417926421,-0.019599045050568562,0.05413754329230769,12.1000003815,0.0,0.8834235597098531,1.8752366764507693
1648295942475829868,70018,7,3,2.24376153946,-1.2306240797,0.586057543755,0.0,12.1000003815,0.7504219195518393,-0.4115799597658863,0.1960058674765886,12.1000003815,0.0,1.1382724533118698,2.625331391670302
1648295942670488861,70019,9,0,0.0127217965201,0.0439508594573,0.010212643072,0.0,15.1999998093,0.004254781444849498,0.014699284099431437,0.0034155996896321067,15.1999998093,0.0,0.015883176109414296,0.046880915437416903
1648295942670529923,70020,9,1,0.0335041433573,0.0146502861753,-0.0293370354921,0.0,15.1999998093,0.011205399116153847,0.0048997612626421405,-0.009811717555886288,15.1999998093,0.0,0.016587031052466603,0.046880914651800804
1648295942670557127,70021,9,2,1.88723433018,-0.0600661747158,0.359547793865,0.0,15.1999998093,0.6311820502274247,-0.020089021644080267,0.1202500982826087,15.1999998093,0.0,0.8928522441306886,1.9221175766399232
1648295942670652272,70022,9,3,2.24134707451,-1.2306240797,0.595224916935,0.0,15.1999998093,0.7496144061906355,-0.4115799597658863,0.19907187857357858,15.1999998093,0.0,1.1372077994887155,2.6253314144489046
1648295942775695451,70023,10,0,0.0127217965201,0.0439508594573,0.010212643072,0.0,15.8999996185,0.004254781444849498,0.014699284099431437,0.0034155996896321067,15.8999996185,0.0,0.015883176109414296,0.046880915437416903
1648295942775721054,70024,10,1,0.0334552153945,0.0146502861753,-0.0293928217143,0.0,15.8999996185,0.011189035248996655,0.0048997612626421405,-0.00983037515528428,15.8999996185,0.0,0.016564923182359397,0.0468809160580209
1648295942775744068,70025,10,2,1.8687620163,-0.117202289402,0.102490276098,0.0,15.8999996185,0.6250040188294315,-0.03919809010100334,0.03427768431371237,15.8999996185,0.0,0.8847578976044502,1.8752365469191763
1648295942775751123,70026,10,3,2.24343705177,-1.2306240797,0.587298035622,0.0,15.8999996185,0.7503133952408026,-0.4115799597658863,0.19642074769966553,15.8999996185,0.0,1.138129362347027,2.6253312959391244
1648295942970209103,70027,12,0,0.0127100823447,0.0439508594573,0.0102272182703,0.0,16.1000003815,0.004250863660434782,0.014699284099431437,0.003420474337892977,16.1000003815,0.0,0.01588107794688408,0.04688091545386831
1648295942970252586,70028,12,1,0.0335041433573,0.0146502861753,-0.0293370354921,0.0,16.1000003815,0.011205399116153847,0.0048997612626421405,-0.009811717555886288,16.1000003815,0.0,0.016587031052466603,0.046880914651800804
1648295942970274068,70029,12,2,1.90697979927,-0.120132349432,0.208644405007,0.0,16.1000003815,0.6377858860434782,-0.040178043288294316,0.0697807374605351,16.1000003815,0.0,0.9028598717602888,1.9221176405060714
1648295942970304497,70030,12,3,2.24075913429,-1.2306240797,0.59743386507,0.0,16.1000003815,0.7494177706655518,-0.4115799597658863,0.19981065721404678,16.1000003815,0.0,1.1369485710706266,2.6253312832048494
1648295943074941819,70031,13,0,0.0127217965201,0.0439508594573,0.010212643072,0.0,15.8999996185,0.004254781444849498,0.014699284099431437,0.0034155996896321067,15.8999996185,0.0,0.015883176109414296,0.046880915437416903
1648295943074948647,70032,13,1,0.0335404723883,0.0146502861753,-0.0292954929173,0.0,15.8999996185,0.011217549293745818,0.0048997612626421405,-0.009797823718160533,15.8999996185,0.0,0.016603447977637752,0.046880913795659694
1648295943074974678,70033,13,2,1.94281148911,-0.061531201005,0.314089626074,0.0,15.8999996185,0.649769728799331,-0.020578996991638794,0.10504669768361202,15.8999996185,0.0,0.9191435666124712,1.9689984418790782
1648295943074981664,70034,13,3,2.24182367325,-1.2306240797,0.593426942825,0.0,15.8999996185,0.7497738037625417,-0.4115799597658863,0.1984705494397993,15.8999996185,0.0,1.1374179429295062,2.6253313207959525
1648295943270009584,70035,15,0,0.0127217965201,0.0439508594573,0.010212643072,0.0,15.6999998093,0.004254781444849498,0.014699284099431437,0.0034155996896321067,15.6999998093,0.0,0.015883176109414296,0.046880915437416903
1648295943270017417,70036,15,1,0.0335404723883,0.0146502861753,-0.0292954929173,0.0,15.6999998093,0.011217549293745818,0.0048997612626421405,-0.009797823718160533,15.6999998093,0.0,0.016603447977637752,0.046880913795659694
1648295943270052444,70037,15,2,1.87140607834,-0.0586011447012,0.104486621916,0.0,15.6999998093,0.6258883205150501,-0.019599045050568562,0.03494535850033444,15.6999998093,0.0,0.8853567089491073,1.875236587305081
1648295943270086102,70038,15,3,2.24297046661,-1.2306240797,0.589078068733,0.0,15.6999998093,0.7501573466923077,-0.4115799597658863,0.19701607649933106,15.6999998093,0.0,1.1379236146920297,2.6253314287313048
1648295943375241184,70039,16,0,0.0126887271181,0.0439508594573,0.0102537022904,0.0,14.6999998093,0.004243721444180602,0.014699284099431437,0.0034293318696989963,14.6999998093,0.0,0.015877257207319986,0.046880915664832074
1648295943375246566,70040,16,1,0.0335269682109,0.0146502861753,-0.0293109472841,0.0,14.6999998093,0.01121303284645485,0.0048997612626421405,-0.00980299240270903,14.6999998093,0.0,0.016597345319726262,0.046880914166899254
1648295943375249386,70041,16,2,2.24098563194,-1.2306240797,0.596583604813,0.0,14.6999998093,0.7494935223879599,-0.4115799597658863,0.19952628923511703,14.6999998093,0.0,1.137048434977117,2.625331260170927
1648295943375252233,70042,16,3,1.86767578125,-0.180198520422,0.416955202818,0.0809188112617,14.6999998093,0.6246407295150501,-0.06026706368628762,0.13944990060802676,14.6999998093,0.010934974494824324,0.8854288231718883,1.9221175749123869
