%time,field.header.seq,field.header.frame_id,field.point_id,field.x,field.y,field.z,field.velocity,field.intensity,normalized_x,normalized_y,normalized_z,normalized_intensity,normalized_velocity,normalized_range,range
1648127857488748069,132285,0,0,0.0125934295356,0.0439508594573,0.0103705218062,0.0,13.0,0.004211849343010033,0.014699284099431437,0.0034684019418729094,13.0,0.0,0.01586027436119016,0.046880915488462134
1648127857488755267,132286,0,1,0.0328981243074,0.0146502861753,-0.0300150439143,0.0,13.0,0.011002717159665552,0.0048997612626421405,-0.010038476225518393,13.0,0.0,0.016313406456717926,0.04688091647078464
1648127857488765449,132287,0,2,1.40021908283,0.131852582097,0.00629614200443,0.0,13.0,0.4683006965986622,0.04409785354414715,0.0021057331118494982,13.0,0.0,0.6637437047210207,1.4064274687061087
1648127857488770266,132288,0,3,1.45419037342,-0.0,0.368643790483,0.0,13.0,0.4863512954581939,-0.0,0.12329223761973243,13.0,0.0,0.6878045981147021,1.50018928352694
1648127857488818755,132289,0,4,1.87068223953,-1.31852579117,0.506546139717,0.0,13.0,0.6256462339565217,-0.44097852547491634,0.16941342465451503,13.0,0.0,0.988599251495766,2.344045924237758
1648127857488825991,132290,0,5,2.42197537422,-0.902457654476,0.460402131081,0.0,13.0,0.8100252087692308,-0.30182530250033446,0.15398064584648827,13.0,0.0,1.1846434868401083,2.625331341708006
1648127857488830729,132291,0,6,1.21310901642,0.0380907431245,-0.112436942756,-0.323675245047,13.0,0.4057220790702341,0.01273937897140468,-0.03760432868093645,13.0,-0.04373989797932432,0.5739190732731607,1.2189037929744877
1648127857684037827,132292,2,0,0.0125726731494,0.0439508594573,0.0103956768289,0.0,28.1000003815,0.004204907407826087,0.014699284099431437,0.0034768149929431435,28.1000003815,0.0,0.01585658997554579,0.04688091566818964
1648127857684042959,132293,2,1,0.0328232087195,0.0146502861753,-0.0300969481468,0.0,28.1000003815,0.01097766177909699,0.0048997612626421405,-0.01006586894541806,28.1000003815,0.0,0.016279612301998543,0.04688091512986084
1648127857684047130,132294,2,2,1.40452969074,-0.0,0.0730390921235,0.0,28.1000003815,0.4697423714849498,-0.0,0.02442779000785953,28.1000003815,0.0,0.6643160325753166,1.406427517203935
1648127857684060666,132295,2,3,1.87349200249,-1.31852579117,0.49605306983,0.0,28.1000003815,0.6265859540100334,-0.44097852547491634,0.16590403673244147,28.1000003815,0.0,0.9897888539761188,2.344045902592829
1648127857684178076,132296,2,4,2.42546010017,-0.902457654476,0.441676676273,0.0,28.1000003815,0.8111906689531772,-0.30182530250033446,0.14771795193076923,28.1000003815,0.0,1.186237377603161,2.6253313699421934
1648127857684183327,132297,2,5,2.2986676693,-0.761814832687,-0.280484527349,-0.242756426334,28.1000003815,0.7687851736789296,-0.2547875694605351,-0.09380753423043477,28.1000003815,-0.03280492247756756,1.1166816878988797,2.43780771663173
1648127857788949634,132298,3,0,0.0125726731494,0.0439508594573,0.0103956768289,0.0,25.6000003815,0.004204907407826087,0.014699284099431437,0.0034768149929431435,25.6000003815,0.0,0.01585658997554579,0.04688091566818964
1648127857788957318,132299,3,1,0.0328476838768,0.0146502861753,-0.0300702322274,0.0,25.6000003815,0.010985847450434783,0.0048997612626421405,-0.010056933855317725,25.6000003815,0.0,0.016290652191957734,0.04688091389145629
1648127857788970549,132300,3,2,1.35845148563,-0.0424858294427,-0.034225333482,0.0,25.6000003815,0.4543316005451505,-0.01420930750591973,-0.011446599826755851,25.6000003815,0.0,0.6426790108037091,1.3595465633680013
1648127857788974056,132301,3,3,1.86386680603,-1.31852579117,0.531075716019,0.0,25.6000003815,0.6233668247591974,-0.44097852547491634,0.17761729632742476,25.6000003815,0.0,0.9857152004259441,2.34404589305458
1648127857789147530,132302,3,4,2.43161416054,-0.902457654476,0.406433105469,0.0,25.6000003815,0.8132488831237458,-0.30182530250033446,0.13593080450468228,25.6000003815,0.0,1.1890525661355171,2.6253314291879697
1648127857789154035,132303,3,5,1.18451833725,-0.076181486249,-0.277198672295,-0.485512852669,25.6000003815,0.39615997901337796,-0.02547875794280936,-0.09270858605183946,25.6000003815,-0.06560984495527027,0.560833865819521,1.218903775550278
1648127857789267876,132304,3,6,0.546557724476,-0.571361124516,0.927657008171,-0.485512852669,25.6000003815,0.18279522557725753,-0.19109067709565214,0.310253179990301,25.6000003815,-0.06560984495527027,0.3214713608714713,1.2189037720843028
1648127857984019218,132305,5,0,0.0126673094928,0.0439508594573,0.0102801481262,0.0,22.7999992371,0.0042365583587959865,0.014699284099431437,0.00343817663083612,22.7999992371,0.0,0.015873430835542962,0.04688091533148996
1648127857984143363,132306,5,1,0.0329111367464,0.0146502861753,-0.0300007723272,0.0,22.7999992371,0.011007069145953176,0.0048997612626421405,-0.010033703119464882,22.7999992371,0.0,0.016319277030508346,0.04688091453018932
1648127857984147966,132307,5,2,1.77587080002,-1.46502864361,0.441049963236,0.0,22.7999992371,0.5939367224147157,-0.489976134986622,0.14750834890836118,22.7999992371,0.0,0.9724187746654723,2.344045881597011
1648127857984151419,132308,5,3,0.486796557903,-0.732514321804,2.17278695107,0.0,22.7999992371,0.16280821334548495,-0.24498806749297658,0.7266845990200669,22.7999992371,0.0,0.33620259053053286,2.3440459157563978
1648127857984276385,132309,5,4,1.47824633121,0.290075659752,0.352236449718,0.161837622523,22.7999992371,0.4943967662909699,0.09701527082006689,0.11780483268160534,22.7999992371,0.021869948989594594,0.7058812136685795,1.5470703347379926
1648127857984281558,132310,5,5,1.34784281254,-0.0,-0.178007468581,-0.0809188112617,22.7999992371,0.45078354934448156,-0.0,-0.05953427042842809,22.7999992371,-0.010934974494824324,0.6375042091776472,1.3595465811020795
1648127858088873468,132311,6,0,0.0125934295356,0.0439508594573,0.0103705218062,0.0,24.6000003815,0.004211849343010033,0.014699284099431437,0.0034684019418729094,24.6000003815,0.0,0.01586027436119016,0.046880915488462134
1648127858088901707,132312,6,1,0.0329111367464,0.0146502861753,-0.0300007723272,0.0,24.6000003815,0.011007069145953176,0.0048997612626421405,-0.010033703119464882,24.6000003815,0.0,0.016319277030508346,0.04688091453018932
1648127858088928423,132313,6,2,1.35616147518,0.0424858294427,-0.0859519615769,0.0,24.6000003815,0.45356571076254176,0.01420930750591973,-0.02874647544377926,24.6000003815,0.0,0.6415961442986212,1.359546517102208
1648127858088977543,132314,6,3,1.87498295307,-1.31852579117,0.49038785696,0.0,24.6000003815,0.6270845996889631,-0.44097852547491634,0.16400931670903007,24.6000003815,0.0,0.9904202392238184,2.3440459864382768
1648127858088980261,132315,6,4,2.39130091667,-0.984499275684,0.452555060387,0.0,24.6000003815,0.7997661928662207,-0.32926397180066885,0.15135620748729095,24.6000003815,0.0,1.1779926526211486,2.6253314039509346
1648127858088981394,132316,6,5,1.45691108704,-0.093761831522,0.345234453678,0.0809188112617,24.6000003815,0.48726123312374575,-0.03135847208093645,0.11546302798595316,24.6000003815,0.010934974494824324,0.6898045899976293,1.5001893295836968
1648127858088986698,132317,6,6,1.30532109737,-0.499574750662,0.398330211639,0.566431701183,24.6000003815,0.4365622399230769,-0.16708185640869566,0.1332208065682274,24.6000003815,0.07654482448418919,0.6396010673805074,1.4533083142411976
1648127858088989809,132318,6,7,0.506260633469,-0.77207005024,-1.12236940861,-0.566431701183,24.6000003815,0.16931793761505015,-0.25821740810702337,-0.37537438415050167,24.6000003815,-0.07654482448418919,0.3521553035891084,1.4533083227111825
1648127858088991653,132319,6,8,1.39488470554,-0.227079421282,0.338875621557,-0.566431701183,24.6000003815,0.46651662392642135,-0.07594629474314381,0.1133363282799331,24.6000003815,-0.07654482448418919,0.6641109549500178,1.453308326613738
1648127858283889197,132320,8,0,0.0125726731494,0.0439508594573,0.0103956768289,0.0,33.5999984741,0.004204907407826087,0.014699284099431437,0.0034768149929431435,33.5999984741,0.0,0.01585658997554579,0.04688091566818964
1648127858283891667,132321,8,1,0.0328476838768,0.0146502861753,-0.0300702322274,0.0,33.5999984741,0.010985847450434783,0.0048997612626421405,-0.010056933855317725,33.5999984741,0.0,0.016290652191957734,0.04688091389145629
1648127858284054141,132322,8,2,1.35954499245,-0.0,-0.00210278760642,0.0,33.5999984741,0.4546973218896321,-0.0,-0.0007032734469632107,33.5999984741,0.0,0.6430391193910425,1.3595466186238663
1648127858284060032,132323,8,3,1.86358463764,-1.31852579117,0.532065212727,0.0,33.5999984741,0.6232724540602006,-0.44097852547491634,0.17794823168127089,33.5999984741,0.0,0.9855958420724394,2.3440459368840263
1648127858284064267,132324,8,4,2.42790031433,-0.902457654476,0.428060084581,0.0,33.5999984741,0.812006794090301,-0.30182530250033446,0.14316390788662206,33.5999984741,0.0,1.1873536038295565,2.625331443924277
1648127858284137865,132325,8,5,1.45194733143,-0.241729736328,0.476279228926,0.161837622523,33.5999984741,0.4856011141906354,-0.08084606566153846,0.1592907120153846,33.5999984741,0.021869948989594594,0.6914860595408434,1.5470702060922277
1648127858388981185,132326,9,0,0.0126416329294,0.0439508594573,0.0103117069229,0.0,39.0999984741,0.004227970879397993,0.014699284099431437,0.003448731412341137,39.0999984741,0.0,0.01586885088939564,0.046880915411506324
1648127858388993253,132327,9,1,0.0329111367464,0.0146502861753,-0.0300007723272,0.0,39.0999984741,0.011007069145953176,0.0048997612626421405,-0.010033703119464882,39.0999984741,0.0,0.016319277030508346,0.04688091453018932
1648127858388998359,132328,9,2,1.35945212841,-0.0,-0.0160221699625,0.0,39.0999984741,0.45466626368227425,-0.0,-0.005358585271739129,39.0999984741,0.0,0.642995196452974,1.3595465418178174
1648127858389004484,132329,9,3,1.49958777428,0.193383783102,0.327514082193,0.0,39.0999984741,0.5015343726688962,0.06467685053578595,0.10953648233879598,39.0999984741,0.0,0.7122194527896545,1.5470702163675727
1648127858389016244,132330,9,4,1.87107872963,-1.31852579117,0.505079746246,0.0,39.0999984741,0.6257788393411371,-0.44097852547491634,0.1689229920555184,39.0999984741,0.0,0.9887670966735861,2.3440459518794023
1648127858389123534,132331,9,5,2.42333865166,-0.902457654476,0.453171759844,0.0,39.0999984741,0.8104811544013377,-0.30182530250033446,0.1515624614862876,39.0999984741,0.0,1.185267023294274,2.6253313472153827
1648127858583793879,132332,11,0,0.0125726731494,0.0439508594573,0.0103956768289,0.0,12.5,0.004204907407826087,0.014699284099431437,0.0034768149929431435,12.5,0.0,0.01585658997554579,0.04688091566818964
1648127858583801989,132333,11,1,0.0329111367464,0.0146502861753,-0.0300007723272,0.0,12.5,0.011007069145953176,0.0048997612626421405,-0.010033703119464882,12.5,0.0,0.016319277030508346,0.04688091453018932
1648127858583807027,132334,11,2,1.3582495451,-0.0,-0.0593730472028,0.0,12.5,0.4542640619063545,-0.0,-0.019857206422341133,12.5,0.0,0.6424263972466577,1.3595466102706826
1648127858583810975,132335,11,3,1.8776345253,-1.31852579117,0.480134874582,0.0,12.5,0.6279714131438127,-0.44097852547491634,0.16058022561270902,12.5,0.0,0.9915433683816889,2.3440458976668745
1648127858584151782,132336,11,4,2.4367146492,-0.902457654476,0.374641954899,0.0,12.5,0.8149547321739129,-0.30182530250033446,0.12529831267525082,12.5,0.0,1.191386144041774,2.6253313493954904
1648127858584156423,132337,11,5,1.42023169994,0.348676800728,0.634071290493,-0.161837622523,12.5,0.4749938795785953,0.11661431462474915,0.2120639767535117,12.5,-0.021869948989594594,0.6817897547262279,1.5939510639627035
