%time,field.header.seq,field.header.frame_id,field.point_id,field.x,field.y,field.z,field.velocity,field.intensity,normalized_x,normalized_y,normalized_z,normalized_intensity,normalized_velocity,normalized_range,range
1648219979062416719,93888,0,0,0.0122609948739,0.0439508594573,0.0107615143061,0.0,17.0,0.004100667181906354,0.014699284099431437,0.003599168664247491,17.0,0.0,0.01580189532016098,0.046880915440011765
1648219979062422664,93889,0,1,0.033485610038,0.0146502861753,-0.0293581876904,0.0,17.0,0.01119920068160535,0.0048997612626421405,-0.009818791869698995,17.0,0.0,0.016578656527132345,0.0468809145505924
1648219979062428355,93890,0,2,1.63531839848,-0.542060613632,-0.201792404056,0.0,17.0,0.5469292302608695,-0.18129117512775916,-0.06748909834648828,17.0,0.0,0.7944366909997915,1.7345939431443291
1648219979257886722,93891,2,0,0.0122609948739,0.0439508594573,0.0107615143061,0.0,13.3000001907,0.004100667181906354,0.014699284099431437,0.003599168664247491,13.3000001907,0.0,0.01580189532016098,0.046880915440011765
1648219979257935390,93892,2,1,0.033485610038,0.0146502861753,-0.0293581876904,0.0,13.3000001907,0.01119920068160535,0.0048997612626421405,-0.009818791869698995,13.3000001907,0.0,0.016578656527132345,0.0468809145505924
1648219979258055364,93893,2,2,1.61822032928,-0.474669247866,0.066536411643,0.0,13.3000001907,0.5412108124682273,-0.15875225681137123,0.022252980482608695,13.3000001907,0.0,0.7816780450465147,1.6877129563521969
1648219979258082873,93894,2,3,1.81794095039,0.171408340335,0.0927052199841,0.0,13.3000001907,0.6080070068193979,0.05732720412541805,0.031005090295685617,13.3000001907,0.0,0.8617606680603404,1.8283556481312917
1648219979258092409,93895,2,4,2.13261961937,-1.14272224903,0.298371404409,0.0,13.3000001907,0.713250708819398,-0.3821813541906354,0.09978976736086956,13.3000001907,0.0,1.078663865508498,2.4378076368571464
1648219979363016240,93896,3,0,0.0122609948739,0.0439508594573,0.0107615143061,0.0,12.0,0.004100667181906354,0.014699284099431437,0.003599168664247491,12.0,0.0,0.01580189532016098,0.046880915440011765
1648219979363081446,93897,3,1,0.0334718860686,0.0146502861753,-0.0293738357723,0.0,12.0,0.01119461072528428,0.0048997612626421405,-0.009824025341906354,12.0,0.0,0.016572455430991152,0.04688091583987642
1648219979363108457,93898,3,2,1.57256710529,-0.461484014988,0.0799695849419,0.0,12.0,0.5259421756822742,-0.15434247992909697,0.02674568058257525,12.0,0.0,0.7596393522148995,1.6408320850243618
1648219979363126057,93899,3,3,1.81633579731,0.171408340335,0.120116524398,0.0,12.0,0.6074701663244146,0.05732720412541805,0.0401727506347826,12.0,0.0,0.8610031441761763,1.828355689454218
1648219979363137543,93900,3,4,2.11061859131,-1.21890377998,0.0496888272464,0.0,12.0,0.7058925054548495,-0.407660127083612,0.016618336871705684,12.0,0.0,1.0783112898085025,2.437807671328086
1648219979557985838,93901,5,0,0.0122609948739,0.0439508594573,0.0107615143061,0.0,12.5,0.004100667181906354,0.014699284099431437,0.003599168664247491,12.5,0.0,0.01580189532016098,0.046880915440011765
1648219979558031976,93902,5,1,0.0333878919482,0.0146502861753,-0.0294692683965,0.0,12.5,0.011166519046220735,0.0048997612626421405,-0.009855942607525084,12.5,0.0,0.016534508025644712,0.04688091289200561
1648219979558040386,93903,5,2,1.81890928745,0.114272229373,0.146270975471,0.0,12.5,0.6083308653678929,0.03821813691404682,0.04892005868595317,12.5,0.0,0.861158237205962,1.8283556373536796
1648219979558188138,93904,5,3,2.13862228394,-1.14272224903,0.251765310764,0.0,12.5,0.7152582889431438,-0.3821813541906354,0.0842024450715719,12.5,0.0,1.0813192994184169,2.43780745414748
1648219979663063762,93905,6,0,0.0122609948739,0.0439508594573,0.0107615143061,0.0,13.3000001907,0.004100667181906354,0.014699284099431437,0.003599168664247491,13.3000001907,0.0,0.01580189532016098,0.046880915440011765
1648219979663107841,93906,6,1,0.0334626622498,0.0146502861753,-0.0293843410909,0.0,13.3000001907,0.01119152583605351,0.0048997612626421405,-0.00982753882638796,13.3000001907,0.0,0.016568287826718698,0.046880914573083264
1648219979663149852,93907,6,2,1.81342315674,0.171408340335,0.15811522305,0.0,13.3000001907,0.6064960390434783,0.05732720412541805,0.052881345501672235,13.3000001907,0.0,0.8596285820537227,1.8283557608675118
1648219979663310656,93908,6,3,2.13240933418,-1.14272224903,0.299870073795,0.0,13.3000001907,0.7131803793244147,-0.3821813541906354,0.10029099458026756,13.3000001907,0.0,1.0785708573837973,2.43780757404763
1648219979857916249,93909,8,0,0.0122832721099,0.0439508594573,0.0107360808179,0.0,12.0,0.004108117762508361,0.014699284099431437,0.00359066248090301,12.0,0.0,0.015805765281601245,0.046880915649010785
1648219979857927588,93910,8,1,0.0334718860686,0.0146502861753,-0.0293738357723,0.0,12.0,0.01119461072528428,0.0048997612626421405,-0.009824025341906354,12.0,0.0,0.016572455430991152,0.04688091583987642
1648219979857980036,93911,8,2,1.56725895405,-0.461484014988,0.151860818267,0.0,12.0,0.5241668742642139,-0.15434247992909697,0.05078957132675584,12.0,0.0,0.7571812367343079,1.6408320551671542
1648219979858215721,93912,8,3,1.8668462038,0.175803437829,0.0221488568932,0.0,12.0,0.6243632788628762,0.05879713639765886,0.007407644445886288,12.0,0.0,0.8849384787844681,1.8752365635451549
1648219979963039886,93913,9,0,0.0122609948739,0.0439508594573,0.0107615143061,0.0,14.8999996185,0.004100667181906354,0.014699284099431437,0.003599168664247491,14.8999996185,0.0,0.01580189532016098,0.046880915440011765
1648219979963065200,93914,9,1,0.0334718860686,0.0146502861753,-0.0293738357723,0.0,14.8999996185,0.01119461072528428,0.0048997612626421405,-0.009824025341906354,14.8999996185,0.0,0.016572455430991152,0.04688091583987642
1648219979963126807,93915,9,2,1.56805837154,-0.461484014988,-0.143372282386,0.0,14.8999996185,0.5244342379732442,-0.15434247992909697,-0.04795059611571906,14.8999996185,0.0,0.7575514114750354,1.640832155950965
1648219980158037306,93916,11,0,0.0122832721099,0.0439508594573,0.0107360808179,0.0,11.5,0.004108117762508361,0.014699284099431437,0.00359066248090301,11.5,0.0,0.015805765281601245,0.046880915649010785
1648219980158051300,93917,11,1,0.0334489420056,0.0146502861753,-0.0293999575078,0.0,11.5,0.011186937125618728,0.0048997612626421405,-0.009832761708294314,11.5,0.0,0.016562088785415374,0.046880914109823243
1648219980158082001,93918,11,2,1.82269513607,0.114272229373,0.0872278511524,0.0,11.5,0.6095970354749164,0.03821813691404682,0.02917319436535117,11.5,0.0,0.8629471115362712,1.8283556545365502
1648219980262990261,93919,12,0,0.0122832721099,0.0439508594573,0.0107360808179,0.0,15.6999998093,0.004108117762508361,0.014699284099431437,0.00359066248090301,15.6999998093,0.0,0.015805765281601245,0.046880915649010785
1648219980263006294,93920,12,1,0.0334626622498,0.0146502861753,-0.0293843410909,0.0,15.6999998093,0.01119152583605351,0.0048997612626421405,-0.00982753882638796,15.6999998093,0.0,0.016568287826718698,0.046880914573083264
1648219980263029852,93921,12,2,1.60796892643,-0.36918720603,0.35568472743,0.0,15.6999998093,0.5377822496421404,-0.12347398194983276,0.11895810281939799,15.6999998093,0.0,0.7704968009530412,1.687712915986495
1648219980263067250,93922,12,3,1.80544316769,0.285680562258,-0.0405707135797,0.0809188112617,15.6999998093,0.6038271463846153,0.09554533854782607,-0.013568800528327757,15.6999998093,0.010934974494824324,0.8592690830817749,1.8283556541906485
1648219980458062831,93923,14,0,0.0122832721099,0.0439508594573,0.0107360808179,0.0,15.1000003815,0.004108117762508361,0.014699284099431437,0.00359066248090301,15.1000003815,0.0,0.015805765281601245,0.046880915649010785
1648219980458076763,93924,14,1,0.0334718860686,0.0146502861753,-0.0293738357723,0.0,15.1000003815,0.01119461072528428,0.0048997612626421405,-0.009824025341906354,15.1000003815,0.0,0.016572455430991152,0.04688091583987642
1648219980458118011,93925,14,2,1.61140096188,-0.474669247866,0.162637978792,0.0,15.1000003815,0.5389300875852843,-0.15875225681137123,0.05439397284013378,15.1000003815,0.0,0.7785201074166729,1.6877129693650548
1648219980458377991,93926,14,3,1.85164284706,0.293005734682,0.0455939173698,0.0,15.1000003815,0.619278544167224,0.09799522899063544,0.015248801795919732,15.1000003815,0.0,0.8812575647543005,1.875236624782623
1648219980458407096,93927,14,4,1.69336116314,0.501039803028,0.234817907214,0.0809188112617,15.1000003815,0.5663415261337792,0.16757184047759197,0.07853441712842808,15.1000003815,0.010934974494824324,0.8182699861097947,1.7814747718105788
1648219980458425338,93928,14,5,1.72373795509,-0.0,0.609599769115,0.161837622523,15.1000003815,0.5765009883244147,-0.0,0.2038795214431438,15.1000003815,0.021869948989594594,0.8152955164098805,1.8283556591437335
1648219980458492135,93929,14,6,1.67889487743,0.628497242928,-0.359426915646,0.161837622523,15.1000003815,0.5615033034882944,0.2101997467986622,-0.12020967078461538,15.1000003815,0.021869948989594594,0.8214352398155055,1.8283556824424478
1648219980458518527,93930,14,7,1.81201398373,-0.0571361146867,0.237119406462,0.323675245047,15.1000003815,0.606024743722408,-0.0191090684570903,0.07930414931839465,15.1000003815,0.04373989797932432,0.8572614166664205,1.82835577111115
1648219980562954708,93931,15,0,0.0122832721099,0.0439508594573,0.0107360808179,0.0,31.5,0.004108117762508361,0.014699284099431437,0.00359066248090301,31.5,0.0,0.015805765281601245,0.046880915649010785
1648219980562973656,93932,15,1,0.0335360355675,0.0146502861753,-0.0293005723506,0.0,31.5,0.011216065407190634,0.0048997612626421405,-0.009799522525284281,31.5,0.0,0.01660144291523015,0.046880914098122665
1648219980562985515,93933,15,2,1.61950588226,-0.474669247866,0.0162666924298,0.0,31.5,0.5416407632976588,-0.15875225681137123,0.005440365361137124,31.5,0.0,0.7822734253277714,1.6877128911124135
1648219980562993183,93934,15,3,1.85419690609,0.117202289402,0.25442057848,0.0809188112617,31.5,0.6201327445117056,0.03919809010100334,0.08509049447491637,31.5,0.010934974494824324,0.8778756927371933,1.8752366181228695
1648219980563022136,93935,15,4,1.76781761646,0.399952799082,0.240298256278,0.161837622523,31.5,0.591243349986622,0.13376347795384613,0.08036730979197323,31.5,0.021869948989594594,0.8467762785063806,1.8283557144412816
1648219980758101280,93936,17,0,0.0122609948739,0.0439508594573,0.0107615143061,0.0,31.7999992371,0.004100667181906354,0.014699284099431437,0.003599168664247491,31.7999992371,0.0,0.01580189532016098,0.046880915440011765
1648219980758141385,93937,17,1,0.0334718860686,0.0146502861753,-0.0293738357723,0.0,31.7999992371,0.01119461072528428,0.0048997612626421405,-0.009824025341906354,31.7999992371,0.0,0.016572455430991152,0.04688091583987642
1648219980758151478,93938,17,2,1.61588764191,-0.474669247866,0.109413295984,0.0,31.7999992371,0.5404306494682274,-0.15875225681137123,0.03659307557993311,31.7999992371,0.0,0.7805977535273873,1.687712960039478
1648219980758243106,93939,17,3,1.82576131821,0.0571361146867,0.0788392797112,0.0,31.7999992371,0.610622514451505,0.0191090684570903,0.026367652077324413,31.7999992371,0.0,0.8637620429304904,1.8283556980792304
1648219980758254554,93940,17,4,1.71130311489,0.171408340335,0.620439589024,0.242756426334,31.7999992371,0.5723421788929766,0.05732720412541805,0.2075048792722408,31.7999992371,0.03280492247756756,0.8114416478174862,1.8283556693917313
