%time,field.header.seq,field.header.frame_id,field.point_id,field.x,field.y,field.z,field.velocity,field.intensity,normalized_x,normalized_y,normalized_z,normalized_intensity,normalized_velocity,normalized_range,range
1648294886860581421,27791,0,0,0.0126799661666,0.0439508594573,0.0102645335719,0.0,14.6999998093,0.004240791360066889,0.014699284099431437,0.00343295437187291,14.6999998093,0.0,0.015875691347309377,0.04688091550375397
1648294886860626934,27792,0,1,0.033514522016,0.0146502861753,-0.0293251797557,0.0,14.6999998093,0.011208870239464881,0.0048997612626421405,-0.009807752426655518,14.6999998093,0.0,0.016591720963215706,0.0468809155060271
1648294886860630869,27793,0,2,0.363346993923,-0.612381994724,-0.535145223141,0.0,14.6999998093,0.1215207337535117,-0.20481003168026754,-0.17897833549866218,14.6999998093,0.0,0.26736066752769744,0.8907374221989646
1648294886860635754,27794,0,3,1.49050331116,-1.68478298187,0.659133791924,0.0,14.6999998093,0.49849609068896317,-0.5634725691872909,0.22044608425551837,14.6999998093,0.0,0.9024954521164549,2.3440458980646697
1648294886860705656,27795,0,4,2.23608160019,-1.2306240797,0.614710390568,0.0,14.6999998093,0.7478533779899664,-0.4115799597658863,0.20558875938729096,14.6999998093,0.0,1.1348865199758502,2.62533148621617
1648294886965782177,27796,1,0,0.0127002792433,0.0439508594573,0.010239389725,0.0,14.8999996185,0.004247585031204013,0.014699284099431437,0.003424545058528428,14.8999996185,0.0,0.015879323355559413,0.04688091553962624
1648294886965789001,27797,1,1,0.033514522016,0.0146502861753,-0.0293251797557,0.0,14.8999996185,0.011208870239464881,0.0048997612626421405,-0.009807752426655518,14.8999996185,0.0,0.016591720963215706,0.0468809155060271
1648294886965796842,27798,1,2,0.372645229101,-0.612381994724,-0.528712570667,0.0,14.8999996185,0.12463051140501671,-0.20481003168026754,-0.1768269467113712,14.8999996185,0.0,0.2702085820676764,0.8907374229340481
1648294886965800233,27799,1,3,1.84551095963,-0.117202289402,0.311231970787,0.0,14.8999996185,0.6172277456956521,-0.03919809010100334,0.10409096012943143,14.8999996185,0.0,0.873771520696709,1.8752366299737944
1648294886965808632,27800,1,4,2.23512196541,-1.2306240797,0.618190467358,0.0,14.8999996185,0.7475324299030099,-0.4115799597658863,0.2067526646682274,14.8999996185,0.0,1.1344635431754895,2.625331460926036
1648294887160664722,27801,3,0,0.0126799661666,0.0439508594573,0.0102645335719,0.0,14.8000001907,0.004240791360066889,0.014699284099431437,0.00343295437187291,14.8000001907,0.0,0.015875691347309377,0.04688091550375397
1648294887160669051,27802,3,1,0.033514522016,0.0146502861753,-0.0293251797557,0.0,14.8000001907,0.011208870239464881,0.0048997612626421405,-0.009807752426655518,14.8000001907,0.0,0.016591720963215706,0.0468809155060271
1648294887160673564,27803,3,2,0.381434798241,-0.5845464468,-0.55337703228,0.0,14.8000001907,0.12757016663578594,-0.19550048387959865,-0.18507593052842808,14.8000001907,0.0,0.2660239350662297,0.8907374437120502
1648294887160781089,27804,3,3,2.23470902443,-1.2306240797,0.619681358337,0.0,14.8000001907,0.7473943225518394,-0.4115799597658863,0.20725129041371235,14.8000001907,0.0,1.134281539145522,2.625331414369764
1648294887160868208,27805,3,4,1.87143397331,-0.117202289402,-0.0226050224155,-0.0809188112617,14.8000001907,0.6258976499364548,-0.03919809010100334,-0.007560208165719063,14.8000001907,-0.010934974494824324,0.8860204437029205,1.8752366464364782
1648294887265696689,27806,4,0,0.0125885810703,0.0439508594573,0.0103764068335,0.0,14.0,0.00421022778270903,0.014699284099431437,0.003470370178428093,14.0,0.0,0.01585941326154243,0.0468809155112521
1648294887265711545,27807,4,1,0.033514522016,0.0146502861753,-0.0293251797557,0.0,14.0,0.011208870239464881,0.0048997612626421405,-0.009807752426655518,14.0,0.0,0.016591720963215706,0.0468809155060271
1648294887265714135,27808,4,2,0.399832159281,-0.5845464468,-0.540234088898,0.0,14.0,0.13372313019431437,-0.19550048387959865,-0.18068029729030097,14.0,0.0,0.2720003498069227,0.8907374331806563
1648294887265719818,27809,4,3,2.23261022568,-1.2306240797,0.62720066309,0.0,14.0,0.7466923831705684,-0.4115799597658863,0.20976610805685617,14.0,0.0,1.1333565605981089,2.625331353777825
1648294887460715264,27810,6,0,0.0126920221373,0.0439508594573,0.0102496230975,0.0,14.8000001907,0.00424482345729097,0.014699284099431437,0.0034279675911371237,14.8000001907,0.0,0.015877846371688233,0.04688091559056686
1648294887460719158,27811,6,1,0.033514522016,0.0146502861753,-0.0293251797557,0.0,14.8000001907,0.011208870239464881,0.0048997612626421405,-0.009807752426655518,14.8000001907,0.0,0.016591720963215706,0.0468809155060271
1648294887460720980,27812,6,2,0.359713673592,-0.612381994724,-0.537594199181,0.0,14.8000001907,0.1203055764521739,-0.20481003168026754,-0.1797973910304348,14.8000001907,0.0,0.2662592956646808,0.8907374233882047
1648294887460724151,27813,6,3,2.23482680321,-1.2306240797,0.619256675243,0.0,14.8000001907,0.7474337134481605,-0.4115799597658863,0.2071092559341137,14.8000001907,0.0,1.13433344977511,2.625331463971038
1648294887460725303,27814,6,4,1.74142086506,-0.334026515484,0.171849191189,0.161837622523,14.8000001907,0.5824150050367892,-0.11171455367357858,0.05747464588260869,14.8000001907,0.021869948989594594,0.8312007084251632,1.7814748066770452
1648294887460726316,27815,6,5,1.91596114635,-0.0,0.453924894333,0.242756426334,14.8000001907,0.6407896810535116,-0.0,0.1518143459307692,14.8000001907,0.03280492247756756,0.906213457574606,1.9689984570887888
1648294887565750158,27816,7,0,0.0127122588456,0.0439508594573,0.0102245127782,0.0,19.0,0.004251591587157191,0.014699284099431437,0.0034195694910367893,19.0,0.0,0.015881467661515717,0.04688091545122009
1648294887565756419,27817,7,1,0.0335651524365,0.0146502861753,-0.0292672142386,0.0,19.0,0.011225803490468226,0.0048997612626421405,-0.009788365966086955,19.0,0.0,0.01661460166372055,0.046880914799007266
1648294887565759249,27818,7,2,0.385015547276,-0.5845464468,-0.550891697407,0.0,19.0,0.1287677415638796,-0.19550048387959865,-0.18424471485183944,19.0,0.0,0.2671754137866757,0.890737437398198
1648294887565916104,27819,7,3,0.333172798157,-0.640217542648,-0.522044599056,0.0,19.0,0.11142902948394648,-0.21411957948093643,-0.1745968558715719,19.0,0.0,0.26585720140812713,0.8907374353587866
1648294887565920012,27820,7,4,2.23839354515,-1.2306240797,0.606237053871,0.0,19.0,0.748626603729097,-0.4115799597658863,0.2027548675153846,19.0,0.0,1.135905650528605,2.625331341753427
1648294887565962991,27821,7,5,1.85542428493,-0.117202289402,0.245309531689,0.0809188112617,19.0,0.6205432391070234,-0.03919809010100334,0.08204332163511704,19.0,0.010934974494824324,0.8784556411512418,1.8752366304246908
1648294887760683143,27822,9,0,0.0126920221373,0.0439508594573,0.0102496230975,0.0,20.2999992371,0.00424482345729097,0.014699284099431437,0.0034279675911371237,20.2999992371,0.0,0.015877846371688233,0.04688091559056686
1648294887760859051,27823,9,1,0.033514522016,0.0146502861753,-0.0293251797557,0.0,20.2999992371,0.011208870239464881,0.0048997612626421405,-0.009807752426655518,20.2999992371,0.0,0.016591720963215706,0.0468809155060271
1648294887760863086,27824,9,2,0.3663367033,-0.5845464468,-0.563485622406,0.0,20.2999992371,0.12252063655518394,-0.19550048387959865,-0.18845672990167223,20.2999992371,0.0,0.2612337113791636,0.890737433427772
1648294887760864984,27825,9,3,1.85849547386,0.117202289402,0.220840528607,0.0,20.2999992371,0.6215703925953177,0.03919809010100334,0.07385970856421403,20.2999992371,0.0,0.8799068110713548,1.8752366096241282
1648294887760866040,27826,9,4,2.23810887337,-1.2306240797,0.607287585735,0.0,20.2999992371,0.7485313957759197,-0.4115799597658863,0.20310621596488293,20.2999992371,0.0,1.1357801566348047,2.625331439339202
1648294887865780319,27827,10,0,0.0126920221373,0.0439508594573,0.0102496230975,0.0,14.8000001907,0.00424482345729097,0.014699284099431437,0.0034279675911371237,14.8000001907,0.0,0.015877846371688233,0.04688091559056686
1648294887865782605,27828,10,1,0.033514522016,0.0146502861753,-0.0293251797557,0.0,14.8000001907,0.011208870239464881,0.0048997612626421405,-0.009807752426655518,14.8000001907,0.0,0.016591720963215706,0.0468809155060271
1648294887865785945,27829,10,2,0.339343249798,-0.612381994724,-0.550679206848,0.0,14.8000001907,0.11349272568494984,-0.20481003168026754,-0.1841736477752508,14.8000001907,0.0,0.26020827550958237,0.8907374122042676
1648294887865792702,27830,10,3,1.90688502789,-0.120132349432,0.209508791566,0.0,14.8000001907,0.6377541899297658,-0.040178043288294316,0.07006982995518395,14.8000001907,0.0,0.9028150910947489,1.9221176407063498
1648294887865893517,27831,10,4,2.19348335266,-1.31266570091,0.59825104475,0.0,14.8000001907,0.7336064724615384,-0.4390186290668896,0.2000839614548495,14.8000001907,0.0,1.1265408423766514,2.625331364473171
1648294888060744467,27832,12,0,0.0127122588456,0.0439508594573,0.0102245127782,0.0,14.5,0.004251591587157191,0.014699284099431437,0.0034195694910367893,14.5,0.0,0.015881467661515717,0.04688091545122009
1648294888060759177,27833,12,1,0.033514522016,0.0146502861753,-0.0293251797557,0.0,14.5,0.011208870239464881,0.0048997612626421405,-0.009807752426655518,14.5,0.0,0.016591720963215706,0.0468809155060271
1648294888060775308,27834,12,2,0.341571360826,-0.612381994724,-0.549299955368,0.0,14.5,0.11423791331973243,-0.20481003168026754,-0.1837123596548495,14.5,0.0,0.26085963803579426,0.8907374152722886
1648294888060793828,27835,12,3,1.82455170155,0.175803437829,0.395748227835,0.0,14.5,0.6102179603846153,0.05879713639765886,0.13235726683444815,14.5,0.0,0.8649792029872653,1.8752366304592172
1648294888060796817,27836,12,4,2.23632383347,-1.2306240797,0.613828539848,0.0,14.5,0.7479343924648829,-0.4115799597658863,0.2052938260361204,14.5,0.0,1.1349932925548571,2.6253314819304925
1648294888165756539,27837,13,0,0.0127002792433,0.0439508594573,0.010239389725,0.0,14.5,0.004247585031204013,0.014699284099431437,0.003424545058528428,14.5,0.0,0.015879323355559413,0.04688091553962624
1648294888165759034,27838,13,1,0.033514522016,0.0146502861753,-0.0293251797557,0.0,14.5,0.011208870239464881,0.0048997612626421405,-0.009807752426655518,14.5,0.0,0.016591720963215706,0.0468809155060271
1648294888165761628,27839,13,2,0.336835414171,-0.612381994724,-0.552216768265,0.0,14.5,0.11265398467257524,-0.20481003168026754,-0.18468788236287623,14.5,0.0,0.25947830275784106,0.8907374264366211
1648294888165764991,27840,13,3,1.83689701557,0.0586011447012,0.372675865889,0.0,14.5,0.6143468279498328,0.019599045050568562,0.12464075782240801,14.5,0.0,0.869038648502434,1.8752365293440665
1648294888165766149,27841,13,4,2.23559999466,-1.2306240797,0.616458714008,0.0,14.5,0.7476923059063544,-0.4115799597658863,0.2061734829458194,14.5,0.0,1.134674240433796,2.6253312758083807
1648294888360687081,27842,15,0,0.0126214576885,0.0439508594573,0.0103363925591,0.0,14.6000003815,0.0042212233071906346,0.014699284099431437,0.003456987477959866,14.6000003815,0.0,0.015865257812406854,0.046880915651827344
1648294888360690774,27843,15,1,0.033514522016,0.0146502861753,-0.0293251797557,0.0,14.6000003815,0.011208870239464881,0.0048997612626421405,-0.009807752426655518,14.6000003815,0.0,0.016591720963215706,0.0468809155060271
1648294888360820420,27844,15,2,0.330910801888,-0.612381994724,-0.555787265301,0.0,14.6000003815,0.11067250899264212,-0.20481003168026754,-0.1858820285287625,14.6000003815,0.0,0.2577672546510225,0.8907374195233231
1648294888360828709,27845,15,3,1.55397427082,0.351606875658,0.988963484764,0.0,14.6000003815,0.5197238363946488,0.11759427279531771,0.330757018315719,14.6000003815,0.0,0.7443481344289129,1.8752365726961187
1648294888360835267,27846,15,4,1.84867417812,-0.293005734682,-0.114296518266,0.0,14.6000003815,0.6182856783010033,-0.09799522899063544,-0.0382262602896321,14.6000003815,0.0,0.8798621624374984,1.875236590804458
1648294888360973312,27847,15,5,2.23919820786,-1.2306240797,0.60325807333,0.0,14.6000003815,0.7488957216923076,-0.4115799597658863,0.20175855295317727,14.6000003815,0.0,1.1362603870675827,2.6253313205496047
