%time,field.header.seq,field.header.frame_id,field.point_id,field.x,field.y,field.z,field.velocity,field.intensity,normalized_x,normalized_y,normalized_z,normalized_intensity,normalized_velocity,normalized_range,range
1648218742546032294,46964,0,0,0.00539573840797,0.0454158857465,0.0103006586432,0.0,18.7000007629,0.0018045947852742474,0.015189259446989964,0.003445036335518394,18.7000007629,0.0,0.015402166316010612,0.04688091551569908
1648218742546036059,46965,0,1,0.0333765335381,0.0146502861753,-0.0294821355492,0.0,18.7000007629,0.011162720246856188,0.0048997612626421405,-0.009860246003076922,18.7000007629,0.0,0.016529377092015133,0.04688091501431583
1648218742546043680,46966,0,2,1.91614997387,0.061531201005,0.448930054903,0.0,18.7000007629,0.6408528340702341,0.020578996991638794,0.15014383107123744,18.7000007629,0.0,0.9065363781938836,1.9689984777176264
1648218742741089592,46967,2,0,0.00539573840797,0.0454158857465,0.0103006586432,0.0,14.6000003815,0.0018045947852742474,0.015189259446989964,0.003445036335518394,14.6000003815,0.0,0.015402166316010612,0.04688091551569908
1648218742741098659,46968,2,1,0.0333993732929,0.0146502861753,-0.0294562578201,0.0,14.6000003815,0.011170358960836119,0.0048997612626421405,-0.009851591244180601,14.6000003815,0.0,0.016539694648292396,0.04688091451903291
1648218742741110455,46969,2,2,1.89277124405,0.120132349432,0.312283784151,0.0809188112617,14.6000003815,0.6330338608862875,0.040178043288294316,0.10444273717424749,14.6000003815,0.010934974494824324,0.8961462008063613,1.9221175628785834
1648218742846228871,46970,3,0,0.00525635527447,0.0454158857465,0.0103724775836,0.0,25.2000007629,0.0017579783526655518,0.015189259446989964,0.0034690560480267556,25.2000007629,0.0,0.015391380000664505,0.046880915521487786
1648218742846233151,46971,3,1,0.0334289707243,0.0146502861753,-0.0294226650149,0.0,25.2000007629,0.011180257767324413,0.0048997612626421405,-0.009840356192274247,25.2000007629,0.0,0.016553065816292893,0.04688091493649962
1648218742846249315,46972,3,2,1.87150168419,0.061531201005,0.6088103652,0.161837622523,25.2000007629,0.625920295715719,0.020578996991638794,0.20361550675585283,25.2000007629,0.021869948989594594,0.8854241516329269,1.968998401065395
1648218743041197729,46973,5,0,0.00543765118346,0.0454158857465,0.0102785946801,0.0,31.6000003815,0.001818612435939799,0.015189259446989964,0.0034376570836454844,31.6000003815,0.0,0.01540546347671123,0.046880915489460155
1648218743041205882,46974,5,1,0.0334289707243,0.0146502861753,-0.0294226650149,0.0,31.6000003815,0.011180257767324413,0.0048997612626421405,-0.009840356192274247,31.6000003815,0.0,0.016553065816292893,0.04688091493649962
1648218743041208038,46975,5,2,1.92714464664,0.12306240201,0.384608954191,0.0809188112617,31.6000003815,0.644529982153846,0.04115799398327759,0.12863175725451503,31.6000003815,0.010934974494824324,0.9124317926613483,1.9689984488326993
1648218743041388844,46976,5,3,2.00117468834,0.386767566204,0.317318797112,0.161837622523,31.6000003815,0.6692891934247491,0.1293537010715719,0.10612668799732441,31.6000003815,0.021869948989594594,0.9553158790950855,2.062760408414091
1648218743041392164,46977,5,4,1.67415344715,-0.210964113474,0.0328497514129,0.242756426334,31.6000003815,0.5599175408528427,-0.07055655969030099,0.010986538934080267,31.6000003815,0.03280492247756756,0.7949802093289623,1.6877128689282392
1648218743041394052,46978,5,5,2.02066016197,0.386767566204,0.149408906698,0.323675245047,31.6000003815,0.6758060742374581,0.1293537010715719,0.049969534012709024,31.6000003815,0.04373989797932432,0.9644480701071484,2.062760204638601
1648218743146208214,46979,6,0,0.00539573840797,0.0454158857465,0.0103006586432,0.0,19.6000003815,0.0018045947852742474,0.015189259446989964,0.003445036335518394,19.6000003815,0.0,0.015402166316010612,0.04688091551569908
1648218743146213996,46980,6,1,0.0334289707243,0.0146502861753,-0.0294226650149,0.0,19.6000003815,0.011180257767324413,0.0048997612626421405,-0.009840356192274247,19.6000003815,0.0,0.016553065816292893,0.04688091493649962
1648218743146224534,46981,6,2,1.91635203362,0.0600661747158,-0.13609816134,0.0,19.6000003815,0.6409204125819398,0.020089021644080267,-0.04551777971237458,19.6000003815,0.0,0.9066209347456212,1.922117522844175
1648218743146227431,46982,6,3,2.0551366806,-0.0,0.177182152867,0.323675245047,19.6000003815,0.6873366824749163,-0.0,0.05925824510602007,19.6000003815,0.04373989797932432,0.9720408582725563,2.062760357201527
1648218743146367406,46983,6,4,1.7016004324,-0.271030306816,0.199786320329,0.485512852669,19.6000003815,0.5690971345819398,-0.09064558756387958,0.0668181673341137,19.6000003815,0.06560984495527027,0.80991340260768,1.7345939099821732
1648218743146379999,46984,6,5,1.68592941761,-0.37944239378,0.149938359857,0.485512852669,19.6000003815,0.5638559925117056,-0.12690381062876252,0.05014660864782608,19.6000003815,0.06560984495527027,0.8074476687283344,1.7345939130288959
1648218743146381201,46985,6,6,1.81590747833,0.676843225956,0.348307579756,0.485512852669,19.6000003815,0.6073269158294314,0.22636897189163876,0.11649082934983278,19.6000003815,0.06560984495527027,0.8882200610305174,1.9689984490833978
1648218743341250596,46986,8,0,0.00546205835417,0.0454158857465,0.0102656455711,0.0,19.7000007629,0.0018267753692876253,0.015189259446989964,0.0034333262779598656,19.7000007629,0.0,0.015407394946831401,0.046880915505085274
1648218743341254531,46987,8,1,0.0334431305528,0.0146502861753,-0.0294065698981,0.0,19.7000007629,0.011184993495919733,0.0048997612626421405,-0.00983497321006689,19.7000007629,0.0,0.01655946313859305,0.04688091529995604
1648218743341390265,46988,8,2,1.88771426678,0.120132349432,-0.341524839401,0.0,19.7000007629,0.6313425641404682,0.040178043288294316,-0.11422235431471571,19.7000007629,0.0,0.893756757598732,1.9221176213522115
1648218743341392830,46989,8,3,1.36366045475,1.26138961315,0.493824213743,0.0,19.7000007629,0.4560737306856187,0.42186943583612035,0.1651585999140468,19.7000007629,0.0,0.7707011849839618,1.9221175682279623
1648218743341394591,46990,8,4,1.96514368057,0.064461261034,0.623726785183,0.0809188112617,19.7000007629,0.6572386891538461,0.021558950178595316,0.20860427598093642,19.7000007629,0.010934974494824324,0.929725861409768,2.062760296789964
1648218743341552030,46991,8,5,1.76644551754,-0.285680562258,0.375421911478,0.485512852669,19.7000007629,0.5907844540267558,-0.09554533854782607,0.12555916771839465,19.7000007629,0.06560984495527027,0.84094081477688,1.828355753595837
1648218743446176487,46992,9,0,0.00543765118346,0.0454158857465,0.0102785946801,0.0,19.2999992371,0.001818612435939799,0.015189259446989964,0.0034376570836454844,19.2999992371,0.0,0.01540546347671123,0.046880915489460155
1648218743446180918,46993,9,1,0.0334289707243,0.0146502861753,-0.0294226650149,0.0,19.2999992371,0.011180257767324413,0.0048997612626421405,-0.009840356192274247,19.2999992371,0.0,0.016553065816292893,0.04688091493649962
1648218743446183665,46994,9,2,2.0604403019,0.329631447792,0.310669779778,0.0809188112617,19.2999992371,0.6891104688628762,0.11024463136856186,0.103902936380602,19.2999992371,0.010934974494824324,0.9807651886860668,2.109641401076146
1648218743446188537,46995,9,3,1.75850343704,-0.234404578805,0.607644975185,0.404594063759,19.2999992371,0.588128239812709,-0.07839618020234114,0.2032257442090301,19.2999992371,0.05467487348094594,0.835425408998738,1.8752365878773327
1648218743641180352,46996,11,0,0.00528081972152,0.0454158857465,0.0103600434959,0.0,26.7999992371,0.001766160441979933,0.015189259446989964,0.003464897490267558,26.7999992371,0.0,0.015393253326103725,0.04688091548068655
1648218743641182866,46997,11,1,0.0333765335381,0.0146502861753,-0.0294821355492,0.0,26.7999992371,0.011162720246856188,0.0048997612626421405,-0.009860246003076922,26.7999992371,0.0,0.016529377092015133,0.04688091501431583
1648218743746395166,46998,12,0,0.00543765118346,0.0454158857465,0.0102785946801,0.0,24.1000003815,0.001818612435939799,0.015189259446989964,0.0034376570836454844,24.1000003815,0.0,0.01540546347671123,0.046880915489460155
1648218743746399983,46999,12,1,0.0335114225745,0.0146502861753,-0.0293287187815,0.0,24.1000003815,0.011207833636956521,0.0048997612626421405,-0.009808936047324414,24.1000003815,0.0,0.01659032037358762,0.046880913742686436
1648218743746494210,47000,12,2,1.98123848438,0.395557761192,0.60730099678,-0.0809188112617,24.1000003815,0.6626215666822742,0.1322935656160535,0.20311070126421404,24.1000003815,-0.010934974494824324,0.9463806151693684,2.1096412906268136
1648218743941188475,47001,14,0,0.00535855535418,0.0454158857465,0.0103200506419,0.0,16.7000007629,0.0017921589813311035,0.015189259446989964,0.0034515219538127084,16.7000007629,0.0,0.015399262001041003,0.04688091550806504
1648218743941191955,47002,14,1,0.0334517285228,0.0146502861753,-0.0293967872858,0.0,16.7000007629,0.011187869071170567,0.0048997612626421405,-0.009831701433377926,16.7000007629,0.0,0.016563347763607406,0.046880914335237424
1648218743941193829,47003,14,2,1.97640454769,0.0629962310195,0.391951829195,0.0,16.7000007629,0.6610048654481605,0.021068973585117053,0.13108756829264212,16.7000007629,0.0,0.9350394461947645,2.0158793856929247
1648218743941195528,47004,14,3,1.83383667469,-0.0,0.716936469078,0.161837622523,16.7000007629,0.6133233025719063,-0.0,0.23977808330367892,16.7000007629,0.021869948989594594,0.8673701326166472,1.9689984383264774
1648218744046394164,47005,15,0,0.00525635527447,0.0454158857465,0.0103724775836,0.0,31.2000007629,0.0017579783526655518,0.015189259446989964,0.0034690560480267556,31.2000007629,0.0,0.015391380000664505,0.046880915521487786
1648218744046399449,47006,15,1,0.0334289707243,0.0146502861753,-0.0294226650149,0.0,31.2000007629,0.011180257767324413,0.0048997612626421405,-0.009840356192274247,31.2000007629,0.0,0.016553065816292893,0.04688091493649962
1648218744046404723,47007,15,2,1.92074465752,0.0600661747158,0.0408407635987,0.0,31.2000007629,0.6423895175652173,0.020089021644080267,0.013659118260434783,31.2000007629,0.0,0.9086980540014167,1.9221175699493347
1648218744046408721,47008,15,3,1.48229551315,1.02112495899,0.674269974232,0.0,31.2000007629,0.4957510077424749,0.34151336421070233,0.22550835258595314,31.2000007629,0.0,0.7798522304192446,1.9221176260384722
1648218744241200081,47009,17,0,0.00547904008999,0.0454158857465,0.0102565921843,0.0,16.5,0.0018324548795953177,0.015189259446989964,0.0034302983893979935,16.5,0.0,0.015408743761886603,0.046880915538008675
1648218744241207212,47010,17,1,0.0334289707243,0.0146502861753,-0.0294226650149,0.0,16.5,0.011180257767324413,0.0048997612626421405,-0.009840356192274247,16.5,0.0,0.016553065816292893,0.04688091493649962
1648218744241344591,47011,17,2,1.94956588745,0.12306240201,0.246988520026,0.0,16.5,0.6520287248996655,0.04115799398327759,0.08260485619598662,16.5,0.0,0.9230259458202108,1.9689984340577344
1648218744241347830,47012,17,3,1.66757154465,1.04603040218,0.0445013493299,0.0,16.5,0.5577162356688963,0.34984294387290965,0.014883394424715717,16.5,0.0,0.8628353750484686,1.9689984329357453
1648218744241349436,47013,17,4,2.05211043358,0.263705164194,0.41217571497,0.0,16.5,0.6863245597257523,0.0881957070882943,0.1378514096889632,16.5,0.0,0.9746082727508011,2.109641311986829
1648218744346255143,47014,18,0,0.00546205835417,0.0454158857465,0.0102656455711,0.0,12.6000003815,0.0018267753692876253,0.015189259446989964,0.0034333262779598656,12.6000003815,0.0,0.015407394946831401,0.046880915505085274
1648218744346258749,47015,18,1,0.0334289707243,0.0146502861753,-0.0294226650149,0.0,12.6000003815,0.011180257767324413,0.0048997612626421405,-0.009840356192274247,12.6000003815,0.0,0.016553065816292893,0.04688091493649962
1648218744346264774,47016,18,2,1.94780218601,-0.0,0.519457697868,0.0,12.6000003815,0.6514388581973244,-0.0,0.17373167152775917,12.6000003815,0.0,0.9212736683194996,2.0158793752850532
1648218744541240095,47017,20,0,0.00539573840797,0.0454158857465,0.0103006586432,0.0,24.2000007629,0.0018045947852742474,0.015189259446989964,0.003445036335518394,24.2000007629,0.0,0.015402166316010612,0.04688091551569908
1648218744541251601,47018,20,1,0.0333765335381,0.0146502861753,-0.0294821355492,0.0,24.2000007629,0.011162720246856188,0.0048997612626421405,-0.009860246003076922,24.2000007629,0.0,0.016529377092015133,0.04688091501431583
1648218744541253747,47019,20,2,1.94758546352,-0.0629962310195,0.516441524029,0.0,24.2000007629,0.6513663757591973,-0.021068973585117053,0.1727229177354515,24.2000007629,0.0,0.9214120753426633,2.015879339290542
1648218744646347180,47020,21,0,0.00543765118346,0.0454158857465,0.0102785946801,0.0,21.7000007629,0.001818612435939799,0.015189259446989964,0.0034376570836454844,21.7000007629,0.0,0.01540546347671123,0.046880915489460155
1648218744646352001,47021,21,1,0.0334431305528,0.0146502861753,-0.0294065698981,0.0,21.7000007629,0.011184993495919733,0.0048997612626421405,-0.00983497321006689,21.7000007629,0.0,0.01655946313859305,0.04688091529995604
1648218744646355072,47022,21,2,1.41462397575,1.29215526581,0.454013943672,0.0,21.7000007629,0.47311838653846156,0.4321589517759197,0.15184412831839464,21.7000007629,0.0,0.7965195383426422,1.9689984471237783
1648218744646357872,47023,21,3,1.96170175076,-0.12306240201,0.1163476035,0.0,21.7000007629,0.6560875420602007,-0.04115799398327759,0.038912241973244145,21.7000007629,0.0,0.9287603060865159,1.968998445546241
1648218744646360592,47024,21,4,1.97276353836,0.193383783102,0.570777416229,0.0,21.7000007629,0.6597871365752508,0.06467685053578595,0.1908954569327759,21.7000007629,0.0,0.935318783183341,2.062760316839201
