%time,field.header.seq,field.header.frame_id,field.point_id,field.x,field.y,field.z,field.velocity,field.intensity,normalized_x,normalized_y,normalized_z,normalized_intensity,normalized_velocity,normalized_range,range
1648295918569418620,69325,0,0,0.0127004906535,0.0439508594573,0.0102391270921,0.0,23.2000007629,0.004247655736956521,0.014699284099431437,0.003424457221438127,23.2000007629,0.0,0.01587936118221376,0.046880915450566385
1648295918569423596,69326,0,1,0.0335404723883,0.0146502861753,-0.0292954929173,0.0,23.2000007629,0.011217549293745818,0.0048997612626421405,-0.009797823718160533,23.2000007629,0.0,0.016603447977637752,0.046880913795659694
1648295918569427606,69327,0,2,1.45955753326,-1.68478298187,0.725085914135,0.0,23.2000007629,0.48814633219397985,-0.5634725691872909,0.24250365021237458,23.2000007629,0.0,0.8911088707309546,2.344045961958036
1648295918569437326,69328,0,3,2.30035471916,0.366257160902,0.262248903513,0.0,23.2000007629,0.7693494044013377,0.12249403374648829,0.08770866338227425,23.2000007629,0.0,1.0948980776350243,2.344045782246466
1648295918569442367,69329,0,4,2.2416369915,-1.2306240797,0.594132006168,0.0,23.2000007629,0.7497113683946488,-0.4115799597658863,0.1987063565779264,23.2000007629,0.0,1.1373356299181179,2.6253313825023796
1648295918569512492,69330,0,5,1.94922828674,-0.12306240201,0.249639257789,-0.161837622523,23.2000007629,0.6519158149632106,-0.04115799398327759,0.08349139056488294,23.2000007629,-0.021869948989594594,0.9228664259073582,1.9689984834034964
1648295918569520883,69331,0,6,1.90015268326,-0.120132349432,0.263673901558,-0.0809188112617,23.2000007629,0.6355025696521739,-0.040178043288294316,0.08818525135719063,23.2000007629,-0.010934974494824324,0.8996339851470199,1.9221175633771852
1648295918674585678,69332,1,0,0.0127419224009,0.0439508594573,0.0101875215769,0.0,16.3999996185,0.004261512508662207,0.014699284099431437,0.0034071978518060196,16.3999996185,0.0,0.01588678478354783,0.04688091540686569
1648295918674590535,69333,1,1,0.0335269682109,0.0146502861753,-0.0293109472841,0.0,16.3999996185,0.01121303284645485,0.0048997612626421405,-0.00980299240270903,16.3999996185,0.0,0.016597345319726262,0.046880914166899254
1648295918674596599,69334,1,2,1.42502391338,-1.68478298187,0.790799975395,0.0,16.3999996185,0.47659662654849494,-0.5634725691872909,0.2644815971220736,16.3999996185,0.0,0.8785158081112356,2.3440459574821375
1648295918674643367,69335,1,3,2.24391841888,-1.2306240797,0.585456371307,0.0,16.3999996185,0.7504743875852842,-0.4115799597658863,0.19580480645719062,16.3999996185,0.0,1.138341634187164,2.6253313426747398
1648295918674648459,69336,1,4,1.6727411747,0.117202289402,0.839471757412,0.485512852669,16.3999996185,0.5594452089297659,0.03919809010100334,0.2807597850876254,16.3999996185,0.06560984495527027,0.7921454246894981,1.8752365839195324
1648295918674674140,69337,1,5,1.90923511982,-0.0600661747158,0.213891357183,-0.0809188112617,16.3999996185,0.6385401738528428,-0.020089021644080267,0.07153557096421405,16.3999996185,-0.010934974494824324,0.9032555983987333,1.9221176344793947
1648295918869640242,69338,3,0,0.0127217965201,0.0439508594573,0.010212643072,0.0,13.6000003815,0.004254781444849498,0.014699284099431437,0.0034155996896321067,13.6000003815,0.0,0.015883176109414296,0.046880915437416903
1648295918869643756,69339,3,1,0.0335404723883,0.0146502861753,-0.0292954929173,0.0,13.6000003815,0.011217549293745818,0.0048997612626421405,-0.009797823718160533,13.6000003815,0.0,0.016603447977637752,0.046880913795659694
1648295918869652556,69340,3,2,1.89738488197,-0.180198520422,0.248988702893,0.0,13.6000003815,0.6345768836020067,-0.06026706368628762,0.08327381367658862,13.6000003815,0.0,0.8994485873964319,1.922117652813929
1648295918869669731,69341,3,3,2.2438211441,-1.2306240797,0.585829496384,0.0,13.6000003815,0.7504418542140467,-0.4115799597658863,0.19592959745284277,13.6000003815,0.0,1.138298737763212,2.6253314364249776
1648295918974575401,69342,4,0,0.0127419224009,0.0439508594573,0.0101875215769,0.0,16.2999992371,0.004261512508662207,0.014699284099431437,0.0034071978518060196,16.2999992371,0.0,0.01588678478354783,0.04688091540686569
1648295918974581272,69343,4,1,0.0335269682109,0.0146502861753,-0.0293109472841,0.0,16.2999992371,0.01121303284645485,0.0048997612626421405,-0.00980299240270903,16.2999992371,0.0,0.016597345319726262,0.046880914166899254
1648295918974592361,69344,4,2,1.8660453558,-0.117202289402,0.143702879548,0.0,16.2999992371,0.624095436722408,-0.03919809010100334,0.04806116372842809,16.2999992371,0.0,0.8834742319632377,1.8752365621793443
1648295918974595018,69345,4,3,2.2418794632,-1.2306240797,0.593216657639,0.0,16.2999992371,0.7497924626086956,-0.4115799597658863,0.19840021994615384,16.2999992371,0.0,1.137442542395225,2.6253314373533447
1648295918974597689,69346,4,4,1.93455171585,0.061531201005,0.361494600773,0.0809188112617,16.2999992371,0.6470072628260869,0.020578996991638794,0.12090120427190634,16.2999992371,0.010934974494824324,0.9152378332524241,1.968998419598992
1648295919169467347,69347,6,0,0.0127217965201,0.0439508594573,0.010212643072,0.0,16.2999992371,0.004254781444849498,0.014699284099431437,0.0034155996896321067,16.2999992371,0.0,0.015883176109414296,0.046880915437416903
1648295919169489861,69348,6,1,0.0335404723883,0.0146502861753,-0.0292954929173,0.0,16.2999992371,0.011217549293745818,0.0048997612626421405,-0.009797823718160533,16.2999992371,0.0,0.016603447977637752,0.046880913795659694
1648295919169611743,69349,6,2,1.87431108952,-0.0586011447012,-0.00599830690771,0.0,16.2999992371,0.6268598961605351,-0.019599045050568562,-0.0020061227116086955,16.2999992371,0.0,0.886730388221633,1.8752365541828848
1648295919169615513,69350,6,3,1.92509078979,-0.061531201005,0.408893764019,0.0,16.2999992371,0.6438430735083611,-0.020578996991638794,0.13675376723043478,16.2999992371,0.0,0.9107641306763061,1.968998412362242
1648295919169718562,69351,6,4,2.24228096008,-1.2306240797,0.591696560383,0.0,16.2999992371,0.7499267425016722,-0.4115799597658863,0.19789182621505017,16.2999992371,0.0,1.1376195768002708,2.62533128367523
1648295919274532872,69352,7,0,0.0127302780747,0.0439508594573,0.0102020688355,0.0,15.5,0.004257618085183946,0.014699284099431437,0.003412063155685619,15.5,0.0,0.015884696300350495,0.04688091547121072
1648295919274536824,69353,7,1,0.033567905426,0.0146502861753,-0.0292640533298,0.0,15.5,0.011226724222742474,0.0048997612626421405,-0.009787308805953177,15.5,0.0,0.016615845870069743,0.04688091271505329
1648295919274539104,69354,7,2,1.90036559105,-0.0,0.288351416588,0.0,15.5,0.635573776270903,-0.0,0.09643860086555184,15.5,0.0,0.8988370542909941,1.9221175612056411
1648295919274541052,69355,7,3,2.23714780807,-1.2306240797,0.610817670822,0.0,15.5,0.7482099692541806,-0.4115799597658863,0.20428684642876252,15.5,0.0,1.1353564988423557,2.625331249133772
1648295919469475536,69356,9,0,0.0127004906535,0.0439508594573,0.0102391270921,0.0,15.3000001907,0.004247655736956521,0.014699284099431437,0.003424457221438127,15.3000001907,0.0,0.01587936118221376,0.046880915450566385
1648295919469478400,69357,9,1,0.033517640084,0.0146502861753,-0.0293216109276,0.0,15.3000001907,0.011209913071571907,0.0048997612626421405,-0.009806558838662207,15.3000001907,0.0,0.016593129981268932,0.04688091241868381
1648295919469485059,69358,9,2,1.9355237484,0.061531201005,0.356253176928,0.0,15.3000001907,0.6473323573244147,0.020578996991638794,0.1191482197083612,15.3000001907,0.0,0.9156974701262145,1.968998373637926
1648295919469487774,69359,9,3,2.24298715591,-1.2306240797,0.589014708996,0.0,15.3000001907,0.7501629283979933,-0.4115799597658863,0.19699488595183942,15.3000001907,0.0,1.13793097399016,2.6253314713628724
1648295919574624211,69360,10,0,0.0127419224009,0.0439508594573,0.0101875215769,0.0,14.8000001907,0.004261512508662207,0.014699284099431437,0.0034071978518060196,14.8000001907,0.0,0.01588678478354783,0.04688091540686569
1648295919574627501,69361,10,1,0.033517640084,0.0146502861753,-0.0293216109276,0.0,14.8000001907,0.011209913071571907,0.0048997612626421405,-0.009806558838662207,14.8000001907,0.0,0.016593129981268932,0.04688091241868381
1648295919574633942,69362,10,2,2.2403421402,-1.2306240797,0.598996162415,0.0,14.8000001907,0.7492783077591973,-0.4115799597658863,0.20033316468729095,14.8000001907,0.0,1.1367647198245825,2.62533139494451
1648295919769571776,69363,12,0,0.0127302780747,0.0439508594573,0.0102020688355,0.0,16.1000003815,0.004257618085183946,0.014699284099431437,0.003412063155685619,16.1000003815,0.0,0.015884696300350495,0.04688091547121072
1648295919769588135,69364,12,1,0.0335041433573,0.0146502861753,-0.0293370354921,0.0,16.1000003815,0.011205399116153847,0.0048997612626421405,-0.009811717555886288,16.1000003815,0.0,0.016587031052466603,0.046880914651800804
1648295919769601107,69365,12,2,1.95633065701,-0.061531201005,0.21433365345,0.0,16.1000003815,0.6542911896354515,-0.020578996991638794,0.07168349613712374,16.1000003815,0.0,0.9255362860451937,1.9689983857930207
1648295919769604109,69366,12,3,2.23945689201,-1.2306240797,0.602297067642,0.0,16.1000003815,0.7489822381304347,-0.4115799597658863,0.20143714636856186,16.1000003815,0.0,1.1363744318448208,2.6253313227855095
1648295919769609742,69367,12,4,0.143033698201,-0.590406537056,0.0489192828536,0.161837622523,16.1000003815,0.04783735725785953,-0.1974603802862876,0.01636096416508361,16.1000003815,0.021869948989594594,0.2087281180905857,0.6094518964236826
1648295919769732015,69368,12,5,1.81445300579,-0.240264698863,0.587000131607,-0.0809188112617,16.1000003815,0.6068404701638795,-0.08035608657625418,0.19632111424983278,16.1000003815,-0.010934974494824324,0.8619558069340256,1.9221175797142924
1648295919874584163,69369,13,0,0.0127100823447,0.0439508594573,0.0102272182703,0.0,15.8999996185,0.004250863660434782,0.014699284099431437,0.003420474337892977,15.8999996185,0.0,0.01588107794688408,0.04688091545386831
1648295919874590161,69370,13,1,0.0335269682109,0.0146502861753,-0.0293109472841,0.0,15.8999996185,0.01121303284645485,0.0048997612626421405,-0.00980299240270903,15.8999996185,0.0,0.016597345319726262,0.046880914166899254
1648295919874595457,69371,13,2,2.24121284485,-1.2306240797,0.595729887486,0.0,15.8999996185,0.7495695133277592,-0.4115799597658863,0.19924076504548494,15.8999996185,0.0,1.1371486155739345,2.6253313581912257
1648295919874608893,69372,13,3,0.322286874056,-0.514225006104,0.0559948906302,0.161837622523,15.8999996185,0.10778825219264213,-0.17198160739264212,0.01872738817063545,15.8999996185,0.021869948989594594,0.22981359381648017,0.60945189627085
1648295919874610778,69373,13,4,1.80574715137,-0.180198520422,0.633515357971,-0.0809188112617,15.8999996185,0.603928813167224,-0.06026706368628762,0.21187804614414715,15.8999996185,-0.010934974494824324,0.8562080014298574,1.9221175797094912
1648295920069617566,69374,15,0,0.012639480643,0.0439508594573,0.0103143453598,0.0,11.8000001907,0.004227251051170568,0.014699284099431437,0.0034496138327090296,11.8000001907,0.0,0.015868467346755427,0.046880915500460696
1648295920069623348,69375,15,1,0.033517640084,0.0146502861753,-0.0293216109276,0.0,11.8000001907,0.011209913071571907,0.0048997612626421405,-0.009806558838662207,11.8000001907,0.0,0.016593129981268932,0.04688091241868381
1648295920069627264,69376,15,2,2.23885679245,-1.2306240797,0.604524433613,0.0,11.8000001907,0.7487815359364548,-0.4115799597658863,0.20218208482040131,11.8000001907,0.0,1.1361098716231635,2.6253314368803213
1648295920069629491,69377,15,3,1.82273876667,-0.234404578805,0.373082220554,-0.0809188112617,11.8000001907,0.6096116276488294,-0.07839618020234114,0.12477666239264212,11.8000001907,-0.010934974494824324,0.8656781354519866,1.8752366414348685
