%time,field.header.seq,field.header.frame_id,field.point_id,field.x,field.y,field.z,field.velocity,field.intensity,normalized_x,normalized_y,normalized_z,normalized_intensity,normalized_velocity,normalized_range,range
1648294767160169706,23774,0,0,0.0126678450033,0.0439508594573,0.0102794887498,0.0,15.0,0.004236737459297658,0.014699284099431437,0.0034379561036120398,15.0,0.0,0.015873526439762208,0.046880915445629195
1648294767160196347,23775,0,1,0.033514522016,0.0146502861753,-0.0293251797557,0.0,15.0,0.011208870239464881,0.0048997612626421405,-0.009807752426655518,15.0,0.0,0.016591720963215706,0.0468809155060271
1648294767160205160,23776,0,2,1.91826653481,-0.120132349432,0.0189192835242,0.0,15.0,0.6415607139832776,-0.040178043288294316,0.006327519573311037,15.0,0.0,0.908193027178662,1.9221176392825405
1648294767160208714,23777,0,3,2.23853158951,-1.2306240797,0.605726838112,0.0,15.0,0.7486727724113712,-0.4115799597658863,0.20258422679331103,15.0,0.0,1.1359665063641384,2.6253312753214213
1648294767265081814,23778,1,0,0.0126678450033,0.0439508594573,0.0102794887498,0.0,15.6000003815,0.004236737459297658,0.014699284099431437,0.0034379561036120398,15.6000003815,0.0,0.015873526439762208,0.046880915445629195
1648294767265086584,23779,1,1,0.033514522016,0.0146502861753,-0.0293251797557,0.0,15.6000003815,0.011208870239464881,0.0048997612626421405,-0.009807752426655518,15.6000003815,0.0,0.016591720963215706,0.0468809155060271
1648294767265095455,23780,1,2,1.90819180012,-0.120132349432,0.197251677513,0.0,15.6000003815,0.6381912374983277,-0.040178043288294316,0.06597046070668895,15.6000003815,0.0,0.9034325577494814,1.9221175696889488
1648294767265100344,23781,1,3,2.24129009247,-1.2306240797,0.595439553261,0.0,15.6000003815,0.7495953486521738,-0.4115799597658863,0.1991436632979933,15.6000003815,0.0,1.137182675177052,2.625331439214735
1648294767460187344,23782,3,0,0.00634802924469,0.0454158857465,0.00974269397557,0.0,15.6999998093,0.002123086703909699,0.015189259446989964,0.003258426078785953,15.6999998093,0.0,0.015483171408100157,0.046880915512948214
1648294767460189231,23783,3,1,0.033514522016,0.0146502861753,-0.0293251797557,0.0,15.6999998093,0.011208870239464881,0.0048997612626421405,-0.009807752426655518,15.6999998093,0.0,0.016591720963215706,0.0468809155060271
1648294767460191774,23784,3,2,1.92065250874,-0.0600661747158,0.0449680872262,0.0,15.6999998093,0.6423586985752507,-0.020089021644080267,0.015039494055585283,15.6999998093,0.0,0.9086544800204289,1.9221176169899248
1648294767460302839,23785,3,3,2.23875617981,-1.2306240797,0.604896724224,0.0,15.6999998093,0.7487478862240803,-0.4115799597658863,0.20230659673043477,15.6999998093,0.0,1.136065516390206,2.6253313895872012
1648294767565198175,23786,4,0,0.0125969899818,0.0439508594573,0.0103661967441,0.0,15.6000003815,0.004213040127692308,0.014699284099431437,0.003466955432809364,15.6000003815,0.0,0.015860906886773187,0.04688091550486504
1648294767565202831,23787,4,1,0.033514522016,0.0146502861753,-0.0293251797557,0.0,15.6000003815,0.011208870239464881,0.0048997612626421405,-0.009807752426655518,15.6000003815,0.0,0.016591720963215706,0.0468809155060271
1648294767565205735,23788,4,2,1.9085855484,-0.120132349432,0.193405210972,0.0,15.6000003815,0.6383229258862876,-0.040178043288294316,0.06468401704749163,15.6000003815,0.0,0.9036186090306784,1.9221176219400584
1648294767565207882,23789,4,3,2.24007344246,-1.2306240797,0.599999606609,0.0,15.6000003815,0.7491884422943144,-0.4115799597658863,0.2006687647521739,15.6000003815,0.0,1.1366462543006295,2.625331251686732
1648294767565209843,23790,4,4,1.693531394,0.334026515484,0.440488606691,0.404594063759,15.6000003815,0.5663984595317726,0.11171455367357858,0.1473206042444816,15.6000003815,0.05467487348094594,0.8087611337239302,1.7814748126579125
1648294767760310661,23791,6,0,0.0126799661666,0.0439508594573,0.0102645335719,0.0,20.2999992371,0.004240791360066889,0.014699284099431437,0.00343295437187291,20.2999992371,0.0,0.015875691347309377,0.04688091550375397
1648294767760371588,23792,6,1,0.033514522016,0.0146502861753,-0.0293251797557,0.0,20.2999992371,0.011208870239464881,0.0048997612626421405,-0.009807752426655518,20.2999992371,0.0,0.016591720963215706,0.0468809155060271
1648294767760374150,23793,6,2,1.91493570805,-0.120132349432,0.114566795528,0.0,20.2999992371,0.6404467251003344,-0.040178043288294316,0.03831665402274247,20.2999992371,0.0,0.9066191540806772,1.9221176077395894
1648294767760378830,23794,6,3,2.23583745956,-1.2306240797,0.615597486496,0.0,20.2999992371,0.7477717256053511,-0.4115799597658863,0.20588544698862873,20.2999992371,0.0,1.1347789082065711,2.6253314146007125
1648294767760381818,23795,6,4,0.918875396252,-0.650472700596,-1.31960952282,-0.647350490093,20.2999992371,0.3073161860374582,-0.21754939819264213,-0.44134097753177254,20.2999992371,-0.08747979595851352,0.48601874146497687,1.7345939065888454
1648294767760445894,23796,6,5,1.6883893013,-0.0,0.397690355778,-0.647350490093,20.2999992371,0.5646786960869564,-0.0,0.13300680795250835,20.2999992371,-0.08747979595851352,0.798576270389329,1.7345939155384855
1648294767865247144,23797,7,0,0.012702328153,0.0439508594573,0.0102368472144,0.0,21.1000003815,0.004248270285284281,0.014699284099431437,0.003423694720535117,21.1000003815,0.0,0.01587968998026903,0.04688091539670276
1648294767865252250,23798,7,1,0.0335372425616,0.0146502861753,-0.0292991939932,0.0,21.1000003815,0.011216469084147156,0.0048997612626421405,-0.00979906153618729,21.1000003815,0.0,0.016601988370738802,0.04688091607791967
1648294767865254813,23799,7,2,1.91724324226,-0.0600661747158,0.122908584774,0.0,21.1000003815,0.6412184756722408,-0.020089021644080267,0.04110655009163879,21.1000003815,0.0,0.9070423561650692,1.9221176123088237
1648294767865259825,23800,7,3,2.19140338898,-1.31266570091,0.605826258659,0.0,21.1000003815,0.7329108324347825,-0.4390186290668896,0.20261747781237455,21.1000003815,0.0,1.1256349022965941,2.6253315050216672
1648294767865331490,23801,7,4,1.83136379719,-0.0,0.583646118641,0.242756426334,21.1000003815,0.6124962532408027,-0.0,0.19519937078294314,21.1000003815,0.03280492247756756,0.8662005082358489,1.9221176211311524
1648294767865337924,23802,7,5,1.65957009792,-0.334026515484,0.554892957211,0.485512852669,21.1000003815,0.5550401665284281,-0.11171455367357858,0.18558292883311034,21.1000003815,0.06560984495527027,0.7928551661068353,1.7814748993232967
1648294768060227783,23803,9,0,0.00631579104811,0.0454158857465,0.00976362358779,0.0,25.2000007629,0.0021123046983645482,0.015189259446989964,0.003265425949093645,25.2000007629,0.0,0.015480221730499849,0.04688091552291377
1648294768060234997,23804,9,1,0.0335372425616,0.0146502861753,-0.0292991939932,0.0,25.2000007629,0.011216469084147156,0.0048997612626421405,-0.00979906153618729,25.2000007629,0.0,0.016601988370738802,0.04688091607791967
1648294768060237654,23805,9,2,1.91433513165,-0.0600661747158,0.162016093731,0.0,25.2000007629,0.6402458634280935,-0.020089021644080267,0.05418598452541806,25.2000007629,0.0,0.9056672126472208,1.922117622894672
1648294768060242843,23806,9,3,2.23709177971,-1.2306240797,0.61102360487,0.0,25.2000007629,0.7481912306722408,-0.4115799597658863,0.20435572069230767,25.2000007629,0.0,1.1353318011007059,2.6253314270948453
1648294768165249296,23807,10,0,0.012702328153,0.0439508594573,0.0102368472144,0.0,14.8000001907,0.004248270285284281,0.014699284099431437,0.003423694720535117,14.8000001907,0.0,0.01587968998026903,0.04688091539670276
1648294768165252532,23808,10,1,0.0335877910256,0.0146502861753,-0.0292412284762,0.0,14.8000001907,0.011233374924949833,0.0048997612626421405,-0.009779675075652174,14.8000001907,0.0,0.016624833377807784,0.04688091332082697
1648294768165267415,23809,10,2,1.90562319756,-0.0600661747158,0.24398432672,0.0,14.8000001907,0.6373321730969899,-0.020089021644080267,0.08160010927090301,14.8000001907,0.0,0.9015476507205147,1.9221175999685345
1648294768165273882,23810,10,3,2.19291687012,-1.31266570091,0.6003241539,0.0,14.8000001907,0.7334170134180601,-0.4390186290668896,0.20077730899665552,14.8000001907,0.0,1.126294094723889,2.6253313564878225
1648294768360282870,23811,12,0,0.0126799661666,0.0439508594573,0.0102645335719,0.0,14.3000001907,0.004240791360066889,0.014699284099431437,0.00343295437187291,14.3000001907,0.0,0.015875691347309377,0.04688091550375397
1648294768360288125,23812,12,1,0.0335509069264,0.0146502861753,-0.0292835440487,0.0,14.3000001907,0.011221039105819395,0.0048997612626421405,-0.009793827441036788,14.3000001907,0.0,0.016608163584802046,0.0468809150151135
1648294768360290172,23813,12,2,2.19444513321,-1.31266570091,0.59471321106,0.0,14.3000001907,0.7339281381973243,-0.4390186290668896,0.1989007394849498,14.3000001907,0.0,1.126959795531035,2.6253313102204627
1648294768360292370,23814,12,3,1.97736132145,0.0629962310195,0.387096047401,0.0809188112617,14.3000001907,0.6613248566722408,0.021068973585117053,0.12946356100367892,14.3000001907,0.010934974494824324,0.9354918672832224,2.0158793789814484
1648294768465276748,23815,13,0,0.0126799661666,0.0439508594573,0.0102645335719,0.0,12.6000003815,0.004240791360066889,0.014699284099431437,0.00343295437187291,12.6000003815,0.0,0.015875691347309377,0.04688091550375397
1648294768465278826,23816,13,1,0.0335372425616,0.0146502861753,-0.0292991939932,0.0,12.6000003815,0.011216469084147156,0.0048997612626421405,-0.00979906153618729,12.6000003815,0.0,0.016601988370738802,0.04688091607791967
1648294768465284644,23817,13,2,1.91745781898,-0.120132349432,0.0588186681271,0.0,12.6000003815,0.6412902404615384,-0.040178043288294316,0.019671795360234112,12.6000003815,0.0,0.9078108945066211,1.9221175574526748
1648294768465291103,23818,13,3,2.23742890358,-1.2306240797,0.609787762165,0.0,12.6000003815,0.7483039811304347,-0.4115799597658863,0.20394239537290967,12.6000003815,0.0,1.1354804091802748,2.6253313769882216
1648294768465438808,23819,13,4,1.83809292316,-0.300330877304,0.475133359432,0.242756426334,12.6000003815,0.6147467970434782,-0.10044510946622072,0.158907478070903,12.6000003815,0.03280492247756756,0.875166537846433,1.9221175664558614
1648294768465441850,23820,13,5,1.85361123085,-0.117202289402,0.258653342724,-0.0809188112617,12.6000003815,0.6199368665050167,-0.03919809010100334,0.086506134690301,12.6000003815,-0.010934974494824324,0.8775989557717603,1.8752366579918975
1648294768660253797,23821,15,0,0.0126799661666,0.0439508594573,0.0102645335719,0.0,17.8999996185,0.004240791360066889,0.014699284099431437,0.00343295437187291,17.8999996185,0.0,0.015875691347309377,0.04688091550375397
1648294768660261325,23822,15,1,0.0335372425616,0.0146502861753,-0.0292991939932,0.0,17.8999996185,0.011216469084147156,0.0048997612626421405,-0.00979906153618729,17.8999996185,0.0,0.016601988370738802,0.04688091607791967
1648294768660264714,23823,15,2,2.19265627861,-1.31266570091,0.601275742054,0.0,17.8999996185,0.7333298590668895,-0.4390186290668896,0.20109556590434782,17.8999996185,0.0,1.126180589899284,2.6253314679209523
1648294768660268921,23824,15,3,1.88703942299,-0.180198520422,0.318035691977,0.0809188112617,17.8999996185,0.6311168638762541,-0.06026706368628762,0.10636645216622073,17.8999996185,0.010934974494824324,0.8945664372775024,1.922117580183897
1648294768765223566,23825,16,0,0.0126596167684,0.0439508594573,0.0102896206081,0.0,14.1999998093,0.004233985541270903,0.014699284099431437,0.0034413446849832774,14.1999998093,0.0,0.015872057842736712,0.046880915477587756
1648294768765230747,23826,16,1,0.033514522016,0.0146502861753,-0.0293251797557,0.0,14.1999998093,0.011208870239464881,0.0048997612626421405,-0.009807752426655518,14.1999998093,0.0,0.016591720963215706,0.0468809155060271
1648294768765233468,23827,16,2,2.23624944687,-1.2306240797,0.61409932375,0.0,14.1999998093,0.7479095140033445,-0.4115799597658863,0.2053843892140468,14.1999998093,0.0,1.134960503962286,2.625331444521636
1648294768765236112,23828,16,3,1.91609489918,-0.120132349432,0.0931898579001,0.0809188112617,14.1999998093,0.6408344144414715,-0.040178043288294316,0.031167176555217387,14.1999998093,0.010934974494824324,0.9071668912761109,1.9221175285759993
