%time,field.header.seq,field.header.frame_id,field.point_id,field.x,field.y,field.z,field.velocity,field.intensity,normalized_x,normalized_y,normalized_z,normalized_intensity,normalized_velocity,normalized_range,range
1648295779966863400,65222,0,0,0.0127121871337,0.0439508594573,0.0102246021852,0.0,15.1999998093,0.004251567603244147,0.014699284099431437,0.003419599393043478,15.1999998093,0.0,0.01588145482018912,0.04688091550517269
1648295779966876484,65223,0,1,0.0334790125489,0.0146502861753,-0.0293657127768,0.0,15.1999998093,0.011196994163511704,0.0048997612626421405,-0.009821308621003345,15.1999998093,0.0,0.016575675462143884,0.04688091566039538
1648295779966879741,65224,0,2,1.92200863361,-0.0,0.0204624831676,0.0,15.1999998093,0.6428122520434782,-0.0,0.006843639855384615,15.1999998093,0.0,0.9090738048994792,1.9221175564696253
1648295779966883152,65225,0,3,2.23921918869,-1.2306240797,0.603180289268,0.0,15.1999998093,0.7489027386923076,-0.4115799597658863,0.2017325382167224,15.1999998093,0.0,1.1362696367159366,2.625331343258676
1648295780071976716,65226,1,0,0.0127004906535,0.0439508594573,0.0102391270921,0.0,15.8999996185,0.004247655736956521,0.014699284099431437,0.003424457221438127,15.8999996185,0.0,0.01587936118221376,0.046880915450566385
1648295780071981905,65227,1,1,0.0335134975612,0.0146502861753,-0.0293263476342,0.0,15.8999996185,0.01120852761244147,0.0048997612626421405,-0.009808143021471571,15.8999996185,0.0,0.016591258026702325,0.04688091370019032
1648295780072010119,65228,1,2,0.551518857479,0.0703213736415,0.97817504406,0.0,15.8999996185,0.18445446738428092,0.023518854060702338,0.32714884416722406,15.8999996185,0.0,0.26191608880014633,1.1251420188436443
1648295780072015921,65229,1,3,2.24131608009,-1.2306240797,0.595341265202,0.0,15.8999996185,0.7496040401638795,-0.4115799597658863,0.19911079103745818,15.8999996185,0.0,1.137194133532578,2.62533133498608
1648295780072125293,65230,1,4,1.90840029716,-0.0600661747158,0.221215158701,0.0809188112617,15.8999996185,0.6382609689498328,-0.020089021644080267,0.07398500291003345,15.8999996185,0.010934974494824324,0.9028608407502094,1.9221175265795987
1648295780072132155,65231,1,5,1.91377580166,0.120132349432,-0.132538869977,-0.0809188112617,15.8999996185,0.640058796541806,0.040178043288294316,-0.0443273812632107,15.8999996185,-0.010934974494824324,0.9060710795647138,1.9221176219092857
1648295780266964132,65232,3,0,0.0127004906535,0.0439508594573,0.0102391270921,0.0,16.5,0.004247655736956521,0.014699284099431437,0.003424457221438127,16.5,0.0,0.01587936118221376,0.046880915450566385
1648295780266976553,65233,3,1,0.0335637778044,0.0146502861753,-0.0292687918991,0.0,16.5,0.01122534374729097,0.0048997612626421405,-0.00978889361173913,16.5,0.0,0.01661398040568778,0.04688091557077509
1648295780267012234,65234,3,2,1.91821849346,-0.120132349432,0.0232840590179,0.0,16.5,0.6415446466421404,-0.040178043288294316,0.007787310708327759,16.5,0.0,0.9081703267740329,1.9221176128000996
1648295780267031429,65235,3,3,2.2405872345,-1.2306240797,0.598078727722,0.0,16.5,0.7493602790969899,-0.4115799597658863,0.200026330341806,16.5,0.0,1.1368727805069156,2.6253313972707133
1648295780371939926,65236,4,0,0.0127004906535,0.0439508594573,0.0102391270921,0.0,15.5,0.004247655736956521,0.014699284099431437,0.003424457221438127,15.5,0.0,0.01587936118221376,0.046880915450566385
1648295780371998010,65237,4,1,0.0335637778044,0.0146502861753,-0.0292687918991,0.0,15.5,0.01122534374729097,0.0048997612626421405,-0.00978889361173913,15.5,0.0,0.01661398040568778,0.04688091557077509
1648295780372000877,65238,4,2,2.242010355,-1.2306240797,0.592721104622,0.0,15.5,0.7498362391304347,-0.4115799597658863,0.19823448315117057,15.5,0.0,1.1375002568384052,2.6253312867767797
1648295780372002545,65239,4,3,0.947149932384,-0.410208016634,-1.27552592754,-0.404594063759,15.5,0.3167725526367893,-0.13719331659999998,-0.42659730018060193,15.5,-0.05467487348094594,0.4685207640305418,1.6408321069361707
1648295780372004263,65240,4,4,1.57446622849,0.256380021572,0.384258896112,-0.404594063759,15.5,0.5265773339431438,0.08574582661270903,0.12851468097391303,15.5,-0.05467487348094594,0.7496130495307797,1.6408319595126117
1648295780372023631,65241,4,5,1.92071306705,-0.0600661747158,0.0422997027636,-0.0809188112617,15.5,0.6423789521906353,-0.020089021644080267,0.014147057780468226,15.5,-0.010934974494824324,0.908683115957204,1.9221175552331589
1648295780566856154,65242,6,0,0.0127323288471,0.0439508594573,0.0101995095611,0.0,18.0,0.004258303962240802,0.014699284099431437,0.003411207211070234,18.0,0.0,0.015885064000672747,0.046880915522129064
1648295780566862198,65243,6,1,0.0335041433573,0.0146502861753,-0.0293370354921,0.0,18.0,0.011205399116153847,0.0048997612626421405,-0.009811717555886288,18.0,0.0,0.016587031052466603,0.046880914651800804
1648295780566879466,65244,6,2,1.91352069378,-0.180198520422,0.0224315505475,0.0,18.0,0.639973476180602,-0.06026706368628762,0.0075021908185618725,18.0,0.0,0.9070635145317741,1.922117615221955
1648295780566884835,65245,6,3,2.24021100998,-1.2306240797,0.599486291409,0.0,18.0,0.7492344514983277,-0.4115799597658863,0.20049708742775918,18.0,0.0,1.1367069058930224,2.625331371153059
1648295780566886826,65246,6,4,1.78063714504,0.171408340335,0.377935022116,0.404594063759,18.0,0.5955308177391304,0.05732720412541805,0.12639967294849497,18.0,0.05467487348094594,0.8441565720213946,1.828355638921056
1648295780566996036,65247,6,5,1.74773693085,-0.0571361146867,0.533887505531,0.566431701183,18.0,0.5845274016220735,-0.0191090684570903,0.17855769415752507,18.0,0.07654482448418919,0.8268674156062769,1.828355759588539
1648295780671896471,65248,7,0,0.0127004906535,0.0439508594573,0.0102391270921,0.0,31.7000007629,0.004247655736956521,0.014699284099431437,0.003424457221438127,31.7000007629,0.0,0.01587936118221376,0.046880915450566385
1648295780671908074,65249,7,1,0.0335410349071,0.0146502861753,-0.0292948503047,0.0,31.7000007629,0.011217737427123745,0.0048997612626421405,-0.009797608797558527,31.7000007629,0.0,0.016603702189532134,0.046880914688519765
1648295780671912861,65250,7,2,1.91484057903,-0.120132349432,-0.116145007312,0.0,31.7000007629,0.6404149093745819,-0.040178043288294316,-0.03884448405083612,31.7000007629,0.0,0.9065742040566696,1.9221175529096814
1648295780671920474,65251,7,3,2.23959231377,-1.2306240797,0.601793169975,0.0,31.7000007629,0.7490275296889631,-0.4115799597658863,0.20126861872073576,31.7000007629,0.0,1.1364341352426852,2.6253312889735825
1648295780671924788,65252,7,4,1.8608289957,0.175803437829,-0.151397183537,0.0809188112617,31.7000007629,0.6223508346822741,0.05879713639765886,-0.05063450954414715,31.7000007629,0.010934974494824324,0.8820987621054751,1.8752366536448943
1648295780866982878,65253,9,0,0.0127207012847,0.0439508594573,0.0102140065283,0.0,17.6000003815,0.004254415145384615,0.014699284099431437,0.003416055695083612,17.6000003815,0.0,0.01588297986822227,0.04688091528084813
1648295780867149690,65254,9,1,0.0335410349071,0.0146502861753,-0.0292948503047,0.0,17.6000003815,0.011217737427123745,0.0048997612626421405,-0.009797608797558527,17.6000003815,0.0,0.016603702189532134,0.046880914688519765
1648295780867154118,65255,9,2,1.91347634792,-0.120132349432,0.136794060469,0.0,17.6000003815,0.6399586447892976,-0.040178043288294316,0.04575052189598662,17.6000003815,0.0,0.905929582938754,1.9221176161746476
1648295780867168322,65256,9,3,2.23873925209,-1.2306240797,0.604959011078,0.0,17.6000003815,0.7487422247792641,-0.4115799597658863,0.20232742845418059,17.6000003815,0.0,1.136058053805215,2.6253313066107364
1648295780867173227,65257,9,4,1.76599180698,-0.34281668067,0.326548665762,0.0809188112617,17.6000003815,0.5906327113645484,-0.1146544082508361,0.10921360058929765,17.6000003815,0.010934974494824324,0.8431130605079163,1.8283556464695332
1648295780867271241,65258,9,5,0.632968485355,0.34281668067,1.68068802357,0.0809188112617,17.6000003815,0.21169514560367894,0.1146544082508361,0.5621030179163878,17.6000003815,0.010934974494824324,0.3205858741050127,1.8283557128113315
1648295780971938088,65259,10,0,0.0127004906535,0.0439508594573,0.0102391270921,0.0,16.1000003815,0.004247655736956521,0.014699284099431437,0.003424457221438127,16.1000003815,0.0,0.01587936118221376,0.046880915450566385
1648295780971945970,65260,10,1,0.0335410349071,0.0146502861753,-0.0292948503047,0.0,16.1000003815,0.011217737427123745,0.0048997612626421405,-0.009797608797558527,16.1000003815,0.0,0.016603702189532134,0.046880914688519765
1648295780971985126,65261,10,2,0.314746588469,-0.0,1.08022177219,0.0,16.1000003815,0.10526641754816053,-0.0,0.36127818467892975,16.1000003815,0.0,0.1488691953590378,1.1251419875136552
1648295780971986978,65262,10,3,0.569437682629,0.0703213736415,0.967853367329,0.0,16.1000003815,0.1904473854946488,0.023518854060702338,0.323696778370903,16.1000003815,0.0,0.2703581879282063,1.1251419957671107
1648295780971990296,65263,10,4,1.96793305874,-0.061531201005,-0.020210115239,0.0,16.1000003815,0.6581715915518394,-0.020578996991638794,-0.006759235865886288,16.1000003815,0.0,0.9310226543800878,1.9689984919082246
1648295780971998099,65264,10,5,2.23935508728,-1.2306240797,0.602676033974,0.0,16.1000003815,0.7489481897257524,-0.4115799597658863,0.20156389096120403,16.1000003815,0.0,1.1363295495004309,2.6253314522914852
1648295781166975672,65265,12,0,0.0127004906535,0.0439508594573,0.0102391270921,0.0,15.3000001907,0.004247655736956521,0.014699284099431437,0.003424457221438127,15.3000001907,0.0,0.01587936118221376,0.046880915450566385
1648295781166978677,65266,12,1,0.03342808038,0.0146502861753,-0.0294236782938,0.0,15.3000001907,0.011179959993311037,0.0048997612626421405,-0.00984069508153846,15.3000001907,0.0,0.016552663572215777,0.046880916023974664
1648295781166981382,65267,12,2,1.8180257082,-0.234404578805,0.395410895348,0.0,15.3000001907,0.6080353539130434,-0.07839618020234114,0.13224444660468226,15.3000001907,0.0,0.8634581311717655,1.8752367206304297
1648295781166989583,65268,12,3,2.24057173729,-1.2306240797,0.598136603832,0.0,15.3000001907,0.749355096083612,-0.4115799597658863,0.20004568690033442,15.3000001907,0.0,1.136865947829315,2.62533135667174
1648295781272043850,65269,13,0,0.0127121871337,0.0439508594573,0.0102246021852,0.0,15.6999998093,0.004251567603244147,0.014699284099431437,0.003419599393043478,15.6999998093,0.0,0.01588145482018912,0.04688091550517269
1648295781272056101,65270,13,1,0.0334790125489,0.0146502861753,-0.0293657127768,0.0,15.6999998093,0.011196994163511704,0.0048997612626421405,-0.009821308621003345,15.6999998093,0.0,0.016575675462143884,0.04688091566039538
1648295781272067512,65271,13,2,1.89682543278,-0.0600661747158,0.304928123951,0.0,15.6999998093,0.6343897768494983,-0.020089021644080267,0.10198265015083612,15.6999998093,0.0,0.8973875120219407,1.9221175376553588
1648295781272069948,65272,13,3,2.24180412292,-1.2306240797,0.593500971794,0.0,15.6999998093,0.7497672651906354,-0.4115799597658863,0.19849530829230766,15.6999998093,0.0,1.1374093226203914,2.625331360914086
1648295781467049941,65273,15,0,0.0127207012847,0.0439508594573,0.0102140065283,0.0,15.3000001907,0.004254415145384615,0.014699284099431437,0.003416055695083612,15.3000001907,0.0,0.01588297986822227,0.04688091528084813
1648295781467055992,65274,15,1,0.0335276499391,0.0146502861753,-0.0293101686984,0.0,15.3000001907,0.011213260849197323,0.0048997612626421405,-0.009802732006153845,15.3000001907,0.0,0.01659765339363283,0.0468809149290592
1648295781467125754,65275,15,2,1.86069142818,-0.117202289402,0.201502323151,0.0,15.3000001907,0.6223048254782608,-0.03919809010100334,0.06739208132140467,15.3000001907,0.0,0.8809444261101966,1.8752365594182638
1648295781467132892,65276,15,3,2.23955559731,-1.2306240797,0.601930558681,0.0,15.3000001907,0.7490152499364547,-0.4115799597658863,0.20131456812073575,15.3000001907,0.0,1.1364179480084025,2.6253314641115404
1648295781467136796,65277,15,4,1.83732676506,0.117202289402,0.35637897253,-0.161837622523,15.3000001907,0.6144905568762542,0.03919809010100334,0.1191902918160535,15.3000001907,-0.021869948989594594,0.8699044655867358,1.875236515831657
1648295781467347480,65278,15,5,1.9651671648,-0.0,0.12277148664,-0.0809188112617,15.3000001907,0.6572465434113712,-0.0,0.041060697872909696,15.3000001907,-0.010934974494824324,0.9294869755151983,1.9689984315737445
1648295781571964710,65279,16,0,0.0127419224009,0.0439508594573,0.0101875215769,0.0,17.7999992371,0.004261512508662207,0.014699284099431437,0.0034071978518060196,17.7999992371,0.0,0.01588678478354783,0.04688091540686569
1648295781571970446,65280,16,1,0.0335410349071,0.0146502861753,-0.0292948503047,0.0,17.7999992371,0.011217737427123745,0.0048997612626421405,-0.009797608797558527,17.7999992371,0.0,0.016603702189532134,0.046880914688519765
1648295781571976362,65281,16,2,1.895657897,-0.0600661747158,0.312104672194,0.0,17.7999992371,0.6339992966555184,-0.020089021644080267,0.104382833509699,17.7999992371,0.0,0.89683542810819,1.9221176171631058
1648295781572003072,65282,16,3,2.24184250832,-1.2306240797,0.593356013298,0.0,17.7999992371,0.7497801031170568,-0.4115799597658863,0.19844682718996656,17.7999992371,0.0,1.1374262478689936,2.6253313726394385
