%time,field.header.seq,field.header.frame_id,field.point_id,field.x,field.y,field.z,field.velocity,field.intensity,normalized_x,normalized_y,normalized_z,normalized_intensity,normalized_velocity,normalized_range,range
1648126057096126065,53144,0,0,0.0126156788319,0.0439508594573,0.0103434445336,0.0,12.3999996185,0.004219290579230769,0.014699284099431437,0.0034593459978595315,12.3999996185,0.0,0.015864229543843877,0.04688091556534115
1648126057096136659,53145,0,1,0.0328039452434,0.0146502861753,-0.0301179438829,0.0,12.3999996185,0.010971219144949832,0.0048997612626421405,-0.010072890930735786,12.3999996185,0.0,0.016270923744026212,0.04688091565108008
1648126057096143941,53146,0,2,1.18101465702,0.0380907431245,0.299132138491,0.0,12.3999996185,0.39498817960535115,0.01273937897140468,0.10004419347525083,12.3999996185,0.0,0.5587428888428696,1.2189038358648494
1648126057096185942,53147,0,3,1.3374915123,0.169943317771,0.174935862422,0.0,12.3999996185,0.44732157602006684,0.05683723002374581,0.0585069773986622,12.3999996185,0.0,0.63515640236317,1.359546554072675
1648126057096189687,53148,0,4,1.26402699947,-0.297400802374,-0.402685046196,0.0,12.3999996185,0.42275150483946483,-0.09946515129565217,-0.1346772729752508,12.3999996185,0.0,0.6060783662286018,1.3595465196423788
1648126057096194837,53149,0,5,1.35985648632,0.281285494566,0.567658960819,0.0,12.3999996185,0.45480150044147155,0.09407541624280935,0.18985249525719064,12.3999996185,0.0,0.6500299943455575,1.500189284269796
1648126057096267922,53150,0,6,1.40306460857,-0.234404578805,0.476478785276,0.0,12.3999996185,0.4692523774481605,-0.07839618020234114,0.1593574532695652,12.3999996185,0.0,0.6682376437704028,1.500189266460912
1648126057096278957,53151,0,7,2.38749551773,-0.984499275684,0.47221916914,0.0,12.3999996185,0.7984934841906355,-0.32926397180066885,0.15793283248829432,12.3999996185,0.0,1.176264618066765,2.6253313342712445
1648126057291315822,53152,2,0,0.0126256523654,0.0439508594573,0.010331267491,0.0,12.1999998093,0.004222626209163879,0.014699284099431437,0.0034552734083612034,12.1999998093,0.0,0.015866004451040385,0.04688091544176436
1648126057291336366,53153,2,1,0.0328039452434,0.0146502861753,-0.0301179438829,0.0,12.1999998093,0.010971219144949832,0.0048997612626421405,-0.010072890930735786,12.1999998093,0.0,0.016270923744026212,0.04688091565108008
1648126057291346031,53154,2,2,1.17669308186,-0.0,0.317993581295,0.0,12.1999998093,0.3935428367424749,-0.0,0.10635236832608695,12.1999998093,0.0,0.5565536170959888,1.218903821735745
1648126057291457405,53155,2,3,1.46973073483,0.234404578805,0.188450977206,0.0,12.1999998093,0.49154874074581933,0.07839618020234114,0.06302708267759197,12.1999998093,0.0,0.6995614984602279,1.500189224824181
1648126057291459155,53156,2,4,1.85040950775,-1.39177727699,0.365365207195,0.0,12.1999998093,0.6188660561036788,-0.4654773501638796,0.12219572146989965,12.1999998093,0.0,0.9912918613154404,2.3440458762033525
1648126057291460154,53157,2,5,2.42063355446,-0.902457654476,0.467406064272,0.0,12.1999998093,0.809576439618729,-0.30182530250033446,0.15632309841872907,12.1999998093,0.0,1.1840297869567697,2.6253314175582134
1648126057291461046,53158,2,6,1.34973430634,-0.351606875658,0.180633217096,-0.161837622523,12.1999998093,0.45141615596655515,-0.11759427279531771,0.060412447189297655,12.1999998093,-0.021869948989594594,0.6491390488404638,1.4064275494455987
1648126057396286758,53159,3,0,0.0126256523654,0.0439508594573,0.010331267491,0.0,25.7000007629,0.004222626209163879,0.014699284099431437,0.0034552734083612034,25.7000007629,0.0,0.015866004451040385,0.04688091544176436
1648126057396295271,53160,3,1,0.0327914953232,0.0146502861753,-0.0301314946264,0.0,25.7000007629,0.010967055292040133,0.0048997612626421405,-0.010077422951973244,25.7000007629,0.0,0.01626530860414949,0.046880913162719064
1648126057396298501,53161,3,2,1.17648696899,0.0380907431245,0.31647118926,0.0,25.7000007629,0.39347390267224075,0.01273937897140468,0.10584320711036789,25.7000007629,0.0,0.5566019367059596,1.2189038134925547
1648126057396302087,53162,3,3,1.33527481556,-0.421928226948,0.538131654263,0.0809188112617,25.7000007629,0.4465802058729097,-0.14111311938060198,0.17997714189397993,25.7000007629,0.010934974494824324,0.6471326548832974,1.5001893010830694
1648126057396449973,53163,3,4,1.12439632416,0.234404578805,0.965067505836,0.0809188112617,25.7000007629,0.3760522823277591,0.07839618020234114,0.32276505211906353,25.7000007629,0.010934974494824324,0.5375654370940819,1.5001892851136442
1648126057396452917,53164,3,5,1.09948170185,0.193383783102,1.07105982304,0.161837622523,25.7000007629,0.3677196327257525,0.06467685053578595,0.3582139876387959,25.7000007629,0.021869948989594594,0.5240406010789174,1.5470702779125096
1648126057396454931,53165,3,6,1.46048772335,-0.338421612978,0.381932973862,0.161837622523,25.7000007629,0.4884574325585284,-0.11318448594581938,0.12773678055585283,25.7000007629,0.021869948989594594,0.6999943247642498,1.547070255259847
1648126057590958450,53166,5,0,0.0126256523654,0.0439508594573,0.010331267491,0.0,27.3999996185,0.004222626209163879,0.014699284099431437,0.0034552734083612034,27.3999996185,0.0,0.015866004451040385,0.04688091544176436
1648126057590963527,53167,5,1,0.0327914953232,0.0146502861753,-0.0301314946264,0.0,27.3999996185,0.010967055292040133,0.0048997612626421405,-0.010077422951973244,27.3999996185,0.0,0.01626530860414949,0.046880913162719064
1648126057590966501,53168,5,2,1.1754925251,0.0380907431245,0.320145070553,0.0,27.3999996185,0.3931413127424749,0.01273937897140468,0.10707192995083611,27.3999996185,0.0,0.5561317068342084,1.2189037892619483
1648126057590988216,53169,5,3,2.3778629303,-0.984499275684,0.518550276756,0.0,27.3999996185,0.7952718830434782,-0.32926397180066885,0.17342818620602005,27.3999996185,0.0,1.1718914194775005,2.625331470241605
1648126057696273080,53170,6,0,0.0126256523654,0.0439508594573,0.010331267491,0.0,12.8999996185,0.004222626209163879,0.014699284099431437,0.0034552734083612034,12.8999996185,0.0,0.015866004451040385,0.04688091544176436
1648126057696280372,53171,6,1,0.0327914953232,0.0146502861753,-0.0301314946264,0.0,12.8999996185,0.010967055292040133,0.0048997612626421405,-0.010077422951973244,12.8999996185,0.0,0.01626530860414949,0.046880913162719064
1648126057696300932,53172,6,2,1.18030190468,0.0380907431245,0.301932245493,0.0,12.8999996185,0.39474980089632106,0.01273937897140468,0.10098068411137123,12.8999996185,0.0,0.55840585812825,1.2189038402480556
1648126057696303228,53173,6,3,1.85005271435,-1.31852579117,0.577361226082,0.0,12.8999996185,0.6187467272073578,-0.44097852547491634,0.19309740002742473,12.8999996185,0.0,0.9798760558303607,2.344045923875466
1648126057696462072,53174,6,4,2.38775086403,-0.984499275684,0.470927208662,0.0,12.8999996185,0.7985788842909699,-0.32926397180066885,0.15750073868294312,12.8999996185,0.0,1.1763805642719418,2.625331493041691
1648126057696597178,53175,6,5,1.35499894619,-0.338421612978,0.665488660336,0.242756426334,12.8999996185,0.45317690508026753,-0.11318448594581938,0.2225714583063545,12.8999996185,0.03280492247756756,0.6508066859329881,1.547070292308157
1648126057891126623,53176,8,0,0.0126256523654,0.0439508594573,0.010331267491,0.0,34.7999992371,0.004222626209163879,0.014699284099431437,0.0034552734083612034,34.7999992371,0.0,0.015866004451040385,0.04688091544176436
1648126057891142728,53177,8,1,0.0328039452434,0.0146502861753,-0.0301179438829,0.0,34.7999992371,0.010971219144949832,0.0048997612626421405,-0.010072890930735786,34.7999992371,0.0,0.016270923744026212,0.04688091565108008
1648126057891148000,53178,8,2,1.17615115643,0.0380907431245,0.317716866732,0.0,34.7999992371,0.3933615907792642,0.01273937897140468,0.10625982164949832,34.7999992371,0.0,0.5564431453233687,1.2189037923024943
1648126057891302205,53179,8,3,2.41476631165,-0.902457654476,0.496828705072,0.0,34.7999992371,0.8076141510535118,-0.30182530250033446,0.16616344651237458,34.7999992371,0.0,1.1813465821651101,2.6253313924504065
1648126057996238313,53180,9,0,0.0126923779026,0.0439508594573,0.0102491816506,0.0,13.1999998093,0.004244942442341137,0.014699284099431437,0.0034278199500334446,13.1999998093,0.0,0.015877909991978672,0.04688091539597687
1648126057996247574,53181,9,1,0.0327914953232,0.0146502861753,-0.0301314946264,0.0,13.1999998093,0.010967055292040133,0.0048997612626421405,-0.010077422951973244,13.1999998093,0.0,0.01626530860414949,0.046880913162719064
1648126057996251310,53182,9,2,1.15937578678,-0.0,0.37626349926,0.0,13.1999998093,0.3877510992575251,-0.0,0.12584063520401337,13.1999998093,0.0,0.5483628633950681,1.2189037844912634
1648126057996253881,53183,9,3,1.35378420353,-0.0,0.125040918589,0.0,13.1999998093,0.45277063663210704,-0.0,0.041819705213712366,13.1999998093,0.0,0.6403143749694262,1.3595465792126937
1648126057996255705,53184,9,4,1.89777374268,-1.31852579117,0.3930593431,0.0,13.1999998093,0.6347069373511706,-0.44097852547491634,0.13145797428093645,13.1999998093,0.0,1.0000839227652032,2.3440458800083954
1648126057996418088,53185,9,5,2.41449522972,-0.902457654476,0.49814465642,0.0,13.1999998093,0.8075234882006689,-0.30182530250033446,0.16660356402006687,13.1999998093,0.0,1.1812226213635473,2.62533143263527
1648126058191157549,53186,11,0,0.0126051837578,0.0439508594573,0.0103562315926,0.0,13.1999998093,0.004215780521003344,0.014699284099431437,0.003463622606220736,13.1999998093,0.0,0.015862363122761385,0.04688091549237075
1648126058191163808,53187,11,1,0.0327914953232,0.0146502861753,-0.0301314946264,0.0,13.1999998093,0.010967055292040133,0.0048997612626421405,-0.010077422951973244,13.1999998093,0.0,0.01626530860414949,0.046880913162719064
1648126058191216399,53188,11,2,1.14103865623,0.0380907431245,0.426973462105,0.0,13.1999998093,0.3816182796755852,0.01273937897140468,0.14280048899832773,13.1999998093,0.0,0.5398400823778126,1.2189037931948814
1648126058191277371,53189,11,3,1.35801053047,-0.0,0.0646069422364,0.0,13.1999998093,0.45418412390301005,-0.0,0.02160767298876254,13.1999998093,0.0,0.6423133478381791,1.3595464897724345
1648126058191283891,53190,11,4,1.8974211216,-1.24527442455,0.586204886436,0.0,13.1999998093,0.6345890038795986,-0.4164797406521739,0.19605514596521736,13.1999998093,0.0,0.9893744397666157,2.3440459624362275
1648126058191408628,53191,11,5,2.40267133713,-0.984499275684,0.387682050467,0.0,13.1999998093,0.8035690090735785,-0.32926397180066885,0.12965954865117055,13.1999998093,0.0,1.1831572455987993,2.625331550555602
1648126058296250471,53192,12,0,0.0126051837578,0.0439508594573,0.0103562315926,0.0,13.0,0.004215780521003344,0.014699284099431437,0.003463622606220736,13.0,0.0,0.015862363122761385,0.04688091549237075
1648126058296262104,53193,12,1,0.0327914953232,0.0146502861753,-0.0301314946264,0.0,13.0,0.010967055292040133,0.0048997612626421405,-0.010077422951973244,13.0,0.0,0.01626530860414949,0.046880913162719064
1648126058296269315,53194,12,2,1.17502045631,0.0380907431245,0.321873396635,0.0,13.0,0.39298343020401333,0.01273937897140468,0.10764996542976588,13.0,0.0,0.5559084858197456,1.2189037947763102
1648126058296284821,53195,12,3,2.40244698524,-0.984499275684,0.389068931341,0.0,13.0,0.8034939749966555,-0.32926397180066885,0.1301233884083612,13.0,0.0,1.1830553236589587,2.6253314027082206
1648126058491149435,53196,14,0,0.0126256523654,0.0439508594573,0.010331267491,0.0,13.1000003815,0.004222626209163879,0.014699284099431437,0.0034552734083612034,13.1000003815,0.0,0.015866004451040385,0.04688091544176436
1648126058491165447,53197,14,1,0.0328915454447,0.0146502861753,-0.030022252351,0.0,13.1000003815,0.011000516871137123,0.0048997612626421405,-0.010040887073913042,13.1000003815,0.0,0.01631043847648595,0.046880915978530925
1648126058491237881,53198,14,2,1.1627972126,-0.0,0.365553110838,0.0,13.1000003815,0.38889538882943137,-0.0,0.12225856549765886,13.1000003815,0.0,0.5499811332269401,1.2189037839278656
1648126058491241227,53199,14,3,2.39807319641,-0.984499275684,0.415176093578,0.0,13.1000003815,0.8020311693678929,-0.32926397180066885,0.13885488079531771,13.1000003815,0.0,1.1810684808262435,2.6253314205717118
1648126058491244826,53200,14,4,1.12834274769,0.193383783102,1.04061114788,-0.0809188112617,13.1000003815,0.3773721564180602,0.06467685053578595,0.34803048424080263,13.1000003815,-0.010934974494824324,0.5375896054375142,1.547070200386392
1648126058596158734,53201,15,0,0.0126256523654,0.0439508594573,0.010331267491,0.0,11.8999996185,0.004222626209163879,0.014699284099431437,0.0034552734083612034,11.8999996185,0.0,0.015866004451040385,0.04688091544176436
1648126058596165462,53202,15,1,0.0328039452434,0.0146502861753,-0.0301179438829,0.0,11.8999996185,0.010971219144949832,0.0048997612626421405,-0.010072890930735786,11.8999996185,0.0,0.016270923744026212,0.04688091565108008
1648126058596175346,53203,15,2,1.16937768459,-0.0,0.343922048807,0.0,11.8999996185,0.39109621558193974,-0.0,0.11502409659096989,11.8999996185,0.0,0.553093572268771,1.21890382921405
1648126058596194655,53204,15,3,1.86779594421,-1.24527442455,0.674671113491,0.0,11.8999996185,0.6246809177959866,-0.4164797406521739,0.2256425128732441,11.8999996185,0.0,0.9766820733947021,2.344045902499532
1648126058596197488,53205,15,4,2.39655351639,-0.984499275684,0.423860132694,0.0,11.8999996185,0.8015229151806019,-0.32926397180066885,0.14175924170367893,11.8999996185,0.0,1.1803782149146826,2.625331406285875
1648126058791261730,53206,17,0,0.0126256523654,0.0439508594573,0.010331267491,0.0,12.6999998093,0.004222626209163879,0.014699284099431437,0.0034552734083612034,12.6999998093,0.0,0.015866004451040385,0.04688091544176436
1648126058791267315,53207,17,1,0.0327914953232,0.0146502861753,-0.0301314946264,0.0,12.6999998093,0.010967055292040133,0.0048997612626421405,-0.010077422951973244,12.6999998093,0.0,0.01626530860414949,0.046880913162719064
1648126058791270036,53208,17,2,1.16636443138,-0.0,0.354006201029,0.0,12.6999998093,0.3900884385886287,-0.0,0.1183967227521739,12.6999998093,0.0,0.5516683603769829,1.2189037604156348
1648126058791364924,53209,17,3,1.34857642651,-0.0849716588855,0.149961054325,0.0,12.6999998093,0.45102890518729094,-0.028418615011872907,0.05015419877090301,12.6999998093,0.0,0.6384839577531182,1.3595465710178893
1648126058791383848,53210,17,4,1.87255942822,-1.24527442455,0.661335170269,0.0,12.6999998093,0.6262740562608695,-0.4164797406521739,0.22118233119364547,12.6999998093,0.0,0.9787204715671312,2.3440459492272487
1648126058791390030,53211,17,5,2.38773441315,-0.984499275684,0.471010237932,0.0,12.6999998093,0.7985733823244147,-0.32926397180066885,0.1575285076695652,12.6999998093,0.0,1.176373094320022,2.62533142589652
1648126058896135327,53212,18,0,0.0126051837578,0.0439508594573,0.0103562315926,0.0,13.0,0.004215780521003344,0.014699284099431437,0.003463622606220736,13.0,0.0,0.015862363122761385,0.04688091549237075
1648126058896143215,53213,18,1,0.0328283309937,0.0146502861753,-0.0300913602114,0.0,13.0,0.010979374914280936,0.0048997612626421405,-0.01006400007070234,13.0,0.0,0.01628192271961673,0.046880914669216275
1648126058896149751,53214,18,2,1.17310404778,-0.0,0.330988645554,0.0,13.0,0.39234249089632106,-0.0,0.11069854366354513,13.0,0.0,0.5548560717208197,1.2189038478910026
1648126058896155138,53215,18,3,1.82418835163,-1.39177727699,0.479420661926,0.0,13.0,0.6100964386722407,-0.4654773501638796,0.16034135850367892,13.0,0.0,0.9803593690462132,2.3440459257552613
1648126058896158329,53216,18,4,2.39608097076,-0.984499275684,0.426523417234,0.0,13.0,0.8013648731638795,-0.32926397180066885,0.14264997231906354,13.0,0.0,1.180163583156112,2.6253314205466465
1648126059091167073,53217,20,0,0.0126355709508,0.0439508594573,0.0103191342205,0.0,12.6000003815,0.00422594346180602,0.014699284099431437,0.003451215458361204,12.6000003815,0.0,0.015867770773506908,0.04688091542780209
1648126059091275062,53218,20,1,0.0328158736229,0.0146502861753,-0.0301049444824,0.0,12.6000003815,0.010975208569531771,0.0048997612626421405,-0.010068543305150501,12.6000003815,0.0,0.016276303840870497,0.04688091433558774
1648126059091278680,53219,20,2,1.1507089138,0.0380907431245,0.400180846453,0.0,12.6000003815,0.38485247953177254,0.01273937897140468,0.13383974797759196,12.6000003815,0.0,0.544412668644002,1.218903859571538
1648126059091281236,53220,20,3,1.35922002792,-0.0,-0.0297981351614,0.0,12.6000003815,0.4545886381003344,-0.0,-0.009965931492107023,12.6000003815,0.0,0.6428854173022076,1.3595466204429854
1648126059091283017,53221,20,4,1.84094822407,-1.39177727699,0.41038620472,0.0,12.6000003815,0.6157017471806019,-0.4654773501638796,0.13725291127759195,12.6000003815,0.0,0.9873431249966136,2.344045901742684
1648126059091284210,53222,20,5,2.3900873661,-0.984499275684,0.458921134472,0.0,12.6000003815,0.7993603231103679,-0.32926397180066885,0.15348532925484948,12.6000003815,0.0,1.1774415550048227,2.625331416998285
1648126059196177056,53223,21,0,0.0126256523654,0.0439508594573,0.010331267491,0.0,12.0,0.004222626209163879,0.014699284099431437,0.0034552734083612034,12.0,0.0,0.015866004451040385,0.04688091544176436
1648126059196182868,53224,21,1,0.0327914953232,0.0146502861753,-0.0301314946264,0.0,12.0,0.010967055292040133,0.0048997612626421405,-0.010077422951973244,12.0,0.0,0.01626530860414949,0.046880913162719064
1648126059196191289,53225,21,2,1.17333948612,-0.0,0.330152660608,0.0,12.0,0.39242123281605346,-0.0,0.1104189500361204,12.0,0.0,0.5549674296116327,1.2189037406599779
1648126059196194021,53226,21,3,1.8983104229,-1.31852579117,0.390459537506,0.0,12.0,0.6348864290635451,-0.44097852547491634,0.13058847408227423,12.0,0.0,1.0003117591771833,2.3440459411241603
1648126059196197594,53227,21,4,1.10146844387,1.46502864361,-1.4611672163,0.0,12.0,0.3683840949397993,0.489976134986622,-0.48868468772575246,12.0,0.0,0.7151854973820838,2.344045923916391
1648126059196204025,53228,21,5,2.38991641998,-0.984499275684,0.459810853004,0.0,12.0,0.7993031504949832,-0.32926397180066885,0.15378289398127087,12.0,0.0,1.1773639267059117,2.625331472186437
1648126059391140793,53229,23,0,0.0126256523654,0.0439508594573,0.010331267491,0.0,12.3000001907,0.004222626209163879,0.014699284099431437,0.0034552734083612034,12.3000001907,0.0,0.015866004451040385,0.04688091544176436
1648126059391325893,53230,23,1,0.0328039452434,0.0146502861753,-0.0301179438829,0.0,12.3000001907,0.010971219144949832,0.0048997612626421405,-0.010072890930735786,12.3000001907,0.0,0.016270923744026212,0.04688091565108008
1648126059391331887,53231,23,2,1.17481815815,-0.0,0.324851840734,0.0,12.3000001907,0.39291577195652166,-0.0,0.1086461005799331,12.3000001907,0.0,0.5556668135712072,1.2189037792817061
1648126059391450794,53232,23,3,1.32480347157,0.127457484603,0.277519673109,0.0,12.3000001907,0.4430780841371237,0.04262792127190635,0.09281594418361204,12.3000001907,0.0,0.6280553454570799,1.3595465485329195
1648126059391454285,53233,23,4,1.84582531452,-1.39177727699,0.387860625982,0.0,12.3000001907,0.6173328811103679,-0.4654773501638796,0.1297192729036789,12.3000001907,0.0,0.9893780550000298,2.3440458497341097
1648126059391456010,53234,23,5,2.39482569695,-0.984499275684,0.433515578508,0.0,12.3000001907,0.8009450491471571,-0.32926397180066885,0.1449884877953177,12.3000001907,0.0,1.1795934497243683,2.625331350401983
1648126059496235226,53235,24,0,0.0126256523654,0.0439508594573,0.010331267491,0.0,12.0,0.004222626209163879,0.014699284099431437,0.0034552734083612034,12.0,0.0,0.015866004451040385,0.04688091544176436
1648126059496237765,53236,24,1,0.0327914953232,0.0146502861753,-0.0301314946264,0.0,12.0,0.010967055292040133,0.0048997612626421405,-0.010077422951973244,12.0,0.0,0.01626530860414949,0.046880913162719064
1648126059496239838,53237,24,2,1.17217600346,-0.0,0.334260374308,0.0,12.0,0.39203210818060197,-0.0,0.11179276732709029,12.0,0.0,0.5544171242747237,1.2189038440008229
1648126059496246577,53238,24,3,1.35354483128,0.127457484603,-0.00615802174434,0.0,12.0,0.45269057902341137,0.04262792127190635,-0.0020595390449297656,12.0,0.0,0.641618781166096,1.3595465942357148
1648126059496345172,53239,24,4,2.39634156227,-0.984499275684,0.425056904554,0.0,12.0,0.8014520275150501,-0.32926397180066885,0.14215949985083612,12.0,0.0,1.1802819442582018,2.6253314226958038
1648126059691309122,53240,26,0,0.0126355709508,0.0439508594573,0.0103191342205,0.0,12.6999998093,0.00422594346180602,0.014699284099431437,0.003451215458361204,12.6999998093,0.0,0.015867770773506908,0.04688091542780209
1648126059691327508,53241,26,1,0.0327914953232,0.0146502861753,-0.0301314946264,0.0,12.6999998093,0.010967055292040133,0.0048997612626421405,-0.010077422951973244,12.6999998093,0.0,0.01626530860414949,0.046880913162719064
1648126059691337395,53242,26,2,1.18168604374,0.0380907431245,0.296468645334,0.0,12.6999998093,0.3952127236588629,0.01273937897140468,0.09915339308829431,12.6999998093,0.0,0.5590603595858774,1.218903797823211
1648126059691371267,53243,26,3,2.42034006119,-0.902457654476,0.468922942877,0.0,12.6999998093,0.8094782813344481,-0.30182530250033446,0.1568304156779264,12.6999998093,0.0,1.183895556683005,2.6253313231437976
