%time,field.header.seq,field.header.frame_id,field.point_id,field.x,field.y,field.z,field.velocity,field.intensity,normalized_x,normalized_y,normalized_z,normalized_intensity,normalized_velocity,normalized_range,range
1648294842160135942,26249,0,0,0.00634802924469,0.0454158857465,0.00974269397557,0.0,15.0,0.002123086703909699,0.015189259446989964,0.003258426078785953,15.0,0.0,0.015483171408100157,0.046880915512948214
1648294842160141735,26250,0,1,0.0335994325578,0.0146502861753,-0.0292278509587,0.0,15.0,0.011237268413979932,0.0048997612626421405,-0.009775200989531772,15.0,0.0,0.01663009510635915,0.0468809132258355
1648294842160147365,26251,0,2,0.33989238739,-0.612381994724,-0.550340473652,0.0,15.0,0.1136763837424749,-0.20481003168026754,-0.18406035908093643,15.0,0.0,0.26036856476618875,0.890737435728019
1648294842160233851,26252,0,3,1.85785806179,-0.117202289402,0.226139858365,0.0,15.0,0.6213572113010033,-0.03919809010100334,0.07563205965384615,15.0,0.0,0.8796056265958545,1.8752365690601567
1648294842160246014,26253,0,4,2.23848581314,-1.2306240797,0.605896115303,0.0,15.0,0.7486574625886288,-0.4115799597658863,0.20264084123846154,15.0,0.0,1.1359463261352523,2.625331305512846
1648294842265426196,26254,1,0,0.00634802924469,0.0454158857465,0.00974269397557,0.0,14.8000001907,0.002123086703909699,0.015189259446989964,0.003258426078785953,14.8000001907,0.0,0.015483171408100157,0.046880915512948214
1648294842265429072,26255,1,1,0.0335994325578,0.0146502861753,-0.0292278509587,0.0,14.8000001907,0.011237268413979932,0.0048997612626421405,-0.009775200989531772,14.8000001907,0.0,0.01663009510635915,0.0468809132258355
1648294842265433962,26256,1,2,0.367894917727,-0.612381994724,-0.532028913498,0.0,14.8000001907,0.12304177850401338,-0.20481003168026754,-0.17793609147090297,14.8000001907,0.0,0.2687484094682861,0.8907374151507074
1648294842265437627,26257,1,3,1.91902649403,-0.0600661747158,0.0909143090248,0.0,14.8000001907,0.6418148809464882,-0.020089021644080267,0.03040612341966555,14.8000001907,0.0,0.907885593893485,1.9221175931038972
1648294842265467712,26258,1,4,2.2382183075,-1.2306240797,0.606884121895,0.0,14.8000001907,0.7485679958193979,-0.4115799597658863,0.20297127822575248,14.8000001907,0.0,1.1358283990159028,2.625331437166344
1648294842460566787,26259,3,0,0.0126799661666,0.0439508594573,0.0102645335719,0.0,14.8999996185,0.004240791360066889,0.014699284099431437,0.00343295437187291,14.8999996185,0.0,0.015875691347309377,0.04688091550375397
1648294842460568890,26260,3,1,0.033514522016,0.0146502861753,-0.0293251797557,0.0,14.8999996185,0.011208870239464881,0.0048997612626421405,-0.009807752426655518,14.8999996185,0.0,0.016591720963215706,0.0468809155060271
1648294842460679959,26261,3,2,0.355414301157,-0.612381994724,-0.540446221828,0.0,14.8999996185,0.11886765924983277,-0.20481003168026754,-0.1807512447585284,14.8999996185,0.0,0.26496450688335765,0.8907374201285267
1648294842460685075,26262,3,3,1.47610473633,-1.68478298187,0.690776705742,0.0,14.8999996185,0.4936805138227424,-0.5634725691872909,0.23102899857591971,14.8999996185,0.0,0.8971857308735468,2.3440459350896683
1648294842460773581,26263,3,4,2.23879289627,-1.2306240797,0.604761004448,0.0,14.8999996185,0.7487601659765886,-0.4115799597658863,0.20226120550100332,14.8999996185,0.0,1.1360817028662444,2.6253314324914183
1648294842565501957,26264,4,0,0.012702328153,0.0439508594573,0.0102368472144,0.0,14.8999996185,0.004248270285284281,0.014699284099431437,0.003423694720535117,14.8999996185,0.0,0.01587968998026903,0.04688091539670276
1648294842565505981,26265,4,1,0.0335994325578,0.0146502861753,-0.0292278509587,0.0,14.8999996185,0.011237268413979932,0.0048997612626421405,-0.009775200989531772,14.8999996185,0.0,0.01663009510635915,0.0468809132258355
1648294842565510996,26266,4,2,0.344072699547,-0.612381994724,-0.547736644745,0.0,14.8999996185,0.11507448145384613,-0.20481003168026754,-0.1831895132926421,14.8999996185,0.0,0.2615940015379086,0.8907374259748019
1648294842565536397,26267,4,3,1.86736321449,-0.117202289402,0.125421270728,0.0,14.8999996185,0.6245361921371237,-0.03919809010100334,0.041946913286956516,14.8999996185,0.0,0.8840969408644298,1.8752365841734537
1648294842565538141,26268,4,4,2.23954772949,-1.2306240797,0.601959466934,0.0,14.8999996185,0.7490126185585283,-0.4115799597658863,0.20132423643277592,14.8999996185,0.0,1.1364144793167217,2.625331380613265
1648294842565539984,26269,4,5,1.95060932636,-0.24612480402,-0.10724196583,-0.161837622523,14.8999996185,0.6523777011237457,-0.08231598796655518,-0.035866878204013374,14.8999996185,-0.021869948989594594,0.9262662963327105,1.9689984770109852
1648294842760414203,26270,6,0,0.00631579104811,0.0454158857465,0.00976362358779,0.0,25.7000007629,0.0021123046983645482,0.015189259446989964,0.003265425949093645,25.7000007629,0.0,0.015480221730499849,0.04688091552291377
1648294842760497489,26271,6,1,0.033514522016,0.0146502861753,-0.0293251797557,0.0,25.7000007629,0.011208870239464881,0.0048997612626421405,-0.009807752426655518,25.7000007629,0.0,0.016591720963215706,0.0468809155060271
1648294842760503738,26272,6,2,0.261052846909,-0.640217542648,-0.561592459679,0.0,25.7000007629,0.08730864445117056,-0.21411957948093643,-0.18782356511003342,25.7000007629,0.0,0.2471695634759565,0.8907374369374215
1648294842760507360,26273,6,3,2.2369325161,-1.2306240797,0.6116065979,0.0,25.7000007629,0.7481379652508361,-0.4115799597658863,0.204550701638796,25.7000007629,0.0,1.1352615968930735,2.625331471970304
1648294842760514165,26274,6,4,1.95267629623,-0.24612480402,-0.0585867278278,-0.161837622523,25.7000007629,0.6530689953946488,-0.08231598796655518,-0.019594223353779264,25.7000007629,-0.021869948989594594,0.9272400699745788,1.9689983600018468
1648294842865581321,26275,7,0,0.0125885810703,0.0439508594573,0.0103764068335,0.0,20.0,0.00421022778270903,0.014699284099431437,0.003470370178428093,20.0,0.0,0.01585941326154243,0.0468809155112521
1648294842865616049,26276,7,1,0.0335994325578,0.0146502861753,-0.0292278509587,0.0,20.0,0.011237268413979932,0.0048997612626421405,-0.009775200989531772,20.0,0.0,0.01663009510635915,0.0468809132258355
1648294842865621695,26277,7,2,0.278580725193,-0.640217542648,-0.553107082844,0.0,20.0,0.09317081110133778,-0.21411957948093643,-0.1849856464361204,20.0,0.0,0.25141359231285687,0.8907374290190689
1648294842865727961,26278,7,3,1.92037725449,-0.0600661747158,-0.0554907619953,0.0,20.0,0.6422666402976588,-0.020089021644080267,-0.018558783276020067,20.0,0.0,0.9085243217818116,1.9221175743367933
1648294842865730962,26279,7,4,2.1927652359,-1.31266570091,0.600878059864,0.0,20.0,0.733366299632107,-0.4390186290668896,0.20096256182742472,20.0,0.0,1.126228047750521,2.6253314200197755
1648294842865734568,26280,7,5,1.7109401226,0.271030306816,0.0896789431572,-0.647350490093,20.0,0.5722207767892976,0.09064558756387958,0.029992957577658862,20.0,-0.08747979595851352,0.8143032956604653,1.7345938553970122
1648294843060443574,26281,9,0,0.0126920221373,0.0439508594573,0.0102496230975,0.0,21.3999996185,0.00424482345729097,0.014699284099431437,0.0034279675911371237,21.3999996185,0.0,0.015877846371688233,0.04688091559056686
1648294843060448861,26282,9,1,0.033514522016,0.0146502861753,-0.0293251797557,0.0,21.3999996185,0.011208870239464881,0.0048997612626421405,-0.009807752426655518,21.3999996185,0.0,0.016591720963215706,0.0468809155060271
1648294843060532014,26283,9,2,0.281556129456,-0.640217542648,-0.55159842968,0.0,21.3999996185,0.09416592958394648,-0.21411957948093643,-0.18448108016053508,21.3999996185,0.0,0.25215399839366137,0.8907374380668691
1648294843060534166,26284,9,3,2.23685336113,-1.2306240797,0.611895561218,0.0,21.3999996185,0.7481114920167223,-0.4115799597658863,0.20464734488896322,21.3999996185,0.0,1.135226705224935,2.625331362433006
1648294843060535257,26285,9,4,1.72349584103,0.167013257742,0.418713599443,0.404594063759,21.3999996185,0.576420013722408,0.05585727683678929,0.14003799312474915,21.3999996185,0.05467487348094594,0.8170924671144042,1.7814747881089465
1648294843060536431,26286,9,5,1.86829304695,-0.117202289402,0.110710211098,-0.0809188112617,21.3999996185,0.6248471728929765,-0.03919809010100334,0.0370268264541806,21.3999996185,-0.010934974494824324,0.8845363018057862,1.8752365282182801
1648294843165527841,26287,10,0,0.0127002792433,0.0439508594573,0.010239389725,0.0,23.1000003815,0.004247585031204013,0.014699284099431437,0.003424545058528428,23.1000003815,0.0,0.015879323355559413,0.04688091553962624
1648294843165529508,26288,10,1,0.033514522016,0.0146502861753,-0.0293251797557,0.0,23.1000003815,0.011208870239464881,0.0048997612626421405,-0.009807752426655518,23.1000003815,0.0,0.016591720963215706,0.0468809155060271
1648294843165531162,26289,10,2,0.355263829231,-0.612381994724,-0.540545165539,0.0,23.1000003815,0.11881733419096988,-0.20481003168026754,-0.1807843363006689,23.1000003815,0.0,0.26491935921213733,0.8907374314631687
1648294843165532791,26290,10,3,1.86908459663,-0.117202289402,0.0964284837246,0.0,23.1000003815,0.6251119052274248,-0.03919809010100334,0.03225032900488294,23.1000003815,0.0,0.8849103222257543,1.8752365340068504
1648294843165533740,26291,10,4,2.23624324799,-1.2306240797,0.614122092724,0.0,23.1000003815,0.747907440799331,-0.4115799597658863,0.20539200425551837,23.1000003815,0.0,1.1349577715875152,2.6253314904007916
1648294843360483998,26292,12,0,0.0126920221373,0.0439508594573,0.0102496230975,0.0,15.0,0.00424482345729097,0.014699284099431437,0.0034279675911371237,15.0,0.0,0.015877846371688233,0.04688091559056686
1648294843360486670,26293,12,1,0.0336220227182,0.0146502861753,-0.0292018633336,0.0,15.0,0.011244823651571905,0.0048997612626421405,-0.009766509476120401,15.0,0.0,0.016640305836756436,0.04688091422781338
1648294843360497340,26294,12,2,0.313382565975,-0.640217542648,-0.534159183502,0.0,15.0,0.10481022273411371,-0.21411957948093643,-0.17864855635518392,15.0,0.0,0.2604180483304529,0.8907374292634402
1648294843360606594,26295,12,3,2.1940536499,-1.31266570091,0.596156358719,0.0,15.0,0.7337972073244146,-0.4390186290668896,0.1993833975648829,15.0,0.0,1.126789261406937,2.625331420035602
1648294843360609409,26296,12,4,1.74203193188,-0.114272229373,0.543278336525,0.161837622523,15.0,0.5826193752107023,-0.03821813691404682,0.18169844030936455,15.0,0.021869948989594594,0.8248341037632956,1.8283557490359506
1648294843465577528,26297,13,0,0.0126920221373,0.0439508594573,0.0102496230975,0.0,33.9000015259,0.00424482345729097,0.014699284099431437,0.0034279675911371237,33.9000015259,0.0,0.015877846371688233,0.04688091559056686
1648294843465581177,26298,13,1,0.033514522016,0.0146502861753,-0.0293251797557,0.0,33.9000015259,0.011208870239464881,0.0048997612626421405,-0.009807752426655518,33.9000015259,0.0,0.016591720963215706,0.0468809155060271
1648294843465582977,26299,13,2,0.329354584217,-0.612381994724,-0.556710898876,0.0,33.9000015259,0.11015203485518393,-0.20481003168026754,-0.18619093607892975,33.9000015259,0.0,0.2573209875667889,0.8907374329925862
1648294843465584678,26300,13,3,2.24213027954,-1.2306240797,0.592267751694,0.0,33.9000015259,0.7498763476722408,-0.4115799597658863,0.19808286009832776,33.9000015259,0.0,1.1375531358479072,2.625331389684787
1648294843465777548,26301,13,4,1.76501405239,-0.171408340335,0.445229142904,-0.161837622523,33.9000015259,0.5903057031404682,-0.05732720412541805,0.14890606786086955,33.9000015259,-0.021869948989594594,0.8367843537334827,1.8283556584979848
1648294843660574399,26302,15,0,0.0126799661666,0.0439508594573,0.0102645335719,0.0,31.5,0.004240791360066889,0.014699284099431437,0.00343295437187291,31.5,0.0,0.015875691347309377,0.04688091550375397
1648294843660589754,26303,15,1,0.033514522016,0.0146502861753,-0.0293251797557,0.0,31.5,0.011208870239464881,0.0048997612626421405,-0.009807752426655518,31.5,0.0,0.016591720963215706,0.0468809155060271
1648294843660613452,26304,15,2,0.316817730665,-0.640217542648,-0.532128930092,0.0,31.5,0.1059591072458194,-0.21411957948093643,-0.17796954183678929,31.5,0.0,0.2613462437720412,0.8907374330400744
1648294843660629206,26305,15,3,1.87560284138,-0.0,0.420297175646,0.0,31.5,0.62729192019398,-0.0,0.1405676172729097,31.5,0.0,0.8871247411053876,1.9221175131736181
1648294843660634889,26306,15,4,2.24073648453,-1.2306240797,0.597519099712,0.0,31.5,0.7494101954949833,-0.4115799597658863,0.1998391637832776,31.5,0.0,1.1369385847549316,2.6253313492132713
