%time,field.header.seq,field.header.frame_id,field.point_id,field.x,field.y,field.z,field.velocity,field.intensity,normalized_x,normalized_y,normalized_z,normalized_intensity,normalized_velocity,normalized_range,range
1648218290435078279,28245,0,0,0.00512605812401,0.0454158857465,0.0104374848306,0.0,18.2999992371,0.0017144007103712373,0.015189259446989964,0.0034907976022073577,18.2999992371,0.0,0.015381545505553618,0.04688091551600582
1648218290435138892,28246,0,1,0.0334424413741,0.0146502861753,-0.0294073522091,0.0,18.2999992371,0.011184763001371235,0.0048997612626421405,-0.009835234852541805,18.2999992371,0.0,0.01655915176645755,0.04688091438984909
1648218290435146000,28247,0,2,0.47448515892,0.105482056737,-1.01473236084,0.0,18.2999992371,0.15869068860200666,0.035278279845150494,-0.33937537151839464,18.2999992371,0.0,0.22717840198133019,1.1251419441407051
1648218290435188852,28248,0,3,1.72801089287,0.108412116766,-0.105077601969,0.0,18.2999992371,0.5779300645050167,0.03625823303210702,-0.03514301069197324,18.2999992371,0.0,0.8181203935730708,1.7345939396223589
1648218290435199335,28249,0,4,1.73775041103,0.0571361146867,0.565547227859,0.0,18.2999992371,0.581187428438127,0.0191090684570903,0.18914623005317724,18.2999992371,0.0,0.8221452489957864,1.8283557349639117
1648218290540726103,28250,1,0,0.00493015442044,0.0454158857465,0.0105314357206,0.0,17.5,0.001648881077070234,0.015189259446989964,0.003522219304548495,17.5,0.0,0.015367212504570061,0.04688091551031885
1648218290540797042,28251,1,1,0.0335763841867,0.0146502861753,-0.0292543284595,0.0,17.5,0.011229559928662208,0.0048997612626421405,-0.0097840563409699,17.5,0.0,0.016619677879360972,0.04688091502613165
1648218290540855542,28252,1,2,0.47448515892,0.105482056737,-1.01473236084,0.0,17.5,0.15869068860200666,0.035278279845150494,-0.33937537151839464,17.5,0.0,0.22717840198133019,1.1251419441407051
1648218290540953257,28253,1,3,1.73365736008,0.054206058383,-0.0176043435931,0.0,17.5,0.5798185150769231,0.01812911651605351,-0.005887740332140469,17.5,0.0,0.8201875917847506,1.7345939155428627
1648218290540965402,28254,1,4,1.8409267664,-0.0,0.357073187828,0.0,17.5,0.6156945707023411,-0.0,0.11942247084548495,17.5,0.0,0.8707236121667312,1.8752366839184889
1648218290541099331,28255,1,5,1.02153980732,1.52362978458,0.389257311821,0.0,17.5,0.3416521094715719,0.5095751787892976,0.1301863919133779,17.5,0.0,0.702224458881129,1.875236665918409
1648218290735431752,28256,3,0,0.00497833499685,0.0454158857465,0.0105087459087,0.0,11.3999996185,0.0016649949822240802,0.015189259446989964,0.0035146307386956523,11.3999996185,0.0,0.015370687009032375,0.04688091549931189
1648218290735459468,28257,3,1,0.0335763841867,0.0146502861753,-0.0292543284595,0.0,11.3999996185,0.011229559928662208,0.0048997612626421405,-0.0097840563409699,11.3999996185,0.0,0.016619677879360972,0.04688091502613165
1648218290735508575,28258,3,2,0.482045024633,0.105482056737,-1.01116299629,0.0,11.3999996185,0.16121907178361203,0.035278279845150494,-0.33818160411036785,11.3999996185,0.0,0.23071136782215923,1.1251419799887779
1648218290735679216,28259,3,3,1.68567502499,0.0527410283685,0.0639759302139,0.0,11.3999996185,0.5637709113678929,0.017639139922575247,0.02139663217856187,11.3999996185,0.0,0.7974875674682191,1.6877128978576714
1648218290735695529,28260,3,4,1.57697439194,-0.149432912469,0.177486807108,-0.647350490093,11.3999996185,0.5274161845953177,-0.04997756269866221,0.059360136156521734,11.3999996185,-0.08747979595851352,0.7475516171606233,1.5939510641361903
1648218290735716287,28261,3,5,1.60732161999,0.0556710883975,0.766205370426,-0.0809188112617,11.3999996185,0.5375657591939799,0.018619093109531772,0.2562559767311037,11.3999996185,-0.010934974494824324,0.7604607560839818,1.7814748748832478
1648218290840662694,28262,4,0,0.00495211966336,0.0454158857465,0.0105211250484,0.0,25.3999996185,0.001656227312160535,0.015189259446989964,0.003518770919197324,25.3999996185,0.0,0.015368792417332824,0.04688091551562798
1648218290840697142,28263,4,1,0.0335621088743,0.0146502861753,-0.029270702973,0.0,25.3999996185,0.011224785576688963,0.0048997612626421405,-0.009789532766889632,25.3999996185,0.0,0.01661322614413521,0.04688091391645585
1648218290840942464,28264,4,2,0.506632506847,0.105482056737,-0.999070286751,0.0,25.3999996185,0.16944230998227425,0.035278279845150494,-0.3341372196491638,25.3999996185,0.0,0.24221054859995464,1.1251419462255723
1648218290840963642,28265,4,3,1.63426208496,0.0556710883975,0.706923663616,0.0,25.3999996185,0.5465759481471572,0.018619093109531772,0.23642931893511704,25.3999996185,0.0,0.7731993305830969,1.781474922248819
1648218290840993292,28266,4,4,2.06680488586,-1.19546329975,-0.125358074903,0.0,25.3999996185,0.6912390922608694,-0.39982050158862875,-0.041925777559531766,25.3999996185,0.0,1.0561625816273952,2.390926511670175
1648218290841018325,28267,4,5,1.76240837574,0.46880915761,0.436631470919,0.161837622523,25.3999996185,0.5894342393779264,0.15679236040468228,0.146030592280602,25.3999996185,0.021869948989594594,0.8482035660048484,1.8752366118797896
