%time,field.header.seq,field.header.frame_id,field.point_id,field.x,field.y,field.z,field.velocity,field.intensity,normalized_x,normalized_y,normalized_z,normalized_intensity,normalized_velocity,normalized_range,range
1648294803265343353,24957,0,0,0.0126596167684,0.0439508594573,0.0102896206081,0.0,23.7000007629,0.004233985541270903,0.014699284099431437,0.0034413446849832774,23.7000007629,0.0,0.015872057842736712,0.046880915477587756
1648294803265347225,24958,0,1,0.0335372425616,0.0146502861753,-0.0292991939932,0.0,23.7000007629,0.011216469084147156,0.0048997612626421405,-0.00979906153618729,23.7000007629,0.0,0.016601988370738802,0.04688091607791967
1648294803265348844,24959,0,2,0.406700253487,-0.612381994724,-0.502987444401,0.0,23.7000007629,0.13602015166789297,-0.20481003168026754,-0.1682232255521739,23.7000007629,0.0,0.28098062637197146,0.890737432060416
1648294803265351189,24960,0,3,2.23401761055,-1.2306240797,0.622169137001,0.0,23.7000007629,0.7471630804515049,-0.4115799597658863,0.20808332341170566,23.7000007629,0.0,1.1339768079023718,2.6253313590519527
1648294803265353415,24961,0,4,1.90941441059,-0.120132349432,0.185042366385,0.0809188112617,23.7000007629,0.6386001373210701,-0.040178043288294316,0.06188707905852842,23.7000007629,0.010934974494824324,0.9040102576494667,1.9221175432595607
1648294803460281278,24962,2,0,0.0126799661666,0.0439508594573,0.0102645335719,0.0,19.8999996185,0.004240791360066889,0.014699284099431437,0.00343295437187291,19.8999996185,0.0,0.015875691347309377,0.04688091550375397
1648294803460284969,24963,2,1,0.0335372425616,0.0146502861753,-0.0292991939932,0.0,19.8999996185,0.011216469084147156,0.0048997612626421405,-0.00979906153618729,19.8999996185,0.0,0.016601988370738802,0.04688091607791967
1648294803460446630,24964,2,2,0.402152299881,-0.612381994724,-0.506631016731,0.0,19.8999996185,0.1344990969501672,-0.20481003168026754,-0.16944181161571903,19.8999996185,0.0,0.2795123668779132,0.8907374286935571
1648294803460465811,24965,2,3,2.19321656227,-1.31266570091,0.599228680134,0.0,19.8999996185,0.7335172449063544,-0.4390186290668896,0.20041092981070233,19.8999996185,0.0,1.1264246329949414,2.6253314347823045
1648294803460578945,24966,2,4,1.85361540318,-0.0586011447012,0.277827203274,0.0809188112617,19.8999996185,0.6199382619331103,-0.019599045050568562,0.09291879708160534,19.8999996185,0.010934974494824324,0.8769441372084004,1.8752365482641111
1648294803460583140,24967,2,5,1.57887208462,-0.199243888259,-0.090248644352,-0.647350490093,19.8999996185,0.5280508644214046,-0.06663675192608695,-0.030183493094314378,19.8999996185,-0.08747979595851352,0.7497438812952355,1.5939510671310595
1648294803460586297,24968,2,6,1.56301867962,-0.298865824938,-0.0912804231048,-0.485512852669,19.8999996185,0.5227487222809365,-0.09995512539732442,-0.030528569600267556,19.8999996185,-0.06560984495527027,0.7460050136466231,1.5939511566541527
1648294803565424288,24969,3,0,0.0126596167684,0.0439508594573,0.0102896206081,0.0,23.2000007629,0.004233985541270903,0.014699284099431437,0.0034413446849832774,23.2000007629,0.0,0.015872057842736712,0.046880915477587756
1648294803565426177,24970,3,1,0.0335509069264,0.0146502861753,-0.0292835440487,0.0,23.2000007629,0.011221039105819395,0.0048997612626421405,-0.009793827441036788,23.2000007629,0.0,0.016608163584802046,0.0468809150151135
1648294803565430786,24971,3,2,0.39280256629,-0.612381994724,-0.513913989067,0.0,23.2000007629,0.13137209574916386,-0.20481003168026754,-0.1718775883167224,23.2000007629,0.0,0.2765219777159261,0.8907374201777489
1648294803565436320,24972,3,3,1.91453099251,-0.120132349432,0.121141016483,0.0,23.2000007629,0.6403113687324414,-0.040178043288294316,0.040515390128093645,23.2000007629,0.0,0.9064279193727989,1.9221175428510902
1648294803565441305,24973,3,4,2.19146323204,-1.31266570091,0.605609834194,0.0,23.2000007629,0.7329308468361203,-0.4390186290668896,0.20254509504816054,23.2000007629,0.0,1.1256609654578933,2.6253315240177244
1648294803565629328,24974,3,5,1.766533494,0.167013257742,0.158488333225,0.242756426334,23.2000007629,0.5908138775919731,0.05585727683678929,0.05300613151337792,23.2000007629,0.03280492247756756,0.8374020010043849,1.7814748287455207
1648294803760421787,24975,5,0,0.0126596167684,0.0439508594573,0.0102896206081,0.0,18.8999996185,0.004233985541270903,0.014699284099431437,0.0034413446849832774,18.8999996185,0.0,0.015872057842736712,0.046880915477587756
1648294803760516787,24976,5,1,0.0335509069264,0.0146502861753,-0.0292835440487,0.0,18.8999996185,0.011221039105819395,0.0048997612626421405,-0.009793827441036788,18.8999996185,0.0,0.016608163584802046,0.0468809150151135
1648294803760518656,24977,5,2,0.414504528046,-0.612381994724,-0.496575713158,0.0,18.8999996185,0.13863027693846153,-0.20481003168026754,-0.166078833832107,18.8999996185,0.0,0.2835204691815765,0.89073741929435
1648294803760519618,24978,5,3,1.91835296154,-0.120132349432,0.0051125199534,0.0,18.8999996185,0.641589619244147,-0.040178043288294316,0.0017098728941137122,18.8999996185,0.0,0.9082338653706847,1.922117583367265
1648294803760520625,24979,5,4,2.23245358467,-1.2306240797,0.627758443356,0.0,18.8999996185,0.7466399948729097,-0.4115799597658863,0.20995265664080265,18.8999996185,0.0,1.1332875306684203,2.625331464110418
1648294803760521603,24980,5,5,2.06938672066,-0.424858301878,1.7118999958,0.242756426334,18.8999996185,0.692102582160535,-0.14209307755117057,0.5725418046153846,18.8999996185,0.03280492247756756,0.9890411574623794,2.7190931524937954
1648294803760522697,24981,5,6,1.36417555809,-1.52948987484,-1.78693962097,0.242756426334,18.8999996185,0.4562460060501672,-0.5115350751973244,-0.5976386692207357,18.8999996185,0.03280492247756756,0.8234008557383158,2.7190931281441335
1648294803865412038,24982,6,0,0.0126596167684,0.0439508594573,0.0102896206081,0.0,15.0,0.004233985541270903,0.014699284099431437,0.0034413446849832774,15.0,0.0,0.015872057842736712,0.046880915477587756
1648294803865414268,24983,6,1,0.0335372425616,0.0146502861753,-0.0292991939932,0.0,15.0,0.011216469084147156,0.0048997612626421405,-0.00979906153618729,15.0,0.0,0.016601988370738802,0.04688091607791967
1648294803865418747,24984,6,2,0.401683539152,-0.612381994724,-0.507002770901,0.0,15.0,0.13434232078662206,-0.20481003168026754,-0.1695661441140468,15.0,0.0,0.279361535264867,0.8907374376263262
1648294803865421789,24985,6,3,1.91703701019,-0.120132349432,-0.0712277293205,0.0,15.0,0.6411495017357859,-0.040178043288294316,-0.02382198305033445,15.0,0.0,0.9076120549632255,1.9221176002634233
1648294803865530464,24986,6,4,2.23465514183,-1.2306240797,0.619875609875,0.0,15.0,0.7473763016153845,-0.4115799597658863,0.2073162574832776,15.0,0.0,1.1342577906778815,2.625331407682206
1648294804060572665,24987,8,0,0.0126596167684,0.0439508594573,0.0102896206081,0.0,14.3000001907,0.004233985541270903,0.014699284099431437,0.0034413446849832774,14.3000001907,0.0,0.015872057842736712,0.046880915477587756
1648294804060575030,24988,8,1,0.0335372425616,0.0146502861753,-0.0292991939932,0.0,14.3000001907,0.011216469084147156,0.0048997612626421405,-0.00979906153618729,14.3000001907,0.0,0.016601988370738802,0.04688091607791967
1648294804060592248,24989,8,2,0.414526581764,-0.612381994724,-0.496557325125,0.0,14.3000001907,0.13863765276387957,-0.20481003168026754,-0.1660726839882943,14.3000001907,0.0,0.2835276822545345,0.8907374313378699
1648294804060596526,24990,8,3,1.9126111269,-0.0600661747158,0.1812364012,0.0,14.3000001907,0.6396692732107022,-0.020089021644080267,0.06061418100334448,14.3000001907,0.0,0.9048519917480606,1.9221175565523052
1648294804060598034,24991,8,4,2.22996258736,-1.2306240797,0.636550307274,0.0,14.3000001907,0.7458068854046823,-0.4115799597658863,0.2128930793558528,14.3000001907,0.0,1.1321898621322108,2.625331419126622
1648294804060599624,24992,8,5,1.82606518269,-0.0586011447012,0.422568440437,0.0809188112617,14.3000001907,0.610724141367893,-0.019599045050568562,0.14132723760434782,14.3000001907,0.010934974494824324,0.8639167067871731,1.8752365803936082
1648294804165432305,24993,9,0,0.0126799661666,0.0439508594573,0.0102645335719,0.0,16.2000007629,0.004240791360066889,0.014699284099431437,0.00343295437187291,16.2000007629,0.0,0.015875691347309377,0.04688091550375397
1648294804165435805,24994,9,1,0.0335372425616,0.0146502861753,-0.0292991939932,0.0,16.2000007629,0.011216469084147156,0.0048997612626421405,-0.00979906153618729,16.2000007629,0.0,0.016601988370738802,0.04688091607791967
1648294804165438729,24995,9,2,0.414403170347,-0.612381994724,-0.496660321951,0.0,16.2000007629,0.1385963780424749,-0.20481003168026754,-0.16610713108729097,16.2000007629,0.0,0.28348732086260475,0.8907374307034935
1648294804165441123,24996,9,3,1.90249919891,-0.180198520422,0.206303715706,0.0,16.2000007629,0.6362873574949832,-0.06026706368628762,0.06899789822943143,16.2000007629,0.0,0.9018621411176234,1.9221175644922377
1648294804165444287,24997,9,4,2.19208526611,-1.31266570091,0.603354454041,0.0,16.2000007629,0.7331388849866219,-0.4390186290668896,0.20179078730468225,16.2000007629,0.0,1.1259318833866576,2.625331532102794
1648294804360464512,24998,11,0,0.012702328153,0.0439508594573,0.0102368472144,0.0,14.1999998093,0.004248270285284281,0.014699284099431437,0.003423694720535117,14.1999998093,0.0,0.01587968998026903,0.04688091539670276
1648294804360472805,24999,11,1,0.0335509069264,0.0146502861753,-0.0292835440487,0.0,14.1999998093,0.011221039105819395,0.0048997612626421405,-0.009793827441036788,14.1999998093,0.0,0.016608163584802046,0.0468809150151135
1648294804360653055,25000,11,2,0.42059597373,-0.5845464468,-0.524230539799,0.0,14.1999998093,0.14066754974247492,-0.19550048387959865,-0.17532793973210703,14.1999998093,0.0,0.2789178343137285,0.8907374363090075
1648294804360656651,25001,11,3,0.371564716101,-0.640217542648,-0.49545365572,0.0,14.1999998093,0.12426913581973244,-0.21411957948093643,-0.16570356378595316,14.1999998093,0.0,0.2770069142672422,0.8907374277146844
1648294804360659467,25002,11,4,1.91630125046,-0.120132349432,0.0888453498483,0.0,14.1999998093,0.6409034282474916,-0.040178043288294316,0.029714163828862876,14.1999998093,0.0,0.9072643957751517,1.9221175198421867
1648294804360665546,25003,11,5,2.23321080208,-1.2306240797,0.625059247017,0.0,14.1999998093,0.7468932448428093,-0.4115799597658863,0.209049915390301,14.1999998093,0.0,1.1336212337745488,2.6253314408557498
1648294804465497002,25004,12,0,0.0126902572811,0.0439508594573,0.0102518079802,0.0,13.8999996185,0.004244233204381271,0.014699284099431437,0.0034286983211371234,13.8999996185,0.0,0.015877530791094153,0.04688091556015881
1648294804465504595,25005,12,1,0.0335372425616,0.0146502861753,-0.0292991939932,0.0,13.8999996185,0.011216469084147156,0.0048997612626421405,-0.00979906153618729,13.8999996185,0.0,0.016601988370738802,0.04688091607791967
1648294804465512460,25006,12,2,0.393491894007,-0.612381994724,-0.513386368752,0.0,13.8999996185,0.13160264013612039,-0.20481003168026754,-0.1717011266729097,13.8999996185,0.0,0.27674114052389576,0.8907374145794741
1648294804465514160,25007,12,3,1.96029770374,-0.061531201005,0.174359917641,0.0,13.8999996185,0.6556179611170568,-0.020578996991638794,0.058314353726086954,13.8999996185,0.0,0.9274121613369943,1.968998363855392
1648294804465623290,25008,12,4,2.19393229485,-1.31266570091,0.596602737904,0.0,13.8999996185,0.7337566203511706,-0.4390186290668896,0.19953268826220733,13.8999996185,0.0,1.1267363988467378,2.6253314045289367
1648294804660277530,25009,14,0,0.0126799661666,0.0439508594573,0.0102645335719,0.0,14.5,0.004240791360066889,0.014699284099431437,0.00343295437187291,14.5,0.0,0.015875691347309377,0.04688091550375397
1648294804660283788,25010,14,1,0.033514522016,0.0146502861753,-0.0293251797557,0.0,14.5,0.011208870239464881,0.0048997612626421405,-0.009807752426655518,14.5,0.0,0.016591720963215706,0.0468809155060271
1648294804660287974,25011,14,2,0.400940686464,-0.612381994724,-0.507590413094,0.0,14.5,0.1340938750715719,-0.20481003168026754,-0.16976267996454847,14.5,0.0,0.27912270373492165,0.890737429880044
1648294804660289932,25012,14,3,2.23303174973,-1.2306240797,0.6256980896,0.0,14.5,0.7468333611137122,-0.4115799597658863,0.20926357511705682,14.5,0.0,1.1335423246732774,2.625331316266346
1648294804660291857,25013,14,4,1.91752815247,-0.120132349432,0.0564803555608,-0.0809188112617,14.5,0.6413137633678929,-0.040178043288294316,0.018889751023678927,14.5,-0.010934974494824324,0.9078441283241608,1.9221175893943998
1648294804765543881,25014,15,0,0.0126596167684,0.0439508594573,0.0102896206081,0.0,20.3999996185,0.004233985541270903,0.014699284099431437,0.0034413446849832774,20.3999996185,0.0,0.015872057842736712,0.046880915477587756
1648294804765569671,25015,15,1,0.0336130186915,0.0146502861753,-0.0292122270912,0.0,20.3999996185,0.01124181227140468,0.0048997612626421405,-0.009769975615785952,20.3999996185,0.0,0.016636235954142337,0.04688091426370814
1648294804765573256,25016,15,2,0.402689397335,-0.612381994724,-0.50620418787,0.0,20.3999996185,0.1346787282056856,-0.20481003168026754,-0.1692990594882943,20.3999996185,0.0,0.2796853030444647,0.8907374124877078
1648294804765577708,25017,15,3,2.23490762711,-1.2306240797,0.618964552879,0.0,20.3999996185,0.7474607448528428,-0.4115799597658863,0.20701155614682273,20.3999996185,0.0,1.134369072865098,2.6253313781259355
1648294804765588094,25018,15,4,1.76200377941,-0.293005734682,0.570966541767,0.485512852669,20.3999996185,0.5892989228795986,-0.09799522899063544,0.19095870962107023,20.3999996185,0.06560984495527027,0.8391361664944714,1.8752366440076382
1648294804765737616,25019,15,5,1.91796588898,-0.0600661747158,0.111062608659,-0.0809188112617,20.3999996185,0.6414601635384615,-0.020089021644080267,0.03714468517023411,20.3999996185,-0.010934974494824324,0.90738407061409,1.9221175821676395
