%time,field.header.seq,field.header.frame_id,field.point_id,field.x,field.y,field.z,field.velocity,field.intensity,normalized_x,normalized_y,normalized_z,normalized_intensity,normalized_velocity,normalized_range,range
1648127219703588857,100531,0,0,0.0125683275983,0.0439508594573,0.0104009294882,0.0,13.1999998093,0.004203454046254181,0.014699284099431437,0.003478571735183946,13.1999998093,0.0,0.01585581927475648,0.046880915518705844
1648127219703597257,100532,0,1,0.032885145396,0.0146502861753,-0.0300292614847,0.0,13.1999998093,0.010998376386622074,0.0048997612626421405,-0.010043231265785952,13.1999998093,0.0,0.016307551217595504,0.04688091528597467
1648127219703599993,100533,0,2,1.35563838482,0.0424858294427,-0.0938425734639,0.0,13.1999998093,0.4533907641538461,0.01420930750591973,-0.03138547607488294,13.1999998093,0.0,0.6413487931381915,1.3595465805536566
1648127219703602032,100534,0,3,1.82606005669,-1.39177727699,0.472240805626,0.0,13.1999998093,0.610722426986622,-0.4654773501638796,0.15794006877123745,13.1999998093,0.0,0.9811385881538075,2.344045796882535
1648127219703608202,100535,0,4,1.87665486336,-1.24527442455,0.649622619152,0.0,13.1999998093,0.6276437670100334,-0.4164797406521739,0.2172650900173913,13.1999998093,0.0,0.9804737481986922,2.3440459500455573
1648127219703701049,100536,0,5,2.42595410347,-0.902457654476,0.438955754042,0.0,13.1999998093,0.8113558874481605,-0.30182530250033446,0.14680794449565215,13.1999998093,0.0,1.1864633434805318,2.6253314617914127
1648127219703729327,100537,0,6,1.41658484936,0.187523663044,0.456826299429,0.161837622523,13.1999998093,0.47377419711036783,0.0627169441618729,0.15278471552809364,13.1999998093,0.021869948989594594,0.6729467993683831,1.5001893305472238
1648127219808806586,100538,1,0,0.0125726731494,0.0439508594573,0.0103956768289,0.0,33.0,0.004204907407826087,0.014699284099431437,0.0034768149929431435,33.0,0.0,0.01585658997554579,0.04688091566818964
1648127219808819207,100539,1,1,0.0328981243074,0.0146502861753,-0.0300150439143,0.0,33.0,0.011002717159665552,0.0048997612626421405,-0.010038476225518393,33.0,0.0,0.016313406456717926,0.04688091647078464
1648127219808827716,100540,1,2,1.35203623772,0.0424858294427,-0.136234983802,0.0,33.0,0.4521860326822742,0.01420930750591973,-0.045563539733110364,33.0,0.0,0.6396454648675837,1.3595466173040986
1648127219808831580,100541,1,3,1.45519018173,0.046880915761,0.361651390791,0.0,33.0,0.48668567950836117,0.015679236040468225,0.12095364240501671,33.0,0.0,0.6884560550389859,1.5001893259609085
1648127219808925568,100542,1,4,1.81987929344,-1.39177727699,0.495526611805,0.0,33.0,0.6086552820869565,-0.4654773501638796,0.16572796381438126,33.0,0.0,0.9785661287518039,2.3440459156006983
1648127219808936854,100543,1,5,2.4255437851,-0.902457654476,0.441217631102,0.0,33.0,0.8112186572240802,-0.30182530250033446,0.14756442511772574,33.0,0.0,1.1862756563658794,2.625331497078953
1648127219808955414,100544,1,6,1.38751721382,0.515690088272,0.243778064847,0.404594063759,33.0,0.46405257987290965,0.17247160142876253,0.08153112536688963,33.0,0.05467487348094594,0.6785543803357313,1.5001893316142956
1648127220003841546,100545,3,0,0.0125786392018,0.0439508594573,0.010388456285,0.0,38.2999992371,0.004206902743076922,0.014699284099431437,0.0034744000953177254,38.2999992371,0.0,0.015857648451621513,0.046880915468767805
1648127220003922406,100546,3,1,0.0328981243074,0.0146502861753,-0.0300150439143,0.0,38.2999992371,0.011002717159665552,0.0048997612626421405,-0.010038476225518393,38.2999992371,0.0,0.016313406456717926,0.04688091647078464
1648127220003925742,100547,3,2,1.35603511333,0.0424858294427,-0.0879234671593,0.0,38.2999992371,0.4535234492742474,0.01420930750591973,-0.029405841859297656,38.2999992371,0.0,0.64153639218911,1.3595465458617635
1648127220003928551,100548,3,3,1.46865427494,0.338421612978,0.349216043949,0.0,38.2999992371,0.491188720715719,0.11318448594581938,0.11679466352809365,38.2999992371,0.0,0.7038063985042396,1.5470702675643269
1648127220003934553,100549,3,4,1.97258031368,-1.12074685097,0.7545748353,0.0,38.2999992371,0.6597258574180601,-0.3748317227324415,0.2523661656521739,38.2999992371,0.0,1.00547264222283,2.3909265526036307
1648127220003941814,100550,3,5,2.4282643795,-0.902457654476,0.425989985466,0.0,38.2999992371,0.8121285550167223,-0.30182530250033446,0.14247156704548494,38.2999992371,0.0,1.187520144240306,2.62533144242554
1648127220004006041,100551,3,6,1.31971669197,-0.499574750662,0.347675323486,0.242756426334,38.2999992371,0.4413768200568562,-0.16708185640869566,0.11627937240334447,38.2999992371,0.03280492247756756,0.6461759368066725,1.453308366839032
1648127220108977944,100552,4,0,0.0126673094928,0.0439508594573,0.0102801481262,0.0,34.7999992371,0.0042365583587959865,0.014699284099431437,0.00343817663083612,34.7999992371,0.0,0.015873430835542962,0.04688091533148996
1648127220108980853,100553,4,1,0.032885145396,0.0146502861753,-0.0300292614847,0.0,34.7999992371,0.010998376386622074,0.0048997612626421405,-0.010043231265785952,34.7999992371,0.0,0.016307551217595504,0.04688091528597467
1648127220108984359,100554,4,2,1.35109627247,-0.0,-0.151345729828,0.0,34.7999992371,0.4518716630334448,-0.0,-0.05061730094581939,34.7999992371,0.0,0.6390430343139828,1.3595464932908687
1648127220108985857,100555,4,3,1.46568989754,0.386767566204,0.309176892042,0.0,34.7999992371,0.4901972901471571,0.1293537010715719,0.10340364282341136,34.7999992371,0.0,0.7052085836943179,1.5470702558678229
1648127220108987689,100556,4,4,1.84707665443,-1.39177727699,0.381856739521,0.0,34.7999992371,0.6177513894414715,-0.4654773501638796,0.1277112841207358,34.7999992371,0.0,0.9899003595460121,2.3440458027955917
1648127220108990761,100557,4,5,2.42921280861,-0.902457654476,0.420548349619,0.0,34.7999992371,0.8124457553879598,-0.30182530250033446,0.14065162194615383,34.7999992371,0.0,1.1879540075799415,2.6253315223042732
1648127220303941915,100558,6,0,0.0125890737399,0.0439508594573,0.0103758089244,0.0,12.8000001907,0.004210392555150501,0.014699284099431437,0.003470170208829431,12.8000001907,0.0,0.01585950074790286,0.0468809154720728
1648127220303946857,100559,6,1,0.0328101180494,0.0146502861753,-0.0301112178713,0.0,12.8000001907,0.010973283628561871,0.0048997612626421405,-0.010070641428528428,12.8000001907,0.0,0.016273707863195052,0.046880914806844864
1648127220303955193,100560,6,2,1.35303068161,0.0424858294427,-0.125974908471,0.0,12.8000001907,0.45251862261204007,0.01420930750591973,-0.04213207641170569,12.8000001907,0.0,0.6401157020736123,1.3595465231634156
1648127220304093224,100561,6,3,2.4229593277,-0.902457654476,0.45519605279,0.0,12.8000001907,0.8103542902006688,-0.30182530250033446,0.15223948253846153,12.8000001907,0.0,1.1850935256437265,2.6253314397017298
1648127220304096603,100562,6,4,1.43862462044,-0.046880915761,0.422763824463,0.0809188112617,12.8000001907,0.4811453580066889,-0.015679236040468225,0.14139258343244146,12.8000001907,0.010934974494824324,0.6806229128567318,1.5001892780823711
