%time,field.header.seq,field.header.frame_id,field.point_id,field.x,field.y,field.z,field.velocity,field.intensity,normalized_x,normalized_y,normalized_z,normalized_intensity,normalized_velocity,normalized_range,range
1648219480959494009,75795,0,0,0.0121756950393,0.0439508594573,0.0108579294756,0.0,17.1000003815,0.004072138809130434,0.014699284099431437,0.0036314145403344477,17.1000003815,0.0,0.01578713343192647,0.04688091540512487
1648219480959524956,75796,0,1,0.0334385335445,0.0146502861753,-0.0294117927551,0.0,17.1000003815,0.011183456034949833,0.0048997612626421405,-0.009836719984983276,17.1000003815,0.0,0.01655738621287189,0.046880912573176205
1648219480959529334,75797,0,2,1.71206080914,0.108412116766,0.256730616093,0.0,17.1000003815,0.5725955883411371,0.03625823303210702,0.08586308230535117,17.1000003815,0.0,0.8105837865625468,1.7345939036253668
1648219480959532080,75798,0,3,1.84506189823,0.117202289402,0.313882708549,0.0809188112617,17.1000003815,0.6170775579364548,0.03919809010100334,0.10497749449799332,17.1000003815,0.010934974494824324,0.8735593370144948,1.8752365556556372
1648219480959535062,75799,0,4,1.68049991131,0.105482056737,0.114754587412,0.161837622523,17.1000003815,0.5620401041170568,0.035278279845150494,0.0383794606729097,17.1000003815,0.021869948989594594,0.7956272458259942,1.6877129588702233
1648219481154573289,75800,2,0,0.00556838465855,0.0454158857465,0.0102083617821,0.0,26.5,0.0018623360062040132,0.015189259446989964,0.003414167820100334,26.5,0.0,0.015415907152937246,0.04688091547867806
1648219481154578887,75801,2,1,0.0334756672382,0.0146502861753,-0.0293695218861,0.0,26.5,0.011195875330501672,0.0048997612626421405,-0.009822582570602006,26.5,0.0,0.016574163908419644,0.04688091293777234
1648219481154585000,75802,2,2,2.14925312996,-1.14272224903,0.133426174521,0.0,26.5,0.7188137558394648,-0.3821813541906354,0.04462413863578595,26.5,0.0,1.0860244097896987,2.4378075599026157
1648219481154599098,75803,2,3,1.83754038811,0.117202289402,0.35527664423,0.161837622523,26.5,0.6145620027123746,0.03919809010100334,0.1188216201438127,26.5,0.021869948989594594,0.8700054026402685,1.8752366646671161
1648219481259676056,75804,3,0,0.00554270436987,0.0454158857465,0.0102223278955,0.0,26.5,0.0018537472808929764,0.015189259446989964,0.003418838761036789,26.5,0.0,0.015413836657717964,0.04688091549313041
1648219481259678566,75805,3,1,0.0334476083517,0.0146502861753,-0.0294014774263,0.0,26.5,0.011186491087525082,0.0048997612626421405,-0.009833270042240803,26.5,0.0,0.01656148622960647,0.04688091577940992
1648219481259817134,75806,3,2,0.633959591389,1.35954654217,0.0172144435346,0.0,26.5,0.2120266191936455,0.4546978401906354,0.005757338974782608,26.5,0.0,0.5446656776109571,1.500189288358878
1648219481259821124,75807,3,3,2.10795068741,-1.12074685097,-0.130385681987,0.0,26.5,0.7050002299030099,-0.3748317227324415,-0.043607251500668895,26.5,0.0,1.0651523218268661,2.3909266050171167
1648219481259878998,75808,3,4,1.89070093632,0.180198520422,0.295490413904,0.161837622523,26.5,0.6323414502742475,0.06026706368628762,0.09882622538595316,26.5,0.021869948989594594,0.8962943369425271,1.9221176140061669
1648219481454633224,75809,5,0,0.0121619980782,0.0439508594573,0.0108732702211,0.0,27.8999996185,0.004067557885685619,0.014699284099431437,0.0036365452244481603,27.8999996185,0.0,0.015784771374416685,0.04688091562235679
1648219481454640777,75810,5,1,0.0334246940911,0.0146502861753,-0.0294275209308,0.0,27.8999996185,0.01117882745521739,0.0048997612626421405,-0.009841980244414716,27.8999996185,0.0,0.01655113370672634,0.04688091347482975
1648219481454644034,75811,5,2,2.14789271355,-1.14272224903,0.153780266643,0.0,27.8999996185,0.7183587670735786,-0.3821813541906354,0.05143152730535117,27.8999996185,0.0,1.0854221408990752,2.4378075432154516
1648219481454650254,75812,5,3,1.99823689461,0.188988685608,0.187356516719,0.161837622523,27.8999996185,0.668306653715719,0.06320691826354514,0.06266104238093645,27.8999996185,0.021869948989594594,0.947239505783927,2.0158794295853935
1648219481454653622,75813,5,4,1.05212199688,0.849716603756,-0.139239698648,0.566431701183,27.8999996185,0.3518802665150501,0.28418615510234113,-0.04656846108628763,27.8999996185,0.07654482448418919,0.5730630110880105,1.3595465040582377
1648219481559758540,75814,6,0,0.0122741637751,0.0439508594573,0.0107464920729,0.0,19.5,0.004105071496688963,0.014699284099431437,0.003594144505986622,19.5,0.0,0.015804182263617888,0.04688091546979662
1648219481559763178,75815,6,1,0.0334756672382,0.0146502861753,-0.0293695218861,0.0,19.5,0.011195875330501672,0.0048997612626421405,-0.009822582570602006,19.5,0.0,0.016574163908419644,0.04688091293777234
1648219481559767614,75816,6,2,2.14678359032,-1.14272224903,0.168557375669,0.0,19.5,0.7179878228494984,-0.3821813541906354,0.05637370423712374,19.5,0.0,1.08493115680734,2.4378075213166097
1648219481559992484,75817,6,3,0.776595473289,1.30534052849,0.293959110975,0.0809188112617,19.5,0.2597309275214047,0.436568738625418,0.09831408393812709,19.5,0.010934974494824324,0.5705370916664813,1.547070258060936
1648219481559997672,75818,6,4,1.86703169346,0.180198520422,0.419829785824,0.161837622523,19.5,0.6244253155384615,0.06026706368628762,0.14041129960668894,19.5,0.021869948989594594,0.8851248885530117,1.922117556293428
1648219481754630867,75819,8,0,0.0121619980782,0.0439508594573,0.0108732702211,0.0,20.3999996185,0.004067557885685619,0.014699284099431437,0.0036365452244481603,20.3999996185,0.0,0.015784771374416685,0.04688091562235679
1648219481754673316,75820,8,1,0.0334756672382,0.0146502861753,-0.0293695218861,0.0,20.3999996185,0.011195875330501672,0.0048997612626421405,-0.009822582570602006,20.3999996185,0.0,0.016574163908419644,0.04688091293777234
1648219481754698625,75821,8,2,1.965020895,0.12306240201,0.0224385559559,0.0,20.3999996185,0.6571976237458194,0.04115799398327759,0.00750453376451505,20.3999996185,0.0,0.9303286590141306,1.9689984665734146
1648219481754710514,75822,8,3,0.66238373518,1.26578474045,0.457826077938,0.0809188112617,20.3999996185,0.2215330217993311,0.42333937807692307,0.15311908961137122,20.3999996185,0.010934974494824324,0.5266592717551281,1.5001893011974103
1648219481754714115,75823,8,4,1.04844141006,1.31852567196,0.103128924966,0.161837622523,20.3999996185,0.3506493010234113,0.44097848560535113,0.03449127925284281,20.3999996185,0.021869948989594594,0.6636052210337127,1.6877129237849704
1648219481859732481,75824,9,0,0.0122741637751,0.0439508594573,0.0107464920729,0.0,24.7000007629,0.004105071496688963,0.014699284099431437,0.003594144505986622,24.7000007629,0.0,0.015804182263617888,0.04688091546979662
1648219481859739820,75825,9,1,0.0334756672382,0.0146502861753,-0.0293695218861,0.0,24.7000007629,0.011195875330501672,0.0048997612626421405,-0.009822582570602006,24.7000007629,0.0,0.016574163908419644,0.04688091293777234
1648219482054610314,75826,11,0,0.00556838465855,0.0454158857465,0.0102083617821,0.0,26.8999996185,0.0018623360062040132,0.015189259446989964,0.003414167820100334,26.8999996185,0.0,0.015415907152937246,0.04688091547867806
1648219482054712312,75827,11,1,0.0334756672382,0.0146502861753,-0.0293695218861,0.0,26.8999996185,0.011195875330501672,0.0048997612626421405,-0.009822582570602006,26.8999996185,0.0,0.016574163908419644,0.04688091293777234
1648219482054715100,75828,11,2,1.26982784271,1.31413066387,0.0590118542314,0.404594063759,26.8999996185,0.42469158619063546,0.43950858323411374,0.019736406097458192,26.8999996185,0.05467487348094594,0.7442403385323143,1.8283556959149847
1648219482054717834,75829,11,3,1.71596360207,0.44536870718,0.17540833354,-0.161837622523,26.8999996185,0.573900870257525,0.14895274487625418,0.05866499449498327,26.8999996185,-0.021869948989594594,0.8251735199161807,1.7814747970261924
1648219482054719710,75830,11,4,2.00494766235,0.125992462039,0.167572751641,-0.0809188112617,26.8999996185,0.6705510576421405,0.04213794717023411,0.05604439854214046,26.8999996185,-0.010934974494824324,0.9492381410382265,2.0158794250514873
1648219482159787660,75831,12,0,0.0122741637751,0.0439508594573,0.0107464920729,0.0,14.0,0.004105071496688963,0.014699284099431437,0.003594144505986622,14.0,0.0,0.015804182263617888,0.04688091546979662
1648219482159794846,75832,12,1,0.0334246940911,0.0146502861753,-0.0294275209308,0.0,14.0,0.01117882745521739,0.0048997612626421405,-0.009841980244414716,14.0,0.0,0.01655113370672634,0.04688091347482975
1648219482159807206,75833,12,2,1.20432043076,1.37126672268,0.110110774636,0.161837622523,14.0,0.4027827527625418,0.4586176330033444,0.03682634603210702,14.0,0.021869948989594594,0.7312988617162836,1.8283556840413846
1648219482159820455,75834,12,3,1.96283900738,0.12306240201,-0.0952538251877,-0.0809188112617,14.0,0.656467895444816,0.04115799398327759,-0.031857466617959865,14.0,-0.010934974494824324,0.9292976788780973,1.9689983785909686
1648219482354675699,75835,14,0,0.0122607154772,0.0439508594573,0.0107618328184,0.0,13.1000003815,0.00410057373819398,0.014699284099431437,0.003599275190100334,13.1000003815,0.0,0.015801846822461295,0.04688091548444185
1648219482354679315,75836,14,1,0.0334246940911,0.0146502861753,-0.0294275209308,0.0,13.1000003815,0.01117882745521739,0.0048997612626421405,-0.009841980244414716,13.1000003815,0.0,0.01655113370672634,0.04688091347482975
1648219482354682114,75837,14,2,2.14405083656,-1.14272224903,0.200342416763,0.0,13.1000003815,0.7170738583812708,-0.3821813541906354,0.06700415276354514,13.1000003815,0.0,1.0837215621360468,2.4378074600214545
1648219482354691365,75838,14,3,1.58267366886,0.0498109720647,0.18260012567,0.485512852669,13.1000003815,0.529322297277592,0.016659187981505015,0.061070276143812705,13.1000003815,0.06560984495527027,0.7487601200215313,1.5939510283993994
1648219482459774285,75839,15,0,0.0122741637751,0.0439508594573,0.0107464920729,0.0,23.5,0.004105071496688963,0.014699284099431437,0.003594144505986622,23.5,0.0,0.015804182263617888,0.04688091546979662
1648219482459777359,75840,15,1,0.0334894657135,0.0146502861753,-0.0293537899852,0.0,23.5,0.011200490205183945,0.0048997612626421405,-0.00981732106528428,23.5,0.0,0.01658039873174742,0.04688091493656141
1648219482459781603,75841,15,2,1.53148472309,0.256380021572,0.530239164829,0.161837622523,23.5,0.5122022485250836,0.08574582661270903,0.17733751332073577,23.5,0.021869948989594594,0.7294207520833224,1.6408320280997284
1648219482459904633,75842,15,3,0.287423104048,-1.4694237709,-2.32568144798,0.242756426334,23.5,0.09612812844414714,-0.49144607722408024,-0.7778198822675585,23.5,0.03280492247756756,0.5099024229941309,2.765974052066453
1648219482459908296,75843,15,4,2.15225625038,0.1728733778,1.728733778,0.242756426334,23.5,0.7198181439397993,0.05781718321070234,0.5781718321070234,23.5,0.03280492247756756,1.0196171572528068,2.765974086510919
1648219482460008865,75844,15,5,0.975964307785,-0.102552004158,-1.31503105164,-0.647350490093,23.5,0.32640946748662203,-0.034298329149832774,-0.43980971626755844,23.5,-0.08747979595851352,0.46288514375843887,1.6408320786736468
1648219482460012713,75845,15,6,1.51577007771,0.512760043144,0.363109230995,-0.647350490093,23.5,0.506946514284281,0.17149165322541807,0.12144121437959865,23.5,-0.08747979595851352,0.7371559698028312,1.6408321376544879
1648219482654668582,75846,17,0,0.00573791889474,0.0454158857465,0.0101140420884,0.0,23.3999996185,0.0019190364196454846,0.015189259446989964,0.0033826227720401333,23.3999996185,0.0,0.015429808945927536,0.04688091550671427
1648219482654671016,75847,17,1,0.0334385335445,0.0146502861753,-0.0294117927551,0.0,23.3999996185,0.011183456034949833,0.0048997612626421405,-0.009836719984983276,23.3999996185,0.0,0.01655738621287189,0.046880912573176205
1648219482654681828,75848,17,2,1.90495431423,0.120132349432,0.226391792297,0.0,23.3999996185,0.6371084662976588,0.040178043288294316,0.07571631849397992,23.3999996185,0.0,0.9019028056386044,1.9221175729655537
1648219482654709009,75849,17,3,1.58746433258,0.158223092556,0.55072426796,0.485512852669,23.3999996185,0.5309245259464882,0.05291742225953177,0.18418871838127088,23.3999996185,0.06560984495527027,0.7527031008848044,1.6877128824393464
1648219482759806271,75850,18,0,0.00567744718865,0.0454158857465,0.0101481107995,0.0,31.1000003815,0.001898811768779264,0.015189259446989964,0.0033940169897993307,31.1000003815,0.0,0.015424803882529047,0.046880915493599094
1648219482759808961,75851,18,1,0.0334476083517,0.0146502861753,-0.0294014774263,0.0,31.1000003815,0.011186491087525082,0.0048997612626421405,-0.009833270042240803,31.1000003815,0.0,0.01656148622960647,0.04688091577940992
1648219482759811268,75852,18,2,1.70280921459,0.167013257742,0.496185272932,0.242756426334,31.1000003815,0.5695014095618729,0.05585727683678929,0.1659482518167224,31.1000003815,0.03280492247756756,0.8073312494642716,1.7814748032539813
1648219482954670158,75853,20,0,0.00550643447787,0.0454158857465,0.0102419108152,0.0,21.7000007629,0.001841616882230769,0.015189259446989964,0.003425388232508361,21.7000007629,0.0,0.01541092820143578,0.04688091547681986
1648219482954675375,75854,20,1,0.0334476083517,0.0146502861753,-0.0294014774263,0.0,21.7000007629,0.011186491087525082,0.0048997612626421405,-0.009833270042240803,21.7000007629,0.0,0.01656148622960647,0.04688091577940992
1648219482954708151,75855,20,2,0.698693335056,1.31266570091,0.198253139853,0.0,21.7000007629,0.2336767006876254,0.4390186290668896,0.06630539794414715,21.7000007629,0.0,0.5494970041376743,1.5001892968085029
1648219482954714383,75856,20,3,1.91833329201,0.120132349432,0.0100946370512,0.0,21.7000007629,0.64158304080602,0.040178043288294316,0.0033761327930434777,21.7000007629,0.0,0.9082245711619314,1.9221176608915418
1648219482954742016,75857,20,4,1.73869931698,0.228544458747,0.517278134823,0.242756426334,21.7000007629,0.5815047882876254,0.07643627382842809,0.17300272067658862,21.7000007629,0.03280492247756756,0.8259165463650953,1.8283556965909669
1648219483059746950,75858,21,0,0.00567744718865,0.0454158857465,0.0101481107995,0.0,30.7000007629,0.001898811768779264,0.015189259446989964,0.0033940169897993307,30.7000007629,0.0,0.015424803882529047,0.046880915493599094
1648219483059760539,75859,21,1,0.0334476083517,0.0146502861753,-0.0294014774263,0.0,30.7000007629,0.011186491087525082,0.0048997612626421405,-0.009833270042240803,30.7000007629,0.0,0.01656148622960647,0.04688091577940992
1648219483059763645,75860,21,2,0.7999766469,1.26578474045,-0.0916200876236,0.0,30.7000007629,0.26755071802675584,0.42333937807692307,-0.03064216977377926,30.7000007629,0.0,0.5677878146489419,1.5001892831231656
1648219483059942918,75861,21,3,1.91156125069,0.120132349432,-0.161362543702,0.0,30.7000007629,0.6393181440434782,0.040178043288294316,-0.053967405920401335,30.7000007629,0.0,0.9050246702542816,1.9221175996877893
1648219483059946205,75862,21,4,1.75788116455,0.171408340335,0.47260722518,0.161837622523,30.7000007629,0.587920121923077,0.05732720412541805,0.15806261711705683,30.7000007629,0.021869948989594594,0.8334185910195001,1.8283557085830984
