%time,field.header.seq,field.header.frame_id,field.point_id,field.x,field.y,field.z,field.velocity,field.intensity,normalized_x,normalized_y,normalized_z,normalized_intensity,normalized_velocity,normalized_range,range
1648125749487998949,37543,0,0,0.0125994505361,0.0439508594573,0.0103632062674,0.0,12.0,0.004213863055551839,0.014699284099431437,0.003465955273377926,12.0,0.0,0.01586134410249293,0.04688091557326548
1648125749488007979,37544,0,1,0.032911542803,0.0146502861753,-0.0300003252923,0.0,12.0,0.01100720495083612,0.0048997612626421405,-0.010033553609464882,12.0,0.0,0.01631946022668369,0.046880913518570676
1648125749488014410,37545,0,2,1.10117173195,-0.140642747283,0.183261975646,0.0,12.0,0.36828486018394646,-0.047037708121404675,0.061291630650836114,12.0,0.0,0.5229531742582049,1.1251419987391582
1648125749488098423,37546,0,3,1.23469305038,-0.039555773139,0.276006340981,0.0,12.0,0.4129408195250836,-0.013229355564882942,0.09230981303712374,12.0,0.0,0.5841363340083866,1.265784771636558
1648125749488104116,37547,0,4,1.34466230869,0.0439508594573,0.409865617752,0.0,12.0,0.44971983568227425,0.014699284099431437,0.1370788019237458,12.0,0.0,0.6361697337701782,1.406427469538968
1648125749488116323,37548,0,5,2.39149522781,-0.984499275684,0.451526671648,0.0,12.0,0.7998311798695652,-0.32926397180066885,0.15101226476521737,12.0,0.0,1.178080895231322,2.6253313283602595
1648125749593087278,37549,1,0,0.0125994505361,0.0439508594573,0.0103632062674,0.0,11.6000003815,0.004213863055551839,0.014699284099431437,0.003465955273377926,11.6000003815,0.0,0.01586134410249293,0.04688091557326548
1648125749593091626,37550,1,1,0.0328872464597,0.0146502861753,-0.0300269592553,0.0,11.6000003815,0.010999079083511706,0.0048997612626421405,-0.010042461289397992,11.6000003815,0.0,0.0163084990664861,0.0468809145264753
1648125749593093699,37551,1,2,1.23714411259,-0.039555773139,0.264803081751,0.0,11.6000003815,0.4137605727725752,-0.013229355564882942,0.08856290359565216,11.6000003815,0.0,0.5852953434043715,1.265784692042667
1648125749593099554,37552,1,3,2.38387727737,-0.984499275684,0.490159064531,0.0,11.6000003815,0.7972833703578595,-0.32926397180066885,0.16393279750200668,11.6000003815,0.0,1.1746217724971417,2.6253315230509897
1648125749593122380,37553,1,4,1.08350026608,-0.0703213736415,0.295002788305,-0.161837622523,11.6000003815,0.36237467092976583,-0.023518854060702338,0.09866313990133778,11.6000003815,-0.021869948989594594,0.5130145619368331,1.125142020944015
1648125749788159778,37554,3,0,0.0126097733155,0.0439508594573,0.0103506427258,0.0,34.4000015259,0.004217315490133779,0.014699284099431437,0.0034617534199999998,34.4000015259,0.0,0.01586317915559307,0.04688091546611253
1648125749788162494,37555,3,1,0.0328872464597,0.0146502861753,-0.0300269592553,0.0,34.4000015259,0.010999079083511706,0.0048997612626421405,-0.010042461289397992,34.4000015259,0.0,0.0163084990664861,0.0468809145264753
1648125749788169902,37556,3,2,1.24254107475,-0.039555773139,0.238197788596,0.0,34.4000015259,0.4155655768394649,-0.013229355564882942,0.07966481223946488,34.4000015259,0.0,0.5878473553198112,1.2657848032432424
1648125749788312840,37557,3,3,2.38863253593,-0.984499275684,0.466434836388,0.0,34.4000015259,0.7988737578361202,-0.32926397180066885,0.15599827303946487,34.4000015259,0.0,1.1767809163325005,2.6253315356583067
1648125749788489023,37558,3,4,1.08228707314,-0.210964113474,0.223815470934,0.161837622523,34.4000015259,0.36196892078260867,-0.07055655969030099,0.07485467255317725,34.4000015259,0.021869948989594594,0.5167409673524869,1.1251420047661658
1648125749788498296,37559,3,5,0.986173987389,0.175803437829,-0.512346088886,0.161837622523,34.4000015259,0.32982407604983277,0.05879713639765886,-0.17135320698528425,34.4000015259,0.021869948989594594,0.4701329019892318,1.1251419896848556
1648125749788500606,37560,3,6,1.367872715,-0.181663542986,0.456100583076,0.161837622523,34.4000015259,0.4574825133779264,-0.06075703778795986,0.15254200102876253,34.4000015259,0.021869948989594594,0.6498245284182006,1.4533083462135503
1648125749893117101,37561,4,0,0.0126097733155,0.0439508594573,0.0103506427258,0.0,24.0,0.004217315490133779,0.014699284099431437,0.0034617534199999998,24.0,0.0,0.01586317915559307,0.04688091546611253
1648125749893131829,37562,4,1,0.0328872464597,0.0146502861753,-0.0300269592553,0.0,24.0,0.010999079083511706,0.0048997612626421405,-0.010042461289397992,24.0,0.0,0.0163084990664861,0.0468809145264753
1648125749893154678,37563,4,2,1.23681437969,-0.039555773139,0.266339033842,0.0,24.0,0.4136502942107023,-0.013229355564882942,0.08907659994715718,24.0,0.0,0.5851394258207724,1.2657847170607146
1648125749893163738,37564,4,3,2.41691613197,-0.902457654476,0.486262708902,0.0,24.0,0.8083331545050166,-0.30182530250033446,0.162629668529097,24.0,0.0,1.182329687766268,2.625331375115884
1648125749893182820,37565,4,4,1.33995401859,-0.363327085972,0.429676502943,0.0809188112617,24.0,0.4481451567190635,-0.12151407557591971,0.14370451603444817,24.0,0.010934974494824324,0.6453168474048839,1.4533083776396947
1648125749893239091,37566,4,5,0.842261075974,0.13624766469,1.17649388313,0.0809188112617,24.0,0.28169266754983274,0.04556778083277591,0.39347621509364544,24.0,0.010934974494824324,0.40097124654107696,1.4533082960186614
1648125749893249624,37567,4,6,1.14825630188,0.109877154231,0.207538455725,0.485512852669,24.0,0.3840322079866221,0.0367482121173913,0.06941085475752508,24.0,0.06560984495527027,0.544345390938497,1.1720229240222884
1648125749893252845,37568,4,7,1.13747859001,0.183128580451,0.215044647455,0.485512852669,24.0,0.38042762207692304,0.061247016873244145,0.07192128677424749,24.0,0.06560984495527027,0.5414808845694148,1.1720229605720962
1648125750088217733,37569,6,0,0.0125952418894,0.0439508594573,0.0103683201596,0.0,37.9000015259,0.004212455481404682,0.014699284099431437,0.003467665605217391,37.9000015259,0.0,0.015860596312920604,0.04688091539443103
1648125750088227013,37570,6,1,0.0328872464597,0.0146502861753,-0.0300269592553,0.0,37.9000015259,0.010999079083511706,0.0048997612626421405,-0.010042461289397992,37.9000015259,0.0,0.0163084990664861,0.0468809145264753
1648125750088403893,37571,6,2,1.22586214542,-0.079111546278,0.305310189724,0.0,37.9000015259,0.40998733960535116,-0.026458711129765885,0.10211043134581939,37.9000015259,0.0,0.5804130431580561,1.2657847164022509
1648125750088412407,37572,6,3,2.42392206192,-0.902457654476,0.450040757656,0.0,37.9000015259,0.810676274889632,-0.30182530250033446,0.15051530356387957,37.9000015259,0.0,1.185533870695932,2.6253313436472
1648125750088471538,37573,6,4,1.43851149082,0.093761831522,0.415284901857,0.161837622523,37.9000015259,0.4811075220133779,0.03135847208093645,0.13889127152408026,37.9000015259,0.021869948989594594,0.6811110403208545,1.5001893680405542
1648125750088515773,37574,6,5,1.37401282787,0.363327085972,0.303623586893,-0.647350490093,37.9000015259,0.45953606283277587,0.12151407557591971,0.10154635013143812,37.9000015259,-0.08747979595851352,0.6611448076259604,1.4533083310399035
1648125750088519017,37575,6,6,0.646236658096,0.287145614624,-1.10590088367,-0.566431701183,37.9000015259,0.21613266157056854,0.0960353226167224,-0.36986651627759193,37.9000015259,-0.07654482448418919,0.3203895097927736,1.3126656797398826
1648125750088522029,37576,6,7,0.536947965622,-0.69735366106,-0.973897337914,-0.566431701183,37.9000015259,0.17958125940535116,-0.23322864918394645,-0.3257181732153846,37.9000015259,-0.07654482448418919,0.3448107600690449,1.3126657118914038
1648125750192731551,37577,7,0,0.0126097733155,0.0439508594573,0.0103506427258,0.0,31.6000003815,0.004217315490133779,0.014699284099431437,0.0034617534199999998,31.6000003815,0.0,0.01586317915559307,0.04688091546611253
1648125750192734838,37578,7,1,0.032911542803,0.0146502861753,-0.0300003252923,0.0,31.6000003815,0.01100720495083612,0.0048997612626421405,-0.010033553609464882,31.6000003815,0.0,0.01631946022668369,0.046880913518570676
1648125750192744467,37579,7,2,1.14992451668,-0.0380907431245,0.402429074049,0.0,31.6000003815,0.3845901393578595,-0.01273937897140468,0.13459166356153845,31.6000003815,0.0,0.5440417652709879,1.2189037937480727
1648125750192751722,37580,7,3,1.35652840137,0.0424858294427,0.0799530744553,0.0,31.6000003815,0.45368842855183944,0.01420930750591973,0.02674015868070234,31.6000003815,0.0,0.6417696509055821,1.3595465580632893
1648125750192753623,37581,7,4,1.45765519142,0.093761831522,0.342078924179,0.242756426334,31.6000003815,0.4875100974648829,0.03135847208093645,0.11440766694949832,31.6000003815,0.03280492247756756,0.6901561736532464,1.500189297552645
1648125750192755249,37582,7,5,0.520428061485,-0.76474493742,-0.996336638927,-0.647350490093,31.6000003815,0.17405620785451503,-0.2557675375986622,-0.3332229561628762,31.6000003815,-0.08747979595851352,0.3549762812846393,1.3595465731481602
1648125750192756756,37583,7,6,1.30165541172,-0.297400802374,0.256150245667,-0.647350490093,31.6000003815,0.43533625810033444,-0.09946515129565217,0.08566897848394649,31.6000003815,-0.08747979595851352,0.6236414286718522,1.3595466143049038
1648125750293320702,37584,8,0,0.0126097733155,0.0439508594573,0.0103506427258,0.0,29.1000003815,0.004217315490133779,0.014699284099431437,0.0034617534199999998,29.1000003815,0.0,0.01586317915559307,0.04688091546611253
1648125750293342243,37585,8,1,0.0328872464597,0.0146502861753,-0.0300269592553,0.0,29.1000003815,0.010999079083511706,0.0048997612626421405,-0.010042461289397992,29.1000003815,0.0,0.0163084990664861,0.0468809145264753
1648125750293344247,37586,8,2,1.23069214821,-0.079111546278,0.285217791796,0.0,29.1000003815,0.4116027251538461,-0.026458711129765885,0.09539056581806019,29.1000003815,0.0,0.5826951776896678,1.2657847325581182
1648125750293348874,37587,8,3,1.35104691982,0.0424858294427,-0.145719453692,0.0,29.1000003815,0.4518551571304347,0.01420930750591973,-0.048735603241471574,29.1000003815,0.0,0.6391776517295779,1.3595466098824411
1648125750293622284,37588,8,4,2.41699838638,-0.902457654476,0.48585408926,0.0,29.1000003815,0.8083606643411371,-0.30182530250033446,0.16249300644147158,29.1000003815,0.0,1.1823673035641282,2.6253314483958996
1648125750293637514,37589,8,5,1.29718339443,-0.338421612978,0.772148013115,0.161837622523,29.1000003815,0.43384060014381265,-0.11318448594581938,0.2582434826471572,29.1000003815,0.021869948989594594,0.6238958731431924,1.5470702960993759
1648125750293647909,37590,8,6,1.53480005264,0.193383783102,0.0204448532313,0.161837622523,29.1000003815,0.5133110543946489,0.06467685053578595,0.006837743555618728,29.1000003815,0.021869948989594594,0.7288069512036234,1.5470702896682613
1648125750293661215,37591,8,7,1.26188385487,0.54499065876,0.471952795982,0.566431701183,29.1000003815,0.42203473407023406,0.18227112333110365,0.15784374447558527,29.1000003815,0.07654482448418919,0.6240588080652727,1.4533083371922344
1648125750293741354,37592,8,8,1.23215913773,-0.681238293648,0.360282421112,0.566431701183,29.1000003815,0.41209335710033446,-0.2278388941966555,0.12049579301404681,29.1000003815,0.07654482448418919,0.6257415054486976,1.4533083555757533
1648125750293767397,37593,8,9,1.36431241035,-0.408742964268,0.289284974337,-0.566431701183,29.1000003815,0.4562917760367892,-0.13670333253110367,0.09675082753745819,29.1000003815,-0.07654482448418919,0.6596151687785268,1.453308281215922
1648125750488352185,37594,10,0,0.0126097733155,0.0439508594573,0.0103506427258,0.0,30.2000007629,0.004217315490133779,0.014699284099431437,0.0034617534199999998,30.2000007629,0.0,0.01586317915559307,0.04688091546611253
1648125750488489009,37595,10,1,0.0328872464597,0.0146502861753,-0.0300269592553,0.0,30.2000007629,0.010999079083511706,0.0048997612626421405,-0.010042461289397992,30.2000007629,0.0,0.0163084990664861,0.0468809145264753
1648125750488519708,37596,10,2,1.23824346066,-0.079111546278,0.2504106462,0.0,30.2000007629,0.4141282477123745,-0.026458711129765885,0.08374937999999998,30.2000007629,0.0,0.5862631444166451,1.2657847353922587
1648125750488521821,37597,10,3,1.35701811314,-0.0424858294427,0.0711604356766,0.0,30.2000007629,0.45385221175250834,-0.01420930750591973,0.023799476814916388,30.2000007629,0.0,0.6420012185697821,1.3595466202742603
1648125750488545194,37598,10,4,2.26449942589,-0.83799636364,0.335722774267,0.0,30.2000007629,0.757357667521739,-0.28026634235451503,0.11228186430334447,30.2000007629,0.0,1.1071271362245243,2.437807485527012
1648125750488554699,37599,10,5,2.38774323463,-0.984499275684,0.470964998007,0.0,30.2000007629,0.7985763326521738,-0.32926397180066885,0.1575133772598662,30.2000007629,0.0,1.1763770999430168,2.625331332935214
1648125750488558319,37600,10,6,1.35230636597,0.241729736328,0.711519956589,0.161837622523,30.2000007629,0.4522763765785953,0.08084606566153846,0.23796654066521739,30.2000007629,0.021869948989594594,0.6447045276365573,1.5470702703796633
1648125750593267824,37601,11,0,0.0126303331926,0.0439508594573,0.0103255445138,0.0,34.0999984741,0.004224191703210702,0.014699284099431437,0.003453359369163879,34.0999984741,0.0,0.015866837874218862,0.04688091544645748
1648125750593276960,37602,11,1,0.0328872464597,0.0146502861753,-0.0300269592553,0.0,34.0999984741,0.010999079083511706,0.0048997612626421405,-0.010042461289397992,34.0999984741,0.0,0.0163084990664861,0.0468809145264753
1648125750593281102,37603,11,2,1.23495566845,-0.039555773139,0.274829059839,0.0,34.0999984741,0.4130286516555184,-0.013229355564882942,0.09191607352474916,34.0999984741,0.0,0.5842605155454313,1.265784805706483
1648125750593286038,37604,11,3,2.30470633507,-0.854111671448,0.364003688097,0.0,34.0999984741,0.7708047943377926,-0.2856560774073579,0.12174036391204013,34.0999984741,0.0,1.1268892831631738,2.484688455956542
1648125750593304944,37605,11,4,0.881511151791,-1.78586983681,-1.48569309711,0.0,34.0999984741,0.2948197832076923,-0.5972808818762542,-0.4968873234481605,34.0999984741,0.0,0.7284105030792302,2.484688504332077
1648125750593390697,37606,11,5,2.39021468163,-0.984499275684,0.458257228136,0.0,34.0999984741,0.7994029035551838,-0.32926397180066885,0.15326328700200667,34.0999984741,0.0,1.1774993705097547,2.625331357227276
1648125750593397898,37607,11,6,1.39719605446,-0.398487776518,0.655538737774,0.0809188112617,34.0999984741,0.46728965032107017,-0.1332735038521739,0.21924372500802672,34.0999984741,0.010934974494824324,0.6741521055543856,1.5939511784729103
1648125750788514724,37608,13,0,0.0126097733155,0.0439508594573,0.0103506427258,0.0,14.8999996185,0.004217315490133779,0.014699284099431437,0.0034617534199999998,14.8999996185,0.0,0.01586317915559307,0.04688091546611253
1648125750788515805,37609,13,1,0.0328239798546,0.0146502861753,-0.0300961062312,0.0,14.8999996185,0.010977919683812707,0.0048997612626421405,-0.010065587368294314,14.8999996185,0.0,0.01627996012278204,0.046880914547319234
1648125750788517128,37610,13,2,1.24315774441,-0.039555773139,0.234957695007,0.0,14.8999996185,0.41577182087290965,-0.013229355564882942,0.07858116889866221,14.8999996185,0.0,0.5881389545954355,1.2657847191043923
1648125750788518282,37611,13,3,1.40346813202,-0.0879017189145,-0.0242644362152,0.0,14.8999996185,0.46938733512374575,-0.02939856819882943,-0.008115196058595318,14.8999996185,0.0,0.6644646089606913,1.406427485741328
1648125750788527199,37612,13,4,2.26935338974,-0.83799636364,0.30116891861,0.0,14.8999996185,0.7589810668026755,-0.28026634235451503,0.10072539083946487,14.8999996185,0.0,1.1093483412285938,2.437807504815548
1648125750788534017,37613,13,5,2.3899140358,-0.984499275684,0.459823161364,0.0,14.8999996185,0.7993023531103678,-0.32926397180066885,0.1537870104896321,14.8999996185,0.0,1.1773628440296109,2.625331457561682
1648125750788705876,37614,13,6,1.25094556808,-0.398487776518,0.903893172741,0.0809188112617,14.8999996185,0.41837644417391295,-0.1332735038521739,0.30230540894347824,14.8999996185,0.010934974494824324,0.6064977534239101,1.5939511253677272
1648125750788708391,37615,13,7,1.58140993118,0.0996219441295,0.172910645604,0.0809188112617,14.8999996185,0.528899642535117,0.033318375963043476,0.057829647359197316,14.8999996185,0.010934974494824324,0.7487187575614517,1.593951063725002
1648125750893408302,37616,14,0,0.0126097733155,0.0439508594573,0.0103506427258,0.0,14.8999996185,0.004217315490133779,0.014699284099431437,0.0034617534199999998,14.8999996185,0.0,0.01586317915559307,0.04688091546611253
1648125750893411619,37617,14,1,0.0327995419502,0.0146502861753,-0.0301227364689,0.0,14.8999996185,0.010969746471638795,0.0048997612626421405,-0.010074493802307691,14.8999996185,0.0,0.016268937756809817,0.046880913915322876
1648125750893414382,37618,14,2,1.24634647369,-0.079111546278,0.206331700087,0.0,14.8999996185,0.41683828551505014,-0.026458711129765885,0.06900725755418059,14.8999996185,0.0,0.590091836866857,1.2657847130119664
1648125750893478022,37619,14,3,1.39209151268,-0.0879017189145,0.179980352521,0.0,14.8999996185,0.46558244571237456,-0.02939856819882943,0.06019409783311037,14.8999996185,0.0,0.6590889949947379,1.4064275378267441
1648125750893482021,37620,14,4,2.41690516472,-0.902457654476,0.486317574978,0.0,14.8999996185,0.8083294865284281,-0.30182530250033446,0.16264801838729095,14.8999996185,0.0,1.1823246723349905,2.6253314413812623
1648125750893483984,37621,14,5,1.33965528011,-0.298865824938,0.810359716415,0.0809188112617,14.8999996185,0.4480452441839464,-0.09995512539732442,0.2710233165267559,14.8999996185,0.010934974494824324,0.6414671533016317,1.5939510409139526
1648125751088218854,37622,16,0,0.0125891612843,0.0439508594573,0.0103757027537,0.0,14.6000003815,0.004210421834214047,0.014699284099431437,0.0034701347002341135,14.6000003815,0.0,0.015859516294006278,0.04688091548285499
1648125751088226971,37623,16,1,0.032911542803,0.0146502861753,-0.0300003252923,0.0,14.6000003815,0.01100720495083612,0.0048997612626421405,-0.010033553609464882,14.6000003815,0.0,0.01631946022668369,0.046880913518570676
1648125751088229965,37624,16,2,1.23488032818,-0.039555773139,0.275167405605,0.0,14.6000003815,0.41300345424080265,-0.013229355564882942,0.09202923264381271,14.6000003815,0.0,0.5842248901564633,1.2657848099981115
1648125751088372102,37625,16,3,2.41979455948,-0.902457654476,0.471729695797,0.0,14.6000003815,0.8092958392909699,-0.30182530250033446,0.15776912902909698,14.6000003815,0.0,1.1836460721925155,2.6253312998758958
1648125751193378833,37626,17,0,0.0125787733123,0.0439508594573,0.0103882942349,0.0,12.8999996185,0.004206947596086956,0.014699284099431437,0.003474345897959866,12.8999996185,0.0,0.01585767224999437,0.04688091554341088
1648125751193387291,37627,17,1,0.0328872464597,0.0146502861753,-0.0300269592553,0.0,12.8999996185,0.010999079083511706,0.0048997612626421405,-0.010042461289397992,12.8999996185,0.0,0.0163084990664861,0.0468809145264753
1648125751193390335,37628,17,2,1.23534047604,-0.079111546278,0.264359980822,0.0,12.8999996185,0.4131573498461538,-0.026458711129765885,0.08841470930501673,12.8999996185,0.0,0.5848914898153696,1.2657847083755744
1648125751193393138,37629,17,3,1.88942742348,-1.31852579117,0.431398779154,0.0,12.8999996185,0.6319155262474916,-0.44097852547491634,0.1442805281451505,12.8999996185,0.0,0.996542284379002,2.344045894865181
1648125751193493928,37630,17,4,2.38752245903,-0.984499275684,0.472082704306,0.0,12.8999996185,0.7985024946588628,-0.32926397180066885,0.15788719207558527,12.8999996185,0.0,1.176276851374202,2.625331292599059
1648125751388080684,37631,19,0,0.0125952418894,0.0439508594573,0.0103683201596,0.0,13.1000003815,0.004212455481404682,0.014699284099431437,0.003467665605217391,13.1000003815,0.0,0.015860596312920604,0.04688091539443103
1648125751388090338,37632,19,1,0.0327710583806,0.0146502861753,-0.0301537234336,0.0,13.1000003815,0.010960220194180602,0.0048997612626421405,-0.010084857335652174,13.1000003815,0.0,0.0162560915917922,0.04688091497947665
1648125751388094067,37633,19,2,1.21899402142,-0.079111546278,0.331671446562,0.0,13.1000003815,0.407690308167224,-0.026458711129765885,0.11092690520468226,13.1000003815,0.0,0.5771679462181009,1.2657847405766627
1648125751388096623,37634,19,3,1.86378276348,-1.31852579117,0.531370937824,0.0,13.1000003815,0.6233387168829431,-0.44097852547491634,0.17771603271705685,13.1000003815,0.0,0.9856796497141346,2.3440459733097336
1648125751388156027,37635,19,4,2.27668881416,-0.83799636364,0.239489734173,0.0,13.1000003815,0.7614343860066889,-0.28026634235451503,0.08009690106120401,13.1000003815,0.0,1.1127056533708923,2.4378074564594687
1648125751388185477,37636,19,5,2.41720604897,-0.902457654476,0.484819471836,0.0,13.1000003815,0.8084301167123744,-0.30182530250033446,0.16214698054715718,13.1000003815,0.0,1.1824622701991743,2.6253313736690114
1648125751388191602,37637,19,6,1.31461703777,-0.348676800728,0.831195771694,-0.0809188112617,13.1000003815,0.43967125009030095,-0.11661431462474915,0.27799189688762543,13.1000003815,-0.010934974494824324,0.6326298401809196,1.59395102755482
1648125751388198158,37638,19,7,1.46000599861,0.199243888259,-0.607753753662,-0.0809188112617,13.1000003815,0.48829632060535116,0.06663675192608695,-0.20326212497056856,13.1000003815,-0.010934974494824324,0.6937629639442471,1.593951149839919
1648125751493459535,37639,20,0,0.0125994505361,0.0439508594573,0.0103632062674,0.0,14.8000001907,0.004213863055551839,0.014699284099431437,0.003465955273377926,14.8000001907,0.0,0.01586134410249293,0.04688091557326548
1648125751493461516,37640,20,1,0.0328239798546,0.0146502861753,-0.0300961062312,0.0,14.8000001907,0.010977919683812707,0.0048997612626421405,-0.010065587368294314,14.8000001907,0.0,0.01627996012278204,0.046880914547319234
1648125751493463265,37641,20,2,1.22023928165,-0.0,0.336492210627,0.0,14.8000001907,0.4081067831605351,-0.0,0.11253920087859531,14.8000001907,0.0,0.5771501476420846,1.2657847021884698
1648125751493465508,37642,20,3,2.42145872116,-0.902457654476,0.463112384081,0.0,14.8000001907,0.8098524151036789,-0.30182530250033446,0.15488708497692305,14.8000001907,0.0,1.184407185780271,2.625331452729985
1648125751688422610,37643,22,0,0.0125994505361,0.0439508594573,0.0103632062674,0.0,13.1999998093,0.004213863055551839,0.014699284099431437,0.003465955273377926,13.1999998093,0.0,0.01586134410249293,0.04688091557326548
1648125751688428908,37644,22,1,0.0327995419502,0.0146502861753,-0.0301227364689,0.0,13.1999998093,0.010969746471638795,0.0048997612626421405,-0.010074493802307691,13.1999998093,0.0,0.016268937756809817,0.046880913915322876
1648125751688434770,37645,22,2,1.22928845882,-0.079111546278,0.291208475828,0.0,13.1999998093,0.41113326381939796,-0.026458711129765885,0.0973941390729097,13.1999998093,0.0,0.5820319446836486,1.265784787448725
1648125751688459422,37646,22,3,2.2796356678,-0.83799636364,0.209591895342,0.0,13.1999998093,0.7624199557859531,-0.28026634235451503,0.07009762386020067,13.1999998093,0.0,1.1140545770374484,2.437807507981889
1648125751688544786,37647,22,4,2.41942548752,-0.902457654476,0.473619967699,0.0,13.1999998093,0.8091724038528427,-0.30182530250033446,0.1584013269896321,13.1999998093,0.0,1.1834772796904023,2.625331480325278
1648125751793402716,37648,23,0,0.0125890737399,0.0439508594573,0.0103758089244,0.0,12.8999996185,0.004210392555150501,0.014699284099431437,0.003470170208829431,12.8999996185,0.0,0.01585950074790286,0.0468809154720728
1648125751793405749,37649,23,1,0.032911542803,0.0146502861753,-0.0300003252923,0.0,12.8999996185,0.01100720495083612,0.0048997612626421405,-0.010033553609464882,12.8999996185,0.0,0.01631946022668369,0.046880913518570676
1648125751793409570,37650,23,2,1.23235440254,-0.039555773139,0.286267191172,0.0,12.8999996185,0.41215866305685617,-0.013229355564882942,0.0957415355090301,12.8999996185,0.0,0.5830304819769652,1.2657847121014894
1648125751793412102,37651,23,3,2.4170024395,-0.902457654476,0.485833287239,0.0,12.8999996185,0.8083620198996655,-0.30182530250033446,0.16248604924381269,12.8999996185,0.0,1.1823691571002488,2.6253313302630445
1648125751988276181,37652,25,0,0.0126097733155,0.0439508594573,0.0103506427258,0.0,12.1999998093,0.004217315490133779,0.014699284099431437,0.0034617534199999998,12.1999998093,0.0,0.01586317915559307,0.04688091546611253
1648125751988288774,37653,25,1,0.0328872464597,0.0146502861753,-0.0300269592553,0.0,12.1999998093,0.010999079083511706,0.0048997612626421405,-0.010042461289397992,12.1999998093,0.0,0.0163084990664861,0.0468809145264753
1648125751988291383,37654,25,2,1.22011530399,-0.079111546278,0.327522426844,0.0,12.1999998093,0.4080653190602006,-0.026458711129765885,0.10953927319197324,12.1999998093,0.0,0.5776977346623882,1.2657847099214343
1648125751988399391,37655,25,3,2.38702440262,-0.984499275684,0.474595159292,0.0,12.1999998093,0.7983359206086955,-0.32926397180066885,0.15872747802408027,12.1999998093,0.0,1.1760506993298454,2.6253313862728045
1648125752093377879,37656,26,0,0.0125994505361,0.0439508594573,0.0103632062674,0.0,12.1000003815,0.004213863055551839,0.014699284099431437,0.003465955273377926,12.1000003815,0.0,0.01586134410249293,0.04688091557326548
1648125752093380436,37657,26,1,0.0328872464597,0.0146502861753,-0.0300269592553,0.0,12.1000003815,0.010999079083511706,0.0048997612626421405,-0.010042461289397992,12.1000003815,0.0,0.0163084990664861,0.0468809145264753
1648125752093383364,37658,26,2,1.2150810957,-0.039555773139,0.352454602718,0.0,12.1000003815,0.4063816373578595,-0.013229355564882942,0.11787779355117056,12.1000003815,0.0,0.5748626672623399,1.2657847270737785
1648125752093387630,37659,26,3,2.3880341053,-0.984499275684,0.469487786293,0.0,12.1000003815,0.798673613812709,-0.32926397180066885,0.15701932651939798,12.1000003815,0.0,1.1765091780038335,2.6253313111637153
1648125752288366374,37660,28,0,0.0126097733155,0.0439508594573,0.0103506427258,0.0,11.8999996185,0.004217315490133779,0.014699284099431437,0.0034617534199999998,11.8999996185,0.0,0.01586317915559307,0.04688091546611253
1648125752288378747,37661,28,1,0.0328872464597,0.0146502861753,-0.0300269592553,0.0,11.8999996185,0.010999079083511706,0.0048997612626421405,-0.010042461289397992,11.8999996185,0.0,0.0163084990664861,0.0468809145264753
1648125752288502189,37662,28,2,1.16634070873,-0.0380907431245,0.352029800415,0.0,11.8999996185,0.3900805045919732,-0.01273937897140468,0.11773571920234112,11.8999996185,0.0,0.5518042151905275,1.218903824726463
1648125752288506130,37663,28,3,1.35953390598,-0.0,0.00587614905089,0.0,11.8999996185,0.45469361404013375,-0.0,0.0019652672411003343,11.8999996185,0.0,0.6430338756999947,1.359546604805037
1648125752288654690,37664,28,4,2.39444613457,-0.984499275684,0.435608416796,0.0,11.8999996185,0.8008181052073577,-0.32926397180066885,0.14568843371103676,11.8999996185,0.0,1.1794210606826372,2.6253315615295247
1648125752393475728,37665,29,0,0.0126097733155,0.0439508594573,0.0103506427258,0.0,11.6000003815,0.004217315490133779,0.014699284099431437,0.0034617534199999998,11.6000003815,0.0,0.01586317915559307,0.04688091546611253
1648125752393488331,37666,29,1,0.032811075449,0.0146502861753,-0.0301101729274,0.0,11.6000003815,0.01097360382909699,0.0048997612626421405,-0.01007029194896321,11.6000003815,0.0,0.016274139683154765,0.04688091371609654
1648125752393492729,37667,29,2,1.19903695583,-0.039555773139,0.403679192066,0.0,11.6000003815,0.4010157042909699,-0.013229355564882942,0.13500976323277591,11.6000003815,0.0,0.5672761285517197,1.2657848042782613
1648125752393494762,37668,29,3,1.35913598537,-0.0,-0.0334102511406,0.0,11.6000003815,0.4545605302240802,-0.0,-0.011173997036989965,11.6000003815,0.0,0.6428456667623994,1.3595465683855625
1648125752588372747,37669,31,0,0.0126097733155,0.0439508594573,0.0103506427258,0.0,21.6000003815,0.004217315490133779,0.014699284099431437,0.0034617534199999998,21.6000003815,0.0,0.01586317915559307,0.04688091546611253
1648125752588377328,37670,31,1,0.0328872464597,0.0146502861753,-0.0300269592553,0.0,21.6000003815,0.010999079083511706,0.0048997612626421405,-0.010042461289397992,21.6000003815,0.0,0.0163084990664861,0.0468809145264753
1648125752588383251,37671,31,2,1.20505750179,-0.039555773139,0.385334610939,0.0,21.6000003815,0.403029264812709,-0.013229355564882942,0.12887445181906354,21.6000003815,0.0,0.5701229625612422,1.2657847384909058
1648125752588545871,37672,31,3,1.35953009129,-0.0,0.00669649476185,0.0,21.6000003815,0.45469233822408023,-0.0,0.002239630355133779,21.6000003815,0.0,0.6430320714236287,1.359546583300878
1648125752693521212,37673,32,0,0.0125994505361,0.0439508594573,0.0103632062674,0.0,21.5,0.004213863055551839,0.014699284099431437,0.003465955273377926,21.5,0.0,0.01586134410249293,0.04688091557326548
1648125752693550463,37674,32,1,0.032811075449,0.0146502861753,-0.0301101729274,0.0,21.5,0.01097360382909699,0.0048997612626421405,-0.01007029194896321,21.5,0.0,0.016274139683154765,0.04688091371609654
1648125752693557237,37675,32,2,1.20280432701,-0.039555773139,0.392311364412,0.0,21.5,0.4022756946521739,-0.013229355564882942,0.13120781418461536,21.5,0.0,0.5690575409081582,1.2657847822238217
1648125752693560477,37676,32,3,1.35861837864,-0.0,0.0502276457846,0.0,21.5,0.4543874176053511,-0.0,0.016798543740668893,21.5,0.0,0.6426008485491748,1.3595465108555298
1648125752693568113,37677,32,4,2.393491745,-0.984499275684,0.440821498632,0.0,21.5,0.8004989113712374,-0.32926397180066885,0.147431939341806,21.5,0.0,1.1789876069488705,2.6253314363831524
1648125752888409422,37678,34,0,0.0126200793311,0.0439508594573,0.0103380745277,0.0,12.0,0.004220762318093645,0.014699284099431437,0.0034575500092642137,12.0,0.0,0.015865012515831067,0.0468809154592663
1648125752888412596,37679,34,1,0.0328872464597,0.0146502861753,-0.0300269592553,0.0,12.0,0.010999079083511706,0.0048997612626421405,-0.010042461289397992,12.0,0.0,0.0163084990664861,0.0468809145264753
1648125752888418188,37680,34,2,1.20281660557,-0.039555773139,0.392273545265,0.0,12.0,0.40227980119397994,-0.013229355564882942,0.13119516564046824,12.0,0.0,0.5690633468657054,1.2657847289876478
1648125752888594008,37681,34,3,2.23184609413,-0.83799636364,0.509441494942,0.0,12.0,0.7464368207792641,-0.28026634235451503,0.17038177088361203,12.0,0.0,1.0921927840298566,2.43780752524188
1648125752888597704,37682,34,4,2.38390445709,-0.984499275684,0.490026056767,0.0,12.0,0.7972924605652173,-0.32926397180066885,0.16388831329999998,12.0,0.0,1.1746341125960156,2.6253313734967825
1648125752993418350,37683,35,0,0.0126200793311,0.0439508594573,0.0103380745277,0.0,11.3999996185,0.004220762318093645,0.014699284099431437,0.0034575500092642137,11.3999996185,0.0,0.015865012515831067,0.0468809154592663
1648125752993434419,37684,35,1,0.0328872464597,0.0146502861753,-0.0300269592553,0.0,11.3999996185,0.010999079083511706,0.0048997612626421405,-0.010042461289397992,11.3999996185,0.0,0.0163084990664861,0.0468809145264753
1648125752993452196,37685,35,2,1.22872066498,-0.0,0.304066568613,0.0,11.3999996185,0.4109433662140468,-0.0,0.1016945045528428,11.3999996185,0.0,0.5811616818671586,1.2657847173579628
1648125752993458827,37686,35,3,2.38104891777,-0.984499275684,0.50371825695,0.0,11.3999996185,0.7963374306923076,-0.32926397180066885,0.16846764446488294,11.3999996185,0.0,1.1733377050828986,2.6253313800396234
1648125753188246455,37687,37,0,0.0126097733155,0.0439508594573,0.0103506427258,0.0,11.6000003815,0.004217315490133779,0.014699284099431437,0.0034617534199999998,11.6000003815,0.0,0.01586317915559307,0.04688091546611253
1648125753188329378,37688,37,1,0.0328872464597,0.0146502861753,-0.0300269592553,0.0,11.6000003815,0.010999079083511706,0.0048997612626421405,-0.010042461289397992,11.6000003815,0.0,0.0163084990664861,0.0468809145264753
1648125753188340400,37689,37,2,1.23672235012,-0.039555773139,0.26676607132,0.0,11.6000003815,0.413619515090301,-0.013229355564882942,0.08921942184615385,11.6000003815,0.0,0.5850959086985086,1.2657847239094282
1648125753188344917,37690,37,3,2.38450670242,-0.984499275684,0.487086951733,0.0,11.6000003815,0.7974938804080267,-0.32926397180066885,0.16290533502775917,11.6000003815,0.0,1.1749075460232843,2.6253313574207673
1648125753293250099,37691,38,0,0.0126303331926,0.0439508594573,0.0103255445138,0.0,12.3999996185,0.004224191703210702,0.014699284099431437,0.003453359369163879,12.3999996185,0.0,0.015866837874218862,0.04688091544645748
1648125753293257453,37692,38,1,0.0328744277358,0.0146502861753,-0.0300409924239,0.0,12.3999996185,0.010994791884882943,0.0048997612626421405,-0.010047154656822743,12.3999996185,0.0,0.01630271626492543,0.04688091413131083
1648125753293277986,37693,38,2,1.2391422987,-0.0,0.258335739374,0.0,12.3999996185,0.41442886244147153,-0.0,0.0863999128341137,12.3999996185,0.0,0.5860909179035828,1.2657847331459766
1648125753293282718,37694,38,3,2.39095401764,-0.984499275684,0.454384207726,0.0,12.3999996185,0.7996501731237458,-0.32926397180066885,0.15196796245016722,12.3999996185,0.0,1.1778351165929912,2.625331397466225
1648125753488387767,37695,40,0,0.0125994505361,0.0439508594573,0.0103632062674,0.0,12.8000001907,0.004213863055551839,0.014699284099431437,0.003465955273377926,12.8000001907,0.0,0.01586134410249293,0.04688091557326548
1648125753488397102,37696,40,1,0.0328239798546,0.0146502861753,-0.0300961062312,0.0,12.8000001907,0.010977919683812707,0.0048997612626421405,-0.010065587368294314,12.8000001907,0.0,0.01627996012278204,0.046880914547319234
1648125753488400540,37697,40,2,1.24006068707,-0.039555773139,0.250790268183,0.0,12.8000001907,0.4147360157424749,-0.013229355564882942,0.08387634387391303,12.8000001907,0.0,0.5866744764829529,1.2657847073734323
1648125753488404799,37698,40,3,1.33343148232,0.096691891551,0.778484106064,0.0,12.8000001907,0.44596370646153843,0.032338425267892976,0.26036257727892975,12.8000001907,0.0,0.6315164516547717,1.5470702451175538
1648125753488582808,37699,40,4,1.89701259136,-1.31852579117,0.396716713905,0.0,12.8000001907,0.6344523716923076,-0.44097852547491634,0.13268117521906353,12.8000001907,0.0,0.9997608133058724,2.3440459007558783
1648125753488586324,37700,40,5,2.39035749435,-0.984499275684,0.457512706518,0.0,12.8000001907,0.7994506670066889,-0.32926397180066885,0.15301428311638796,12.8000001907,0.0,1.1775642237605688,2.6253315316818475
1648125753593516565,37701,41,0,0.0125994505361,0.0439508594573,0.0103632062674,0.0,12.3000001907,0.004213863055551839,0.014699284099431437,0.003465955273377926,12.3000001907,0.0,0.01586134410249293,0.04688091557326548
1648125753593519759,37702,41,1,0.0328239798546,0.0146502861753,-0.0300961062312,0.0,12.3000001907,0.010977919683812707,0.0048997612626421405,-0.010065587368294314,12.3000001907,0.0,0.01627996012278204,0.046880914547319234
1648125753593523071,37703,41,2,1.22598445415,-0.079111546278,0.304819017649,0.0,12.3000001907,0.410028245535117,-0.026458711129765885,0.10194615974882942,12.3000001907,0.0,0.5804708327451611,1.2657847969115725
1648125753593527973,37704,41,3,1.88768458366,-1.31852579117,0.438962072134,0.0,12.3000001907,0.6313326366755853,-0.44097852547491634,0.14681005756989965,12.3000001907,0.0,0.9958031212009352,2.344045872021338
1648125753593532576,37705,41,4,2.39291906357,-0.984499275684,0.443919450045,0.0,12.3000001907,0.8003073791204013,-0.32926397180066885,0.14846804349331102,12.3000001907,0.0,1.1787275195205562,2.6253313975091412
1648125753788457520,37706,43,0,0.0125994505361,0.0439508594573,0.0103632062674,0.0,12.3000001907,0.004213863055551839,0.014699284099431437,0.003465955273377926,12.3000001907,0.0,0.01586134410249293,0.04688091557326548
1648125753788555883,37707,43,1,0.0328872464597,0.0146502861753,-0.0300269592553,0.0,12.3000001907,0.010999079083511706,0.0048997612626421405,-0.010042461289397992,12.3000001907,0.0,0.0163084990664861,0.0468809145264753
1648125753788558158,37708,43,2,1.23395872116,-0.079111546278,0.270736396313,0.0,12.3000001907,0.41269522446822743,-0.026458711129765885,0.0905472897367893,12.3000001907,0.0,0.5842386156292733,1.265784720467848
1648125753788560006,37709,43,3,1.88050341606,-1.31852579117,0.468772888184,0.0,12.3000001907,0.6289309083812709,-0.44097852547491634,0.1567802301618729,12.3000001907,0.0,0.992758900722936,2.3440459424870865
1648125753788561146,37710,43,4,2.25266122818,-0.914177834988,0.18083705008,0.0,12.3000001907,0.7533984040735785,-0.30574509531371236,0.06048061875585284,12.3000001907,0.0,1.1084666769143856,2.4378075727198834
1648125753788562237,37711,43,5,0.800190627575,-0.076181486249,-2.30147719383,0.0,12.3000001907,0.26762228346989964,-0.02547875794280936,-0.7697248139899664,12.3000001907,0.0,0.37933170224171203,2.437807607877535
1648125753788566411,37712,43,6,2.39417099953,-0.984499275684,0.43711695075,0.0,12.3000001907,0.8007260867993311,-0.32926397180066885,0.14619296011705685,12.3000001907,0.0,1.1792961016165073,2.62533137478791
1648125753893602867,37713,44,0,0.0125994505361,0.0439508594573,0.0103632062674,0.0,12.5,0.004213863055551839,0.014699284099431437,0.003465955273377926,12.5,0.0,0.01586134410249293,0.04688091557326548
1648125753893611584,37714,44,1,0.0328872464597,0.0146502861753,-0.0300269592553,0.0,12.5,0.010999079083511706,0.0048997612626421405,-0.010042461289397992,12.5,0.0,0.0163084990664861,0.0468809145264753
1648125753893614994,37715,44,2,1.23762142658,-0.039555773139,0.262563318014,0.0,12.5,0.41392020955852843,-0.013229355564882942,0.08781381873377926,12.5,0.0,0.5855210462576168,1.2657847173532548
1648125753893617458,37716,44,3,2.39336419106,-0.984499275684,0.44151315093,0.0,12.5,0.8004562511906353,-0.32926397180066885,0.147663261180602,12.5,0.0,1.1789296769808972,2.625331376667476
1648125754088391926,37717,46,0,0.0125994505361,0.0439508594573,0.0103632062674,0.0,12.1000003815,0.004213863055551839,0.014699284099431437,0.003465955273377926,12.1000003815,0.0,0.01586134410249293,0.04688091557326548
1648125754088400536,37718,46,1,0.032911542803,0.0146502861753,-0.0300003252923,0.0,12.1000003815,0.01100720495083612,0.0048997612626421405,-0.010033553609464882,12.1000003815,0.0,0.01631946022668369,0.046880913518570676
1648125754088403245,37719,46,2,1.22663402557,-0.079111546278,0.302194058895,0.0,12.1000003815,0.41024549350167216,-0.026458711129765885,0.10106824712207357,12.1000003815,0.0,0.5807777486022596,1.2657847047077138
1648125754088406648,37720,46,3,2.3820130825,-0.984499275684,0.499138861895,0.0,12.1000003815,0.796659893812709,-0.32926397180066885,0.16693607421237458,12.1000003815,0.0,1.1737754197227446,2.6253313605100037
