%time,field.header.seq,field.header.frame_id,field.point_id,field.x,field.y,field.z,field.velocity,field.intensity,normalized_x,normalized_y,normalized_z,normalized_intensity,normalized_velocity,normalized_range,range
1648126132991698085,56036,0,0,0.0126302465796,0.0439508594573,0.0103256506845,0.0,14.0,0.004224162735652174,0.014699284099431437,0.003453394877759197,14.0,0.0,0.015866822450331473,0.046880915496128585
1648126132991704266,56037,0,1,0.0328889451921,0.0146502861753,-0.0300250984728,0.0,14.0,0.010999647221438126,0.0048997612626421405,-0.010041838954113712,14.0,0.0,0.016309265416415034,0.04688091444467014
1648126132991744761,56038,0,2,1.24996745586,-0.0,0.199480071664,0.0,14.0,0.4180493163411371,-0.0,0.06671574303143812,14.0,0.0,0.5912110129104364,1.2657847130141033
1648126132991796540,56039,0,3,1.35488593578,-0.0849716588855,-0.0736935660243,0.0,14.0,0.4531391089565217,-0.028418615011872907,-0.02464667760010033,14.0,0.0,0.6414652927563688,1.3595465506784157
1648126132991801549,56040,0,4,2.41091299057,-0.902457654476,0.515203356743,0.0,14.0,0.8063254149063545,-0.30182530250033446,0.17230881496421405,14.0,0.0,1.179584614462747,2.6253315533510735
1648126132991805463,56041,0,5,1.08451855183,0.0703213736415,0.291236639023,-0.0809188112617,14.0,0.3627152347257525,0.023518854060702338,0.09740355820167224,14.0,-0.010934974494824324,0.5134956859610839,1.1251419309419062
1648126133096704964,56042,1,0,0.0126055367291,0.0439508594573,0.0103558013216,0.0,21.3999996185,0.004215898571605351,0.014699284099431437,0.003463478702876254,21.3999996185,0.0,0.015862425872732264,0.046880915352374236
1648126133096767757,56043,1,1,0.0327492877841,0.0146502861753,-0.0301773659885,0.0,21.3999996185,0.010952939058227425,0.0048997612626421405,-0.010092764544648828,21.3999996185,0.0,0.016246273679135663,0.04688091459632442
1648126133096773952,56044,1,2,1.25244402885,0.079111546278,0.165336981416,0.0,21.3999996185,0.41887760162207355,0.026458711129765885,0.05529664930301003,21.3999996185,0.0,0.5929729788750661,1.265784736667444
1648126133096779568,56045,1,3,1.35881376266,-0.0424858294427,-0.0136733315885,0.0,21.3999996185,0.45445276343143814,-0.01420930750591973,-0.004573020598160535,21.3999996185,0.0,0.6428503191262638,1.3595465594434015
1648126133096784198,56046,1,4,2.38607549667,-0.984499275684,0.479343116283,0.0,21.3999996185,0.7980185607591973,-0.32926397180066885,0.16031542350602007,21.3999996185,0.0,1.1756198406620708,2.625331392940557
1648126133097008576,56047,1,5,1.34113633633,-0.227079421282,0.511754989624,0.161837622523,21.3999996185,0.4485405807123745,-0.07594629474314381,0.17115551492441472,21.3999996185,0.021869948989594594,0.6388623832851648,1.453308262413547
1648126133097017154,56048,1,6,1.0916506052,0.175803437829,0.20817412436,0.242756426334,21.3999996185,0.3651005368561872,0.05879713639765886,0.0696234529632107,21.3999996185,0.03280492247756756,0.5196671119802726,1.1251419282202018
1648126133291585945,56049,3,0,0.0126200383529,0.0439508594573,0.0103381248191,0.0,33.5,0.004220748613010033,0.014699284099431437,0.0034575668291304345,33.5,0.0,0.015865005223580926,0.04688091551835667
1648126133291686554,56050,3,1,0.0328889451921,0.0146502861753,-0.0300250984728,0.0,33.5,0.010999647221438126,0.0048997612626421405,-0.010041838954113712,33.5,0.0,0.016309265416415034,0.04688091444467014
1648126133291692190,56051,3,2,1.23377728462,-0.0,0.282850712538,0.0,33.5,0.4126345433511705,-0.0,0.09459890051438126,33.5,0.0,0.5835533675108542,1.2657847027151001
1648126133291706063,56052,3,3,1.31551039219,-0.0849716588855,0.332534193993,0.0,33.5,0.43997003083277586,-0.028418615011872907,0.1112154494959866,33.5,0.0,0.6228602361213794,1.359546529158975
1648126133291709498,56053,3,4,0.73089915514,-0.681238293648,-1.05537009239,-0.242756426334,33.5,0.24444787797324413,-0.2278388941966555,-0.35296658608361203,33.5,-0.03280492247756756,0.4140290953544194,1.4533083704527685
1648126133291712334,56054,3,5,1.39728271961,-0.090831771493,0.389173030853,-0.242756426334,33.5,0.4673186353210702,-0.03037851889397993,0.13015820429866218,33.5,-0.03280492247756756,0.6615861759792799,1.453308314562531
1648126133396745032,56055,4,0,0.0126200383529,0.0439508594573,0.0103381248191,0.0,36.5,0.004220748613010033,0.014699284099431437,0.0034575668291304345,36.5,0.0,0.015865005223580926,0.04688091551835667
1648126133396757153,56056,4,1,0.0328372865915,0.0146502861753,-0.0300815850496,0.0,36.5,0.010982370097491638,0.0048997612626421405,-0.010060730785819396,36.5,0.0,0.01628596224812785,0.04688091333161941
1648126133396770553,56057,4,2,1.22491431236,0.079111546278,0.309091329575,0.0,36.5,0.40967033858193974,0.026458711129765885,0.10337502661371237,36.5,0.0,0.5799652024236719,1.2657847997970701
1648126133396777377,56058,4,3,1.35305285454,-0.0424858294427,-0.125737443566,0.0,36.5,0.4525260383076923,-0.01420930750591973,-0.042052656711036786,36.5,0.0,0.6401261868668612,1.359546607364672
1648126133396952178,56059,4,4,2.38968420029,-0.984499275684,0.461015850306,0.0,36.5,0.7992254850468227,-0.32926397180066885,0.15418590311237457,36.5,0.0,1.1772584741774466,2.625331410540647
1648126133591599197,56060,6,0,0.0126302465796,0.0439508594573,0.0103256506845,0.0,12.6000003815,0.004224162735652174,0.014699284099431437,0.003453394877759197,12.6000003815,0.0,0.015866822450331473,0.046880915496128585
1648126133591604450,56061,6,1,0.0328372865915,0.0146502861753,-0.0300815850496,0.0,12.6000003815,0.010982370097491638,0.0048997612626421405,-0.010060730785819396,12.6000003815,0.0,0.01628596224812785,0.04688091333161941
1648126133591610671,56062,6,2,1.19043540955,-0.0,0.261897116899,0.0,12.6000003815,0.3981389329598662,-0.0,0.08759100899632108,12.6000003815,0.0,0.5630534787005952,1.2189038371218972
1648126133591616512,56063,6,3,1.40236020088,-0.0879017189145,0.0608084760606,0.0,12.6000003815,0.46901678959197324,-0.02939856819882943,0.02033728296341137,12.6000003815,0.0,0.6639410920032468,1.4064275722415038
1648126133591782020,56064,6,4,1.88733065128,-1.31852579117,0.440481334925,0.0,12.6000003815,0.6312142646421405,-0.44097852547491634,0.14731817221571905,12.6000003815,0.0,0.995653029777677,2.344045873198469
1648126133591788809,56065,6,5,2.38220119476,-0.984499275684,0.498240232468,0.0,12.6000003815,0.7967228076120401,-0.32926397180066885,0.1666355292535117,12.6000003815,0.0,1.1738608211642365,2.625331347732712
1648126133591797295,56066,6,6,1.29029250145,0.241729736328,0.818619787693,0.161837622523,12.6000003815,0.4315359536622073,0.08084606566153846,0.2737858821715719,12.6000003815,0.021869948989594594,0.6156156633316369,1.5470702509989114
1648126133591803716,56067,6,7,1.2574737072,-0.73837441206,0.849669337273,0.566431701183,12.6000003815,0.42055976829431435,-0.24694796389966553,0.2841703469140468,12.6000003815,0.07654482448418919,0.6439909427078344,1.6877129137937532
1648126133591806140,56068,6,8,1.24766623974,0.68563336134,0.906427502632,0.566431701183,12.6000003815,0.41727967884280937,0.2293088165016722,0.30315301091371233,12.6000003815,0.07654482448418919,0.633109148627402,1.6877129404898876
1648126133696901559,56069,7,0,0.0126157794148,0.0439508594573,0.0103433215991,0.0,23.5,0.004219324218996655,0.014699284099431437,0.0034593048826421402,23.5,0.0,0.01586424743773941,0.0468809155091988
1648126133696911769,56070,7,1,0.0328889451921,0.0146502861753,-0.0300250984728,0.0,23.5,0.010999647221438126,0.0048997612626421405,-0.010041838954113712,23.5,0.0,0.016309265416415034,0.04688091444467014
1648126133696914215,56071,7,2,1.18876039982,0.076181486249,0.258401960135,0.0,23.5,0.39757872903678926,0.02547875794280936,0.08642206024581939,23.5,0.0,0.562838217138216,1.2189038026148427
1648126133696918388,56072,7,3,1.8721268177,-1.31852579117,0.501180708408,0.0,23.5,0.6261293704682274,-0.44097852547491634,0.16761896602274245,23.5,0.0,0.9892108152744332,2.3440459010037213
1648126133697156998,56073,7,4,2.39058852196,-0.984499275684,0.456303417683,0.0,23.5,0.7995279337658862,-0.32926397180066885,0.15260983868996653,23.5,0.0,1.1776691372664252,2.625331429389136
1648126133891616897,56074,9,0,0.0126200383529,0.0439508594573,0.0103381248191,0.0,12.3000001907,0.004220748613010033,0.014699284099431437,0.0034575668291304345,12.3000001907,0.0,0.015865005223580926,0.04688091551835667
1648126133891619891,56075,9,1,0.0328889451921,0.0146502861753,-0.0300250984728,0.0,12.3000001907,0.010999647221438126,0.0048997612626421405,-0.010041838954113712,12.3000001907,0.0,0.016309265416415034,0.04688091444467014
1648126133891622447,56076,9,2,1.24818825722,-0.118667319417,0.173651963472,0.0,12.3000001907,0.4174542666287625,-0.039688066694648826,0.05807757975652173,12.3000001907,0.0,0.5917020129178832,1.2657846825496024
1648126133891626038,56077,9,3,0.858226001263,0.316446185112,-0.874940514565,0.0,12.3000001907,0.28703210744581936,0.10583484451906354,-0.29262224567391304,12.3000001907,0.0,0.4194947862893544,1.2657847215633011
1648126133891833061,56078,9,4,2.38907766342,-0.984499275684,0.4641495049,0.0,12.3000001907,0.7990226299063545,-0.32926397180066885,0.1552339481270903,12.3000001907,0.0,1.1769830454729948,2.6253315349825064
1648126133996717795,56079,10,0,0.0126157794148,0.0439508594573,0.0103433215991,0.0,12.5,0.004219324218996655,0.014699284099431437,0.0034593048826421402,12.5,0.0,0.01586424743773941,0.0468809155091988
1648126133996723971,56080,10,1,0.0328372865915,0.0146502861753,-0.0300815850496,0.0,12.5,0.010982370097491638,0.0048997612626421405,-0.010060730785819396,12.5,0.0,0.01628596224812785,0.04688091333161941
1648126133996730148,56081,10,2,0.619015276432,0.152362972498,1.03890907764,0.0,12.5,0.2070285205458194,0.05095751588561872,0.3474612299799331,12.5,0.0,0.29718392463929577,1.2189037941722092
1648126133996733333,56082,10,3,1.35355854034,-0.127457484603,-0.000891109753866,0.0,12.5,0.45269516399331095,-0.04262792127190635,-0.00029803001801538456,12.5,0.0,0.6416252509665009,1.3595465886041818
1648126133996737018,56083,10,4,0.597485780716,0.339886635542,-1.17296826839,0.0,12.5,0.1998280203063545,0.11367446004749163,-0.39229707972909694,12.5,0.0,0.30460524989927934,1.3595465206559516
1648126133996764251,56084,10,5,2.42272615433,-0.902457654476,0.456434935331,0.0,12.5,0.8102763057959865,-0.30182530250033446,0.15265382452541804,12.5,0.0,1.1849868761712936,2.6253313480754326
1648126134191713093,56085,12,0,0.0126200383529,0.0439508594573,0.0103381248191,0.0,12.8999996185,0.004220748613010033,0.014699284099431437,0.0034575668291304345,12.8999996185,0.0,0.015865005223580926,0.04688091551835667
1648126134191719156,56086,12,1,0.0329016707838,0.0146502861753,-0.030011150986,0.0,12.8999996185,0.01100390327217391,0.0048997612626421405,-0.010037174242809364,12.8999996185,0.0,0.016315006432043106,0.04688091305518946
1648126134191888474,56087,12,2,1.17753684521,-0.0,0.314854741096,0.0,12.8999996185,0.3938250318428093,-0.0,0.1053025889953177,12.8999996185,0.0,0.556952701234117,1.2189038230384497
1648126134191892826,56088,12,3,1.85876607895,-1.31852579117,0.548661768436,0.0,12.8999996185,0.6216608959698996,-0.44097852547491634,0.18349891920936454,12.8999996185,0.0,0.9835581320319751,2.3440459326512677
1648126134192005479,56089,12,4,1.31906795502,-0.0,-2.10564398766,0.0,12.8999996185,0.4411598511772575,-0.0,-0.7042287584147158,12.8999996185,0.0,0.6238942447093737,2.4846884860540066
1648126134192007282,56090,12,5,2.38942122459,-0.984499275684,0.462377399206,0.0,12.8999996185,0.7991375333076922,-0.32926397180066885,0.1546412706374582,12.8999996185,0.0,1.1771390561051644,2.6253314974760804
1648126134296786698,56091,13,0,0.0127180265263,0.0439508594573,0.0102173369378,0.0,12.8999996185,0.00425352057735786,0.014699284099431437,0.0034171695444147154,12.8999996185,0.0,0.015882500673376702,0.04688091530526617
1648126134296791288,56092,13,1,0.032824549824,0.0146502861753,-0.0300954841077,0.0,12.8999996185,0.0109781103090301,0.0048997612626421405,-0.010065379300234113,12.8999996185,0.0,0.016280217208174907,0.046880914238560535
1648126134296795693,56093,13,2,1.18456423283,-0.0,0.287287294865,0.0,12.8999996185,0.39617532870568556,-0.0,0.09608270731270901,12.8999996185,0.0,0.5602765229331995,1.218903774500258
1648126134296819357,56094,13,3,1.85175073147,-1.39177727699,0.358505725861,0.0,12.8999996185,0.6193146259096989,-0.4654773501638796,0.11990158055551839,12.8999996185,0.0,0.9918519926112602,2.3440458860100204
1648126134296828878,56095,13,4,0.906419157982,0.0776465162635,-2.31215310097,0.0,12.8999996185,0.30315022006086956,0.025968734536287622,-0.7732953514949832,12.8999996185,0.0,0.42950493247379995,2.484688437967594
1648126134296857341,56096,13,5,2.39003682137,-0.984499275684,0.459185093641,0.0,12.8999996185,0.7993434185183945,-0.32926397180066885,0.15357360991337793,12.8999996185,0.0,1.1774186021051722,2.625331556498879
1648126134491635200,56097,15,0,0.0126362647861,0.0439508594573,0.0103182848543,0.0,13.1999998093,0.004226175513745819,0.014699284099431437,0.003450931389397993,13.1999998093,0.0,0.015867894377697606,0.04688091548929313
1648126134491643702,56098,15,1,0.0327492877841,0.0146502861753,-0.0301773659885,0.0,13.1999998093,0.010952939058227425,0.0048997612626421405,-0.010092764544648828,13.1999998093,0.0,0.016246273679135663,0.04688091459632442
1648126134491657501,56099,15,2,1.2482227087,-0.0,0.210121706128,0.0,13.1999998093,0.4174657888628762,-0.0,0.07027481810301002,13.1999998093,0.0,0.5903857804366626,1.2657847612846769
1648126134491663166,56100,15,3,1.90012967587,-1.17202293873,0.714437484741,0.0,13.1999998093,0.6354948748729097,-0.3919809159632107,0.23894230258896318,13.1999998093,0.0,0.9804878940909102,2.3440459623553
1648126134491670382,56101,15,4,1.86415398121,-1.31852579117,0.53006696701,0.0,13.1999998093,0.6234628699698996,-0.44097852547491634,0.17727992207692306,13.1999998093,0.0,0.9858366803848594,2.3440459289776614
1648126134491820341,56102,15,5,1.31344020367,-1.24234426022,1.70444488525,0.0,13.1999998093,0.43927766009030095,-0.41549975258193983,0.5700484566053512,13.1999998093,0.0,0.7473752536072312,2.4846884706886607
1648126134492203490,56103,15,6,1.3077480793,-0.0776465162635,-2.11126565933,0.0,13.1999998093,0.43737393956521736,-0.025968734536287622,-0.7061089161638795,13.1999998093,0.0,0.6190850516649655,2.4846884522343715
1648126134492209141,56104,15,7,2.38233923912,-0.984499275684,0.497580081224,0.0,13.1999998093,0.7967689762943142,-0.32926397180066885,0.16641474288428093,13.1999998093,0.0,1.1739234925224602,2.625331409804115
1648126134596733968,56105,16,0,0.0126157794148,0.0439508594573,0.0103433215991,0.0,12.6999998093,0.004219324218996655,0.014699284099431437,0.0034593048826421402,12.6999998093,0.0,0.01586424743773941,0.0468809155091988
1648126134596750416,56106,16,1,0.0328372865915,0.0146502861753,-0.0300815850496,0.0,12.6999998093,0.010982370097491638,0.0048997612626421405,-0.010060730785819396,12.6999998093,0.0,0.01628596224812785,0.04688091333161941
1648126134596780036,56107,16,2,1.20145213604,0.0380907431245,0.201961115003,0.0,12.6999998093,0.40182345686956517,0.01273937897140468,0.06754552341237458,12.6999998093,0.0,0.5684069605113854,1.2189037828639757
1648126134596855800,56108,16,3,1.29823195934,-0.164083212614,0.103738680482,0.0,12.6999998093,0.43419129074916385,-0.054877328633444813,0.03469521086354515,12.6999998093,0.0,0.6164865571306425,1.3126656980136462
1648126134596864040,56109,16,4,1.30738651752,-0.082041606307,0.0842668488622,0.0,12.6999998093,0.43725301589297655,-0.027438664316722407,0.02818289259605351,12.6999998093,0.0,0.6189776087343491,1.3126656974171569
1648126134596870019,56110,16,5,1.85243701935,-1.31852579117,0.569664716721,0.0,12.6999998093,0.6195441536287625,-0.44097852547491634,0.190523316629097,12.6999998093,0.0,0.9808832634524817,2.344045874575752
1648126134596873273,56111,16,6,2.37876319885,-0.984499275684,0.514404177666,0.0,12.6999998093,0.7955729762040133,-0.32926397180066885,0.17204153099197322,12.6999998093,0.0,1.1723000827681345,2.6253313768028677
1648126134791794213,56112,18,0,0.0126260910183,0.0439508594573,0.0103307310492,0.0,13.0,0.004222772915819397,0.014699284099431437,0.0034550939963879593,13.0,0.0,0.015866082542107033,0.04688091536487569
1648126134791947035,56113,18,1,0.0328372865915,0.0146502861753,-0.0300815850496,0.0,13.0,0.010982370097491638,0.0048997612626421405,-0.010060730785819396,13.0,0.0,0.01628596224812785,0.04688091333161941
1648126134791956802,56114,18,2,1.23968434334,-0.0,0.25572180748,0.0,13.0,0.41461014827424747,-0.0,0.08552568812040133,13.0,0.0,0.5863472947869607,1.2657847028397702
1648126134791960607,56115,18,3,1.84610545635,-1.31852579117,0.589860737324,0.0,13.0,0.6174265740301003,-0.44097852547491634,0.19727783856989967,13.0,0.0,0.9782091844626716,2.3440459268926723
1648126134792094729,56116,18,4,0.535451114178,-1.55293035507,-1.86423611641,0.0,13.0,0.17908064019331102,-0.5193747006923076,-0.6234903399364549,13.0,0.0,0.5778320094139094,2.4846884877384
1648126134792097732,56117,18,5,1.47039651871,-0.0,-2.00290060043,0.0,13.0,0.4917714109397993,-0.0,-0.6698664215484949,13.0,0.0,0.6954697989384169,2.4846884588288614
1648126134792098856,56118,18,6,2.41059875488,-0.902457654476,0.516671180725,0.0,13.0,0.8062203193578595,-0.30182530250033446,0.17279972599498325,13.0,0.0,1.1794409353250364,2.6253314617668937
1648126134896823359,56119,19,0,0.0126362647861,0.0439508594573,0.0103182848543,0.0,13.1999998093,0.004226175513745819,0.014699284099431437,0.003450931389397993,13.1999998093,0.0,0.015867894377697606,0.04688091548929313
1648126134896839118,56120,19,1,0.0328889451921,0.0146502861753,-0.0300250984728,0.0,13.1999998093,0.010999647221438126,0.0048997612626421405,-0.010041838954113712,13.1999998093,0.0,0.016309265416415034,0.04688091444467014
1648126134896847403,56121,19,2,1.18609893322,0.0380907431245,0.278288930655,0.0,13.1999998093,0.3966886064280936,0.01273937897140468,0.09307322095484949,13.1999998093,0.0,0.5611470330637978,1.218903734108031
1648126134896856204,56122,19,3,1.83756864071,-1.31852579117,0.615940451622,0.0,13.1999998093,0.6145714517424749,-0.44097852547491634,0.20600015104414712,13.1999998093,0.0,0.9746066891437476,2.3440459490474126
1648126134896893606,56123,19,4,1.48743736744,-0.0,-1.99027812481,0.0,13.1999998093,0.497470691451505,-0.0,-0.6656448577959866,13.1999998093,0.0,0.7035297987338397,2.484688498817115
1648126134897021253,56124,19,5,2.4119553566,-0.902457654476,0.510300457478,0.0,13.1999998093,0.8066740323076923,-0.30182530250033446,0.17066904932374583,13.1999998093,0.0,1.1800612280845948,2.625331410937677
1648126135091813950,56125,21,0,0.0126157794148,0.0439508594573,0.0103433215991,0.0,13.0,0.004219324218996655,0.014699284099431437,0.0034593048826421402,13.0,0.0,0.01586424743773941,0.0468809155091988
1648126135091949656,56126,21,1,0.0328889451921,0.0146502861753,-0.0300250984728,0.0,13.0,0.010999647221438126,0.0048997612626421405,-0.010041838954113712,13.0,0.0,0.016309265416415034,0.04688091444467014
1648126135091954028,56127,21,2,1.19513177872,-0.0,0.239554822445,0.0,13.0,0.39970962498996654,-0.0,0.08011866971404683,13.0,0.0,0.5652747726718745,1.2189038032031432
1648126135092090143,56128,21,3,1.35758411884,-0.0,0.0730215385556,0.0,13.0,0.4540415113177257,-0.0,0.024421919249364543,13.0,0.0,0.6421116631859047,1.35954653646707
1648126135092093929,56129,21,4,1.84313070774,-1.31852579117,0.599091172218,0.0,13.0,0.6164316748294314,-0.44097852547491634,0.20036494054113713,13.0,0.0,0.9769534683883706,2.3440459254084947
1648126135092098810,56130,21,5,2.38240623474,-0.984499275684,0.49725908041,0.0,13.0,0.7967913828561872,-0.32926397180066885,0.16630738475250834,13.0,0.0,1.173953908257774,2.625331385596977
1648126135196892189,56131,22,0,0.0126362647861,0.0439508594573,0.0103182848543,0.0,12.6999998093,0.004226175513745819,0.014699284099431437,0.003450931389397993,12.6999998093,0.0,0.015867894377697606,0.04688091548929313
1648126135196897193,56132,22,1,0.0327492877841,0.0146502861753,-0.0301773659885,0.0,12.6999998093,0.010952939058227425,0.0048997612626421405,-0.010092764544648828,12.6999998093,0.0,0.016246273679135663,0.04688091459632442
1648126135196918198,56133,22,2,1.19578933716,-0.0,0.236250400543,0.0,12.6999998093,0.39992954420066884,-0.0,0.07901351188729097,12.6999998093,0.0,0.5655857854022761,1.2189037659398219
1648126135196937710,56134,22,3,1.87040293217,-1.31852579117,0.507576525211,0.0,12.6999998093,0.6255528201237458,-0.44097852547491634,0.16975803518762542,12.6999998093,0.0,0.9884810172479663,2.3440459294979443
1648126135196941710,56135,22,4,2.38188624382,-0.984499275684,0.499743789434,0.0,12.6999998093,0.7966174728494982,-0.32926397180066885,0.16713839111505016,12.6999998093,0.0,1.1737178362895375,2.625331361447374
1648126135391778313,56136,24,0,0.0126157794148,0.0439508594573,0.0103433215991,0.0,13.0,0.004219324218996655,0.014699284099431437,0.0034593048826421402,13.0,0.0,0.01586424743773941,0.0468809155091988
1648126135391843848,56137,24,1,0.0327609665692,0.0146502861753,-0.0301646888256,0.0,13.0,0.010956845006421405,0.0048997612626421405,-0.010088524690836119,13.0,0.0,0.016251540401462622,0.04688091581349178
1648126135391846859,56138,24,2,1.24465942383,-0.0,0.230290859938,0.0,13.0,0.41627405479264207,-0.0,0.07702035449431438,13.0,0.0,0.5887004139517953,1.2657847216252103
1648126135391848730,56139,24,3,1.86536550522,-1.24527442455,0.681362271309,0.0,13.0,0.6238680619464883,-0.4164797406521739,0.2278803582973244,13.0,0.0,0.9756423995539742,2.3440459477720053
1648126135391975397,56140,24,4,0.281923115253,-1.63057684898,-1.8534873724,0.0,13.0,0.09428866730869565,-0.5453434277525083,-0.6198954422742474,13.0,0.0,0.5614090841432432,2.484688500192682
1648126135391978785,56141,24,5,2.3707420826,-0.69881862402,0.254777252674,0.0,13.0,0.7928903286287625,-0.23371860335117053,0.08520978350301002,13.0,0.0,1.1454145677519891,2.4846884995845864
1648126135391980581,56142,24,6,2.3842625618,-0.984499275684,0.488281011581,0.0,13.0,0.7974122280267558,-0.32926397180066885,0.16330468614749163,13.0,0.0,1.1747966998332695,2.625331433113538
1648126135496901689,56143,25,0,0.0126157794148,0.0439508594573,0.0103433215991,0.0,13.1999998093,0.004219324218996655,0.014699284099431437,0.0034593048826421402,13.1999998093,0.0,0.01586424743773941,0.0468809155091988
1648126135496924272,56144,25,1,0.0328889451921,0.0146502861753,-0.0300250984728,0.0,13.1999998093,0.010999647221438126,0.0048997612626421405,-0.010041838954113712,13.1999998093,0.0,0.016309265416415034,0.04688091444467014
1648126135496932474,56145,25,2,1.25252437592,-0.0,0.182739347219,0.0,13.1999998093,0.4189044735518394,-0.0,0.06111683853478261,13.1999998093,0.0,0.5924203878357728,1.2657847294448656
1648126135496936661,56146,25,3,1.86418330669,-1.31852579117,0.529964089394,0.0,13.1999998093,0.6234726778227424,-0.44097852547491634,0.17724551484749163,13.1999998093,0.0,0.9858490857697002,2.344045989090092
1648126135496940369,56147,25,4,0.829408347607,-1.7082233429,-1.60241436958,0.0,13.1999998093,0.27739409618963207,-0.5713121548160535,-0.5359245383210702,13.1999998093,0.0,0.6930314187988074,2.4846885133040506
1648126135496953561,56148,25,5,2.33091568947,-0.776465177536,0.370959103107,0.0,13.1999998093,0.7795704647056855,-0.25968735034648827,0.12406658966789295,13.1999998093,0.0,1.1326507576534155,2.4846884672975333
1648126135497002811,56149,25,6,2.38813900948,-0.984499275684,0.468955159187,0.0,13.1999998093,0.7987086988227424,-0.32926397180066885,0.15684119036354513,13.1999998093,0.0,1.1765568130252735,2.6253315397775077
