%time,field.header.seq,field.header.frame_id,field.point_id,field.x,field.y,field.z,field.velocity,field.intensity,normalized_x,normalized_y,normalized_z,normalized_intensity,normalized_velocity,normalized_range,range
1648219462059326317,75324,0,0,0.0122741637751,0.0439508594573,0.0107464920729,0.0,12.6000003815,0.004105071496688963,0.014699284099431437,0.003594144505986622,12.6000003815,0.0,0.015804182263617888,0.04688091546979662
1648219462059330108,75325,0,1,0.0334476083517,0.0146502861753,-0.0294014774263,0.0,12.6000003815,0.011186491087525082,0.0048997612626421405,-0.009833270042240803,12.6000003815,0.0,0.01656148622960647,0.04688091577940992
1648219462254333715,75326,2,0,0.00573791889474,0.0454158857465,0.0101140420884,0.0,27.3999996185,0.0019190364196454846,0.015189259446989964,0.0033826227720401333,27.3999996185,0.0,0.015429808945927536,0.04688091550671427
1648219462254336879,75327,2,1,0.0334476083517,0.0146502861753,-0.0294014774263,0.0,27.3999996185,0.011186491087525082,0.0048997612626421405,-0.009833270042240803,27.3999996185,0.0,0.01656148622960647,0.04688091577940992
1648219462359462033,75328,3,0,0.00550643447787,0.0454158857465,0.0102419108152,0.0,27.6000003815,0.001841616882230769,0.015189259446989964,0.003425388232508361,27.6000003815,0.0,0.01541092820143578,0.04688091547681986
1648219462359464442,75329,3,1,0.0334476083517,0.0146502861753,-0.0294014774263,0.0,27.6000003815,0.011186491087525082,0.0048997612626421405,-0.009833270042240803,27.6000003815,0.0,0.01656148622960647,0.04688091577940992
1648219462359467305,75330,3,2,1.87125408649,0.117202289402,0.0344130881131,0.0,27.6000003815,0.6258374871204013,0.03919809010100334,0.011509394017759198,27.6000003815,0.0,0.8859354439449431,1.875236649993828
1648219462554360791,75331,5,0,0.0122741637751,0.0439508594573,0.0107464920729,0.0,15.3000001907,0.004105071496688963,0.014699284099431437,0.003594144505986622,15.3000001907,0.0,0.015804182263617888,0.04688091546979662
1648219462554367368,75332,5,1,0.0334476083517,0.0146502861753,-0.0294014774263,0.0,15.3000001907,0.011186491087525082,0.0048997612626421405,-0.009833270042240803,15.3000001907,0.0,0.01656148622960647,0.04688091577940992
1648219462554369473,75333,5,2,1.79166173935,0.0571361146867,-0.359956026077,-0.0809188112617,15.3000001907,0.5992179730267558,0.0191090684570903,-0.12038663079498327,15.3000001907,-0.010934974494824324,0.8476376082347252,1.8283557270294273
1648219462659430789,75334,6,0,0.00567744718865,0.0454158857465,0.0101481107995,0.0,17.0,0.001898811768779264,0.015189259446989964,0.0033940169897993307,17.0,0.0,0.015424803882529047,0.046880915493599094
1648219462659435424,75335,6,1,0.0334246940911,0.0146502861753,-0.0294275209308,0.0,17.0,0.01117882745521739,0.0048997612626421405,-0.009841980244414716,17.0,0.0,0.01655113370672634,0.04688091347482975
1648219462659437846,75336,6,2,1.86158061028,0.175803437829,-0.141856819391,0.0,17.0,0.6226022107959867,0.05879713639765886,-0.04744375230468227,17.0,0.0,0.882453471308638,1.875236671604596
1648219462854394463,75337,8,0,0.0121983094141,0.0439508594573,0.0108325183392,0.0,15.5,0.004079702145183947,0.014699284099431437,0.0036229158325083613,15.5,0.0,0.015791038351629535,0.046880915660496236
1648219462854402959,75338,8,1,0.0334476083517,0.0146502861753,-0.0294014774263,0.0,15.5,0.011186491087525082,0.0048997612626421405,-0.009833270042240803,15.5,0.0,0.01656148622960647,0.04688091577940992
1648219462854494455,75339,8,2,1.80204534531,0.114272229373,0.287156462669,0.0,15.5,0.6026907509397993,0.03821813691404682,0.09603895072541806,15.5,0.0,0.8531898431919704,1.828355655503569
1648219462854505673,75340,8,3,1.86516261101,0.360397040844,0.292947500944,0.0809188112617,15.5,0.6238002043511705,0.12053412737257524,0.09797575282408026,15.5,0.010934974494824324,0.8903829882464018,1.9221175382551627
1648219462854542675,75341,8,4,1.17110657692,1.33610606194,0.130317285657,0.242756426334,15.5,0.39167444044147154,0.4468582146956522,0.043584376473913035,15.5,0.03280492247756756,0.7116881329847121,1.7814748435493282
1648219462854547321,75342,8,5,1.84046030045,-0.420463234186,0.361182004213,0.242756426334,15.5,0.6155385620234113,-0.14062315524615385,0.12079665692742474,15.5,0.03280492247756756,0.8817881346826355,1.9221175533775177
1648219462959308464,75343,9,0,0.0121756950393,0.0439508594573,0.0108579294756,0.0,30.2999992371,0.004072138809130434,0.014699284099431437,0.0036314145403344477,30.2999992371,0.0,0.01578713343192647,0.04688091540512487
1648219462959442510,75344,9,1,0.0334476083517,0.0146502861753,-0.0294014774263,0.0,30.2999992371,0.011186491087525082,0.0048997612626421405,-0.009833270042240803,30.2999992371,0.0,0.01656148622960647,0.04688091577940992
1648219462959447578,75345,9,2,1.82468008995,0.114272229373,0.0192036759108,0.0,30.2999992371,0.6102608996488293,0.03821813691404682,0.0064226340838795986,30.2999992371,0.0,0.8638850370677675,1.8283556421643745
1648219462959454670,75346,9,3,1.77372586727,0.420463234186,0.609625637531,0.0809188112617,30.2999992371,0.5932193536020066,0.14062315524615385,0.20388817308729093,30.2999992371,0.010934974494824324,0.8506428597051462,1.9221176346571358
1648219462959456224,75347,9,4,1.88442707062,0.553780794144,0.138623014092,0.161837622523,30.2999992371,0.630243167431438,0.18521096794113712,0.04636221207090301,30.2999992371,0.021869948989594594,0.9103384001752954,1.9689984490812034
1648219462959460361,75348,9,5,1.94653356075,-0.184593603015,0.232136085629,0.161837622523,30.2999992371,0.651014568812709,-0.06173699097491638,0.07763748683244147,30.2999992371,0.021869948989594594,0.9227412387378336,1.968998441759487
1648219462959533909,75349,9,6,1.84508490562,-0.300330877304,0.447212666273,0.242756426334,30.2999992371,0.617085252715719,-0.10044510946622072,0.14956945360301002,30.2999992371,0.03280492247756756,0.8784518417387072,1.9221176118239904
1648219462959536355,75350,9,7,1.83147537708,0.480529397726,-0.330644339323,0.242756426334,30.2999992371,0.6125335709297659,0.16071217315250835,-0.11058339107792642,30.2999992371,0.03280492247756756,0.8810352737724766,1.9221176441767511
1648219463154336013,75351,11,0,0.00571550894529,0.0454158857465,0.0101267229766,0.0,22.8999996185,0.0019115414532742475,0.015189259446989964,0.003386863871772575,22.8999996185,0.0,0.01542794814624244,0.046880915508206854
1648219463154338347,75352,11,1,0.0334476083517,0.0146502861753,-0.0294014774263,0.0,22.8999996185,0.011186491087525082,0.0048997612626421405,-0.009833270042240803,22.8999996185,0.0,0.01656148622960647,0.04688091577940992
1648219463154341043,75353,11,2,1.86665654182,0.566966056824,0.507850944996,0.161837622523,22.8999996185,0.6242998467625418,0.18962075479063545,0.1698498143799331,22.8999996185,0.021869948989594594,0.9030263716984331,2.015879395460772
1648219463154463771,75354,11,3,1.82476663589,0.114272229373,-0.00728755956516,-0.0809188112617,22.8999996185,0.6102898447792642,0.03821813691404682,-0.0024373108913578593,22.8999996185,-0.010934974494824324,0.8639259315882222,1.8283556892430968
1648219463259373653,75355,12,0,0.0122741637751,0.0439508594573,0.0107464920729,0.0,21.6000003815,0.004105071496688963,0.014699284099431437,0.003594144505986622,21.6000003815,0.0,0.015804182263617888,0.04688091546979662
1648219463259379446,75356,12,1,0.0334246940911,0.0146502861753,-0.0294275209308,0.0,21.6000003815,0.01117882745521739,0.0048997612626421405,-0.009841980244414716,21.6000003815,0.0,0.01655113370672634,0.04688091347482975
1648219463259382109,75357,12,2,1.82408034801,0.114272229373,0.0505696646869,-0.0809188112617,21.6000003815,0.6100603170602007,0.03821813691404682,0.01691293133341137,21.6000003815,-0.010934974494824324,0.8636016482686714,1.8283556955332034
1648219463454370092,75358,14,0,0.0121756950393,0.0439508594573,0.0108579294756,0.0,19.5,0.004072138809130434,0.014699284099431437,0.0036314145403344477,19.5,0.0,0.01578713343192647,0.04688091540512487
1648219463454374406,75359,14,1,0.0334476083517,0.0146502861753,-0.0294014774263,0.0,19.5,0.011186491087525082,0.0048997612626421405,-0.009833270042240803,19.5,0.0,0.01656148622960647,0.04688091577940992
1648219463454376707,75360,14,2,0.633219122887,1.35954654217,0.0351363644004,0.0,19.5,0.21177897086521738,0.4546978401906354,0.011751292441605351,19.5,0.0,0.5444729477903286,1.5001892620664443
1648219463454550399,75361,14,3,1.89664328098,-0.0600661747158,0.306059330702,0.0,19.5,0.6343288565150501,-0.020089021644080267,0.10236098016789297,19.5,0.0,0.8973013792511401,1.9221175808314446
1648219463454553954,75362,14,4,0.504757642746,1.1485824585,0.38609495759,0.242756426334,19.5,0.16881526513244147,0.38414129046822737,0.12912874835785954,19.5,0.03280492247756756,0.4522849970163371,1.3126657069341099
1648219463454555672,75363,14,5,0.882983267307,1.37126672268,0.433984994888,-0.242756426334,19.5,0.29531212953411373,0.4586176330033444,0.14514548324013377,19.5,-0.03280492247756756,0.6202810983751936,1.687712905343095
1648219463559251331,75364,15,0,0.00567744718865,0.0454158857465,0.0101481107995,0.0,20.5,0.001898811768779264,0.015189259446989964,0.0033940169897993307,20.5,0.0,0.015424803882529047,0.046880915493599094
1648219463559254175,75365,15,1,0.0334476083517,0.0146502861753,-0.0294014774263,0.0,20.5,0.011186491087525082,0.0048997612626421405,-0.009833270042240803,20.5,0.0,0.01656148622960647,0.04688091577940992
1648219463559255989,75366,15,2,1.8984515667,-0.0,0.300695359707,0.0,20.5,0.634933634347826,-0.0,0.1005670099354515,20.5,0.0,0.8979317569015351,1.9221175953762575
1648219463559257715,75367,15,3,0.671498835087,1.14711737633,0.285618424416,0.242756426334,20.5,0.22458155019632106,0.3836512964314381,0.09552455666086955,20.5,0.03280492247756756,0.49805829240229355,1.359546558587568
1648219463559259519,75368,15,4,0.877686321735,1.37126672268,0.444600045681,-0.161837622523,20.5,0.29354057583110366,0.4586176330033444,0.14869566745183946,20.5,-0.021869948989594594,0.6185970195693656,1.687712921296098
1648219463754565034,75369,17,0,0.0122741637751,0.0439508594573,0.0107464920729,0.0,25.6000003815,0.004105071496688963,0.014699284099431437,0.003594144505986622,25.6000003815,0.0,0.015804182263617888,0.04688091546979662
1648219463754568782,75370,17,1,0.0334614515305,0.0146502861753,-0.0293857175857,0.0,25.6000003815,0.011191120913210702,0.0048997612626421405,-0.009827999192541806,25.6000003815,0.0,0.016567740794057963,0.04688091319047343
1648219463754573329,75371,17,2,1.81868135929,0.171408340335,0.0768229439855,0.0,25.6000003815,0.6082546352140468,0.05732720412541805,0.02569329230284281,25.6000003815,0.0,0.862110092071531,1.8283556739562246
1648219463754580936,75372,17,3,1.84137582779,-0.0600661747158,0.547962725163,0.0,25.6000003815,0.615844758458194,-0.020089021644080267,0.18326512547257526,25.6000003815,0.0,0.8711676657403435,1.9221175907530628
1648219463754671593,75373,17,4,0.666996359825,1.18667316437,0.353498071432,0.242756426334,25.6000003815,0.2230757056270903,0.3968806569799331,0.11822677974314381,25.6000003815,0.03280492247756756,0.506990923751966,1.406427470423503
1648219463859364643,75374,18,0,0.00571230938658,0.0454158857465,0.0101285278797,0.0,23.8999996185,0.0019104713667491638,0.015189259446989964,0.003387467518294314,23.8999996185,0.0,0.015427683048154402,0.04688091545263394
1648219463859369486,75375,18,1,0.0334476083517,0.0146502861753,-0.0294014774263,0.0,23.8999996185,0.011186491087525082,0.0048997612626421405,-0.009833270042240803,23.8999996185,0.0,0.01656148622960647,0.04688091577940992
1648219463859372213,75376,18,2,0.803046703339,1.26578474045,0.0589314550161,0.0,23.8999996185,0.26857749275551834,0.42333937807692307,0.01970951672779264,23.8999996185,0.0,0.5687565105211869,1.5001892991519519
1648219463859374708,75377,18,3,1.81925785542,0.171408340335,-0.0616810359061,0.0,23.8999996185,0.6084474432842809,0.05732720412541805,-0.02062910899869565,23.8999996185,0.0,0.8623821605362636,1.8283556858101289
1648219464054399656,75378,20,0,0.0121756950393,0.0439508594573,0.0108579294756,0.0,13.8000001907,0.004072138809130434,0.014699284099431437,0.0036314145403344477,13.8000001907,0.0,0.01578713343192647,0.04688091540512487
1648219464054407512,75379,20,1,0.0334385335445,0.0146502861753,-0.0294117927551,0.0,13.8000001907,0.011183456034949833,0.0048997612626421405,-0.009836719984983276,13.8000001907,0.0,0.01655738621287189,0.046880912573176205
1648219464054410441,75380,20,2,0.803546309471,1.26578474045,0.0516746267676,0.0,13.8000001907,0.2687445851073578,0.42333937807692307,0.01728248386876254,13.8000001907,0.0,0.5689143459956058,1.500189303945375
1648219464054412575,75381,20,3,1.91094863415,-0.0,0.206909179688,0.0,13.8000001907,0.6391132555685618,-0.0,0.0692003945444816,13.8000001907,0.0,0.9038426339174821,1.922117605922934
1648219464159383737,75382,21,0,0.00571550894529,0.0454158857465,0.0101267229766,0.0,13.3000001907,0.0019115414532742475,0.015189259446989964,0.003386863871772575,13.3000001907,0.0,0.01542794814624244,0.046880915508206854
1648219464159386150,75383,21,1,0.0334476083517,0.0146502861753,-0.0294014774263,0.0,13.3000001907,0.011186491087525082,0.0048997612626421405,-0.009833270042240803,13.3000001907,0.0,0.01656148622960647,0.04688091577940992
1648219464159387736,75384,21,2,1.82390856743,0.114272229373,0.056428655982,0.0,13.3000001907,0.610002865361204,0.03821813691404682,0.01887246019464883,13.3000001907,0.0,0.8635204789042001,1.8283557635116765
1648219464159390730,75385,21,3,1.87709105015,0.184593603015,0.565163195133,-0.161837622523,13.3000001907,0.6277896488795986,0.06173699097491638,0.18901779101438124,13.3000001907,-0.021869948989594594,0.8899725515628988,1.9689984880543283
