%time,field.header.seq,field.header.frame_id,field.point_id,field.x,field.y,field.z,field.velocity,field.intensity,normalized_x,normalized_y,normalized_z,normalized_intensity,normalized_velocity,normalized_range,range
1648219473459569080,75624,0,0,0.0121756950393,0.0439508594573,0.0108579294756,0.0,18.2999992371,0.004072138809130434,0.014699284099431437,0.0036314145403344477,18.2999992371,0.0,0.01578713343192647,0.04688091540512487
1648219473459573303,75625,0,1,0.0334246940911,0.0146502861753,-0.0294275209308,0.0,18.2999992371,0.01117882745521739,0.0048997612626421405,-0.009841980244414716,18.2999992371,0.0,0.01655113370672634,0.04688091347482975
1648219473459575842,75626,0,2,1.86825871468,0.117202289402,0.111289449036,0.0809188112617,18.2999992371,0.624835690528428,0.03919809010100334,0.03722055151705685,18.2999992371,0.010934974494824324,0.8845200792428859,1.8752366098936881
1648219473654530518,75627,2,0,0.00550643447787,0.0454158857465,0.0102419108152,0.0,18.5,0.001841616882230769,0.015189259446989964,0.003425388232508361,18.5,0.0,0.01541092820143578,0.04688091547681986
1648219473654538294,75628,2,1,0.0334246940911,0.0146502861753,-0.0294275209308,0.0,18.5,0.01117882745521739,0.0048997612626421405,-0.009841980244414716,18.5,0.0,0.01655113370672634,0.04688091347482975
1648219473654565389,75629,2,2,1.86547863483,0.175803437829,0.0747972875834,0.0,18.5,0.6239058979364548,0.05879713639765886,0.02501581524528428,18.5,0.0,0.8842930748390789,1.8752365237456128
1648219473759521277,75630,3,0,0.00567744718865,0.0454158857465,0.0101481107995,0.0,11.8999996185,0.001898811768779264,0.015189259446989964,0.0033940169897993307,11.8999996185,0.0,0.015424803882529047,0.046880915493599094
1648219473759549865,75631,3,1,0.0334476083517,0.0146502861753,-0.0294014774263,0.0,11.8999996185,0.011186491087525082,0.0048997612626421405,-0.009833270042240803,11.8999996185,0.0,0.01656148622960647,0.04688091577940992
1648219473759552488,75632,3,2,0.634192764759,1.35954654217,0.000794212915935,0.0,11.8999996185,0.21210460359832775,0.4546978401906354,0.0002656230488076923,11.8999996185,0.0,0.5447264006905083,1.5001892860480053
1648219473759554259,75633,3,3,1.86340582371,0.117202289402,0.174627020955,0.0,11.8999996185,0.6232126500702341,0.03919809010100334,0.05840368593812708,11.8999996185,0.0,0.8822270142557948,1.8752365815877825
1648219473954432632,75634,5,0,0.00550643447787,0.0454158857465,0.0102419108152,0.0,12.0,0.001841616882230769,0.015189259446989964,0.003425388232508361,12.0,0.0,0.01541092820143578,0.04688091547681986
1648219473954440403,75635,5,1,0.0334246940911,0.0146502861753,-0.0294275209308,0.0,12.0,0.01117882745521739,0.0048997612626421405,-0.009841980244414716,12.0,0.0,0.01655113370672634,0.04688091347482975
1648219473954444879,75636,5,2,1.91765141487,0.120132349432,-0.0521292313933,0.0,12.0,0.641354988250836,0.040178043288294316,-0.01743452554959866,12.0,0.0,0.9079023719932314,1.9221176309213286
1648219474059767186,75637,6,0,0.00567744718865,0.0454158857465,0.0101481107995,0.0,12.8000001907,0.001898811768779264,0.015189259446989964,0.0033940169897993307,12.8000001907,0.0,0.015424803882529047,0.046880915493599094
1648219474059771995,75638,6,1,0.0334476083517,0.0146502861753,-0.0294014774263,0.0,12.8000001907,0.011186491087525082,0.0048997612626421405,-0.009833270042240803,12.8000001907,0.0,0.01656148622960647,0.04688091577940992
1648219474254452905,75639,8,0,0.0122741637751,0.0439508594573,0.0107464920729,0.0,26.8999996185,0.004105071496688963,0.014699284099431437,0.003594144505986622,26.8999996185,0.0,0.015804182263617888,0.04688091546979662
1648219474254459946,75640,8,1,0.0334246940911,0.0146502861753,-0.0294275209308,0.0,26.8999996185,0.01117882745521739,0.0048997612626421405,-0.009841980244414716,26.8999996185,0.0,0.01655113370672634,0.04688091347482975
1648219474254609660,75641,8,2,1.86086308956,0.117202289402,0.199911251664,-0.242756426334,26.8999996185,0.6223622373110368,0.03919809010100334,0.06685995038929765,26.8999996185,-0.03280492247756756,0.8810255382956643,1.8752366046101292
1648219474359536143,75642,9,0,0.00567744718865,0.0454158857465,0.0101481107995,0.0,29.2000007629,0.001898811768779264,0.015189259446989964,0.0033940169897993307,29.2000007629,0.0,0.015424803882529047,0.046880915493599094
1648219474359537880,75643,9,1,0.0334246940911,0.0146502861753,-0.0294275209308,0.0,29.2000007629,0.01117882745521739,0.0048997612626421405,-0.009841980244414716,29.2000007629,0.0,0.01655113370672634,0.04688091347482975
1648219474554434096,75644,11,0,0.00573791889474,0.0454158857465,0.0101140420884,0.0,27.0,0.0019190364196454846,0.015189259446989964,0.0033826227720401333,27.0,0.0,0.015429808945927536,0.04688091550671427
1648219474554438586,75645,11,1,0.0334246940911,0.0146502861753,-0.0294275209308,0.0,27.0,0.01117882745521739,0.0048997612626421405,-0.009841980244414716,27.0,0.0,0.01655113370672634,0.04688091347482975
1648219474554441221,75646,11,2,1.90552210808,-0.0,0.252034842968,0.161837622523,27.0,0.6372983639063544,-0.0,0.08429258962140468,27.0,0.021869948989594594,0.9012759895145506,1.922117599537435
1648219474659508448,75647,12,0,0.0122741637751,0.0439508594573,0.0107464920729,0.0,26.1000003815,0.004105071496688963,0.014699284099431437,0.003594144505986622,26.1000003815,0.0,0.015804182263617888,0.04688091546979662
1648219474659513135,75648,12,1,0.0334756672382,0.0146502861753,-0.0293695218861,0.0,26.1000003815,0.011195875330501672,0.0048997612626421405,-0.009822582570602006,26.1000003815,0.0,0.016574163908419644,0.04688091293777234
1648219474659515831,75649,12,2,1.89114558697,-0.0,0.343663066626,0.0,26.1000003815,0.6324901628662207,-0.0,0.11493748047692307,26.1000003815,0.0,0.8944761663929771,1.922117565207418
1648219474659537223,75650,12,3,0.659846901894,1.31266570091,0.303444772959,0.161837622523,26.1000003815,0.2206845825732441,0.4390186290668896,0.10148654614013378,26.1000003815,0.021869948989594594,0.5386471262699033,1.5001892902299998
1648219474659546088,75651,12,4,1.93602263927,-0.0,0.561770677567,-0.242756426334,26.1000003815,0.6474992104581939,-0.0,0.1878831697548495,26.1000003815,-0.03280492247756756,0.9157021650558488,2.0158794492578327
1648219474854514631,75652,14,0,0.0122741637751,0.0439508594573,0.0107464920729,0.0,17.8999996185,0.004105071496688963,0.014699284099431437,0.003594144505986622,17.8999996185,0.0,0.015804182263617888,0.04688091546979662
1648219474854524492,75653,14,1,0.0334476083517,0.0146502861753,-0.0294014774263,0.0,17.8999996185,0.011186491087525082,0.0048997612626421405,-0.009833270042240803,17.8999996185,0.0,0.01656148622960647,0.04688091577940992
1648219474854526956,75654,14,2,1.81831383705,0.171408340335,0.0850806832314,0.0809188112617,17.8999996185,0.608131718076923,0.05732720412541805,0.02845507800381271,17.8999996185,0.010934974494824324,0.8619366458129145,1.8283557508873964
1648219474854546745,75655,14,3,1.9156550169,0.24612480402,0.382940232754,-0.0809188112617,17.8999996185,0.6406872966220735,0.08231598796655518,0.1280736564394649,17.8999996185,-0.010934974494824324,0.9098001681582124,1.968998421733677
1648219474959590768,75656,15,0,0.0121756950393,0.0439508594573,0.0108579294756,0.0,15.5,0.004072138809130434,0.014699284099431437,0.0036314145403344477,15.5,0.0,0.01578713343192647,0.04688091540512487
1648219474959593551,75657,15,1,0.0334476083517,0.0146502861753,-0.0294014774263,0.0,15.5,0.011186491087525082,0.0048997612626421405,-0.009833270042240803,15.5,0.0,0.01656148622960647,0.04688091577940992
1648219474959595644,75658,15,2,0.566539406776,1.35954654217,0.285016030073,0.0,15.5,0.1894780624668896,0.4546978401906354,0.09532308698093646,15.5,0.0,0.527782150310563,1.500189267111013
1648219475154586703,75659,17,0,0.00567744718865,0.0454158857465,0.0101481107995,0.0,12.1999998093,0.001898811768779264,0.015189259446989964,0.0033940169897993307,12.1999998093,0.0,0.015424803882529047,0.046880915493599094
1648219475154593165,75660,17,1,0.0334476083517,0.0146502861753,-0.0294014774263,0.0,12.1999998093,0.011186491087525082,0.0048997612626421405,-0.009833270042240803,12.1999998093,0.0,0.01656148622960647,0.04688091577940992
1648219475154744509,75661,17,2,0.681306362152,1.31266570091,0.251591473818,0.0,12.1999998093,0.22786165958260868,0.4390186290668896,0.08414430562474916,12.1999998093,0.0,0.5445908817481729,1.5001892784419728
1648219475259704716,75662,18,0,0.0122741637751,0.0439508594573,0.0107464920729,0.0,13.1000003815,0.004105071496688963,0.014699284099431437,0.003594144505986622,13.1000003815,0.0,0.015804182263617888,0.04688091546979662
1648219475259706420,75663,18,1,0.0334385335445,0.0146502861753,-0.0294117927551,0.0,13.1000003815,0.011183456034949833,0.0048997612626421405,-0.009836719984983276,13.1000003815,0.0,0.01655738621287189,0.046880912573176205
1648219475259712215,75664,18,2,1.92040812969,0.307655990124,0.307140380144,0.0809188112617,13.1000003815,0.642276966451505,0.10289497997458194,0.1027225351652174,13.1000003815,0.010934974494824324,0.9141262386411764,1.9689984271079608
1648219475454563939,75665,20,0,0.00567744718865,0.0454158857465,0.0101481107995,0.0,19.6000003815,0.001898811768779264,0.015189259446989964,0.0033940169897993307,19.6000003815,0.0,0.015424803882529047,0.046880915493599094
1648219475454568970,75666,20,1,0.0334246940911,0.0146502861753,-0.0294275209308,0.0,19.6000003815,0.01117882745521739,0.0048997612626421405,-0.009841980244414716,19.6000003815,0.0,0.01655113370672634,0.04688091347482975
1648219475454572116,75667,20,2,0.687775552273,1.31266570091,0.233326911926,-0.0809188112617,19.6000003815,0.23002526831872908,0.4390186290668896,0.07803575649698996,19.6000003815,-0.010934974494824324,0.5464069955609809,1.5001892882162888
1648219475559840497,75668,21,0,0.00567744718865,0.0454158857465,0.0101481107995,0.0,14.8000001907,0.001898811768779264,0.015189259446989964,0.0033940169897993307,14.8000001907,0.0,0.015424803882529047,0.046880915493599094
1648219475559849210,75669,21,1,0.0334756672382,0.0146502861753,-0.0293695218861,0.0,14.8000001907,0.011195875330501672,0.0048997612626421405,-0.009822582570602006,14.8000001907,0.0,0.016574163908419644,0.04688091293777234
