%time,field.header.seq,field.header.frame_id,field.point_id,field.x,field.y,field.z,field.velocity,field.intensity,normalized_x,normalized_y,normalized_z,normalized_intensity,normalized_velocity,normalized_range,range
1648218483136856051,37116,0,0,0.00529174832627,0.0454158857465,0.010354465805,0.0,11.1999998093,0.0017698154937357859,0.015189259446989964,0.0034630320418060196,11.1999998093,0.0,0.015394092903179077,0.04688091552641263
1648218483136869365,37117,0,1,0.0334885679185,0.0146502861753,-0.0293548125774,0.0,11.1999998093,0.011200189939297658,0.0048997612626421405,-0.009817663069364548,11.1999998093,0.0,0.01657999305740438,0.04688091389578978
1648218483136872238,37118,0,2,1.73288726807,-0.0,0.076926343143,0.0,11.1999998093,0.5795609592207358,-0.0,0.025727873960869563,11.1999998093,0.0,0.8196229687519249,1.7345938850660299
1648218483136875332,37119,0,3,0.923906445503,1.46356356144,0.114867575467,0.0,11.1999998093,0.3089988112050167,0.4894861409498327,0.03841724932006688,11.1999998093,0.0,0.656168585680682,1.7345938943483548
1648218483136885055,37120,0,4,2.07005763054,-1.19546329975,-0.0475306138396,0.0,11.1999998093,0.6923269667357859,-0.39982050158862875,-0.015896526367759196,11.1999998093,0.0,1.0575867298854174,2.3909266517519954
1648218483241934688,37121,1,0,0.0052226819098,0.0454158857465,0.0103894732893,0.0,11.3999996185,0.001746716357792642,0.015189259446989964,0.003474740230535117,11.3999996185,0.0,0.015388815374067449,0.04688091551686221
1648218483241936741,37122,1,1,0.0335027687252,0.0146502861753,-0.0293386057019,0.0,11.3999996185,0.011204939372976588,0.0048997612626421405,-0.00981224270966555,11.3999996185,0.0,0.01658640989289275,0.04688091489939147
1648218483241955864,37123,1,2,1.74725198746,-0.0,0.538511812687,0.0,11.3999996185,0.5843652131973244,-0.0,0.18010428517959864,11.3999996185,0.0,0.8264172098827013,1.8283556765811075
1648218483241961001,37124,1,3,2.07009983063,-1.19546329975,-0.0456548929214,0.0,11.3999996185,0.6923410804782607,-0.39982050158862875,-0.015269194956989966,11.3999996185,0.0,1.0576052084432044,2.390926636070454
1648218483436812168,37125,3,0,0.00525369495153,0.0454158857465,0.0103738252074,0.0,11.1999998093,0.0017570886125518395,0.015189259446989964,0.003469506758327759,11.1999998093,0.0,0.015391176801424008,0.04688091550104969
1648218483436819661,37126,3,1,0.0335027687252,0.0146502861753,-0.0293386057019,0.0,11.1999998093,0.011204939372976588,0.0048997612626421405,-0.00981224270966555,11.1999998093,0.0,0.01658640989289275,0.04688091489939147
1648218483436983112,37127,3,2,1.73352444172,0.054206058383,0.0277573633939,0.0,11.1999998093,0.5797740607759196,0.01812911651605351,0.009283399128394649,11.1999998093,0.0,0.8201247392701017,1.7345938308516606
1648218483436986584,37128,3,3,1.77042722702,0.34281668067,0.30157738924,0.0809188112617,11.1999998093,0.5921161294381271,0.1146544082508361,0.100862003090301,11.1999998093,0.010934974494824324,0.8451914900263295,1.828355754337798
1648218483436988393,37129,3,4,1.54608213902,-0.0483459457755,0.0268150046468,-0.647350490093,11.1999998093,0.5170843274314381,-0.016169212633946488,0.008968228978862874,11.1999998093,-0.08747979595851352,0.7314464073243145,1.5470702490655663
1648218483541849244,37130,4,0,0.0052226819098,0.0454158857465,0.0103894732893,0.0,17.5,0.001746716357792642,0.015189259446989964,0.003474740230535117,17.5,0.0,0.015388815374067449,0.04688091551686221
1648218483541851292,37131,4,1,0.0335027687252,0.0146502861753,-0.0293386057019,0.0,17.5,0.011204939372976588,0.0048997612626421405,-0.00981224270966555,17.5,0.0,0.01658640989289275,0.04688091489939147
1648218483541853544,37132,4,2,2.07038331032,-1.19546329975,-0.0301731415093,0.0,17.5,0.6924358897391304,-0.39982050158862875,-0.01009135167535117,17.5,0.0,1.0577293398068455,2.390926592593194
1648218483541867443,37133,4,3,1.79911160469,0.410208016634,0.333825141191,0.0809188112617,17.5,0.6017095667859531,0.13719331659999998,0.11164720441170567,17.5,0.010934974494824324,0.8619343430002001,1.875236627183945
1648218483541876640,37134,4,4,1.72944700718,0.054206058383,-0.122027605772,-0.0809188112617,17.5,0.5784103702943144,0.01812911651605351,-0.04081190828494983,17.5,-0.010934974494824324,0.8181966620523848,1.734593895982494
1648218483736936546,37135,6,0,0.00524778757244,0.0454158857465,0.0103768147528,0.0,21.3999996185,0.0017551129004816054,0.015189259446989964,0.003470506606287625,21.3999996185,0.0,0.015390725945674161,0.04688091548763233
1648218483737098856,37136,6,1,0.0335027687252,0.0146502861753,-0.0293386057019,0.0,21.3999996185,0.011204939372976588,0.0048997612626421405,-0.00981224270966555,21.3999996185,0.0,0.01658640989289275,0.04688091489939147
1648218483737102081,37137,6,2,1.68718326092,-0.0,-0.0422789156437,0.0,21.3999996185,0.5642753381003344,-0.0,-0.01414010556645485,21.3999996185,0.0,0.7980058360541565,1.6877129088315501
1648218483737103198,37138,6,3,1.59926021099,-0.0571361146867,0.884300231934,0.0809188112617,21.3999996185,0.5348696357826087,-0.0191090684570903,0.29575258593110365,21.3999996185,0.010934974494824324,0.756661226085848,1.8283557253050615
1648218483737104205,37139,6,4,1.74174070358,0.514225006104,0.211651578546,0.0809188112617,21.3999996185,0.5825219744414716,0.17198160739264212,0.07078648111906354,21.3999996185,0.010934974494824324,0.841570778185494,1.8283556618204857
1648218483737105283,37140,6,5,1.58325386047,-0.487854540348,0.513927400112,0.242756426334,21.3999996185,0.5295163412943144,-0.16316205362809363,0.1718820736160535,21.3999996185,0.03280492247756756,0.7664182716634373,1.7345939616570778
1648218483841868463,37141,7,0,0.00517798401415,0.0454158857465,0.0104118222371,0.0,36.7000007629,0.0017317672288127087,0.015189259446989964,0.003482214795016722,36.7000007629,0.0,0.015385435905997372,0.04688091550819912
1648218483841877314,37142,7,1,0.0335027687252,0.0146502861753,-0.0293386057019,0.0,36.7000007629,0.011204939372976588,0.0048997612626421405,-0.00981224270966555,36.7000007629,0.0,0.01658640989289275,0.04688091489939147
1648218483841884705,37143,7,2,1.72845184803,-0.0,-0.145843088627,0.0,36.7000007629,0.5780775411471571,-0.0,-0.04877695271806019,36.7000007629,0.0,0.8175250987936006,1.7345938998678005
1648218483841888651,37144,7,3,0.922496438026,1.46356356144,0.12569001317,0.0,36.7000007629,0.30852723679799327,0.4894861409498327,0.04203679370234113,36.7000007629,0.0,0.6557246326579241,1.7345938879046787
1648218483842053250,37145,7,4,2.07041573524,-1.19546329975,-0.0278527885675,0.0,36.7000007629,0.69244673419398,-0.39982050158862875,-0.009315313902173912,36.7000007629,0.0,1.0577435383316691,2.390926514054653
1648218483842205477,37146,7,5,1.60573160648,0.34281668067,0.804355382919,0.0809188112617,36.7000007629,0.5370339821003344,0.1146544082508361,0.26901517823377924,36.7000007629,0.010934974494824324,0.7680863422769825,1.8283557779122777
1648218484037027505,37147,9,0,0.0052226819098,0.0454158857465,0.0103894732893,0.0,23.3999996185,0.001746716357792642,0.015189259446989964,0.003474740230535117,23.3999996185,0.0,0.015388815374067449,0.04688091551686221
1648218484037030236,37148,9,1,0.0335027687252,0.0146502861753,-0.0293386057019,0.0,23.3999996185,0.011204939372976588,0.0048997612626421405,-0.00981224270966555,23.3999996185,0.0,0.01658640989289275,0.04688091489939147
1648218484037036803,37149,9,2,1.75922036171,0.114272229373,0.484737038612,0.0809188112617,23.3999996185,0.5883680139498327,0.03821813691404682,0.1621194109070234,23.3999996185,0.010934974494824324,0.8329552603037704,1.8283556601666073
1648218484141951835,37150,10,0,0.0052226819098,0.0454158857465,0.0103894732893,0.0,23.2000007629,0.001746716357792642,0.015189259446989964,0.003474740230535117,23.2000007629,0.0,0.015388815374067449,0.04688091551686221
1648218484141957583,37151,10,1,0.0335027687252,0.0146502861753,-0.0293386057019,0.0,23.2000007629,0.011204939372976588,0.0048997612626421405,-0.00981224270966555,23.2000007629,0.0,0.01658640989289275,0.04688091489939147
1648218484141960387,37152,10,2,1.72647190094,0.054206058383,-0.158659219742,0.0,23.2000007629,0.5774153514849498,0.01812911651605351,-0.05306328419464883,23.2000007629,0.0,0.8167898390201906,1.7345939782871203
1648218484141962947,37153,10,3,1.70926725864,0.0571361146867,0.646548986435,0.0809188112617,23.2000007629,0.5716612905150501,0.0191090684570903,0.2162371192090301,23.2000007629,0.010934974494824324,0.8086769556775825,1.8283557336908807
1648218484336932984,37154,12,0,0.0052226819098,0.0454158857465,0.0103894732893,0.0,22.2999992371,0.001746716357792642,0.015189259446989964,0.003474740230535117,22.2999992371,0.0,0.015388815374067449,0.04688091551686221
1648218484336935036,37155,12,1,0.0335027687252,0.0146502861753,-0.0293386057019,0.0,22.2999992371,0.011204939372976588,0.0048997612626421405,-0.00981224270966555,22.2999992371,0.0,0.01658640989289275,0.04688091489939147
1648218484337097338,37156,12,2,1.72967505455,0.054206058383,-0.118751347065,0.0,22.2999992371,0.5784866403177257,0.01812911651605351,-0.03971616958695652,22.2999992371,0.0,0.8183044976766486,1.7345938929696825
1648218484337101313,37157,12,3,1.67728924751,-0.171408340335,0.707251429558,0.0809188112617,22.2999992371,0.5609663035150502,-0.05732720412541805,0.23653893965150502,22.2999992371,0.010934974494824324,0.7953947420567451,1.8283557158170551
1648218484337104716,37158,12,4,0.913922071457,1.4855389595,0.548456907272,0.0809188112617,22.2999992371,0.3056595556712374,0.4968357724080267,0.18343040376989966,22.2999992371,0.010934974494824324,0.6585600296788114,1.8283556907841985
1648218484441954681,37159,13,0,0.00529174832627,0.0454158857465,0.010354465805,0.0,21.5,0.0017698154937357859,0.015189259446989964,0.0034630320418060196,21.5,0.0,0.015394092903179077,0.04688091552641263
1648218484441957680,37160,13,1,0.0335170030594,0.0146502861753,-0.0293223429471,0.0,21.5,0.011209700019866221,0.0048997612626421405,-0.009806803661237458,21.5,0.0,0.016592842116456903,0.04688091482692462
1648218484441960144,37161,13,2,1.72636270523,0.054206058383,-0.159842655063,0.0,21.5,0.577378831180602,0.01812911651605351,-0.053459081960869556,21.5,0.0,0.8167382042347527,1.7345939470527545
1648218484441966075,37162,13,3,1.79302251339,0.0586011447012,0.546029746532,0.0,21.5,0.5996730814013377,0.019599045050568562,0.1826186443250836,21.5,0.0,0.8482922442658809,1.8752366015469846
1648218484637013868,37163,15,0,0.0052226819098,0.0454158857465,0.0103894732893,0.0,16.2999992371,0.001746716357792642,0.015189259446989964,0.003474740230535117,16.2999992371,0.0,0.015388815374067449,0.04688091551686221
1648218484637016665,37164,15,1,0.0335027687252,0.0146502861753,-0.0293386057019,0.0,16.2999992371,0.011204939372976588,0.0048997612626421405,-0.00981224270966555,16.2999992371,0.0,0.01658640989289275,0.04688091489939147
1648218484637018952,37165,15,2,1.74407052994,-0.0571361146867,0.545745491982,0.0,16.2999992371,0.5833011805819397,-0.0191090684570903,0.18252357591371235,16.2999992371,0.0,0.8251337413012917,1.8283557342665455
1648218484741982143,37166,16,0,0.0052226819098,0.0454158857465,0.0103894732893,0.0,23.7000007629,0.001746716357792642,0.015189259446989964,0.003474740230535117,23.7000007629,0.0,0.015388815374067449,0.04688091551686221
1648218484741985216,37167,16,1,0.0335027687252,0.0146502861753,-0.0293386057019,0.0,23.7000007629,0.011204939372976588,0.0048997612626421405,-0.00981224270966555,23.7000007629,0.0,0.01658640989289275,0.04688091489939147
1648218484741990350,37168,16,2,1.7247209549,0.108412116766,-0.149668082595,0.0,23.7000007629,0.5768297508026755,0.03625823303210702,-0.050056214914715715,23.7000007629,0.0,0.8165658468762724,1.7345939277769067
1648218484741993075,37169,16,3,1.73096048832,-0.171408340335,0.563275754452,0.0,23.7000007629,0.5789165512775919,-0.05732720412541805,0.18838653995050164,23.7000007629,0.0,0.8207162451292886,1.8283557112375266
