%time,field.header.seq,field.header.frame_id,field.point_id,field.x,field.y,field.z,field.velocity,field.intensity,normalized_x,normalized_y,normalized_z,normalized_intensity,normalized_velocity,normalized_range,range
1648218013130581639,15727,0,0,0.00463759712875,0.0454158857465,0.010663500987,0.0,11.8000001907,0.0015510358290133778,0.015189259446989964,0.003566388289966555,11.8000001907,0.0,0.015346824649866184,0.04688091550479237
1648218013130585514,15728,0,1,0.033452514559,0.0146502861753,-0.0293958913535,0.0,11.8000001907,0.011188131959531772,0.0048997612626421405,-0.009831401790468227,11.8000001907,0.0,0.01656370290480607,0.04688091342758873
1648218013130593715,15729,0,2,1.79077517986,0.171408340335,0.326539158821,0.0,11.8000001907,0.5989214648361204,0.05732720412541805,0.10921042101036788,11.8000001907,0.0,0.848940663660144,1.828355650901252
1648218013130611993,15730,0,3,1.12069630623,1.53828001022,-0.504667401314,0.0,11.8000001907,0.3748148181371237,0.51447491980602,-0.168785084051505,11.8000001907,0.0,0.7386858188023788,1.9689984221905905
1648218013130638693,15731,0,4,2.1339840889,-1.14272224903,0.288450598717,0.0,11.8000001907,0.7137070531438127,-0.3821813541906354,0.09647177214615385,11.8000001907,0.0,1.079267391754906,2.437807617103273
1648218013130655425,15732,0,5,1.87495684624,0.420463234186,0.0477873198688,0.161837622523,11.8000001907,0.6270758683076922,0.14062315524615385,0.01598238122702341,11.8000001907,0.021869948989594594,0.8978993044986037,1.9221176172400691
1648218013235583106,15733,1,0,0.00458371732384,0.0454158857465,0.0106867719442,0.0,21.7000007629,0.0015330158273712375,0.015189259446989964,0.0035741712187959867,21.7000007629,0.0,0.01534320297727679,0.04688091549054212
1648218013235585949,15734,1,1,0.0334959626198,0.0146502861753,-0.0293463747948,0.0,21.7000007629,0.01120266308354515,0.0048997612626421405,-0.009814841068494983,21.7000007629,0.0,0.016583334428206507,0.04688091413829404
1648218013235590253,15735,1,2,1.11488974094,1.53828001022,-0.517368733883,0.0,21.7000007629,0.37287282305685615,0.51447491980602,-0.17303302136555182,21.7000007629,0.0,0.736717535734144,1.9689984588859897
1648218013235596311,15736,1,3,2.08972644806,-1.21890377998,0.30037137866,0.0,21.7000007629,0.6989051665752508,-0.407660127083612,0.10045865507023412,21.7000007629,0.0,1.0691696043869676,2.4378076252422183
1648218013235620857,15737,1,4,1.82135617733,0.0571361146867,0.149270027876,-0.0809188112617,21.7000007629,0.6091492231872909,0.0191090684570903,0.04992308624615384,21.7000007629,-0.010934974494824324,0.8616790056144211,1.8283556550960605
1648218013430458982,15738,3,0,0.00463759712875,0.0454158857465,0.010663500987,0.0,19.6000003815,0.0015510358290133778,0.015189259446989964,0.003566388289966555,19.6000003815,0.0,0.015346824649866184,0.04688091550479237
1648218013430467019,15739,3,1,0.033452514559,0.0146502861753,-0.0293958913535,0.0,19.6000003815,0.011188131959531772,0.0048997612626421405,-0.009831401790468227,19.6000003815,0.0,0.01656370290480607,0.04688091342758873
1648218013430470173,15740,3,2,1.80584168434,0.114272229373,0.26222500205,0.0,19.6000003815,0.6039604295451505,0.03821813691404682,0.08770066958193978,19.6000003815,0.0,0.8549836413066079,1.8283556226855666
1648218013430473242,15741,3,3,1.19659340382,1.47674882412,-0.514132380486,0.0,19.6000003815,0.4001984628160534,0.49389592779933106,-0.1719506289250836,19.6000003815,0.0,0.7511662976847578,1.9689984683258483
1648218013430488023,15742,3,4,1.87260699272,0.553780794144,0.252238869667,0.0,19.6000003815,0.6262899641204013,0.18521096794113712,0.08436082597558528,19.6000003815,0.0,0.9048653717330329,1.9689983657985823
1648218013430492864,15743,3,5,2.13793706894,-1.14272224903,0.257519990206,0.0,19.6000003815,0.7150291200468226,-0.3821813541906354,0.08612708702541806,19.6000003815,0.0,1.0810161296302914,2.4378075384516387
1648218013430666121,15744,3,6,1.62743413448,-0.316446185112,0.315745055676,0.242756426334,19.6000003815,0.5442923526688963,-0.10583484451906354,0.1056003530688963,19.6000003815,0.03280492247756756,0.7769873516744392,1.6877129466607899
1648218013430684808,15745,3,7,1.86469805241,0.420463234186,0.201612874866,-0.0809188112617,19.6000003815,0.6236448335819398,0.14062315524615385,0.06742905513913043,19.6000003815,-0.010934974494824324,0.8931072884588249,1.9221175586512733
1648218013535629260,15746,4,0,0.00458371732384,0.0454158857465,0.0106867719442,0.0,21.0,0.0015330158273712375,0.015189259446989964,0.0035741712187959867,21.0,0.0,0.01534320297727679,0.04688091549054212
1648218013535634901,15747,4,1,0.033452514559,0.0146502861753,-0.0293958913535,0.0,21.0,0.011188131959531772,0.0048997612626421405,-0.009831401790468227,21.0,0.0,0.01656370290480607,0.04688091342758873
1648218013535658622,15748,4,2,1.7977591753,0.171408340335,0.28559705615,0.0,21.0,0.601257249264214,0.05732720412541805,0.09551741008361203,21.0,0.0,0.8522364507097637,1.8283556956985372
1648218013535797673,15749,4,3,1.14702832699,1.53828001022,-0.441560268402,0.0,21.0,0.3836215140434782,0.51447491980602,-0.14767901953244147,21.0,0.0,0.7476733077911982,1.9689984366147089
1648218013535801196,15750,4,4,1.7474758625,0.36918720603,-0.82884478569,0.0,21.0,0.5844400877926421,0.12347398194983276,-0.2772056139431438,21.0,0.0,0.8356950739693816,1.968998415916544
1648218013535804179,15751,4,5,2.11027574539,-1.12074685097,-0.0848095342517,0.0,21.0,0.7057778412675585,-0.3748317227324415,-0.028364392726321068,21.0,0.0,1.0661817588081124,2.3909265740796983
1648218013535806784,15752,4,6,1.65926384926,-0.216824233532,0.456778436899,0.404594063759,21.0,0.5549377422274248,-0.07251646606421404,0.15276870799297657,21.0,0.05467487348094594,0.7881436628860158,1.7345938458681747
1648218013535873514,15753,4,7,1.86529290676,0.360397040844,0.292116940022,-0.0809188112617,21.0,0.6238437815250836,0.12053412737257524,0.097697973251505,21.0,-0.010934974494824324,0.8904440484143294,1.9221175722900248
1648218013730436262,15754,6,0,0.00458371732384,0.0454158857465,0.0106867719442,0.0,22.0,0.0015330158273712375,0.015189259446989964,0.0035741712187959867,22.0,0.0,0.01534320297727679,0.04688091549054212
1648218013730442701,15755,6,1,0.0334379263222,0.0146502861753,-0.0294124856591,0.0,22.0,0.011183252950568563,0.0048997612626421405,-0.009836951725451504,22.0,0.0,0.01655711187205333,0.04688091418044048
1648218013730447412,15756,6,2,1.8277528286,-0.0,-0.0469483733177,0.0,22.0,0.6112885714381271,-0.0,-0.015701797096220736,22.0,0.0,0.8644925882514739,1.8283556963054206
1648218013730452674,15757,6,3,1.06826627254,1.47674882412,-0.744966387749,0.0,22.0,0.357279689812709,0.49389592779933106,-0.2491526380431438,22.0,0.0,0.7065626235529964,1.9689984351091043
1648218013730458680,15758,6,4,1.39636623859,0.799905598164,1.13457798958,0.0,22.0,0.4670121199297658,0.26752695590769227,0.37945752159866214,22.0,0.0,0.7125807410110269,1.9689984389753805
1648218013730549247,15759,6,5,2.09556555748,-1.21890377998,0.256485551596,0.0,22.0,0.7008580459799331,-0.407660127083612,0.08578112093511706,22.0,0.0,1.0717232760575122,2.4378076767299546
1648218013730761810,15760,6,6,1.71807801723,-0.0,0.471020638943,0.161837622523,22.0,0.5746080325183947,-0.0,0.15753198626856185,22.0,0.021869948989594594,0.8126184726360342,1.7814748147530013
1648218013835469495,15761,7,0,0.00458371732384,0.0454158857465,0.0106867719442,0.0,25.7000007629,0.0015330158273712375,0.015189259446989964,0.0035741712187959867,25.7000007629,0.0,0.01534320297727679,0.04688091549054212
1648218013835473281,15762,7,1,0.0334299616516,0.0146502861753,-0.0294215362519,0.0,25.7000007629,0.011180589181137122,0.0048997612626421405,-0.009839978679565216,25.7000007629,0.0,0.016553513503350565,0.04688091313602476
1648218013835475348,15763,7,2,1.79450857639,0.114272229373,0.331006616354,0.0,25.7000007629,0.600170092438127,0.03821813691404682,0.1107045539645485,25.7000007629,0.0,0.849628686958933,1.8283556965791048
1648218013835477609,15764,7,3,0.979194104671,1.53828001022,-0.742851495743,0.0,25.7000007629,0.3274896671140468,0.51447491980602,-0.24844531630200667,25.7000007629,0.0,0.692230747108469,1.9689984330091521
1648218013835478946,15765,7,4,1.67148435116,0.799905598164,0.665767133236,0.0,25.7000007629,0.5590248666086955,0.26752695590769227,0.2226645930555184,25.7000007629,0.0,0.8346186405245068,1.9689984199699486
1648218013835482199,15766,7,5,2.08735775948,-1.21890377998,0.316412299871,0.0,25.7000007629,0.6981129630367893,-0.407660127083612,0.1058235116625418,25.7000007629,0.0,1.0681339792057163,2.4378075363778318
1648218014030590956,15767,9,0,0.0335183925927,0.0146502861753,-0.0293207559735,0.0,12.6000003815,0.011210164746722408,0.0048997612626421405,-0.009806272900836119,12.6000003815,0.0,0.016593470032763017,0.046880915710703526
1648218014030593664,15768,9,1,0.00462807761505,0.0454158857465,0.0106676360592,0.0,12.6000003815,0.001547852045167224,0.015189259446989964,0.0035677712572575247,12.6000003815,0.0,0.015346181754932742,0.046880915516248324
1648218014030595474,15769,9,2,1.7425096035,0.0556710883975,0.366351753473,0.0,12.6000003815,0.5827791316053511,0.018619093109531772,0.12252567005785951,12.6000003815,0.0,0.824384438898258,1.7814748372193843
1648218014030712382,15770,9,3,1.9210652113,0.0600661747158,-0.0208943951875,0.0,12.6000003815,0.6424967261872909,0.020089021644080267,-0.0069880920359531775,12.6000003815,0.0,0.9088496328399928,1.9221175997223359
1648218014135512376,15771,10,0,0.00462807761505,0.0454158857465,0.0106676360592,0.0,16.3999996185,0.001547852045167224,0.015189259446989964,0.0035677712572575247,16.3999996185,0.0,0.015346181754932742,0.046880915516248324
1648218014135514870,15772,10,1,0.033452514559,0.0146502861753,-0.0293958913535,0.0,16.3999996185,0.011188131959531772,0.0048997612626421405,-0.009831401790468227,16.3999996185,0.0,0.01656370290480607,0.04688091342758873
1648218014135516829,15773,10,2,1.69723546505,0.111342176795,0.529761791229,0.0,16.3999996185,0.5676372792809363,0.037238186219063545,0.17717785659832774,16.3999996185,0.0,0.8036235711897785,1.781474911303299
1648218014135517930,15774,10,3,1.80363106728,0.36918720603,0.698262631893,0.0,16.3999996185,0.603221092735786,0.12347398194983276,0.2335326528070234,16.3999996185,0.0,0.8619728520442271,1.9689984568434706
1648218014135518992,15775,10,4,1.33975934982,-1.41521763802,-0.281351327896,0.0,16.3999996185,0.4480800501070234,-0.47331693579264206,-0.09409743407892976,16.3999996185,0.0,0.7909363971369386,1.9689983870236814
1648218014135520009,15776,10,5,2.12997579575,-1.14272224903,0.316693603992,0.0,16.3999996185,0.7123664868729097,-0.3821813541906354,0.10591759330836119,16.3999996185,0.0,1.077494598933234,2.437807594482893
