%time,field.header.seq,field.header.frame_id,field.point_id,field.x,field.y,field.z,field.velocity,field.intensity,normalized_x,normalized_y,normalized_z,normalized_intensity,normalized_velocity,normalized_range,range
1648294933665803904,29285,0,0,0.0126920221373,0.0439508594573,0.0102496230975,0.0,16.5,0.00424482345729097,0.014699284099431437,0.0034279675911371237,16.5,0.0,0.015877846371688233,0.04688091559056686
1648294933665810677,29286,0,1,0.033514522016,0.0146502861753,-0.0293251797557,0.0,16.5,0.011208870239464881,0.0048997612626421405,-0.009807752426655518,16.5,0.0,0.016591720963215706,0.0468809155060271
1648294933665826409,29287,0,2,2.23784470558,-1.2306240797,0.608260035515,0.0,16.5,0.7484430453444816,-0.4115799597658863,0.2034314500050167,16.5,0.0,1.1356637035363646,2.6253313738716146
1648294933665829599,29288,0,3,0.540714800358,0.348676800728,1.45833194256,-0.566431701183,16.5,0.18084107035384614,0.11661431462474915,0.487736435638796,16.5,-0.07654482448418919,0.2810798531180231,1.5939510850032157
1648294933665838531,29289,0,4,1.56492972374,-0.298865824938,-0.0485223010182,-0.566431701183,16.5,0.5233878674715718,-0.09995512539732442,-0.016228194320468226,16.5,-0.07654482448418919,0.7469007609623076,1.5939511395450379
1648294933665844668,29290,0,5,1.91824495792,-0.120132349432,0.0209871996194,-0.0809188112617,16.5,0.641553497632107,-0.040178043288294316,0.007019130307491639,16.5,-0.010934974494824324,0.9081828317087126,1.922117572500033
1648294933860752126,29291,2,0,0.0126920221373,0.0439508594573,0.0102496230975,0.0,16.1000003815,0.00424482345729097,0.014699284099431437,0.0034279675911371237,16.1000003815,0.0,0.015877846371688233,0.04688091559056686
1648294933860781623,29292,2,1,0.033514522016,0.0146502861753,-0.0293251797557,0.0,16.1000003815,0.011208870239464881,0.0048997612626421405,-0.009807752426655518,16.1000003815,0.0,0.016591720963215706,0.0468809155060271
1648294933861052151,29293,2,2,2.19570469856,-1.31266570091,0.590046226978,0.0,16.1000003815,0.7343493975117057,-0.4390186290668896,0.19733987524347826,16.1000003815,0.0,1.1275085063623163,2.6253313915761143
1648294933861145909,29294,2,3,1.75337100029,-0.114272229373,0.505486428738,0.0809188112617,16.1000003815,0.5864117057826087,-0.03821813691404682,0.1690590062668896,16.1000003815,0.010934974494824324,0.8301915461789036,1.8283556920638084
1648294933861225969,29295,2,4,1.66798472404,0.105482056737,0.234681114554,0.566431701183,16.1000003815,0.5578544227558528,0.035278279845150494,0.07848866707491639,16.1000003815,0.07654482448418919,0.7897136639348241,1.6877128693745778
1648294933861273409,29296,2,5,1.36738777161,0.421928226948,0.450328141451,-0.485512852669,16.1000003815,0.45732032495317726,0.14111311938060198,0.15061141854548493,16.1000003815,-0.06560984495527027,0.6619642525785537,1.5001893819204148
1648294933861275332,29297,2,6,1.11662125587,-0.093761831522,-0.997463643551,-0.485512852669,16.1000003815,0.37345192504013375,-0.03135847208093645,-0.3335998807862876,16.1000003815,-0.06560984495527027,0.5290709162329887,1.5001893314902264
1648294933861277814,29298,2,7,1.90937924385,-0.120132349432,-0.185404956341,-0.0809188112617,16.1000003815,0.6385883758695652,-0.040178043288294316,-0.06200834660234113,16.1000003815,-0.010934974494824324,0.9039936408813583,1.9221175500112
1648294933965813136,29299,3,0,0.0126920221373,0.0439508594573,0.0102496230975,0.0,15.6999998093,0.00424482345729097,0.014699284099431437,0.0034279675911371237,15.6999998093,0.0,0.015877846371688233,0.04688091559056686
1648294933965822343,29300,3,1,0.0335651524365,0.0146502861753,-0.0292672142386,0.0,15.6999998093,0.011225803490468226,0.0048997612626421405,-0.009788365966086955,15.6999998093,0.0,0.01661460166372055,0.046880914799007266
1648294933965825238,29301,3,2,2.23857975006,-1.2306240797,0.60554933548,0.0,15.6999998093,0.748688879618729,-0.4115799597658863,0.20252486136454848,15.6999998093,0.0,1.1359877377024736,2.6253313925324617
1648294933965828222,29302,3,3,1.85355949402,-0.0586011447012,0.278200507164,0.242756426334,15.6999998093,0.6199195632173913,-0.019599045050568562,0.09304364788093646,15.6999998093,0.03280492247756756,0.876917699836294,1.8752366288600157
1648294933965832807,29303,3,4,1.11533141136,-0.153828009963,-1.19360911846,-0.0809188112617,15.6999998093,0.3730205389163879,-0.05144749497090301,-0.3992003740668896,15.6999998093,-0.010934974494824324,0.5300334797404085,1.6408320881450131
1648294933965974645,29304,3,5,1.53078711033,0.512760043144,0.293424397707,-0.0809188112617,15.6999998093,0.5119689332207358,0.17149165322541807,0.09813525006923077,15.6999998093,-0.010934974494824324,0.7440656989086001,1.6408320804296896
1648294934160922534,29305,5,0,0.0127241741866,0.0439508594573,0.0102096805349,0.0,12.0,0.004255576651036789,0.014699284099431437,0.003414608874548495,12.0,0.0,0.01588360218280151,0.046880915438918105
1648294934160925250,29306,5,1,0.033514522016,0.0146502861753,-0.0293251797557,0.0,12.0,0.011208870239464881,0.0048997612626421405,-0.009807752426655518,12.0,0.0,0.016591720963215706,0.0468809155060271
1648294934160998248,29307,5,2,1.47655487061,-1.68478298187,0.689813792706,0.0,12.0,0.4938310604046822,-0.5634725691872909,0.2307069540822742,12.0,0.0,0.8973514187136231,2.34404587210411
1648294934161001689,29308,5,3,1.91316723824,-0.879017233849,-1.03037440777,0.0,12.0,0.639855263625418,-0.29398569693946486,-0.34460682534113707,12.0,0.0,0.951450002250927,2.344045989110665
1648294934161004264,29309,5,4,2.24007081985,-1.2306240797,0.600009858608,0.0,12.0,0.7491875651672241,-0.4115799597658863,0.20067219351438126,12.0,0.0,1.136645098033364,2.625331356973385
1648294934161007417,29310,5,5,1.88551878929,-0.240264698863,0.285705715418,0.242756426334,12.0,0.6306082907324414,-0.08035608657625418,0.09555375097591973,12.0,0.03280492247756756,0.8954276817983868,1.9221175786376512
1648294934161016366,29311,5,6,1.76297366619,0.0571361146867,0.481189846992,0.323675245047,12.0,0.5896232997290969,0.0191090684570903,0.16093305919464881,12.0,0.04373989797932432,0.8340721957145883,1.8283556415886613
1648294934161025059,29312,5,7,1.8129452467,0.114272229373,0.207498580217,0.566431701183,12.0,0.6063362029096989,0.03821813691404682,0.06939751846722407,12.0,0.07654482448418919,0.8583401469738463,1.828355619328491
1648294934265788656,29313,6,0,0.0127040036023,0.0439508594573,0.0102347685024,0.0,26.7999992371,0.004248830636220735,0.014699284099431437,0.0034229994991304344,26.7999992371,0.0,0.015879989816948048,0.046880915529246094
1648294934265813842,29314,6,1,0.033514522016,0.0146502861753,-0.0293251797557,0.0,26.7999992371,0.011208870239464881,0.0048997612626421405,-0.009807752426655518,26.7999992371,0.0,0.016591720963215706,0.0468809155060271
1648294934265822762,29315,6,2,1.46851456165,-1.68478298187,0.706769168377,0.0,26.7999992371,0.4911419938628762,-0.5634725691872909,0.23637764828662206,26.7999992371,0.0,0.8943949085821818,2.3440459404937384
1648294934265891286,29316,6,3,1.97924280167,-0.879017233849,-0.896926820278,0.0,26.7999992371,0.661954114270903,-0.29398569693946486,-0.2999755251765886,26.7999992371,0.0,0.9812207136038937,2.3440458797344523
1648294934265893048,29317,6,4,2.23702669144,-1.2306240797,0.611261606216,0.0,26.7999992371,0.7481694620200668,-0.4115799597658863,0.20443531980468227,26.7999992371,0.0,1.1353031097815602,2.625331368605919
1648294934265894120,29318,6,5,1.84494829178,-0.234404578805,0.240276649594,0.0809188112617,26.7999992371,0.6170395624682273,-0.07839618020234114,0.08036008347625417,26.7999992371,0.010934974494824324,0.8761401739289671,1.8752366715289053
1648294934265895166,29319,6,6,1.1038851738,0.410208016634,-1.45934212208,0.0809188112617,26.7999992371,0.36919236581939796,0.13719331659999998,-0.4880742883210702,26.7999992371,0.010934974494824324,0.5398407284360417,1.8752366578976676
1648294934265898101,29320,6,7,1.80628979206,0.228544458747,0.167240276933,0.161837622523,26.7999992371,0.604110298347826,0.07643627382842809,0.05593320298762541,26.7999992371,0.021869948989594594,0.8577534663856353,1.828355734738933
1648294934265899071,29321,6,8,1.47481966019,-0.34281668067,1.0248259306,0.161837622523,26.7999992371,0.4932507224715719,-0.1146544082508361,0.3427511473578595,26.7999992371,0.021869948989594594,0.7069216249124118,1.8283556805662022
1648294934265901455,29322,6,9,1.93832075596,-0.061531201005,0.340706974268,0.161837622523,26.7999992371,0.6482678113578595,-0.020578996991638794,0.11394882082541806,26.7999992371,0.021869948989594594,0.9170200682660116,1.9689983961388386
1648294934460804483,29323,8,0,0.0127122588456,0.0439508594573,0.0102245127782,0.0,29.7999992371,0.004251591587157191,0.014699284099431437,0.0034195694910367893,29.7999992371,0.0,0.015881467661515717,0.04688091545122009
1648294934460966063,29324,8,1,0.033514522016,0.0146502861753,-0.0293251797557,0.0,29.7999992371,0.011208870239464881,0.0048997612626421405,-0.009807752426655518,29.7999992371,0.0,0.016591720963215706,0.0468809155060271
1648294934460969618,29325,8,2,1.91545712948,-0.0600661747158,0.148162946105,0.0,29.7999992371,0.6406211135384615,-0.020089021644080267,0.049552824784280934,29.7999992371,0.0,0.9061977659501997,1.9221176391728119
1648294934460972173,29326,8,3,2.23782849312,-1.2306240797,0.608320057392,0.0,29.7999992371,0.7484376231170567,-0.4115799597658863,0.20345152421137122,29.7999992371,0.0,1.1356565566557115,2.625331461431605
1648294934461032610,29327,8,4,1.82607698441,-0.0586011447012,0.422517567873,0.0809188112617,29.7999992371,0.6107280884314381,-0.019599045050568562,0.14131022336889631,29.7999992371,0.010934974494824324,0.8639222873413622,1.875236609687835
1648294934565832580,29328,9,0,0.0127122588456,0.0439508594573,0.0102245127782,0.0,20.3999996185,0.004251591587157191,0.014699284099431437,0.0034195694910367893,20.3999996185,0.0,0.015881467661515717,0.04688091545122009
1648294934565837334,29329,9,1,0.033514522016,0.0146502861753,-0.0293251797557,0.0,20.3999996185,0.011208870239464881,0.0048997612626421405,-0.009807752426655518,20.3999996185,0.0,0.016591720963215706,0.0468809155060271
1648294934565840380,29330,9,2,2.23602628708,-1.2306240797,0.614911079407,0.0,20.3999996185,0.7478348786220735,-0.4115799597658863,0.20565587940033442,20.3999996185,0.0,1.1348621390496167,2.6253313729180405
1648294934565849413,29331,9,3,1.80373609066,-0.117202289402,0.499311685562,0.0809188112617,20.3999996185,0.6032562176120401,-0.03919809010100334,0.16699387476989966,20.3999996185,0.010934974494824324,0.8540331483278248,1.8752366305960577
1648294934760748833,29332,11,0,0.0127122588456,0.0439508594573,0.0102245127782,0.0,12.6999998093,0.004251591587157191,0.014699284099431437,0.0034195694910367893,12.6999998093,0.0,0.015881467661515717,0.04688091545122009
1648294934760754806,29333,11,1,0.0334917195141,0.0146502861753,-0.0293512195349,0.0,12.6999998093,0.011201243984648829,0.0048997612626421405,-0.009816461382909699,12.6999998093,0.0,0.016581417129972686,0.04688091561835401
1648294934760870427,29334,11,2,1.80728232861,-0.0,0.276794463396,0.0,12.6999998093,0.6044422503712374,-0.0,0.09257339912909698,12.6999998093,0.0,0.8548104281463179,1.8283557067137302
1648294934760875339,29335,11,3,2.23860955238,-1.2306240797,0.605439066887,0.0,12.6999998093,0.7486988469498327,-0.4115799597658863,0.20248798223645484,12.6999998093,0.0,1.136000875936681,2.6253313728475223
1648294934760877228,29336,11,4,1.82780063152,-0.360397040844,0.473069548607,0.0809188112617,12.6999998093,0.6113045590367893,-0.12053412737257524,0.1582172403367893,12.6999998093,0.010934974494824324,0.8728774276264651,1.9221175753458093
1648294934865810328,29337,12,0,0.0126214576885,0.0439508594573,0.0103363925591,0.0,13.8000001907,0.0042212233071906346,0.014699284099431437,0.003456987477959866,13.8000001907,0.0,0.015865257812406854,0.046880915651827344
1648294934865812761,29338,12,1,0.033514522016,0.0146502861753,-0.0293251797557,0.0,13.8000001907,0.011208870239464881,0.0048997612626421405,-0.009807752426655518,13.8000001907,0.0,0.016591720963215706,0.0468809155060271
1648294934865816843,29339,12,2,1.91227555275,-0.120132349432,0.152664765716,0.0,13.8000001907,0.6395570410535116,-0.040178043288294316,0.051058450072240795,13.8000001907,0.0,0.9053621886762901,1.9221176087108955
1648294934865818985,29340,12,3,2.23466777802,-1.2306240797,0.619830369949,0.0,13.8000001907,0.7473805277658863,-0.4115799597658863,0.20730112707324413,13.8000001907,0.0,1.1342633600042444,2.625331482150288
1648294935060757223,29341,14,0,0.0127122588456,0.0439508594573,0.0102245127782,0.0,14.5,0.004251591587157191,0.014699284099431437,0.0034195694910367893,14.5,0.0,0.015881467661515717,0.04688091545122009
1648294935060760340,29342,14,1,0.0335858874023,0.0146502861753,-0.0292434170842,0.0,14.5,0.011232738261638795,0.0048997612626421405,-0.009780407051571904,14.5,0.0,0.01662397299504113,0.046880914670883296
1648294935060763272,29343,14,2,1.91634261608,-0.120132349432,0.0879491940141,0.0,14.5,0.64091726290301,-0.040178043288294316,0.02941444615856187,14.5,0.0,0.9072839417385541,1.9221175469549514
1648294935060772707,29344,14,3,2.19202470779,-1.31266570091,0.603574097157,0.0,14.5,0.7331186313678929,-0.4390186290668896,0.20186424654080265,14.5,0.0,1.1259055075738977,2.6253314557720637
1648294935060777430,29345,14,4,1.83142220974,-0.293005734682,0.276681989431,-0.0809188112617,14.5,0.6125157892107023,-0.09799522899063544,0.09253578241839464,14.5,-0.010934974494824324,0.8717535482977663,1.8752366768386808
1648294935165846324,29346,15,0,0.0127122588456,0.0439508594573,0.0102245127782,0.0,17.2000007629,0.004251591587157191,0.014699284099431437,0.0034195694910367893,17.2000007629,0.0,0.015881467661515717,0.04688091545122009
1648294935165850755,29347,15,1,0.033514522016,0.0146502861753,-0.0293251797557,0.0,17.2000007629,0.011208870239464881,0.0048997612626421405,-0.009807752426655518,17.2000007629,0.0,0.016591720963215706,0.0468809155060271
1648294935165852845,29348,15,2,1.87325656414,-0.120132349432,0.413538664579,0.0,17.2000007629,0.6265072120869565,-0.040178043288294316,0.13830724567859531,17.2000007629,0.0,0.8869255034986971,1.9221176248022476
1648294935165854839,29349,15,3,2.23439049721,-1.2306240797,0.620828449726,0.0,17.2000007629,0.7472877917090301,-0.4115799597658863,0.2076349330187291,17.2000007629,0.0,1.134141151072302,2.6253313092920316
