%time,field.header.seq,field.header.frame_id,field.point_id,field.x,field.y,field.z,field.velocity,field.intensity,normalized_x,normalized_y,normalized_z,normalized_intensity,normalized_velocity,normalized_range,range
1648296025276126133,72305,0,0,0.0127004906535,0.0439508594573,0.0102391270921,0.0,15.5,0.004247655736956521,0.014699284099431437,0.003424457221438127,15.5,0.0,0.01587936118221376,0.046880915450566385
1648296025276157739,72306,0,1,0.033517640084,0.0146502861753,-0.0293216109276,0.0,15.5,0.011209913071571907,0.0048997612626421405,-0.009806558838662207,15.5,0.0,0.016593129981268932,0.04688091241868381
1648296025276162204,72307,0,2,2.24091482162,-1.2306240797,0.596850335598,0.0,15.5,0.7494698400066889,-0.4115799597658863,0.1996154968555184,15.5,0.0,1.1370172142233346,2.6253314431509622
1648296025276172960,72308,0,3,1.89060533047,-0.120132349432,0.325139760971,0.0809188112617,15.5,0.6323094750735785,-0.040178043288294316,0.10874239497357858,15.5,0.010934974494824324,0.8951227958767025,1.9221176241702558
1648296025276186474,72309,0,4,0.888308942318,0.167013257742,1.53514373302,0.485512852669,15.5,0.2970932917451505,0.05585727683678929,0.5134259976655517,15.5,0.06560984495527027,0.4238500718126162,1.7814748065280912
1648296025276203521,72310,0,5,1.71767115593,-0.44536870718,-0.157812893391,0.485512852669,15.5,0.5744719585050166,-0.14895274487625418,-0.05278023190334447,15.5,0.06560984495527027,0.8259679064124402,1.781474780784035
1648296025276211562,72311,0,6,1.96840322018,-0.0,-0.0484107099473,-0.242756426334,15.5,0.6583288361806019,-0.0,-0.016190872892073577,15.5,-0.03280492247756756,0.9310175686279026,1.9689984342433071
1648296025276222132,72312,0,7,1.95346283913,-0.24612480402,-0.0189866647124,-0.0809188112617,15.5,0.6533320532207357,-0.08231598796655518,-0.006350055087759197,15.5,-0.010934974494824324,0.9276106216544496,1.9689984704038308
1648296025471079464,72313,2,0,0.0127004906535,0.0439508594573,0.0102391270921,0.0,14.8999996185,0.004247655736956521,0.014699284099431437,0.003424457221438127,14.8999996185,0.0,0.01587936118221376,0.046880915450566385
1648296025471085111,72314,2,1,0.0335269682109,0.0146502861753,-0.0293109472841,0.0,14.8999996185,0.01121303284645485,0.0048997612626421405,-0.00980299240270903,14.8999996185,0.0,0.016597345319726262,0.046880914166899254
1648296025471090534,72315,2,2,2.24265098572,-1.2306240797,0.590293109417,0.0,14.8999996185,0.7500504968963211,-0.4115799597658863,0.1974224446210702,14.8999996185,0.0,1.137782738078639,2.6253314122818
1648296025576163639,72316,3,0,0.0127004906535,0.0439508594573,0.0102391270921,0.0,16.0,0.004247655736956521,0.014699284099431437,0.003424457221438127,16.0,0.0,0.01587936118221376,0.046880915450566385
1648296025576170759,72317,3,1,0.0335041433573,0.0146502861753,-0.0293370354921,0.0,16.0,0.011205399116153847,0.0048997612626421405,-0.009811717555886288,16.0,0.0,0.016587031052466603,0.046880914651800804
1648296025576180191,72318,3,2,1.96461546421,-0.12306240201,0.0457879714668,0.0,16.0,0.6570620281638796,-0.04115799398327759,0.015313702831705684,16.0,0.0,0.9301370856913455,1.9689984294896197
1648296025576187511,72319,3,3,2.24191069603,-1.2306240797,0.593098461628,0.0,16.0,0.7498029083712374,-0.4115799597658863,0.19836068950769228,16.0,0.0,1.1374563139236695,2.6253314037844238
1648296025576193476,72320,3,4,1.89662313461,-0.120132349432,0.287966966629,-0.161837622523,16.0,0.6343221185986622,-0.040178043288294316,0.09631002228394649,16.0,-0.021869948989594594,0.8979662440478854,1.9221176004572202
1648296025771078940,72321,5,0,0.0127207012847,0.0439508594573,0.0102140065283,0.0,22.2999992371,0.004254415145384615,0.014699284099431437,0.003416055695083612,22.2999992371,0.0,0.01588297986822227,0.04688091528084813
1648296025771089330,72322,5,1,0.033517640084,0.0146502861753,-0.0293216109276,0.0,22.2999992371,0.011209913071571907,0.0048997612626421405,-0.009806558838662207,22.2999992371,0.0,0.016593129981268932,0.04688091241868381
1648296025771098274,72323,5,2,2.23966264725,-1.2306240797,0.601531922817,0.0,22.2999992371,0.7490510525919731,-0.4115799597658863,0.20118124508929763,22.2999992371,0.0,1.1364651433542405,2.6253314177818132
1648296025771101017,72324,5,3,1.86171066761,-0.117202289402,0.191857635975,-0.0809188112617,22.2999992371,0.6226457082307691,-0.03919809010100334,0.06416643343645484,22.2999992371,-0.010934974494824324,0.8814260299219434,1.8752366088085677
1648296025876088077,72325,6,0,0.0127004906535,0.0439508594573,0.0102391270921,0.0,16.0,0.004247655736956521,0.014699284099431437,0.003424457221438127,16.0,0.0,0.01587936118221376,0.046880915450566385
1648296025876098603,72326,6,1,0.0335041433573,0.0146502861753,-0.0293370354921,0.0,16.0,0.011205399116153847,0.0048997612626421405,-0.009811717555886288,16.0,0.0,0.016587031052466603,0.046880914651800804
1648296025876129023,72327,6,2,1.85350847244,-0.117202289402,0.259387969971,0.0,16.0,0.6199024991438127,-0.03919809010100334,0.08675182942173912,16.0,0.0,0.877550401491023,1.8752365592142257
1648296025876138490,72328,6,3,2.24538755417,-1.2306240797,0.579795956612,0.0,16.0,0.750965737180602,-0.4115799597658863,0.19391169117458193,16.0,0.0,1.138989525904123,2.625331263909877
1648296025876144613,72329,6,4,1.73734760284,-0.293005734682,0.642092764378,0.485512852669,16.0,0.5810527099799331,-0.09799522899063544,0.21474674393913043,16.0,0.06560984495527027,0.8275551754747085,1.8752365642011715
1648296026071010609,72330,8,0,0.0127121871337,0.0439508594573,0.0102246021852,0.0,25.7000007629,0.004251567603244147,0.014699284099431437,0.003419599393043478,25.7000007629,0.0,0.01588145482018912,0.04688091550517269
1648296026071019432,72331,8,1,0.0335906594992,0.0146502861753,-0.0292379353195,0.0,25.7000007629,0.011234334280668896,0.0048997612626421405,-0.009778573685451503,25.7000007629,0.0,0.016626129853050984,0.04688091458532616
1648296026071029627,72332,8,2,2.24218535423,-1.2306240797,0.592058897018,0.0,25.7000007629,0.7498947673010034,-0.4115799597658863,0.19801300903612037,25.7000007629,0.0,1.1375774203682756,2.625331317338662
1648296026071035356,72333,8,3,1.85475063324,-0.175803437829,0.21332013607,0.0809188112617,25.7000007629,0.6203179375384614,-0.05879713639765886,0.07134452711371236,25.7000007629,0.010934974494824324,0.8792302261140172,1.875236582596873
1648296026071040055,72334,8,4,0.552729606628,0.46880915761,-1.72951447964,0.0809188112617,25.7000007629,0.18485940021003341,0.15679236040468228,-0.5784329363344481,25.7000007629,0.010934974494824324,0.3048439600407041,1.875236619626057
1648296026071050443,72335,8,5,1.82943439484,-0.293005734682,0.28953358531,-0.0809188112617,25.7000007629,0.611850968173913,-0.09799522899063544,0.09683397502006688,25.7000007629,-0.010934974494824324,0.8708193150221444,1.8752365884342697
1648296026176113247,72336,9,0,0.0127207012847,0.0439508594573,0.0102140065283,0.0,12.1999998093,0.004254415145384615,0.014699284099431437,0.003416055695083612,12.1999998093,0.0,0.01588297986822227,0.04688091528084813
1648296026176132055,72337,9,1,0.0335269682109,0.0146502861753,-0.0293109472841,0.0,12.1999998093,0.01121303284645485,0.0048997612626421405,-0.00980299240270903,12.1999998093,0.0,0.016597345319726262,0.046880914166899254
1648296026176153252,72338,9,2,2.24124312401,-1.2306240797,0.595616042614,0.0,12.1999998093,0.7495796401371236,-0.4115799597658863,0.1992026898374582,12.1999998093,0.0,1.1371619660791896,2.625331376546347
1648296026176158024,72339,9,3,1.9152162075,-0.120132349432,0.109779082239,-0.0809188112617,12.1999998093,0.6405405376254181,-0.040178043288294316,0.03671541212006689,12.1999998093,-0.010934974494824324,0.9067516947022461,1.9221176732312653
1648296026371270426,72340,11,0,0.0127207012847,0.0439508594573,0.0102140065283,0.0,16.3999996185,0.004254415145384615,0.014699284099431437,0.003416055695083612,16.3999996185,0.0,0.01588297986822227,0.04688091528084813
1648296026371282100,72341,11,1,0.0335041433573,0.0146502861753,-0.0293370354921,0.0,16.3999996185,0.011205399116153847,0.0048997612626421405,-0.009811717555886288,16.3999996185,0.0,0.016587031052466603,0.046880914651800804
1648296026371289091,72342,11,2,1.80718159676,-0.175803437829,0.468721777201,0.0,16.3999996185,0.6044085607892976,-0.05879713639765886,0.1567631361876254,16.3999996185,0.0,0.8567826561966255,1.8752365922312262
1648296026371291476,72343,11,3,2.23997998238,-1.2306240797,0.60034942627,0.0,16.3999996185,0.7491571847424748,-0.4115799597658863,0.20078576129431436,16.3999996185,0.0,1.1366050493392283,2.6253314801417544
1648296026371391294,72344,11,4,1.86459469795,-0.061531201005,0.629647135735,-0.0809188112617,16.3999996185,0.6236102668729097,-0.020578996991638794,0.2105843263327759,16.3999996185,-0.010934974494824324,0.8821581632654005,1.9689984743162345
1648296026476339737,72345,12,0,0.0127121871337,0.0439508594573,0.0102246021852,0.0,15.3999996185,0.004251567603244147,0.014699284099431437,0.003419599393043478,15.3999996185,0.0,0.01588145482018912,0.04688091550517269
1648296026476363273,72346,12,1,0.0335041433573,0.0146502861753,-0.0293370354921,0.0,15.3999996185,0.011205399116153847,0.0048997612626421405,-0.009811717555886288,15.3999996185,0.0,0.016587031052466603,0.046880914651800804
1648296026476378204,72347,12,2,2.24190735817,-1.2306240797,0.593111157417,0.0,15.3999996185,0.7498017920301003,-0.4115799597658863,0.1983649355909699,15.3999996185,0.0,1.1374548421559372,2.625331421593623
1648296026476381577,72348,12,3,1.85524594784,-0.240264698863,0.441442102194,0.161837622523,15.3999996185,0.6204835945953177,-0.08035608657625418,0.14763949906153845,15.3999996185,0.021869948989594594,0.8811679085019515,1.9221175255654703
1648296026476388553,72349,12,4,1.8851326704,-0.0,0.37524792552,-0.0809188112617,15.3999996185,0.630479153979933,-0.0,0.1255009784347826,15.3999996185,-0.010934974494824324,0.8916321703519362,1.9221176318364332
1648296026671255874,72350,14,0,0.0127217965201,0.0439508594573,0.010212643072,0.0,20.8999996185,0.004254781444849498,0.014699284099431437,0.0034155996896321067,20.8999996185,0.0,0.015883176109414296,0.046880915437416903
1648296026671261817,72351,14,1,0.0335041433573,0.0146502861753,-0.0293370354921,0.0,20.8999996185,0.011205399116153847,0.0048997612626421405,-0.009811717555886288,20.8999996185,0.0,0.016587031052466603,0.046880914651800804
1648296026671268160,72352,14,2,2.24175143242,-1.2306240797,0.593699872494,0.0,20.8999996185,0.7497496429498327,-0.4115799597658863,0.19856183026555183,20.8999996185,0.0,1.1373860898954637,2.6253313407823375
1648296026671270974,72353,14,3,1.84254717827,-0.0,0.547316968441,-0.0809188112617,20.8999996185,0.6162365144715719,-0.0,0.18304915332474914,20.8999996185,-0.010934974494824324,0.871490036395221,1.9221175739517566
1648296026776163797,72354,15,0,0.0127121871337,0.0439508594573,0.0102246021852,0.0,17.8999996185,0.004251567603244147,0.014699284099431437,0.003419599393043478,17.8999996185,0.0,0.01588145482018912,0.04688091550517269
1648296026776180750,72355,15,1,0.033517640084,0.0146502861753,-0.0293216109276,0.0,17.8999996185,0.011209913071571907,0.0048997612626421405,-0.009806558838662207,17.8999996185,0.0,0.016593129981268932,0.04688091241868381
1648296026776184639,72356,15,2,2.24118471146,-1.2306240797,0.595835566521,0.0,17.8999996185,0.749560104167224,-0.4115799597658863,0.19927610920434782,17.8999996185,0.0,1.1371362111898677,2.625331323614396
1648296026776196137,72357,15,3,1.88736891747,-0.0600661747158,0.358840674162,-0.0809188112617,17.8999996185,0.6312270626989965,-0.020089021644080267,0.1200136033986622,17.8999996185,-0.010934974494824324,0.8929158852645763,1.9221175836586863
