%time,field.header.seq,field.header.frame_id,field.point_id,field.x,field.y,field.z,field.velocity,field.intensity,normalized_x,normalized_y,normalized_z,normalized_intensity,normalized_velocity,normalized_range,range
1648294828960331332,25800,0,0,0.0126799661666,0.0439508594573,0.0102645335719,0.0,14.6000003815,0.004240791360066889,0.014699284099431437,0.00343295437187291,14.6000003815,0.0,0.015875691347309377,0.04688091550375397
1648294828960350267,25801,0,1,0.0335994325578,0.0146502861753,-0.0292278509587,0.0,14.6000003815,0.011237268413979932,0.0048997612626421405,-0.009775200989531772,14.6000003815,0.0,0.01663009510635915,0.0468809132258355
1648294828960354804,25802,0,2,0.42535457015,-0.612381994724,-0.487314015627,0.0,14.6000003815,0.1422590535618729,-0.20481003168026754,-0.16298127612943142,14.6000003815,0.0,0.28709306107517096,0.8907374291204723
1648294828960361365,25803,0,3,1.91770136356,-0.120132349432,-0.0502569153905,0.0,14.6000003815,0.6413716934983277,-0.040178043288294316,-0.01680833290652174,14.6000003815,0.0,0.9079259736367836,1.9221175975273999
1648294828960403906,25804,0,4,2.2357468605,-1.2306240797,0.615926086903,0.0,14.6000003815,0.7477414249163878,-0.4115799597658863,0.205995346790301,14.6000003815,0.0,1.1347389745456302,2.625331330384933
1648294828960467712,25805,0,5,0.180278405547,0.571361124516,-0.111703969538,0.161837622523,14.6000003815,0.06029378111939799,0.19109067709565214,-0.03735918713645485,14.6000003815,0.021869948989594594,0.2092518266496676,0.6094518971381605
1648294828960481442,25806,0,6,0.887069702148,-0.0,1.54491424561,0.242756426334,14.6000003815,0.29667883014983276,-0.0,0.5166937276287625,14.6000003815,0.03280492247756756,0.4195672252668774,1.7814748616687401
1648294829065383433,25807,1,0,0.0126799661666,0.0439508594573,0.0102645335719,0.0,22.1000003815,0.004240791360066889,0.014699284099431437,0.00343295437187291,22.1000003815,0.0,0.015875691347309377,0.04688091550375397
1648294829065385912,25808,1,1,0.033514522016,0.0146502861753,-0.0293251797557,0.0,22.1000003815,0.011208870239464881,0.0048997612626421405,-0.009807752426655518,22.1000003815,0.0,0.016591720963215706,0.0468809155060271
1648294829065387579,25809,1,2,1.86398243904,-0.175803437829,0.105712555349,0.0,22.1000003815,0.6234054980066889,-0.05879713639765886,0.035355369681939794,22.1000003815,0.0,0.8835869697650031,1.8752366587074865
1648294829065392274,25810,1,3,2.18885707855,-1.31266570091,0.614962100983,0.0,22.1000003815,0.7320592235953176,-0.4390186290668896,0.20567294347257523,22.1000003815,0.0,1.1245260203168843,2.6253313959021263
1648294829260382879,25811,3,0,0.0126799661666,0.0439508594573,0.0102645335719,0.0,14.5,0.004240791360066889,0.014699284099431437,0.00343295437187291,14.5,0.0,0.015875691347309377,0.04688091550375397
1648294829260386238,25812,3,1,0.033514522016,0.0146502861753,-0.0293251797557,0.0,14.5,0.011208870239464881,0.0048997612626421405,-0.009807752426655518,14.5,0.0,0.016591720963215706,0.0468809155060271
1648294829260549263,25813,3,2,2.23968315125,-1.2306240797,0.601455390453,0.0,14.5,0.7490579101170568,-0.4115799597658863,0.20115564898093644,14.5,0.0,1.136474183032221,2.625331375319232
1648294829260551515,25814,3,3,2.13838863373,-0.281285494566,-0.641833364964,0.566431701183,14.5,0.7151801450602007,-0.09407541624280935,-0.21465998828227423,14.5,0.07654482448418919,1.0157831775127588,2.2502838813580626
1648294829260553165,25815,3,4,1.70013844967,0.108412116766,0.326484560966,-0.566431701183,14.5,0.5686081771471572,0.03625823303210702,0.10919216085819397,14.5,-0.07654482448418919,0.804950419404721,1.7345939304797413
1648294829260554864,25816,3,5,0.965406298637,-0.542060613632,-1.33528161049,-0.566431701183,14.5,0.3228783607481605,-0.18129117512775916,-0.44658247842474913,14.5,-0.07654482448418919,0.4912915243091849,1.7345939033710054
1648294829260556447,25817,3,6,1.84832656384,-0.117202289402,0.294048845768,-0.0809188112617,14.5,0.6181694193444816,-0.03919809010100334,0.09834409557458193,14.5,-0.010934974494824324,0.8751019096613567,1.8752365682588275
1648294829365359847,25818,4,0,0.0126799661666,0.0439508594573,0.0102645335719,0.0,17.1000003815,0.004240791360066889,0.014699284099431437,0.00343295437187291,17.1000003815,0.0,0.015875691347309377,0.04688091550375397
1648294829365371779,25819,4,1,0.0335994325578,0.0146502861753,-0.0292278509587,0.0,17.1000003815,0.011237268413979932,0.0048997612626421405,-0.009775200989531772,17.1000003815,0.0,0.01663009510635915,0.0468809132258355
1648294829365374857,25820,4,2,0.419232547283,-0.640217542648,-0.455827534199,0.0,17.1000003815,0.14021155427525084,-0.21411957948093643,-0.15245068033411371,17.1000003815,0.0,0.29183172243890193,0.8907374313172076
1648294829365377537,25821,4,3,1.49142372608,-1.68478298187,0.65704870224,0.0,17.1000003815,0.4988039217658863,-0.5634725691872909,0.21974872984615385,17.1000003815,0.0,0.9028355558819021,2.3440459517314047
1648294829365380076,25822,4,4,2.23550462723,-1.2306240797,0.616804718971,0.0,17.1000003815,0.747660410444816,-0.4115799597658863,0.20628920366923076,17.1000003815,0.0,1.134632205595236,2.6253313362791197
1648294829365382634,25823,4,5,1.73887121677,-0.228544458747,0.516699850559,0.566431701183,17.1000003815,0.5815622798561872,-0.07643627382842809,0.17280931456822743,17.1000003815,0.07654482448418919,0.8259975028169437,1.8283556584272198
1648294829560489615,25824,6,0,0.0126920221373,0.0439508594573,0.0102496230975,0.0,31.2000007629,0.00424482345729097,0.014699284099431437,0.0034279675911371237,31.2000007629,0.0,0.015877846371688233,0.04688091559056686
1648294829560492865,25825,6,1,0.0336220227182,0.0146502861753,-0.0292018633336,0.0,31.2000007629,0.011244823651571905,0.0048997612626421405,-0.009766509476120401,31.2000007629,0.0,0.016640305836756436,0.04688091422781338
1648294829560494841,25826,6,2,2.19036030769,-1.31266570091,0.609586775303,0.0,31.2000007629,0.7325619758160534,-0.4390186290668896,0.20387517568662206,31.2000007629,0.0,1.1251806314946997,2.625331513632837
1648294829560644697,25827,6,3,1.87043762207,0.0586011447012,0.120587214828,0.0809188112617,31.2000007629,0.6255644220969899,0.019599045050568562,0.04033017218327759,31.2000007629,0.010934974494824324,0.8848987597199898,1.8752365900320795
1648294829665472287,25828,7,0,0.0126799661666,0.0439508594573,0.0102645335719,0.0,14.6000003815,0.004240791360066889,0.014699284099431437,0.00343295437187291,14.6000003815,0.0,0.015875691347309377,0.04688091550375397
1648294829665477090,25829,7,1,0.0335651524365,0.0146502861753,-0.0292672142386,0.0,14.6000003815,0.011225803490468226,0.0048997612626421405,-0.009788365966086955,14.6000003815,0.0,0.01661460166372055,0.046880914799007266
1648294829665479064,25830,7,2,2.2373046875,-1.2306240797,0.61024326086,0.0,14.6000003815,0.7482624372909699,-0.4115799597658863,0.2040947360735786,14.6000003815,0.0,1.135425652961097,2.625331355785778
1648294829665492582,25831,7,3,1.86906373501,-0.117202289402,0.0968328937888,0.0809188112617,14.6000003815,0.6251049280969899,-0.03919809010100334,0.03238558320695652,14.6000003815,0.010934974494824324,0.8849004647585242,1.875236580138654
1648294829860507777,25832,9,0,0.0127002792433,0.0439508594573,0.010239389725,0.0,17.2999992371,0.004247585031204013,0.014699284099431437,0.003424545058528428,17.2999992371,0.0,0.015879323355559413,0.04688091553962624
1648294829860513325,25833,9,1,0.0335994325578,0.0146502861753,-0.0292278509587,0.0,17.2999992371,0.011237268413979932,0.0048997612626421405,-0.009775200989531772,17.2999992371,0.0,0.01663009510635915,0.0468809132258355
1648294829860586832,25834,9,2,2.19535660744,-1.31266570091,0.591340005398,0.0,17.2999992371,0.734232979076923,-0.4390186290668896,0.19777257705618728,17.2999992371,0.0,1.127356860890161,2.6253313844465644
1648294829965441618,25835,10,0,0.0126092592254,0.0439508594573,0.0103512695059,0.0,13.8000001907,0.004217143553645485,0.014699284099431437,0.0034619630454515047,13.8000001907,0.0,0.015863087736626348,0.04688091558014249
1648294829965449238,25836,10,1,0.0335372425616,0.0146502861753,-0.0292991939932,0.0,13.8000001907,0.011216469084147156,0.0048997612626421405,-0.00979906153618729,13.8000001907,0.0,0.016601988370738802,0.04688091607791967
1648294829965451415,25837,10,2,1.78845024109,-0.0,0.563877820969,0.0,13.8000001907,0.5981438933411372,-0.0,0.18858789998963207,13.8000001907,0.0,0.8459032062136822,1.8752366415563735
1648294829965452944,25838,10,3,2.18872189522,-1.31266570091,0.615442872047,0.0,13.8000001907,0.7320140117792642,-0.4390186290668896,0.20583373647056855,13.8000001907,0.0,1.1244671553896612,2.625331351603913
1648294830160421767,25839,12,0,0.0126799661666,0.0439508594573,0.0102645335719,0.0,14.8000001907,0.004240791360066889,0.014699284099431437,0.00343295437187291,14.8000001907,0.0,0.015875691347309377,0.04688091550375397
1648294830160425265,25840,12,1,0.0335994325578,0.0146502861753,-0.0292278509587,0.0,14.8000001907,0.011237268413979932,0.0048997612626421405,-0.009775200989531772,14.8000001907,0.0,0.01663009510635915,0.0468809132258355
1648294830160427227,25841,12,2,2.23720264435,-1.2306240797,0.610617101192,0.0,14.8000001907,0.7482283091471571,-0.4115799597658863,0.2042197662849498,14.8000001907,0.0,1.135380671184478,2.6253313203655315
1648294830265441131,25842,13,0,0.0126799661666,0.0439508594573,0.0102645335719,0.0,14.6000003815,0.004240791360066889,0.014699284099431437,0.00343295437187291,14.6000003815,0.0,0.015875691347309377,0.04688091550375397
1648294830265575452,25843,13,1,0.033514522016,0.0146502861753,-0.0293251797557,0.0,14.6000003815,0.011208870239464881,0.0048997612626421405,-0.009807752426655518,14.6000003815,0.0,0.016591720963215706,0.0468809155060271
1648294830265579706,25844,13,2,0.378370434046,-0.640217542648,-0.490275919437,0.0,14.6000003815,0.1265452956675585,-0.21411957948093643,-0.1639718794103679,14.6000003815,0.0,0.27906024085898135,0.8907374273343396
1648294830265581483,25845,13,3,2.23854279518,-1.2306240797,0.605685472488,0.0,14.6000003815,0.7486765201270902,-0.4115799597658863,0.20257039213645484,14.6000003815,0.0,1.1359714463225328,2.6253312863280267
1648294830265583768,25846,13,4,1.77524983883,0.114272229373,0.422272861004,-0.0809188112617,14.6000003815,0.5937290430869565,0.03821813691404682,0.14122838160668896,14.6000003815,-0.010934974494824324,0.8405289877208798,1.828355682522501
1648294830460450376,25847,15,0,0.0126799661666,0.0439508594573,0.0102645335719,0.0,16.1000003815,0.004240791360066889,0.014699284099431437,0.00343295437187291,16.1000003815,0.0,0.015875691347309377,0.04688091550375397
1648294830460458757,25848,15,1,0.0336220227182,0.0146502861753,-0.0292018633336,0.0,16.1000003815,0.011244823651571905,0.0048997612626421405,-0.009766509476120401,16.1000003815,0.0,0.016640305836756436,0.04688091422781338
1648294830460461696,25849,15,2,0.383916467428,-0.640217542648,-0.485945284367,0.0,16.1000003815,0.12840015633043478,-0.21411957948093643,-0.16252350647725752,16.1000003815,0.0,0.28074970099441465,0.8907374334085005
1648294830460556781,25850,15,3,1.84246432781,-0.175803437829,0.301546782255,0.0,16.1000003815,0.6162088052876253,-0.05879713639765886,0.10085176664046822,16.1000003815,0.0,0.8734321305496896,1.875236547716899
1648294830460558817,25851,15,4,2.23629546165,-1.2306240797,0.613931238651,0.0,16.1000003815,0.7479249035618729,-0.4115799597658863,0.20532817346187288,16.1000003815,0.0,1.1349807866289905,2.625331328256571
1648294830565408118,25852,16,0,0.0127122588456,0.0439508594573,0.0102245127782,0.0,14.5,0.004251591587157191,0.014699284099431437,0.0034195694910367893,14.5,0.0,0.015881467661515717,0.04688091545122009
1648294830565428319,25853,16,1,0.033514522016,0.0146502861753,-0.0293251797557,0.0,14.5,0.011208870239464881,0.0048997612626421405,-0.009807752426655518,14.5,0.0,0.016591720963215706,0.0468809155060271
1648294830565430931,25854,16,2,0.370264947414,-0.640217542648,-0.496425777674,0.0,14.5,0.12383443057324414,-0.21411957948093643,-0.16602868818528427,14.5,0.0,0.2766172928576453,0.8907374393933217
1648294830565434323,25855,16,3,1.77525031567,-0.114272229373,0.422271072865,0.0,14.5,0.5937292025652173,-0.03821813691404682,0.14122778356688961,14.5,0.0,0.8405292130239368,1.8283557325287845
1648294830565533110,25856,16,4,2.18941545486,-1.31266570091,0.612971305847,0.0,14.5,0.7322459715250836,-0.4390186290668896,0.20500712570133778,14.5,0.0,1.1247691684506642,2.6253314263378518
