%time,field.header.seq,field.header.frame_id,field.point_id,field.x,field.y,field.z,field.velocity,field.intensity,normalized_x,normalized_y,normalized_z,normalized_intensity,normalized_velocity,normalized_range,range
1648126936402143663,86518,0,0,0.0126405349001,0.0439508594573,0.0103130536154,0.0,21.0,0.004227603645518395,0.014699284099431437,0.003449181811170568,21.0,0.0,0.01586865521091812,0.046880915567745665
1648126936402148936,86519,0,1,0.0328144170344,0.0146502861753,-0.0301065333188,0.0,21.0,0.010974721416187291,0.0048997612626421405,-0.010069074688561873,21.0,0.0,0.016275646861391668,0.046880915080677786
1648126936402183313,86520,0,2,1.27510786057,-0.123062409461,0.286438107491,0.0,21.0,0.42645747845150495,-0.041157996475250834,0.09579869815752508,21.0,0.0,0.6045047084417857,1.3126656855927845
1648126936402187524,86521,0,3,2.42653656006,-0.902457654476,0.435724943876,0.0,21.0,0.8115506889832776,-0.30182530250033446,0.14572740597859532,21.0,0.0,1.1867297732878719,2.625331545185462
1648126936402257320,86522,0,4,1.15513050556,-0.266635209322,0.283382326365,0.0809188112617,21.0,0.3863312727625418,-0.0891756552916388,0.09477669778093645,21.0,0.010934974494824324,0.5535846837886179,1.2189037544537826
1648126936402260631,86523,0,5,1.21229708195,0.114272229373,-0.0548091679811,0.0809188112617,21.0,0.4054505290802676,0.03821813691404682,-0.018330825411739127,21.0,0.010934974494824324,0.5746658934129627,1.2189037706911654
1648126936402265876,86524,0,6,1.16452181339,0.109877154231,0.0738502591848,0.242756426334,21.0,0.3894721783913043,0.0367482121173913,0.02469908333939799,21.0,0.03280492247756756,0.5520213642383425,1.1720229962183757
1648126936402274578,86525,0,7,1.12148058414,-0.0703213736415,-0.0572777763009,-0.0809188112617,21.0,0.3750771184414715,-0.023518854060702338,-0.019156446923377927,21.0,-0.010934974494824324,0.5309602867004688,1.1251420087490285
1648126936702213616,86526,3,0,0.0126303331926,0.0439508594573,0.0103255445138,0.0,19.1000003815,0.004224191703210702,0.014699284099431437,0.003453359369163879,19.1000003815,0.0,0.015866837874218862,0.04688091544645748
1648126936702231610,86527,3,1,0.0328016132116,0.0146502861753,-0.0301204826683,0.0,19.1000003815,0.010970439201204014,0.0048997612626421405,-0.010073740022842809,19.1000003815,0.0,0.01626987194066124,0.046880914991848856
1648126936702235077,86528,3,2,1.12147653103,-0.0351606868207,-0.0836566835642,0.0,19.1000003815,0.3750757628862876,-0.011759427030334446,-0.02797882393451505,19.1000003815,0.0,0.5305675639666856,1.1251419129397617
1648126936702243576,86529,3,3,1.77039301395,-1.46502864361,0.462548345327,0.0,19.1000003815,0.5921046869397992,-0.489976134986622,0.15469844325317725,19.1000003815,0.0,0.9701817012542464,2.3440459300545853
1648126936807184342,86530,4,0,0.0126200383529,0.0439508594573,0.0103381248191,0.0,12.8999996185,0.004220748613010033,0.014699284099431437,0.0034575668291304345,12.8999996185,0.0,0.015865005223580926,0.04688091551835667
1648126936807253368,86531,4,1,0.0328144170344,0.0146502861753,-0.0301065333188,0.0,12.8999996185,0.010974721416187291,0.0048997612626421405,-0.010069074688561873,12.8999996185,0.0,0.016275646861391668,0.046880915080677786
1648126936807260640,86532,4,2,1.07593882084,-0.0673913136125,-0.0214651115239,0.0,12.8999996185,0.35984575947826086,-0.02253890087374582,-0.007178967064849497,12.8999996185,0.0,0.5093976278719496,1.0782609546643713
1648126936807274257,86533,4,3,1.79498505592,-1.46502864361,0.355346471071,0.0,12.8999996185,0.6003294501404682,-0.489976134986622,0.11884497360234113,12.8999996185,0.0,0.9802384966263783,2.344045944958523
1648126936807286876,86534,4,4,1.20003509521,0.197778865695,0.350728273392,0.161837622523,12.8999996185,0.40134953017056857,0.06614677782441471,0.11730042588361204,12.8999996185,0.021869948989594594,0.5714352867585486,1.2657847491606968
1648126936807377864,86535,4,5,1.12242865562,-0.474669277668,0.34213128686,0.161837622523,12.8999996185,0.37539419920401335,-0.1587522667785953,0.11442517955183945,12.8999996185,0.021869948989594594,0.5541154137897512,1.2657846687202612
1648126936807382360,86536,4,6,0.790610790253,0.467344135046,-1.00244247913,-0.566431701183,12.8999996185,0.26441832449933106,0.15630238630301002,-0.33526504318729095,12.8999996185,-0.07654482448418919,0.4052956163420503,1.3595465737482726
1648126936807393902,86537,4,7,0.869445204735,0.97717410326,0.37089446187,-0.566431701183,12.8999996185,0.290784349409699,0.3268140813578595,0.1240449705250836,12.8999996185,-0.07654482448418919,0.5252794679949193,1.3595465766072556
1648126937002341605,86538,6,0,0.0126260910183,0.0439508594573,0.0103307310492,0.0,32.0,0.004222772915819397,0.014699284099431437,0.0034550939963879593,32.0,0.0,0.015866082542107033,0.04688091536487569
1648126937002475667,86539,6,1,0.0328388437629,0.0146502861753,-0.0300798863173,0.0,32.0,0.010982890890602006,0.0048997612626421405,-0.01006016264792642,32.0,0.0,0.016286664638919337,0.046880914086267926
1648126937002481636,86540,6,2,1.10605585575,-0.0703213736415,-0.194010078907,0.0,32.0,0.36991834640468224,-0.023518854060702338,-0.06488631401571907,32.0,0.0,0.523671941686661,1.1251420187457193
1648126937002488692,86541,6,3,1.20174217224,-0.369187235832,0.37763440609,0.0,32.0,0.40192045894314377,-0.12347399191705685,0.1262991324715719,32.0,0.0,0.5816579212166443,1.3126656879435576
1648126937002577138,86542,6,4,0.745750486851,0.082041606307,1.07713353634,0.0,32.0,0.2494148785454849,0.027438664316722407,0.3602453298795987,32.0,0.0,0.35379152558986454,1.3126657110293733
1648126937002586646,86543,6,5,1.81560790539,-1.39177727699,0.510954916477,0.0,32.0,0.6072267242107023,-0.4654773501638796,0.170887931932107,32.0,0.0,0.9767895130000668,2.344045857386835
1648126937002588196,86544,6,6,2.42048716545,-0.902457654476,0.468163311481,0.0,32.0,0.809527480083612,-0.30182530250033446,0.15657635835484948,32.0,0.0,1.1839628352488367,2.6253313738359494
1648126937107328867,86545,7,0,0.0126055367291,0.0439508594573,0.0103558013216,0.0,13.1000003815,0.004215898571605351,0.014699284099431437,0.003463478702876254,13.1000003815,0.0,0.015862425872732264,0.046880915352374236
1648126937107335378,86546,7,1,0.0327621363103,0.0146502861753,-0.030163416639,0.0,13.1000003815,0.0109572362241806,0.0048997612626421405,-0.010088099210367893,13.1000003815,0.0,0.016252067923063808,0.04688091470919446
1648126937107339900,86547,7,2,1.11303544044,-0.0703213736415,-0.14883390069,0.0,13.1000003815,0.3722526556655518,-0.023518854060702338,-0.04977722431103678,13.1000003815,0.0,0.5269698433463157,1.125141998709893
1648126937107509358,86548,7,3,1.13801252842,-0.369187235832,0.540110647678,0.0,13.1000003815,0.3806061967959866,-0.12347399191705685,0.18063901260133777,13.1000003815,0.0,0.5522390612397352,1.312665700655465
1648126937107514403,86549,7,4,1.25590384007,0.123062409461,-0.361458927393,0.0,13.1000003815,0.4200347291204013,0.041157996475250834,-0.12088927337558528,13.1000003815,0.0,0.5954429678889109,1.3126657488930749
1648126937107516785,86550,7,5,2.12540459633,-0.9713139534,0.505701422691,0.0,13.1000003815,0.7108376576354515,-0.3248541650167224,0.16913091059899665,13.1000003815,0.0,1.0564613478750762,2.390926477974998
1648126937107520153,86551,7,6,0.782074689865,-1.79319500923,-1.374532938,0.0,13.1000003815,0.26156344142642135,-0.5997307723177256,-0.45971001270903006,13.1000003815,0.0,0.7046331435906783,2.3909265901114
1648126937107568328,86552,7,7,2.42422962189,-0.902457654476,0.448381364346,0.0,13.1000003815,0.8107791377558528,-0.30182530250033446,0.1499603225237458,13.1000003815,0.0,1.185674547955579,2.6253313934937883
1648126937107614816,86553,7,8,1.08911025524,-0.152362972498,0.525690853596,0.161837622523,13.1000003815,0.3642509214849498,-0.05095751588561872,0.1758163389953177,13.1000003815,0.021869948989594594,0.5176428653333331,1.2189038095813203
1648126937302215298,86554,9,0,0.0126200383529,0.0439508594573,0.0103381248191,0.0,36.5999984741,0.004220748613010033,0.014699284099431437,0.0034575668291304345,36.5999984741,0.0,0.015865005223580926,0.04688091551835667
1648126937302369799,86555,9,1,0.0327621363103,0.0146502861753,-0.030163416639,0.0,36.5999984741,0.0109572362241806,0.0048997612626421405,-0.010088099210367893,36.5999984741,0.0,0.016252067923063808,0.04688091470919446
1648126937302375628,86556,9,2,1.12177860737,-0.0703213736415,-0.0511099770665,0.0,36.5999984741,0.37517679176254176,-0.023518854060702338,-0.01709363781488294,36.5999984741,0.0,0.5311011077476641,1.1251420218352624
1648126937302531812,86557,9,3,1.72164547443,-1.39177727699,0.770353138447,0.0,36.5999984741,0.5758011620167224,-0.4654773501638796,0.2576431901160535,36.5999984741,0.0,0.9379568859362367,2.344045879731483
1648126937302673297,86558,9,4,2.42565393448,-0.902457654476,0.440611213446,0.0,36.5999984741,0.8112554964816053,-0.30182530250033446,0.14736160984816052,36.5999984741,0.0,1.1863260405017881,2.625331420867656
1648126937302761862,86559,9,5,1.17538332939,-0.079111546278,0.463061988354,0.0809188112617,36.5999984741,0.39310479243812707,-0.026458711129765885,0.1548702302187291,36.5999984741,0.010934974494824324,0.5565634007642745,1.2657847418976014
1648126937302784069,86560,9,6,1.15189266205,0.118667319417,0.51114821434,-0.242756426334,36.5999984741,0.3852483819565217,0.039688066694648826,0.17095258004682273,36.5999984741,-0.03280492247756756,0.546267127180645,1.265784790003902
