%time,field.header.seq,field.header.frame_id,field.point_id,field.x,field.y,field.z,field.velocity,field.intensity,normalized_x,normalized_y,normalized_z,normalized_intensity,normalized_velocity,normalized_range,range
1648127163803525212,98140,0,0,0.0125994505361,0.0439508594573,0.0103632062674,0.0,13.0,0.004213863055551839,0.014699284099431437,0.003465955273377926,13.0,0.0,0.01586134410249293,0.04688091557326548
1648127163803556626,98141,0,1,0.0328369177878,0.0146502861753,-0.0300819892436,0.0,13.0,0.010982246751772574,0.0048997612626421405,-0.010060865967759198,13.0,0.0,0.016285795892879384,0.046880914364728306
1648127163803570179,98142,0,2,1.35165977478,0.0424858294427,-0.139919698238,0.0,13.0,0.4520601253444816,0.01420930750591973,-0.04679588569832775,13.0,0.0,0.6394674489547804,1.3595465105750402
1648127163803573268,98143,0,3,1.48828756809,0.140642747283,0.12564830482,0.0,13.0,0.4977550394949833,0.047037708121404675,0.04202284442140468,13.0,0.0,0.7055017396651968,1.5001892427952868
1648127163803577687,98144,0,4,1.82227528095,-1.39177727699,0.486641258001,0.0,13.0,0.6094566157023411,-0.4654773501638796,0.16275627357892974,13.0,0.0,0.9795631150478713,2.344045840485185
1648127163803579541,98145,0,5,2.43828105927,-0.902457654476,0.364308208227,0.0,13.0,0.8154786151404682,-0.30182530250033446,0.12184221010936454,13.0,0.0,1.192102871707073,2.625331371979302
1648127163908535674,98146,1,0,0.0126200793311,0.0439508594573,0.0103380745277,0.0,13.6000003815,0.004220762318093645,0.014699284099431437,0.0034575500092642137,13.6000003815,0.0,0.015865012515831067,0.0468809154592663
1648127163908538703,98147,1,1,0.0328124724329,0.0146502861753,-0.0301086530089,0.0,13.6000003815,0.010974071047792642,0.0048997612626421405,-0.010069783615016722,13.6000003815,0.0,0.01627476977271537,0.04688091528744241
1648127163908541549,98148,1,2,1.35483908653,0.0424858294427,-0.104751646519,0.0,13.6000003815,0.45312344031103674,0.01420930750591973,-0.03503399549130434,13.6000003815,0.0,0.6409708329857273,1.3595465801293167
1648127163908546040,98149,1,3,1.46219229698,0.483459472656,0.147265017033,0.0,13.6000003815,0.4890275240735786,0.16169213132307692,0.04925251405785953,13.6000003815,0.0,0.7102395257480874,1.5470702505995635
1648127163908548442,98150,1,4,1.81740558147,-1.39177727699,0.504523277283,0.0,13.6000003815,0.6078279536688963,-0.4654773501638796,0.16873688203444814,13.6000003815,0.0,0.9775371123585145,2.344045813038727
1648127164103536514,98151,3,0,0.0126200793311,0.0439508594573,0.0103380745277,0.0,11.8000001907,0.004220762318093645,0.014699284099431437,0.0034575500092642137,11.8000001907,0.0,0.015865012515831067,0.0468809154592663
1648127164103544351,98152,3,1,0.0328872464597,0.0146502861753,-0.0300269592553,0.0,11.8000001907,0.010999079083511706,0.0048997612626421405,-0.010042461289397992,11.8000001907,0.0,0.0163084990664861,0.0468809145264753
1648127164103557344,98153,3,2,1.34956133366,0.0849716588855,-0.140821948647,0.0,11.8000001907,0.45135830557190637,0.028418615011872907,-0.047097641687959865,11.8000001907,0.0,0.6389493389124664,1.3595465410734013
1648127164103686925,98154,3,3,1.35275352001,-0.0,-0.135737344623,0.0,11.8000001907,0.45242592642474916,-0.0,-0.045397105225083605,11.8000001907,0.0,0.6398268811190924,1.3595465099159898
1648127164103699471,98155,3,4,1.36792647839,-0.0,0.490797758102,0.0,11.8000001907,0.45750049444481605,-0.0,0.16414640739197323,11.8000001907,0.0,0.6470034040362557,1.4533083945393064
1648127164103702729,98156,3,5,1.81893861294,-1.39177727699,0.498968482018,0.0,11.8000001907,0.6083406732240803,-0.4654773501638796,0.1668790909759197,11.8000001907,0.0,0.9781747864840115,2.3440459066402983
1648127164103705445,98157,3,6,2.42784190178,-0.902457654476,0.428391814232,0.0,11.8000001907,0.8119872581204013,-0.30182530250033446,0.14327485425819397,11.8000001907,0.0,1.1873268833515027,2.6253315342375396
1648127164103709377,98158,3,7,1.28734469414,-0.408742964268,0.536449372768,0.323675245047,11.8000001907,0.43055006492976583,-0.13670333253110367,0.1794145059424749,11.8000001907,0.04373989797932432,0.6240468876191602,1.4533083299534832
1648127164208539709,98159,4,0,0.0125994505361,0.0439508594573,0.0103632062674,0.0,37.5,0.004213863055551839,0.014699284099431437,0.003465955273377926,37.5,0.0,0.01586134410249293,0.04688091557326548
1648127164208702416,98160,4,1,0.0328124724329,0.0146502861753,-0.0301086530089,0.0,37.5,0.010974071047792642,0.0048997612626421405,-0.010069783615016722,37.5,0.0,0.01627476977271537,0.04688091528744241
1648127164208706611,98161,4,2,1.35295712948,0.0424858294427,-0.126763164997,0.0,37.5,0.4524940232374582,0.01420930750591973,-0.04239570735685618,37.5,0.0,0.6400809218771017,1.359546593506178
1648127164208708741,98162,4,3,1.81278848648,-1.39177727699,0.520869314671,0.0,37.5,0.6062837747424749,-0.4654773501638796,0.174203784170903,37.5,0.0,0.975617340224924,2.3440458460589
1648127164208711383,98163,4,4,2.41833591461,-0.902457654476,0.479152262211,0.0,37.5,0.8088079981973244,-0.30182530250033446,0.16025159271270903,37.5,0.0,1.1829789808468045,2.6253314656242606
1648127164208748742,98164,4,5,1.32885420322,-0.0,0.588431537151,0.0809188112617,37.5,0.44443284388628757,-0.0,0.19679984520100335,37.5,0.010934974494824324,0.6285229553880324,1.4533083524597763
1648127164208786054,98165,4,6,1.46377134323,0.338421612978,0.369148612022,-0.0809188112617,37.5,0.4895556331872909,0.11318448594581938,0.12346107425484949,37.5,-0.010934974494824324,0.7015270228791176,1.5470702735007735
