%time,field.header.seq,field.header.frame_id,field.point_id,field.x,field.y,field.z,field.velocity,field.intensity,normalized_x,normalized_y,normalized_z,normalized_intensity,normalized_velocity,normalized_range,range
1648218701545341200,45810,0,0,0.00539573840797,0.0454158857465,0.0103006586432,0.0,18.2999992371,0.0018045947852742474,0.015189259446989964,0.003445036335518394,18.2999992371,0.0,0.015402166316010612,0.04688091551569908
1648218701545354152,45811,0,1,0.0334289707243,0.0146502861753,-0.0294226650149,0.0,18.2999992371,0.011180257767324413,0.0048997612626421405,-0.009840356192274247,18.2999992371,0.0,0.016553065816292893,0.04688091493649962
1648218701545361367,45812,0,2,1.64096915722,1.31852579117,0.138911873102,0.0,18.2999992371,0.5488191161270902,0.44097852547491634,0.046458820435451506,18.2999992371,0.0,0.892674019103879,2.1096413309888713
1648218701545367321,45813,0,3,1.96288573742,-0.0,0.155029505491,0.161837622523,18.2999992371,0.6564835242207357,-0.0,0.051849332940133774,18.2999992371,0.021869948989594594,0.9284079034274507,1.9689983661089312
1648218701545374262,45814,0,4,2.02496600151,0.386767566204,0.0700245201588,0.242756426334,18.2999992371,0.6772461543511705,0.1293537010715719,0.02341957195946488,18.2999992371,0.03280492247756756,0.9664662886763369,2.062760260176212
1648218701545377374,45815,0,5,2.27083563805,0.747164547443,-0.0397530794144,-0.242756426334,18.2999992371,0.7594768020234113,0.2498878085093645,-0.013295344285752506,18.2999992371,-0.03280492247756756,1.1027483586317544,2.390926528213818
1648218701740971257,45816,2,0,0.00525635527447,0.0454158857465,0.0103724775836,0.0,21.7000007629,0.0017579783526655518,0.015189259446989964,0.0034690560480267556,21.7000007629,0.0,0.015391380000664505,0.046880915521487786
1648218701741009967,45817,2,1,0.0334289707243,0.0146502861753,-0.0294226650149,0.0,21.7000007629,0.011180257767324413,0.0048997612626421405,-0.009840356192274247,21.7000007629,0.0,0.016553065816292893,0.04688091493649962
1648218701741020996,45818,2,2,1.57481372356,0.12306240201,1.17548799515,0.0809188112617,21.7000007629,0.5266935530301002,0.04115799398327759,0.39313979770903,21.7000007629,0.010934974494824324,0.7459934169117509,1.9689983863485387
1648218701845824566,45819,3,0,0.00539573840797,0.0454158857465,0.0103006586432,0.0,14.1999998093,0.0018045947852742474,0.015189259446989964,0.003445036335518394,14.1999998093,0.0,0.015402166316010612,0.04688091551569908
1648218701845857511,45820,3,1,0.0334289707243,0.0146502861753,-0.0294226650149,0.0,14.1999998093,0.011180257767324413,0.0048997612626421405,-0.009840356192274247,14.1999998093,0.0,0.016553065816292893,0.04688091493649962
1648218701845883634,45821,3,2,1.96023190022,0.184593603015,-0.0192544795573,0.0,14.1999998093,0.6555959532508361,0.06173699097491638,-0.006439625269999999,14.1999998093,0.0,0.9292058780982725,1.968998383924475
1648218701846012377,45822,3,3,1.66660737991,1.04603040218,0.0720754265785,-0.404594063759,14.1999998093,0.5573937725451504,0.34984294387290965,0.024105493838963207,14.1999998093,-0.05467487348094594,0.8624185299040679,1.968998381962718
1648218702041058554,45823,5,0,0.00543765118346,0.0454158857465,0.0102785946801,0.0,25.3999996185,0.001818612435939799,0.015189259446989964,0.0034376570836454844,25.3999996185,0.0,0.01540546347671123,0.046880915489460155
1648218702041130962,45824,5,1,0.0335114225745,0.0146502861753,-0.0293287187815,0.0,25.3999996185,0.011207833636956521,0.0048997612626421405,-0.009808936047324414,25.3999996185,0.0,0.01659032037358762,0.046880913742686436
1648218702041299030,45825,5,2,2.10975623131,-1.12074685097,-0.0968731641769,0.0,25.3999996185,0.7056040907391304,-0.3748317227324415,-0.0323990515641806,25.3999996185,0.0,1.065951727848011,2.3909264458465027
1648218702041322060,45826,5,3,1.99121510983,-0.0,0.538555860519,0.0809188112617,25.3999996185,0.6659582307123745,-0.0,0.18011901689598658,25.3999996185,0.010934974494824324,0.9418071618474306,2.0627602935180467
1648218702041331536,45827,5,4,1.94184744358,0.808695793152,0.475212305784,0.485512852669,25.3999996185,0.6494473055451504,0.2704668204521739,0.15893388153311036,25.3999996185,0.06560984495527027,0.9574528219840497,2.1565219951506336
1648218702041341267,45828,5,5,0.75977408886,-0.68563336134,-1.51510226727,-0.566431701183,25.3999996185,0.2541050464414715,-0.2293088165016722,-0.5067231663110368,25.3999996185,-0.07654482448418919,0.4262877931391449,1.8283557237507488
1648218702041347946,45829,5,6,1.81283807755,-0.0,0.237703114748,-0.566431701183,25.3999996185,0.6063003603846153,-0.0,0.07949936948093644,25.3999996185,-0.07654482448418919,0.8574381925276182,1.8283557274710194
1648218702145993711,45830,6,0,0.00543765118346,0.0454158857465,0.0102785946801,0.0,26.7999992371,0.001818612435939799,0.015189259446989964,0.0034376570836454844,26.7999992371,0.0,0.01540546347671123,0.046880915489460155
1648218702146009084,45831,6,1,0.0334289707243,0.0146502861753,-0.0294226650149,0.0,26.7999992371,0.011180257767324413,0.0048997612626421405,-0.009840356192274247,26.7999992371,0.0,0.016553065816292893,0.04688091493649962
1648218702146073810,45832,6,2,1.91379666328,0.120132349432,-0.13223657012,0.0,26.7999992371,0.6400657736722408,0.040178043288294316,-0.04422627763210702,26.7999992371,0.0,0.9060809370115699,1.922117571908341
1648218702146092192,45833,6,3,1.9742026329,-0.125992462039,0.38784006238,0.161837622523,26.7999992371,0.66026843909699,-0.04213794717023411,0.12971239544481605,26.7999992371,0.021869948989594594,0.9347108803939711,2.0158794731399157
1648218702146119468,45834,6,4,1.85378742218,-0.420463234186,0.284989088774,0.242756426334,26.7999992371,0.6199957933712373,-0.14062315524615385,0.09531407651304347,26.7999992371,0.03280492247756756,0.888011508589525,1.9221175610911927
1648218702341048524,45835,8,0,0.00543765118346,0.0454158857465,0.0102785946801,0.0,25.1000003815,0.001818612435939799,0.015189259446989964,0.0034376570836454844,25.1000003815,0.0,0.01540546347671123,0.046880915489460155
1648218702341101467,45836,8,1,0.0335114225745,0.0146502861753,-0.0293287187815,0.0,25.1000003815,0.011207833636956521,0.0048997612626421405,-0.009808936047324414,25.1000003815,0.0,0.01659032037358762,0.046880913742686436
1648218702341218898,45837,8,2,2.04330539703,-0.064461261034,0.275188326836,0.0,25.1000003815,0.6833797314481606,-0.021558950178595316,0.09203622971103677,25.1000003815,0.0,0.9666853174850248,2.062760484140807
1648218702341285749,45838,8,3,1.9950646162,0.125992462039,0.260024577379,0.0809188112617,25.1000003815,0.6672456910367893,0.04213794717023411,0.08696474159832775,25.1000003815,0.010934974494824324,0.9445682775776701,2.015879387300994
1648218702341306820,45839,8,4,1.97682714462,0.606521844864,0.612268328667,-0.242756426334,25.1000003815,0.6611462022140469,0.20285011533913042,0.20477201627658861,25.1000003815,-0.03280492247756756,0.9567532444142602,2.1565219252983203
1648218702445720777,45840,9,0,0.00539573840797,0.0454158857465,0.0103006586432,0.0,32.5999984741,0.0018045947852742474,0.015189259446989964,0.003445036335518394,32.5999984741,0.0,0.015402166316010612,0.04688091551569908
1648218702445781322,45841,9,1,0.0335027836263,0.0146502861753,-0.0293385870755,0.0,32.5999984741,0.011204944356622072,0.0048997612626421405,-0.009812236480100335,32.5999984741,0.0,0.016586416626290387,0.046880913891642055
1648218702445792089,45842,9,2,1.69732308388,1.25259947777,0.0259868446738,0.0,32.5999984741,0.5676665832374581,0.41892959122742474,0.008691252399264214,32.5999984741,0.0,0.9055344840783023,2.109641300998274
1648218702445901805,45843,9,3,1.94763576984,0.46148404479,0.666583895683,-0.323675245047,32.5999984741,0.6513832006153846,0.15434248989632104,0.2229377577535117,32.5999984741,-0.04373989797932432,0.9340351986275895,2.1096413689392595
1648218702445913295,45844,9,4,2.0415263176,0.404347896576,0.565030574799,-0.161837622523,32.5999984741,0.6827847216053511,0.13523341022608695,0.1889734363876254,32.5999984741,-0.021869948989594594,0.975027193137079,2.156521847182759
1648218702641111097,45845,11,0,0.00543765118346,0.0454158857465,0.0102785946801,0.0,32.0999984741,0.001818612435939799,0.015189259446989964,0.0034376570836454844,32.0999984741,0.0,0.01540546347671123,0.046880915489460155
1648218702641158082,45846,11,1,0.0334148444235,0.0146502861753,-0.0294387042522,0.0,32.0999984741,0.011175533252006688,0.0048997612626421405,-0.009845720485685617,32.0999984741,0.0,0.016546683878176403,0.046880913183441654
1648218702641175206,45847,11,2,1.96317672729,0.12306240201,0.0880196839571,0.0,32.0999984741,0.6565808452474916,0.04115799398327759,0.029438021390334447,32.0999984741,0.0,0.9294572573069451,1.9689983956635044
1648218702641221027,45848,11,3,2.01180577278,0.395557761192,0.496747523546,-0.161837622523,32.0999984741,0.6728447400602006,0.1322935656160535,0.16613629550033443,32.0999984741,-0.021869948989594594,0.960698535419289,2.1096413230640043
1648218702745775338,45849,12,0,0.00525635527447,0.0454158857465,0.0103724775836,0.0,33.5999984741,0.0017579783526655518,0.015189259446989964,0.0034690560480267556,33.5999984741,0.0,0.015391380000664505,0.046880915521487786
1648218702745884991,45850,12,1,0.0334289707243,0.0146502861753,-0.0294226650149,0.0,33.5999984741,0.011180257767324413,0.0048997612626421405,-0.009840356192274247,33.5999984741,0.0,0.016553065816292893,0.04688091493649962
1648218702745902815,45851,12,2,1.90598976612,-0.12306240201,0.478553414345,-0.0809188112617,33.5999984741,0.637454771277592,-0.04115799398327759,0.16005130914548493,33.5999984741,-0.010934974494824324,0.902436231164209,1.9689984036874943
1648218702745922640,45852,12,3,2.01873683929,0.263705164194,0.552944421768,-0.0809188112617,33.5999984741,0.6751628225050166,0.0881957070882943,0.1849312447384615,33.5999984741,-0.010934974494824324,0.9588890220117682,2.1096412902419006
1648218702940926370,45853,14,0,0.00517373438925,0.0454158857465,0.0104139344767,0.0,20.2999992371,0.0017303459495819399,0.015189259446989964,0.0034829212296655517,20.2999992371,0.0,0.015385116078809517,0.046880915487591004
1648218702940949091,45854,14,1,0.0335114225745,0.0146502861753,-0.0293287187815,0.0,20.2999992371,0.011207833636956521,0.0048997612626421405,-0.009808936047324414,20.2999992371,0.0,0.01659032037358762,0.046880913742686436
1648218702940971875,45855,14,2,1.9017945528,-0.061531201005,0.506306409836,0.0,20.2999992371,0.6360516898996655,-0.020578996991638794,0.16933324743678926,20.2999992371,0.0,0.8997482978953739,1.9689984231577964
1648218702941041479,45856,14,3,1.9709404707,0.395557761192,0.639932751656,0.0,20.2999992371,0.6591774149498327,0.1322935656160535,0.21402433165752507,20.2999992371,0.0,0.9415579197602754,2.1096412510482403
1648218703045843422,45857,15,0,0.00539573840797,0.0454158857465,0.0103006586432,0.0,12.8000001907,0.0018045947852742474,0.015189259446989964,0.003445036335518394,12.8000001907,0.0,0.015402166316010612,0.04688091551569908
1648218703045865683,45858,15,1,0.0335114225745,0.0146502861753,-0.0293287187815,0.0,12.8000001907,0.011207833636956521,0.0048997612626421405,-0.009808936047324414,12.8000001907,0.0,0.01659032037358762,0.046880913742686436
1648218703045896156,45859,15,2,1.99953341484,0.197778880596,0.642912328243,0.0,12.8000001907,0.6687402725217391,0.06614678280802674,0.21502084556622073,12.8000001907,0.0,0.9480519506128089,2.1096413497270934
1648218703045905566,45860,15,3,1.59157681465,1.38445210457,-0.0276074390858,0.0,12.8000001907,0.5322999380100334,0.463027459722408,-0.009233257219331104,12.8000001907,0.0,0.883787800587877,2.109641333846258
1648218703045932278,45861,15,4,1.86053788662,-0.061531201005,0.641535162926,0.0809188112617,12.8000001907,0.6222534737859531,-0.020578996991638794,0.2145602551591973,12.8000001907,0.010934974494824324,0.8802398913901559,1.9689983955087478
1648218703240975052,45862,17,0,0.00521258730441,0.0454158857465,0.0103945415467,0.0,22.1000003815,0.0017433402355886286,0.015189259446989964,0.0034764352998996654,22.1000003815,0.0,0.015388049678306159,0.046880915504193287
1648218703240986693,45863,17,1,0.0334289707243,0.0146502861753,-0.0294226650149,0.0,22.1000003815,0.011180257767324413,0.0048997612626421405,-0.009840356192274247,22.1000003815,0.0,0.016553065816292893,0.04688091493649962
1648218703241012824,45864,17,2,2.03039693832,0.263705164194,0.508462607861,0.0,22.1000003815,0.6790625211772575,0.0881957070882943,0.17005438389999997,22.1000003815,0.0,0.9643807847961462,2.109641288075919
1648218703241063743,45865,17,3,1.64131748676,1.18667328358,-0.590313136578,0.0,22.1000003815,0.5489356143010033,0.3968806968494983,-0.19742914266822742,22.1000003815,0.0,0.8718800977357971,2.109641242847527
1648218703345875066,45866,18,0,0.00539573840797,0.0454158857465,0.0103006586432,0.0,16.2999992371,0.0018045947852742474,0.015189259446989964,0.003445036335518394,16.2999992371,0.0,0.015402166316010612,0.04688091551569908
1648218703345904117,45867,18,1,0.0335114225745,0.0146502861753,-0.0293287187815,0.0,16.2999992371,0.011207833636956521,0.0048997612626421405,-0.009808936047324414,16.2999992371,0.0,0.01659032037358762,0.046880913742686436
1648218703345917087,45868,18,2,1.87289404869,0.430718421936,-0.428607642651,0.0,16.2999992371,0.6263859694615385,0.14405298392508362,-0.14334703767591972,16.2999992371,0.0,0.8974798201933363,1.968998473324016
1648218703346021534,45869,18,3,1.71476483345,-0.24612480402,0.935926914215,0.0,16.2999992371,0.5734999442976588,-0.08231598796655518,0.313019034854515,16.2999992371,0.0,0.8152179426961514,1.9689984870341322
1648218703540983574,45870,20,0,0.00539573840797,0.0454158857465,0.0103006586432,0.0,14.8999996185,0.0018045947852742474,0.015189259446989964,0.003445036335518394,14.8999996185,0.0,0.015402166316010612,0.04688091551569908
1648218703541045087,45871,20,1,0.0335340574384,0.0146502861753,-0.0293028391898,0.0,14.8999996185,0.01121540382555184,0.0048997612626421405,-0.009800280665484948,14.8999996185,0.0,0.01660054897800956,0.046880915924108986
1648218703541236161,45872,20,2,1.96297299862,-0.0,0.153921440244,0.0,14.8999996185,0.6565127085685618,-0.0,0.05147874255652174,14.8999996185,0.0,0.9284491763279553,1.9689984263777311
1648218703541262537,45873,20,3,1.66797983646,1.34782624245,-0.227584511042,0.0,14.8999996185,0.5578527881137123,0.45077800750836117,-0.07611522108428093,14.8999996185,0.0,0.9086254885626381,2.1565219739989296
1648218703541269748,45874,20,4,1.88323259354,0.471739202738,0.938873887062,0.0,14.8999996185,0.6298436767692307,0.15777230860802674,0.3140046445023411,14.8999996185,0.0,0.9045983725918773,2.156521980546034
1648218703646010590,45875,21,0,0.00521258730441,0.0454158857465,0.0103945415467,0.0,12.8999996185,0.0017433402355886286,0.015189259446989964,0.0034764352998996654,12.8999996185,0.0,0.015388049678306159,0.046880915504193287
1648218703646028414,45876,21,1,0.0334289707243,0.0146502861753,-0.0294226650149,0.0,12.8999996185,0.011180257767324413,0.0048997612626421405,-0.009840356192274247,12.8999996185,0.0,0.016553065816292893,0.04688091493649962
1648218703646055941,45877,21,2,1.96114730835,0.12306240201,0.125346049666,0.0,12.8999996185,0.6559021098160535,0.04115799398327759,0.041921755741137115,12.8999996185,0.0,0.9284983229877305,1.9689984134081449
1648218703646079492,45878,21,3,1.7243885994,1.28043496609,-0.193796306849,0.0,12.8999996185,0.5767185951170568,0.4282391190936455,-0.06481481834414715,12.8999996185,0.0,0.9211934753512341,2.1565219110120135
1648218703646111333,45879,21,4,1.96253657341,0.471739202738,0.759275615215,0.0,12.8999996185,0.6563667469598662,0.15777230860802674,0.2539383328478261,12.8999996185,0.0,0.9415554760038628,2.1565220001733962
