%time,field.header.seq,field.header.frame_id,field.point_id,field.x,field.y,field.z,field.velocity,field.intensity,normalized_x,normalized_y,normalized_z,normalized_intensity,normalized_velocity,normalized_range,range
1648125633686667948,33425,0,0,0.0126767531037,0.0439508594573,0.0102685010061,0.0,12.8999996185,0.004239716757090301,0.014699284099431437,0.0034342812729431437,12.8999996185,0.0,0.01587511730339346,0.04688091540488284
1648125633686680611,33426,0,1,0.0328266397119,0.0146502861753,-0.0300932060927,0.0,12.8999996185,0.01097880926819398,0.0048997612626421405,-0.010064617422307692,12.8999996185,0.0,0.016281159858119832,0.0468809152292358
1648125633686687505,33427,0,2,1.20297467709,-0.039555773139,0.391788393259,0.0,12.8999996185,0.4023326679230769,-0.013229355564882942,0.1310329074444816,12.8999996185,0.0,0.5691380915075566,1.2657846886421413
1648125633686693124,33428,0,3,1.35519731045,-0.0849716588855,0.0677280724049,0.0,12.8999996185,0.4532432476421404,-0.028418615011872907,0.022651529232408027,12.8999996185,0.0,0.6416124225305978,1.3595466247453047
1648125633686710393,33429,0,4,1.30123353004,-0.375047326088,0.645521998405,0.0,12.8999996185,0.43519516054849494,-0.1254338883237458,0.215893644951505,12.8999996185,0.0,0.6281109104845055,1.5001892703692101
1648125633686796222,33430,0,5,1.19314110279,0.093761831522,-0.904539108276,0.0,12.8999996185,0.3990438470869565,0.03135847208093645,-0.3025214408949833,12.8999996185,0.0,0.5652038017982253,1.5001893115930531
1648125633791663538,33431,1,0,0.0126564446837,0.0439508594573,0.0102935219184,0.0,11.3000001907,0.004232924643377926,0.014699284099431437,0.003442649471036789,11.3000001907,0.0,0.015871491899277463,0.04688091544062974
1648125633791668227,33432,1,1,0.0328392535448,0.0146502861753,-0.0300794392824,0.0,11.3000001907,0.010983027941404683,0.0048997612626421405,-0.01006001313792642,11.3000001907,0.0,0.016286849479080982,0.04688091430359943
1648125633791674313,33433,1,2,1.20914769173,-0.079111546278,0.365943074226,0.0,11.3000001907,0.4043972213143812,-0.026458711129765885,0.1223889880354515,11.3000001907,0.0,0.5725157540262396,1.2657847805786175
1648125633791678143,33434,1,3,1.34676969051,-0.0,0.185952201486,0.0,11.3000001907,0.4504246456555183,-0.0,0.06219137173444816,11.3000001907,0.0,0.6369966427131296,1.3595465495943457
1648125633986767353,33435,3,0,0.0125680044293,0.0439508594573,0.0104013206437,0.0,22.5,0.004203345962976589,0.014699284099431437,0.0034787025564214044,22.5,0.0,0.01585576196859492,0.04688091566408767
1648125633986783837,33436,3,1,0.0328266397119,0.0146502861753,-0.0300932060927,0.0,22.5,0.01097880926819398,0.0048997612626421405,-0.010064617422307692,22.5,0.0,0.016281159858119832,0.0468809152292358
1648125633986966147,33437,3,2,1.21560668945,-0.039555773139,0.35063752532,0.0,22.5,0.40655742122073574,-0.013229355564882942,0.11727007535785952,22.5,0.0,0.5751111973766218,1.2657847197634937
1648125633986971197,33438,3,3,2.40964365005,-0.902457654476,0.521107435226,0.0,22.5,0.8059008863043478,-0.30182530250033446,0.17428342315250836,22.5,0.0,1.1790042367700317,2.62533146429102
1648125633986975781,33439,3,4,1.44141721725,0.290075659752,0.481247425079,0.0809188112617,22.5,0.48207933687290966,0.09701527082006689,0.1609523160799331,22.5,0.010934974494824324,0.6886312052557156,1.5470703173128426
1648125633986976875,33440,3,5,1.28083348274,-0.54499065876,0.417799025774,0.242756426334,22.5,0.4283724022541806,-0.18227112333110365,0.13973211564347826,22.5,0.03280492247756756,0.6326362244026321,1.4533083824781443
1648125633986980503,33441,3,6,1.38028585911,0.454158842564,-0.0256094783545,0.242756426334,22.5,0.4616340665919732,0.15189258948628762,-0.008565042927926422,22.5,0.03280492247756756,0.6702860446237372,1.4533083473646233
1648125634091808679,33442,4,0,0.0126767531037,0.0439508594573,0.0102685010061,0.0,29.3999996185,0.004239716757090301,0.014699284099431437,0.0034342812729431437,29.3999996185,0.0,0.01587511730339346,0.04688091540488284
1648125634091816842,33443,4,1,0.0328266397119,0.0146502861753,-0.0300932060927,0.0,29.3999996185,0.01097880926819398,0.0048997612626421405,-0.010064617422307692,29.3999996185,0.0,0.016281159858119832,0.0468809152292358
1648125634091820354,33444,4,2,1.22572362423,-0.079111546278,0.305865824223,0.0,29.3999996185,0.40994101144816053,-0.026458711129765885,0.1022962622819398,29.3999996185,0.0,0.5803475933687761,1.2657847139927223
1648125634091921408,33445,4,3,2.41830348969,-0.902457654476,0.479315698147,0.0,29.3999996185,0.8087971537424749,-0.30182530250033446,0.16030625356086955,29.3999996185,0.0,1.1829641520491123,2.6253314314309537
1648125634091932126,33446,4,4,1.34812176228,-0.338421612978,0.679312288761,0.161837622523,29.3999996185,0.45087684357190627,-0.11318448594581938,0.22719474540501672,29.3999996185,0.021869948989594594,0.6476037245087074,1.5470703473744405
1648125634091939388,33447,4,5,0.106733858585,0.290075659752,1.51587939262,0.161837622523,29.3999996185,0.035696942670568554,0.09701527082006689,0.5069830744548495,29.3999996185,0.021869948989594594,0.10936409924807425,1.5470702433693762
1648125634091948850,33448,4,6,1.28815925121,-0.609451889992,0.46880915761,0.323675245047,29.3999996185,0.4308224920434782,-0.20383006354247488,0.15679236040468228,29.3999996185,0.04373989797932432,0.6424661345976417,1.500189284374384
1648125634286959818,33449,6,0,0.0126667525619,0.0439508594573,0.0102808354422,0.0,31.6000003815,0.004236372094280936,0.014699284099431437,0.0034384065024080264,31.6000003815,0.0,0.01587333141083504,0.046880915572216936
1648125634286968688,33450,6,1,0.0328266397119,0.0146502861753,-0.0300932060927,0.0,31.6000003815,0.01097880926819398,0.0048997612626421405,-0.010064617422307692,31.6000003815,0.0,0.016281159858119832,0.0468809152292358
1648125634286972712,33451,6,2,1.20697689056,-0.039555773139,0.379279762506,0.0,31.6000003815,0.40367120085618724,-0.013229355564882942,0.12684941889832774,31.6000003815,0.0,0.5710305531668289,1.2657847414869237
1648125634287144860,33452,6,3,1.32880234718,-0.169943317771,0.231884762645,0.0,31.6000003815,0.4444155007290969,-0.05683723002374581,0.07755343232274246,31.6000003815,0.0,0.6310631864507389,1.3595465980513577
1648125634287152891,33453,6,4,1.05559802055,0.297400802374,-0.803512632847,0.0,31.6000003815,0.35304281623745815,0.09946515129565217,-0.268733322022408,31.6000003815,0.0,0.5090891636206945,1.3595466043451747
1648125634287154473,33454,6,5,2.42067360878,-0.902457654476,0.467199116945,0.0,31.6000003815,0.8095898357123745,-0.30182530250033446,0.15625388526588627,31.6000003815,0.0,1.1840481060358137,2.6253315130170702
1648125634287156520,33455,6,6,1.35153758526,0.145037829876,0.738740026951,0.0809188112617,31.6000003815,0.4520192592842809,0.048507635410033445,0.24707024312742476,31.6000003815,0.010934974494824324,0.6410895508592327,1.547070342255043
1648125634287160853,33456,6,7,1.40398919582,-0.53180539608,0.37339502573,0.0809188112617,31.6000003815,0.4695616039531772,-0.17786133648160535,0.1248812795083612,31.6000003815,0.010934974494824324,0.687466984537573,1.547070291395644
1648125634391704004,33457,7,0,0.012578186579,0.0439508594573,0.0103890039027,0.0,19.2000007629,0.004206751364214047,0.014699284099431437,0.003474583245050167,19.2000007629,0.0,0.015857568133747096,0.04688091537866756
1648125634391708832,33458,7,1,0.0328392535448,0.0146502861753,-0.0300794392824,0.0,19.2000007629,0.010983027941404683,0.0048997612626421405,-0.01006001313792642,19.2000007629,0.0,0.016286849479080982,0.04688091430359943
1648125634391712260,33459,7,2,1.21852731705,-0.039555773139,0.340349107981,0.0,19.2000007629,0.4075342197491638,-0.013229355564882942,0.11382913310401337,19.2000007629,0.0,0.5764922344505445,1.2657847356044223
1648125634391719792,33460,7,3,1.88118493557,-1.31852579117,0.466030478477,0.0,19.2000007629,0.6291588413277592,-0.44097852547491634,0.15586303627993311,19.2000007629,0.0,0.993047710420707,2.3440459531898004
1648125634391722189,33461,7,4,2.38616609573,-0.984499275684,0.478891819715,0.0,19.2000007629,0.7980488614481606,-0.32926397180066885,0.16016448819899665,19.2000007629,0.0,1.1756609773414113,2.6253313762692163
1648125634391724798,33462,7,5,1.25951433182,-0.386767566204,0.81083971262,0.0809188112617,19.2000007629,0.42124225144481603,-0.1293537010715719,0.2711838503745819,19.2000007629,0.010934974494824324,0.6096084389060807,1.5470703092907674
1648125634391728688,33463,7,6,1.49801754951,0.193383783102,-0.334622919559,0.0809188112617,19.2000007629,0.5010092138829432,0.06467685053578595,-0.11191401991939798,19.2000007629,0.010934974494824324,0.7114798379338925,1.5470702519604518
1648125634586969029,33464,9,0,0.0126564446837,0.0439508594573,0.0102935219184,0.0,19.2999992371,0.004232924643377926,0.014699284099431437,0.003442649471036789,19.2999992371,0.0,0.015871491899277463,0.04688091544062974
1648125634586972910,33465,9,1,0.0328266397119,0.0146502861753,-0.0300932060927,0.0,19.2999992371,0.01097880926819398,0.0048997612626421405,-0.010064617422307692,19.2999992371,0.0,0.016281159858119832,0.0468809152292358
1648125634586974548,33466,9,2,1.22716331482,-0.039555773139,0.307760715485,0.0,19.2999992371,0.4104225133177257,-0.013229355564882942,0.10293000517892976,19.2999992371,0.0,0.5805758302967319,1.2657847836123144
1648125634586975492,33467,9,3,1.35745894909,-0.0424858294427,0.0621848702431,0.0,19.2999992371,0.45399964852508357,-0.01420930750591973,0.020797615465919732,19.2999992371,0.0,0.6422096745935837,1.3595465428793208
1648125634586976491,33468,9,4,1.24615192413,0.149432912469,0.982575774193,0.0,19.2999992371,0.4167732187725752,0.04997756269866221,0.32862066026521736,19.2999992371,0.0,0.591521418500974,1.5939510548862041
1648125634586977497,33469,9,5,1.47828125954,-0.348676800728,0.483517229557,0.0,19.2999992371,0.49440844800668887,-0.11661431462474915,0.16171144801237458,19.2999992371,0.0,0.7088570556157042,1.593951035932898
1648125634586980856,33470,9,6,2.39279294014,-0.984499275684,0.444598734379,0.0,19.2999992371,0.8002651973712375,-0.32926397180066885,0.14869522888929765,19.2999992371,0.0,1.1786702403018423,2.6253313910471485
1648125634691792573,33471,10,0,0.0126564446837,0.0439508594573,0.0102935219184,0.0,11.8999996185,0.004232924643377926,0.014699284099431437,0.003442649471036789,11.8999996185,0.0,0.015871491899277463,0.04688091544062974
1648125634691797467,33472,10,1,0.0328266397119,0.0146502861753,-0.0300932060927,0.0,11.8999996185,0.01097880926819398,0.0048997612626421405,-0.010064617422307692,11.8999996185,0.0,0.016281159858119832,0.0468809152292358
1648125634691801524,33473,10,2,1.17984545231,-0.0380907431245,0.303710877895,0.0,11.8999996185,0.39459714124080264,-0.01273937897140468,0.1015755444464883,11.8999996185,0.0,0.5581900209851525,1.218903808099768
1648125634691807183,33474,10,3,1.35326230526,-0.0849716588855,0.0991347953677,0.0,11.8999996185,0.452596088715719,-0.028418615011872907,0.0331554499557525,11.8999996185,0.0,0.6406981010747004,1.359546526347649
1648125634691809443,33475,10,4,2.38631129265,-0.984499275684,0.478168070316,0.0,11.8999996185,0.7980974222909698,-0.32926397180066885,0.1599224315438127,11.8999996185,0.0,1.1757269045407326,2.6253314291191807
1648125634886747951,33476,12,0,0.0126767531037,0.0439508594573,0.0102685010061,0.0,11.5,0.004239716757090301,0.014699284099431437,0.0034342812729431437,11.5,0.0,0.01587511730339346,0.04688091540488284
1648125634886756636,33477,12,1,0.0328392535448,0.0146502861753,-0.0300794392824,0.0,11.5,0.010983027941404683,0.0048997612626421405,-0.01006001313792642,11.5,0.0,0.016286849479080982,0.04688091430359943
1648125634886761490,33478,12,2,1.23260116577,-0.039555773139,0.285203099251,0.0,11.5,0.41224119256521735,-0.013229355564882942,0.09538565192341136,11.5,0.0,0.5831471662829609,1.2657847766775214
1648125634886766798,33479,12,3,1.35790276527,-0.0424858294427,-0.0515937805176,0.0,11.5,0.4541480820301003,-0.01420930750591973,-0.01725544498916388,11.5,0.0,0.6424195398982158,1.359546572876209
1648125634886969938,33480,12,4,2.38916611671,-0.984499275684,0.463693678379,0.0,11.5,0.7990522129464882,-0.32926397180066885,0.15508149778561872,11.5,0.0,1.1770232118167048,2.6253314808660084
1648125634991802664,33481,13,0,0.0126866931096,0.0439508594573,0.0102562177926,0.0,12.3000001907,0.004243041173779264,0.014699284099431437,0.0034301731747826084,12.3000001907,0.0,0.015876893582831942,0.04688091544009944
1648125634991810234,33482,13,1,0.0328392535448,0.0146502861753,-0.0300794392824,0.0,12.3000001907,0.010983027941404683,0.0048997612626421405,-0.01006001313792642,12.3000001907,0.0,0.016286849479080982,0.04688091430359943
1648125634991826974,33483,13,2,1.35389697552,-0.0424858294427,-0.11629602313,0.0,12.3000001907,0.4528083530167224,-0.01420930750591973,-0.03889499101337792,12.3000001907,0.0,0.6405253418431086,1.3595465534587226
1648125634991829979,33484,13,3,2.41544222832,-0.902457654476,0.493532598019,0.0,12.3000001907,0.8078402101404681,-0.30182530250033446,0.1650610695715719,12.3000001907,0.0,1.1816556704340777,2.6253314841713213
1648125634991833433,33485,13,4,1.21188890934,-0.079111546278,0.356759816408,0.0809188112617,12.3000001907,0.4053140165016722,-0.026458711129765885,0.11931766435050166,12.3000001907,0.010934974494824324,0.5738109160168392,1.2657847099484418
1648125635186785273,33486,15,0,0.0126626174897,0.0439508594573,0.0102859269828,0.0,26.5,0.004234989126989966,0.014699284099431437,0.0034401093587959866,26.5,0.0,0.015872593324571898,0.04688091533472108
1648125635186799537,33487,15,1,0.0328266397119,0.0146502861753,-0.0300932060927,0.0,26.5,0.01097880926819398,0.0048997612626421405,-0.010064617422307692,26.5,0.0,0.016281159858119832,0.0468809152292358
1648125635186804642,33488,15,2,1.23524677753,-0.039555773139,0.273517221212,0.0,26.5,0.41312601255183945,-0.013229355564882942,0.09147733150903009,26.5,0.0,0.5843981693525633,1.265784709532552
1648125635186807607,33489,15,3,1.40573573112,-0.0439508594573,-0.00369100202806,0.0,26.5,0.4701457294715719,-0.014699284099431437,-0.0012344488388160535,26.5,0.0,0.6650489326611604,1.406427476726222
1648125635186816158,33490,15,4,2.41919279099,-0.902457654476,0.474806815386,0.0,26.5,0.8090945789264213,-0.30182530250033446,0.1587982660153846,26.5,0.0,1.1833708584064695,2.62533142479903
1648125635291803332,33491,16,0,0.0126866931096,0.0439508594573,0.0102562177926,0.0,12.6000003815,0.004243041173779264,0.014699284099431437,0.0034301731747826084,12.6000003815,0.0,0.015876893582831942,0.04688091544009944
1648125635291827637,33492,16,1,0.0328392535448,0.0146502861753,-0.0300794392824,0.0,12.6000003815,0.010983027941404683,0.0048997612626421405,-0.01006001313792642,12.6000003815,0.0,0.016286849479080982,0.04688091430359943
1648125635291831116,33493,16,2,1.24219608307,-0.039555773139,0.239990442991,0.0,12.6000003815,0.41545019500668895,-0.013229355564882942,0.08026436220434782,12.6000003815,0.0,0.5876842221047404,1.2657848082158716
1648125635291839075,33494,16,3,2.41705989838,-0.902457654476,0.485547631979,0.0,12.6000003815,0.8083812369163879,-0.30182530250033446,0.16239051236755853,12.6000003815,0.0,1.1823954336965095,2.6253313835398897
1648125635486811200,33495,18,0,0.0126767531037,0.0439508594573,0.0102685010061,0.0,12.8000001907,0.004239716757090301,0.014699284099431437,0.0034342812729431437,12.8000001907,0.0,0.01587511730339346,0.04688091540488284
1648125635486815746,33496,18,1,0.0328266397119,0.0146502861753,-0.0300932060927,0.0,12.8000001907,0.01097880926819398,0.0048997612626421405,-0.010064617422307692,12.8000001907,0.0,0.016281159858119832,0.0468809152292358
1648125635486818689,33497,18,2,1.23493289948,-0.039555773139,0.274930953979,0.0,12.8000001907,0.4130210366153846,-0.013229355564882942,0.09195015183244147,12.8000001907,0.0,0.5842497490135155,1.2657847190033962
1648125635486820705,33498,18,3,1.87298071384,-1.31852579117,0.497980207205,0.0,12.8000001907,0.6264149544615385,-0.44097852547491634,0.1665485642826087,12.8000001907,0.0,0.9895723572716318,2.344045925993133
1648125635486922590,33499,18,4,2.3877491951,-0.984499275684,0.470935553312,0.0,12.8000001907,0.7985783261204012,-0.32926397180066885,0.15750352953578595,12.8000001907,0.0,1.176379806450483,2.6253314720043064
1648125635591757800,33500,19,0,0.0126564446837,0.0439508594573,0.0102935219184,0.0,13.1999998093,0.004232924643377926,0.014699284099431437,0.003442649471036789,13.1999998093,0.0,0.015871491899277463,0.04688091544062974
1648125635591763894,33501,19,1,0.0328266397119,0.0146502861753,-0.0300932060927,0.0,13.1999998093,0.01097880926819398,0.0048997612626421405,-0.010064617422307692,13.1999998093,0.0,0.016281159858119832,0.0468809152292358
1648125635591766015,33502,19,2,1.22078943253,-0.039555773139,0.332143992186,0.0,13.1999998093,0.40829078011036785,-0.013229355564882942,0.11108494721939799,13.1999998093,0.0,0.5775618911380213,1.2657847879125412
1648125635591767884,33503,19,3,1.35107791424,-0.0849716588855,0.125439703465,0.0,13.1999998093,0.4518655231571906,-0.028418615011872907,0.04195307808193979,13.1999998093,0.0,0.6396659438452512,1.359546553953284
1648125635591782298,33504,19,4,1.86704385281,-1.31852579117,0.519796192646,0.0,13.1999998093,0.6244293822107023,-0.44097852547491634,0.17384488048361202,13.1999998093,0.0,0.9870593531627722,2.344045880989824
1648125635591789532,33505,19,5,2.41851019859,-0.902457654476,0.478272050619,0.0,13.1999998093,0.8088662871538461,-0.30182530250033446,0.15995720756488294,13.1999998093,0.0,1.1830586858721401,2.6253315130111603
1648125635786847383,33506,21,0,0.0126767531037,0.0439508594573,0.0102685010061,0.0,13.0,0.004239716757090301,0.014699284099431437,0.0034342812729431437,13.0,0.0,0.01587511730339346,0.04688091540488284
1648125635786851868,33507,21,1,0.0328266397119,0.0146502861753,-0.0300932060927,0.0,13.0,0.01097880926819398,0.0048997612626421405,-0.010064617422307692,13.0,0.0,0.016281159858119832,0.0468809152292358
1648125635786859123,33508,21,2,1.22466468811,-0.039555773139,0.317557394505,0.0,13.0,0.40958685221070235,-0.013229355564882942,0.10620648645652173,13.0,0.0,0.5793943345049255,1.265784719570035
1648125635786861336,33509,21,3,2.41921663284,-0.902457654476,0.474685132504,0.0,13.0,0.8091025527892975,-0.30182530250033446,0.1587575693993311,13.0,0.0,1.1833817621924612,2.6253313904633773
1648125635891898346,33510,22,0,0.0126564446837,0.0439508594573,0.0102935219184,0.0,13.1000003815,0.004232924643377926,0.014699284099431437,0.003442649471036789,13.1000003815,0.0,0.015871491899277463,0.04688091544062974
1648125635891904992,33511,22,1,0.0328392535448,0.0146502861753,-0.0300794392824,0.0,13.1000003815,0.010983027941404683,0.0048997612626421405,-0.01006001313792642,13.1000003815,0.0,0.016286849479080982,0.04688091430359943
1648125635891907733,33512,22,2,1.22482049465,-0.039555773139,0.31695625186,0.0,13.1000003815,0.40963896142140466,-0.013229355564882942,0.10600543540468226,13.1000003815,0.0,0.5794680088473186,1.2657848035493373
1648125635891910951,33513,22,3,2.39271187782,-0.984499275684,0.445035308599,0.0,13.1000003815,0.8002380862274248,-0.32926397180066885,0.1488412403341137,13.1000003815,0.0,1.178633425804569,2.6253314800198164
1648125636086769628,33514,24,0,0.0126564446837,0.0439508594573,0.0102935219184,0.0,13.3000001907,0.004232924643377926,0.014699284099431437,0.003442649471036789,13.3000001907,0.0,0.015871491899277463,0.04688091544062974
1648125636086773542,33515,24,1,0.0328266397119,0.0146502861753,-0.0300932060927,0.0,13.3000001907,0.01097880926819398,0.0048997612626421405,-0.010064617422307692,13.3000001907,0.0,0.016281159858119832,0.0468809152292358
1648125636086776303,33516,24,2,1.22629547119,-0.039555773139,0.311200708151,0.0,13.3000001907,0.4101322646120401,-0.013229355564882942,0.10408050439832775,13.3000001907,0.0,0.5801654632949664,1.2657847852630446
1648125636086779818,33517,24,3,2.4201438427,-0.902457654476,0.469934463501,0.0,13.3000001907,0.8094126564214046,-0.30182530250033446,0.15716871688996653,13.3000001907,0.0,1.1838058159933698,2.6253313005156165
1648125636191901389,33518,25,0,0.0126463817433,0.0439508594573,0.0103058833629,0.0,12.8999996185,0.0042295591114715715,0.014699284099431437,0.003446783733411371,12.8999996185,0.0,0.015869697337714487,0.04688091562802829
1648125636191923041,33519,25,1,0.0328392535448,0.0146502861753,-0.0300794392824,0.0,12.8999996185,0.010983027941404683,0.0048997612626421405,-0.01006001313792642,12.8999996185,0.0,0.016286849479080982,0.04688091430359943
1648125636191930633,33520,25,2,1.22523391247,-0.079111546278,0.307821691036,0.0,12.8999996185,0.4097772282508361,-0.026458711129765885,0.10295039833979933,12.8999996185,0.0,0.580116209892918,1.2657847251777463
1648125636191933957,33521,25,3,2.41820693016,-0.902457654476,0.479803055525,0.0,12.8999996185,0.8087648595852843,-0.30182530250033446,0.16046924933946488,12.8999996185,0.0,1.1829199928268301,2.625331511883271
1648125636386854499,33522,27,0,0.0126564446837,0.0439508594573,0.0102935219184,0.0,13.3000001907,0.004232924643377926,0.014699284099431437,0.003442649471036789,13.3000001907,0.0,0.015871491899277463,0.04688091544062974
1648125636386866906,33523,27,1,0.0328392535448,0.0146502861753,-0.0300794392824,0.0,13.3000001907,0.010983027941404683,0.0048997612626421405,-0.01006001313792642,13.3000001907,0.0,0.016286849479080982,0.04688091430359943
1648125636386870074,33524,27,2,1.22766089439,-0.039555773139,0.305770009756,0.0,13.3000001907,0.4105889278896321,-0.013229355564882942,0.102264217309699,13.3000001907,0.0,0.5808111149588797,1.2657848275553247
1648125636386873026,33525,27,3,2.4187169075,-0.902457654476,0.477225452662,0.0,13.3000001907,0.8089354205685618,-0.30182530250033446,0.15960717480334446,13.3000001907,0.0,1.1831532202256352,2.6253314894346462
1648125636491827532,33526,28,0,0.0126664573327,0.0439508594573,0.010281198658,0.0,13.0,0.00423627335541806,0.014699284099431437,0.003438527979264214,13.0,0.0,0.015873278707294467,0.0468809154586566
1648125636491834305,33527,28,1,0.0328392535448,0.0146502861753,-0.0300794392824,0.0,13.0,0.010983027941404683,0.0048997612626421405,-0.01006001313792642,13.0,0.0,0.016286849479080982,0.04688091430359943
1648125636491837511,33528,28,2,1.2292650938,-0.039555773139,0.299255013466,0.0,13.0,0.41112544943143814,-0.013229355564882942,0.10008528878461537,13.0,0.0,0.581569674406314,1.265784694609744
1648125636491841217,33529,28,3,1.85489463806,-1.31852579117,0.561611115932,0.0,13.0,0.6203660996856187,-0.44097852547491634,0.18782980465953175,13.0,0.0,0.9819217154174387,2.3440459521567827
1648125636491844288,33530,28,4,2.41852426529,-0.902457654476,0.478200286627,0.0,13.0,0.8088709917357858,-0.30182530250033446,0.15993320622976587,13.0,0.0,1.1830651189907873,2.6253313988997657
1648125636686841609,33531,30,0,0.0126767531037,0.0439508594573,0.0102685010061,0.0,13.3999996185,0.004239716757090301,0.014699284099431437,0.0034342812729431437,13.3999996185,0.0,0.01587511730339346,0.04688091540488284
1648125636686859689,33532,30,1,0.0328266397119,0.0146502861753,-0.0300932060927,0.0,13.3999996185,0.01097880926819398,0.0048997612626421405,-0.010064617422307692,13.3999996185,0.0,0.016281159858119832,0.0468809152292358
1648125636686877721,33533,30,2,1.22814822197,-0.039555773139,0.303806364536,0.0,13.3999996185,0.4107519137023411,-0.013229355564882942,0.10160747977792642,13.3999996185,0.0,0.5810415519297506,1.2657847453059612
1648125636687013554,33534,30,3,1.8880263567,-1.31852579117,0.437490135431,0.0,13.3999996185,0.6314469420401337,-0.44097852547491634,0.14631777104715718,13.3999996185,0.0,0.9959480614739422,2.344045947538952
1648125636687019396,33535,30,4,2.42097496986,-0.902457654476,0.465634793043,0.0,13.3999996185,0.8096906253712374,-0.30182530250033446,0.15573070001438125,13.3999996185,0.0,1.1841859359313256,2.625331480652138
1648125636791767037,33536,31,0,0.0126564446837,0.0439508594573,0.0102935219184,0.0,13.3000001907,0.004232924643377926,0.014699284099431437,0.003442649471036789,13.3000001907,0.0,0.015871491899277463,0.04688091544062974
1648125636791772357,33537,31,1,0.0328392535448,0.0146502861753,-0.0300794392824,0.0,13.3000001907,0.010983027941404683,0.0048997612626421405,-0.01006001313792642,13.3000001907,0.0,0.016286849479080982,0.04688091430359943
1648125636791790631,33538,31,2,1.22941052914,-0.039555773139,0.298657178879,0.0,13.3000001907,0.41117409001337785,-0.013229355564882942,0.09988534410668896,13.3000001907,0.0,0.5816384447793326,1.2657847442771941
1648125636791892061,33539,31,3,2.41972398758,-0.902457654476,0.472092658281,0.0,13.3000001907,0.8092722366488293,-0.30182530250033446,0.15789052116421404,13.3000001907,0.0,1.1836137964938631,2.6253314975818194
1648125636986752670,33540,33,0,0.0126463817433,0.0439508594573,0.0103058833629,0.0,12.6999998093,0.0042295591114715715,0.014699284099431437,0.003446783733411371,12.6999998093,0.0,0.015869697337714487,0.04688091562802829
1648125636986763891,33541,33,1,0.0328392535448,0.0146502861753,-0.0300794392824,0.0,12.6999998093,0.010983027941404683,0.0048997612626421405,-0.01006001313792642,12.6999998093,0.0,0.016286849479080982,0.04688091430359943
1648125636986767768,33542,33,2,1.2335985899,-0.039555773139,0.280857145786,0.0,12.6999998093,0.4125747792307692,-0.013229355564882942,0.0939321557812709,12.6999998093,0.0,0.5836188077532268,1.2657846880615007
1648125636986769485,33543,33,3,2.41911935806,-0.902457654476,0.475181102753,0.0,12.6999998093,0.8090700194180602,-0.30182530250033446,0.1589234457367893,12.6999998093,0.0,1.183337274774905,2.6253314775617396
1648125637091799618,33544,34,0,0.0125680044293,0.0439508594573,0.0104013206437,0.0,13.3999996185,0.004203345962976589,0.014699284099431437,0.0034787025564214044,13.3999996185,0.0,0.01585576196859492,0.04688091566408767
1648125637091804336,33545,34,1,0.0328392535448,0.0146502861753,-0.0300794392824,0.0,13.3999996185,0.010983027941404683,0.0048997612626421405,-0.01006001313792642,13.3999996185,0.0,0.016286849479080982,0.04688091430359943
1648125637091806957,33546,34,2,1.23507666588,-0.039555773139,0.274284750223,0.0,13.3999996185,0.41306911902341137,-0.013229355564882942,0.09173403017491637,13.3999996185,0.0,0.5843177303746794,1.265784797663005
1648125637091809359,33547,34,3,2.41998648643,-0.902457654476,0.470744550228,0.0,13.3999996185,0.8093600289063545,-0.30182530250033446,0.1574396489056856,13.3999996185,0.0,1.1837338493141136,2.625331377977931
1648125637286882934,33548,36,0,0.0126564446837,0.0439508594573,0.0102935219184,0.0,13.1999998093,0.004232924643377926,0.014699284099431437,0.003442649471036789,13.1999998093,0.0,0.015871491899277463,0.04688091544062974
1648125637286939455,33549,36,1,0.0327389426529,0.0146502861753,-0.0301885884255,0.0,13.1999998093,0.010949479148127089,0.0048997612626421405,-0.0100965178680602,13.1999998093,0.0,0.01624160853060522,0.04688091426340034
1648125637286963712,33550,36,2,1.23536324501,-0.039555773139,0.27299067378,0.0,13.1999998093,0.4131649648862876,-0.013229355564882942,0.09130122868896322,13.1999998093,0.0,0.5844532421568355,1.2657847029732663
1648125637286986633,33551,36,3,2.41953372955,-0.902457654476,0.473066836596,0.0,13.1999998093,0.8092086052006688,-0.30182530250033446,0.158216333309699,13.1999998093,0.0,1.1835267832588505,2.6253315063891267
1648125637392004321,33552,37,0,0.012588663958,0.0439508594573,0.0103763062507,0.0,13.3000001907,0.004210255504347826,0.014699284099431437,0.003470336538695652,13.3000001907,0.0,0.015859427980213545,0.04688091550611081
1648125637392008957,33553,37,1,0.0328266397119,0.0146502861753,-0.0300932060927,0.0,13.3000001907,0.01097880926819398,0.0048997612626421405,-0.010064617422307692,13.3000001907,0.0,0.016281159858119832,0.0468809152292358
1648125637392011673,33554,37,2,1.23490941525,-0.079111546278,0.266366630793,0.0,13.3000001907,0.4130131823578595,-0.026458711129765885,0.08908582969665552,13.3000001907,0.0,0.5846878149896587,1.2657847694721278
1648125637392077772,33555,37,3,2.42181420326,-0.902457654476,0.461249470711,0.0,13.3000001907,0.809971305438127,-0.30182530250033446,0.1542640370270903,13.3000001907,0.0,1.1845697718985175,2.625331393836856
1648125637586823889,33556,39,0,0.0126463817433,0.0439508594573,0.0103058833629,0.0,13.3000001907,0.0042295591114715715,0.014699284099431437,0.003446783733411371,13.3000001907,0.0,0.015869697337714487,0.04688091562802829
1648125637586837463,33557,39,1,0.0328392535448,0.0146502861753,-0.0300794392824,0.0,13.3000001907,0.010983027941404683,0.0048997612626421405,-0.01006001313792642,13.3000001907,0.0,0.016286849479080982,0.04688091430359943
1648125637586842050,33558,39,2,1.23032367229,-0.079111546278,0.286802917719,0.0,13.3000001907,0.4114794890602006,-0.026458711129765885,0.09592070826722408,13.3000001907,0.0,0.5825210753519017,1.2657846929726155
1648125637586844121,33559,39,3,2.42407035828,-0.902457654476,0.449242055416,0.0,13.3000001907,0.810725872334448,-0.30182530250033446,0.15024817906889631,13.3000001907,0.0,1.1856017009832274,2.6253314732369404
1648125637691932663,33560,40,0,0.0126767531037,0.0439508594573,0.0102685010061,0.0,13.1000003815,0.004239716757090301,0.014699284099431437,0.0034342812729431437,13.1000003815,0.0,0.01587511730339346,0.04688091540488284
1648125637691939978,33561,40,1,0.0328392535448,0.0146502861753,-0.0300794392824,0.0,13.1000003815,0.010983027941404683,0.0048997612626421405,-0.01006001313792642,13.1000003815,0.0,0.016286849479080982,0.04688091430359943
1648125637691943239,33562,40,2,1.2299311161,-0.039555773139,0.296506017447,0.0,13.1000003815,0.4113481993645485,-0.013229355564882942,0.09916589212274247,13.1000003815,0.0,0.5818846089127764,1.2657847478627227
1648125637691954195,33563,40,3,2.42298126221,-0.902457654476,0.455079197884,0.0,13.1000003815,0.8103616261571905,-0.30182530250033446,0.15220040063010032,13.1000003815,0.0,1.185103558144043,2.625331425075667
1648125637886833959,33564,42,0,0.0126667525619,0.0439508594573,0.0102808354422,0.0,12.8000001907,0.004236372094280936,0.014699284099431437,0.0034384065024080264,12.8000001907,0.0,0.01587333141083504,0.046880915572216936
1648125637886838129,33565,42,1,0.0328392535448,0.0146502861753,-0.0300794392824,0.0,12.8000001907,0.010983027941404683,0.0048997612626421405,-0.01006001313792642,12.8000001907,0.0,0.016286849479080982,0.04688091430359943
1648125637886858593,33566,42,2,1.22375452518,-0.039555773139,0.32104703784,0.0,12.8000001907,0.4092824498929765,-0.013229355564882942,0.1073735912508361,12.8000001907,0.0,0.5789639569346746,1.2657847358824443
1648125637887054031,33567,42,3,2.42133879662,-0.902457654476,0.463739186525,0.0,12.8000001907,0.8098123065618729,-0.30182530250033446,0.15509671790133778,12.8000001907,0.0,1.1843523364892476,2.6253314874998894
1648125637991940442,33568,43,0,0.0125784864649,0.0439508594573,0.0103886406869,0.0,12.6999998093,0.004206851660501672,0.014699284099431437,0.0034744617681939797,12.6999998093,0.0,0.015857621348194982,0.04688091535054028
1648125637991945286,33569,43,1,0.0328392535448,0.0146502861753,-0.0300794392824,0.0,12.6999998093,0.010983027941404683,0.0048997612626421405,-0.01006001313792642,12.6999998093,0.0,0.016286849479080982,0.04688091430359943
1648125637991948029,33570,43,2,1.22825920582,-0.039555773139,0.303357303143,0.0,12.6999998093,0.4107890320468227,-0.013229355564882942,0.10145729202107023,12.6999998093,0.0,0.5810940315892026,1.2657847325830702
1648125637991950877,33571,43,3,2.42384958267,-0.902457654476,0.450431644917,0.0,12.6999998093,0.8106520343377925,-0.30182530250033446,0.15064603508929764,12.6999998093,0.0,1.185500719013456,2.625331461791918
1648125638186984454,33572,45,0,0.0125680044293,0.0439508594573,0.0104013206437,0.0,12.6999998093,0.004203345962976589,0.014699284099431437,0.0034787025564214044,12.6999998093,0.0,0.01585576196859492,0.04688091566408767
1648125638186990169,33573,45,1,0.0328392535448,0.0146502861753,-0.0300794392824,0.0,12.6999998093,0.010983027941404683,0.0048997612626421405,-0.01006001313792642,12.6999998093,0.0,0.016286849479080982,0.04688091430359943
1648125638186993801,33574,45,2,1.23067498207,-0.039555773139,0.293403476477,0.0,12.6999998093,0.41159698396989963,-0.013229355564882942,0.09812825300234113,12.6999998093,0.0,0.5822363525879312,1.2657848042579782
1648125638187034305,33575,45,3,2.42342185974,-0.902457654476,0.452727437019,0.0,12.6999998093,0.8105089831906354,-0.30182530250033446,0.1514138585347826,12.6999998093,0.0,1.1853050817805741,2.6253314953768783
1648125638291909371,33576,46,0,0.0126767531037,0.0439508594573,0.0102685010061,0.0,13.0,0.004239716757090301,0.014699284099431437,0.0034342812729431437,13.0,0.0,0.01587511730339346,0.04688091540488284
1648125638291915591,33577,46,1,0.0328392535448,0.0146502861753,-0.0300794392824,0.0,13.0,0.010983027941404683,0.0048997612626421405,-0.01006001313792642,13.0,0.0,0.016286849479080982,0.04688091430359943
1648125638291918627,33578,46,2,1.22877705097,-0.039555773139,0.30125311017,0.0,13.0,0.4109622244046823,-0.013229355564882942,0.10075354855183946,13.0,0.0,0.5813388991147512,1.265784790778532
1648125638291920771,33579,46,3,2.42359852791,-0.902457654476,0.451779544353,0.0,13.0,0.810568069535117,-0.30182530250033446,0.15109683757625417,13.0,0.0,1.1853858881938788,2.625331293247701
