%time,field.header.seq,field.header.frame_id,field.point_id,field.x,field.y,field.z,field.velocity,field.intensity,normalized_x,normalized_y,normalized_z,normalized_intensity,normalized_velocity,normalized_range,range
1648218538637594880,38798,0,0,0.00525369495153,0.0454158857465,0.0103738252074,0.0,15.0,0.0017570886125518395,0.015189259446989964,0.003469506758327759,15.0,0.0,0.015391176801424008,0.04688091550104969
1648218538637642016,38799,0,1,0.0335027687252,0.0146502861753,-0.0293386057019,0.0,15.0,0.011204939372976588,0.0048997612626421405,-0.00981224270966555,15.0,0.0,0.01658640989289275,0.04688091489939147
1648218538637649137,38800,0,2,1.67049741745,0.114272229373,0.734346389771,0.0,15.0,0.558694788444816,0.03821813691404682,0.24560079925451503,15.0,0.0,0.7910375207662252,1.8283556503817022
1648218538637655860,38801,0,3,2.06951594353,-1.19546329975,-0.067089304328,0.0,15.0,0.6921458005117056,-0.39982050158862875,-0.022437894424080267,15.0,0.0,1.0573495409856488,2.3909265393000347
1648218538637665503,38802,0,4,1.58806145191,1.31852579117,0.436047196388,0.161837622523,15.0,0.5311242314080268,0.44097852547491634,0.14583518273846152,15.0,0.021869948989594594,0.8710039944268716,2.109641342622202
1648218538742810885,38803,1,0,0.00529174832627,0.0454158857465,0.010354465805,0.0,14.1000003815,0.0017698154937357859,0.015189259446989964,0.0034630320418060196,14.1000003815,0.0,0.015394092903179077,0.04688091552641263
1648218538742819204,38804,1,1,0.0335027687252,0.0146502861753,-0.0293386057019,0.0,14.1000003815,0.011204939372976588,0.0048997612626421405,-0.00981224270966555,14.1000003815,0.0,0.01658640989289275,0.04688091489939147
1648218538742837959,38805,1,2,1.76834237576,0.171408340335,0.431820452213,0.0,14.1000003815,0.5914188547692307,0.05732720412541805,0.14442155592408024,14.1000003815,0.0,0.8383548961423999,1.8283556765559486
1648218538742841476,38806,1,3,2.06880760193,-1.19546329975,-0.086211912334,0.0,14.1000003815,0.6919088969665552,-0.39982050158862875,-0.028833415496321065,14.1000003815,0.0,1.0570393923092614,2.3909265753428737
1648218538742957259,38807,1,4,1.72899091244,-0.108412116766,-0.0874829441309,0.0809188112617,14.1000003815,0.5782578302474916,-0.03625823303210702,-0.02925850974277592,14.1000003815,0.010934974494824324,0.8185834691390268,1.7345939086355626
1648218538937809948,38808,3,0,0.00525369495153,0.0454158857465,0.0103738252074,0.0,16.7000007629,0.0017570886125518395,0.015189259446989964,0.003469506758327759,16.7000007629,0.0,0.015391176801424008,0.04688091550104969
1648218538937813300,38809,3,1,0.0335027687252,0.0146502861753,-0.0293386057019,0.0,16.7000007629,0.011204939372976588,0.0048997612626421405,-0.00981224270966555,16.7000007629,0.0,0.01658640989289275,0.04688091489939147
1648218538937815942,38810,3,2,1.73006212711,0.108412116766,-0.0628337860107,0.0,16.7000007629,0.5786160960234114,0.03625823303210702,-0.021014644150735784,16.7000007629,0.0,0.819089636497348,1.7345939684509748
1648218538937957055,38811,3,3,2.42416453362,-0.984499275684,0.215759441257,-0.161837622523,16.7000007629,0.8107573691036789,-0.32926397180066885,0.07216034824648829,16.7000007629,-0.021869948989594594,1.192924887089623,2.625331340302577
1648218539042817389,38812,4,0,0.00529174832627,0.0454158857465,0.010354465805,0.0,19.7000007629,0.0017698154937357859,0.015189259446989964,0.0034630320418060196,19.7000007629,0.0,0.015394092903179077,0.04688091552641263
1648218539042823849,38813,4,1,0.0334278345108,0.0146502861753,-0.029423955828,0.0,19.7000007629,0.011179877762809366,0.0048997612626421405,-0.009840787902341136,19.7000007629,0.0,0.01655255249239848,0.04688091489793809
1648218539042828114,38814,4,2,1.68709397316,-0.0,-0.0457025654614,0.0,19.7000007629,0.5642454759732441,-0.0,-0.015285138950301003,19.7000007629,0.0,0.7979636046290243,1.6877128899082772
1648218539042836208,38815,4,3,1.71662688255,-0.0,0.629346191883,0.0,19.7000007629,0.5741227031939798,-0.0,0.21048367621505015,19.7000007629,0.0,0.8119321133232293,1.828355677413715
1648218539237973961,38816,6,0,0.00529174832627,0.0454158857465,0.010354465805,0.0,12.6999998093,0.0017698154937357859,0.015189259446989964,0.0034630320418060196,12.6999998093,0.0,0.015394092903179077,0.04688091552641263
1648218539237977806,38817,6,1,0.0334800891578,0.0146502861753,-0.029364483431,0.0,12.6999998093,0.011197354233377926,0.0048997612626421405,-0.009820897468561872,12.6999998093,0.0,0.016576161922664173,0.046880914477022494
1648218539237979548,38818,6,2,1.71547627449,0.054206058383,-0.251035660505,0.0,12.6999998093,0.573737884444816,0.01812911651605351,-0.08395841488461538,12.6999998093,0.0,0.8115904046747218,1.7345939144216702
1648218539237981411,38819,6,3,0.700652718544,-1.57197570801,0.216319277883,0.0,12.6999998093,0.2343320128909699,-0.5257443839498328,0.07234758457625418,12.6999998093,0.0,0.6214741682369883,1.7345938684777085
1648218539237982557,38820,6,4,1.77057731152,0.410208016634,0.46184155345,0.0809188112617,12.6999998093,0.5921663249230769,0.13719331659999998,0.15446205801003343,12.6999998093,0.010934974494824324,0.8486129381912073,1.8752365860000975
1648218539237983472,38821,6,5,1.71933817863,-0.399952799082,0.476233661175,0.242756426334,12.6999998093,0.575029491180602,-0.13376347795384613,0.15927547196488293,12.6999998093,0.03280492247756756,0.8241422810954144,1.8283556858621346
1648218539342797003,38822,7,0,0.00525369495153,0.0454158857465,0.0103738252074,0.0,35.7000007629,0.0017570886125518395,0.015189259446989964,0.003469506758327759,35.7000007629,0.0,0.015391176801424008,0.04688091550104969
1648218539342810662,38823,7,1,0.0334505960345,0.0146502861753,-0.0293980780989,0.0,35.7000007629,0.011187490312541805,0.0048997612626421405,-0.009832133143444815,35.7000007629,0.0,0.016562836092207215,0.04688091569061464
1648218539342815714,38824,7,2,1.7323615551,0.054206058383,-0.0692900121212,0.0,35.7000007629,0.5793851354849497,0.01812911651605351,-0.023173917097391306,35.7000007629,0.0,0.8195748503385641,1.7345938891088217
1648218539342818619,38825,7,3,1.78775668144,0.0571361146867,0.378874659538,0.0809188112617,35.7000007629,0.5979119335919733,0.0191090684570903,0.12671393295585281,35.7000007629,0.010934974494824324,0.8457910599909899,1.8283556807347112
1648218539537797226,38826,9,0,0.00525369495153,0.0454158857465,0.0103738252074,0.0,20.2999992371,0.0017570886125518395,0.015189259446989964,0.003469506758327759,20.2999992371,0.0,0.015391176801424008,0.04688091550104969
1648218539537800135,38827,9,1,0.0334800891578,0.0146502861753,-0.029364483431,0.0,20.2999992371,0.011197354233377926,0.0048997612626421405,-0.009820897468561872,20.2999992371,0.0,0.016576161922664173,0.046880914477022494
1648218539537808712,38828,9,2,1.73068511486,0.054206058383,-0.102989137173,0.0,20.2999992371,0.5788244531304347,0.01812911651605351,-0.03444452748260869,20.2999992371,0.0,0.8187821199495909,1.7345939080773436
1648218539537812238,38829,9,3,1.80633699894,-0.175803437829,0.47196623683,0.0809188112617,20.2999992371,0.6041260866020066,-0.05879713639765886,0.15784823974247492,20.2999992371,0.010934974494824324,0.8563841195834235,1.8752366067244775
1648218539537972374,38830,9,4,1.06546199322,1.4855389595,0.0291408486664,-0.0809188112617,20.2999992371,0.35634180375250835,0.4968357724080267,0.0097461032329097,20.2999992371,-0.010934974494824324,0.7076755944268975,1.828355667874737
1648218539538076227,38831,9,5,1.71231794357,-0.399952799082,0.500888705254,-0.0809188112617,20.2999992371,0.5726815864782608,-0.13376347795384613,0.1675213061050167,20.2999992371,-0.010934974494824324,0.8208660469387344,1.8283556755774706
1648218539642722716,38832,10,0,0.00529174832627,0.0454158857465,0.010354465805,0.0,18.2000007629,0.0017698154937357859,0.015189259446989964,0.0034630320418060196,18.2000007629,0.0,0.015394092903179077,0.04688091552641263
1648218539642738412,38833,10,1,0.0334800891578,0.0146502861753,-0.029364483431,0.0,18.2000007629,0.011197354233377926,0.0048997612626421405,-0.009820897468561872,18.2000007629,0.0,0.016576161922664173,0.046880914477022494
1648218539642741513,38834,10,2,1.73008346558,0.054206058383,-0.112645298243,0.0,18.2000007629,0.5786232326354515,0.01812911651605351,-0.037674012790301,18.2000007629,0.0,0.8184976209841127,1.734593917277176
1648218539642744812,38835,10,3,0.837918698788,-1.51776957512,0.0555323436856,0.0,18.2000007629,0.2802403674876254,-0.5076152425150501,0.01857269019585284,18.2000007629,0.0,0.6440050943686795,1.7345939208165513
1648218539642747301,38836,10,4,1.84630966187,0.120132349432,0.52081155777,0.0,18.2000007629,0.6174948701906354,0.040178043288294316,0.17418446748160535,18.2000007629,0.0,0.8741934022777657,1.922117537405395
1648218539837805829,38837,12,0,0.00529174832627,0.0454158857465,0.010354465805,0.0,15.6999998093,0.0017698154937357859,0.015189259446989964,0.0034630320418060196,15.6999998093,0.0,0.015394092903179077,0.04688091552641263
1648218539837810954,38838,12,1,0.0334800891578,0.0146502861753,-0.029364483431,0.0,15.6999998093,0.011197354233377926,0.0048997612626421405,-0.009820897468561872,15.6999998093,0.0,0.016576161922664173,0.046880914477022494
1648218539837816783,38839,12,2,1.72887337208,0.108412116766,-0.089776866138,0.0,15.6999998093,0.578218519090301,0.03625823303210702,-0.030025707738461534,15.6999998093,0.0,0.8185279293344682,1.7345939609725718
1648218539837819409,38840,12,3,0.83750975132,-1.51776957512,0.0613920651376,0.0,15.6999998093,0.2801035957591973,-0.5076152425150501,0.020532463256722408,15.6999998093,0.0,0.6438860793246557,1.7345939156983956
1648218539837927158,38841,12,4,1.84207487106,0.300330877304,0.459453135729,0.0,15.6999998093,0.6160785521939799,0.10044510946622072,0.15366325609665551,15.6999998093,0.0,0.877037504877951,1.9221174913059078
1648218539838012237,38842,12,5,1.1119081974,1.46502864361,0.365873783827,-0.242756426334,15.6999998093,0.3718756513043478,0.489976134986622,0.12236581398896319,15.6999998093,-0.03280492247756756,0.7187903817682135,1.875236622865221
1648218539942834309,38843,13,0,0.00529174832627,0.0454158857465,0.010354465805,0.0,26.2999992371,0.0017698154937357859,0.015189259446989964,0.0034630320418060196,26.2999992371,0.0,0.015394092903179077,0.04688091552641263
1648218539942836884,38844,13,1,0.0335027687252,0.0146502861753,-0.0293386057019,0.0,26.2999992371,0.011204939372976588,0.0048997612626421405,-0.00981224270966555,26.2999992371,0.0,0.01658640989289275,0.04688091489939147
1648218539942838642,38845,13,2,1.73139607906,-0.0,-0.105278849602,0.0,26.2999992371,0.5790622337993311,-0.0,-0.035210317592642135,26.2999992371,0.0,0.818917664497074,1.7345939060073579
1648218539942840407,38846,13,3,1.83554589748,0.293005734682,0.247853085399,0.0,26.2999992371,0.6138949489899665,0.09799522899063544,0.08289400849464883,26.2999992371,0.0,0.8736916399369484,1.8752365862082578
1648218539942842046,38847,13,4,1.88473534584,-0.0,0.56984847784,-0.161837622523,26.2999992371,0.6303462695117057,-0.0,0.19058477519732442,26.2999992371,-0.021869948989594594,0.8914442433347404,1.9689983777431583
1648218540137782309,38848,15,0,0.00529174832627,0.0454158857465,0.010354465805,0.0,23.3999996185,0.0017698154937357859,0.015189259446989964,0.0034630320418060196,23.3999996185,0.0,0.015394092903179077,0.04688091552641263
1648218540137785797,38849,15,1,0.0334505960345,0.0146502861753,-0.0293980780989,0.0,23.3999996185,0.011187490312541805,0.0048997612626421405,-0.009832133143444815,23.3999996185,0.0,0.016562836092207215,0.04688091569061464
1648218540137787878,38850,15,2,1.72678649426,0.054206058383,-0.155196920037,0.0,23.3999996185,0.5775205666421405,0.01812911651605351,-0.051905324427090296,23.3999996185,0.0,0.8169385990727642,1.7345938941184857
1648218540137789532,38851,15,3,1.76331567764,0.0586011447012,0.635449528694,0.0,23.3999996185,0.5897376848294315,0.019599045050568562,0.21252492598461536,23.3999996185,0.0,0.8342452855023215,1.8752366188533998
