%time,field.header.seq,field.header.frame_id,field.point_id,field.x,field.y,field.z,field.velocity,field.intensity,normalized_x,normalized_y,normalized_z,normalized_intensity,normalized_velocity,normalized_range,range
1648125708092619037,36079,0,0,0.0126097733155,0.0439508594573,0.0103506427258,0.0,35.5999984741,0.004217315490133779,0.014699284099431437,0.0034617534199999998,35.5999984741,0.0,0.01586317915559307,0.04688091546611253
1648125708092625798,36080,0,1,0.0328744277358,0.0146502861753,-0.0300409924239,0.0,35.5999984741,0.010994791884882943,0.0048997612626421405,-0.010047154656822743,35.5999984741,0.0,0.01630271626492543,0.04688091413131083
1648125708092650114,36081,0,2,1.17250478268,-0.0380907431245,0.330920040607,0.0,35.5999984741,0.3921420677859531,-0.01273937897140468,0.11067559886521737,35.5999984741,0.0,0.5547189328222566,1.2189037875872684
1648125708092656420,36082,0,3,1.35344088078,-0.0,0.128703311086,0.0,35.5999984741,0.45265581296989965,-0.0,0.04304458564749163,35.5999984741,0.0,0.6401519897890512,1.359546527357943
1648125708092659496,36083,0,4,2.39228773117,-0.984499275684,0.447309464216,0.0,35.5999984741,0.8000962311605351,-0.32926397180066885,0.14960182749698994,35.5999984741,0.0,1.178440800957153,2.625331439895929
1648125708092666236,36084,0,5,1.34818339348,0.13624766469,0.525303006172,0.242756426334,35.5999984741,0.4508974560133779,0.04556778083277591,0.17568662413779262,35.5999984741,0.03280492247756756,0.6392913688833097,1.453308341984614
1648125708092735223,36085,0,6,1.28111839294,-0.363327085972,0.582094848156,0.242756426334,35.5999984741,0.42846768994648826,-0.12151407557591971,0.19468055122274247,35.5999984741,0.03280492247756756,0.6180087323163244,1.4533084051156624
1648125708092738350,36086,0,7,1.09139549732,-0.0703213736415,0.264301627874,-0.242756426334,35.5999984741,0.36501521649498325,-0.023518854060702338,0.08839519326889632,35.5999984741,-0.03280492247756756,0.5167449593775324,1.1251420255496831
1648125708287704415,36087,2,0,0.0125952418894,0.0439508594573,0.0103683201596,0.0,33.4000015259,0.004212455481404682,0.014699284099431437,0.003467665605217391,33.4000015259,0.0,0.015860596312920604,0.04688091539443103
1648125708287713463,36088,2,1,0.0328744277358,0.0146502861753,-0.0300409924239,0.0,33.4000015259,0.010994791884882943,0.0048997612626421405,-0.010047154656822743,33.4000015259,0.0,0.01630271626492543,0.04688091413131083
1648125708287801944,36089,2,2,1.1337249279,-0.076181486249,0.441124379635,0.0,33.4000015259,0.37917221668896317,-0.02547875794280936,0.1475332373361204,33.4000015259,0.0,0.5368354560980043,1.2189038310290645
1648125708287810925,36090,2,3,1.35760903358,-0.0,0.0725576728582,0.0,33.4000015259,0.4540498440066889,-0.0,0.024266780220133777,33.4000015259,0.0,0.6421234473876476,1.3595465802791087
1648125708287814613,36091,2,4,2.41883850098,-0.902457654476,0.476608067751,0.0,33.4000015259,0.8089760872842809,-0.30182530250033446,0.1594006915555184,33.4000015259,0.0,1.183208828916091,2.6253313623599666
1648125708392717786,36092,3,0,0.0126097733155,0.0439508594573,0.0103506427258,0.0,11.6999998093,0.004217315490133779,0.014699284099431437,0.0034617534199999998,11.6999998093,0.0,0.01586317915559307,0.04688091546611253
1648125708392721727,36093,3,1,0.0328744277358,0.0146502861753,-0.0300409924239,0.0,11.6999998093,0.010994791884882943,0.0048997612626421405,-0.010047154656822743,11.6999998093,0.0,0.01630271626492543,0.04688091413131083
1648125708392725313,36094,3,2,1.2369312048,-0.039555773139,0.265795856714,0.0,11.6999998093,0.41368936615384616,-0.013229355564882942,0.08889493535585284,11.6999998093,0.0,0.5851946677697979,1.265784698139037
1648125708392741198,36095,3,3,1.88550269604,-1.24527442455,0.623476088047,0.0,11.6999998093,0.6306029083745819,-0.4164797406521739,0.20852043078494983,11.6999998093,0.0,0.9842639028607443,2.344045912856408
1648125708392746183,36096,3,4,2.41326189041,-0.902457654476,0.504086196423,0.0,11.6999998093,0.8071110001371237,-0.30182530250033446,0.16859070114481606,11.6999998093,0.0,1.180658649362344,2.625331533968953
1648125708392752156,36097,3,5,1.31856000423,-0.338421612978,0.735048830509,0.323675245047,11.6999998093,0.44098996796989964,-0.11318448594581938,0.24583572926722408,11.6999998093,0.04373989797932432,0.6338414877230786,1.5470702815703938
1648125708392828368,36098,3,6,1.54025483131,0.145037829876,0.00240863393992,0.323675245047,11.6999998093,0.5151353950869565,0.048507635410033445,0.0008055631906086956,11.6999998093,0.04373989797932432,0.7301246066500309,1.5470703665271313
1648125708587672874,36099,5,0,0.0126097733155,0.0439508594573,0.0103506427258,0.0,28.2000007629,0.004217315490133779,0.014699284099431437,0.0034617534199999998,28.2000007629,0.0,0.01586317915559307,0.04688091546611253
1648125708587676000,36100,5,1,0.0328744277358,0.0146502861753,-0.0300409924239,0.0,28.2000007629,0.010994791884882943,0.0048997612626421405,-0.010047154656822743,28.2000007629,0.0,0.01630271626492543,0.04688091413131083
1648125708587680710,36101,5,2,1.23263168335,-0.079111546278,0.276715487242,0.0,28.2000007629,0.41225139911371234,-0.026458711129765885,0.09254698569966555,28.2000007629,0.0,0.5836115964724099,1.2657847227835894
1648125708587686740,36102,5,3,2.41877508163,-0.902457654476,0.476929962635,0.0,28.2000007629,0.8089548767993311,-0.30182530250033446,0.15950834870735783,28.2000007629,0.0,1.1831798251425099,2.625331389157483
1648125708587820243,36103,5,4,1.31067585945,0.338421612978,0.749016702175,0.323675245047,28.2000007629,0.4383531302508361,0.11318448594581938,0.25050725825250836,28.2000007629,0.04373989797932432,0.6301727235133494,1.5470702688671707
1648125708692744096,36104,6,0,0.0126200383529,0.0439508594573,0.0103381248191,0.0,34.5999984741,0.004220748613010033,0.014699284099431437,0.0034575668291304345,34.5999984741,0.0,0.015865005223580926,0.04688091551835667
1648125708692748198,36105,6,1,0.0327995419502,0.0146502861753,-0.0301227364689,0.0,34.5999984741,0.010969746471638795,0.0048997612626421405,-0.010074493802307691,34.5999984741,0.0,0.016268937756809817,0.046880913915322876
1648125708692751438,36106,6,2,1.24561452866,-0.039555773139,0.221564605832,0.0,34.5999984741,0.4165934878461538,-0.013229355564882942,0.07410187486020066,34.5999984741,0.0,0.5893006737483922,1.2657847714975037
1648125708692757591,36107,6,3,2.3882522583,-0.984499275684,0.468377053738,0.0,34.5999984741,0.7987465746822742,-0.32926397180066885,0.15664784405953175,34.5999984741,0.0,1.176608237375246,2.6253313576700483
1648125708692761017,36108,6,4,1.34906435013,0.145037829876,0.743246734142,0.0809188112617,34.5999984741,0.45119209034448154,0.048507635410033445,0.24857750305752507,34.5999984741,0.010934974494824324,0.6399231168444521,1.5470702313403768
1648125708887731977,36109,8,0,0.0126097733155,0.0439508594573,0.0103506427258,0.0,14.1000003815,0.004217315490133779,0.014699284099431437,0.0034617534199999998,14.1000003815,0.0,0.01586317915559307,0.04688091546611253
1648125708887834541,36110,8,1,0.032850060612,0.0146502861753,-0.0300676375628,0.0,14.1000003815,0.010986642345150502,0.0048997612626421405,-0.01005606607451505,14.1000003815,0.0,0.01629172429399039,0.046880915049070465
1648125708887924928,36111,8,2,1.18507754803,-0.0380907431245,0.28260704875,0.0,14.1000003815,0.3963470060301003,-0.01273937897140468,0.09451740760869563,14.1000003815,0.0,0.56066406176482,1.2189037876550217
1648125708887932913,36112,8,3,1.34387516975,-0.0849716588855,0.187473475933,0.0,14.1000003815,0.4494565785117057,-0.028418615011872907,0.06270015917491639,14.1000003815,0.0,0.6362625634233804,1.359546600474859
1648125708887936030,36113,8,4,0.561384618282,1.23208904266,0.123169749975,0.0,14.1000003815,0.18775405293712374,0.4120699139331103,0.041193896312709026,14.1000003815,0.0,0.49020891746017176,1.3595465736764467
1648125708887938690,36114,8,5,1.8633660078,-1.31852579117,0.532830536366,0.0,14.1000003815,0.6231993337123746,-0.44097852547491634,0.17820419276454846,14.1000003815,0.0,0.9855033632662684,2.344045972563052
1648125708887940603,36115,8,6,2.38823485374,-0.984499275684,0.468465715647,0.0,14.1000003815,0.7987407537591973,-0.32926397180066885,0.15667749687190635,14.1000003815,0.0,1.1766003342501534,2.6253313442644712
1648125708887943278,36116,8,7,1.38990712166,-0.398487776518,0.670854628086,0.0809188112617,14.1000003815,0.46485188015384615,-0.1332735038521739,0.2243660963498328,14.1000003815,0.010934974494824324,0.6707729629272239,1.5939511431972597
1648125708992642470,36117,9,0,0.0126097733155,0.0439508594573,0.0103506427258,0.0,13.1000003815,0.004217315490133779,0.014699284099431437,0.0034617534199999998,13.1000003815,0.0,0.01586317915559307,0.04688091546611253
1648125708992649772,36118,9,1,0.0328744277358,0.0146502861753,-0.0300409924239,0.0,13.1000003815,0.010994791884882943,0.0048997612626421405,-0.010047154656822743,13.1000003815,0.0,0.01630271626492543,0.04688091413131083
1648125708992652107,36119,9,2,1.30792617798,-0.0410208031535,0.103622719646,0.0,13.1000003815,0.4374335043411371,-0.013719332158361203,0.034656427975250835,13.1000003815,0.0,0.6187765036870798,1.3126657081540458
1648125708992655544,36120,9,3,1.32303249836,-0.398487776518,0.79465264082,0.0,13.1000003815,0.4424857854046822,-0.1332735038521739,0.26577011398662204,13.1000003815,0.0,0.6398040070204565,1.5939511659122945
1648125708992658355,36121,9,4,0.499459207058,0.149432912469,-1.50628364086,0.0,13.1000003815,0.16704321306287626,0.04997756269866221,-0.5037737929297659,13.1000003815,0.0,0.24146351035723318,1.5939510976082143
1648125708992662522,36122,9,5,1.88275802135,-1.31852579117,0.459633618593,0.0,13.1000003815,0.6296849569732441,-0.44097852547491634,0.15372361825852843,13.1000003815,0.0,0.9937144207501589,2.3440458810098272
1648125708992797223,36123,9,6,2.38418340683,-0.984499275684,0.488667428493,0.0,13.1000003815,0.7973857547926421,-0.32926397180066885,0.16343392257290967,13.1000003815,0.0,1.1747607616099607,2.625331445150457
1648125709187728436,36124,11,0,0.0126303331926,0.0439508594573,0.0103255445138,0.0,12.6000003815,0.004224191703210702,0.014699284099431437,0.003453359369163879,12.6000003815,0.0,0.015866837874218862,0.04688091544645748
1648125709187800299,36125,11,1,0.0328744277358,0.0146502861753,-0.0300409924239,0.0,12.6000003815,0.010994791884882943,0.0048997612626421405,-0.010047154656822743,12.6000003815,0.0,0.01630271626492543,0.04688091413131083
1648125709187807194,36126,11,2,1.17675554752,-0.0380907431245,0.315470933914,0.0,12.6000003815,0.3935637282675585,-0.01273937897140468,0.10550867354983277,12.6000003815,0.0,0.5567289360113217,1.2189037835183887
1648125709187812162,36127,11,3,1.85857379436,-1.31852579117,0.549312949181,0.0,12.6000003815,0.6215965867424749,-0.44097852547491634,0.18371670541170568,12.6000003815,0.0,0.9834768391933902,2.3440459737812587
1648125709187815605,36128,11,4,2.38665914536,-0.984499275684,0.47642827034,0.0,12.6000003815,0.7982137609899664,-0.32926397180066885,0.15934055864214047,12.6000003815,0.0,1.1758848496317342,2.625331330847977
1648125709187821138,36129,11,5,1.13977050781,0.145037829876,1.03600859642,-0.0809188112617,12.6000003815,0.3811941497692307,0.048507635410033445,0.3464911693712375,12.6000003815,-0.010934974494824324,0.5412679099389194,1.547070326269864
1648125709292780982,36130,12,0,0.0126097733155,0.0439508594573,0.0103506427258,0.0,15.6000003815,0.004217315490133779,0.014699284099431437,0.0034617534199999998,15.6000003815,0.0,0.01586317915559307,0.04688091546611253
1648125709292785279,36131,12,1,0.0328744277358,0.0146502861753,-0.0300409924239,0.0,15.6000003815,0.010994791884882943,0.0048997612626421405,-0.010047154656822743,15.6000003815,0.0,0.01630271626492543,0.04688091413131083
1648125709292791398,36132,12,2,1.19054925442,-0.076181486249,0.25003054738,0.0,15.6000003815,0.39817700816722407,-0.02547875794280936,0.08362225664882943,15.6000003815,0.0,0.5636834455368647,1.218903778265646
1648125709292794381,36133,12,3,1.88563990593,-1.24527442455,0.623060882092,0.0,15.6000003815,0.6306487979698996,-0.4164797406521739,0.2083815659170568,15.6000003815,0.0,0.9843227047749434,2.3440458848041548
1648125709292796174,36134,12,4,2.38642692566,-0.984499275684,0.477590769529,0.0,15.6000003815,0.7981360955384614,-0.32926397180066885,0.15972935435752506,15.6000003815,0.0,1.1757794083622624,2.6253314530696237
1648125709487675676,36135,14,0,0.012677649036,0.0439508594573,0.0102673945948,0.0,12.1000003815,0.0042400164,0.014699284099431437,0.003433911235719063,12.1000003815,0.0,0.01587527735758767,0.04688091534815267
1648125709487706555,36136,14,1,0.0328744277358,0.0146502861753,-0.0300409924239,0.0,12.1000003815,0.010994791884882943,0.0048997612626421405,-0.010047154656822743,12.1000003815,0.0,0.01630271626492543,0.04688091413131083
1648125709487861871,36137,14,2,1.24519836903,-0.079111546278,0.21315073967,0.0,12.1000003815,0.4164543040234113,-0.026458711129765885,0.0712878727993311,12.1000003815,0.0,0.5895493516864353,1.2657846786919709
1648125709487865536,36138,14,3,2.05024337769,-0.9713139534,0.754705965519,0.0,12.1000003815,0.6857001263177258,-0.3248541650167224,0.252410021912709,12.1000003815,0.0,1.0226923070958351,2.390926556425606
1648125709487866947,36139,14,4,2.38556170464,-0.984499275684,0.481893986464,0.0,12.1000003815,0.7978467239598662,-0.32926397180066885,0.1611685573458194,12.1000003815,0.0,1.1753865547099531,2.6253314618648425
1648125709592763605,36140,15,0,0.0125891612843,0.0439508594573,0.0103757027537,0.0,12.6999998093,0.004210421834214047,0.014699284099431437,0.0034701347002341135,12.6999998093,0.0,0.015859516294006278,0.04688091548285499
1648125709592765851,36141,15,1,0.0328872464597,0.0146502861753,-0.0300269592553,0.0,12.6999998093,0.010999079083511706,0.0048997612626421405,-0.010042461289397992,12.6999998093,0.0,0.0163084990664861,0.0468809145264753
1648125709592767531,36142,15,2,1.18566775322,-0.076181486249,0.272240251303,0.0,12.6999998093,0.3965443990702341,-0.02547875794280936,0.09105025127190634,12.6999998093,0.0,0.5613769571101529,1.21890376744942
1648125709592769209,36143,15,3,2.42292451859,-0.902457654476,0.455381035805,0.0,12.6999998093,0.8103426483578594,-0.30182530250033446,0.15230134976755852,12.6999998093,0.0,1.1850776045157032,2.625331394067755
1648125709787711152,36144,17,0,0.0125891612843,0.0439508594573,0.0103757027537,0.0,12.0,0.004210421834214047,0.014699284099431437,0.0034701347002341135,12.0,0.0,0.015859516294006278,0.04688091548285499
1648125709787722219,36145,17,1,0.032850060612,0.0146502861753,-0.0300676375628,0.0,12.0,0.010986642345150502,0.0048997612626421405,-0.01005606607451505,12.0,0.0,0.01629172429399039,0.046880915049070465
1648125709787877328,36146,17,2,1.18694806099,-0.076181486249,0.266603022814,0.0,12.0,0.3969725956488294,-0.02547875794280936,0.08916489057324414,12.0,0.0,0.5619818951698056,1.2189038067495686
1648125709787881017,36147,17,3,1.34936094284,-0.0849716588855,0.142730161548,0.0,12.0,0.45129128523076917,-0.028418615011872907,0.04773583998260869,12.0,0.0,0.638854651645953,1.3595466288036337
1648125709787991485,36148,17,4,2.38341927528,-0.984499275684,0.492380023003,0.0,12.0,0.7971301924013378,-0.32926397180066885,0.16467559297759196,12.0,0.0,1.1744138326848588,2.6253312843622223
1648125709892869546,36149,18,0,0.012677649036,0.0439508594573,0.0102673945948,0.0,12.5,0.0042400164,0.014699284099431437,0.003433911235719063,12.5,0.0,0.01587527735758767,0.04688091534815267
1648125709892881807,36150,18,1,0.0328744277358,0.0146502861753,-0.0300409924239,0.0,12.5,0.010994791884882943,0.0048997612626421405,-0.010047154656822743,12.5,0.0,0.01630271626492543,0.04688091413131083
1648125709892926476,36151,18,2,1.18431150913,-0.076181486249,0.278080910444,0.0,12.5,0.396090805729097,-0.02547875794280936,0.09300364897792641,12.5,0.0,0.5607361410436809,1.218903754304764
1648125709892937253,36152,18,3,1.40260207653,0.0879017189145,0.0549470372498,0.0,12.5,0.46909768445819394,0.02939856819882943,0.018376935535050164,12.5,0.0,0.6640553824344922,1.4064275573867724
1648125709892986471,36153,18,4,2.3795478344,-0.984499275684,0.510762095451,0.0,12.5,0.7958353961204012,-0.32926397180066885,0.17082344329464882,12.5,0.0,1.1726562661590922,2.6253313387398447
1648125710087726449,36154,20,0,0.0126097733155,0.0439508594573,0.0103506427258,0.0,12.1000003815,0.004217315490133779,0.014699284099431437,0.0034617534199999998,12.1000003815,0.0,0.01586317915559307,0.04688091546611253
1648125710087871686,36155,20,1,0.0328872464597,0.0146502861753,-0.0300269592553,0.0,12.1000003815,0.010999079083511706,0.0048997612626421405,-0.010042461289397992,12.1000003815,0.0,0.0163084990664861,0.0468809145264753
1648125710087882354,36156,20,2,1.18119072914,-0.076181486249,0.291052281857,0.0,12.1000003815,0.3950470666020066,-0.02547875794280936,0.09734190028662207,12.1000003815,0.0,0.5592615995828865,1.2189038469984241
1648125710087884342,36157,20,3,1.35658454895,-0.0849716588855,0.0287214256823,0.0,12.1000003815,0.45370720700668893,-0.028418615011872907,0.009605827987391303,12.1000003815,0.0,0.6422679168842346,1.3595465205563406
1648125710087885402,36158,20,4,2.42072916031,-0.902457654476,0.466910719872,0.0,12.1000003815,0.8096084148193979,-0.30182530250033446,0.1561574313953177,12.1000003815,0.0,1.1840735128876818,2.625331427844658
1648125710192750119,36159,21,0,0.0126097733155,0.0439508594573,0.0103506427258,0.0,13.1000003815,0.004217315490133779,0.014699284099431437,0.0034617534199999998,13.1000003815,0.0,0.01586317915559307,0.04688091546611253
1648125710192753236,36160,21,1,0.0328744277358,0.0146502861753,-0.0300409924239,0.0,13.1000003815,0.010994791884882943,0.0048997612626421405,-0.010047154656822743,13.1000003815,0.0,0.01630271626492543,0.04688091413131083
1648125710192759474,36161,21,2,1.24419486523,-0.079111546278,0.218932539225,0.0,13.1000003815,0.4161186840234113,-0.026458711129765885,0.07322158502508361,13.1000003815,0.0,0.589075191958887,1.2657847195122478
1648125710192762259,36162,21,3,2.39027571678,-0.984499275684,0.457939863205,0.0,13.1000003815,0.7994233166488295,-0.32926397180066885,0.15315714488461538,13.1000003815,0.0,1.1775270873867747,2.6253315494166976
1648125710387773580,36163,23,0,0.0125994961709,0.0439508594573,0.010363150388,0.0,12.8999996185,0.004213878318026756,0.014699284099431437,0.0034659365846153845,12.8999996185,0.0,0.01586135221203003,0.04688091548551676
1648125710387782145,36164,23,1,0.0328628644347,0.0146502861753,-0.0300536397845,0.0,12.8999996185,0.010990924560100333,0.0048997612626421405,-0.010051384543311037,12.8999996185,0.0,0.01629749998627157,0.04688091304750941
1648125710387784800,36165,23,2,1.19084250927,-0.076181486249,0.248630404472,0.0,12.8999996185,0.39827508671237455,-0.02547875794280936,0.08315398142876253,12.8999996185,0.0,0.5638220078161257,1.2189038431145776
1648125710387874970,36166,23,3,1.35157060623,-0.0849716588855,0.120014324784,0.0,12.8999996185,0.45203030308695646,-0.028418615011872907,0.0401385701618729,12.8999996185,0.0,0.6398987478476298,1.3595465143171979
1648125710387881617,36167,23,4,2.24815130234,-0.914177834988,0.230218410492,0.0,12.8999996185,0.7518900676722408,-0.30574509531371236,0.07699612391036789,12.8999996185,0.0,1.1064164726886185,2.4378076028936015
1648125710387883864,36168,23,5,1.1713078022,-0.076181486249,-2.13661885262,0.0,12.8999996185,0.39174173986622074,-0.02547875794280936,-0.7145882450234112,12.8999996185,0.0,0.5545920560314003,2.43780756166538
1648125710387885625,36169,23,6,2.38841080666,-0.984499275684,0.467568457127,0.0,12.8999996185,0.7987996008896321,-0.32926397180066885,0.15637741041036787,12.8999996185,0.0,1.176680231791468,2.625331458557703
1648125710492744393,36170,24,0,0.0125891612843,0.0439508594573,0.0103757027537,0.0,11.8000001907,0.004210421834214047,0.014699284099431437,0.0034701347002341135,11.8000001907,0.0,0.015859516294006278,0.04688091548285499
1648125710492748948,36171,24,1,0.0328872464597,0.0146502861753,-0.0300269592553,0.0,11.8000001907,0.010999079083511706,0.0048997612626421405,-0.010042461289397992,11.8000001907,0.0,0.0163084990664861,0.0468809145264753
1648125710492758754,36172,24,2,1.19167470932,-0.076181486249,0.244610533118,0.0,11.8000001907,0.3985534144882943,-0.02547875794280936,0.08180954284882942,11.8000001907,0.0,0.5642152209103052,1.2189038290990333
1648125710492764066,36173,24,3,1.15100669861,0.169943317771,0.703327536583,0.0,11.8000001907,0.3849520731137124,0.05683723002374581,0.23522660086387956,11.8000001907,0.0,0.5473633783017111,1.3595465329351613
1648125710492881856,36174,24,4,1.34271776676,-0.212429150939,0.0187024660408,0.0,11.8000001907,0.44906948721070233,-0.07104653877558528,0.006255005364816053,11.8000001907,0.0,0.6390417978187006,1.3595465889691436
1648125710492885576,36175,24,5,2.24187135696,-0.914177834988,0.284952491522,0.0,11.8000001907,0.7497897514916387,-0.30574509531371236,0.09530183662943142,11.8000001907,0.0,1.1035621442366432,2.437807666237354
1648125710492889394,36176,24,6,1.15078830719,-0.076181486249,-2.14774036407,0.0,11.8000001907,0.3848790325050167,-0.02547875794280936,-0.7183078140702341,11.8000001907,0.0,0.5448971521583716,2.4378076253609247
1648125710492890678,36177,24,7,2.38716435432,-0.984499275684,0.473891019821,0.0,11.8000001907,0.7983827271973243,-0.32926397180066885,0.15849197987324415,11.8000001907,0.0,1.1761142467039611,2.6253314413660855
1648125710687782219,36178,26,0,0.0126097733155,0.0439508594573,0.0103506427258,0.0,12.1999998093,0.004217315490133779,0.014699284099431437,0.0034617534199999998,12.1999998093,0.0,0.01586317915559307,0.04688091546611253
1648125710687794673,36179,26,1,0.0328744277358,0.0146502861753,-0.0300409924239,0.0,12.1999998093,0.010994791884882943,0.0048997612626421405,-0.010047154656822743,12.1999998093,0.0,0.01630271626492543,0.04688091413131083
1648125710687921984,36180,26,2,1.25337660313,-0.118667319417,0.131058171391,0.0,12.1999998093,0.4191894993745819,-0.039688066694648826,0.04383216434481606,12.1999998093,0.0,0.5941504989561013,1.2657847709068342
1648125710687926649,36181,26,3,2.23298335075,-0.914177834988,0.347808748484,0.0,12.1999998093,0.7468171741638796,-0.30574509531371236,0.11632399614849498,12.1999998093,0.0,1.0995234633970465,2.4378077619517193
1648125710687928732,36182,26,4,1.07709908485,-0.076181486249,-2.18562579155,0.0,12.1999998093,0.3602338076421404,-0.02547875794280936,-0.7309785256020067,12.1999998093,0.0,0.5100842670020489,2.4378076540449984
1648125710688064494,36183,26,5,2.38858413696,-0.984499275684,0.466681301594,0.0,12.1999998093,0.798857570889632,-0.32926397180066885,0.1560807028742475,12.1999998093,0.0,1.1767589388916144,2.6253313010773973
1648125710792772433,36184,27,0,0.0126097733155,0.0439508594573,0.0103506427258,0.0,12.0,0.004217315490133779,0.014699284099431437,0.0034617534199999998,12.0,0.0,0.01586317915559307,0.04688091546611253
1648125710792777566,36185,27,1,0.0328744277358,0.0146502861753,-0.0300409924239,0.0,12.0,0.010994791884882943,0.0048997612626421405,-0.010047154656822743,12.0,0.0,0.01630271626492543,0.04688091413131083
1648125710792779635,36186,27,2,1.24397826195,-0.079111546278,0.220159962773,0.0,12.0,0.4160462414548495,-0.026458711129765885,0.0736320945729097,12.0,0.0,0.5889728461075793,1.2657847218886975
1648125710792972136,36187,27,3,2.24226641655,-0.914177834988,0.281825453043,0.0,12.0,0.7499218784448161,-0.30574509531371236,0.09425600436220735,12.0,0.0,1.1037416866499128,2.4378074950155963
1648125710792984045,36188,27,4,0.884544909,-0.076181486249,-2.27039265633,0.0,12.0,0.29583441772575253,-0.02547875794280936,-0.7593286476020066,12.0,0.0,0.4191481510499341,2.437807648031755
1648125710792989429,36189,27,5,2.38983249664,-0.984499275684,0.460246890783,0.0,12.0,0.7992750824882943,-0.32926397180066885,0.15392872601438126,12.0,0.0,1.1773258164583373,2.6253314812218123
1648125710987792592,36190,29,0,0.0126097733155,0.0439508594573,0.0103506427258,0.0,12.6999998093,0.004217315490133779,0.014699284099431437,0.0034617534199999998,12.6999998093,0.0,0.01586317915559307,0.04688091546611253
1648125710987808587,36191,29,1,0.0328744277358,0.0146502861753,-0.0300409924239,0.0,12.6999998093,0.010994791884882943,0.0048997612626421405,-0.010047154656822743,12.6999998093,0.0,0.01630271626492543,0.04688091413131083
1648125710987922369,36192,29,2,1.24494111538,-0.079111546278,0.214648962021,0.0,12.6999998093,0.4163682660133779,-0.026458711129765885,0.07178895050869565,12.6999998093,0.0,0.5894277981912818,1.2657848136293892
1648125710987952004,36193,29,3,2.38068652153,-0.984499275684,0.505427718163,0.0,12.6999998093,0.7962162279364547,-0.32926397180066885,0.16903937062307692,12.6999998093,0.0,1.1731731868674227,2.6253312773637516
1648125711092847436,36194,30,0,0.0126097733155,0.0439508594573,0.0103506427258,0.0,12.5,0.004217315490133779,0.014699284099431437,0.0034617534199999998,12.5,0.0,0.01586317915559307,0.04688091546611253
1648125711092850848,36195,30,1,0.032850060612,0.0146502861753,-0.0300676375628,0.0,12.5,0.010986642345150502,0.0048997612626421405,-0.01005606607451505,12.5,0.0,0.01629172429399039,0.046880915049070465
1648125711092853901,36196,30,2,1.23731017113,-0.079111546278,0.254982471466,0.0,12.5,0.4138161107458194,-0.026458711129765885,0.08527841855050167,12.5,0.0,0.5858221662076649,1.2657847988861122
1648125711092857339,36197,30,3,2.38700628281,-0.984499275684,0.474686443806,0.0,12.5,0.7983298604715718,-0.32926397180066885,0.1587580079618729,12.5,0.0,1.17604247175307,2.625331414875067
1648125711287758416,36198,32,0,0.0125994505361,0.0439508594573,0.0103632062674,0.0,12.1000003815,0.004213863055551839,0.014699284099431437,0.003465955273377926,12.1000003815,0.0,0.01586134410249293,0.04688091557326548
1648125711287927473,36199,32,1,0.0328872464597,0.0146502861753,-0.0300269592553,0.0,12.1000003815,0.010999079083511706,0.0048997612626421405,-0.010042461289397992,12.1000003815,0.0,0.0163084990664861,0.0468809145264753
1648125711287931346,36200,32,2,1.30179405212,-0.082041606307,0.147284448147,0.0,12.1000003815,0.4353826261270903,-0.027438664316722407,0.04925901275819398,12.1000003815,0.0,0.6163350895139178,1.312665718287184
1648125711287934236,36201,32,3,1.30738162994,-0.0,0.117663174868,0.0,12.1000003815,0.4372513812508361,-0.0,0.03935223239732441,12.1000003815,0.0,0.6183668335313013,1.3126657415445064
1648125711287938077,36202,32,4,2.23494696617,-0.83799636364,0.495661318302,0.0,12.1000003815,0.7474739017290969,-0.28026634235451503,0.16577301615451503,12.1000003815,0.0,1.0936103923194116,2.437807619466152
1648125711287940390,36203,32,5,2.38395237923,-0.984499275684,0.489792436361,0.0,12.1000003815,0.7973084880367893,-0.32926397180066885,0.16381017938494982,12.1000003815,0.0,1.1746558701666518,2.6253312935656603
1648125711392794614,36204,33,0,0.0126097733155,0.0439508594573,0.0103506427258,0.0,12.3000001907,0.004217315490133779,0.014699284099431437,0.0034617534199999998,12.3000001907,0.0,0.01586317915559307,0.04688091546611253
1648125711392801826,36205,33,1,0.0329259596765,0.0146502861753,-0.0299845039845,0.0,12.3000001907,0.011012026647658862,0.0048997612626421405,-0.010028262202173913,12.3000001907,0.0,0.016325964663945168,0.046880914931698874
1648125711392804191,36206,33,2,1.25323188305,-0.079111546278,0.159255579114,0.0,12.3000001907,0.4191410980100334,-0.026458711129765885,0.053262735489632104,12.3000001907,0.0,0.5933452481285759,1.2657847877607316
1648125711392806678,36207,33,3,2.25853252411,-0.83799636364,0.373763233423,0.0,12.3000001907,0.7553620481973243,-0.28026634235451503,0.12500442589397992,12.3000001907,0.0,1.1043970619168144,2.4378076262485044
1648125711392809937,36208,33,4,2.38227272034,-0.984499275684,0.497898280621,0.0,12.3000001907,0.7967467292107023,-0.32926397180066885,0.16652116408729095,12.3000001907,0.0,1.1738932933371142,2.6253313763682886
1648125711587746464,36209,35,0,0.0126097733155,0.0439508594573,0.0103506427258,0.0,12.5,0.004217315490133779,0.014699284099431437,0.0034617534199999998,12.5,0.0,0.01586317915559307,0.04688091546611253
1648125711587753726,36210,35,1,0.0328744277358,0.0146502861753,-0.0300409924239,0.0,12.5,0.010994791884882943,0.0048997612626421405,-0.010047154656822743,12.5,0.0,0.01630271626492543,0.04688091413131083
1648125711587756141,36211,35,2,1.24007284641,-0.039555773139,0.250730365515,0.0,12.5,0.41474008241137117,-0.013229355564882942,0.0838563095367893,12.5,0.0,0.586680226158888,1.2657847525481214
1648125711587917960,36212,35,3,1.38892364502,-0.219754293561,0.0252516511828,0.0,12.5,0.46452295820066886,-0.07349641925117056,0.008445368288561872,12.5,0.0,0.6610331920817173,1.4064275619887414
1648125711587921793,36213,35,4,1.10279846191,0.263705164194,-0.832065880299,0.0,12.5,0.3688289170267558,0.0881957070882943,-0.2782829031100334,12.5,0.0,0.5290066377835567,1.4064275631440804
1648125711587925492,36214,35,5,2.26476836205,-0.83799636364,0.333904713392,0.0,12.5,0.7574476127257525,-0.28026634235451503,0.11167381718795986,12.5,0.0,1.107250195170297,2.4378076209664075
1648125711588053556,36215,35,6,2.38503646851,-0.984499275684,0.484486490488,0.0,12.5,0.7976710597023411,-0.32926397180066885,0.16203561554782608,12.5,0.0,1.175148076669176,2.6253313961118034
1648125711692803295,36216,36,0,0.0126979034394,0.0439508594573,0.0102423354983,0.0,12.3999996185,0.0042467904479598665,0.014699284099431437,0.0034255302669899666,12.3999996185,0.0,0.015878898301002,0.046880915469425286
1648125711692806826,36217,36,1,0.0327866487205,0.0146502861753,-0.0301367696375,0.0,12.3999996185,0.010965434354682274,0.0048997612626421405,-0.010079187169732442,12.3999996185,0.0,0.016263122750707536,0.04688091406450383
1648125711692808998,36218,36,2,1.23237705231,-0.039555773139,0.286169677973,0.0,12.3999996185,0.4121662382307692,-0.013229355564882942,0.09570892239899666,12.3999996185,0.0,0.5830411921324843,1.2657847142543943
1648125711692810822,36219,36,3,2.26637554169,-0.83799636364,0.322815060616,0.0,12.3999996185,0.757985131,-0.28026634235451503,0.10796490321605351,12.3999996185,0.0,1.1079856227817004,2.4378075323546393
1648125711692814012,36220,36,4,2.41623806953,-0.902457654476,0.489620923996,0.0,12.3999996185,0.8081063777692307,-0.30182530250033446,0.16375281738996655,12.3999996185,0.0,1.1820196059338575,2.6253313840319437
1648125711887757724,36221,38,0,0.0125994505361,0.0439508594573,0.0103632062674,0.0,13.3999996185,0.004213863055551839,0.014699284099431437,0.003465955273377926,13.3999996185,0.0,0.01586134410249293,0.04688091557326548
1648125711887763679,36222,38,1,0.0328744277358,0.0146502861753,-0.0300409924239,0.0,13.3999996185,0.010994791884882943,0.0048997612626421405,-0.010047154656822743,13.3999996185,0.0,0.01630271626492543,0.04688091413131083
1648125711887767267,36223,38,2,1.23211050034,-0.079111546278,0.279027163982,0.0,13.3999996185,0.4120770904147157,-0.026458711129765885,0.09332012173311036,13.3999996185,0.0,0.5833653403176812,1.2657847684509476
1648125711887853754,36224,38,3,1.40494203568,-0.0439508594573,-0.0473741814494,0.0,13.3999996185,0.46988027949163874,-0.014699284099431437,-0.015844207842608694,13.3999996185,0.0,0.6646736214589208,1.4064274296015769
1648125711887858356,36225,38,4,2.38720369339,-0.984499275684,0.473693430424,0.0,13.3999996185,0.7983958840769231,-0.32926397180066885,0.15842589646287622,13.3999996185,0.0,1.1761321093091095,2.625331553077446
1648125711992767203,36226,39,0,0.0126097733155,0.0439508594573,0.0103506427258,0.0,12.1999998093,0.004217315490133779,0.014699284099431437,0.0034617534199999998,12.1999998093,0.0,0.01586317915559307,0.04688091546611253
1648125711992772802,36227,39,1,0.0328744277358,0.0146502861753,-0.0300409924239,0.0,12.1999998093,0.010994791884882943,0.0048997612626421405,-0.010047154656822743,12.1999998093,0.0,0.01630271626492543,0.04688091413131083
1648125711992777498,36228,39,2,1.2307113409,-0.079111546278,0.285135000944,0.0,12.1999998093,0.4116091441137123,-0.026458711129765885,0.09536287656989967,12.1999998093,0.0,0.5827042461066283,1.2657847408377567
1648125711992784132,36229,39,3,1.39571630955,-0.0879017189145,-0.149290800095,0.0,12.1999998093,0.4667947523578595,-0.02939856819882943,-0.04993003347658863,12.1999998093,0.0,0.6608017535311268,1.40642755658619
1648125711992798262,36230,39,4,1.86418068409,-1.31852579117,0.5299731493,0.0,12.1999998093,0.6234718006989965,-0.44097852547491634,0.17724854491638792,12.1999998093,0.0,0.9858479763451006,2.3440459517453354
1648125711992799935,36231,39,5,2.38361167908,-0.984499275684,0.491448134184,0.0,12.1999998093,0.7971945414983277,-0.32926397180066885,0.16436392447625417,12.1999998093,0.0,1.1745011865108566,2.6253313560504763
1648125712187796870,36232,41,0,0.0126097733155,0.0439508594573,0.0103506427258,0.0,12.3999996185,0.004217315490133779,0.014699284099431437,0.0034617534199999998,12.3999996185,0.0,0.01586317915559307,0.04688091546611253
1648125712187801263,36233,41,1,0.0328744277358,0.0146502861753,-0.0300409924239,0.0,12.3999996185,0.010994791884882943,0.0048997612626421405,-0.010047154656822743,12.3999996185,0.0,0.01630271626492543,0.04688091413131083
1648125712187803388,36234,41,2,1.22443282604,-0.079111546278,0.310993254185,0.0,12.3999996185,0.4095093063678929,-0.026458711129765885,0.10401112180100335,12.3999996185,0.0,0.5797377056898007,1.2657848104584652
1648125712187945806,36235,41,3,2.39499902725,-0.984499275684,0.432557284832,0.0,12.3999996185,0.8010030191471571,-0.32926397180066885,0.14466798823812707,12.3999996185,0.0,1.179672173314126,2.625331401749501
1648125712292749283,36236,42,0,0.0125891612843,0.0439508594573,0.0103757027537,0.0,12.1000003815,0.004210421834214047,0.014699284099431437,0.0034701347002341135,12.1000003815,0.0,0.015859516294006278,0.04688091548285499
1648125712292759614,36237,42,1,0.0328744277358,0.0146502861753,-0.0300409924239,0.0,12.1000003815,0.010994791884882943,0.0048997612626421405,-0.010047154656822743,12.1000003815,0.0,0.01630271626492543,0.04688091413131083
1648125712292779847,36238,42,2,1.2345649004,-0.039555773139,0.276578724384,0.0,12.1000003815,0.41289796,-0.013229355564882942,0.09250124561337791,12.1000003815,0.0,0.5840757370350058,1.2657847144242842
1648125712292799817,36239,42,3,2.38984084129,-0.984499275684,0.46020296216,0.0,12.1000003815,0.799277873341137,-0.32926397180066885,0.15391403416722407,12.1000003815,0.0,1.1773296058247296,2.6253313765886497
1648125712487865701,36240,44,0,0.0126141794026,0.0439508594573,0.0103452727199,0.0,12.3000001907,0.004218789097859532,0.014699284099431437,0.003459957431404682,12.3000001907,0.0,0.015863962806948167,0.0468809154847196
1648125712487888993,36241,44,1,0.0328744277358,0.0146502861753,-0.0300409924239,0.0,12.3000001907,0.010994791884882943,0.0048997612626421405,-0.010047154656822743,12.3000001907,0.0,0.01630271626492543,0.04688091413131083
1648125712487893186,36242,44,2,1.23415863514,-0.079111546278,0.269823670387,0.0,12.3000001907,0.41276208533110365,-0.026458711129765885,0.09024203022976589,12.3000001907,0.0,0.5843330741695278,1.2657847315188457
1648125712487896068,36243,44,3,1.40227651596,0.0879017189145,0.0627088323236,0.0,12.3000001907,0.4689888013244147,0.02939856819882943,0.020972853619933108,12.3000001907,0.0,0.6639015494390443,1.4064275797396852
1648125712488014095,36244,44,4,1.15546739101,-0.307656019926,-0.74046009779,0.0,12.3000001907,0.3864439434816053,-0.10289498994180601,-0.24764551765551837,12.3000001907,0.0,0.5561161945694018,1.4064274864717838
1648125712592902747,36245,45,0,0.0125994505361,0.0439508594573,0.0103632062674,0.0,11.1999998093,0.004213863055551839,0.014699284099431437,0.003465955273377926,11.1999998093,0.0,0.01586134410249293,0.04688091557326548
1648125712592927328,36246,45,1,0.0328744277358,0.0146502861753,-0.0300409924239,0.0,11.1999998093,0.010994791884882943,0.0048997612626421405,-0.010047154656822743,11.1999998093,0.0,0.01630271626492543,0.04688091413131083
1648125712592934813,36247,45,2,1.23942613602,-0.039555773139,0.253907978535,0.0,11.1999998093,0.4145237913110368,-0.013229355564882942,0.08491905636622074,11.1999998093,0.0,0.5863744221693286,1.2657847634577617
1648125712592943610,36248,45,3,2.15054249763,-0.914177834988,0.694515943527,0.0,11.1999998093,0.7192449824849498,-0.30574509531371236,0.23227957977491637,11.1999998093,0.0,1.0621236994662828,2.4378077331711836
1648125712593047852,36249,45,4,1.15859401226,-0.076181486249,-2.14353966713,0.0,11.1999998093,0.3874896362073578,-0.02547875794280936,-0.7169028987056857,11.1999998093,0.0,0.5485850922532705,2.4378076233886103
1648125712593050939,36250,45,5,2.39390492439,-0.984499275684,0.43857178092,0.0,11.1999998093,0.800637098458194,-0.32926397180066885,0.14667952539130433,11.1999998093,0.0,1.179175258382342,2.6253313729623455
