%time,field.header.seq,field.header.frame_id,field.point_id,field.x,field.y,field.z,field.velocity,field.intensity,normalized_x,normalized_y,normalized_z,normalized_intensity,normalized_velocity,normalized_range,range
1648219447254071170,74943,0,0,0.00567744718865,0.0454158857465,0.0101481107995,0.0,19.8999996185,0.001898811768779264,0.015189259446989964,0.0033940169897993307,19.8999996185,0.0,0.015424803882529047,0.046880915493599094
1648219447254080020,74944,0,1,0.0334476083517,0.0146502861753,-0.0294014774263,0.0,19.8999996185,0.011186491087525082,0.0048997612626421405,-0.009833270042240803,19.8999996185,0.0,0.01656148622960647,0.04688091577940992
1648219447254083333,74945,0,2,1.87209057808,0.0586011447012,-0.0914070829749,0.0,19.8999996185,0.6261172501939799,0.019599045050568562,-0.030570930760836116,19.8999996185,0.0,0.8856803850982791,1.8752366468033255
1648219447254177762,74946,0,3,0.901379704475,1.25699460506,-0.0300922822207,-0.0809188112617,19.8999996185,0.30146478410535116,0.4203995334648829,-0.010064308435016722,19.8999996185,-0.010934974494824324,0.5987468579031235,1.54707024864375
1648219447359435073,74947,1,0,0.00550643447787,0.0454158857465,0.0102419108152,0.0,14.3000001907,0.001841616882230769,0.015189259446989964,0.003425388232508361,14.3000001907,0.0,0.01541092820143578,0.04688091547681986
1648219447359449440,74948,1,1,0.0334476083517,0.0146502861753,-0.0294014774263,0.0,14.3000001907,0.011186491087525082,0.0048997612626421405,-0.009833270042240803,14.3000001907,0.0,0.01656148622960647,0.04688091577940992
1648219447359455771,74949,1,2,1.87062966824,0.117202289402,0.0593333207071,0.0,14.3000001907,0.6256286515852842,0.03919809010100334,0.019843919968929764,14.3000001907,0.0,0.8856403952149022,1.8752365651530196
1648219447359585948,74950,1,3,0.810570001602,1.30534052849,-0.180246442556,-0.0809188112617,14.3000001907,0.27109364602073577,0.436568738625418,-0.06028309115585284,14.3000001907,-0.010934974494824324,0.5810127308163054,1.5470702643609022
1648219447554568138,74951,3,0,0.0121482191607,0.0439508594573,0.0108886612579,0.0,16.1000003815,0.004062949552073578,0.014699284099431437,0.003641692728394649,16.1000003815,0.0,0.01578239750992186,0.04688091530464212
1648219447554629402,74952,3,1,0.0334246940911,0.0146502861753,-0.0294275209308,0.0,16.1000003815,0.01117882745521739,0.0048997612626421405,-0.009841980244414716,16.1000003815,0.0,0.01655113370672634,0.04688091347482975
1648219447554653876,74953,3,2,1.86578094959,0.117202289402,0.147096991539,0.0,16.1000003815,0.6240070065518394,0.03919809010100334,0.049196318240468224,16.1000003815,0.0,0.8833492959861015,1.8752366393108515
1648219447554670538,74954,3,3,0.628066778183,1.35954654217,-0.087938554585,0.161837622523,16.1000003815,0.21005577865652175,0.4546978401906354,-0.02941088782107023,16.1000003815,0.021869948989594594,0.5431362500957048,1.5001892772467333
1648219447659577112,74955,4,0,0.0122741637751,0.0439508594573,0.0107464920729,0.0,20.0,0.004105071496688963,0.014699284099431437,0.003594144505986622,20.0,0.0,0.015804182263617888,0.04688091546979662
1648219447659610697,74956,4,1,0.0334614515305,0.0146502861753,-0.0293857175857,0.0,20.0,0.011191120913210702,0.0048997612626421405,-0.009827999192541806,20.0,0.0,0.016567740794057963,0.04688091319047343
1648219447659623590,74957,4,2,1.87416398525,0.0586011447012,-0.0242377184331,0.0,20.0,0.6268106974080268,0.019599045050568562,-0.008106260345518394,20.0,0.0,0.8866608276771721,1.8752365730124014
1648219447854520969,74958,6,0,0.00554270436987,0.0454158857465,0.0102223278955,0.0,19.3999996185,0.0018537472808929764,0.015189259446989964,0.003418838761036789,19.3999996185,0.0,0.015413836657717964,0.04688091549313041
1648219447854598703,74959,6,1,0.0334476083517,0.0146502861753,-0.0294014774263,0.0,19.3999996185,0.011186491087525082,0.0048997612626421405,-0.009833270042240803,19.3999996185,0.0,0.01656148622960647,0.04688091577940992
1648219447854626812,74960,6,2,1.87104690075,0.117202289402,-0.0442678444088,0.0,19.3999996185,0.6257681942307691,0.03919809010100334,-0.014805299133377926,19.3999996185,0.0,0.885837544976076,1.875236657997025
1648219447854687837,74961,6,3,0.568421721458,1.23208904266,-0.0849716588855,-0.161837622523,19.3999996185,0.19010759914983275,0.4120699139331103,-0.028418615011872907,19.3999996185,-0.021869948989594594,0.49201972773240293,1.3595465587032556
1648219447854710692,74962,6,4,0.81205290556,1.30534052849,0.173443362117,-0.0809188112617,19.3999996185,0.2715896005217391,0.436568738625418,0.05800781341705685,19.3999996185,-0.010934974494824324,0.5814757826153245,1.5470702688014657
1648219447959705889,74963,7,0,0.0122607154772,0.0439508594573,0.0107618328184,0.0,12.5,0.00410057373819398,0.014699284099431437,0.003599275190100334,12.5,0.0,0.015801846822461295,0.04688091548444185
1648219447959782926,74964,7,1,0.0334246940911,0.0146502861753,-0.0294275209308,0.0,12.5,0.01117882745521739,0.0048997612626421405,-0.009841980244414716,12.5,0.0,0.01655113370672634,0.04688091347482975
1648219447959801007,74965,7,2,1.82278108597,0.114272229373,0.0854122564197,0.0,12.5,0.6096257812608695,0.03821813691404682,0.028565972046722406,12.5,0.0,0.8629877243304402,1.8283556227721545
1648219447959810868,74966,7,3,0.13702532649,-0.817485928535,0.158223092556,0.0809188112617,12.5,0.045827868391304344,-0.2734066650618729,0.05291742225953177,12.5,0.010934974494824324,0.2809832584743023,0.8438564631917012
1648219447959828690,74967,7,4,0.815403699875,1.14272236824,0.0856778845191,0.161837622523,12.5,0.2727102675167224,0.3821813940602007,0.028654810875953174,12.5,0.021869948989594594,0.5429589284502861,1.4064274970795834
1648219447959844692,74968,7,5,0.804528534412,1.26578474045,0.0330264531076,-0.161837622523,12.5,0.26907308843210703,0.42333937807692307,0.011045636490836121,12.5,-0.021869948989594594,0.5692248087244098,1.5001892942039226
1648219448154515464,74969,9,0,0.0122741637751,0.0439508594573,0.0107464920729,0.0,26.5,0.004105071496688963,0.014699284099431437,0.003594144505986622,26.5,0.0,0.015804182263617888,0.04688091546979662
1648219448154595951,74970,9,1,0.0334476083517,0.0146502861753,-0.0294014774263,0.0,26.5,0.011186491087525082,0.0048997612626421405,-0.009833270042240803,26.5,0.0,0.01656148622960647,0.04688091577940992
1648219448154629857,74971,9,2,1.86429560184,0.117202289402,0.164856940508,0.0,26.5,0.623510234729097,0.03919809010100334,0.05513610050434783,26.5,0.0,0.8826474471109252,1.8752365926769605
1648219448154660429,74972,9,3,0.487533450127,1.23208904266,0.304359316826,0.161837622523,26.5,0.16305466559431436,0.4120699139331103,0.10179241365418058,26.5,0.021869948989594594,0.47220256449217674,1.3595465669753135
1648219448154671698,74973,9,4,0.262542963028,-0.637287437916,0.139447033405,0.566431701183,26.5,0.08780701104615385,-0.21313961134314377,0.04663780381438127,26.5,0.07654482448418919,0.24667516352731006,0.7032137378397243
1648219448259535449,74974,10,0,0.0122752599418,0.0439508594573,0.0107452403754,0.0,21.5,0.004105438107625418,0.014699284099431437,0.003593725878060201,21.5,0.0,0.015804372722347564,0.046880915566989756
1648219448259560444,74975,10,1,0.0334246940911,0.0146502861753,-0.0294275209308,0.0,21.5,0.01117882745521739,0.0048997612626421405,-0.009841980244414716,21.5,0.0,0.01655113370672634,0.04688091347482975
1648219448259581901,74976,10,2,1.83759105206,0.175803437829,-0.329946517944,0.0,21.5,0.6145789471772575,0.05879713639765886,-0.11035000600133778,21.5,0.0,0.8711324054789704,1.875236632552501
1648219448259591575,74977,10,3,0.716197609901,1.22622895241,0.309077113867,0.161837622523,21.5,0.23953097321103678,0.4101100175284281,0.10337027219632106,21.5,0.021869948989594594,0.5319214234565294,1.453308337027207
1648219448259614312,74978,10,4,0.874468803406,1.21890377998,0.0120711065829,-0.161837622523,21.5,0.29246448274448156,0.407660127083612,0.004037159392274247,21.5,-0.021869948989594594,0.5807389487091605,1.5001892629245117
1648219448454522048,74979,12,0,0.00550643447787,0.0454158857465,0.0102419108152,0.0,19.6000003815,0.001841616882230769,0.015189259446989964,0.003425388232508361,19.6000003815,0.0,0.01541092820143578,0.04688091547681986
1648219448454703385,74980,12,1,0.0334246940911,0.0146502861753,-0.0294275209308,0.0,19.6000003815,0.01117882745521739,0.0048997612626421405,-0.009841980244414716,19.6000003815,0.0,0.01655113370672634,0.04688091347482975
1648219448454730222,74981,12,2,1.63515770435,0.210964113474,0.360733181238,0.161837622523,19.6000003815,0.5468754864046823,0.07055655969030099,0.1206465489090301,19.6000003815,0.021869948989594594,0.7766104708127793,1.6877129505088004
1648219448454936587,74982,12,3,0.306042701006,-0.879017174244,0.113114088774,-0.242756426334,19.6000003815,0.10235541839665552,-0.29398567700468226,0.03783079892107023,19.6000003815,-0.03280492247756756,0.32769016102747145,0.9376183256176934
1648219448454969129,74983,12,4,0.52067553997,-0.943478405476,0.0373129919171,-0.161837622523,19.6000003815,0.1741389765785953,-0.3155446172160535,0.012479261510735784,19.6000003815,-0.021869948989594594,0.4002713726732239,1.0782609975735895
1648219448455000718,74984,12,5,0.78001922369,1.22622895241,0.00613643880934,-0.0809188112617,19.6000003815,0.2608759945451505,0.4101100175284281,0.0020523206720200666,19.6000003815,-0.010934974494824324,0.5516364704558704,1.453308325489033
1648219448559455407,74985,13,0,0.0121619980782,0.0439508594573,0.0108732702211,0.0,14.3000001907,0.004067557885685619,0.014699284099431437,0.0036365452244481603,14.3000001907,0.0,0.015784771374416685,0.04688091562235679
1648219448559462986,74986,13,1,0.0334246940911,0.0146502861753,-0.0294275209308,0.0,14.3000001907,0.01117882745521739,0.0048997612626421405,-0.009841980244414716,14.3000001907,0.0,0.01655113370672634,0.04688091347482975
1648219448559488039,74987,13,2,1.86681365967,0.175803437829,0.0247384309769,0.0,14.3000001907,0.6243523945384615,0.05879713639765886,0.008273722734749163,14.3000001907,0.0,0.8849231200394677,1.8752365393864832
1648219448559713148,74988,13,3,1.6220023632,0.158223092556,0.438689798117,0.161837622523,14.3000001907,0.5424757067558528,0.05291742225953177,0.1467189960257525,14.3000001907,0.021869948989594594,0.7689993747846077,1.6877129353703204
1648219448754508402,74989,15,0,0.00571230938658,0.0454158857465,0.0101285278797,0.0,26.2999992371,0.0019104713667491638,0.015189259446989964,0.003387467518294314,26.2999992371,0.0,0.015427683048154402,0.04688091545263394
1648219448754550648,74990,15,1,0.0334385335445,0.0146502861753,-0.0294117927551,0.0,26.2999992371,0.011183456034949833,0.0048997612626421405,-0.009836719984983276,26.2999992371,0.0,0.01655738621287189,0.046880912573176205
1648219448754570862,74991,15,2,1.66632258892,0.22268435359,0.589434802532,0.323675245047,26.2999992371,0.5572985247224079,0.07447637243812709,0.19713538546220732,26.2999992371,0.04373989797932432,0.7916501887621118,1.7814748603656425
1648219448754614418,74992,15,3,1.86864244938,0.117202289402,-0.104648388922,-0.0809188112617,26.2999992371,0.6249640298929765,0.03919809010100334,-0.03499946117792642,26.2999992371,-0.010934974494824324,0.884701400240615,1.8752365892254572
1648219448859528440,74993,16,0,0.00567744718865,0.0454158857465,0.0101481107995,0.0,18.1000003815,0.001898811768779264,0.015189259446989964,0.0033940169897993307,18.1000003815,0.0,0.015424803882529047,0.046880915493599094
1648219448859571615,74994,16,1,0.0334246940911,0.0146502861753,-0.0294275209308,0.0,18.1000003815,0.01117882745521739,0.0048997612626421405,-0.009841980244414716,18.1000003815,0.0,0.01655113370672634,0.04688091347482975
1648219448859593324,74995,16,2,1.80146372318,0.114272229373,0.290782868862,0.0,18.1000003815,0.6024962284882942,0.03821813691404682,0.09725179560602006,18.1000003815,0.0,0.8529150231262306,1.8283556451530534
1648219448859619717,74996,16,3,0.779365181923,1.22622895241,-0.0325207002461,0.0809188112617,18.1000003815,0.26065725147926416,0.4101100175284281,-0.010876488376622074,18.1000003815,0.010934974494824324,0.5514296255866349,1.4533083384013503
1648219448859632558,74997,16,4,1.63967728615,0.162618175149,0.542060613632,0.242756426334,18.1000003815,0.5483870522240802,0.05438734954816053,0.18129117512775916,18.1000003815,0.03280492247756756,0.7774411243849312,1.7345938955433113
1648219448859641833,74998,16,5,0.152543127537,-0.483459472656,-0.094518750906,-0.485512852669,18.1000003815,0.051017768407023406,-0.16169213132307692,-0.03161162237658863,18.1000003815,-0.06560984495527027,0.1770592294071803,0.5156900830270227
1648219448859658264,74999,16,6,0.218111157417,-0.161153152585,0.438626766205,-0.485512852669,18.1000003815,0.072946875390301,-0.05389737544648829,0.1466979151187291,18.1000003815,-0.06560984495527027,0.11639338614558783,0.5156900770902262
1648219448859671351,75000,16,7,0.185550123453,-0.77207005024,0.0681837871671,-0.0809188112617,18.1000003815,0.062056897475919734,-0.25821740810702337,0.022803942196354513,18.1000003815,-0.010934974494824324,0.2727239389899293,0.7969755577327752
1648219449054547725,75001,18,0,0.00554270436987,0.0454158857465,0.0102223278955,0.0,11.5,0.0018537472808929764,0.015189259446989964,0.003418838761036789,11.5,0.0,0.015413836657717964,0.04688091549313041
1648219449054615936,75002,18,1,0.0334476083517,0.0146502861753,-0.0294014774263,0.0,11.5,0.011186491087525082,0.0048997612626421405,-0.009833270042240803,11.5,0.0,0.01656148622960647,0.04688091577940992
1648219449054636697,75003,18,2,1.79951703548,0.171408340335,0.274303406477,0.0,11.5,0.601845162367893,0.05732720412541805,0.09174026972474916,11.5,0.0,0.8530660040489881,1.828355747365379
1648219449159742166,75004,19,0,0.0122741637751,0.0439508594573,0.0107464920729,0.0,17.3999996185,0.004105071496688963,0.014699284099431437,0.003594144505986622,17.3999996185,0.0,0.015804182263617888,0.04688091546979662
1648219449159772317,75005,19,1,0.0334476083517,0.0146502861753,-0.0294014774263,0.0,17.3999996185,0.011186491087525082,0.0048997612626421405,-0.009833270042240803,17.3999996185,0.0,0.01656148622960647,0.04688091577940992
1648219449159792327,75006,19,2,1.76239407063,0.171408340335,0.455489754677,0.0,17.3999996185,0.5894294550602006,0.05732720412541805,0.15233771059431436,17.3999996185,0.0,0.8355480676286479,1.8283557082646404
1648219449159809191,75007,19,3,0.147573158145,-0.908317744732,0.179747447371,0.404594063759,17.3999996185,0.04935557128595317,-0.3037851989070234,0.06011620313411371,17.3999996185,0.05467487348094594,0.3117008051143041,0.9376183163933534
1648219449354608248,75008,21,0,0.00571230938658,0.0454158857465,0.0101285278797,0.0,20.7999992371,0.0019104713667491638,0.015189259446989964,0.003387467518294314,20.7999992371,0.0,0.015427683048154402,0.04688091545263394
1648219449354669800,75009,21,1,0.0334476083517,0.0146502861753,-0.0294014774263,0.0,20.7999992371,0.011186491087525082,0.0048997612626421405,-0.009833270042240803,20.7999992371,0.0,0.01656148622960647,0.04688091577940992
1648219449354691115,75010,21,2,1.79226839542,0.171408340335,0.318241506815,0.0,20.7999992371,0.5994208680334447,0.05732720412541805,0.10643528656020067,20.7999992371,0.0,0.8496453156469316,1.8283556757419117
