%time,field.header.seq,field.header.frame_id,field.point_id,field.x,field.y,field.z,field.velocity,field.intensity,normalized_x,normalized_y,normalized_z,normalized_intensity,normalized_velocity,normalized_range,range
1648127495496449421,113130,0,0,0.0125831468031,0.0439508594573,0.0103829959407,0.0,13.1999998093,0.0042084103020401335,0.014699284099431437,0.003472573893210702,13.1999998093,0.0,0.015858448460566152,0.04688091546896556
1648127495496459324,113131,0,1,0.032885145396,0.0146502861753,-0.0300292614847,0.0,13.1999998093,0.010998376386622074,0.0048997612626421405,-0.010043231265785952,13.1999998093,0.0,0.016307551217595504,0.04688091528597467
1648127495496469925,113132,0,2,0.157296538353,-0.399952799082,-0.432119399309,0.0,13.1999998093,0.052607537910702336,-0.13376347795384613,-0.1445215382304348,13.1999998093,0.0,0.15306134105109967,0.6094518994395984
1648127495496483024,113133,0,3,1.35656630993,-0.0,-0.0899709314108,0.0,13.1999998093,0.453701107,-0.0,-0.03009061251197324,13.1999998093,0.0,0.6416302587830868,1.3595465868207768
1648127495496494772,113134,0,4,1.4220020771,-0.0,0.477993577719,0.0,13.1999998093,0.47558597896321064,-0.0,0.15986407281571904,13.1999998093,0.0,0.6725801415242579,1.5001892439346856
1648127495496498697,113135,0,5,1.82926106453,-1.39177727699,0.459685832262,0.0,13.1999998093,0.6117929981705685,-0.4654773501638796,0.15374108102408027,13.1999998093,0.0,0.9824716325353386,2.34404588166135
1648127495496505009,113136,0,6,2.41848015785,-0.902457654476,0.478423207998,0.0,13.1999998093,0.808856240083612,-0.30182530250033446,0.16000776187224078,13.1999998093,0.0,1.1830449473599107,2.625331380604662
1648127495601452413,113137,1,0,0.0126723647118,0.0439508594573,0.0102739166468,0.0,13.5,0.0042382490674916385,0.014699284099431437,0.003436092524013378,13.5,0.0,0.015874333477408915,0.04688091549542953
1648127495601462040,113138,1,1,0.0328101180494,0.0146502861753,-0.0301112178713,0.0,13.5,0.010973283628561871,0.0048997612626421405,-0.010070641428528428,13.5,0.0,0.016273707863195052,0.046880914806844864
1648127495601555486,113139,1,2,0.145216062665,-0.399952799082,-0.43632748723,0.0,13.5,0.048567245038461535,-0.13376347795384613,-0.14592892549498326,13.5,0.0,0.1503669598534233,0.6094519033212528
1648127495601559116,113140,1,3,1.40489971638,-0.0,0.0655364319682,0.0,13.5,0.46986612587959864,-0.0,0.021918539119799327,13.5,0.0,0.6644910477186323,1.4064274730677466
1648127495601565614,113141,1,4,1.82871675491,-1.39177727699,0.461846530437,0.0,13.5,0.611610954819398,-0.4654773501638796,0.1544637225541806,13.5,0.0,0.9822449203868546,2.344045898891691
1648127495601584826,113142,1,5,2.42687678337,-0.902457654476,0.43382486701,0.0,13.5,0.8116644760434782,-0.30182530250033446,0.14509192876588628,13.5,0.0,1.1868854016168902,2.625331360994053
1648127495601626249,113143,1,6,1.45174717903,0.281285494566,0.252737611532,0.242756426334,13.5,0.48553417358862877,0.09407541624280935,0.08452762927491637,13.5,0.03280492247756756,0.6930635262268844,1.5001892219175894
1648127495601633230,113144,1,7,2.30845832825,-0.761814832687,0.183206304908,-0.242756426334,13.5,0.7720596415551839,-0.2547875694605351,0.06127301167491638,13.5,-0.03280492247756756,1.1211908337960337,2.437807671397961
