%time,field.header.seq,field.header.frame_id,field.point_id,field.x,field.y,field.z,field.velocity,field.intensity,normalized_x,normalized_y,normalized_z,normalized_intensity,normalized_velocity,normalized_range,range
1648294927260735606,29108,0,0,0.0127122588456,0.0439508594573,0.0102245127782,0.0,14.5,0.004251591587157191,0.014699284099431437,0.0034195694910367893,14.5,0.0,0.015881467661515717,0.04688091545122009
1648294927260743058,29109,0,1,0.033514522016,0.0146502861753,-0.0293251797557,0.0,14.5,0.011208870239464881,0.0048997612626421405,-0.009807752426655518,14.5,0.0,0.016591720963215706,0.0468809155060271
1648294927260751097,29110,0,2,2.23874950409,-1.2306240797,0.604921758175,0.0,14.5,0.7487456535418059,-0.4115799597658863,0.20231496928929765,14.5,0.0,1.1360625733983056,2.625331464999082
1648294927365663776,29111,1,0,0.0126214576885,0.0439508594573,0.0103363925591,0.0,14.8000001907,0.0042212233071906346,0.014699284099431437,0.003456987477959866,14.8000001907,0.0,0.015865257812406854,0.046880915651827344
1648294927365669463,29112,1,1,0.0335994325578,0.0146502861753,-0.0292278509587,0.0,14.8000001907,0.011237268413979932,0.0048997612626421405,-0.009775200989531772,14.8000001907,0.0,0.01663009510635915,0.0468809132258355
1648294927365678658,29113,1,2,1.95233035088,-0.12306240201,-0.22409054637,0.0,14.8000001907,0.6529532946086957,-0.04115799398327759,-0.07494667102675585,14.8000001907,0.0,0.9243321861481553,1.9689984069897315
1648294927365691947,29114,1,3,2.23726296425,-1.2306240797,0.610396504402,0.0,14.8000001907,0.7482484830267558,-0.4115799597658863,0.20414598809431436,14.8000001907,0.0,1.1354072608472132,2.625331424664008
1648294927560843857,29115,3,0,0.0126214576885,0.0439508594573,0.0103363925591,0.0,14.6999998093,0.0042212233071906346,0.014699284099431437,0.003456987477959866,14.6999998093,0.0,0.015865257812406854,0.046880915651827344
1648294927560846052,29116,3,1,0.033514522016,0.0146502861753,-0.0293251797557,0.0,14.6999998093,0.011208870239464881,0.0048997612626421405,-0.009807752426655518,14.6999998093,0.0,0.016591720963215706,0.0468809155060271
1648294927560900201,29117,3,2,1.96723890305,-0.061531201005,0.0560328960419,0.0,14.6999998093,0.6579394324581939,-0.020578996991638794,0.018740099010668896,14.6999998093,0.0,0.9306944120837958,1.968998394059611
1648294927560904924,29118,3,3,2.19138264656,-1.31266570091,0.605901122093,0.0,14.6999998093,0.7329038951705685,-0.4390186290668896,0.2026425157501672,14.6999998093,0.0,1.125625868475025,2.625331467785241
1648294927560922918,29119,3,4,1.75363743305,-0.278355449438,0.144660308957,0.242756426334,14.6999998093,0.5865008137290969,-0.09309546803946488,0.04838137423311036,14.6999998093,0.03280492247756756,0.834645538644563,1.7814748406344556
1648294927665801974,29120,4,0,0.0126920221373,0.0439508594573,0.0102496230975,0.0,24.2999992371,0.00424482345729097,0.014699284099431437,0.0034279675911371237,24.2999992371,0.0,0.015877846371688233,0.04688091559056686
1648294927665818381,29121,4,1,0.0335994325578,0.0146502861753,-0.0292278509587,0.0,24.2999992371,0.011237268413979932,0.0048997612626421405,-0.009775200989531772,24.2999992371,0.0,0.01663009510635915,0.0468809132258355
1648294927665852812,29122,4,2,1.47638881207,-1.68478298187,0.690169215202,0.0,24.2999992371,0.4937755224314381,-0.5634725691872909,0.23082582448227423,24.2999992371,0.0,0.897290292676459,2.3440458967385385
1648294927665856790,29123,4,3,2.23755097389,-1.2306240797,0.609339356422,0.0,24.2999992371,0.7483448073210701,-0.4115799597658863,0.20379242689698995,24.2999992371,0.0,1.1355342199025564,2.6253313005368173
1648294927665859370,29124,4,4,1.79040288925,-0.285680562258,0.236069500446,0.242756426334,24.2999992371,0.5987969529264213,-0.09554533854782607,0.0789530101826087,24.2999992371,0.03280492247756756,0.8521997966358313,1.8283557363181866
1648294927665864082,29125,4,5,1.96541047096,0.061531201005,0.10163744539,-0.0809188112617,24.2999992371,0.65732791670903,0.020578996991638794,0.03399245665217391,24.2999992371,-0.010934974494824324,0.9298298098508397,1.9689983693141373
1648294927860777739,29126,6,0,0.0126920221373,0.0439508594573,0.0102496230975,0.0,12.5,0.00424482345729097,0.014699284099431437,0.0034279675911371237,12.5,0.0,0.015877846371688233,0.04688091559056686
1648294927860782038,29127,6,1,0.0335651524365,0.0146502861753,-0.0292672142386,0.0,12.5,0.011225803490468226,0.0048997612626421405,-0.009788365966086955,12.5,0.0,0.01661460166372055,0.046880914799007266
1648294927860891107,29128,6,2,2.1914896965,-1.31266570091,0.605513393879,0.0,12.5,0.7329396978260869,-0.4390186290668896,0.20251284076220735,12.5,0.0,1.1256724914319274,2.625331370013711
1648294927860894272,29129,6,3,1.81860554218,-0.351606875658,0.292504191399,0.242756426334,12.5,0.6082292783210702,-0.11759427279531771,0.09782748876220736,12.5,0.03280492247756756,0.8681671054631127,1.8752365757535168
1648294927860914535,29130,6,4,1.86488962173,0.117202289402,0.157995164394,-0.0809188112617,12.5,0.6237089035886287,0.03919809010100334,0.05284119210501672,12.5,-0.010934974494824324,0.8829281302003154,1.8752365583704953
1648294927860917787,29131,6,5,0.461486548185,1.81663548946,-0.0581214167178,-0.0809188112617,12.5,0.15434332715217391,0.607570397812709,-0.01943860090896321,12.5,-0.010934974494824324,0.6455892762206475,1.8752366343484665
1648294927965743655,29132,7,0,0.0127122588456,0.0439508594573,0.0102245127782,0.0,11.8000001907,0.004251591587157191,0.014699284099431437,0.0034195694910367893,11.8000001907,0.0,0.015881467661515717,0.04688091545122009
1648294927965747649,29133,7,1,0.0335994325578,0.0146502861753,-0.0292278509587,0.0,11.8000001907,0.011237268413979932,0.0048997612626421405,-0.009775200989531772,11.8000001907,0.0,0.01663009510635915,0.0468809132258355
1648294927965750667,29134,7,2,1.86197590828,-0.0,0.222615867853,0.0,11.8000001907,0.6227344174849498,-0.0,0.07445346750936455,11.8000001907,0.0,0.8806794589637251,1.8752365471148102
1648294927965779829,29135,7,3,2.23772406578,-1.2306240797,0.608703494072,0.0,11.8000001907,0.7484026975852843,-0.4115799597658863,0.2035797639036789,11.8000001907,0.0,1.1356105224885642,2.625331324576749
1648294928160846756,29136,9,0,0.0127122588456,0.0439508594573,0.0102245127782,0.0,14.3000001907,0.004251591587157191,0.014699284099431437,0.0034195694910367893,14.3000001907,0.0,0.015881467661515717,0.04688091545122009
1648294928160872834,29137,9,1,0.033514522016,0.0146502861753,-0.0293251797557,0.0,14.3000001907,0.011208870239464881,0.0048997612626421405,-0.009807752426655518,14.3000001907,0.0,0.016591720963215706,0.0468809155060271
1648294928160878122,29138,9,2,1.79560673237,0.171408340335,0.298831433058,0.0,14.3000001907,0.6005373686856187,0.05732720412541805,0.09994362309632106,14.3000001907,0.0,0.8512206944785417,1.8283557044110335
1648294928160880905,29139,9,3,1.91608834267,-0.120132349432,0.0933255627751,0.0,14.3000001907,0.6408322216287625,-0.040178043288294316,0.031212562801036788,14.3000001907,0.0,0.9071637932136549,1.9221175767791128
1648294928160885549,29140,9,4,2.23486828804,-1.2306240797,0.619106173515,0.0,14.3000001907,0.7474475879732441,-0.4115799597658863,0.20705892090802674,14.3000001907,0.0,1.1343517341701952,2.625331282811504
1648294928265776217,29141,10,0,0.0127122588456,0.0439508594573,0.0102245127782,0.0,14.1999998093,0.004251591587157191,0.014699284099431437,0.0034195694910367893,14.1999998093,0.0,0.015881467661515717,0.04688091545122009
1648294928265779160,29142,10,1,0.0335858874023,0.0146502861753,-0.0292434170842,0.0,14.1999998093,0.011232738261638795,0.0048997612626421405,-0.009780407051571904,14.1999998093,0.0,0.01662397299504113,0.046880914670883296
1648294928265781597,29143,10,2,2.19403743744,-1.31266570091,0.596216320992,0.0,14.1999998093,0.73379178509699,-0.4390186290668896,0.19940345183678926,14.1999998093,0.0,1.1267821991935378,2.6253314877651275
1648294928265783353,29144,10,3,1.81044566631,0.228544458747,-0.113747909665,0.0809188112617,14.1999998093,0.6055002228461538,0.07643627382842809,-0.03804277915217391,14.1999998093,0.010934974494824324,0.8597113141574084,1.828355727761361
1648294928265791253,29145,10,4,1.94153809547,-0.061531201005,0.321866929531,0.0809188112617,14.1999998093,0.6493438446387959,-0.020578996991638794,0.10764780251872909,14.1999998093,0.010934974494824324,0.918541426533266,1.968998371046585
1648294928460812714,29146,12,0,0.0127002792433,0.0439508594573,0.010239389725,0.0,12.0,0.004247585031204013,0.014699284099431437,0.003424545058528428,12.0,0.0,0.015879323355559413,0.04688091553962624
1648294928460817353,29147,12,1,0.0335994325578,0.0146502861753,-0.0292278509587,0.0,12.0,0.011237268413979932,0.0048997612626421405,-0.009775200989531772,12.0,0.0,0.01663009510635915,0.0468809132258355
1648294928460824269,29148,12,2,1.87087070942,0.0586011447012,0.113670051098,0.0,12.0,0.6257092673645485,0.019599045050568562,0.03801673949765886,12.0,0.0,0.8851035516246979,1.8752365680208478
1648294928460844719,29149,12,3,2.2378385067,-1.2306240797,0.608282327652,0.0,12.0,0.7484409721404682,-0.4115799597658863,0.20343890556923075,12.0,0.0,1.1356609709055019,2.625331254859183
1648294928565988163,29150,13,0,0.0126214576885,0.0439508594573,0.0103363925591,0.0,14.6999998093,0.0042212233071906346,0.014699284099431437,0.003456987477959866,14.6999998093,0.0,0.015865257812406854,0.046880915651827344
1648294928566001565,29151,13,1,0.0335994325578,0.0146502861753,-0.0292278509587,0.0,14.6999998093,0.011237268413979932,0.0048997612626421405,-0.009775200989531772,14.6999998093,0.0,0.01663009510635915,0.0468809132258355
1648294928566004288,29152,13,2,1.90981209278,-0.120132349432,0.180892065167,0.0,14.6999998093,0.6387331413979933,-0.040178043288294316,0.060499018450501665,14.6999998093,0.0,0.9041981679934846,1.9221175693357464
1648294928566006025,29153,13,3,2.23578357697,-1.2306240797,0.615792810917,0.0,14.6999998093,0.7477537046722407,-0.4115799597658863,0.20595077288193978,14.6999998093,0.0,1.1347551581654123,2.6253313342439846
1648294928760820850,29154,15,0,0.0127344764769,0.0439508594573,0.010196827352,0.0,14.6999998093,0.004259022233076923,0.014699284099431437,0.0034103101511705684,14.6999998093,0.0,0.015885449121742983,0.046880915373129724
1648294928760824057,29155,15,1,0.0335651524365,0.0146502861753,-0.0292672142386,0.0,14.6999998093,0.011225803490468226,0.0048997612626421405,-0.009788365966086955,14.6999998093,0.0,0.01661460166372055,0.046880914799007266
1648294928760935558,29156,15,2,1.8558139801,-0.0,0.26919683814,0.0,14.6999998093,0.6206735719397993,-0.0,0.09003238733779263,14.6999998093,0.0,0.8777649832438171,1.8752366427731666
1648294928760937635,29157,15,3,2.2355287075,-1.2306240797,0.616718173027,0.0,14.6999998093,0.7476684640468226,-0.4115799597658863,0.2062602585374582,14.6999998093,0.0,1.1346428193670282,2.6253315090738263
1648294928865805584,29158,16,0,0.0127122588456,0.0439508594573,0.0102245127782,0.0,14.5,0.004251591587157191,0.014699284099431437,0.0034195694910367893,14.5,0.0,0.015881467661515717,0.04688091545122009
1648294928865808328,29159,16,1,0.033649418503,0.0146502861753,-0.0291702933609,0.0,14.5,0.011253986121404682,0.0048997612626421405,-0.009755950956822742,14.5,0.0,0.016652689502672742,0.04688091579064121
1648294928865810153,29160,16,2,1.96065962315,-0.061531201005,0.170243039727,0.0,14.5,0.6557390043979933,-0.020578996991638794,0.056937471480602006,14.5,0.0,0.9275833002458187,1.9689984609245652
1648294928865811681,29161,16,3,2.23803162575,-1.2306240797,0.607572376728,0.0,14.5,0.748505560451505,-0.4115799597658863,0.20320146378862874,14.5,0.0,1.1357461033763363,2.625331479329338
