%time,field.header.seq,field.header.frame_id,field.point_id,field.x,field.y,field.z,field.velocity,field.intensity,normalized_x,normalized_y,normalized_z,normalized_intensity,normalized_velocity,normalized_range,range
1648218496036952734,37504,0,0,0.0052226819098,0.0454158857465,0.0103894732893,0.0,19.0,0.001746716357792642,0.015189259446989964,0.003474740230535117,19.0,0.0,0.015388815374067449,0.04688091551686221
1648218496036995129,37505,0,1,0.0335027687252,0.0146502861753,-0.0293386057019,0.0,19.0,0.011204939372976588,0.0048997612626421405,-0.00981224270966555,19.0,0.0,0.01658640989289275,0.04688091489939147
1648218496037004408,37506,0,2,1.72824025154,0.054206058383,-0.138069778681,0.0,19.0,0.5780067730903009,0.01812911651605351,-0.046177183505351174,19.0,0.0,0.8176260296383536,1.7345938797290514
1648218496037066915,37507,0,3,1.71930849552,-0.114272229373,0.611395776272,0.0,19.0,0.5750195637190635,-0.03821813691404682,0.20448019273311036,19.0,0.0,0.8140980428108797,1.8283557204265157
1648218496037074737,37508,0,4,1.06406521797,1.4855389595,0.0618365742266,0.0,19.0,0.3558746548394649,0.4968357724080267,0.020681128503879598,19.0,0.0,0.7072052917353611,1.8283556957545126
1648218496142105459,37509,1,0,0.0052226819098,0.0454158857465,0.0103894732893,0.0,12.8999996185,0.001746716357792642,0.015189259446989964,0.003474740230535117,12.8999996185,0.0,0.015388815374067449,0.04688091551686221
1648218496142108307,37510,1,1,0.0335027687252,0.0146502861753,-0.0293386057019,0.0,12.8999996185,0.011204939372976588,0.0048997612626421405,-0.00981224270966555,12.8999996185,0.0,0.01658640989289275,0.04688091489939147
1648218496142110095,37511,1,2,1.75446081161,-0.0,0.309063285589,0.0,12.8999996185,0.586776191173913,-0.0,0.10336564735418059,12.8999996185,0.0,0.8298268476357757,1.7814749097234817
1648218496337106496,37512,3,0,0.00529174832627,0.0454158857465,0.010354465805,0.0,20.1000003815,0.0017698154937357859,0.015189259446989964,0.0034630320418060196,20.1000003815,0.0,0.015394092903179077,0.04688091552641263
1648218496337121512,37513,3,1,0.0334648787975,0.0146502861753,-0.0293818153441,0.0,20.1000003815,0.011192267156354515,0.0048997612626421405,-0.009826694095016722,20.1000003815,0.0,0.016569289321793874,0.04688091371618456
1648218496337127844,37514,3,2,1.72644674778,0.108412116766,-0.128236562014,0.0,20.1000003815,0.5774069390568561,0.03625823303210702,-0.04288848227892976,20.1000003815,0.0,0.8173813100411744,1.734593951280528
1648218496337323189,37515,3,3,1.58972799778,-0.0,0.90313321352,0.0,20.1000003815,0.5316816046086956,-0.0,0.3020512419799331,20.1000003815,0.0,0.7519113361019069,1.8283557389875116
1648218496337327133,37516,3,4,1.0464411974,1.4855389595,0.202532172203,0.0,20.1000003815,0.3499803335785953,0.4968357724080267,0.0677365124424749,20.1000003815,0.0,0.7012975492099272,1.828355671248227
1648218496337331135,37517,3,5,1.74062943459,0.34281668067,0.442233651876,0.161837622523,20.1000003815,0.5821503125719063,0.1146544082508361,0.1479042313966555,20.1000003815,0.021869948989594594,0.8312301764171497,1.8283557388971883
1648218496337334023,37518,3,6,1.75312101841,1.14565229416,0.514426410198,0.242756426334,20.1000003815,0.5863280998026755,0.3831613023946488,0.17204896662140465,20.1000003815,0.03280492247756756,0.9134406739844663,2.1565219720221234
1648218496337342533,37519,3,7,1.45210826397,-0.53180539608,0.0446208417416,0.485512852669,20.1000003815,0.48565493778260865,-0.17786133648160535,0.014923358442006688,20.1000003815,0.06560984495527027,0.7094759278511722,1.5470702663769031
1648218496441940434,37520,4,0,0.0052226819098,0.0454158857465,0.0103894732893,0.0,23.1000003815,0.001746716357792642,0.015189259446989964,0.003474740230535117,23.1000003815,0.0,0.015388815374067449,0.04688091551686221
1648218496441944611,37521,4,1,0.0335027687252,0.0146502861753,-0.0293386057019,0.0,23.1000003815,0.011204939372976588,0.0048997612626421405,-0.00981224270966555,23.1000003815,0.0,0.01658640989289275,0.04688091489939147
1648218496441947813,37522,4,2,1.73458683491,-0.0,-0.00493830256164,0.0,23.1000003815,0.5801293762240802,-0.0,-0.0016516062079063541,23.1000003815,0.0,0.820426831787138,1.7345938644752787
1648218496441953832,37523,4,3,1.50376844406,-0.615312039852,0.228913098574,0.404594063759,23.1000003815,0.502932589986622,-0.20578997988361203,0.07655956474046823,23.1000003815,0.05467487348094594,0.7404268336316566,1.6408319982363255
1648218496637045659,37524,6,0,0.00526678469032,0.0454158857465,0.0103671858087,0.0,29.2000007629,0.00176146645161204,0.015189259446989964,0.003467286223645485,29.2000007629,0.0,0.015392177580455708,0.046880915527594394
1648218496637223563,37525,6,1,0.0335027687252,0.0146502861753,-0.0293386057019,0.0,29.2000007629,0.011204939372976588,0.0048997612626421405,-0.00981224270966555,29.2000007629,0.0,0.01658640989289275,0.04688091489939147
1648218496637226780,37526,6,2,1.72776031494,0.054206058383,-0.143951117992,0.0,29.2000007629,0.5778462591772575,0.01812911651605351,-0.04814418661939799,29.2000007629,0.0,0.8173990845088788,1.7345938795632065
1648218496637228797,37527,6,3,1.68272006512,0.571361124516,0.429981827736,0.0,29.2000007629,0.5627826304749164,0.19109067709565214,0.14380663134983276,29.2000007629,0.0,0.8185134239591966,1.8283557433795088
1648218496637230933,37528,6,4,1.82272422314,-0.114272229373,0.0866180062294,0.0,29.2000007629,0.6096067635919732,-0.03821813691404682,0.02896923285264214,29.2000007629,0.0,0.8629608556726895,1.8283556587902554
1648218496637238038,37529,6,5,2.06617093086,-1.19546329975,-0.135408192873,0.0,29.2000007629,0.6910270671772574,-0.39982050158862875,-0.04528702102775919,29.2000007629,0.0,1.0558850546502616,2.3909266394595146
1648218496637298606,37530,6,6,2.33810472488,-0.984499275684,0.675567984581,0.161837622523,29.2000007629,0.7819748243745819,-0.32926397180066885,0.22594246975953175,29.2000007629,0.021869948989594594,1.1538561500625926,2.625331337206665
1648218496637473023,37531,6,7,1.47744500637,-0.615312039852,0.361769765615,0.323675245047,29.2000007629,0.49412876467224076,-0.20578997988361203,0.12099323264715718,29.2000007629,0.04373989797932432,0.7284751114303952,1.6408321110179465
1648218496742115359,37532,7,0,0.00524778757244,0.0454158857465,0.0103768147528,0.0,26.7999992371,0.0017551129004816054,0.015189259446989964,0.003470506606287625,26.7999992371,0.0,0.015390725945674161,0.04688091548763233
1648218496742121908,37533,7,1,0.0334505960345,0.0146502861753,-0.0293980780989,0.0,26.7999992371,0.011187490312541805,0.0048997612626421405,-0.009832133143444815,26.7999992371,0.0,0.016562836092207215,0.04688091569061464
1648218496742126742,37534,7,2,1.73264932632,0.054206058383,0.061675645411,0.0,26.7999992371,0.5794813800401337,0.01812911651605351,0.02062730615752508,26.7999992371,0.0,0.8197109273958036,1.7345938631274567
1648218496742133627,37535,7,3,2.07015514374,-1.19546329975,-0.043073464185,0.0,26.7999992371,0.6923595798461538,-0.39982050158862875,-0.014405840864548493,26.7999992371,0.0,1.0576294290062414,2.390926628635692
1648218496742136317,37536,7,4,1.65325653553,0.527410328388,0.710699498653,0.0809188112617,26.7999992371,0.5529286072006688,0.1763914141765886,0.23769214001772573,26.7999992371,0.010934974494824324,0.801607148369424,1.875236679501716
1648218496742139057,37537,7,5,1.42512345314,-0.580151319504,0.693413615227,0.485512852669,26.7999992371,0.4766299174381271,-0.19403054164013378,0.23191090810267556,26.7999992371,0.06560984495527027,0.7014271220043572,1.6877129056785958
1648218496936885738,37538,9,0,0.00518398126587,0.0454158857465,0.0104088373482,0.0,25.0,0.0017337729986187291,0.015189259446989964,0.003481216504414716,25.0,0.0,0.01538588769520474,0.04688091546509428
1648218496936889884,37539,9,1,0.0335027687252,0.0146502861753,-0.0293386057019,0.0,25.0,0.011204939372976588,0.0048997612626421405,-0.00981224270966555,25.0,0.0,0.01658640989289275,0.04688091489939147
1648218496936891892,37540,9,2,1.73000860214,0.054206058383,-0.113787896931,0.0,25.0,0.5785981946956522,0.01812911651605351,-0.03805615281973244,25.0,0.0,0.8184622206771601,1.7345938273070725
1648218496936909233,37541,9,3,1.82233655453,0.0586011447012,0.438369095325,0.0,25.0,0.6094771085384615,0.019599045050568562,0.14661173756688964,25.0,0.0,0.8621535908593674,1.875236538645891
1648218496936912722,37542,9,4,1.60414588451,-0.334026515484,0.699138581753,0.242756426334,25.0,0.5365036403043478,-0.11171455367357858,0.2338256126264214,25.0,0.03280492247756756,0.7669109815500891,1.781474807100103
1648218497042242061,37543,10,0,0.00522848218679,0.0454158857465,0.0103865554556,0.0,34.5,0.0017486562497625415,0.015189259446989964,0.0034737643664214043,34.5,0.0,0.01538925598941161,0.046880915502461935
1648218497042248835,37544,10,1,0.0335027687252,0.0146502861753,-0.0293386057019,0.0,34.5,0.011204939372976588,0.0048997612626421405,-0.00981224270966555,34.5,0.0,0.01658640989289275,0.04688091489939147
1648218497042254293,37545,10,2,1.72634387016,0.054206058383,-0.160045906901,0.0,34.5,0.5773725318260869,0.01812911651605351,-0.05352705916421405,34.5,0.0,0.8167292977971246,1.7345939430080435
1648218497042261328,37546,10,3,1.75210237503,-0.0571361146867,0.519381821156,0.0809188112617,34.5,0.5859874163979932,-0.0191090684570903,0.17370629470100332,34.5,0.010934974494824324,0.828931638225305,1.8283557488450057
1648218497042264044,37547,10,4,1.66782236099,-0.278355449438,0.560838341713,0.161837622523,34.5,0.5578001207324415,-0.09309546803946488,0.18757135174347822,34.5,0.021869948989594594,0.7943228031145395,1.781474902878364
1648218497237120200,37548,12,0,0.0052226819098,0.0454158857465,0.0103894732893,0.0,34.5999984741,0.001746716357792642,0.015189259446989964,0.003474740230535117,34.5999984741,0.0,0.015388815374067449,0.04688091551686221
1648218497237127565,37549,12,1,0.0334800891578,0.0146502861753,-0.029364483431,0.0,34.5999984741,0.011197354233377926,0.0048997612626421405,-0.009820897468561872,34.5999984741,0.0,0.016576161922664173,0.046880914477022494
1648218497237132145,37550,12,2,1.73284077644,0.054206058383,-0.0560396574438,0.0,34.5999984741,0.579545410180602,0.01812911651605351,-0.01874236034909699,34.5999984741,0.0,0.8198014575422863,1.734593870756213
1648218497237207612,37551,12,3,2.07017946243,-1.19546329975,-0.0418820753694,0.0,34.5999984741,0.692367713187291,-0.39982050158862875,-0.014007383066688963,34.5999984741,0.0,1.0576400777291772,2.3909265183090365
1648218497342118677,37552,13,0,0.0052226819098,0.0454158857465,0.0103894732893,0.0,11.3000001907,0.001746716357792642,0.015189259446989964,0.003474740230535117,11.3000001907,0.0,0.015388815374067449,0.04688091551686221
1648218497342122796,37553,13,1,0.0335027687252,0.0146502861753,-0.0293386057019,0.0,11.3000001907,0.011204939372976588,0.0048997612626421405,-0.00981224270966555,11.3000001907,0.0,0.01658640989289275,0.04688091489939147
1648218497342129323,37554,13,2,1.72826480865,0.054206058383,-0.137763053179,0.0,11.3000001907,0.5780149861705686,0.01812911651605351,-0.04607459972541806,11.3000001907,0.0,0.817637641832357,1.7345939595203952
1648218497342132211,37555,13,3,1.81149196625,0.0586011447012,0.481222659349,0.0,11.3000001907,0.6058501559364547,0.019599045050568562,0.16094403322709028,11.3000001907,0.0,0.8570256387432919,1.8752366479512674
1648218497342145791,37556,13,4,1.73842740059,-0.0,0.566352128983,0.0809188112617,11.3000001907,0.5814138463511705,-0.0,0.1894154277535117,11.3000001907,0.010934974494824324,0.8222433468613323,1.8283556987429117
1648218497537049073,37557,15,0,0.00518398126587,0.0454158857465,0.0104088373482,0.0,23.7000007629,0.0017337729986187291,0.015189259446989964,0.003481216504414716,23.7000007629,0.0,0.01538588769520474,0.04688091546509428
1648218497537054183,37558,15,1,0.0335027687252,0.0146502861753,-0.0293386057019,0.0,23.7000007629,0.011204939372976588,0.0048997612626421405,-0.00981224270966555,23.7000007629,0.0,0.01658640989289275,0.04688091489939147
1648218497537056737,37559,15,2,1.76302886009,-0.114272229373,0.47069683671,0.0,23.7000007629,0.5896417592274247,-0.03821813691404682,0.15742369120735786,23.7000007629,0.0,0.8347547151342155,1.8283556590567713
