%time,field.header.seq,field.header.frame_id,field.point_id,field.x,field.y,field.z,field.velocity,field.intensity,normalized_x,normalized_y,normalized_z,normalized_intensity,normalized_velocity,normalized_range,range
1648294880365581387,27556,0,0,0.0127002792433,0.0439508594573,0.010239389725,0.0,14.8000001907,0.004247585031204013,0.014699284099431437,0.003424545058528428,14.8000001907,0.0,0.015879323355559413,0.04688091553962624
1648294880365589258,27557,0,1,0.033514522016,0.0146502861753,-0.0293251797557,0.0,14.8000001907,0.011208870239464881,0.0048997612626421405,-0.009807752426655518,14.8000001907,0.0,0.016591720963215706,0.0468809155060271
1648294880365592053,27558,0,2,0.321626633406,-0.612381994724,-0.561210989952,0.0,14.8000001907,0.10756743592173912,-0.20481003168026754,-0.18769598326153847,14.8000001907,0.0,0.25512478440642944,0.890737432704569
1648294880365596050,27559,0,3,2.19130373001,-1.31266570091,0.606186389923,0.0,14.8000001907,0.7328775016755852,-0.4390186290668896,0.20273792305117055,14.8000001907,0.0,1.1255914985429953,2.6253314493277147
1648294880365602267,27560,0,4,1.86907160282,-0.117202289402,0.0966816842556,0.0809188112617,14.8000001907,0.6251075594715719,-0.03919809010100334,0.03233501145672241,14.8000001907,0.010934974494824324,0.8849041824313952,1.8752366200508388
1648294880560639035,27561,2,0,0.0127225453034,0.0439508594573,0.0102117098868,0.0,21.7999992371,0.004255031874046822,0.014699284099431437,0.0034152875875585287,21.7999992371,0.0,0.01588331028262392,0.046880915358433126
1648294880560646490,27562,2,1,0.033514522016,0.0146502861753,-0.0293251797557,0.0,21.7999992371,0.011208870239464881,0.0048997612626421405,-0.009807752426655518,21.7999992371,0.0,0.016591720963215706,0.0468809155060271
1648294880560666801,27563,2,2,0.31644320488,-0.612381994724,-0.564149916172,0.0,21.7999992371,0.10583384778595317,-0.20481003168026754,-0.1886789017297659,21.7999992371,0.0,0.2536705654017289,0.8907374120882907
1648294880560826390,27564,2,3,1.8693459034,-0.117202289402,0.0912239849567,0.0,21.7999992371,0.6251992987959866,-0.03919809010100334,0.030509693965451504,21.7999992371,0.0,0.8850337940991593,1.8752365980405812
1648294880560832115,27565,2,4,2.23716568947,-1.2306240797,0.610753118992,0.0,21.7999992371,0.7482159496555183,-0.4115799597658863,0.20426525718795985,21.7999992371,0.0,1.1353643811211918,2.6253314686030995
1648294880665622658,27566,3,0,0.0127002792433,0.0439508594573,0.010239389725,0.0,14.8000001907,0.004247585031204013,0.014699284099431437,0.003424545058528428,14.8000001907,0.0,0.015879323355559413,0.04688091553962624
1648294880665626193,27567,3,1,0.033514522016,0.0146502861753,-0.0293251797557,0.0,14.8000001907,0.011208870239464881,0.0048997612626421405,-0.009807752426655518,14.8000001907,0.0,0.016591720963215706,0.0468809155060271
1648294880665628156,27568,3,2,0.313098758459,-0.612381994724,-0.566012918949,0.0,14.8000001907,0.10471530383244146,-0.20481003168026754,-0.18930197958160533,14.8000001907,0.0,0.25274045736746076,0.8907374273195663
1648294880665629970,27569,3,3,1.89079916477,-0.180198520422,0.294860780239,0.0,14.8000001907,0.6323743025986621,-0.06026706368628762,0.09861564556488293,14.8000001907,0.0,0.8963406920025753,1.9221175479091697
1648294880665631636,27570,3,4,2.19340467453,-1.31266570091,0.598539829254,0.0,14.8000001907,0.7335801587056856,-0.4390186290668896,0.20018054490100332,14.8000001907,0.0,1.1265065712906823,2.6253314525596583
1648294880665640415,27571,3,5,1.73813247681,0.22268435359,0.320873945951,0.566431701183,14.8000001907,0.5813152096354515,0.07447637243812709,0.10731570098695652,14.8000001907,0.07654482448418919,0.8254704573505707,1.781474927543362
1648294880860649211,27572,5,0,0.0127002792433,0.0439508594573,0.010239389725,0.0,15.1999998093,0.004247585031204013,0.014699284099431437,0.003424545058528428,15.1999998093,0.0,0.015879323355559413,0.04688091553962624
1648294880860832427,27573,5,1,0.033514522016,0.0146502861753,-0.0293251797557,0.0,15.1999998093,0.011208870239464881,0.0048997612626421405,-0.009807752426655518,15.1999998093,0.0,0.016591720963215706,0.0468809155060271
1648294880860837083,27574,5,2,0.320727705956,-0.612381994724,-0.561725199223,0.0,15.1999998093,0.1072667912896321,-0.20481003168026754,-0.1878679596063545,15.1999998093,0.0,0.2548714933138251,0.8907374294774317
1648294880860841777,27575,5,3,2.23945093155,-1.2306240797,0.60231924057,0.0,15.1999998093,0.7489802446655518,-0.4115799597658863,0.20144456206354514,15.1999998093,0.0,1.1363718040674136,2.625331325360374
1648294880860872469,27576,5,4,1.76719677448,0.114272229373,0.454798847437,0.161837622523,15.1999998093,0.5910357105284281,0.03821813691404682,0.15210663793879597,15.1999998093,0.021869948989594594,0.8367239976413181,1.8283557022003172
1648294880860873612,27577,5,5,1.19955813885,-0.325236350298,-1.20999896526,-0.566431701183,15.1999998093,0.40119001299331103,-0.10877469909632106,-0.404681928180602,15.1999998093,-0.07654482448418919,0.5777012967050025,1.7345938740715967
1648294880860874620,27578,5,6,1.6132529974,0.325236350298,0.548134982586,-0.566431701183,15.1999998093,0.5395494974581939,0.10877469909632106,0.18332273665083612,15.1999998093,-0.07654482448418919,0.7707523957655107,1.7345938649464325
1648294880965609805,27579,6,0,0.012702328153,0.0439508594573,0.0102368472144,0.0,28.2000007629,0.004248270285284281,0.014699284099431437,0.003423694720535117,28.2000007629,0.0,0.01587968998026903,0.04688091539670276
1648294880965618857,27580,6,1,0.033514522016,0.0146502861753,-0.0293251797557,0.0,28.2000007629,0.011208870239464881,0.0048997612626421405,-0.009807752426655518,28.2000007629,0.0,0.016591720963215706,0.0468809155060271
1648294880965622618,27581,6,2,0.317947685719,-0.612381994724,-0.563303411007,0.0,28.2000007629,0.10633701863511705,-0.20481003168026754,-0.18839578963444814,28.2000007629,0.0,0.2540910705658163,0.8907374311032036
1648294880965625036,27582,6,3,1.85890877247,-0.0586011447012,0.239867195487,0.0,28.2000007629,0.6217086195551839,-0.019599045050568562,0.08022314230334447,28.2000007629,0.0,0.8794471773934571,1.8752365690752224
1648294880965626634,27583,6,4,2.19497442245,-1.31266570091,0.592757344246,0.0,28.2000007629,0.7341051580100334,-0.4390186290668896,0.19824660342675585,28.2000007629,0.0,1.1271903666646745,2.6253314508291754
1648294880965628046,27584,6,5,1.71491408348,-0.167013257742,0.452580094337,0.161837622523,28.2000007629,0.5735498606956522,-0.05585727683678929,0.1513645800458194,28.2000007629,0.021869948989594594,0.8130430005747702,1.78147480581953
1648294881160595743,27585,8,0,0.0127122588456,0.0439508594573,0.0102245127782,0.0,30.5,0.004251591587157191,0.014699284099431437,0.0034195694910367893,30.5,0.0,0.015881467661515717,0.04688091545122009
1648294881160762136,27586,8,1,0.033514522016,0.0146502861753,-0.0293251797557,0.0,30.5,0.011208870239464881,0.0048997612626421405,-0.009807752426655518,30.5,0.0,0.016591720963215706,0.0468809155060271
1648294881160767482,27587,8,2,0.31644320488,-0.612381994724,-0.564149916172,0.0,30.5,0.10583384778595317,-0.20481003168026754,-0.1886789017297659,30.5,0.0,0.2536705654017289,0.8907374120882907
1648294881160769413,27588,8,3,1.85758197308,-0.117202289402,0.228396594524,0.0,30.5,0.6212648739397993,-0.03919809010100334,0.07638682091103678,30.5,0.0,0.8794751715940797,1.8752365631415724
1648294881160771192,27589,8,4,2.19487285614,-1.31266570091,0.593133509159,0.0,30.5,0.7340711893444816,-0.4390186290668896,0.19837241108996653,30.5,0.0,1.127146121281094,2.625331494621769
1648294881160774308,27590,8,5,1.67501544952,-0.108412116766,0.437476724386,-0.0809188112617,30.5,0.5602058359598662,-0.03625823303210702,0.14631328574782607,30.5,-0.010934974494824324,0.793079956088663,1.7345938508976322
1648294881265594588,27591,9,0,0.0127122588456,0.0439508594573,0.0102245127782,0.0,12.6999998093,0.004251591587157191,0.014699284099431437,0.0034195694910367893,12.6999998093,0.0,0.015881467661515717,0.04688091545122009
1648294881265605307,27592,9,1,0.0335651524365,0.0146502861753,-0.0292672142386,0.0,12.6999998093,0.011225803490468226,0.0048997612626421405,-0.009788365966086955,12.6999998093,0.0,0.01661460166372055,0.046880914799007266
1648294881265627486,27593,9,2,0.324623733759,-0.612381994724,-0.559482693672,0.0,12.6999998093,0.10856981062173912,-0.20481003168026754,-0.18711795774983275,12.6999998093,0.0,0.25597257008076624,0.8907374251148631
1648294881265632488,27594,9,3,1.91640079021,-0.120132349432,0.0866739973426,0.0,12.6999998093,0.6409367191337793,-0.040178043288294316,0.028987958977458195,12.6999998093,0.0,0.907311430012001,1.922117621768478
1648294881265640614,27595,9,4,2.19429349899,-1.31266570091,0.595273137093,0.0,12.6999998093,0.7338774244113712,-0.4390186290668896,0.1990880057167224,12.6999998093,0.0,1.1268937415697662,2.6253314666532797
1648294881460639579,27596,11,0,0.0125885810703,0.0439508594573,0.0103764068335,0.0,14.6999998093,0.00421022778270903,0.014699284099431437,0.003470370178428093,14.6999998093,0.0,0.01585941326154243,0.0468809155112521
1648294881460797985,27597,11,1,0.0335008911788,0.0146502861753,-0.0293407458812,0.0,14.6999998093,0.01120431143103679,0.0048997612626421405,-0.009812958488695652,14.6999998093,0.0,0.0165855614833569,0.04688091257278532
1648294881460801656,27598,11,2,0.326456129551,-0.612381994724,-0.558415472507,0.0,14.6999998093,0.10918265202374582,-0.20481003168026754,-0.18676102759431434,14.6999998093,0.0,0.2564933762941042,0.8907374202978005
1648294881460858858,27599,11,3,1.6837451458,-0.108412116766,0.402572900057,0.0,14.6999998093,0.5631254668227424,-0.03625823303210702,0.13463976590535118,14.6999998093,0.0,0.7972046426302808,1.7345938553237905
1648294881460861522,27600,11,4,1.86554646492,-0.117202289402,0.150041118264,0.0,14.6999998093,0.6239285835852842,-0.03919809010100334,0.05018097600802675,14.6999998093,0.0,0.8832384984232993,1.875236605494488
1648294881460863020,27601,11,5,2.19643998146,-1.31266570091,0.587303698063,0.0,14.6999998093,0.7345953115250836,-0.4390186290668896,0.19642264149264213,14.6999998093,0.0,1.1278288434408124,2.6253314968323567
1648294881565714131,27602,12,0,0.0127002792433,0.0439508594573,0.010239389725,0.0,14.8000001907,0.004247585031204013,0.014699284099431437,0.003424545058528428,14.8000001907,0.0,0.015879323355559413,0.04688091553962624
1648294881565721482,27603,12,1,0.033514522016,0.0146502861753,-0.0293251797557,0.0,14.8000001907,0.011208870239464881,0.0048997612626421405,-0.009807752426655518,14.8000001907,0.0,0.016591720963215706,0.0468809155060271
1648294881565724801,27604,12,2,0.328036129475,-0.612381994724,-0.557488799095,0.0,14.8000001907,0.10971108009197324,-0.20481003168026754,-0.18645110337625417,14.8000001907,0.0,0.2569439457678793,0.8907374309073743
1648294881565726612,27605,12,3,1.92096161842,-0.0600661747158,0.0288818161935,0.0,14.8000001907,0.6424620797391304,-0.020089021644080267,0.00965947029882943,14.8000001907,0.0,0.9088006473347572,1.9221174896697677
1648294881565731007,27606,12,4,2.23386788368,-1.2306240797,0.622707128525,0.0,14.8000001907,0.7471130045752508,-0.4115799597658863,0.20826325368729096,14.8000001907,0.0,1.1339108194614804,2.6253315057703257
1648294881565736425,27607,12,5,1.67926692963,-0.162618175149,0.403030753136,-0.0809188112617,14.8000001907,0.5616277356622074,-0.05438734954816053,0.13479289402541805,14.8000001907,-0.010934974494824324,0.7961214798766519,1.7345938659556968
1648294881760694439,27608,14,0,0.0127002792433,0.0439508594573,0.010239389725,0.0,21.2000007629,0.004247585031204013,0.014699284099431437,0.003424545058528428,21.2000007629,0.0,0.015879323355559413,0.04688091553962624
1648294881760701601,27609,14,1,0.0335651524365,0.0146502861753,-0.0292672142386,0.0,21.2000007629,0.011225803490468226,0.0048997612626421405,-0.009788365966086955,21.2000007629,0.0,0.01661460166372055,0.046880914799007266
1648294881760706506,27610,14,2,0.311382263899,-0.612381994724,-0.566959023476,0.0,21.2000007629,0.10414122538428092,-0.20481003168026754,-0.18961840250033443,21.2000007629,0.0,0.2522656114613155,0.8907374226077353
1648294881760790722,27611,14,3,1.91795885563,-0.0600661747158,0.111184380949,0.0,21.2000007629,0.6414578112474916,-0.020089021644080267,0.03718541168862876,21.2000007629,0.0,0.907380744787689,1.9221176040506835
1648294881760793588,27612,14,4,2.24166512489,-1.2306240797,0.594026148319,0.0,21.2000007629,0.7497207775551838,-0.4115799597658863,0.19867095261505016,21.2000007629,0.0,1.1373480346300282,2.6253314500405995
1648294881865683121,27613,15,0,0.0127122588456,0.0439508594573,0.0102245127782,0.0,14.6000003815,0.004251591587157191,0.014699284099431437,0.0034195694910367893,14.6000003815,0.0,0.015881467661515717,0.04688091545122009
1648294881865687666,27614,15,1,0.033514522016,0.0146502861753,-0.0293251797557,0.0,14.6000003815,0.011208870239464881,0.0048997612626421405,-0.009807752426655518,14.6000003815,0.0,0.016591720963215706,0.0468809155060271
1648294881865695206,27615,15,2,0.323635131121,-0.612381994724,-0.560055136681,0.0,14.6000003815,0.10823917428795986,-0.20481003168026754,-0.187309410261204,14.6000003815,0.0,0.25569236746127344,0.890737425777443
1648294881865697077,27616,15,3,1.6734598875,0.111342176795,0.600656032562,0.0,14.6000003815,0.5596855811036788,0.037238186219063545,0.20088830520468223,14.6000003815,0.0,0.7923904226475803,1.7814748790982387
1648294881865701721,27617,15,4,1.86952447891,-0.0586011447012,-0.134001329541,0.0,14.6000003815,0.6252590230468227,-0.019599045050568562,-0.04481649817424749,14.6000003815,0.0,0.8844669662400222,1.8752365791341512
1648294881865706504,27618,15,5,2.1945605278,-1.31266570091,0.594287276268,0.0,14.6000003815,0.7339667317056856,-0.4390186290668896,0.19875828637725754,14.6000003815,0.0,1.1270100634729145,2.62533131609277
