%time,field.header.seq,field.header.frame_id,field.point_id,field.x,field.y,field.z,field.velocity,field.intensity,normalized_x,normalized_y,normalized_z,normalized_intensity,normalized_velocity,normalized_range,range
1648126987302307983,88123,0,0,0.0126097733155,0.0439508594573,0.0103506427258,0.0,12.8999996185,0.004217315490133779,0.014699284099431437,0.0034617534199999998,12.8999996185,0.0,0.01586317915559307,0.04688091546611253
1648126987302313678,88124,0,1,0.0328124724329,0.0146502861753,-0.0301086530089,0.0,12.8999996185,0.010974071047792642,0.0048997612626421405,-0.010069783615016722,12.8999996185,0.0,0.01627476977271537,0.04688091528744241
1648126987302326920,88125,0,2,1.05798947811,-0.0673913136125,-0.196884408593,0.0,12.8999996185,0.353842634819398,-0.02253890087374582,-0.06584762829197324,12.8999996185,0.0,0.5009163827271615,1.0782610051786645
1648126987302333557,88126,0,3,1.86501288414,-1.31852579117,0.527037203312,0.0,12.8999996185,0.6237501284749163,-0.44097852547491634,0.1762666231812709,12.8999996185,0.0,0.9862000331955889,2.3440459751599603
1648126987302403613,88127,0,4,2.38578343391,-0.984499275684,0.480795145035,0.0,12.8999996185,0.7979208809063544,-0.32926397180066885,0.16080105185117055,12.8999996185,0.0,1.1754872298322498,2.6253314817049174
1648126987602581254,88128,3,0,0.0126097733155,0.0439508594573,0.0103506427258,0.0,11.3000001907,0.004217315490133779,0.014699284099431437,0.0034617534199999998,11.3000001907,0.0,0.01586317915559307,0.04688091546611253
1648126987602591082,88129,3,1,0.0328872464597,0.0146502861753,-0.0300269592553,0.0,11.3000001907,0.010999079083511706,0.0048997612626421405,-0.010042461289397992,11.3000001907,0.0,0.0163084990664861,0.0468809145264753
1648126987602627002,88130,3,2,1.11534452438,-0.0703213736415,-0.130406826735,0.0,11.3000001907,0.37302492454180597,-0.023518854060702338,-0.043614323322742475,11.3000001907,0.0,0.5280609104593604,1.1251419662044289
1648126987602632937,88131,3,3,1.1100897789,-0.152362972498,0.479804694653,0.0809188112617,11.3000001907,0.37126748458193976,-0.05095751588561872,0.16046979754280935,11.3000001907,0.010934974494824324,0.5275184912785853,1.2189037441971107
1648126987602672562,88132,3,4,1.09890007973,0.57136118412,0.666335761547,0.323675245047,11.3000001907,0.36752511027759194,0.19109069703010034,0.22285476974816054,11.3000001907,0.04373989797932432,0.5537734806403805,1.4064275079313648
1648126987707735161,88133,4,0,0.0126097733155,0.0439508594573,0.0103506427258,0.0,25.7999992371,0.004217315490133779,0.014699284099431437,0.0034617534199999998,25.7999992371,0.0,0.01586317915559307,0.04688091546611253
1648126987707741565,88134,4,1,0.0328872464597,0.0146502861753,-0.0300269592553,0.0,25.7999992371,0.010999079083511706,0.0048997612626421405,-0.010042461289397992,25.7999992371,0.0,0.0163084990664861,0.0468809145264753
1648126987707746074,88135,4,2,1.10664451122,-0.0703213736415,-0.19062371552,0.0,25.7999992371,0.37011522114381273,-0.023518854060702338,-0.06375375101003343,25.7999992371,0.0,0.5239500838257357,1.125142022467755
1648126987707747875,88136,4,3,2.2485640049,-0.914177834988,0.226151257753,0.0,25.7999992371,0.7520280952842808,-0.30574509531371236,0.07563587215819396,25.7999992371,0.0,1.1066040735069602,2.437807537419338
1648126987707749986,88137,4,4,2.42640542984,-0.902457654476,0.4364541471,0.0,25.7999992371,0.811506832722408,-0.30182530250033446,0.1459712866555184,25.7999992371,0.0,1.186669790775735,2.6253314744237817
1648126987707752060,88138,4,5,1.11185657978,-0.114272229373,0.486254245043,0.0809188112617,25.7999992371,0.3718583878862876,-0.03821813691404682,0.16262683780702342,25.7999992371,0.010934974494824324,0.5272740722546088,1.2189037645475924
1648126987707860318,88139,4,6,1.23580729961,0.164083212614,0.411033034325,0.0809188112617,25.7999992371,0.4133134781304348,0.054877328633444813,0.13746924224916388,25.7999992371,0.010934974494824324,0.5870839664021645,1.3126656610643506
1648126987902534839,88140,6,0,0.0125891612843,0.0439508594573,0.0103757027537,0.0,19.7999992371,0.004210421834214047,0.014699284099431437,0.0034701347002341135,19.7999992371,0.0,0.015859516294006278,0.04688091548285499
1648126987902728432,88141,6,1,0.0329001024365,0.0146502861753,-0.0300128757954,0.0,19.7999992371,0.011003378741304349,0.0048997612626421405,-0.010037751102140467,19.7999992371,0.0,0.016314298877980183,0.04688091657444943
1648126987902732781,88142,6,2,1.10894691944,-0.0703213736415,-0.176737233996,0.0,19.7999992371,0.3708852573377926,-0.023518854060702338,-0.05910944280802675,19.7999992371,0.0,0.5250379840710289,1.1251419535360194
1648126987902735189,88143,6,3,1.2699444294,-0.164083212614,0.288806259632,0.0,19.7999992371,0.4247305783946488,-0.054877328633444813,0.09659072228494983,19.7999992371,0.0,0.603161379437418,1.3126656886002805
1648126987902740506,88144,6,4,2.07002305984,-1.04603040218,0.580823004246,0.0,19.7999992371,0.6923154046287625,-0.34984294387290965,0.19425518536655517,19.7999992371,0.0,1.0397073262943943,2.3909266891344783
1648126987902743916,88145,6,5,1.02020835876,-1.79319500923,-1.20836937428,0.0,19.7999992371,0.34120680894983274,-0.5997307723177256,-0.40413691447491634,19.7999992371,0.0,0.7697539686239175,2.390926594671821
1648126987902894378,88146,6,6,1.34727108479,-0.187523663044,0.632663667202,-0.485512852669,19.7999992371,0.4505923360501672,-0.0627169441618729,0.21159319973311033,19.7999992371,-0.06560984495527027,0.6403126749481827,1.5001892600302622
1648126988007550692,88147,7,0,0.0126097733155,0.0439508594573,0.0103506427258,0.0,22.7000007629,0.004217315490133779,0.014699284099431437,0.0034617534199999998,22.7000007629,0.0,0.01586317915559307,0.04688091546611253
1648126988007560765,88148,7,1,0.0327995419502,0.0146502861753,-0.0301227364689,0.0,22.7000007629,0.010969746471638795,0.0048997612626421405,-0.010074493802307691,22.7000007629,0.0,0.016268937756809817,0.046880913915322876
1648126988007568412,88149,7,2,1.11530911922,-0.0703213736415,-0.130710095167,0.0,22.7000007629,0.37301308335117056,-0.023518854060702338,-0.04371575089197324,22.7000007629,0.0,0.5280441811047852,1.1251420603571292
1648126988007577294,88150,7,3,1.2378796339,-0.297400802374,0.47704693675,0.0,22.7000007629,0.4140065665217391,-0.09946515129565217,0.15954747048494983,22.7000007629,0.0,0.593882303633056,1.3595466174941024
1648126988007579453,88151,7,4,1.75831079483,-1.39177727699,0.682532191277,0.0,22.7000007629,0.5880638109799331,-0.4654773501638796,0.2282716358785953,22.7000007629,0.0,0.9530515490171935,2.3440458681712673
1648126988007583474,88152,7,5,2.42535328865,-0.902457654476,0.442263424397,0.0,22.7000007629,0.8111549460367893,-0.30182530250033446,0.14791418876153845,22.7000007629,0.0,1.186188520509835,2.62533147039513
1648126988007722171,88153,7,6,0.695295035839,0.219754293561,-1.20262682438,-0.242756426334,22.7000007629,0.23254014576555182,0.07349641925117056,-0.40221632922408024,22.7000007629,-0.03280492247756756,0.3369741272383861,1.4064275363911125
1648126988007730390,88154,7,7,1.17791652679,0.197778865695,0.419054985046,-0.0809188112617,22.7000007629,0.3939520156488294,0.06614677782441471,0.14015216891170568,22.7000007629,-0.010934974494824324,0.5610452543994143,1.265784699027651
1648126988202466456,88155,9,0,0.0126141794026,0.0439508594573,0.0103452727199,0.0,25.6000003815,0.004218789097859532,0.014699284099431437,0.003459957431404682,25.6000003815,0.0,0.015863962806948167,0.0468809154847196
1648126988202470492,88156,9,1,0.0329001024365,0.0146502861753,-0.0300128757954,0.0,25.6000003815,0.011003378741304349,0.0048997612626421405,-0.010037751102140467,25.6000003815,0.0,0.016314298877980183,0.04688091657444943
1648126988202476356,88157,9,2,1.1217045784,-0.0703213736415,-0.0527096353471,0.0,25.6000003815,0.37515203290969895,-0.023518854060702338,-0.01762864058431438,25.6000003815,0.0,0.5310661277928469,1.1251420187926382
1648126988202486650,88158,9,3,1.14754009247,-0.079111546278,0.528302907944,0.0,25.6000003815,0.38379267306688963,-0.026458711129765885,0.17668993576722408,25.6000003815,0.0,0.543409325641643,1.2657846827650583
1648126988202587403,88159,9,4,1.79671609402,-1.46502864361,0.346487343311,0.0,25.6000003815,0.6009083926488293,-0.489976134986622,0.11588205461906353,25.6000003815,0.0,0.9809477078662389,2.344045888668342
1648126988202610775,88160,9,5,2.25356554985,-0.914177834988,0.16919593513,0.0,25.6000003815,0.753700852792642,-0.30574509531371236,0.05658726927424749,25.6000003815,0.0,1.1088778175746425,2.4378076351341984
1648126988202810419,88161,9,6,2.39072299004,-0.984499275684,0.455598831177,0.0,25.6000003815,0.7995729063678929,-0.32926397180066885,0.152374191029097,25.6000003815,0.0,1.1777302018379041,2.6253315093332437
1648126988202815315,88162,9,7,1.19289302826,-0.287145614624,0.466524004936,-0.0809188112617,25.6000003815,0.3989608790167224,-0.0960353226167224,0.15602809529632106,25.6000003815,-0.010934974494824324,0.5723306292360121,1.312665619284147
