%time,field.header.seq,field.header.frame_id,field.point_id,field.x,field.y,field.z,field.velocity,field.intensity,normalized_x,normalized_y,normalized_z,normalized_intensity,normalized_velocity,normalized_range,range
1648127235003877840,101171,0,0,0.0125683275983,0.0439508594573,0.0104009294882,0.0,13.6000003815,0.004203454046254181,0.014699284099431437,0.003478571735183946,13.6000003815,0.0,0.01585581927475648,0.046880915518705844
1648127235003881503,101172,0,1,0.0328981243074,0.0146502861753,-0.0300150439143,0.0,13.6000003815,0.011002717159665552,0.0048997612626421405,-0.010038476225518393,13.6000003815,0.0,0.016313406456717926,0.04688091647078464
1648127235003883189,101173,0,2,1.31871950626,0.127457484603,-0.305123358965,0.0,13.6000003815,0.4410433131304347,0.04262792127190635,-0.10204794614214045,13.6000003815,0.0,0.6251844110229439,1.3595465460064344
1648127235003884831,101174,0,3,1.44292461872,0.093761831522,0.399681508541,0.0,13.6000003815,0.4825834845217391,0.03135847208093645,0.1336727453314381,13.6000003815,0.0,0.6831961598527454,1.5001893362600025
1648127235003886516,101175,0,4,1.82370531559,-1.39177727699,0.481254428625,0.0,13.6000003815,0.6099348881571907,-0.4654773501638796,0.16095465840301001,13.6000003815,0.0,0.9801583030808015,2.3440458382736664
1648127235003998986,101176,0,5,2.41874504089,-0.902457654476,0.477081805468,0.0,13.6000003815,0.808944829729097,-0.30182530250033446,0.15955913226354515,13.6000003815,0.0,1.1831660865323574,2.6253313010096266
1648127235108794286,101177,1,0,0.0125890737399,0.0439508594573,0.0103758089244,0.0,13.3000001907,0.004210392555150501,0.014699284099431437,0.003470170208829431,13.3000001907,0.0,0.01585950074790286,0.0468809154720728
1648127235108802135,101178,1,1,0.032925914973,0.0146502861753,-0.0299845542759,0.0,13.3000001907,0.011012011696655518,0.0048997612626421405,-0.010028279022040133,13.3000001907,0.0,0.016325944494743463,0.046880915700867075
1648127235108808514,101179,1,2,1.34958195686,0.0849716588855,-0.140624836087,0.0,13.3000001907,0.4513652029632107,0.028418615011872907,-0.047031717754849496,13.3000001907,0.0,0.638959083644042,1.3595466103154819
1648127235108815869,101180,1,3,1.82958936691,-1.39177727699,0.458377152681,0.0,13.3000001907,0.6119027982976588,-0.4654773501638796,0.15330339554548494,13.3000001907,0.0,0.982608382136341,2.3440458302592497
1648127235108819387,101181,1,4,2.4274084568,-0.902457654476,0.430840283632,0.0,13.3000001907,0.811842293244147,-0.30182530250033446,0.1440937403451505,13.3000001907,0.0,1.187128607788242,2.625331404654769
1648127235108966680,101182,1,5,1.4175093174,0.46880915761,0.14646884799,0.404594063759,13.3000001907,0.4740833837458194,0.15679236040468228,0.04898623678595318,13.3000001907,0.05467487348094594,0.6885448088316718,1.5001892595957116
1648127235303831703,101183,3,0,0.0125934295356,0.0439508594573,0.0103705218062,0.0,37.2000007629,0.004211849343010033,0.014699284099431437,0.0034684019418729094,37.2000007629,0.0,0.01586027436119016,0.046880915488462134
1648127235303834612,101184,3,1,0.0328981243074,0.0146502861753,-0.0300150439143,0.0,37.2000007629,0.011002717159665552,0.0048997612626421405,-0.010038476225518393,37.2000007629,0.0,0.016313406456717926,0.04688091647078464
1648127235303990884,101185,3,2,1.35420036316,0.0424858294427,-0.11270775646,0.0,37.2000007629,0.45290982045484945,0.01420930750591973,-0.03769490182608695,37.2000007629,0.0,0.6406688031648534,1.3595465080872948
1648127235303995929,101186,3,3,1.84710812569,-1.39177727699,0.381704717875,0.0,37.2000007629,0.6177619149464882,-0.4654773501638796,0.12766044076086955,37.2000007629,0.0,0.9899134965401226,2.344045841783765
1648127235304114631,101187,3,4,2.42320275307,-0.902457654476,0.453898727894,0.0,37.2000007629,0.810435703367893,-0.30182530250033446,0.15180559461337792,37.2000007629,0.0,1.1852048649141806,2.6253314944578223
1648127235304118631,101188,3,5,1.44117343426,0.386767566204,0.408480674028,0.0809188112617,37.2000007629,0.48199780410033444,0.1293537010715719,0.13661561004280934,37.2000007629,0.010934974494824324,0.6938127602574071,1.5470702889456889
1648127235304120467,101189,3,6,1.34453487396,-0.454158842564,0.31316280365,0.242756426334,37.2000007629,0.44967721537123745,-0.15189258948628762,0.10473672362876253,37.2000007629,0.03280492247756756,0.653827618557759,1.4533083716691493
1648127235304123630,101190,3,7,1.3258177042,0.647542655468,0.6029728055,0.404594063759,37.2000007629,0.4434172923745819,0.21656944998929767,0.2016631456521739,37.2000007629,0.05467487348094594,0.6634305668434926,1.5939511534527173
1648127235408839231,101191,4,0,0.0125934295356,0.0439508594573,0.0103705218062,0.0,29.6000003815,0.004211849343010033,0.014699284099431437,0.0034684019418729094,29.6000003815,0.0,0.01586027436119016,0.046880915488462134
1648127235408851879,101192,4,1,0.0328981243074,0.0146502861753,-0.0300150439143,0.0,29.6000003815,0.011002717159665552,0.0048997612626421405,-0.010038476225518393,29.6000003815,0.0,0.016313406456717926,0.04688091647078464
1648127235408858035,101193,4,2,1.35397219658,0.0424858294427,-0.11541659385,0.0,29.6000003815,0.4528335105618729,0.01420930750591973,-0.0386008675083612,29.6000003815,0.0,0.640560911229664,1.35954652180462
1648127235408860372,101194,4,3,1.83894586563,-1.39177727699,0.419267654419,0.0,29.6000003815,0.6150320620836119,-0.4654773501638796,0.1402232957923077,29.6000003815,0.0,0.9865080021455612,2.344045914973804
1648127235408863029,101195,4,4,2.41837000847,-0.902457654476,0.478980332613,0.0,29.6000003815,0.8088194008260869,-0.30182530250033446,0.16019409117491637,29.6000003815,0.0,1.182994572910104,2.6253314981197273
1648127235408864992,101196,4,5,1.31423413754,-0.046880915761,0.721913337708,0.0809188112617,29.6000003815,0.439543189812709,-0.015679236040468225,0.24144258786220735,29.6000003815,0.010934974494824324,0.6218056528082347,1.5001893399497286
