%time,field.header.seq,field.header.frame_id,field.point_id,field.x,field.y,field.z,field.velocity,field.intensity,normalized_x,normalized_y,normalized_z,normalized_intensity,normalized_velocity,normalized_range,range
1648219813062296760,89043,0,0,0.01232395228,0.0439508594573,0.0106893591583,0.0,21.6000003815,0.004121723170568562,0.014699284099431437,0.003575036507792642,21.6000003815,0.0,0.015812847840455602,0.04688091558459781
1648219813062328295,89044,0,1,0.0334016978741,0.0146502861753,-0.0294536203146,0.0,21.6000003815,0.011171136412742476,0.0048997612626421405,-0.009850709135317725,21.6000003815,0.0,0.016540744781753033,0.0468809135526118
1648219813062333105,89045,0,2,1.8139039278,0.228544458747,0.0201155338436,0.0,21.6000003815,0.6066568320401338,0.07643627382842809,0.006727603292173913,21.6000003815,0.0,0.8613405410630087,1.8283557267703787
1648219813257405555,89046,2,0,0.0122477002442,0.0439508594573,0.01077664271,0.0,20.6000003815,0.004096220817458194,0.014699284099431437,0.0036042283311036784,20.6000003815,0.0,0.015799588697385562,0.04688091548174064
1648219813257420377,89047,2,1,0.0333878919482,0.0146502861753,-0.0294692683965,0.0,20.6000003815,0.011166519046220735,0.0048997612626421405,-0.009855942607525084,20.6000003815,0.0,0.016534508025644712,0.04688091289200561
1648219813257564740,89048,2,2,0.46198913455,-0.553780794144,-0.438162744045,0.0,20.6000003815,0.15451141623745818,-0.18521096794113712,-0.14654272376086955,20.6000003815,0.0,0.28644486055976465,0.8438564562021562
1648219813257568240,89049,2,3,1.79573786259,0.171408340335,0.298042237759,0.0,20.6000003815,0.6005812249464882,0.05732720412541805,0.09967967818026756,20.6000003815,0.0,0.8512825757933061,1.8283556726644008
1648219813257569326,89050,2,4,1.63276433945,-0.421928226948,0.0665731951594,0.0809188112617,20.6000003815,0.5460750299163879,-0.14111311938060198,0.022265282662006686,20.6000003815,0.010934974494824324,0.7850533670125184,1.6877128924046323
1648219813257570273,89051,2,5,0.204502850771,-0.571361124516,0.0561842247844,-0.161837622523,20.6000003815,0.0683956022645485,-0.19109067709565214,0.018790710630234114,20.6000003815,-0.021869948989594594,0.21417647791280772,0.609451899411494
1648219813362421087,89052,3,0,0.012225298211,0.0439508594573,0.0108020491898,0.0,14.1999998093,0.004088728498662207,0.014699284099431437,0.0036127254815384612,14.1999998093,0.0,0.015795706837851316,0.04688091541429279
1648219813362435459,89053,3,1,0.0333498083055,0.0146502861753,-0.0295123625547,0.0,14.1999998093,0.011153782041973244,0.0048997612626421405,-0.009870355369464883,14.1999998093,0.0,0.01651730511041611,0.04688091448118138
1648219813362456353,89054,3,2,1.85779130459,0.234404578805,-0.100887395442,0.0,14.1999998093,0.6213348844782609,0.07839618020234114,-0.033741603826755846,14.1999998093,0.0,0.8821904773967726,1.8752365996145752
1648219813362492895,89055,3,3,1.67932271957,-0.433648467064,0.0253073517233,0.0809188112617,14.1999998093,0.5616463945050166,-0.14503293212842808,0.008463997231872909,14.1999998093,0.010934974494824324,0.8074205201273614,1.734593973096351
1648219813557485804,89056,5,0,0.012225298211,0.0439508594573,0.0108020491898,0.0,19.6000003815,0.004088728498662207,0.014699284099431437,0.0036127254815384612,19.6000003815,0.0,0.015795706837851316,0.04688091541429279
1648219813557514192,89057,5,1,0.0334016978741,0.0146502861753,-0.0294536203146,0.0,19.6000003815,0.011171136412742476,0.0048997612626421405,-0.009850709135317725,19.6000003815,0.0,0.016540744781753033,0.0468809135526118
1648219813557565410,89058,5,2,1.67288839817,-0.433648467064,-0.149027809501,0.0,19.6000003815,0.559494447548495,-0.14503293212842808,-0.049842076756187285,19.6000003815,0.0,0.8044268923133789,1.7345938642009004
1648219813557568653,89059,5,3,0.724337100983,-1.51776957512,0.42488515377,0.0,19.6000003815,0.24225321103110364,-0.5076152425150501,0.14210205811705687,19.6000003815,0.0,0.6124103778867354,1.7345939331482048
1648219813557570295,89060,5,4,1.81203866005,0.228544458747,-0.0846641361713,0.0,19.6000003815,0.6060329966722408,0.07643627382842809,-0.028315764605785953,19.6000003815,0.0,0.8604617888482015,1.8283557342851504
1648219813662613017,89061,6,0,0.0123448604718,0.0439508594573,0.0106652053073,0.0,18.3999996185,0.0041287158768561864,0.014699284099431437,0.003566958296755853,18.3999996185,0.0,0.01581649590204501,0.046880915427819955
1648219813662620307,89062,6,1,0.0334246940911,0.0146502861753,-0.0294275209308,0.0,18.3999996185,0.01117882745521739,0.0048997612626421405,-0.009841980244414716,18.3999996185,0.0,0.01655113370672634,0.04688091347482975
1648219813662622913,89063,6,2,1.8061221838,0.114272229373,0.260286390781,0.0,18.3999996185,0.6040542420735785,0.03821813691404682,0.0870523046090301,18.3999996185,0.0,0.8551161796641154,1.8283556794141984
1648219813857462682,89064,8,0,0.0122270965949,0.0439508594573,0.01080001425,0.0,17.3999996185,0.004089329964849498,0.014699284099431437,0.0036120448996655517,17.3999996185,0.0,0.01579601823747459,0.046880915583812514
1648219813857638155,89065,8,1,0.0334016978741,0.0146502861753,-0.0294536203146,0.0,17.3999996185,0.011171136412742476,0.0048997612626421405,-0.009850709135317725,17.3999996185,0.0,0.016540744781753033,0.0468809135526118
1648219813857641719,89066,8,2,0.387768000364,-0.580151319504,-0.474504083395,0.0,17.3999996185,0.1296882944361204,-0.19403054164013378,-0.15869701785785953,17.3999996185,0.0,0.2669943042775696,0.8438564456037866
1648219813857765251,89067,8,3,1.6576474905,-0.487854540348,-0.151718661189,0.0,17.3999996185,0.5543971540133779,-0.16316205362809363,-0.0507420271535117,17.3999996185,0.0,0.8008334811310045,1.7345938450980647
1648219813857768699,89068,8,4,1.41202485561,0.108412116766,1.00162303448,0.0,17.3999996185,0.4722491155886287,0.03625823303210702,0.3349909814314381,17.3999996185,0.0,0.668844611110155,1.7345939245607453
1648219813857769815,89069,8,5,1.86766946316,0.0586011447012,-0.157762244344,0.0,17.3999996185,0.6246386164414715,0.019599045050568562,-0.05276329242274247,17.3999996185,0.0,0.88358979445596,1.8752365833465146
1648219813962497409,89070,9,0,0.0122477002442,0.0439508594573,0.01077664271,0.0,15.8000001907,0.004096220817458194,0.014699284099431437,0.0036042283311036784,15.8000001907,0.0,0.015799588697385562,0.04688091548174064
1648219813962513313,89071,9,1,0.0334718860686,0.0146502861753,-0.0293738357723,0.0,15.8000001907,0.01119461072528428,0.0048997612626421405,-0.009824025341906354,15.8000001907,0.0,0.016572455430991152,0.04688091583987642
1648219813962522565,89072,9,2,0.310992956161,-0.553780794144,-0.555611312389,0.0,15.8000001907,0.10401102212742473,-0.18521096794113712,-0.18582318140100332,15.8000001907,0.0,0.2365157248338389,0.8438564553282412
1648219813962547127,89073,9,3,1.81378722191,0.228544458747,-0.0287694707513,0.0,15.8000001907,0.6066177999698996,0.07643627382842809,-0.009621896572341136,15.8000001907,0.0,0.8612855591715309,1.8283556378438153
1648219814157446158,89074,11,0,0.012225298211,0.0439508594573,0.0108020491898,0.0,16.2999992371,0.004088728498662207,0.014699284099431437,0.0036127254815384612,16.2999992371,0.0,0.015795706837851316,0.04688091541429279
1648219814157449135,89075,11,1,0.0334016978741,0.0146502861753,-0.0294536203146,0.0,16.2999992371,0.011171136412742476,0.0048997612626421405,-0.009850709135317725,16.2999992371,0.0,0.016540744781753033,0.0468809135526118
1648219814157451780,89076,11,2,1.61947417259,-0.474669247866,0.0191656742245,0.0,16.2999992371,0.5416301580568561,-0.15875225681137123,0.0064099244897993304,16.2999992371,0.0,0.782258739341462,1.6877128943111797
1648219814157557317,89077,11,3,1.86619591713,0.175803437829,0.0540199056268,0.0,16.2999992371,0.6241457916822742,0.05879713639765886,0.018066858069163878,16.2999992371,0.0,0.8846315853494893,1.8752365717607753
1648219814262478141,89078,12,0,0.0122477002442,0.0439508594573,0.01077664271,0.0,16.7999992371,0.004096220817458194,0.014699284099431437,0.0036042283311036784,16.7999992371,0.0,0.015799588697385562,0.04688091548174064
1648219814262487952,89079,12,1,0.0335084721446,0.0146502861753,-0.0293320901692,0.0,16.7999992371,0.01120684687110368,0.0048997612626421405,-0.00981006360173913,16.7999992371,0.0,0.01658898713049176,0.046880914071482226
1648219814262509098,89080,12,2,0.330061465502,-0.553780794144,-0.544499754906,0.0,16.7999992371,0.11038845000066888,-0.18521096794113712,-0.18210694144013376,16.7999992371,0.0,0.24222783166430992,0.8438564582112181
1648219814262653783,89081,12,3,1.62006652355,-0.487854540348,0.382359147072,0.0,16.7999992371,0.5418282687458194,-0.16316205362809363,0.1278793134020067,16.7999992371,0.0,0.7834395965027046,1.7345939324854012
1648219814262660585,89082,12,4,0.92757076025,-1.46356356144,0.0800634473562,0.0,16.7999992371,0.31022433453177256,-0.4894861409498327,0.026777072694381267,16.7999992371,0.0,0.6573240887517525,1.73459389173612
1648219814262670758,89083,12,5,1.79371011257,0.114272229373,0.335306495428,0.0,16.7999992371,0.5999030476822742,0.03821813691404682,0.11214264061137123,16.7999992371,0.0,0.8492514110828093,1.8283556974007997
1648219814262675203,89084,12,6,2.13090896606,-1.14272224903,0.31035271287,0.0,16.7999992371,0.712678583966555,-0.3821813541906354,0.10379689393645485,16.7999992371,0.0,1.0779072852430935,2.437807614732723
1648219814457523285,89085,14,0,0.0122477002442,0.0439508594573,0.01077664271,0.0,11.6999998093,0.004096220817458194,0.014699284099431437,0.0036042283311036784,11.6999998093,0.0,0.015799588697385562,0.04688091548174064
1648219814457672741,89086,14,1,0.0334016978741,0.0146502861753,-0.0294536203146,0.0,11.6999998093,0.011171136412742476,0.0048997612626421405,-0.009850709135317725,11.6999998093,0.0,0.016540744781753033,0.0468809135526118
1648219814457691987,89087,14,2,0.41656884551,-0.580151319504,-0.449431359768,0.0,11.6999998093,0.13932068411705684,-0.19403054164013378,-0.15031149156120402,11.6999998093,0.0,0.2765291252921709,0.8438564473384558
1648219814457703692,89088,14,3,1.64674794674,-0.487854540348,-0.242971882224,0.0,11.6999998093,0.5507518216521738,-0.16316205362809363,-0.0812614990715719,11.6999998093,0.0,0.7957870279481268,1.7345939548441984
1648219814457714160,89089,14,4,0.575876235962,-1.51776957512,0.611194074154,0.0,11.6999998093,0.1926007478133779,-0.5076152425150501,0.2044127338307692,11.6999998093,0.0,0.5760758027813335,1.7345939347832022
1648219814457717105,89090,14,5,1.86327934265,0.117202289402,-0.175970971584,0.0,11.6999998093,0.6231703487123745,0.03919809010100334,-0.05885316775384615,11.6999998093,0.0,0.8821672501834169,1.8752365366074497
1648219814562378150,89091,15,0,0.0122118405998,0.0439508594573,0.0108172614127,0.0,17.6000003815,0.00408422762535117,0.014699284099431437,0.003617813181505017,17.6000003815,0.0,0.015793377840954772,0.04688091554503761
1648219814562397476,89092,15,1,0.0334016978741,0.0146502861753,-0.0294536203146,0.0,17.6000003815,0.011171136412742476,0.0048997612626421405,-0.009850709135317725,17.6000003815,0.0,0.016540744781753033,0.0468809135526118
1648219814562439440,89093,15,2,0.408376485109,-0.553780794144,-0.488517343998,0.0,17.6000003815,0.13658076425050167,-0.18521096794113712,-0.16338372708963209,17.6000003815,0.0,0.26760364902630746,0.8438564551744573
1648219814562442374,89094,15,3,1.66233003139,-0.487854540348,0.0864470675588,0.0,17.6000003815,0.5559632212006689,-0.16316205362809363,0.028912062728695648,17.6000003815,0.0,0.8030019068469169,1.7345939816823859
1648219814562522087,89095,15,4,1.85937654972,0.175803437829,-0.168298706412,0.0,17.6000003815,0.6218650667959866,0.05879713639765886,-0.05628719277993311,17.6000003815,0.0,0.8814133115916271,1.8752366402619962
