%time,field.header.seq,field.header.frame_id,field.point_id,field.x,field.y,field.z,field.velocity,field.intensity,normalized_x,normalized_y,normalized_z,normalized_intensity,normalized_velocity,normalized_range,range
1648294940160793868,29485,0,0,0.0127040036023,0.0439508594573,0.0102347685024,0.0,15.3000001907,0.004248830636220735,0.014699284099431437,0.0034229994991304344,15.3000001907,0.0,0.015879989816948048,0.046880915529246094
1648294940160959945,29486,0,1,0.033514522016,0.0146502861753,-0.0293251797557,0.0,15.3000001907,0.011208870239464881,0.0048997612626421405,-0.009807752426655518,15.3000001907,0.0,0.016591720963215706,0.0468809155060271
1648294940160969899,29487,0,2,2.23621320724,-1.2306240797,0.614231407642,0.0,15.3000001907,0.7478973937257525,-0.4115799597658863,0.20542856442876253,15.3000001907,0.0,1.1349445300826093,2.6253314754342836
1648294940160971804,29488,0,3,1.89793348312,-0.120132349432,0.279200464487,0.0809188112617,15.3000001907,0.6347603622474917,-0.040178043288294316,0.09337808176822741,15.3000001907,0.010934974494824324,0.8985853938962116,1.9221176309211214
1648294940160973628,29489,0,4,0.803599238396,0.108412116766,1.53339207172,0.485512852669,15.3000001907,0.2687622870889632,0.03625823303210702,0.5128401577658862,15.3000001907,0.06560984495527027,0.3818127726847167,1.7345939492071536
1648294940160976912,29490,0,5,1.6327252388,-0.542060613632,-0.221798315644,0.485512852669,15.3000001907,0.5460619527759197,-0.18129117512775916,-0.07418003867692306,15.3000001907,0.06560984495527027,0.7932425875595092,1.7345938738183453
1648294940265865815,29491,1,0,0.0127241741866,0.0439508594573,0.0102096805349,0.0,20.0,0.004255576651036789,0.014699284099431437,0.003414608874548495,20.0,0.0,0.01588360218280151,0.046880915438918105
1648294940265868478,29492,1,1,0.0335236079991,0.0146502861753,-0.029314789921,0.0,20.0,0.01121190902979933,0.0048997612626421405,-0.009804277565551838,20.0,0.0,0.01659582684339289,0.04688091388196129
1648294940265870288,29493,1,2,2.23651099205,-1.2306240797,0.613145709038,0.0,20.0,0.7479969873076923,-0.4115799597658863,0.2050654545277592,20.0,0.0,1.1350757901231339,2.625331351203055
1648294940460851061,29494,3,0,0.0126920221373,0.0439508594573,0.0102496230975,0.0,14.8000001907,0.00424482345729097,0.014699284099431437,0.0034279675911371237,14.8000001907,0.0,0.015877846371688233,0.04688091559056686
1648294940460856373,29495,3,1,0.033514522016,0.0146502861753,-0.0293251797557,0.0,14.8000001907,0.011208870239464881,0.0048997612626421405,-0.009807752426655518,14.8000001907,0.0,0.016591720963215706,0.0468809155060271
1648294940460858781,29496,3,2,1.48753941059,-1.68478298187,0.665796041489,0.0,14.8000001907,0.49750481959531767,-0.5634725691872909,0.2226742613675585,14.8000001907,0.0,0.901400813882296,2.3440459814004577
1648294940461039991,29497,3,3,2.19309878349,-1.31266570091,0.599659562111,0.0,14.8000001907,0.7334778540100334,-0.4390186290668896,0.20055503749531772,14.8000001907,0.0,1.126373331233521,2.6253314280147593
1648294940565818919,29498,4,0,0.0126214576885,0.0439508594573,0.0103363925591,0.0,14.8000001907,0.0042212233071906346,0.014699284099431437,0.003456987477959866,14.8000001907,0.0,0.015865257812406854,0.046880915651827344
1648294940565820813,29499,4,1,0.033514522016,0.0146502861753,-0.0293251797557,0.0,14.8000001907,0.011208870239464881,0.0048997612626421405,-0.009807752426655518,14.8000001907,0.0,0.016591720963215706,0.0468809155060271
1648294940565822451,29500,4,2,2.23721766472,-1.2306240797,0.610562205315,0.0,14.8000001907,0.7482333326822742,-0.4115799597658863,0.20420140645986623,14.8000001907,0.0,1.1353872923168262,2.6253313526927986
1648294940760904105,29501,6,0,0.0127122588456,0.0439508594573,0.0102245127782,0.0,14.8000001907,0.004251591587157191,0.014699284099431437,0.0034195694910367893,14.8000001907,0.0,0.015881467661515717,0.04688091545122009
1648294940760908154,29502,6,1,0.0335008911788,0.0146502861753,-0.0293407458812,0.0,14.8000001907,0.01120431143103679,0.0048997612626421405,-0.009812958488695652,14.8000001907,0.0,0.0165855614833569,0.04688091257278532
1648294940760910860,29503,6,2,1.4727820158,-1.68478298187,0.697832882404,0.0,14.8000001907,0.49256923605351166,-0.5634725691872909,0.23338892388093643,14.8000001907,0.0,0.8959633032882578,2.3440459240012674
1648294940761022504,29504,6,3,1.98347067833,-0.805765748024,-0.954534828663,0.0,14.8000001907,0.6633681198428093,-0.26948687224882945,-0.31924241761304345,14.8000001907,0.0,0.9760828341703508,2.3440458851341304
1648294940761026392,29505,6,4,2.23790740967,-1.2306240797,0.608029007912,0.0,14.8000001907,0.7484640166120401,-0.4115799597658863,0.2033541832481605,14.8000001907,0.0,1.135691345219706,2.6253313075221216
1648294940761028918,29506,6,5,1.83073091507,-0.117202289402,0.388844698668,0.0809188112617,14.8000001907,0.612284586979933,-0.03919809010100334,0.13004839420334446,14.8000001907,0.010934974494824324,0.8667879332189279,1.875236587664692
1648294940761032012,29507,6,6,1.98794436455,-0.251984924078,0.219887241721,0.161837622523,14.8000001907,0.6648643359698996,-0.08427589434046821,0.07354088351872909,14.8000001907,0.021869948989594594,0.9440294470281511,2.0158793608696848
1648294940865848071,29508,7,0,0.0127241741866,0.0439508594573,0.0102096805349,0.0,25.2999992371,0.004255576651036789,0.014699284099431437,0.003414608874548495,25.2999992371,0.0,0.01588360218280151,0.046880915438918105
1648294940865850332,29509,7,1,0.033514522016,0.0146502861753,-0.0293251797557,0.0,25.2999992371,0.011208870239464881,0.0048997612626421405,-0.009807752426655518,25.2999992371,0.0,0.016591720963215706,0.0468809155060271
1648294940865851927,29510,7,2,2.19314408302,-1.31266570091,0.599493861198,0.0,25.2999992371,0.733493004354515,-0.4390186290668896,0.20049961912976585,25.2999992371,0.0,1.1263930626303575,2.625331426857429
1648294940865854330,29511,7,3,1.95333850384,-0.184593603015,0.165374204516,0.0809188112617,25.2999992371,0.6532904695117057,-0.06173699097491638,0.05530909850033444,25.2999992371,0.010934974494824324,0.9259526614056933,1.9689984094399997
1648294941060771391,29512,9,0,0.0127122588456,0.0439508594573,0.0102245127782,0.0,15.8000001907,0.004251591587157191,0.014699284099431437,0.0034195694910367893,15.8000001907,0.0,0.015881467661515717,0.04688091545122009
1648294941060775551,29513,9,1,0.033514522016,0.0146502861753,-0.0293251797557,0.0,15.8000001907,0.011208870239464881,0.0048997612626421405,-0.009807752426655518,15.8000001907,0.0,0.016591720963215706,0.0468809155060271
1648294941060779796,29514,9,2,1.82629835606,0.117202289402,0.409158021212,0.0,15.8000001907,0.6108021257725752,0.03919809010100334,0.1368421475625418,15.8000001907,0.0,0.8646935665102174,1.875236611286866
1648294941060781582,29515,9,3,2.23493909836,-1.2306240797,0.618850529194,0.0,15.8000001907,0.747471270354515,-0.4115799597658863,0.20697342113511702,15.8000001907,0.0,1.134382943847303,2.6253312888851523
1648294941165870979,29516,10,0,0.0127122588456,0.0439508594573,0.0102245127782,0.0,14.8999996185,0.004251591587157191,0.014699284099431437,0.0034195694910367893,14.8999996185,0.0,0.015881467661515717,0.04688091545122009
1648294941165873541,29517,10,1,0.0335008911788,0.0146502861753,-0.0293407458812,0.0,14.8999996185,0.01120431143103679,0.0048997612626421405,-0.009812958488695652,14.8999996185,0.0,0.0165855614833569,0.04688091257278532
1648294941165875231,29518,10,2,2.23638772964,-1.2306240797,0.613595604897,0.0,14.8999996185,0.7479557624214047,-0.4115799597658863,0.20521592137023412,14.8999996185,0.0,1.1350214572243373,2.625331458915377
1648294941165878239,29519,10,3,1.78590524197,0.117202289402,0.559748351574,0.0809188112617,14.8999996185,0.5972927230668895,0.03919809010100334,0.1872068065464883,14.8999996185,0.010934974494824324,0.8456084698753237,1.8752365522852854
1648294941360867409,29520,12,0,0.0126920221373,0.0439508594573,0.0102496230975,0.0,18.0,0.00424482345729097,0.014699284099431437,0.0034279675911371237,18.0,0.0,0.015877846371688233,0.04688091559056686
1648294941360872367,29521,12,1,0.033514522016,0.0146502861753,-0.0293251797557,0.0,18.0,0.011208870239464881,0.0048997612626421405,-0.009807752426655518,18.0,0.0,0.016591720963215706,0.0468809155060271
1648294941360874315,29522,12,2,1.9647282362,-0.12306240201,0.0406615622342,0.0,18.0,0.657099744548495,-0.04115799398327759,0.013599184693712373,18.0,0.0,0.9301903724722816,1.9689984153252535
1648294941360876929,29523,12,3,2.23413586617,-1.2306240797,0.621744334698,0.0,18.0,0.7472026308260868,-0.4115799597658863,0.20794124906287623,18.0,0.0,1.1340289265745118,2.6253313527579154
1648294941465912013,29524,13,0,0.0127122588456,0.0439508594573,0.0102245127782,0.0,14.3999996185,0.004251591587157191,0.014699284099431437,0.0034195694910367893,14.3999996185,0.0,0.015881467661515717,0.04688091545122009
1648294941465916273,29525,13,1,0.0335994325578,0.0146502861753,-0.0292278509587,0.0,14.3999996185,0.011237268413979932,0.0048997612626421405,-0.009775200989531772,14.3999996185,0.0,0.01663009510635915,0.0468809132258355
1648294941465918056,29526,13,2,2.23764944077,-1.2306240797,0.60897809267,0.0,14.3999996185,0.7483777393879597,-0.4115799597658863,0.20367160289966554,14.3999996185,0.0,1.1355776261021324,2.6253314005412265
1648294941660746111,29527,15,0,0.0126214576885,0.0439508594573,0.0103363925591,0.0,14.5,0.0042212233071906346,0.014699284099431437,0.003456987477959866,14.5,0.0,0.015865257812406854,0.046880915651827344
1648294941660829712,29528,15,1,0.033514522016,0.0146502861753,-0.0293251797557,0.0,14.5,0.011208870239464881,0.0048997612626421405,-0.009807752426655518,14.5,0.0,0.016591720963215706,0.0468809155060271
1648294941660839043,29529,15,2,2.23558306694,-1.2306240797,0.616520345211,0.0,14.5,0.7476866444615383,-0.4115799597658863,0.20619409538829428,14.5,0.0,1.1346667792322105,2.6253313335244792
