%time,field.header.seq,field.header.frame_id,field.point_id,field.x,field.y,field.z,field.velocity,field.intensity,normalized_x,normalized_y,normalized_z,normalized_intensity,normalized_velocity,normalized_range,range
1648219142953264415,64667,0,0,0.00554364221171,0.0454158857465,0.0102218193933,0.0,16.8999996185,0.0018540609403712373,0.015189259446989964,0.003418668693411371,16.8999996185,0.0,0.015413912108520486,0.046880915507483835
1648219142953271922,64668,0,1,0.0333998277783,0.0146502861753,-0.0294557418674,0.0,16.8999996185,0.01117051096264214,0.0048997612626421405,-0.009851418684749163,16.8999996185,0.0,0.016539899962330636,0.0468809141292828
1648219142953273992,64669,0,2,1.62261104584,0.114272229373,0.834841191769,0.0,16.8999996185,0.5426792795451505,0.03821813691404682,0.2792111009260869,16.8999996185,0.0,0.7684153999527001,1.828355699518597
1648219143148260458,64670,2,0,0.00554364221171,0.0454158857465,0.0102218193933,0.0,12.5,0.0018540609403712373,0.015189259446989964,0.003418668693411371,12.5,0.0,0.015413912108520486,0.046880915507483835
1648219143148264945,64671,2,1,0.033385772258,0.0146502861753,-0.0294716712087,0.0,12.5,0.01116581011973244,0.0048997612626421405,-0.009856746223645484,12.5,0.0,0.016533550486532746,0.04688091379351458
1648219143148416777,64672,2,2,1.81575632095,0.114272229373,0.181260079145,0.0,12.5,0.6072763615217391,0.03821813691404682,0.06062210004849498,12.5,0.0,0.8596684154459467,1.8283556480530279
1648219143148429508,64673,2,3,1.1517765522,1.21304368973,0.224300056696,0.242756426334,12.5,0.3852095492307692,0.4057002306789298,0.07501674136989966,12.5,0.03280492247756756,0.6792388908256665,1.6877128709663032
1648219143253396356,64674,3,0,0.00554364221171,0.0454158857465,0.0102218193933,0.0,27.0,0.0018540609403712373,0.015189259446989964,0.003418668693411371,27.0,0.0,0.015413912108520486,0.046880915507483835
1648219143253401546,64675,3,1,0.0334834195673,0.0146502861753,-0.0293606836349,0.0,27.0,0.011198468082709028,0.0048997612626421405,-0.009819626633745818,27.0,0.0,0.016577666760729453,0.0468809131144725
1648219143253404148,64676,3,2,0.908788442612,1.50311934948,0.297302097082,0.0809188112617,27.0,0.3039426229471572,0.5027155014983277,0.09943213949230768,27.0,0.010934974494824324,0.661426573048521,1.7814748802988152
1648219143448319020,64677,5,0,0.00554762780666,0.0454158857465,0.0102196568623,0.0,16.6000003815,0.001855393915270903,0.015189259446989964,0.0034179454388963207,16.6000003815,0.0,0.015414232893972455,0.046880915507309835
1648219143448320877,64678,5,1,0.033385772258,0.0146502861753,-0.0294716712087,0.0,16.6000003815,0.01116581011973244,0.0048997612626421405,-0.009856746223645484,16.6000003815,0.0,0.016533550486532746,0.04688091379351458
1648219143448322531,64679,5,2,1.87087869644,0.117202289402,-0.0508802756667,0.0,16.6000003815,0.6257119386086956,0.03919809010100334,-0.01701681460424749,16.6000003815,0.0,0.8857580654459041,1.8752365919760694
1648219143448421079,64680,5,3,0.95530372858,1.37126672268,-0.235366180539,-0.161837622523,16.6000003815,0.3194995747759197,0.4586176330033444,-0.07871778613344481,16.6000003815,-0.021869948989594594,0.6438090476729705,1.687712913237887
1648219143553286708,64681,6,0,0.00554364221171,0.0454158857465,0.0102218193933,0.0,20.7000007629,0.0018540609403712373,0.015189259446989964,0.003418668693411371,20.7000007629,0.0,0.015413912108520486,0.046880915507483835
1648219143553305568,64682,6,1,0.0334518700838,0.0146502861753,-0.0293966270983,0.0,20.7000007629,0.011187916415986623,0.0048997612626421405,-0.00983164785896321,20.7000007629,0.0,0.016563411722622077,0.0468809149001822
1648219143553310666,64683,6,2,1.87079942226,0.117202289402,-0.0537179000676,0.0,20.7000007629,0.6256854255050167,0.03919809010100334,-0.017965852865418058,20.7000007629,0.0,0.8857206069897855,1.8752366431352316
1648219143553337264,64684,6,3,2.08413815498,-1.21890377998,0.336967557669,0.0,20.7000007629,0.6970361722341137,-0.407660127083612,0.11269817982240801,20.7000007629,0.0,1.0667265957214138,2.437807500360597
1648219143553462957,64685,6,4,1.05270838737,1.31852567196,-0.0408671349287,-0.0809188112617,20.7000007629,0.3520763837357859,0.44097848560535113,-0.013667938103244145,20.7000007629,-0.010934974494824324,0.6651147154707416,1.6877129552071337
1648219143748336301,64686,8,0,0.00558340921998,0.0454158857465,0.0102001521736,0.0,11.5,0.0018673609431371235,0.015189259446989964,0.0034114221316387957,11.5,0.0,0.01541712282924028,0.04688091553096522
1648219143748341038,64687,8,1,0.033385772258,0.0146502861753,-0.0294716712087,0.0,11.5,0.01116581011973244,0.0048997612626421405,-0.009856746223645484,11.5,0.0,0.016533550486532746,0.04688091379351458
1648219143748498294,64688,8,2,0.933101415634,1.50311934948,0.208822220564,0.0,11.5,0.31207405205150496,0.5027155014983277,0.06984020754648829,11.5,0.0,0.6689568770663815,1.7814748806650722
1648219143748509391,64689,8,3,1.85081315041,0.175803437829,-0.245145082474,0.0,11.5,0.6190010536488294,0.05879713639765886,-0.08198832189765885,11.5,0.0,0.8773720488397649,1.8752365925248657
1648219143748513181,64690,8,4,1.22935497761,1.40642750263,0.16480410099,0.0,11.5,0.41115551090635444,0.47037709118060195,0.055118428424749163,11.5,0.0,0.7478986002158682,1.8752366178249784
1648219143853329587,64691,9,0,0.00554364221171,0.0454158857465,0.0102218193933,0.0,12.5,0.0018540609403712373,0.015189259446989964,0.003418668693411371,12.5,0.0,0.015413912108520486,0.046880915507483835
1648219143853333249,64692,9,1,0.0334518700838,0.0146502861753,-0.0293966270983,0.0,12.5,0.011187916415986623,0.0048997612626421405,-0.00983164785896321,12.5,0.0,0.016563411722622077,0.0468809149001822
1648219143853337778,64693,9,2,1.17341351509,1.21304368973,-0.000781828421168,0.0,12.5,0.3924459916688963,0.4057002306789298,-0.0002614810773137124,12.5,0.0,0.6874739194521519,1.68771291452229
1648219143853344580,64694,9,3,1.86835336685,0.117202289402,0.109689183533,0.0,12.5,0.6248673467725753,0.03919809010100334,0.0366853456632107,12.5,0.0,0.8845648039531994,1.8752366242810365
1648219144048340355,64695,11,0,0.00550753669813,0.0454158857465,0.0102413184941,0.0,15.0,0.0018419855177692307,0.015189259446989964,0.00342519013180602,15.0,0.0,0.015411016314419924,0.04688091555332495
1648219144048346980,64696,11,1,0.033385772258,0.0146502861753,-0.0294716712087,0.0,15.0,0.01116581011973244,0.0048997612626421405,-0.009856746223645484,15.0,0.0,0.016533550486532746,0.04688091379351458
1648219144048350539,64697,11,2,1.86610782146,0.175803437829,0.0569840557873,0.0,15.0,0.6241163282474916,0.05879713639765886,0.019058212637892976,15.0,0.0,0.8845900099022294,1.875236633782695
1648219144048356605,64698,11,3,1.07723772526,1.2306240797,0.132110074162,-0.161837622523,15.0,0.3602801756722408,0.4115799597658863,0.04418397129163879,15.0,-0.021869948989594594,0.6549821930753003,1.6408320492835031
1648219144153342679,64699,12,0,0.00554364221171,0.0454158857465,0.0102218193933,0.0,30.2000007629,0.0018540609403712373,0.015189259446989964,0.003418668693411371,30.2000007629,0.0,0.015413912108520486,0.046880915507483835
1648219144153349958,64700,12,1,0.0333998277783,0.0146502861753,-0.0294557418674,0.0,30.2000007629,0.01117051096264214,0.0048997612626421405,-0.009851418684749163,30.2000007629,0.0,0.016539899962330636,0.0468809141292828
1648219144153354634,64701,12,2,1.8197106123,0.171408340335,0.0464463047683,0.0,30.2000007629,0.6085988669899665,0.05732720412541805,0.01553388119341137,30.2000007629,0.0,0.8625958324358975,1.8283557615738437
1648219144153357327,64702,12,3,1.02317631245,1.28190004826,0.0466099046171,-0.242756426334,30.2000007629,0.34219943560200666,0.42872911313043477,0.015588596861906352,30.2000007629,-0.03280492247756756,0.6465365882131289,1.640832100885458
1648219144348332656,64703,14,0,0.00558340921998,0.0454158857465,0.0102001521736,0.0,26.0,0.0018673609431371235,0.015189259446989964,0.0034114221316387957,26.0,0.0,0.01541712282924028,0.04688091553096522
1648219144348338599,64704,14,1,0.0334378667176,0.0146502861753,-0.029412554577,0.0,26.0,0.01118323301591973,0.0048997612626421405,-0.009836974774916388,26.0,0.0,0.016557084942936142,0.04688091490561134
1648219144348500322,64705,14,2,1.69239664078,0.228544458747,0.653028130531,0.0809188112617,26.0,0.5660189434046822,0.07643627382842809,0.21840405703377924,26.0,0.010934974494824324,0.8041127983950261,1.8283557363413172
1648219144348519770,64706,14,3,2.46239447594,-0.339886635542,1.10206973553,0.161837622523,26.0,0.8235433029899665,-0.11367446004749163,0.3685851958294314,26.0,0.021869948989594594,1.1702004215801394,2.7190930808140887
1648219144348535199,64707,14,4,1.33623635769,-1.35954654217,-1.93896186352,0.161837622523,26.0,0.4469017918695652,-0.4546978401906354,-0.6484822286020067,26.0,0.021869948989594594,0.7785836814540136,2.7190931414947874
1648219144453342201,64708,15,0,0.00554364221171,0.0454158857465,0.0102218193933,0.0,17.6000003815,0.0018540609403712373,0.015189259446989964,0.003418668693411371,17.6000003815,0.0,0.015413912108520486,0.046880915507483835
1648219144453344533,64709,15,1,0.0334518700838,0.0146502861753,-0.0293966270983,0.0,17.6000003815,0.011187916415986623,0.0048997612626421405,-0.00983164785896321,17.6000003815,0.0,0.016563411722622077,0.0468809149001822
1648219144453346918,64710,15,2,1.87128078938,0.117202289402,0.0329247787595,0.0,17.6000003815,0.6258464178528428,0.03919809010100334,0.011011631692140467,17.6000003815,0.0,0.8859480615397477,1.8752365745153512
1648219144648400943,64711,17,0,0.00558340921998,0.0454158857465,0.0102001521736,0.0,16.0,0.0018673609431371235,0.015189259446989964,0.0034114221316387957,16.0,0.0,0.01541712282924028,0.04688091553096522
1648219144648403763,64712,17,1,0.033385772258,0.0146502861753,-0.0294716712087,0.0,16.0,0.01116581011973244,0.0048997612626421405,-0.009856746223645484,16.0,0.0,0.016533550486532746,0.04688091379351458
1648219144648406733,64713,17,2,1.8419367075,0.175803437829,0.304753541946,0.0,16.0,0.6160323436454849,0.05879713639765886,0.10192426152040134,16.0,0.0,0.8731831423494514,1.8752366262733533
1648219144648409476,64714,17,3,1.66832172871,-0.0,0.474888086319,0.242756426334,16.0,0.5579671333478261,-0.0,0.15882544692943143,16.0,0.03280492247756756,0.789084687338933,1.7345939251057132
1648219144753333164,64715,18,0,0.00558340921998,0.0454158857465,0.0102001521736,0.0,20.6000003815,0.0018673609431371235,0.015189259446989964,0.0034114221316387957,20.6000003815,0.0,0.01541712282924028,0.04688091553096522
1648219144753341958,64716,18,1,0.0334518700838,0.0146502861753,-0.0293966270983,0.0,20.6000003815,0.011187916415986623,0.0048997612626421405,-0.00983164785896321,20.6000003815,0.0,0.016563411722622077,0.0468809149001822
1648219144753356773,64717,18,2,1.70017206669,0.0556710883975,0.529120445251,0.242756426334,20.6000003815,0.5686194202976588,0.018619093109531772,0.17696335961571905,20.6000003815,0.03280492247756756,0.8043648182929884,1.7814748867213717
1648219144948379193,64718,20,0,0.00554364221171,0.0454158857465,0.0102218193933,0.0,26.5,0.0018540609403712373,0.015189259446989964,0.003418668693411371,26.5,0.0,0.015413912108520486,0.046880915507483835
1648219144948383871,64719,20,1,0.0334746651351,0.0146502861753,-0.0293706655502,0.0,26.5,0.011195540178963211,0.0048997612626421405,-0.009822965066956521,26.5,0.0,0.01657371111816686,0.04688091387533919
1648219144948386068,64720,20,2,1.79239082336,0.114272229373,0.342288762331,0.0,26.5,0.5994618138327759,0.03821813691404682,0.1144778469334448,26.5,0.0,0.8486280448326841,1.8283557101639447
1648219145053420136,64721,21,0,0.00558340921998,0.0454158857465,0.0102001521736,0.0,18.1000003815,0.0018673609431371235,0.015189259446989964,0.0034114221316387957,18.1000003815,0.0,0.01541712282924028,0.04688091553096522
1648219145053422709,64722,21,1,0.0335061661899,0.0146502861753,-0.0293347220868,0.0,18.1000003815,0.011206075648795987,0.0048997612626421405,-0.009810943841739129,18.1000003815,0.0,0.01658794512059783,0.046880912722270844
1648219145053424379,64723,21,2,1.86531996727,0.117202289402,0.152831628919,0.0,18.1000003815,0.6238528318628762,0.03919809010100334,0.05111425716354515,18.1000003815,0.0,0.8831314748746228,1.875236642062878
