%time,field.header.seq,field.header.frame_id,field.point_id,field.x,field.y,field.z,field.velocity,field.intensity,normalized_x,normalized_y,normalized_z,normalized_intensity,normalized_velocity,normalized_range,range
1648218307339699861,28905,0,0,0.00501889223233,0.0454158857465,0.0104894367978,0.0,17.2999992371,0.0016785592750267558,0.015189259446989964,0.003508172842073578,17.2999992371,0.0,0.015373637338884073,0.04688091553835019
1648218307339792831,28906,0,1,0.0334949493408,0.0146502861753,-0.0293475333601,0.0,17.2999992371,0.011202324194247491,0.0048997612626421405,-0.009815228548528428,17.2999992371,0.0,0.016582876564002216,0.046880915420703204
1648218307339795928,28907,0,2,0.482045024633,0.105482056737,-1.01116299629,0.0,17.2999992371,0.16121907178361203,0.035278279845150494,-0.33818160411036785,17.2999992371,0.0,0.23071136782215923,1.1251419799887779
1648218307339801653,28908,0,3,1.76800310612,0.0556710883975,0.211467117071,0.0,17.2999992371,0.5913053866622073,0.018619093109531772,0.0707247883180602,17.2999992371,0.0,0.8364393529836496,1.78147483702006
1648218307339803650,28909,0,4,2.07014584541,-1.19546329975,-0.0435183793306,0.0,17.2999992371,0.6923564700367892,-0.39982050158862875,-0.014554641916588628,17.2999992371,0.0,1.0576253574372116,2.390926634519973
1648218307534848226,28910,2,0,0.00497833499685,0.0454158857465,0.0105087459087,0.0,11.3999996185,0.0016649949822240802,0.015189259446989964,0.0035146307386956523,11.3999996185,0.0,0.015370687009032375,0.04688091549931189
1648218307534852361,28911,2,1,0.0334949493408,0.0146502861753,-0.0293475333601,0.0,11.3999996185,0.011202324194247491,0.0048997612626421405,-0.009815228548528428,11.3999996185,0.0,0.016582876564002216,0.046880915420703204
1648218307534859396,28912,2,2,0.504346549511,0.105482056737,-1.00022625923,0.0,11.3999996185,0.16867777575618728,0.035278279845150494,-0.3345238325183946,11.3999996185,0.0,0.2411409154352325,1.1251419803519724
1648218307534861754,28913,2,3,1.73241567612,0.054206058383,0.067923925817,0.0,11.3999996185,0.5794032361605351,0.01812911651605351,0.0227170320458194,11.3999996185,0.0,0.8196004422962779,1.734593909631338
1648218307534863710,28914,2,4,1.80634212494,0.117202289402,0.489800095558,0.0,11.3999996185,0.6041278009832776,0.03919809010100334,0.16381274098929766,11.3999996185,0.0,0.8552644562410785,1.87523662042486
1648218307534867989,28915,2,5,2.06986546516,-1.19546329975,-0.0552640818059,0.0,11.3999996185,0.6922626973779263,-0.39982050158862875,-0.018482970503645484,11.3999996185,0.0,1.0575025852698932,2.3909265282833414
1648218307535021738,28916,2,6,1.53859007359,0.096691891551,-0.129683226347,0.161837622523,11.3999996185,0.5145786199297658,0.032338425267892976,-0.043372316504013374,11.3999996185,0.021869948989594594,0.7284422323880267,1.5470702878787244
1648218307535026694,28917,2,7,1.83519589901,0.676843225956,0.225597068667,0.566431701183,11.3999996185,0.6137778926454849,0.22636897189163876,0.07545052463779263,11.3999996185,0.07654482448418919,0.897044878718976,1.96899841992237
1648218307639979006,28918,3,0,0.0049711689353,0.0454158857465,0.0105121377856,0.0,28.8999996185,0.0016625983061204013,0.015189259446989964,0.003515765145685618,28.8999996185,0.0,0.015370168144916397,0.046880915515227224
1648218307639982498,28919,3,1,0.0334949493408,0.0146502861753,-0.0293475333601,0.0,28.8999996185,0.011202324194247491,0.0048997612626421405,-0.009815228548528428,28.8999996185,0.0,0.016582876564002216,0.046880915420703204
1648218307639987574,28920,3,2,0.497762441635,0.105482056737,-1.00351905823,0.0,28.8999996185,0.1664757329882943,0.035278279845150494,-0.3356251030869565,28.8999996185,0.0,0.2380606989337225,1.1251419523005666
1648218307639992051,28921,3,3,1.81261014938,0.0586011447012,0.476993441582,0.0,28.8999996185,0.6062241302274247,0.019599045050568562,0.1595295791244147,28.8999996185,0.0,0.8575543800289807,1.8752366226980313
1648218307640001969,28922,3,4,2.07041287422,-1.19546329975,-0.0280696898699,0.0,28.8999996185,0.6924457773311037,-0.39982050158862875,-0.009387856143779265,28.8999996185,0.0,1.0577422855204075,2.3909265731666607
1648218307640169612,28923,3,5,1.9174464941,0.64461261034,0.403551369905,0.404594063759,28.8999996185,0.6412864528762542,0.21558950178595315,0.13496701334615385,28.8999996185,0.05467487348094594,0.9321885338092997,2.0627603310365292
1648218307834992991,28924,5,0,0.00501889223233,0.0454158857465,0.0104894367978,0.0,32.2000007629,0.0016785592750267558,0.015189259446989964,0.003508172842073578,32.2000007629,0.0,0.015373637338884073,0.04688091553835019
1648218307835001225,28925,5,1,0.0334949493408,0.0146502861753,-0.0293475333601,0.0,32.2000007629,0.011202324194247491,0.0048997612626421405,-0.009815228548528428,32.2000007629,0.0,0.016582876564002216,0.046880915420703204
1648218307835003873,28926,5,2,0.482045024633,0.105482056737,-1.01116299629,0.0,32.2000007629,0.16121907178361203,0.035278279845150494,-0.33818160411036785,32.2000007629,0.0,0.23071136782215923,1.1251419799887779
1648218307835006291,28927,5,3,1.73108279705,0.054206058383,0.0960731655359,0.0,32.2000007629,0.5789574572073578,0.01812911651605351,0.03213149349026755,32.2000007629,0.0,0.8189701700169987,1.7345939006418654
1648218307940029955,28928,6,0,0.00501889223233,0.0454158857465,0.0104894367978,0.0,19.2000007629,0.0016785592750267558,0.015189259446989964,0.003508172842073578,19.2000007629,0.0,0.015373637338884073,0.04688091553835019
1648218307940034643,28929,6,1,0.0334949493408,0.0146502861753,-0.0293475333601,0.0,19.2000007629,0.011202324194247491,0.0048997612626421405,-0.009815228548528428,19.2000007629,0.0,0.016582876564002216,0.046880915420703204
1648218307940037144,28930,6,2,0.489157795906,0.105482056737,-1.00774133205,0.0,19.2000007629,0.1635979250521739,0.035278279845150494,-0.33703723479933106,19.2000007629,0.0,0.23403657661055072,1.1251419492272927
1648218307940039411,28931,6,3,1.74929058552,0.111342176795,0.31817933917,0.0,19.2000007629,0.5850470185685619,0.037238186219063545,0.10641449470568562,19.2000007629,0.0,0.8282189990484473,1.7814748734677712
1648218307940041431,28932,6,4,1.57228910923,0.149432912469,-0.215074285865,-0.242756426334,19.2000007629,0.5258492004113712,0.04997756269866221,-0.07193119928595317,19.2000007629,-0.03280492247756756,0.7453405395655435,1.5939511243361806
