%time,field.header.seq,field.header.frame_id,field.point_id,field.x,field.y,field.z,field.velocity,field.intensity,normalized_x,normalized_y,normalized_z,normalized_intensity,normalized_velocity,normalized_range,range
1648127239203724953,101350,0,0,0.0126038333401,0.0439508594573,0.0103578744456,0.0,13.1000003815,0.004215328876287625,0.014699284099431437,0.003464172055384615,13.1000003815,0.0,0.01586212306427883,0.04688091535935669
1648127239203845759,101351,0,1,0.0328981243074,0.0146502861753,-0.0300150439143,0.0,13.1000003815,0.011002717159665552,0.0048997612626421405,-0.010038476225518393,13.1000003815,0.0,0.016313406456717926,0.04688091647078464
1648127239203876508,101352,0,2,1.3526777029,0.0424858294427,-0.129710882902,0.0,13.1000003815,0.4524005695317725,0.01420930750591973,-0.043381566187959866,13.1000003815,0.0,0.6399487909552936,1.359546588671926
1648127239203883777,101353,0,3,1.82188344002,-1.39177727699,0.488106191158,0.0,13.1000003815,0.6093255652240802,-0.4654773501638796,0.16324621777859533,13.1000003815,0.0,0.9794000471650369,2.3440458424722794
1648127239203902272,101354,0,4,1.87432909012,-1.24527442455,0.656302690506,0.0,13.1000003815,0.6268659164280936,-0.4164797406521739,0.2194992275939799,13.1000003815,0.0,0.9794779878752607,2.344045893764415
1648127239203938831,101355,0,5,2.4222984314,-0.902457654476,0.45870000124,0.0,13.1000003815,0.8101332546488293,-0.30182530250033446,0.1534113716521739,13.1000003815,0.0,1.1847912448213096,2.6253314457460033
1648127239308853787,101356,1,0,0.0125890737399,0.0439508594573,0.0103758089244,0.0,12.8000001907,0.004210392555150501,0.014699284099431437,0.003470170208829431,12.8000001907,0.0,0.01585950074790286,0.0468809154720728
1648127239308871520,101357,1,1,0.032785564661,0.0146502861753,-0.0301379524171,0.0,12.8000001907,0.010965071792976589,0.0048997612626421405,-0.010079582748193979,12.8000001907,0.0,0.01626263383591816,0.04688091627788627
1648127239308892931,101358,1,2,1.38310921192,-0.0879017189145,0.239417344332,0.0,12.8000001907,0.46257833174581936,-0.02939856819882943,0.08007269041204013,12.8000001907,0.0,0.654844792155845,1.4064275555651895
1648127239308906952,101359,1,3,1.83093357086,-1.39177727699,0.452978372574,0.0,12.8000001907,0.6123523648361204,-0.4654773501638796,0.1514977834695652,12.8000001907,0.0,0.983168348227487,2.3440458902648724
1648127239308951280,101360,1,4,2.42779755592,-0.902457654476,0.428642064333,0.0,12.8000001907,0.8119724267290969,-0.30182530250033446,0.14335854994414715,12.8000001907,0.0,1.187306597625944,2.62533137145944
1648127239308978835,101361,1,5,1.37521421909,-0.0,0.469990432262,0.0809188112617,12.8000001907,0.45993786591638797,-0.0,0.15718743553913042,12.8000001907,0.010934974494824324,0.650450367827894,1.4533083481509148
1648127239308983690,101362,1,6,1.47288572788,0.0483459457755,0.470847040415,0.0809188112617,12.8000001907,0.49260392236789297,0.016169212633946488,0.15747392656020065,12.8000001907,0.010934974494824324,0.6968347667142247,1.5470703388447111
1648127239308988833,101363,1,7,1.46092522144,0.328166425228,0.0925860255957,-0.0809188112617,12.8000001907,0.4886037529899665,0.10975465726688963,0.03096522595173913,12.8000001907,-0.010934974494824324,0.6996522991197363,1.5001892805316417
1648127239504000278,101364,3,0,0.0125890737399,0.0439508594573,0.0103758089244,0.0,15.1000003815,0.004210392555150501,0.014699284099431437,0.003470170208829431,15.1000003815,0.0,0.01585950074790286,0.0468809154720728
1648127239504007434,101365,3,1,0.0328607447445,0.0146502861753,-0.0300559606403,0.0,15.1000003815,0.010990215633612039,0.0048997612626421405,-0.010052160749264214,15.1000003815,0.0,0.016296543798531928,0.04688091509551231
1648127239504018331,101366,3,2,1.35332393646,0.0424858294427,-0.122785158455,0.0,15.1000003815,0.4526167011571906,0.01420930750591973,-0.04106527038628762,15.1000003815,0.0,0.6402543719121588,1.3595465853864088
1648127239504025866,101367,3,3,1.76110994816,-1.46502864361,0.49672344327,0.0,15.1000003815,0.5889999826622073,-0.489976134986622,0.16612824189632105,15.1000003815,0.0,0.9663946254034061,2.344045937092505
1648127239609016086,101368,4,0,0.0125890737399,0.0439508594573,0.0103758089244,0.0,12.0,0.004210392555150501,0.014699284099431437,0.003470170208829431,12.0,0.0,0.01585950074790286,0.0468809154720728
1648127239609119669,101369,4,1,0.0329373031855,0.0146502861753,-0.0299720410258,0.0,12.0,0.011015820463377925,0.0048997612626421405,-0.010024093988561873,12.0,0.0,0.016331082676713148,0.04688091370060926
1648127239609122866,101370,4,2,1.35811460018,0.0424858294427,-0.045678127557,0.0,12.0,0.4542189298260869,0.01420930750591973,-0.015276965738127089,12.0,0.0,0.642519709304321,1.3595465436176244
1648127239609126914,101371,4,3,1.84950351715,-1.39177727699,0.369923889637,0.0,12.0,0.6185630492140468,-0.4654773501638796,0.12372036442709029,12.0,0.0,0.9909135457856784,2.3440458469961905
1648127239609134177,101372,4,4,2.43069076538,-0.902457654476,0.411919623613,0.0,12.0,0.8129400553110367,-0.30182530250033446,0.1377657604056856,12.0,0.0,1.1886301276207167,2.625331444092995
1648127239609137692,101373,4,5,1.45383119583,0.338421612978,0.406537026167,0.161837622523,12.0,0.486231169173913,0.11318448594581938,0.1359655605909699,12.0,0.021869948989594594,0.6968875286667714,1.5470703564297996
1648127239609138918,101374,4,6,0.524837732315,-0.77207005024,-1.1138035059,-0.647350490093,12.0,0.1755310141521739,-0.25821740810702337,-0.37250953374581935,12.0,-0.08747979595851352,0.358187805080087,1.4533083146718315
1648127239609141453,101375,4,7,1.38452363014,-0.227079421282,0.378990978003,-0.647350490093,12.0,0.46305138131772566,-0.07594629474314381,0.12675283545250837,12.0,-0.08747979595851352,0.6592427498014066,1.453308263030759
1648127239803945529,101376,6,0,0.0125890737399,0.0439508594573,0.0103758089244,0.0,33.5999984741,0.004210392555150501,0.014699284099431437,0.003470170208829431,33.5999984741,0.0,0.01585950074790286,0.0468809154720728
1648127239803952172,101377,6,1,0.0328737124801,0.0146502861753,-0.0300417765975,0.0,33.5999984741,0.010994552668929765,0.0048997612626421405,-0.010047416922240803,33.5999984741,0.0,0.016302393603720582,0.04688091507614338
1648127239803955929,101378,6,2,1.35445284843,0.0424858294427,-0.109632603824,0.0,33.5999984741,0.4529942636889632,0.01420930750591973,-0.03666642268361204,33.5999984741,0.0,0.640788194561986,1.3595465685826302
1648127239803983443,101379,6,3,1.83593535423,-1.39177727699,0.432259589434,0.0,33.5999984741,0.614025202083612,-0.4654773501638796,0.1445684245598662,33.5999984741,0.0,0.9852527904569609,2.344045854140867
1648127239803989142,101380,6,4,2.42682695389,-0.902457654476,0.434103518724,0.0,33.5999984741,0.8116478106655518,-0.30182530250033446,0.14518512331906352,33.5999984741,0.0,1.1868626080325326,2.625331359508338
1648127239803996227,101381,6,5,1.40589165688,-0.0,0.523485124111,0.0809188112617,33.5999984741,0.4701978785551839,-0.0,0.17507863682642139,33.5999984741,0.010934974494824324,0.6649602168517985,1.500189330068142
1648127239908999108,101382,7,0,0.0125890737399,0.0439508594573,0.0103758089244,0.0,24.2999992371,0.004210392555150501,0.014699284099431437,0.003470170208829431,24.2999992371,0.0,0.01585950074790286,0.0468809154720728
1648127239909012535,101383,7,1,0.0327725186944,0.0146502861753,-0.0301521364599,0.0,24.2999992371,0.010960708593444817,0.0048997612626421405,-0.01008432657521739,24.2999992371,0.0,0.01625675017251968,0.04688091509014532
1648127239909101481,101384,7,2,1.35419046879,0.0424858294427,-0.112827479839,0.0,24.2999992371,0.4529065113010033,0.01420930750591973,-0.037734943089966555,24.2999992371,0.0,0.6406641244657683,1.3595465831195097
1648127239909111504,101385,7,3,1.81344771385,-1.39177727699,0.518569350243,0.0,24.2999992371,0.6065042521237458,-0.4654773501638796,0.1734345652986622,24.2999992371,0.0,0.9758913767443359,2.3440458123989254
1648127239909193155,101386,7,4,2.41179585457,-0.984499275684,0.326139509678,0.0,24.2999992371,0.8066206871471571,-0.32926397180066885,0.10907675908963209,24.2999992371,0.0,1.187303090619011,2.625331416738916
1648127239909197050,101387,7,5,1.39312529564,-0.0,0.556569635868,0.161837622523,24.2999992371,0.4659281925217391,-0.0,0.1861436909257525,24.2999992371,0.021869948989594594,0.6589219689562259,1.5001892710329172
