%time,field.header.seq,field.header.frame_id,field.point_id,field.x,field.y,field.z,field.velocity,field.intensity,normalized_x,normalized_y,normalized_z,normalized_intensity,normalized_velocity,normalized_range,range
1648218007730329356,15573,0,0,0.0334379263222,0.0146502861753,-0.0294124856591,0.0,22.0,0.011183252950568563,0.0048997612626421405,-0.009836951725451504,22.0,0.0,0.01655711187205333,0.04688091418044048
1648218007730359228,15574,0,1,0.00462807761505,0.0454158857465,0.0106676360592,0.0,22.0,0.001547852045167224,0.015189259446989964,0.0035677712572575247,22.0,0.0,0.015346181754932742,0.046880915516248324
1648218007730369529,15575,0,2,1.82009804249,0.114272229373,0.130650863051,0.0,22.0,0.6087284423043477,0.03821813691404682,0.04369594081973244,22.0,0.0,0.8617199422838815,1.8283557298014455
1648218007730411484,15576,0,3,1.21326804161,1.47674882412,-0.47344315052,0.0,22.0,0.4057752647525083,0.49389592779933106,-0.15834219080936454,22.0,0.0,0.7571263556809381,1.968998437558108
1648218007835328545,15577,1,0,0.00462807761505,0.0454158857465,0.0106676360592,0.0,11.8000001907,0.001547852045167224,0.015189259446989964,0.0035677712572575247,11.8000001907,0.0,0.015346181754932742,0.046880915516248324
1648218007835390644,15578,1,1,0.0335328951478,0.0146502861753,-0.0293041653931,0.0,11.8000001907,0.011215015099598663,0.0048997612626421405,-0.00980072421173913,11.8000001907,0.0,0.016600023728878838,0.04688091350856652
1648218007835419582,15579,1,2,1.8660775423,0.175803437829,0.0579652898014,0.0,11.8000001907,0.624106201438127,0.05879713639765886,0.019386384548963208,11.8000001907,0.0,0.8845757201029321,1.8752365763952727
1648218007835434832,15580,1,3,2.0939245224,-1.21890377998,0.269554287195,0.0,11.8000001907,0.7003092048160535,-0.407660127083612,0.0901519355167224,11.8000001907,0.0,1.071005482672247,2.4378075896392652
1648218007835456152,15581,1,4,1.88415133953,0.360397040844,0.120927900076,0.161837622523,11.8000001907,0.6301509496755853,0.12053412737257524,0.04044411373779264,11.8000001907,0.021869948989594594,0.8992824442940895,1.9221175443553384
1648218008030387003,15582,3,0,0.0334379263222,0.0146502861753,-0.0294124856591,0.0,24.0,0.011183252950568563,0.0048997612626421405,-0.009836951725451504,24.0,0.0,0.01655711187205333,0.04688091418044048
1648218008030438576,15583,3,1,0.00462807761505,0.0454158857465,0.0106676360592,0.0,24.0,0.001547852045167224,0.015189259446989964,0.0035677712572575247,24.0,0.0,0.015346181754932742,0.046880915516248324
1648218008030461114,15584,3,2,1.86423802376,0.175803437829,-0.101103745401,0.0,24.0,0.6234909778461538,0.05879713639765886,-0.03381396167257525,24.0,0.0,0.8837075886059093,1.8752365784932834
1648218008030635821,15585,3,3,2.09373521805,-1.21890377998,0.271020412445,0.0,24.0,0.7002458923244147,-0.407660127083612,0.090642278409699,24.0,0.0,1.0709226856539449,2.4378075502619705
1648218008135378376,15586,4,0,0.00462807761505,0.0454158857465,0.0106676360592,0.0,11.1999998093,0.001547852045167224,0.015189259446989964,0.0035677712572575247,11.1999998093,0.0,0.015346181754932742,0.046880915516248324
1648218008135413156,15587,4,1,0.033452514559,0.0146502861753,-0.0293958913535,0.0,11.1999998093,0.011188131959531772,0.0048997612626421405,-0.009831401790468227,11.1999998093,0.0,0.01656370290480607,0.04688091342758873
1648218008135472708,15588,4,2,1.89931964874,0.240264698863,0.17144677043,0.0,11.1999998093,0.6352239627892976,0.08035608657625418,0.057340057,11.1999998093,0.0,0.9019290806118452,1.9221176469457955
1648218008135495641,15589,4,3,1.74566376209,0.167013257742,0.31371486187,0.0809188112617,11.1999998093,0.5838340341438126,0.05585727683678929,0.10492135848494982,11.1999998093,0.010934974494824324,0.8275532576365698,1.7814747859832092
1648218008135528206,15590,4,4,1.61578655243,-0.205104008317,0.198735848069,0.161837622523,11.1999998093,0.5403968402775919,-0.06859665829999999,0.06646683881906354,11.1999998093,0.021869948989594594,0.7673089283293512,1.6408320372753056
1648218008135716442,15591,4,5,1.68425917625,0.571361124516,0.4239128232,-0.242756426334,11.1999998093,0.563297383361204,0.19109067709565214,0.14177686394648828,11.1999998093,-0.03280492247756756,0.8192212955459797,1.8283557063831728
1648218008330549529,15592,6,0,0.00458371732384,0.0454158857465,0.0106867719442,0.0,28.7000007629,0.0015330158273712375,0.015189259446989964,0.0035741712187959867,28.7000007629,0.0,0.01534320297727679,0.04688091549054212
1648218008330568442,15593,6,1,0.0334379263222,0.0146502861753,-0.0294124856591,0.0,28.7000007629,0.011183252950568563,0.0048997612626421405,-0.009836951725451504,28.7000007629,0.0,0.01655711187205333,0.04688091418044048
1648218008330585281,15594,6,2,2.13877439499,-1.14272224903,0.250470668077,0.0,28.7000007629,0.7153091622040133,-0.3821813541906354,0.08376945420635452,28.7000007629,0.0,1.081386601802058,2.4378075409391857
1648218008330612388,15595,6,3,1.8165678978,0.114272229373,0.17293792963,0.0809188112617,28.7000007629,0.6075477919063544,0.03821813691404682,0.05783877245150501,28.7000007629,0.010934974494824324,0.8600518966258691,1.828355708615831
1648218008330782723,15596,6,4,1.6363877058,-0.0,0.413049429655,0.485512852669,28.7000007629,0.5472868581270903,-0.0,0.138143621958194,28.7000007629,0.06560984495527027,0.7739804972718911,1.6877128177008398
1648218008330801503,15597,6,5,1.69608569145,0.399952799082,0.553367376328,-0.161837622523,28.7000007629,0.5672527396153846,0.13376347795384613,0.18507270111304347,28.7000007629,-0.021869948989594594,0.8132920811348329,1.8283556457700143
1648218008330826425,15598,6,6,1.67289102077,0.278355449438,0.545533359051,-0.0809188112617,28.7000007629,0.5594953246722408,0.09309546803946488,0.18245262844515048,28.7000007629,-0.010934974494824324,0.7967037108170636,1.7814748859981695
1648218008435414207,15599,7,0,0.0334379263222,0.0146502861753,-0.0294124856591,0.0,18.0,0.011183252950568563,0.0048997612626421405,-0.009836951725451504,18.0,0.0,0.01655711187205333,0.04688091418044048
1648218008435473187,15600,7,1,0.004681377206,0.0454158857465,0.0106443539262,0.0,18.0,0.0015656779953177255,0.015189259446989964,0.0035599845907023408,18.0,0.0,0.015349797969941433,0.04688091553276458
1648218008435541005,15601,7,2,1.82029509544,0.171408340335,-0.00543172471225,0.0,18.0,0.6087943463010033,0.05732720412541805,-0.0018166303385451503,18.0,0.0,0.8628716709389462,1.8283556976837596
1648218008435559010,15602,7,3,1.14996314049,1.53828001022,-0.433859467506,0.0,18.0,0.38460305702006686,0.51447491980602,-0.1451035008381271,18.0,0.0,0.748681151123609,1.9689983879812234
1648218008435596172,15603,7,4,1.81113266945,0.676843225956,0.372339457273,0.0,18.0,0.6057299897826087,0.22636897189163876,0.12452824657959866,18.0,0.0,0.8860364284155342,1.9689984688450015
1648218008435662955,15604,7,5,2.14010596275,-1.14272224903,0.238825455308,0.0,18.0,0.7157545025919732,-0.3821813541906354,0.0798747342167224,18.0,0.0,1.0819757869066913,2.437807471546791
1648218008435684774,15605,7,6,1.64054512978,0.054206058383,0.560793757439,0.242756426334,18.0,0.5486773009297659,0.01812911651605351,0.18755644061505014,18.0,0.03280492247756756,0.776158634543737,1.7345939749672976
1648218008630370701,15606,9,0,0.00463759712875,0.0454158857465,0.010663500987,0.0,25.1000003815,0.0015510358290133778,0.015189259446989964,0.003566388289966555,25.1000003815,0.0,0.015346824649866184,0.04688091550479237
1648218008630406513,15607,9,1,0.033452514559,0.0146502861753,-0.0293958913535,0.0,25.1000003815,0.011188131959531772,0.0048997612626421405,-0.009831401790468227,25.1000003815,0.0,0.01656370290480607,0.04688091342758873
1648218008630442720,15608,9,2,1.6834744215,0.054206058383,0.414477556944,0.0,25.1000003815,0.5630349235785953,0.01812911651605351,0.13862125650301002,25.1000003815,0.0,0.7964579808150346,1.734593920726245
1648218008630619885,15609,9,3,0.660396695137,-1.57197570801,0.318723201752,0.0,25.1000003815,0.2208684599120401,-0.5257443839498328,0.10659638854581938,25.1000003815,0.0,0.6115332455579354,1.7345938720220533
1648218008630634193,15610,9,4,1.86680436134,0.175803437829,-0.0254314392805,0.0,25.1000003815,0.624349284729097,0.05879713639765886,-0.008505498087123744,25.1000003815,0.0,0.8849187318234568,1.87523655317787
1648218008630650153,15611,9,5,1.22267651558,1.53828001022,-0.125345781446,0.0,25.1000003815,0.40892191156521734,0.51447491980602,-0.041921666035451506,25.1000003815,0.0,0.7740275851839608,1.9689984297910452
1648218008630694733,15612,9,6,2.08609414101,-1.21890377998,0.324638903141,0.0,25.1000003815,0.6976903481638794,-0.407660127083612,0.10857488399364548,25.1000003815,0.0,1.0675815767686783,2.43780754109884
1648218008735601085,15613,10,0,0.03341537714,0.0146502861753,-0.0294381007552,0.0,11.6000003815,0.0111757114180602,0.0048997612626421405,-0.009845518647224081,11.6000003815,0.0,0.016546924542959963,0.046880913925604395
1648218008735649046,15614,10,1,0.004681377206,0.0454158857465,0.0106443539262,0.0,11.6000003815,0.0015656779953177255,0.015189259446989964,0.0035599845907023408,11.6000003815,0.0,0.015349797969941433,0.04688091553276458
1648218008735664800,15615,10,2,1.65373337269,0.054206058383,0.520618319511,0.0,11.6000003815,0.5530880845117057,0.01812911651605351,0.1741198393013378,11.6000003815,0.0,0.7823947362574137,1.7345938427552778
1648218008735679724,15616,10,3,0.787536740303,-1.51776957512,0.29150891304,0.0,11.6000003815,0.26339021414816055,-0.5076152425150501,0.09749461974581938,11.6000003815,0.0,0.6296205557727931,1.734593914110384
1648218008735700401,15617,10,4,1.78492391109,0.228544458747,0.323571622372,0.0,11.6000003815,0.5969645187591972,0.07643627382842809,0.10821793390367891,11.6000003815,0.0,0.8476884907037339,1.8283556909992185
1648218008735724581,15618,10,5,1.22438502312,1.53828001022,-0.107381030917,0.0,11.6000003815,0.40949331876923073,0.51447491980602,-0.035913388266555185,11.6000003815,0.0,0.7746315248830816,1.968998415561527
1648218008735774617,15619,10,6,1.96780788898,-0.0,0.0684621334076,0.0,11.6000003815,0.6581297287558527,-0.0,0.022897034584481606,11.6000003815,0.0,0.9307359882074533,1.9689984641036782
