%time,field.header.seq,field.header.frame_id,field.point_id,field.x,field.y,field.z,field.velocity,field.intensity,normalized_x,normalized_y,normalized_z,normalized_intensity,normalized_velocity,normalized_range,range
1648294893160637161,28005,0,0,0.0126092592254,0.0439508594573,0.0103512695059,0.0,14.1000003815,0.004217143553645485,0.014699284099431437,0.0034619630454515047,14.1000003815,0.0,0.015863087736626348,0.04688091558014249
1648294893160642923,28006,0,1,0.0335651524365,0.0146502861753,-0.0292672142386,0.0,14.1000003815,0.011225803490468226,0.0048997612626421405,-0.009788365966086955,14.1000003815,0.0,0.01661460166372055,0.046880914799007266
1648294893160660122,28007,0,2,0.355979770422,-0.5845464468,-0.57008510828,0.0,14.1000003815,0.11905677940535117,-0.19550048387959865,-0.19066391581270903,14.1000003815,0.0,0.2580106056771816,0.8907374338708487
1648294893160663474,28008,0,3,1.96105623245,-0.061531201005,0.165611311793,0.0,14.1000003815,0.6558716496488294,-0.020578996991638794,0.05538839859297659,14.1000003815,0.0,0.9277708427965041,1.968998410898776
1648294893160665398,28009,0,4,2.2392885685,-1.2306240797,0.602922797203,0.0,14.1000003815,0.7489259426421404,-0.4115799597658863,0.20164642046923076,14.1000003815,0.0,1.1363002237110251,2.625331372977389
1648294893265630176,28010,1,0,0.0127122588456,0.0439508594573,0.0102245127782,0.0,14.3999996185,0.004251591587157191,0.014699284099431437,0.0034195694910367893,14.3999996185,0.0,0.015881467661515717,0.04688091545122009
1648294893265645621,28011,1,1,0.033514522016,0.0146502861753,-0.0293251797557,0.0,14.3999996185,0.011208870239464881,0.0048997612626421405,-0.009807752426655518,14.3999996185,0.0,0.016591720963215706,0.0468809155060271
1648294893265649937,28012,1,2,0.362225025892,-0.5845464468,-0.566137492657,0.0,14.3999996185,0.12114549360936454,-0.19550048387959865,-0.18934364302909698,14.3999996185,0.0,0.25994788023923254,0.8907374351855433
1648294893265653058,28013,1,3,1.4716026783,-1.68478298187,0.700316488743,0.0,14.3999996185,0.4921748087959866,-0.5634725691872909,0.23421956145250836,14.3999996185,0.0,0.8955296874215048,2.344045930263276
1648294893265657399,28014,1,4,2.1951751709,-1.31266570091,0.592013001442,0.0,14.3999996185,0.734172297959866,-0.4390186290668896,0.19799765934515048,14.3999996185,0.0,1.1272778197281768,2.6253313442607107
1648294893460656315,28015,3,0,0.0126799661666,0.0439508594573,0.0102645335719,0.0,14.8000001907,0.004240791360066889,0.014699284099431437,0.00343295437187291,14.8000001907,0.0,0.015875691347309377,0.04688091550375397
1648294893460668139,28016,3,1,0.0335651524365,0.0146502861753,-0.0292672142386,0.0,14.8000001907,0.011225803490468226,0.0048997612626421405,-0.009788365966086955,14.8000001907,0.0,0.01661460166372055,0.046880914799007266
1648294893460697618,28017,3,2,0.340251773596,-0.612381994724,-0.550118327141,0.0,14.8000001907,0.1137965797979933,-0.20481003168026754,-0.1839860625889632,14.8000001907,0.0,0.26047355379061865,0.8907374196438482
1648294893460812120,28018,3,3,2.23836660385,-1.2306240797,0.606336355209,0.0,14.8000001907,0.7486175932608695,-0.4115799597658863,0.20278807866521736,14.8000001907,0.0,1.1358937737131416,2.6253313037436987
1648294893460814868,28019,3,4,1.9580450058,-0.061531201005,0.198062583804,0.0809188112617,14.8000001907,0.6548645504347825,-0.020578996991638794,0.06624166682408027,14.8000001907,0.010934974494824324,0.9263469403789714,1.968998506992465
1648294893565754268,28020,4,0,0.0127002792433,0.0439508594573,0.010239389725,0.0,20.7999992371,0.004247585031204013,0.014699284099431437,0.003424545058528428,20.7999992371,0.0,0.015879323355559413,0.04688091553962624
1648294893565760117,28021,4,1,0.0335651524365,0.0146502861753,-0.0292672142386,0.0,20.7999992371,0.011225803490468226,0.0048997612626421405,-0.009788365966086955,20.7999992371,0.0,0.01661460166372055,0.046880914799007266
1648294893565763075,28022,4,2,0.340251773596,-0.612381994724,-0.550118327141,0.0,20.7999992371,0.1137965797979933,-0.20481003168026754,-0.1839860625889632,20.7999992371,0.0,0.26047355379061865,0.8907374196438482
1648294893565776530,28023,4,3,1.96311128139,-0.061531201005,-0.139150261879,0.0,20.7999992371,0.656558956986622,-0.020578996991638794,-0.04653854912341137,20.7999992371,0.0,0.9287426032630913,1.968998422345432
1648294893565927504,28024,4,4,2.19778156281,-1.31266570091,0.582263231277,0.0,20.7999992371,0.7350440009397993,-0.4390186290668896,0.19473686664782605,20.7999992371,0.0,1.1284133654396984,2.6253315049094734
1648294893565936779,28025,4,5,1.95781767368,-0.12306240201,0.169588789344,0.161837622523,20.7999992371,0.654788519625418,-0.04115799398327759,0.05671865864347826,20.7999992371,0.021869948989594594,0.9269250192627343,1.9689984143298342
1648294893760715766,28026,6,0,0.0125885810703,0.0439508594573,0.0103764068335,0.0,22.8999996185,0.00421022778270903,0.014699284099431437,0.003470370178428093,22.8999996185,0.0,0.01585941326154243,0.0468809155112521
1648294893760718446,28027,6,1,0.0335994325578,0.0146502861753,-0.0292278509587,0.0,22.8999996185,0.011237268413979932,0.0048997612626421405,-0.009775200989531772,22.8999996185,0.0,0.01663009510635915,0.0468809132258355
1648294893760721416,28028,6,2,0.337701350451,-0.612381994724,-0.551687657833,0.0,22.8999996185,0.11294359546856188,-0.20481003168026754,-0.1845109223521739,22.8999996185,0.0,0.2597299763054016,0.8907374368262713
1648294893760833157,28029,6,3,2.23824834824,-1.2306240797,0.606772959232,0.0,22.8999996185,0.748578042889632,-0.4115799597658863,0.20293410007759197,22.8999996185,0.0,1.1358416420759683,2.6253313539421494
1648294893760956216,28030,6,4,1.24172961712,-0.111342176795,-1.27254199982,-0.566431701183,22.8999996185,0.4152941863277592,-0.037238186219063545,-0.42559933104347825,22.8999996185,-0.07654482448418919,0.5884940143350286,1.7814748563121277
1648294893760978810,28031,6,5,1.63256072998,0.556710898876,0.445500999689,-0.566431701183,22.8999996185,0.5460069331036789,0.18619093607892975,0.14899698986254178,22.8999996185,-0.07654482448418919,0.7943010806190047,1.781474867272635
1648294893866077889,28032,7,0,0.0126008521765,0.0439508594573,0.010361501947,0.0,25.6000003815,0.0042143318316053505,0.014699284099431437,0.0034653852665551834,25.6000003815,0.0,0.01586159319266391,0.04688091557560524
1648294893866125702,28033,7,1,0.033514522016,0.0146502861753,-0.0293251797557,0.0,25.6000003815,0.011208870239464881,0.0048997612626421405,-0.009807752426655518,25.6000003815,0.0,0.016591720963215706,0.0468809155060271
1648294893866145296,28034,7,2,0.334084033966,-0.612381994724,-0.553885638714,0.0,25.6000003815,0.11173379062408026,-0.20481003168026754,-0.1852460330147157,25.6000003815,0.0,0.25868132714079656,0.8907374192132922
1648294893866164769,28035,7,3,1.96465957165,-0.12306240201,-0.0438519604504,0.0,25.6000003815,0.6570767798160534,-0.04115799398327759,-0.014666207508494981,25.6000003815,0.0,0.9301579272443987,1.9689983701617875
1648294893866204928,28036,7,4,2.24006533623,-1.2306240797,0.600030243397,0.0,25.6000003815,0.7491857311806019,-0.4115799597658863,0.20067901116956519,25.6000003815,0.0,1.1366426803926177,2.6253313370140074
1648294893866400063,28037,7,5,2.25152587891,0.143572807312,-0.432416349649,0.242756426334,25.6000003815,0.7530186885986622,0.0480176613083612,-0.14462085272541805,25.6000003815,0.03280492247756756,1.066011250670096,2.29716473807271
1648294894061112469,28038,9,0,0.0126920221373,0.0439508594573,0.0102496230975,0.0,17.3999996185,0.00424482345729097,0.014699284099431437,0.0034279675911371237,17.3999996185,0.0,0.015877846371688233,0.04688091559056686
1648294894061216490,28039,9,1,0.033514522016,0.0146502861753,-0.0293251797557,0.0,17.3999996185,0.011208870239464881,0.0048997612626421405,-0.009807752426655518,17.3999996185,0.0,0.016591720963215706,0.0468809155060271
1648294894061632609,28040,9,2,0.340845584869,-0.612381994724,-0.549750626087,0.0,17.3999996185,0.11399517888595317,-0.20481003168026754,-0.18386308564782608,17.3999996185,0.0,0.2606471766494951,0.8907374310479405
1648294894061646134,28041,9,3,2.23817753792,-1.2306240797,0.607034504414,0.0,17.3999996185,0.7485543605083611,-0.4115799597658863,0.20302157338260868,17.3999996185,0.0,1.135810426326969,2.6253314469484144
1648294894061676179,28042,9,4,1.87187683582,-0.120132349432,0.419739663601,0.0809188112617,17.3999996185,0.6260457644882943,-0.040178043288294316,0.14038115839498327,17.3999996185,0.010934974494824324,0.8862735884758959,1.9221175965740047
1648294894061702464,28043,9,5,1.6962313652,-0.334026515484,0.42997443676,0.161837622523,17.3999996185,0.5673014599331103,-0.11171455367357858,0.14380415945150501,17.3999996185,0.021869948989594594,0.8100259467368707,1.7814748310323438
1648294894166147567,28044,10,0,0.0126920221373,0.0439508594573,0.0102496230975,0.0,31.6000003815,0.00424482345729097,0.014699284099431437,0.0034279675911371237,31.6000003815,0.0,0.015877846371688233,0.04688091559056686
1648294894166198545,28045,10,1,0.0335372425616,0.0146502861753,-0.0292991939932,0.0,31.6000003815,0.011216469084147156,0.0048997612626421405,-0.00979906153618729,31.6000003815,0.0,0.016601988370738802,0.04688091607791967
1648294894166220056,28046,10,2,0.331210166216,-0.612381994724,-0.555608928204,0.0,31.6000003815,0.11077263084147157,-0.20481003168026754,-0.1858223840147157,31.6000003815,0.0,0.2578532539332286,0.8907374263872453
1648294894166314143,28047,10,3,1.76900362968,0.117202289402,0.611066162586,0.0,31.6000003815,0.5916400099264214,0.03919809010100334,0.20436995404214045,31.6000003815,0.0,0.8376230016893271,1.8752365380185148
1648294894166357360,28048,10,4,2.23482346535,-1.2306240797,0.619267880917,0.0,31.6000003815,0.7474325971070234,-0.4115799597658863,0.20711300365117055,31.6000003815,0.0,1.1343319786187767,2.6253312657933066
1648294894166396615,28049,10,5,1.72451245785,-0.285680562258,0.536029934883,0.242756426334,31.6000003815,0.5767600193478261,-0.09554533854782607,0.17927422571337792,31.6000003815,0.03280492247756756,0.8212387908242207,1.828355734539252
1648294894361037472,28050,12,0,0.00634802924469,0.0454158857465,0.00974269397557,0.0,30.2999992371,0.002123086703909699,0.015189259446989964,0.003258426078785953,30.2999992371,0.0,0.015483171408100157,0.046880915512948214
1648294894361082455,28051,12,1,0.0335994325578,0.0146502861753,-0.0292278509587,0.0,30.2999992371,0.011237268413979932,0.0048997612626421405,-0.009775200989531772,30.2999992371,0.0,0.01663009510635915,0.0468809132258355
1648294894361092459,28052,12,2,0.342057079077,-0.612381994724,-0.54899764061,0.0,30.2999992371,0.11440036089531772,-0.20481003168026754,-0.18361125104013376,30.2999992371,0.0,0.2610019812622695,0.8907374260713316
1648294894361272519,28053,12,3,1.96247756481,-0.12306240201,0.1024312675,0.0,30.2999992371,0.6563470116421404,-0.04115799398327759,0.03425794899665552,30.2999992371,0.0,0.9291268911466632,1.96899840318186
1648294894361283766,28054,12,4,2.23659825325,-1.2306240797,0.612827599049,0.0,30.2999992371,0.7480261716555183,-0.4115799597658863,0.2049590632270903,30.2999992371,0.0,1.1351142542687545,2.625331414914046
1648294894361292138,28055,12,5,1.73489451408,-0.34281668067,0.464222282171,0.161837622523,30.2999992371,0.5802322789565217,-0.1146544082508361,0.15525828835150499,30.2999992371,0.021869948989594594,0.8285436792454016,1.828355703574807
1648294894361304488,28056,12,6,1.78753376007,0.0586011447012,0.563738703728,-0.0809188112617,30.2999992371,0.5978373779498327,0.019599045050568562,0.1885413724842809,30.2999992371,-0.010934974494824324,0.845696862661058,1.8752366153718334
1648294894466242855,28057,13,0,0.0126799661666,0.0439508594573,0.0102645335719,0.0,18.7999992371,0.004240791360066889,0.014699284099431437,0.00343295437187291,18.7999992371,0.0,0.015875691347309377,0.04688091550375397
1648294894466269591,28058,13,1,0.033514522016,0.0146502861753,-0.0293251797557,0.0,18.7999992371,0.011208870239464881,0.0048997612626421405,-0.009807752426655518,18.7999992371,0.0,0.016591720963215706,0.0468809155060271
1648294894466302080,28059,13,2,0.335665792227,-0.612381994724,-0.552928507328,0.0,18.7999992371,0.11226280676488293,-0.20481003168026754,-0.18492592218327758,18.7999992371,0.0,0.2591390064083967,0.8907374280614321
1648294894466322456,28060,13,3,1.96136331558,-0.12306240201,0.121919222176,0.0,18.7999992371,0.6559743530367893,-0.04115799398327759,0.04077565959063545,18.7999992371,0.0,0.9286003899163494,1.9689984020378084
1648294894466360164,28061,13,4,2.23498344421,-1.2306240797,0.618690311909,0.0,18.7999992371,0.7474861017424749,-0.4115799597658863,0.20691983675886289,18.7999992371,0.0,1.134402489364869,2.6253312788066046
1648294894661135261,28062,15,0,0.0126092592254,0.0439508594573,0.0103512695059,0.0,14.3999996185,0.004217143553645485,0.014699284099431437,0.0034619630454515047,14.3999996185,0.0,0.015863087736626348,0.04688091558014249
1648294894661159351,28063,15,1,0.0335651524365,0.0146502861753,-0.0292672142386,0.0,14.3999996185,0.011225803490468226,0.0048997612626421405,-0.009788365966086955,14.3999996185,0.0,0.01661460166372055,0.046880914799007266
1648294894661186206,28064,15,2,0.351303458214,-0.612381994724,-0.54312735796,0.0,14.3999996185,0.11749279538929765,-0.20481003168026754,-0.18164794580602006,14.3999996185,0.0,0.26373521382942955,0.8907374215670243
1648294894661389316,28065,15,3,1.96648573875,-0.061531201005,0.0781182944775,0.0,14.3999996185,0.6576875380434782,-0.020578996991638794,0.026126519892140466,14.3999996185,0.0,0.9303382667140835,1.9689984046048195
1648294894661413121,28066,15,4,2.2373085022,-1.2306240797,0.610229611397,0.0,14.3999996185,0.7482637131103678,-0.4115799597658863,0.20409017103578594,14.3999996185,0.0,1.1354273345293031,2.6253314339678355
1648294894661427786,28067,15,5,1.8330000639,-0.0,0.395756453276,-0.0809188112617,14.3999996185,0.6130434996321069,-0.0,0.1323600178180602,14.3999996185,-0.010934974494824324,0.8669744315043911,1.8752366262866673
1648294894766260082,28068,16,0,0.0126092592254,0.0439508594573,0.0103512695059,0.0,16.8999996185,0.004217143553645485,0.014699284099431437,0.0034619630454515047,16.8999996185,0.0,0.015863087736626348,0.04688091558014249
1648294894766288010,28069,16,1,0.033514522016,0.0146502861753,-0.0293251797557,0.0,16.8999996185,0.011208870239464881,0.0048997612626421405,-0.009807752426655518,16.8999996185,0.0,0.016591720963215706,0.0468809155060271
1648294894766295962,28070,16,2,0.335832625628,-0.612381994724,-0.552827179432,0.0,16.8999996185,0.1123186038889632,-0.20481003168026754,-0.18489203325484949,16.8999996185,0.0,0.25918735817165894,0.8907374193425817
1648294894766304450,28071,16,3,2.19551920891,-1.31266570091,0.590736329556,0.0,16.8999996185,0.7342873608394648,-0.4390186290668896,0.19757067878127088,16.8999996185,0.0,1.1274276975686486,2.625331455282481
