%time,field.header.seq,field.header.frame_id,field.point_id,field.x,field.y,field.z,field.velocity,field.intensity,normalized_x,normalized_y,normalized_z,normalized_intensity,normalized_velocity,normalized_range,range
1648219932362317220,92479,0,0,0.0122609948739,0.0439508594573,0.0107615143061,0.0,16.5,0.004100667181906354,0.014699284099431437,0.003599168664247491,16.5,0.0,0.01580189532016098,0.046880915440011765
1648219932362408659,92480,0,1,0.0334718860686,0.0146502861753,-0.0293738357723,0.0,16.5,0.01119461072528428,0.0048997612626421405,-0.009824025341906354,16.5,0.0,0.016572455430991152,0.04688091583987642
1648219932362413275,92481,0,2,1.66446506977,-0.487854540348,0.0192341059446,0.0,16.5,0.5566772808595317,-0.16316205362809363,0.00643281135270903,16.5,0.0,0.8039907000671468,1.7345938924872581
1648219932362424585,92482,0,3,1.86676239967,0.175803437829,0.0283489953727,0.0,16.5,0.6243352507257525,0.05879713639765886,0.00948126935541806,16.5,0.0,0.8848989286049234,1.8752366173666815
1648219932557451529,92483,2,0,0.0122742131352,0.0439508594573,0.0107464361936,0.0,17.2000007629,0.004105088005083611,0.014699284099431437,0.0035941258172575248,17.2000007629,0.0,0.01580419083960835,0.04688091558392145
1648219932557454804,92484,2,1,0.0334718860686,0.0146502861753,-0.0293738357723,0.0,17.2000007629,0.01119461072528428,0.0048997612626421405,-0.009824025341906354,17.2000007629,0.0,0.016572455430991152,0.04688091583987642
1648219932557666034,92485,2,2,1.61930644512,-0.474669247866,-0.030180670321,0.0,17.2000007629,0.5415740619130435,-0.15875225681137123,-0.01009386967257525,17.2000007629,0.0,0.7821810583980474,1.687712988318177
1648219932557670846,92486,2,3,1.82030308247,0.171408340335,0.000584610679653,0.0,17.2000007629,0.6087970175484949,0.05732720412541805,0.0001955219664391304,17.2000007629,0.0,0.8628754403068395,1.8283556746311231
1648219932662373260,92487,3,0,0.0122609948739,0.0439508594573,0.0107615143061,0.0,12.6999998093,0.004100667181906354,0.014699284099431437,0.003599168664247491,12.6999998093,0.0,0.01580189532016098,0.046880915440011765
1648219932662405722,92488,3,1,0.0333878919482,0.0146502861753,-0.0294692683965,0.0,12.6999998093,0.011166519046220735,0.0048997612626421405,-0.009855942607525084,12.6999998093,0.0,0.016534508025644712,0.04688091289200561
1648219932662424064,92489,3,2,1.66077828407,-0.487854540348,0.112379871309,0.0,12.6999998093,0.5554442421638796,-0.16316205362809363,0.03758524124046823,12.6999998093,0.0,0.802283284164733,1.734593842042592
1648219932662427695,92490,3,3,0.664417803288,-1.46356356144,0.652186095715,0.0,12.6999998093,0.22221331213645484,-0.4894861409498327,0.2181224400384615,12.6999998093,0.0,0.5816822108017973,1.7345939061189404
1648219932662430927,92491,3,4,2.14729166031,-1.14272224903,0.161957457662,0.0,12.6999998093,0.7181577459230769,-0.3821813541906354,0.0541663738,12.6999998093,0.0,1.0851560641445162,2.4378075869431117
1648219932662447492,92492,3,5,1.8102376461,0.228544458747,0.117012545466,0.0809188112617,12.6999998093,0.6054306508695652,0.07643627382842809,0.03913463059063545,12.6999998093,0.010934974494824324,0.8596133142183554,1.8283557752193804
1648219932662527709,92493,3,6,1.89480257034,0.300330877304,-0.118575535715,-0.161837622523,12.6999998093,0.6337132342274246,0.10044510946622072,-0.03965736980434782,12.6999998093,-0.021869948989594594,0.901817135835002,1.9221174714619709
1648219932857432247,92494,5,0,0.012357913889,0.0439508594573,0.0106500769034,0.0,22.1000003815,0.004133081568227425,0.014699284099431437,0.0035618986298996654,22.1000003815,0.0,0.015818776170584133,0.046880915314993686
1648219932857435405,92495,5,1,0.0333878919482,0.0146502861753,-0.0294692683965,0.0,22.1000003815,0.011166519046220735,0.0048997612626421405,-0.009855942607525084,22.1000003815,0.0,0.016534508025644712,0.04688091289200561
1648219932857438877,92496,5,2,1.8584587574,0.234404578805,0.087737172842,0.0,22.1000003815,0.6215581128428094,0.07839618020234114,0.029343536067558525,22.1000003815,0.0,0.8825049214320264,1.8752365906785757
1648219932962358518,92497,6,0,0.0122609948739,0.0439508594573,0.0107615143061,0.0,18.0,0.004100667181906354,0.014699284099431437,0.003599168664247491,18.0,0.0,0.01580189532016098,0.046880915440011765
1648219932962361271,92498,6,1,0.0334718860686,0.0146502861753,-0.0293738357723,0.0,18.0,0.01119461072528428,0.0048997612626421405,-0.009824025341906354,18.0,0.0,0.016572455430991152,0.04688091583987642
1648219932962371455,92499,6,2,1.59864461422,-0.474669247866,0.259613633156,0.0,18.0,0.5346637505752507,-0.15875225681137123,0.08682730205886287,18.0,0.0,0.7726143484307623,1.6877128713038676
1648219932962386872,92500,6,3,1.24874401093,1.10756158829,0.249640673399,0.0,18.0,0.4176401374347826,0.37042193588294314,0.08349186401304347,18.0,0.0,0.6971793021715113,1.6877128732412152
1648219932962408601,92501,6,4,1.86546742916,0.175803437829,0.0750788599253,-0.0809188112617,18.0,0.6239021502207357,0.05879713639765886,0.025109986597090298,18.0,-0.010934974494824324,0.8842877864975179,1.8752366285930417
1648219933157484765,92502,8,0,0.0122609948739,0.0439508594573,0.0107615143061,0.0,19.8999996185,0.004100667181906354,0.014699284099431437,0.003599168664247491,19.8999996185,0.0,0.01580189532016098,0.046880915440011765
1648219933157487696,92503,8,1,0.0333878919482,0.0146502861753,-0.0294692683965,0.0,19.8999996185,0.011166519046220735,0.0048997612626421405,-0.009855942607525084,19.8999996185,0.0,0.016534508025644712,0.04688091289200561
1648219933157606749,92504,8,2,1.60669755936,-0.474669247866,0.203929439187,0.0,19.8999996185,0.537357043264214,-0.15875225681137123,0.06820382581505016,19.8999996185,0.0,0.7763423619344885,1.6877129964215418
1648219933157608811,92505,8,3,1.81986629963,0.171408340335,-0.0398810617626,-0.0809188112617,19.8999996185,0.6086509363311036,0.05732720412541805,-0.013338147746688962,19.8999996185,-0.010934974494824324,0.8626693068182589,1.8283557276287075
1648219933262522052,92506,9,0,0.0122404424474,0.0439508594573,0.0107848858461,0.0,21.7000007629,0.004093793460668896,0.014699284099431437,0.0036069852328093643,21.7000007629,0.0,0.015798330381183598,0.046880915531342354
1648219933262524612,92507,9,1,0.0333878919482,0.0146502861753,-0.0294692683965,0.0,21.7000007629,0.011166519046220735,0.0048997612626421405,-0.009855942607525084,21.7000007629,0.0,0.016534508025644712,0.04688091289200561
1648219933262537239,92508,9,2,1.61756575108,-0.474669247866,0.0809015631676,0.0,21.7000007629,0.5409918899933109,-0.15875225681137123,0.027057378985819395,21.7000007629,0.0,0.7813748966531833,1.6877129248955935
1648219933262587301,92509,9,3,1.75576841831,-0.0556710883975,0.29636272788,0.0,21.7000007629,0.5872135178294314,-0.018619093109531772,0.09911796919063545,21.7000007629,0.0,0.8306540204389873,1.7814749157073855
1648219933262648439,92510,9,4,0.562890231609,0.556710898876,1.59589481354,0.0,21.7000007629,0.18825760254481602,0.18619093607892975,0.5337440847959866,21.7000007629,0.0,0.32488292431242355,1.7814748647264236
1648219933262652185,92511,9,5,1.67005896568,0.334026515484,0.522476971149,0.242756426334,21.7000007629,0.5585481490568561,0.11171455367357858,0.17474146192274248,21.7000007629,0.03280492247756756,0.7977670155704402,1.7814749078433767
1648219933457493213,92512,11,0,0.0122609948739,0.0439508594573,0.0107615143061,0.0,26.3999996185,0.004100667181906354,0.014699284099431437,0.003599168664247491,26.3999996185,0.0,0.01580189532016098,0.046880915440011765
1648219933457501393,92513,11,1,0.0334718860686,0.0146502861753,-0.0293738357723,0.0,26.3999996185,0.01119461072528428,0.0048997612626421405,-0.009824025341906354,26.3999996185,0.0,0.016572455430991152,0.04688091583987642
1648219933457504417,92514,11,2,1.60145306587,-0.527410268784,0.074574649334,0.0,26.3999996185,0.5356030320635451,-0.17639139424214045,0.02494135429230769,26.3999996185,0.0,0.7777243341146091,1.687712917568187
1648219933457639671,92515,11,3,1.8201738596,0.171408340335,-0.021699346602,0.0,26.3999996185,0.6087537991973244,0.05732720412541805,-0.007257306555852842,26.3999996185,0.0,0.8628144553768151,1.8283556984215392
1648219933562595721,92516,12,0,0.0122609948739,0.0439508594573,0.0107615143061,0.0,21.6000003815,0.004100667181906354,0.014699284099431437,0.003599168664247491,21.6000003815,0.0,0.01580189532016098,0.046880915440011765
1648219933562601532,92517,12,1,0.0334718860686,0.0146502861753,-0.0293738357723,0.0,21.6000003815,0.01119461072528428,0.0048997612626421405,-0.009824025341906354,21.6000003815,0.0,0.016572455430991152,0.04688091583987642
1648219933562615016,92518,12,2,1.61160099506,-0.474669247866,-0.160643845797,0.0,21.6000003815,0.5389969883143813,-0.15875225681137123,-0.05372703872809364,21.6000003815,0.0,0.7786127316366269,1.6877129813272478
1648219933562644561,92519,12,3,1.86652755737,0.175803437829,0.0409906543791,0.0,21.6000003815,0.6242567081505016,0.05879713639765886,0.013709248956220737,21.6000003815,0.0,0.8847880981287927,1.8752365730543283
1648219933757559552,92520,14,0,0.0123708928004,0.0439508594573,0.0106349987909,0.0,18.3999996185,0.004137422341270902,0.014699284099431437,0.0035568557829096987,18.3999996185,0.0,0.01582104548681575,0.04688091546670958
1648219933757568070,92521,14,1,0.0334016978741,0.0146502861753,-0.0294536203146,0.0,18.3999996185,0.011171136412742476,0.0048997612626421405,-0.009850709135317725,18.3999996185,0.0,0.016540744781753033,0.0468809135526118
1648219933757571872,92522,14,2,1.61934614182,-0.474669247866,0.0279675275087,0.0,18.3999996185,0.5415873384013378,-0.15875225681137123,0.00935368813,18.3999996185,0.0,0.7821994434132473,1.6877129508574447
1648219933757745336,92523,14,3,1.85994398594,0.234404578805,0.046637494117,0.0,18.3999996185,0.6220548447959866,0.07839618020234114,0.015597824119397993,18.3999996185,0.0,0.8832046314069214,1.8752365699443463
1648219933862470190,92524,15,0,0.0122609948739,0.0439508594573,0.0107615143061,0.0,19.0,0.004100667181906354,0.014699284099431437,0.003599168664247491,19.0,0.0,0.01580189532016098,0.046880915440011765
1648219933862477966,92525,15,1,0.0334718860686,0.0146502861753,-0.0293738357723,0.0,19.0,0.01119461072528428,0.0048997612626421405,-0.009824025341906354,19.0,0.0,0.016572455430991152,0.04688091583987642
1648219933862484858,92526,15,2,1.69171655178,0.0556710883975,0.555561423302,0.0,19.0,0.565791488889632,0.018619093109531772,0.1858064960876254,19.0,0.0,0.800366596272055,1.7814748543583543
1648219933862490893,92527,15,3,1.85995054245,0.175803437829,-0.161830827594,0.0,19.0,0.6220570376086956,0.05879713639765886,-0.05412402260668896,19.0,0.0,0.8816841947804084,1.8752365413121364
1648219934057456368,92528,17,0,0.012357913889,0.0439508594573,0.0106500769034,0.0,15.8000001907,0.004133081568227425,0.014699284099431437,0.0035618986298996654,15.8000001907,0.0,0.015818776170584133,0.046880915314993686
1648219934057461622,92529,17,1,0.0333878919482,0.0146502861753,-0.0294692683965,0.0,15.8000001907,0.011166519046220735,0.0048997612626421405,-0.009855942607525084,15.8000001907,0.0,0.016534508025644712,0.04688091289200561
1648219934057464351,92530,17,2,1.61956262589,-0.474669247866,-0.00900412257761,0.0,15.8000001907,0.5416597411003344,-0.15875225681137123,-0.003011412233314381,15.8000001907,0.0,0.7822997055479863,1.6877129697530853
1648219934057584276,92531,17,3,1.77592170238,-0.0556710883975,-0.12905728817,0.0,15.8000001907,0.5939537466153846,-0.018619093109531772,-0.04316297263210702,15.8000001907,0.0,0.8401837756497839,1.7814749357477455
1648219934057587375,92532,17,4,1.37444365025,0.556710898876,0.987233757973,0.0,15.8000001907,0.4596801505852842,0.18619093607892975,0.3301785143722408,15.8000001907,0.0,0.6762238877488485,1.7814749129643561
1648219934057675927,92533,17,5,1.8669526577,0.175803437829,0.00966172665358,0.0,15.8000001907,0.624398882173913,0.05879713639765886,0.0032313467068829428,15.8000001907,0.0,0.8849887182154522,1.8752366314168238
