%time,field.header.seq,field.header.frame_id,field.point_id,field.x,field.y,field.z,field.velocity,field.intensity,normalized_x,normalized_y,normalized_z,normalized_intensity,normalized_velocity,normalized_range,range
1648219925957333067,92291,0,0,0.0122700566426,0.0439508594573,0.0107511812821,0.0,13.8999996185,0.004103697873779264,0.014699284099431437,0.0035957128033779263,13.8999996185,0.0,0.015803468781072045,0.04688091547750029
1648219925957382024,92292,0,1,0.0334016978741,0.0146502861753,-0.0294536203146,0.0,13.8999996185,0.011171136412742476,0.0048997612626421405,-0.009850709135317725,13.8999996185,0.0,0.016540744781753033,0.0468809135526118
1648219925957460247,92293,0,2,1.61825299263,-0.474669247866,0.0657369047403,0.0,13.8999996185,0.5412217366655518,-0.15875225681137123,0.02198558686966555,13.8999996185,0.0,0.7816931722365594,1.6877129446888948
1648219925957463479,92294,0,3,1.65158748627,-0.612381994724,0.266269892454,0.0,13.8999996185,0.5523703967458193,-0.20481003168026754,0.08905347573712374,13.8999996185,0.0,0.8075724484398535,1.7814748350435003
1648219926062309735,92295,1,0,0.012357913889,0.0439508594573,0.0106500769034,0.0,20.0,0.004133081568227425,0.014699284099431437,0.0035618986298996654,20.0,0.0,0.015818776170584133,0.046880915314993686
1648219926062331041,92296,1,1,0.0334718860686,0.0146502861753,-0.0293738357723,0.0,20.0,0.01119461072528428,0.0048997612626421405,-0.009824025341906354,20.0,0.0,0.016572455430991152,0.04688091583987642
1648219926062342145,92297,1,2,1.61956441402,-0.474669247866,-0.00866589695215,0.0,20.0,0.5416603391371237,-0.15875225681137123,-0.002898293295033445,20.0,0.0,0.7823005337023562,1.6877129151012638
1648219926062350159,92298,1,3,1.7951593399,0.285680562258,0.196657389402,0.0,20.0,0.60038773909699,0.09554533854782607,0.06577170214113712,20.0,0.0,0.8544353610626197,1.828355700647076
1648219926062372985,92299,1,4,1.6378428936,-0.742769479752,0.329619109631,0.0,20.0,0.5477735430100334,-0.24841788620468228,0.11024050489331103,20.0,0.0,0.813525140994384,1.8283557098116907
1648219926257517603,92300,3,0,0.0122742131352,0.0439508594573,0.0107464361936,0.0,15.6999998093,0.004105088005083611,0.014699284099431437,0.0035941258172575248,15.6999998093,0.0,0.01580419083960835,0.04688091558392145
1648219926257543700,92301,3,1,0.033485610038,0.0146502861753,-0.0293581876904,0.0,15.6999998093,0.01119920068160535,0.0048997612626421405,-0.009818791869698995,15.6999998093,0.0,0.016578656527132345,0.0468809145505924
1648219926257545728,92302,3,2,1.61703264713,-0.474669247866,0.0909361764789,0.0,15.6999998093,0.5408135943578595,-0.15875225681137123,0.03041343694946488,15.6999998093,0.0,0.7811280091811061,1.6877129095158723
1648219926362581417,92303,4,0,0.0122832721099,0.0439508594573,0.0107360808179,0.0,22.2999992371,0.004108117762508361,0.014699284099431437,0.00359066248090301,22.2999992371,0.0,0.015805765281601245,0.046880915649010785
1648219926362589259,92304,4,1,0.033485610038,0.0146502861753,-0.0293581876904,0.0,22.2999992371,0.01119920068160535,0.0048997612626421405,-0.009818791869698995,22.2999992371,0.0,0.016578656527132345,0.0468809145505924
1648219926362594833,92305,4,2,1.61949086189,-0.474669247866,-0.0177030824125,0.0,22.2999992371,0.5416357397625418,-0.15875225681137123,-0.0059207633486622075,22.2999992371,0.0,0.7822664688064644,1.687712933452189
1648219926362596721,92306,4,3,1.85115396976,0.175803437829,-0.242558538914,0.0,22.2999992371,0.6191150400535116,0.05879713639765886,-0.08112325716187291,22.2999992371,0.0,0.8775328876398237,1.875236655281353
1648219926557433386,92307,6,0,0.0122609948739,0.0439508594573,0.0107615143061,0.0,13.5,0.004100667181906354,0.014699284099431437,0.003599168664247491,13.5,0.0,0.01580189532016098,0.046880915440011765
1648219926557618590,92308,6,1,0.033485610038,0.0146502861753,-0.0293581876904,0.0,13.5,0.01119920068160535,0.0048997612626421405,-0.009818791869698995,13.5,0.0,0.016578656527132345,0.0468809145505924
1648219926557622882,92309,6,2,1.61622869968,-0.474669247866,0.104252934456,0.0809188112617,13.5,0.5405447156120401,-0.15875225681137123,0.03486720215919732,13.5,0.010934974494824324,0.7807556968699659,1.687712884018388
1648219926557624772,92310,6,3,1.58919501305,-0.474669247866,0.312287211418,-0.323675245047,13.5,0.5315033488461538,-0.15875225681137123,0.10444388341739129,13.5,-0.04373989797932432,0.7682407817293065,1.6877129456124624
1648219926557733427,92311,6,4,1.64792633057,-0.612381994724,0.288061857224,-0.242756426334,13.5,0.5511459299565217,-0.20481003168026754,0.09634175826889632,13.5,-0.03280492247756756,0.8058975253046446,1.7814748193660752
1648219926662509491,92312,7,0,0.0122609948739,0.0439508594573,0.0107615143061,0.0,25.2999992371,0.004100667181906354,0.014699284099431437,0.003599168664247491,25.2999992371,0.0,0.01580189532016098,0.046880915440011765
1648219926662511746,92313,7,1,0.033485610038,0.0146502861753,-0.0293581876904,0.0,25.2999992371,0.01119920068160535,0.0048997612626421405,-0.009818791869698995,25.2999992371,0.0,0.016578656527132345,0.0468809145505924
1648219926662515851,92314,7,2,1.86013805866,0.234404578805,-0.0381231866777,0.0,25.2999992371,0.6221197520602006,0.07839618020234114,-0.012750229658093644,25.2999992371,0.0,0.8832960618485792,1.8752366467202495
1648219926662521577,92315,7,3,1.66456747055,-0.487854540348,-0.00539298541844,0.161837622523,25.2999992371,0.5567115286120401,-0.16316205362809363,-0.0018036740529899665,25.2999992371,0.021869948989594594,0.8040381259139678,1.7345939008433953
1648219926662525362,92316,7,4,1.5368129015,-0.348676800728,0.239396572113,-0.485512852669,25.2999992371,0.513984247993311,-0.11661431462474915,0.08006574318160535,25.2999992371,-0.06560984495527027,0.7361783158623315,1.593951104746384
1648219926857449128,92317,9,0,0.0122477002442,0.0439508594573,0.01077664271,0.0,28.3999996185,0.004096220817458194,0.014699284099431437,0.0036042283311036784,28.3999996185,0.0,0.015799588697385562,0.04688091548174064
1648219926857451017,92318,9,1,0.033485610038,0.0146502861753,-0.0293581876904,0.0,28.3999996185,0.01119920068160535,0.0048997612626421405,-0.009818791869698995,28.3999996185,0.0,0.016578656527132345,0.0468809145505924
1648219926857609644,92319,9,2,1.86368656158,0.175803437829,-0.110805496573,0.0,28.3999996185,0.6233065423344482,0.05879713639765886,-0.03705869450602006,28.3999996185,0.0,0.8834473355454842,1.87523660017534
1648219926857613006,92320,9,3,1.60113477707,-0.474669247866,0.243785887957,0.0809188112617,28.3999996185,0.5354965809598662,-0.15875225681137123,0.08153374179163879,28.3999996185,0.010934974494824324,0.7737670550508833,1.6877129579343924
1648219926857614095,92321,9,4,1.67896544933,-0.433648467064,-0.0428979322314,-0.242756426334,28.3999996185,0.5615269061304348,-0.14503293212842808,-0.014347134525551839,28.3999996185,-0.03280492247756756,0.8072542870859253,1.7345939598708902
1648219926962510546,92322,10,0,0.0122832721099,0.0439508594573,0.0107360808179,0.0,27.7000007629,0.004108117762508361,0.014699284099431437,0.00359066248090301,27.7000007629,0.0,0.015805765281601245,0.046880915649010785
1648219926962517317,92323,10,1,0.0333878919482,0.0146502861753,-0.0294692683965,0.0,27.7000007629,0.011166519046220735,0.0048997612626421405,-0.009855942607525084,27.7000007629,0.0,0.016534508025644712,0.04688091289200561
1648219926962519382,92324,10,2,1.810552001,0.234404578805,-0.428332358599,0.0,27.7000007629,0.6055357862876254,0.07839618020234114,-0.14325496943110366,27.7000007629,0.0,0.8599378686976539,1.8752366955434814
1648219926962521350,92325,10,3,1.66454863548,-0.487854540348,-0.00957900565118,0.0809188112617,27.7000007629,0.5567052292575251,-0.16316205362809363,-0.003203680819792642,27.7000007629,0.010934974494824324,0.804029402639906,1.7345938918852892
1648219926962524024,92326,10,4,1.67938601971,-0.433648467064,-0.0206820033491,-0.161837622523,27.7000007629,0.5616675651204013,-0.14503293212842808,-0.006917057976287625,27.7000007629,-0.021869948989594594,0.8074499729508507,1.7345939413727023
1648219927157428687,92327,12,0,0.0122609948739,0.0439508594573,0.0107615143061,0.0,32.5,0.004100667181906354,0.014699284099431437,0.003599168664247491,32.5,0.0,0.01580189532016098,0.046880915440011765
1648219927157430488,92328,12,1,0.0334489420056,0.0146502861753,-0.0293999575078,0.0,32.5,0.011186937125618728,0.0048997612626421405,-0.009832761708294314,32.5,0.0,0.016562088785415374,0.046880914109823243
1648219927157432175,92329,12,2,1.86040830612,0.234404578805,-0.0211644098163,0.0,32.5,0.622210135826087,0.07839618020234114,-0.007078397931872909,32.5,0.0,0.8834233794278671,1.8752366528755535
1648219927262438832,92330,13,0,0.0122609948739,0.0439508594573,0.0107615143061,0.0,18.0,0.004100667181906354,0.014699284099431437,0.003599168664247491,18.0,0.0,0.01580189532016098,0.046880915440011765
1648219927262442996,92331,13,1,0.0334718860686,0.0146502861753,-0.0293738357723,0.0,18.0,0.01119461072528428,0.0048997612626421405,-0.009824025341906354,18.0,0.0,0.016572455430991152,0.04688091583987642
1648219927262444962,92332,13,2,1.63312792778,-0.421928226948,-0.0569607988,0.0,18.0,0.5461966313645484,-0.14111311938060198,-0.019050434381270902,18.0,0.0,0.7852225370487559,1.6877128872502023
1648219927262446696,92333,13,3,1.86280345917,0.175803437829,-0.124775007367,0.0,18.0,0.6230111903578595,0.05879713639765886,-0.041730771694648824,18.0,0.0,0.8830305713115479,1.8752366193927763
1648219927457470670,92334,15,0,0.0122609948739,0.0439508594573,0.0107615143061,0.0,14.6999998093,0.004100667181906354,0.014699284099431437,0.003599168664247491,14.6999998093,0.0,0.01580189532016098,0.046880915440011765
1648219927457474814,92335,15,1,0.033485610038,0.0146502861753,-0.0293581876904,0.0,14.6999998093,0.01119920068160535,0.0048997612626421405,-0.009818791869698995,14.6999998093,0.0,0.016578656527132345,0.0468809145505924
1648219927457483573,92336,15,2,1.67414104939,-0.433648467064,-0.134225741029,0.0,14.6999998093,0.559913394444816,-0.14503293212842808,-0.04489155218361204,14.6999998093,0.0,0.805009670724024,1.7345938417377111
1648219927457486404,92337,15,3,1.86476016045,0.175803437829,-0.0909669697285,0.0,14.6999998093,0.6236656055016722,0.05879713639765886,-0.0304237356951505,14.6999998093,0.0,0.8839540023214442,1.875236596895333
1648219927562495423,92338,16,0,0.0122628044337,0.0439508594573,0.0107594523579,0.0,18.7999992371,0.004101272385852842,0.014699284099431437,0.003598479049464883,18.7999992371,0.0,0.015802209446837363,0.046880915463079736
1648219927562497824,92339,16,1,0.0333878919482,0.0146502861753,-0.0294692683965,0.0,18.7999992371,0.011166519046220735,0.0048997612626421405,-0.009855942607525084,18.7999992371,0.0,0.016534508025644712,0.04688091289200561
1648219927562505184,92340,16,2,1.75345516205,0.167013257742,-0.266747325659,0.0,18.7999992371,0.5864398535284281,0.05585727683678929,-0.08921315239431438,18.7999992371,0.0,0.8312300758445342,1.7814748298327474
1648219927562508648,92341,16,3,1.61659777164,-0.44536870718,0.601590394974,0.0,18.7999992371,0.5406681510501672,-0.14895274487625418,0.20120080099464882,18.7999992371,0.0,0.7789935938929043,1.7814748507715654
1648219927562614294,92342,16,4,1.8720074892,0.0586011447012,0.0930930227041,0.0,18.7999992371,0.6260894612709029,0.019599045050568562,0.03113479020204013,18.7999992371,0.0,0.8856410952501432,1.8752366369760818
1648219927562615886,92343,16,5,1.62541687489,-0.36918720603,-0.264755487442,0.0809188112617,18.7999992371,0.543617683909699,-0.12347398194983276,-0.08854698576655518,18.7999992371,0.010934974494824324,0.7786438189167357,1.6877128542510016
