%time,field.header.seq,field.header.frame_id,field.point_id,field.x,field.y,field.z,field.velocity,field.intensity,normalized_x,normalized_y,normalized_z,normalized_intensity,normalized_velocity,normalized_range,range
1648125621291673473,32975,0,0,0.00643665483221,0.0454158857465,0.00968437083066,0.0,12.8999996185,0.0021527273686321067,0.015189259446989964,0.0032389200102541805,12.8999996185,0.0,0.015491354775980353,0.04688091554090952
1648125621291679645,32976,0,1,0.0328408256173,0.0146502861753,-0.0300777256489,0.0,12.8999996185,0.010983553718160535,0.0048997612626421405,-0.010059440016354514,12.8999996185,0.0,0.016287558595146318,0.04688091607951567
1648125621291711536,32977,0,2,1.16905879974,-0.0380907431245,0.342895120382,0.0,12.8999996185,0.39098956513043476,-0.01273937897140468,0.11468064226822741,12.8999996185,0.0,0.5530894790703852,1.2189037884685945
1648125621291716649,32978,0,3,1.34907066822,-0.0424858294427,0.163002997637,0.0,12.8999996185,0.45119420341806016,-0.01420930750591973,0.054516052721404674,12.8999996185,0.0,0.6382431533639147,1.3595465018871695
1648125621291727320,32979,0,4,1.34763526917,0.140642747283,0.643946111202,0.0,12.8999996185,0.4507141368461538,0.047037708121404675,0.2153665923752508,12.8999996185,0.0,0.6391392745648333,1.50018925312988
1648125621291732621,32980,0,5,1.4073394537,-0.375047326088,0.359587371349,0.0,12.8999996185,0.47068209153846147,-0.1254338883237458,0.1202633348993311,12.8999996185,0.0,0.6773602608140332,1.5001892921828421
1648125621486678996,32981,2,0,0.0126725910231,0.0439508594573,0.0102736372501,0.0,13.0,0.004238324756889632,0.014699284099431437,0.003435999080301003,13.0,0.0,0.015874373893969014,0.046880915441368395
1648125621486750296,32982,2,1,0.0328533500433,0.0146502861753,-0.0300640445203,0.0,13.0,0.010987742489397993,0.0048997612626421405,-0.0100548643880602,13.0,0.0,0.016293208108212835,0.04688091580808087
1648125621486844095,32983,2,2,1.17558693886,-0.0380907431245,0.319798260927,0.0,13.0,0.3931728892508361,-0.01273937897140468,0.10695594010936453,13.0,0.0,0.5561763510436932,1.2189038039246312
1648125621486848592,32984,2,3,1.36179983616,-0.421928226948,0.466953724623,0.0,13.0,0.4554514502207358,-0.14111311938060198,0.15617181425518392,13.0,0.0,0.6593822559620989,1.5001893225190541
1648125621486853047,32985,2,4,1.40370333195,-0.328166425228,0.415321081877,0.0,13.0,0.4694659973076923,-0.10975465726688963,0.1389033718652174,13.0,0.0,0.672935903372665,1.5001892706675177
1648125621591851892,32986,3,0,0.0125850513577,0.0439508594573,0.0103806881234,0.0,13.3000001907,0.004209047276822742,0.014699284099431437,0.0034718020479598656,13.3000001907,0.0,0.0158587865548678,0.04688091563340654
1648125621591863325,32987,3,1,0.0328651405871,0.0146502861753,-0.0300511550158,0.0,13.3000001907,0.010991685815083611,0.0048997612626421405,-0.010050553516989965,13.3000001907,0.0,0.01629852675998383,0.04688091582522333
1648125621591867218,32988,3,2,1.23478090763,-0.039555773139,0.275612741709,0.0,13.3000001907,0.41297020322073574,-0.013229355564882942,0.09217817448461539,13.3000001907,0.0,0.5841778781715494,1.265784710141714
1648125621591877336,32989,3,3,1.41755712032,-0.281285494566,0.402465164661,0.0,13.3000001907,0.47409937134448155,-0.09407541624280935,0.13460373400033446,13.3000001907,0.0,0.6770455019861834,1.5001892972517754
1648125621591881308,32990,3,4,0.66650635004,0.234404578805,1.32340157032,0.0,13.3000001907,0.22291182275585283,0.07839618020234114,0.4426092208428093,13.3000001907,0.0,0.3248466138333466,1.5001893005663767
1648125621592032667,32991,3,5,1.31040132046,0.439508587122,0.260228544474,0.404594063759,13.3000001907,0.43826131119063544,0.14699283850234113,0.0870329580180602,13.3000001907,0.05467487348094594,0.6369873219649237,1.406427500504859
1648125621786744089,32992,5,0,0.00647791754454,0.0454158857465,0.00965681858361,0.0,31.2000007629,0.002166527606869565,0.015189259446989964,0.003229705211909699,31.2000007629,0.0,0.015495202040974806,0.04688091550950937
1648125621786756650,32993,5,1,0.0327896587551,0.0146502861753,-0.0301334951073,0.0,31.2000007629,0.010966441055217392,0.0048997612626421405,-0.010078092009130433,31.2000007629,0.0,0.01626448029498648,0.04688091438608856
1648125621786759741,32994,5,2,2.38885951042,-0.984499275684,0.465270787477,0.0,31.2000007629,0.7989496690367893,-0.32926397180066885,0.155608959022408,31.2000007629,0.0,1.1768839834214508,2.625331500977709
1648125621786761546,32995,5,3,1.38623046875,0.241729736328,0.642929315567,0.242756426334,31.2000007629,0.46362223035117056,0.08084606566153846,0.2150265269454849,31.2000007629,0.03280492247756756,0.6606263931183324,1.5470702255332498
1648125621786763321,32996,5,4,1.3493335247,0.43511351943,0.619194447994,0.566431701183,31.2000007629,0.4512821152842809,0.1455229161973244,0.20708844414515049,31.2000007629,0.07654482448418919,0.6545899588975403,1.5470702957838345
1648125621786923179,32997,5,5,1.37080073357,-0.676843225956,0.237096920609,0.566431701183,31.2000007629,0.4584617838026756,-0.22636897189163876,0.07929662896622074,31.2000007629,0.07654482448418919,0.686744003141156,1.5470702483859116
1648125621890979482,32998,6,0,0.0126866931096,0.0439508594573,0.0102562177926,0.0,34.4000015259,0.004243041173779264,0.014699284099431437,0.0034301731747826084,34.4000015259,0.0,0.015876893582831942,0.04688091544009944
1648125621890995842,32999,6,1,0.0328651405871,0.0146502861753,-0.0300511550158,0.0,34.4000015259,0.010991685815083611,0.0048997612626421405,-0.010050553516989965,34.4000015259,0.0,0.01629852675998383,0.04688091582522333
1648125621891004619,33000,6,2,1.18045055866,-0.0380907431245,0.301350474358,0.0,34.4000015259,0.39479951794648827,-0.01273937897140468,0.10078611182541805,34.4000015259,0.0,0.5584761503575028,1.2189038249789335
1648125621891006384,33001,6,3,1.858715415,-1.31852579117,0.548833370209,0.0,34.4000015259,0.6216439515050167,-0.44097852547491634,0.18355631110668896,34.4000015259,0.0,0.9835367124899683,2.3440459304787664
1648125621891014483,33002,6,4,2.38712358475,-0.984499275684,0.474096924067,0.0,34.4000015259,0.798369091889632,-0.32926397180066885,0.1585608441695652,34.4000015259,0.0,1.1760957345791638,2.6253315459388746
1648125621891169606,33003,6,5,1.35782110691,-0.43511351943,0.600353896618,0.242756426334,34.4000015259,0.45412077154180597,-0.1455229161973244,0.2007872563939799,34.4000015259,0.03280492247756756,0.6585045705460394,1.547070371491056
1648125621891173652,33004,6,6,1.49446630478,0.290075659752,0.275414139032,0.242756426334,34.4000015259,0.49982150661538455,0.09701527082006689,0.09211175218461538,34.4000015259,0.03280492247756756,0.7134809315761962,1.5470702545398782
1648125621991737227,33005,7,0,0.012578186579,0.0439508594573,0.0103890039027,0.0,39.0,0.004206751364214047,0.014699284099431437,0.003474583245050167,39.0,0.0,0.015857568133747096,0.04688091537866756
1648125621991767294,33006,7,1,0.0327896587551,0.0146502861753,-0.0301334951073,0.0,39.0,0.010966441055217392,0.0048997612626421405,-0.010078092009130433,39.0,0.0,0.01626448029498648,0.04688091438608856
1648125621991771004,33007,7,2,1.17855584621,-0.0380907431245,0.308677226305,0.0,39.0,0.3941658348528428,-0.01273937897140468,0.10323653053678929,39.0,0.0,0.5575802206921029,1.2189037769187911
1648125621991774352,33008,7,3,1.87020552158,-1.31852579117,0.508303403854,0.0,39.0,0.6254867965150501,-0.44097852547491634,0.170001138412709,39.0,0.0,0.9883974530315984,2.3440459264481905
1648125621991784117,33009,7,4,2.38850522041,-0.984499275684,0.467085450888,0.0,39.0,0.7988311773946487,-0.32926397180066885,0.15621586986220734,39.0,0.0,1.1767231038274863,2.6253313753085323
1648125621991795622,33010,7,5,1.33100295067,-0.498109728098,0.721801877022,0.242756426334,39.0,0.44515148851839464,-0.1665918823070234,0.24140531004080268,39.0,0.03280492247756756,0.6512085308953516,1.593951098870537
1648125621991836404,33011,7,6,1.51111447811,0.0996219441295,-0.497281342745,0.242756426334,39.0,0.5053894575618729,0.033318375963043476,-0.16631483034949832,39.0,0.03280492247756756,0.7155048020846423,1.5939511383816223
1648125621991881546,33012,7,7,1.07634329796,-0.799905598164,-1.24278748035,-0.647350490093,39.0,0.3599810361070234,-0.26752695590769227,-0.41564798673913045,39.0,-0.08747979595851352,0.5751029167467406,1.8283557045477277
1648125621991884343,33013,7,8,1.60009419918,-0.171408340335,0.867872357368,-0.647350490093,39.0,0.5351485615986622,-0.05732720412541805,0.2902583135010033,39.0,-0.08747979595851352,0.7589824598072551,1.8283557350989916
1648125621991886877,33014,7,9,1.44395005703,-0.421928226948,0.765088021755,-0.566431701183,39.0,0.4829264404782608,-0.14111311938060198,0.25588228152341136,39.0,-0.07654482448418919,0.697387127990853,1.6877129130647197
1648125621991890913,33015,7,10,0.890742301941,-1.10756158829,-0.910088121891,-0.566431701183,39.0,0.29790712439498324,-0.37042193588294314,-0.30437729829130433,39.0,-0.07654482448418919,0.5609899465354466,1.6877129228425392
1648125622186755804,33016,9,0,0.00643665483221,0.0454158857465,0.00968437083066,0.0,26.6000003815,0.0021527273686321067,0.015189259446989964,0.0032389200102541805,26.6000003815,0.0,0.015491354775980353,0.04688091554090952
1648125622186760684,33017,9,1,0.0327896587551,0.0146502861753,-0.0301334951073,0.0,26.6000003815,0.010966441055217392,0.0048997612626421405,-0.010078092009130433,26.6000003815,0.0,0.01626448029498648,0.04688091438608856
1648125622186766163,33018,9,2,1.30282318592,-0.082041606307,0.137885242701,0.0,26.6000003815,0.43572681803344476,-0.027438664316722407,0.04611546578628762,26.6000003815,0.0,0.616821368150121,1.3126657682330582
1648125622186769840,33019,9,3,2.38897681236,-0.984499275684,0.464667499065,0.0,26.6000003815,0.7989889004548495,-0.32926397180066885,0.15540719032274247,26.6000003815,0.0,1.1769372494853114,2.6253313921300276
1648125622291839533,33020,10,0,0.0125987837091,0.0439508594573,0.010364016518,0.0,12.8999996185,0.0042136400364882936,0.014699284099431437,0.003466226260200669,12.8999996185,0.0,0.0158612256068058,0.046880915481349095
1648125622291847361,33021,10,1,0.0328408256173,0.0146502861753,-0.0300777256489,0.0,12.8999996185,0.010983553718160535,0.0048997612626421405,-0.010059440016354514,12.8999996185,0.0,0.016287558595146318,0.04688091607951567
1648125622291860622,33022,10,2,1.19287180901,-0.076181486249,0.238704174757,0.0,12.8999996185,0.39895378227759193,-0.02547875794280936,0.07983417215953177,12.8999996185,0.0,0.5647808494394093,1.218903792193755
1648125622291863415,33023,10,3,1.30712556839,-0.082041606307,0.0882224217057,0.0,12.8999996185,0.43716574193645485,-0.027438664316722407,0.029505826657424745,12.8999996185,0.0,0.6188543060730756,1.3126657123563226
1648125622291865419,33024,10,4,2.39186835289,-0.984499275684,0.449546158314,0.0,12.8999996185,0.7999559708662207,-0.32926397180066885,0.15034988572374583,12.8999996185,0.0,1.1782503442711092,2.6253313676246504
1648125622486746868,33025,12,0,0.0126664573327,0.0439508594573,0.010281198658,0.0,12.3999996185,0.00423627335541806,0.014699284099431437,0.003438527979264214,12.3999996185,0.0,0.015873278707294467,0.0468809154586566
1648125622486757883,33026,12,1,0.0328140594065,0.0146502861753,-0.0301069207489,0.0,12.3999996185,0.01097460180819398,0.0048997612626421405,-0.010069204263846153,12.3999996185,0.0,0.016275485557356428,0.04688091356545905
1648125622486779806,33027,12,2,1.24380278587,-0.039555773139,0.231518700719,0.0,12.3999996185,0.41598755380267555,-0.013229355564882942,0.07743100358494982,12.3999996185,0.0,0.5884439698782968,1.2657847123856454
1648125622486921158,33028,12,3,2.41925978661,-0.902457654476,0.474464803934,0.0,12.3999996185,0.8091169854882942,-0.30182530250033446,0.15868388091438126,12.3999996185,0.0,1.1834014980727157,2.625331328309384
1648125622591834454,33029,13,0,0.0126825124025,0.0439508594573,0.0102613866329,0.0,12.1999998093,0.004241642943979933,0.014699284099431437,0.0034319018839130432,12.1999998093,0.0,0.015876146344885694,0.04688091534414363
1648125622591838083,33030,13,1,0.0328533500433,0.0146502861753,-0.0300640445203,0.0,12.1999998093,0.010987742489397993,0.0048997612626421405,-0.0100548643880602,12.1999998093,0.0,0.016293208108212835,0.04688091580808087
1648125622591840963,33031,13,2,1.17582964897,-0.076181486249,0.312005639076,0.0,12.1999998093,0.39325406320066886,-0.02547875794280936,0.10434971206555183,12.1999998093,0.0,0.5567285546421878,1.2189038112415775
1648125622591842573,33032,13,3,2.4179391861,-0.902457654476,0.481150597334,0.0,12.1999998093,0.808675313076923,-0.30182530250033446,0.16091993221872908,12.1999998093,0.0,1.1827975470001353,2.6253315263248407
1648125622591844415,33033,13,4,1.31624805927,-0.145037829876,0.799925923347,0.0809188112617,12.1999998093,0.44021674223076923,-0.048507635410033445,0.26753375362775916,12.1999998093,0.010934974494824324,0.6244473964823745,1.5470702661707811
1648125622786779081,33034,15,0,0.0126725910231,0.0439508594573,0.0102736372501,0.0,13.8999996185,0.004238324756889632,0.014699284099431437,0.003435999080301003,13.8999996185,0.0,0.015874373893969014,0.046880915441368395
1648125622786799122,33035,15,1,0.0328533500433,0.0146502861753,-0.0300640445203,0.0,13.8999996185,0.010987742489397993,0.0048997612626421405,-0.0100548643880602,13.8999996185,0.0,0.016293208108212835,0.04688091580808087
1648125622786807010,33036,15,2,1.17378258705,-0.0380907431245,0.32635858655,0.0,13.8999996185,0.3925694271070234,-0.01273937897140468,0.10915002894648829,13.8999996185,0.0,0.5553231509444301,1.2189037670745306
1648125622786990428,33037,15,3,1.31803691387,-0.212429150939,0.256942123175,0.0,13.8999996185,0.44081502136120404,-0.07104653877558528,0.08593382045986621,13.8999996185,0.0,0.6274419310082394,1.3595465071685835
1648125622786994372,33038,15,4,2.39057660103,-0.984499275684,0.456365585327,0.0,13.8999996185,0.7995239468327758,-0.32926397180066885,0.15263063054414713,13.8999996185,0.0,1.1776637237531222,2.625331380356644
1648125622891905526,33039,16,0,0.0126522984356,0.0439508594573,0.0102986181155,0.0,12.1999998093,0.004231537938327759,0.014699284099431437,0.003444353884782608,12.1999998093,0.0,0.015870752335123,0.04688091549690265
1648125622891911372,33040,16,1,0.0328266397119,0.0146502861753,-0.0300932060927,0.0,12.1999998093,0.01097880926819398,0.0048997612626421405,-0.010064617422307692,12.1999998093,0.0,0.016281159858119832,0.0468809152292358
1648125622891915631,33041,16,2,1.23694610596,-0.039555773139,0.265726685524,0.0,12.1999998093,0.41369434981939796,-0.013229355564882942,0.0888718011785953,12.1999998093,0.0,0.5852017139360162,1.2657847366901698
1648125622891918265,33042,16,3,2.38868379593,-0.984499275684,0.466171383858,0.0,12.1999998093,0.7988909016488294,-0.32926397180066885,0.15591016182541806,12.1999998093,0.0,1.1768041929737125,2.6253313809667835
1648125623086765044,33043,18,0,0.0126866931096,0.0439508594573,0.0102562177926,0.0,13.1999998093,0.004243041173779264,0.014699284099431437,0.0034301731747826084,13.1999998093,0.0,0.015876893582831942,0.04688091544009944
1648125623086892766,33044,18,1,0.0328022278845,0.0146502861753,-0.030119812116,0.0,13.1999998093,0.010970644777424748,0.0048997612626421405,-0.010073515757859532,13.1999998093,0.0,0.01627014917251106,0.04688091425204926
1648125623086902097,33045,18,2,1.24814629555,-0.079111546278,0.195148810744,0.0,13.1999998093,0.417440232625418,-0.026458711129765885,0.06526716078394648,13.1999998093,0.0,0.5909422636970338,1.26578468555457
1648125623086918275,33046,18,3,1.85982000828,-1.31852579117,0.545078575611,0.0,13.1999998093,0.6220133806956522,-0.44097852547491634,0.18230052696020066,13.1999998093,0.0,0.9840037354903182,2.344045942119994
1648125623086922461,33047,18,4,2.21881723404,-0.990359306335,0.197343021631,0.0,13.1999998093,0.7420793424882942,-0.3312238482725752,0.06600101057892976,13.1999998093,0.0,1.1004875005015786,2.437807568677994
1648125623086926275,33048,18,5,0.500370383263,-0.152362972498,-2.38103365898,0.0,13.1999998093,0.16734795426856186,-0.05095751588561872,-0.7963323274180601,13.1999998093,0.0,0.24208953719848866,2.437807679254226
1648125623087062454,33049,18,6,2.41778159142,-0.902457654476,0.481940686703,0.0,13.1999998093,0.8086226058260868,-0.30182530250033446,0.16118417615484948,13.1999998093,0.0,1.1827254755586185,2.625331306222418
1648125623191722536,33050,19,0,0.0126866931096,0.0439508594573,0.0102562177926,0.0,13.1000003815,0.004243041173779264,0.014699284099431437,0.0034301731747826084,13.1000003815,0.0,0.015876893582831942,0.04688091544009944
1648125623191729806,33051,19,1,0.0328266397119,0.0146502861753,-0.0300932060927,0.0,13.1000003815,0.01097880926819398,0.0048997612626421405,-0.010064617422307692,13.1000003815,0.0,0.016281159858119832,0.0468809152292358
1648125623191741358,33052,19,2,1.25414168835,-0.079111546278,0.15192425251,0.0,13.1000003815,0.4194453807190635,-0.026458711129765885,0.050810786792642136,13.1000003815,0.0,0.593775141116373,1.2657847327695997
1648125623191748148,33053,19,3,2.41499567032,-0.902457654476,0.495712339878,0.0,13.1000003815,0.8076908596387959,-0.30182530250033446,0.16579008022675584,13.1000003815,0.0,1.1814514643934946,2.6253313371256572
1648125623386711229,33054,21,0,0.00643665483221,0.0454158857465,0.00968437083066,0.0,12.8000001907,0.0021527273686321067,0.015189259446989964,0.0032389200102541805,12.8000001907,0.0,0.015491354775980353,0.04688091554090952
1648125623386738176,33055,21,1,0.0327262878418,0.0146502861753,-0.0302023049444,0.0,12.8000001907,0.010945246769832774,0.0048997612626421405,-0.01010110533257525,12.8000001907,0.0,0.016235902011774956,0.04688091322571544
1648125623386802744,33056,21,2,1.23493456841,-0.039555773139,0.274923712015,0.0,12.8000001907,0.41302159478595313,-0.013229355564882942,0.091947729770903,12.8000001907,0.0,0.5842505381835144,1.2657847743083037
1648125623386806765,33057,21,3,1.85182738304,-1.31852579117,0.571643590927,0.0,12.8000001907,0.6193402618862875,-0.44097852547491634,0.19118514746722406,12.8000001907,0.0,0.9806257083703149,2.344045928220086
1648125623386811459,33058,21,4,2.27970290184,-0.83799636364,0.208859652281,0.0,12.8000001907,0.7624424420869564,-0.28026634235451503,0.06985272651538461,12.8000001907,0.0,1.1140853547407497,2.437807535570132
1648125623386813425,33059,21,5,2.41763615608,-0.902457654476,0.482670038939,0.0,12.8000001907,0.808573965244147,-0.30182530250033446,0.16142810666856186,12.8000001907,0.0,1.1826589651166157,2.6253313634276676
1648125623491814219,33060,22,0,0.0125987837091,0.0439508594573,0.010364016518,0.0,13.3999996185,0.0042136400364882936,0.014699284099431437,0.003466226260200669,13.3999996185,0.0,0.0158612256068058,0.046880915481349095
1648125623491817287,33061,22,1,0.0328533500433,0.0146502861753,-0.0300640445203,0.0,13.3999996185,0.010987742489397993,0.0048997612626421405,-0.0100548643880602,13.3999996185,0.0,0.016293208108212835,0.04688091580808087
1648125623491821684,33062,22,2,1.30237448215,-0.0,0.164048999548,0.0,13.3999996185,0.43557674988294315,-0.0,0.05486588613645485,13.3999996185,0.0,0.6159985471388516,1.3126657480136292
1648125623491827368,33063,22,3,2.41565275192,-0.902457654476,0.49250125885,0.0,13.3999996185,0.8079106193712374,-0.30182530250033446,0.16471614008361204,13.3999996185,0.0,1.1817519414052389,2.6253315078195034
1648125623686745967,33064,24,0,0.0125987837091,0.0439508594573,0.010364016518,0.0,13.1000003815,0.0042136400364882936,0.014699284099431437,0.003466226260200669,13.1000003815,0.0,0.0158612256068058,0.046880915481349095
1648125623686749157,33065,24,1,0.0327896587551,0.0146502861753,-0.0301334951073,0.0,13.1000003815,0.010966441055217392,0.0048997612626421405,-0.010078092009130433,13.1000003815,0.0,0.01626448029498648,0.04688091438608856
1648125623686753650,33066,24,2,1.24098849297,-0.039555773139,0.246158570051,0.0,13.1000003815,0.4150463187190635,-0.013229355564882942,0.0823272809535117,13.1000003815,0.0,0.5871131996584261,1.2657847923253498
1648125623686757246,33067,24,3,2.41806364059,-0.902457654476,0.480523943901,0.0,13.1000003815,0.8087169366521738,-0.30182530250033446,0.16071034913076923,13.1000003815,0.0,1.1828544629351367,2.625331378841128
1648125623791754931,33068,25,0,0.00643665483221,0.0454158857465,0.00968437083066,0.0,12.8000001907,0.0021527273686321067,0.015189259446989964,0.0032389200102541805,12.8000001907,0.0,0.015491354775980353,0.04688091554090952
1648125623791764464,33069,25,1,0.0327896587551,0.0146502861753,-0.0301334951073,0.0,12.8000001907,0.010966441055217392,0.0048997612626421405,-0.010078092009130433,12.8000001907,0.0,0.01626448029498648,0.04688091438608856
1648125623791768045,33070,25,2,1.22885990143,-0.0,0.303503155708,0.0,12.8000001907,0.4109899335886287,-0.0,0.1015060721431438,12.8000001907,0.0,0.5812275380798563,1.265784666863706
1648125623791772470,33071,25,3,1.39631080627,-0.0,0.768762767315,0.0,12.8000001907,0.4669935806923077,-0.0,0.25711129341638794,12.8000001907,0.0,0.6604286553562358,1.593951084605859
1648125623791881193,33072,25,4,2.41856956482,-0.902457654476,0.477970510721,0.0,12.8000001907,0.8088861420802674,-0.30182530250033446,0.1598563581006689,12.8000001907,0.0,1.1830858358244407,2.625331287116889
1648125623986725644,33073,27,0,0.0125987837091,0.0439508594573,0.010364016518,0.0,12.1999998093,0.0042136400364882936,0.014699284099431437,0.003466226260200669,12.1999998093,0.0,0.0158612256068058,0.046880915481349095
1648125623986731302,33074,27,1,0.0328140594065,0.0146502861753,-0.0301069207489,0.0,12.1999998093,0.01097460180819398,0.0048997612626421405,-0.010069204263846153,12.1999998093,0.0,0.016275485557356428,0.04688091356545905
1648125623986811585,33075,27,2,1.23813986778,-0.0,0.263098269701,0.0,12.1999998093,0.414093601264214,-0.0,0.08799273234147156,12.1999998093,0.0,0.585616786999768,1.2657847493574632
1648125623986815703,33076,27,3,2.41870856285,-0.902457654476,0.47726726532,0.0,12.1999998093,0.808932629715719,-0.30182530250033446,0.15962115896989967,12.1999998093,0.0,1.1831494039498966,2.625331402446607
1648125624091786327,33077,28,0,0.00643665483221,0.0454158857465,0.00968437083066,0.0,12.3999996185,0.0021527273686321067,0.015189259446989964,0.0032389200102541805,12.3999996185,0.0,0.015491354775980353,0.04688091554090952
1648125624091807014,33078,28,1,0.0328266397119,0.0146502861753,-0.0300932060927,0.0,12.3999996185,0.01097880926819398,0.0048997612626421405,-0.010064617422307692,12.3999996185,0.0,0.016281159858119832,0.0468809152292358
1648125624091810105,33079,28,2,1.29601037502,-0.0410208031535,0.204366356134,0.0,12.3999996185,0.43344828595986623,-0.013719332158361203,0.06834995188428093,12.3999996185,0.0,0.6131419519800969,1.312665687054525
1648125624091817636,33080,28,3,2.41632080078,-0.902457654476,0.489212274551,0.0,12.3999996185,0.8081340470836119,-0.30182530250033446,0.1636161453347826,12.3999996185,0.0,1.1820574391039098,2.6253313467019335
1648125624286751950,33081,30,0,0.00643665483221,0.0454158857465,0.00968437083066,0.0,12.3999996185,0.0021527273686321067,0.015189259446989964,0.0032389200102541805,12.3999996185,0.0,0.015491354775980353,0.04688091554090952
1648125624286754444,33082,30,1,0.0328651405871,0.0146502861753,-0.0300511550158,0.0,12.3999996185,0.010991685815083611,0.0048997612626421405,-0.010050553516989965,12.3999996185,0.0,0.01629852675998383,0.04688091582522333
1648125624286758737,33083,30,2,1.34658312798,-0.0424858294427,0.182415902615,0.0,12.3999996185,0.4503622501605351,-0.01420930750591973,0.06100866308193979,12.3999996185,0.0,0.6370668859382965,1.35954651549356
1648125624286866425,33084,30,3,2.25639081001,-0.83799636364,0.3864826262,0.0,12.3999996185,0.7546457558561873,-0.28026634235451503,0.12925840341137124,12.3999996185,0.0,1.1034172630153523,2.437807665367778
1648125624286869142,33085,30,4,2.41739249229,-0.902457654476,0.483889460564,0.0,12.3999996185,0.8084924723377925,-0.30182530250033446,0.16183593998795986,12.3999996185,0.0,1.1825475334561275,2.625331462872317
1648125624391806013,33086,31,0,0.0126866931096,0.0439508594573,0.0102562177926,0.0,12.1000003815,0.004243041173779264,0.014699284099431437,0.0034301731747826084,12.1000003815,0.0,0.015876893582831942,0.04688091544009944
1648125624391811885,33087,31,1,0.0328408256173,0.0146502861753,-0.0300777256489,0.0,12.1000003815,0.010983553718160535,0.0048997612626421405,-0.010059440016354514,12.1000003815,0.0,0.016287558595146318,0.04688091607951567
1648125624391814704,33088,31,2,1.35330283642,-0.0424858294427,0.12301761657,0.0,12.1000003815,0.45260964428762535,-0.01420930750591973,0.04114301557525083,12.1000003815,0.0,0.6402443944496033,1.3595465960210467
1648125624391816919,33089,31,3,2.26095557213,-0.83799636364,0.358814448118,0.0,12.1000003815,0.7561724321505016,-0.28026634235451503,0.12000483214648829,12.1000003815,0.0,1.105505638586067,2.4378075832185324
1648125624391819188,33090,31,4,2.41691279411,-0.902457654476,0.486279189587,0.0,12.1000003815,0.8083320381638796,-0.30182530250033446,0.1626351804638796,12.1000003815,0.0,1.1823281613299084,2.6253313548351036
1648125624586793790,33091,33,0,0.00643665483221,0.0454158857465,0.00968437083066,0.0,12.3999996185,0.0021527273686321067,0.015189259446989964,0.0032389200102541805,12.3999996185,0.0,0.015491354775980353,0.04688091554090952
1648125624586797660,33092,33,1,0.0328022278845,0.0146502861753,-0.030119812116,0.0,12.3999996185,0.010970644777424748,0.0048997612626421405,-0.010073515757859532,12.3999996185,0.0,0.01627014917251106,0.04688091425204926
1648125624586802392,33093,33,2,1.30091941357,-0.123062409461,0.124722339213,0.0,12.3999996185,0.43509010487290967,-0.041157996475250834,0.04171315692742474,12.3999996185,0.0,0.6166853163409162,1.3126657377734905
1648125624586902629,33094,33,3,2.26252484322,-0.83799636364,0.348781883717,0.0,12.3999996185,0.7566972719799331,-0.28026634235451503,0.11664945943712372,12.3999996185,0.0,1.1062236417201197,2.4378074932345926
1648125624586906947,33095,33,4,2.41725921631,-0.902457654476,0.48455530405,0.0,12.3999996185,0.8084478984314382,-0.30182530250033446,0.16205863011705685,12.3999996185,0.0,1.1824865843576562,2.6253315561355195
1648125624691777378,33096,34,0,0.00643665483221,0.0454158857465,0.00968437083066,0.0,12.0,0.0021527273686321067,0.015189259446989964,0.0032389200102541805,12.0,0.0,0.015491354775980353,0.04688091554090952
1648125624691784007,33097,34,1,0.0328140594065,0.0146502861753,-0.0301069207489,0.0,12.0,0.01097460180819398,0.0048997612626421405,-0.010069204263846153,12.0,0.0,0.016275485557356428,0.04688091356545905
1648125624691787109,33098,34,2,1.29506218433,-0.082041606307,0.197925135493,0.0,12.0,0.4331311653277592,-0.027438664316722407,0.06619569748929766,12.0,0.0,0.6131542163728886,1.3126657021903736
1648125624691794133,33099,34,3,2.26177692413,-0.83799636364,0.353600770235,0.0,12.0,0.7564471318160534,-0.28026634235451503,0.11826112716889631,12.0,0.0,1.1058814353818611,2.437807675907107
1648125624691795995,33100,34,4,2.41737914085,-0.902457654476,0.483956366777,0.0,12.0,0.8084880069732441,-0.30182530250033446,0.16185831664782607,12.0,0.0,1.1825414276331105,2.6253315016742174
1648125624886815684,33101,36,0,0.0126866931096,0.0439508594573,0.0102562177926,0.0,12.1000003815,0.004243041173779264,0.014699284099431437,0.0034301731747826084,12.1000003815,0.0,0.015876893582831942,0.04688091544009944
1648125624886818053,33102,36,1,0.0327896587551,0.0146502861753,-0.0301334951073,0.0,12.1000003815,0.010966441055217392,0.0048997612626421405,-0.010078092009130433,12.1000003815,0.0,0.01626448029498648,0.04688091438608856
1648125624886954454,33103,36,2,1.23721659184,-0.118667319417,0.239633351564,0.0,12.1000003815,0.4137848133244147,-0.039688066694648826,0.08014493363344481,12.1000003815,0.0,0.586524412206176,1.2657847253793186
1648125624886957082,33104,36,3,2.41640019417,-0.902457654476,0.48882034421,0.0,12.1000003815,0.8081606000568561,-0.30182530250033446,0.16348506495317724,12.1000003815,0.0,1.1820937459431606,2.6253314163017056
1648125624991698534,33105,37,0,0.00643665483221,0.0454158857465,0.00968437083066,0.0,12.3000001907,0.0021527273686321067,0.015189259446989964,0.0032389200102541805,12.3000001907,0.0,0.015491354775980353,0.04688091554090952
1648125624991704334,33106,37,1,0.0328266397119,0.0146502861753,-0.0300932060927,0.0,12.3000001907,0.01097880926819398,0.0048997612626421405,-0.010064617422307692,12.3000001907,0.0,0.016281159858119832,0.0468809152292358
1648125624991711212,33107,37,2,1.05203235149,0.118667319417,0.693798959255,0.0,12.3000001907,0.3518502847792642,0.039688066694648826,0.23203978570401337,12.3000001907,0.0,0.4991717023594763,1.2657847357045022
1648125624991714989,33108,37,3,1.24594593048,-0.197778865695,0.103504873812,0.0,12.3000001907,0.4167043245752508,-0.06614677782441471,0.03461701465284281,12.3000001907,0.0,0.5930095989577103,1.2657847369509998
1648125624991718156,33109,37,4,2.41561317444,-0.902457654476,0.49269464612,0.0,12.3000001907,0.8078973827558528,-0.30182530250033446,0.16478081810033443,12.3000001907,0.0,1.1817338428584214,2.625331377362814
1648125625186790025,33110,39,0,0.0126564446837,0.0439508594573,0.0102935219184,0.0,12.6999998093,0.004232924643377926,0.014699284099431437,0.003442649471036789,12.6999998093,0.0,0.015871491899277463,0.04688091544062974
1648125625186793479,33111,39,1,0.0328776761889,0.0146502861753,-0.0300374366343,0.0,12.6999998093,0.010995878324046823,0.0048997612626421405,-0.010045965429531772,12.6999998093,0.0,0.016304181692601873,0.046880913772663776
1648125625186959161,33112,39,2,1.23288249969,-0.237334638834,0.16088488698,0.0,12.6999998093,0.4123352841772575,-0.07937613338929765,0.053807654508361204,12.6999998093,0.0,0.5885077261233832,1.2657847114303822
1648125625186964866,33113,39,3,0.540925145149,0.237334638834,1.11950135231,0.0,12.6999998093,0.18091141978227424,0.07937613338929765,0.3744151679966555,12.6999998093,0.0,0.2678776850861454,1.2657847452346906
1648125625186967158,33114,39,4,2.38868951797,-0.984499275684,0.466142743826,0.0,12.6999998093,0.7988928153745819,-0.32926397180066885,0.15590058321939798,12.6999998093,0.0,1.1768067912959217,2.6253315018686125
1648125625291793772,33115,40,0,0.0126866931096,0.0439508594573,0.0102562177926,0.0,12.3999996185,0.004243041173779264,0.014699284099431437,0.0034301731747826084,12.3999996185,0.0,0.015876893582831942,0.04688091544009944
1648125625291801112,33116,40,1,0.0328022278845,0.0146502861753,-0.030119812116,0.0,12.3999996185,0.010970644777424748,0.0048997612626421405,-0.010073515757859532,12.3999996185,0.0,0.01627014917251106,0.04688091425204926
1648125625291806687,33117,40,2,1.2224406004,-0.197778865695,0.262170761824,0.0,12.3999996185,0.408843010167224,-0.06614677782441471,0.0876825290381271,12.3999996185,0.0,0.5819627222956348,1.2657847406163854
1648125625291810286,33118,40,3,1.03928899765,0.237334638834,-0.682467401028,0.0,12.3999996185,0.34758829352842807,0.07937613338929765,-0.22824996689899663,12.3999996185,0.0,0.4979315356028828,1.2657847782671112
1648125625291813922,33119,40,4,2.41849660873,-0.902457654476,0.478340089321,0.0,12.3999996185,0.8088617420501671,-0.30182530250033446,0.15997996298361203,12.3999996185,0.0,1.1830524708288643,2.6253313896749217
1648125625486731625,33120,42,0,0.00643665483221,0.0454158857465,0.00968437083066,0.0,13.1999998093,0.0021527273686321067,0.015189259446989964,0.0032389200102541805,13.1999998093,0.0,0.015491354775980353,0.04688091554090952
1648125625486735719,33121,42,1,0.0328533500433,0.0146502861753,-0.0300640445203,0.0,13.1999998093,0.010987742489397993,0.0048997612626421405,-0.0100548643880602,13.1999998093,0.0,0.016293208108212835,0.04688091580808087
1648125625486837945,33122,42,2,1.2310744524,-0.118667319417,0.269415259361,0.0,13.1999998093,0.41173058608695645,-0.039688066694648826,0.09010543791337793,13.1999998093,0.0,0.5836259878355111,1.2657846665314487
1648125625486844238,33123,42,3,1.36825335026,-0.298865824938,0.761079549789,0.0,13.1999998093,0.4576098161404682,-0.09995512539732442,0.2545416554478261,13.1999998093,0.0,0.6548316690183982,1.5939510948961428
1648125625486847020,33124,42,4,2.41727471352,-0.902457654476,0.48447689414,0.0,13.1999998093,0.808453081444816,-0.30182530250033446,0.16203240606688962,13.1999998093,0.0,1.182493671452264,2.625331354267697
1648125625591771762,33125,43,0,0.0126866931096,0.0439508594573,0.0102562177926,0.0,13.1000003815,0.004243041173779264,0.014699284099431437,0.0034301731747826084,13.1000003815,0.0,0.015876893582831942,0.04688091544009944
1648125625591778455,33126,43,1,0.0328651405871,0.0146502861753,-0.0300511550158,0.0,13.1000003815,0.010991685815083611,0.0048997612626421405,-0.010050553516989965,13.1000003815,0.0,0.01629852675998383,0.04688091582522333
1648125625591783663,33127,43,2,1.22106099129,-0.158223092556,0.293575406075,0.0,13.1000003815,0.40838160243812704,-0.05291742225953177,0.09818575454013377,13.1000003815,0.0,0.5799580329631262,1.2657847409888472
1648125625591802153,33128,43,3,1.32326340675,-0.298865824938,0.836859226227,0.0,13.1000003815,0.44256301229096984,-0.09995512539732442,0.27988602883846153,13.1000003815,0.0,0.6338099610997835,1.5939511251856942
1648125625591807663,33129,43,4,2.41654682159,-0.902457654476,0.488095283508,0.0,13.1000003815,0.8082096393277591,-0.30182530250033446,0.16324256973511705,13.1000003815,0.0,1.1821607993137107,2.6253314771361365
1648125625786719246,33130,45,0,0.0126866931096,0.0439508594573,0.0102562177926,0.0,13.0,0.004243041173779264,0.014699284099431437,0.0034301731747826084,13.0,0.0,0.015876893582831942,0.04688091544009944
1648125625786833759,33131,45,1,0.0328022278845,0.0146502861753,-0.030119812116,0.0,13.0,0.010970644777424748,0.0048997612626421405,-0.010073515757859532,13.0,0.0,0.01627014917251106,0.04688091425204926
1648125625786839522,33132,45,2,1.17277979851,-0.114272229373,0.31185862422,0.0,13.0,0.39223404632441466,-0.03821813691404682,0.1043005432173913,13.0,0.0,0.5560177336931144,1.218903769663308
1648125625786851212,33133,45,3,0.928519785404,0.304725944996,-0.728505015373,0.0,13.0,0.3105417342488294,0.10191503177123744,-0.24364716233210704,13.0,0.0,0.4508425569103626,1.21890379065126
1648125625786860182,33134,45,4,1.23221170902,0.164083212614,0.421689659357,0.0,13.0,0.41211093947157185,0.054877328633444813,0.14103333088862874,13.0,0.0,0.5853907874763885,1.3126656715692473
1648125625786866403,33135,45,5,2.41653847694,-0.902457654476,0.488135695457,0.0,13.0,0.8082068484749163,-0.30182530250033446,0.16325608543712372,13.0,0.0,1.1821569832610774,2.6253313097270423
1648125625891820762,33136,46,0,0.0125987837091,0.0439508594573,0.010364016518,0.0,12.3000001907,0.0042136400364882936,0.014699284099431437,0.003466226260200669,12.3000001907,0.0,0.0158612256068058,0.046880915481349095
1648125625891825892,33137,46,1,0.0328266397119,0.0146502861753,-0.0300932060927,0.0,12.3000001907,0.01097880926819398,0.0048997612626421405,-0.010064617422307692,12.3000001907,0.0,0.016281159858119832,0.0468809152292358
1648125625891833921,33138,46,2,1.27985274792,0.0410208031535,0.288765281439,0.0,12.3000001907,0.4280443972976588,0.013719332158361203,0.09657701720367892,12.3000001907,0.0,0.6055016368191777,1.3126656658929867
1648125625891836261,33139,46,3,2.41890668869,-0.902457654476,0.476262062788,0.0,12.3000001907,0.8089988925384615,-0.30182530250033446,0.15928497083210702,12.3000001907,0.0,1.183240013474161,2.6253313960646234
