%time,field.header.seq,field.header.frame_id,field.point_id,field.x,field.y,field.z,field.velocity,field.intensity,normalized_x,normalized_y,normalized_z,normalized_intensity,normalized_velocity,normalized_range,range
1648295783267087163,65327,0,0,0.0126097965986,0.0439508594573,0.0103506147861,0.0,14.3000001907,0.004217323277123746,0.014699284099431437,0.003461744075618729,14.3000001907,0.0,0.015863183296026602,0.04688091555999768
1648295783267171662,65328,0,1,0.0335410349071,0.0146502861753,-0.0292948503047,0.0,14.3000001907,0.011217737427123745,0.0048997612626421405,-0.009797608797558527,14.3000001907,0.0,0.016603702189532134,0.046880914688519765
1648295783267187869,65329,0,2,0.412429183722,-0.0,1.04682695866,0.0,14.3000001907,0.13793618184682274,-0.0,0.350109350722408,14.3000001907,0.0,0.19507121910973824,1.1251419967999332
1648295783267192538,65330,0,3,2.23885655403,-1.2306240797,0.604525446892,0.0,14.3000001907,0.7487814561973243,-0.4115799597658863,0.202182423709699,14.3000001907,0.0,1.1361097665150404,2.6253314668819496
1648295783267202753,65331,0,4,1.85891914368,-0.0586011447012,0.239786833525,0.0809188112617,14.3000001907,0.621712088187291,-0.019599045050568562,0.08019626539297658,14.3000001907,0.010934974494824324,0.8794520815617517,1.8752365723908604
1648295783267211742,65332,0,5,1.99687814713,-0.0,0.276129543781,0.242756426334,14.3000001907,0.6678522231204013,-0.0,0.09235101798695652,14.3000001907,0.03280492247756756,0.9444856715978938,2.015879425817438
1648295783371954239,65333,1,0,0.0127207012847,0.0439508594573,0.0102140065283,0.0,17.0,0.004254415145384615,0.014699284099431437,0.003416055695083612,17.0,0.0,0.01588297986822227,0.04688091528084813
1648295783371967872,65334,1,1,0.0334906764328,0.0146502861753,-0.0293524079025,0.0,17.0,0.011200895128026755,0.0048997612626421405,-0.009816858830267557,17.0,0.0,0.01658094580441645,0.04688091448147568
1648295783371973816,65335,1,2,0.582845747471,0.0703213736415,0.959838688374,0.0,17.0,0.1949316881173913,0.023518854060702338,0.3210162837371237,17.0,0.0,0.2766764582701616,1.1251420215401151
1648295783371977699,65336,1,3,2.24058151245,-1.2306240797,0.598100066185,0.0,17.0,0.7493583653678929,-0.4115799597658863,0.200033466951505,17.0,0.0,1.1368702576699636,2.625331375015486
1648295783372080142,65337,1,4,1.91040360928,-0.0600661747158,0.203189387918,0.0809188112617,17.0,0.6389309730033444,-0.020089021644080267,0.06795631702943143,17.0,0.010934974494824324,0.903808135234806,1.9221175362234046
1648295783567112462,65338,3,0,0.0127207012847,0.0439508594573,0.0102140065283,0.0,19.2999992371,0.004254415145384615,0.014699284099431437,0.003416055695083612,19.2999992371,0.0,0.01588297986822227,0.04688091528084813
1648295783567140581,65339,3,1,0.0335041433573,0.0146502861753,-0.0293370354921,0.0,19.2999992371,0.011205399116153847,0.0048997612626421405,-0.009811717555886288,19.2999992371,0.0,0.016587031052466603,0.046880914651800804
1648295783567199536,65340,3,2,0.560847580433,0.0703213736415,0.972856342793,0.0,19.2999992371,0.18757444161638795,0.023518854060702338,0.3253700143120401,19.2999992371,0.0,0.26631086870747145,1.1251420211604173
1648295783567205392,65341,3,3,1.93485093117,-0.12306240201,0.343747198582,0.0,19.2999992371,0.6471073348394648,-0.04115799398327759,0.11496561825484948,19.2999992371,0.0,0.9160730244226155,1.9689983791691805
1648295783567207369,65342,3,4,2.24172401428,-1.2306240797,0.593803703785,0.0,19.2999992371,0.7497404730033443,-0.4115799597658863,0.19859655644983276,19.2999992371,0.0,1.1373740004938768,2.6253314115299604
1648295783672084381,65343,4,0,0.0127090075985,0.0439508594573,0.0102285537869,0.0,15.3000001907,0.00425050421354515,0.014699284099431437,0.0034209209989632104,15.3000001907,0.0,0.01588088552866395,0.046880915453365174
1648295783672086605,65344,4,1,0.0334906764328,0.0146502861753,-0.0293524079025,0.0,15.3000001907,0.011200895128026755,0.0048997612626421405,-0.009816858830267557,15.3000001907,0.0,0.01658094580441645,0.04688091448147568
1648295783672102722,65345,4,2,0.417156666517,-0.0,1.04495203495,0.0,15.3000001907,0.1395172797715719,-0.0,0.34948228593645486,15.3000001907,0.0,0.19730722923835847,1.125141964271941
1648295783672109283,65346,4,3,1.91167807579,-0.0600661747158,0.190826848149,0.0,15.3000001907,0.6393572159832775,-0.020089021644080267,0.06382168834414716,15.3000001907,0.0,0.9044107850144154,1.9221175553996763
1648295783672271725,65347,4,4,2.2410235405,-1.2306240797,0.596441924572,0.0,15.3000001907,0.7495062008361204,-0.4115799597658863,0.19947890453913042,15.3000001907,0.0,1.1370651491732908,2.6253314274582134
1648295783672274435,65348,4,5,0.670690894127,-0.278355449438,1.62675893307,-0.647350490093,15.3000001907,0.22431133582842808,-0.09309546803946488,0.544066532799331,15.3000001907,-0.08747979595851352,0.33060235469783744,1.781474854725643
1648295783672310789,65349,4,6,1.71877884865,0.44536870718,-0.145253479481,-0.647350490093,15.3000001907,0.5748424242976589,0.14895274487625418,-0.04857975902374582,15.3000001907,-0.08747979595851352,0.8264832398488124,1.781474835411138
1648295783672312973,65350,4,7,1.96341633797,-0.061531201005,0.134777784348,-0.0809188112617,15.3000001907,0.6566609825986621,-0.020578996991638794,0.04507618205618729,15.3000001907,-0.010934974494824324,0.9288868538482299,1.9689984398313776
1648295783867173265,65351,6,0,0.0127207012847,0.0439508594573,0.0102140065283,0.0,19.1000003815,0.004254415145384615,0.014699284099431437,0.003416055695083612,19.1000003815,0.0,0.01588297986822227,0.04688091528084813
1648295783867263669,65352,6,1,0.0334906764328,0.0146502861753,-0.0293524079025,0.0,19.1000003815,0.011200895128026755,0.0048997612626421405,-0.009816858830267557,19.1000003815,0.0,0.01658094580441645,0.04688091448147568
1648295783867275318,65353,6,2,0.402890175581,-0.0,1.05053508282,0.0,19.1000003815,0.13474587812073577,-0.0,0.35134952602675584,19.1000003815,0.0,0.1905594483122166,1.125141970515416
1648295783867310814,65354,6,3,2.23918056488,-1.2306240797,0.603324174881,0.0,19.1000003815,0.7488898210301003,-0.4115799597658863,0.2017806604953177,19.1000003815,0.0,1.136252608958888,2.6253314624385293
1648295783867325285,65355,6,4,1.90700614452,-0.0600661747158,0.232927903533,-0.0809188112617,19.1000003815,0.6377946971638795,-0.020089021644080267,0.07790230887391304,19.1000003815,-0.010934974494824324,0.90220159623631,1.9221175273188429
1648295783972212075,65356,7,0,0.0127207012847,0.0439508594573,0.0102140065283,0.0,18.5,0.004254415145384615,0.014699284099431437,0.003416055695083612,18.5,0.0,0.01588297986822227,0.04688091528084813
1648295783972220933,65357,7,1,0.0334906764328,0.0146502861753,-0.0293524079025,0.0,18.5,0.011200895128026755,0.0048997612626421405,-0.009816858830267557,18.5,0.0,0.01658094580441645,0.04688091448147568
1648295783972225704,65358,7,2,0.387084186077,-0.0,1.05646121502,0.0,18.5,0.1294595940056856,-0.0,0.35333151004013374,18.5,0.0,0.18308351362215522,1.1251419759090087
1648295783972228333,65359,7,3,1.91032683849,-0.0600661747158,0.203909635544,0.0,18.5,0.6389052971538461,-0.020089021644080267,0.06819720252307691,18.5,0.0,0.9037718330713262,1.9221175080280275
1648295783972231038,65360,7,4,2.24107074738,-1.2306240797,0.596264541149,0.0,18.5,0.7495219890903009,-0.4115799597658863,0.19941957897959864,18.5,0.0,1.137085963127085,2.6253314311399714
1648295784167027370,65361,9,0,0.0127217965201,0.0439508594573,0.010212643072,0.0,15.8999996185,0.004254781444849498,0.014699284099431437,0.0034155996896321067,15.8999996185,0.0,0.015883176109414296,0.046880915437416903
1648295784167034252,65362,9,1,0.0334416292608,0.0146502861753,-0.0294082760811,0.0,15.8999996185,0.011184491391571906,0.0048997612626421405,-0.009835543839832775,15.8999996185,0.0,0.016558784852977005,0.04688091461028868
1648295784167042781,65363,9,2,0.402890175581,-0.0,1.05053508282,0.0,15.8999996185,0.13474587812073577,-0.0,0.35134952602675584,15.8999996185,0.0,0.1905594483122166,1.125141970515416
1648295784167053585,65364,9,3,1.91687142849,-0.120132349432,0.0755532085896,0.0,15.8999996185,0.6410941232408026,-0.040178043288294316,0.025268631635317725,15.8999996185,0.0,0.9075338147255246,1.9221176192079217
1648295784167063906,65365,9,4,2.24042701721,-1.2306240797,0.59867811203,0.0,15.8999996185,0.7493066947190635,-0.4115799597658863,0.2002267933210702,15.8999996185,0.0,1.1368021414399712,2.6253312794399446
1648295784272163583,65366,10,0,0.0126303741708,0.0439508594573,0.0103254942223,0.0,15.5,0.004224205408294314,0.014699284099431437,0.003453342549264214,15.5,0.0,0.01586684517157471,0.046880915409839206
1648295784272166260,65367,10,1,0.0335134975612,0.0146502861753,-0.0293263476342,0.0,15.5,0.01120852761244147,0.0048997612626421405,-0.009808143021471571,15.5,0.0,0.016591258026702325,0.04688091370019032
1648295784272169616,65368,10,2,0.578602254391,0.0703213736415,0.962402641773,0.0,15.5,0.1935124596625418,0.023518854060702338,0.321873793235117,15.5,0.0,0.2746766837312959,1.1251419951583108
1648295784272177245,65369,10,3,1.8990945816,-0.120132349432,-0.271190166473,0.0,15.5,0.6351486894983277,-0.040178043288294316,-0.09069905233210701,15.5,0.0,0.8991340226603386,1.9221176128515614
1648295784272184259,65370,10,4,2.24264550209,-1.2306240797,0.590313732624,0.0,15.5,0.7500486629063544,-0.4115799597658863,0.1974293420147157,15.5,0.0,1.137780320068909,2.6253313650864074
1648295784272310647,65371,10,5,1.89867293835,-0.180198520422,0.23896753788,-0.242756426334,15.5,0.6350076716889632,-0.06026706368628762,0.0799222534715719,15.5,-0.03280492247756756,0.9000564455483018,1.9221175608545202
1648295784467061298,65372,12,0,0.0127207012847,0.0439508594573,0.0102140065283,0.0,27.0,0.004254415145384615,0.014699284099431437,0.003416055695083612,27.0,0.0,0.01588297986822227,0.04688091528084813
1648295784467066000,65373,12,1,0.0335772000253,0.0146502861753,-0.0292533896863,0.0,27.0,0.01122983278438127,0.0048997612626421405,-0.00978374237,27.0,0.0,0.016620046605266104,0.04688091354374097
1648295784467069063,65374,12,2,0.402890175581,-0.0,1.05053508282,0.0,27.0,0.13474587812073577,-0.0,0.35134952602675584,27.0,0.0,0.1905594483122166,1.125141970515416
1648295784467072089,65375,12,3,1.92090117931,-0.0600661747158,-0.032656237483,0.0,27.0,0.6424418659899664,-0.020089021644080267,-0.01092181855618729,27.0,0.0,0.9087720677617442,1.9221175083397175
1648295784467132678,65376,12,4,2.2412416935,-1.2306240797,0.595621347427,0.0,27.0,0.7495791617056856,-0.4115799597658863,0.19920446402240802,27.0,0.0,1.137161335346786,2.625331358844246
1648295784571859768,65377,13,0,0.0127004906535,0.0439508594573,0.0102391270921,0.0,15.6000003815,0.004247655736956521,0.014699284099431437,0.003424457221438127,15.6000003815,0.0,0.01587936118221376,0.046880915450566385
1648295784571869648,65378,13,1,0.0334906764328,0.0146502861753,-0.0293524079025,0.0,15.6000003815,0.011200895128026755,0.0048997612626421405,-0.009816858830267557,15.6000003815,0.0,0.01658094580441645,0.04688091448147568
1648295784571871949,65379,13,2,0.571855962276,0.0703213736415,0.966426491737,0.0,15.6000003815,0.19125617467424746,0.023518854060702338,0.32321956245384614,15.6000003815,0.0,0.27149767070525876,1.1251419915337455
1648295784571875617,65380,13,3,1.87465500832,-0.0,0.424505114555,0.0,15.6000003815,0.6269749191705685,-0.0,0.1419749547006689,15.6000003815,0.0,0.8866764339587929,1.922117580301115
1648295784571879733,65381,13,4,2.2418153286,-1.2306240797,0.593458890915,0.0,15.6000003815,0.7497710129096989,-0.4115799597658863,0.19848123441973245,15.6000003815,0.0,1.1374142635294147,2.6253314168480633
1648295784767093766,65382,15,0,0.0127004906535,0.0439508594573,0.0102391270921,0.0,15.6999998093,0.004247655736956521,0.014699284099431437,0.003424457221438127,15.6999998093,0.0,0.01587936118221376,0.046880915450566385
1648295784767196512,65383,15,1,0.0335134975612,0.0146502861753,-0.0293263476342,0.0,15.6999998093,0.01120852761244147,0.0048997612626421405,-0.009808143021471571,15.6999998093,0.0,0.016591258026702325,0.04688091370019032
1648295784767206808,65384,15,2,0.402890175581,-0.0,1.05053508282,0.0,15.6999998093,0.13474587812073577,-0.0,0.35134952602675584,15.6999998093,0.0,0.1905594483122166,1.125141970515416
1648295784767226070,65385,15,3,0.571855962276,0.0703213736415,0.966426491737,0.0,15.6999998093,0.19125617467424746,0.023518854060702338,0.32321956245384614,15.6999998093,0.0,0.27149767070525876,1.1251419915337455
1648295784767229799,65386,15,4,2.2431397438,-1.2306240797,0.588432848454,0.0,15.6999998093,0.7502139611371237,-0.4115799597658863,0.1968002837638796,15.6999998093,0.0,1.1379982593356617,2.6253313605890383
1648295784767233852,65387,15,5,1.89961493015,-0.240264698863,0.168142512441,-0.161837622523,15.6999998093,0.6353227191137123,-0.08035608657625418,0.05623495399364548,15.6999998093,-0.021869948989594594,0.9020681878294636,1.9221175595833075
