%time,field.header.seq,field.header.frame_id,field.point_id,field.x,field.y,field.z,field.velocity,field.intensity,normalized_x,normalized_y,normalized_z,normalized_intensity,normalized_velocity,normalized_range,range
1648295996370587614,71494,0,0,0.0127909947187,0.0439508594573,0.0101258400828,0.0,14.8999996185,0.004277924655083612,0.014699284099431437,0.0033865685895652173,14.8999996185,0.0,0.015895604164200314,0.04688091541674061
1648295996370600454,71495,0,1,0.0335404723883,0.0146502861753,-0.0292954929173,0.0,14.8999996185,0.011217549293745818,0.0048997612626421405,-0.009797823718160533,14.8999996185,0.0,0.016603447977637752,0.046880913795659694
1648295996370612634,71496,0,2,2.24510025978,-1.2306240797,0.580907940865,0.0,14.8999996185,0.7508696521003344,-0.4115799597658863,0.19428359226254177,14.8999996185,0.0,1.1388628241238903,2.6253313767526016
1648295996475598639,71497,1,0,0.0127016305923,0.0439508594573,0.0102377133444,0.0,15.1999998093,0.0042480369873913034,0.014699284099431437,0.0034239843961204014,15.1999998093,0.0,0.01587956515551629,0.04688091553351634
1648295996475606129,71498,1,1,0.0335041433573,0.0146502861753,-0.0293370354921,0.0,15.1999998093,0.011205399116153847,0.0048997612626421405,-0.009811717555886288,15.1999998093,0.0,0.016587031052466603,0.046880914651800804
1648295996475621234,71499,1,2,1.86594700813,-0.175803437829,0.0620264708996,0.0,15.1999998093,0.6240625445250836,-0.05879713639765886,0.020744639096856185,15.1999998093,0.0,0.8845141164542308,1.8752366168017445
1648295996475638685,71500,1,3,1.9227707386,-0.184593603015,0.381880581379,0.0,15.1999998093,0.6430671366555183,-0.06173699097491638,0.1277192579862876,15.1999998093,0.0,0.9115273668668928,1.968998448431286
1648295996475662332,71501,1,4,2.24539017677,-1.2306240797,0.579786717892,0.0,15.1999998093,0.7509666143043477,-0.4115799597658863,0.19390860130167223,15.1999998093,0.0,1.1389906825256995,2.625331466637434
1648295996670613601,71502,3,0,0.0127004906535,0.0439508594573,0.0102391270921,0.0,15.1999998093,0.004247655736956521,0.014699284099431437,0.003424457221438127,15.1999998093,0.0,0.01587936118221376,0.046880915450566385
1648295996670620297,71503,3,1,0.0335404723883,0.0146502861753,-0.0292954929173,0.0,15.1999998093,0.011217549293745818,0.0048997612626421405,-0.009797823718160533,15.1999998093,0.0,0.016603447977637752,0.046880913795659694
1648295996670644675,71504,3,2,1.78117108345,-0.0,0.722471773624,0.0,15.1999998093,0.595709392458194,-0.0,0.24162935572709027,15.1999998093,0.0,0.8424603020474147,1.922117554209902
1648295996670658453,71505,3,3,2.24338459969,-1.2306240797,0.587499141693,0.0,15.1999998093,0.7502958527391305,-0.4115799597658863,0.19648800725518392,15.1999998093,0.0,1.138106232544206,2.625331470339269
1648295996775767008,71506,4,0,0.0128007447347,0.0439508594573,0.0101135112345,0.0,15.0,0.0042811855299999995,0.014699284099431437,0.0033824452289297653,15.0,0.0,0.015897359910386398,0.04688091533117335
1648295996775773578,71507,4,1,0.0335041433573,0.0146502861753,-0.0293370354921,0.0,15.0,0.011205399116153847,0.0048997612626421405,-0.009811717555886288,15.0,0.0,0.016587031052466603,0.046880914651800804
1648295996775789201,71508,4,2,1.89761865139,-0.120132349432,0.281331598759,0.0,15.0,0.634655067354515,-0.040178043288294316,0.09409083570535116,15.0,0.0,0.8984366333804539,1.9221175291702506
1648295996775794609,71509,4,3,2.24605894089,-1.2306240797,0.577189803123,0.0,15.0,0.7511902812341136,-0.4115799597658863,0.19304006793411368,15.0,0.0,1.139285627277928,2.6253313048677396
1648295996970822680,71510,6,0,0.0127217965201,0.0439508594573,0.010212643072,0.0,15.3000001907,0.004254781444849498,0.014699284099431437,0.0034155996896321067,15.3000001907,0.0,0.015883176109414296,0.046880915437416903
1648295996970839347,71511,6,1,0.0335269682109,0.0146502861753,-0.0293109472841,0.0,15.3000001907,0.01121303284645485,0.0048997612626421405,-0.00980299240270903,15.3000001907,0.0,0.016597345319726262,0.046880914166899254
1648295996970845354,71512,6,2,1.9017663002,-0.0600661747158,0.272420763969,0.0,15.3000001907,0.6360422408695652,-0.020089021644080267,0.09111062340100334,15.3000001907,0.0,0.8997238649337764,1.9221176026879414
1648295996970862096,71513,6,3,2.2450492382,-1.2306240797,0.581104636192,0.0,15.3000001907,0.7508525880267558,-0.4115799597658863,0.1943493766528428,15.3000001907,0.0,1.1388403229486752,2.6253312754172016
1648295997075770363,71514,7,0,0.0127016305923,0.0439508594573,0.0102377133444,0.0,15.0,0.0042480369873913034,0.014699284099431437,0.0034239843961204014,15.0,0.0,0.01587956515551629,0.04688091553351634
1648295997075782343,71515,7,1,0.0335269682109,0.0146502861753,-0.0293109472841,0.0,15.0,0.01121303284645485,0.0048997612626421405,-0.00980299240270903,15.0,0.0,0.016597345319726262,0.046880914166899254
1648295997075785471,71516,7,2,1.86148846149,-0.180198520422,0.443762809038,0.0,15.0,0.6225713918026755,-0.06026706368628762,0.1484156551966555,15.0,0.0,0.8825091471183786,1.9221176420052914
1648295997075790405,71517,7,3,2.2443459034,-1.2306240797,0.583815813065,0.0,15.0,0.7506173589966555,-0.4115799597658863,0.19525612477090298,15.0,0.0,1.1385301500334177,2.625331419693632
1648295997270625219,71518,9,0,0.0127217965201,0.0439508594573,0.010212643072,0.0,15.1999998093,0.004254781444849498,0.014699284099431437,0.0034155996896321067,15.1999998093,0.0,0.015883176109414296,0.046880915437416903
1648295997270629611,71519,9,1,0.0335269682109,0.0146502861753,-0.0293109472841,0.0,15.1999998093,0.01121303284645485,0.0048997612626421405,-0.00980299240270903,15.1999998093,0.0,0.016597345319726262,0.046880914166899254
1648295997270641966,71520,9,2,2.24447751045,-1.2306240797,0.583309352398,0.0,15.1999998093,0.7506613747324414,-0.4115799597658863,0.19508673993244144,15.1999998093,0.0,1.138588188201198,2.625331354524277
1648295997375745862,71521,10,0,0.0127016305923,0.0439508594573,0.0102377133444,0.0,15.6000003815,0.0042480369873913034,0.014699284099431437,0.0034239843961204014,15.6000003815,0.0,0.01587956515551629,0.04688091553351634
1648295997375750359,71522,10,1,0.0335404723883,0.0146502861753,-0.0292954929173,0.0,15.6000003815,0.011217549293745818,0.0048997612626421405,-0.009797823718160533,15.6000003815,0.0,0.016603447977637752,0.046880913795659694
1648295997375773090,71523,10,2,2.24523425102,-1.2306240797,0.580390095711,0.0,15.6000003815,0.7509144652240801,-0.4115799597658863,0.19411039990334447,15.6000003815,0.0,1.1389219163078832,2.6253314325414676
1648295997570764558,71524,12,0,0.0127217965201,0.0439508594573,0.010212643072,0.0,14.8000001907,0.004254781444849498,0.014699284099431437,0.0034155996896321067,14.8000001907,0.0,0.015883176109414296,0.046880915437416903
1648295997570778727,71525,12,1,0.033517640084,0.0146502861753,-0.0293216109276,0.0,14.8000001907,0.011209913071571907,0.0048997612626421405,-0.009806558838662207,14.8000001907,0.0,0.016593129981268932,0.04688091241868381
1648295997570783484,71526,12,2,1.9122633934,-0.180198520422,0.0728937983513,0.0,14.8000001907,0.6395529743812708,-0.06026706368628762,0.02437919677301003,14.8000001907,0.0,0.9064701501126377,1.9221176598580123
1648295997570791666,71527,12,3,2.24152779579,-1.2306240797,0.594543933868,0.0,14.8000001907,0.749674848090301,-0.4115799597658863,0.19884412503946486,14.8000001907,0.0,1.137287483004768,2.625331402725356
1648295997675838628,71528,13,0,0.0128108067438,0.0439508594573,0.0101007642224,0.0,14.6000003815,0.004284550750434783,0.014699284099431437,0.0033781820141806015,14.6000003815,0.0,0.01589917303830298,0.046880915672999006
1648295997675859970,71529,13,1,0.0335404723883,0.0146502861753,-0.0292954929173,0.0,14.6000003815,0.011217549293745818,0.0048997612626421405,-0.009797823718160533,14.6000003815,0.0,0.016603447977637752,0.046880913795659694
1648295997675862295,71530,13,2,2.24615955353,-1.2306240797,0.576798200607,0.0,14.6000003815,0.7512239309464883,-0.4115799597658863,0.19290909719297658,14.6000003815,0.0,1.1393300014193768,2.6253313180768316
1648295997870863202,71531,15,0,0.0127100823447,0.0439508594573,0.0102272182703,0.0,14.8999996185,0.004250863660434782,0.014699284099431437,0.003420474337892977,14.8999996185,0.0,0.01588107794688408,0.04688091545386831
1648295997870872445,71532,15,1,0.0335404723883,0.0146502861753,-0.0292954929173,0.0,14.8999996185,0.011217549293745818,0.0048997612626421405,-0.009797823718160533,14.8999996185,0.0,0.016603447977637752,0.046880913795659694
1648295997870876370,71533,15,2,1.9285107851,-0.12306240201,0.37769946456,0.0,14.8999996185,0.6449868846488294,-0.04115799398327759,0.1263208911571906,14.8999996185,0.0,0.9130772931174733,1.9689984988730693
1648295997870985288,71534,15,3,2.24195313454,-1.2306240797,0.592937648296,0.0,14.8999996185,0.7498171018528428,-0.4115799597658863,0.19830690578461538,14.8999996185,0.0,1.137475026426023,2.625331319620058
1648295997975691435,71535,16,0,0.0128108067438,0.0439508594573,0.0101007642224,0.0,14.6000003815,0.004284550750434783,0.014699284099431437,0.0033781820141806015,14.6000003815,0.0,0.01589917303830298,0.046880915672999006
1648295997975697115,71536,16,1,0.0335404723883,0.0146502861753,-0.0292954929173,0.0,14.6000003815,0.011217549293745818,0.0048997612626421405,-0.009797823718160533,14.6000003815,0.0,0.016603447977637752,0.046880913795659694
1648295997975700556,71537,16,2,1.95083272457,-0.061531201005,0.259654194117,0.0,14.6000003815,0.6524524162441471,-0.020578996991638794,0.08684086759765887,14.6000003815,0.0,0.9229365124659623,1.9689984023540688
1648295997975709366,71538,16,3,2.24349999428,-1.2306240797,0.587058365345,0.0,14.6000003815,0.7503344462474916,-0.4115799597658863,0.19634059041638793,14.6000003815,0.0,1.1381571182099368,2.6253314789171625
