%time,field.header.seq,field.header.frame_id,field.point_id,field.x,field.y,field.z,field.velocity,field.intensity,normalized_x,normalized_y,normalized_z,normalized_intensity,normalized_velocity,normalized_range,range
1648219285355963259,68771,0,0,0.00562640046701,0.0454158857465,0.0101765012369,0.0,16.2000007629,0.001881739286625418,0.015189259446989964,0.0034035121193645487,16.2000007629,0.0,0.015420618925115585,0.04688091549638231
1648219285355966495,68772,0,1,0.0334010198712,0.0146502861753,-0.0294543914497,0.0,16.2000007629,0.011170909655919731,0.0048997612626421405,-0.009850967040033444,16.2000007629,0.0,0.016540438492141915,0.046880914977489974
1648219285355968424,68773,0,2,1.91252040863,0.184593603015,0.430285513401,0.0,16.2000007629,0.6396389326521739,0.06173699097491638,0.14390819846187292,16.2000007629,0.0,0.9066903464708672,1.968998409025026
1648219285551009001,68774,2,0,0.0122110880911,0.0439508594573,0.0108181107789,0.0,11.3000001907,0.004083975950200668,0.014699284099431437,0.0036180972504682276,11.3000001907,0.0,0.01579324767612516,0.046880915522507595
1648219285551148408,68775,2,1,0.0334981679916,0.0146502861753,-0.0293438583612,0.0,11.3000001907,0.011203400666086955,0.0048997612626421405,-0.009813999451906355,11.3000001907,0.0,0.016584330960296344,0.04688091474506239
1648219285551152322,68776,2,2,0.933191895485,1.37126672268,0.31169745326,0.0,11.3000001907,0.31210431287123747,0.4586176330033444,0.10424663988628761,11.3000001907,0.0,0.63651263736649,1.6877129023910449
1648219285551153544,68777,2,3,0.44417566061,-1.4240077734,-0.789483785629,0.0,11.3000001907,0.14855373264548494,-0.4762567804013378,-0.26404139987591974,11.3000001907,0.0,0.5205352474559821,1.6877128914460104
1648219285551154936,68778,2,4,1.91697740555,0.120132349432,0.0728151351213,0.0,11.3000001907,0.6411295670735785,0.040178043288294316,0.02435288800043478,11.3000001907,0.0,0.9075838907309804,1.9221176339319075
1648219285551263073,68779,2,5,1.85806107521,0.180198520422,0.457901269197,-0.161837622523,11.3000001907,0.6214251087658862,0.06026706368628762,0.1531442371896321,11.3000001907,-0.021869948989594594,0.8808918495336155,1.9221175922156903
1648219285656057344,68780,3,0,0.00560000818223,0.0454158857465,0.0101910484955,0.0,28.5,0.001872912435528428,0.015189259446989964,0.003408377423244147,28.5,0.0,0.015418469591055006,0.046880915511728405
1648219285656062483,68781,3,1,0.0334466174245,0.0146502861753,-0.0294026006013,0.0,28.5,0.011186159673745819,0.0048997612626421405,-0.009833645686053511,28.5,0.0,0.016561038521903233,0.04688091321933288
1648219285656067193,68782,3,2,0.860887110233,1.4240077734,0.281868875027,0.0809188112617,28.5,0.2879221104458194,0.4762567804013378,0.09427052676488293,28.5,0.010934974494824324,0.626593013243363,1.6877128956010077
1648219285656071177,68783,3,3,1.86696267128,0.175803437829,0.00747992657125,0.0809188112617,28.5,0.6244022311973244,0.05879713639765886,0.0025016476826923077,28.5,0.010934974494824324,0.8849934439852981,1.8752366288036717
1648219285656075049,68784,3,4,1.89346516132,-0.0,0.330644339323,-0.485512852669,28.5,0.6332659402408026,-0.0,0.11058339107792642,28.5,-0.06560984495527027,0.895573281277493,1.9221175812782414
1648219285850980147,68785,5,0,0.0122110880911,0.0439508594573,0.0108181107789,0.0,23.3999996185,0.004083975950200668,0.014699284099431437,0.0036180972504682276,23.3999996185,0.0,0.01579324767612516,0.046880915522507595
1648219285850984791,68786,5,1,0.0334149859846,0.0146502861753,-0.0294385440648,0.0,23.3999996185,0.011175580596856187,0.0048997612626421405,-0.009845666911304347,23.3999996185,0.0,0.01654674783105567,0.04688091349391959
1648219285850987391,68787,5,2,0.904602944851,1.46356356144,0.220207154751,0.0,23.3999996185,0.30254279092006686,0.4894861409498327,0.0736478778431438,23.3999996185,0.0,0.6501238057919169,1.7345938940315595
1648219285850989281,68788,5,3,1.91592490673,0.120132349432,-0.0966225787997,0.0809188112617,23.3999996185,0.6407775607792642,0.040178043288294316,-0.03231524374571906,23.3999996185,0.010934974494824324,0.9070865669598042,1.922117569854226
1648219285956146795,68789,6,0,0.0122110880911,0.0439508594573,0.0108181107789,0.0,14.3000001907,0.004083975950200668,0.014699284099431437,0.0036180972504682276,14.3000001907,0.0,0.01579324767612516,0.046880915522507595
1648219285956150071,68790,6,1,0.0334010198712,0.0146502861753,-0.0294543914497,0.0,14.3000001907,0.011170909655919731,0.0048997612626421405,-0.009850967040033444,14.3000001907,0.0,0.016540438492141915,0.046880914977489974
1648219285956152083,68791,6,2,1.91790282726,0.120132349432,0.0418657138944,0.0,14.3000001907,0.6414390726622073,0.040178043288294316,0.01400191100147157,14.3000001907,0.0,0.9080211688270164,1.9221175235119838
1648219286150961710,68792,8,0,0.00556434690952,0.0454158857465,0.0102105634287,0.0,15.1999998093,0.0018609855884682272,0.015189259446989964,0.0034149041567558525,15.1999998093,0.0,0.015415580990314532,0.04688091552220511
1648219286150968359,68793,8,1,0.0334149859846,0.0146502861753,-0.0294385440648,0.0,15.1999998093,0.011175580596856187,0.0048997612626421405,-0.009845666911304347,15.1999998093,0.0,0.01654674783105567,0.04688091349391959
1648219286150989522,68794,8,2,1.9067568779,0.240264698863,-0.0329712741077,0.404594063759,15.1999998093,0.6377113304013378,0.08035608657625418,-0.011027181975819396,15.1999998093,0.05467487348094594,0.9054328150085675,1.9221175879365362
1648219286151002585,68795,8,3,1.910384655,0.180198520422,0.111780256033,-0.242756426334,15.1999998093,0.6389246337792642,0.06026706368628762,0.037384701014381266,15.1999998093,-0.03280492247756756,0.9055835103762109,1.9221175464733031
1648219286151004627,68796,8,4,1.86981570721,0.117202289402,-0.0810246840119,-0.161837622523,15.1999998093,0.6253564238160534,0.03919809010100334,-0.02709855652571906,15.1999998093,-0.021869948989594594,0.8852557844394879,1.8752365597410718
1648219286255995287,68797,9,0,0.0122110880911,0.0439508594573,0.0108181107789,0.0,27.8999996185,0.004083975950200668,0.014699284099431437,0.0036180972504682276,27.8999996185,0.0,0.01579324767612516,0.046880915522507595
1648219286255999641,68798,9,1,0.0333628132939,0.0146502861753,-0.0294976588339,0.0,27.8999996185,0.011158131536421404,0.0048997612626421405,-0.0098654377370903,27.8999996185,0.0,0.016523179451880688,0.04688091373451434
1648219286256002333,68799,9,2,2.10478425026,-1.12074685097,-0.174182683229,0.0,27.8999996185,0.7039412208227424,-0.3748317227324415,-0.058255078003010025,27.8999996185,0.0,1.063750584071941,2.3909265675128077
1648219286256005681,68800,9,3,1.81128394604,0.114272229373,0.221532940865,-0.161837622523,27.8999996185,0.6057805839598662,0.03821813691404682,0.0740912845702341,27.8999996185,-0.021869948989594594,0.8575551631205388,1.8283556873530942
1648219286450893087,68801,11,0,0.00566155510023,0.0454158857465,0.0101569853723,0.0,31.3999996185,0.0018934966890401337,0.015189259446989964,0.003396985074347826,31.3999996185,0.0,0.015423497073322436,0.04688091547895794
1648219286450895054,68802,11,1,0.0334149859846,0.0146502861753,-0.0294385440648,0.0,31.3999996185,0.011175580596856187,0.0048997612626421405,-0.009845666911304347,31.3999996185,0.0,0.01654674783105567,0.04688091349391959
1648219286450904592,68803,11,2,0.76368188858,1.38445210457,0.438648223877,-0.161837622523,31.3999996185,0.25541200286956517,0.463027459722408,0.14670509159765885,31.3999996185,-0.021869948989594594,0.5872520846081959,1.6408320819339999
1648219286451050893,68804,11,3,1.86889004707,0.117202289402,-0.100128687918,-0.0809188112617,31.3999996185,0.6250468384849498,0.03919809010100334,-0.0334878554909699,31.3999996185,-0.010934974494824324,0.8848183942864368,1.8752365554304227
1648219286556052651,68805,12,0,0.00556060066447,0.0454158857465,0.0102126039565,0.0,19.1000003815,0.001859732663702341,0.015189259446989964,0.003415586607525083,19.1000003815,0.0,0.015415278580319484,0.04688091549299315
1648219286556066831,68806,12,1,0.0334466174245,0.0146502861753,-0.0294026006013,0.0,19.1000003815,0.011186159673745819,0.0048997612626421405,-0.009833645686053511,19.1000003815,0.0,0.016561038521903233,0.04688091321933288
1648219286556071401,68807,12,2,1.87215423584,0.0586011447012,-0.0900925174356,0.0,19.1000003815,0.6261385404147157,0.019599045050568562,-0.03013127673431438,19.1000003815,0.0,0.8857104866446119,1.8752365820428711
1648219286751031567,68808,14,0,0.00556060066447,0.0454158857465,0.0102126039565,0.0,16.0,0.001859732663702341,0.015189259446989964,0.003415586607525083,16.0,0.0,0.015415278580319484,0.04688091549299315
1648219286751038371,68809,14,1,0.0334149859846,0.0146502861753,-0.0294385440648,0.0,16.0,0.011175580596856187,0.0048997612626421405,-0.009845666911304347,16.0,0.0,0.01654674783105567,0.04688091349391959
1648219286751041345,68810,14,2,0.963280797005,1.37126672268,0.20023137331,0.0,16.0,0.32216749063712374,0.4586176330033444,0.06696701448494982,16.0,0.0,0.6464626186783213,1.6877129262601933
1648219286751045553,68811,14,3,1.82345664501,0.114272229373,0.0695123970509,0.0,16.0,0.6098517207391304,0.03821813691404682,0.023248293328060197,16.0,0.0,0.8633069376335033,1.8283556142011221
1648219286856167842,68812,15,0,0.00560000818223,0.0454158857465,0.0101910484955,0.0,14.1000003815,0.001872912435528428,0.015189259446989964,0.003408377423244147,14.1000003815,0.0,0.015418469591055006,0.046880915511728405
1648219286856171843,68813,15,1,0.0334466174245,0.0146502861753,-0.0294026006013,0.0,14.1000003815,0.011186159673745819,0.0048997612626421405,-0.009833645686053511,14.1000003815,0.0,0.016561038521903233,0.04688091321933288
1648219286856173642,68814,15,2,1.85915625095,0.175803437829,-0.17071454227,0.0,14.1000003815,0.621791388277592,0.05879713639765886,-0.05709516463879598,14.1000003815,0.0,0.8813093465525684,1.8752365901777328
1648219287051047807,68815,17,0,0.00560000818223,0.0454158857465,0.0101910484955,0.0,16.8999996185,0.001872912435528428,0.015189259446989964,0.003408377423244147,16.8999996185,0.0,0.015418469591055006,0.046880915511728405
1648219287051049906,68816,17,1,0.0334466174245,0.0146502861753,-0.0294026006013,0.0,16.8999996185,0.011186159673745819,0.0048997612626421405,-0.009833645686053511,16.8999996185,0.0,0.016561038521903233,0.04688091321933288
1648219287051056527,68817,17,2,1.80987405777,0.228544458747,-0.12250675261,0.0,16.8999996185,0.6053090494214046,0.07643627382842809,-0.04097215806354515,16.8999996185,0.0,0.8594420251416982,1.8283557036440838
1648219287156060026,68818,18,0,0.00556060066447,0.0454158857465,0.0102126039565,0.0,11.5,0.001859732663702341,0.015189259446989964,0.003415586607525083,11.5,0.0,0.015415278580319484,0.04688091549299315
1648219287156066102,68819,18,1,0.0334149859846,0.0146502861753,-0.0294385440648,0.0,11.5,0.011175580596856187,0.0048997612626421405,-0.009845666911304347,11.5,0.0,0.01654674783105567,0.04688091349391959
1648219287156068485,68820,18,2,1.86107802391,0.117202289402,-0.197899594903,0.0,11.5,0.62243412170903,0.03919809010100334,-0.06618715548595316,11.5,0.0,0.8811270975307418,1.875236528383711
1648219287351039256,68821,20,0,0.0122110880911,0.0439508594573,0.0108181107789,0.0,18.2000007629,0.004083975950200668,0.014699284099431437,0.0036180972504682276,18.2000007629,0.0,0.01579324767612516,0.046880915522507595
1648219287351043263,68822,20,1,0.0334466174245,0.0146502861753,-0.0294026006013,0.0,18.2000007629,0.011186159673745819,0.0048997612626421405,-0.009833645686053511,18.2000007629,0.0,0.016561038521903233,0.04688091321933288
1648219287351045091,68823,20,2,1.86697256565,0.175803437829,-0.00434834184125,0.0809188112617,18.2000007629,0.6244055403511706,0.05879713639765886,-0.0014542949301839462,18.2000007629,0.010934974494824324,0.8849981134957519,1.8752366031301242
1648219287351178314,68824,20,3,1.85609769821,0.234404578805,-0.128328338265,-0.485512852669,18.2000007629,0.6207684609397993,0.07839618020234114,-0.042919176677257524,18.2000007629,-0.06560984495527027,0.8813926056335237,1.875236607542383
1648219287456183203,68825,21,0,0.00560000818223,0.0454158857465,0.0101910484955,0.0,26.7000007629,0.001872912435528428,0.015189259446989964,0.003408377423244147,26.7000007629,0.0,0.015418469591055006,0.046880915511728405
1648219287456185153,68826,21,1,0.0334981679916,0.0146502861753,-0.0293438583612,0.0,26.7000007629,0.011203400666086955,0.0048997612626421405,-0.009813999451906355,26.7000007629,0.0,0.016584330960296344,0.04688091474506239
1648219287456186730,68827,21,2,1.86542272568,0.175803437829,-0.0761818811297,0.0,26.7000007629,0.6238871992240802,0.05879713639765886,-0.025478890009933107,26.7000007629,0.0,0.8842666893872567,1.8752366445993838
