%time,field.header.seq,field.header.frame_id,field.point_id,field.x,field.y,field.z,field.velocity,field.intensity,normalized_x,normalized_y,normalized_z,normalized_intensity,normalized_velocity,normalized_range,range
1648295983575569418,71142,0,0,0.0127121871337,0.0439508594573,0.0102246021852,0.0,15.0,0.004251567603244147,0.014699284099431437,0.003419599393043478,15.0,0.0,0.01588145482018912,0.04688091550517269
1648295983575584722,71143,0,1,0.0335269682109,0.0146502861753,-0.0293109472841,0.0,15.0,0.01121303284645485,0.0048997612626421405,-0.00980299240270903,15.0,0.0,0.016597345319726262,0.046880914166899254
1648295983575588946,71144,0,2,1.8584228754,-0.175803437829,0.178521648049,0.0,15.0,0.621546112173913,-0.05879713639765886,0.05970623680568562,15.0,0.0,0.8809632468869389,1.8752366281044721
1648295983575596830,71145,0,3,2.24082326889,-1.2306240797,0.597194135189,0.0,15.0,0.7494392203645484,-0.4115799597658863,0.19973047999632104,15.0,0.0,1.1369768481909088,2.625331480602111
1648295983770473397,71146,2,0,0.0127534996718,0.0439508594573,0.0101730246097,0.0,14.8999996185,0.004265384505618729,0.014699284099431437,0.0034023493677926417,14.8999996185,0.0,0.015888862860423413,0.04688091542006727
1648295983770479858,71147,2,1,0.0335041433573,0.0146502861753,-0.0293370354921,0.0,14.8999996185,0.011205399116153847,0.0048997612626421405,-0.009811717555886288,14.8999996185,0.0,0.016587031052466603,0.046880914651800804
1648295983770509647,71148,2,2,1.87187063694,0.0586011447012,-0.095804259181,0.0,14.8999996185,0.626043691284281,0.019599045050568562,-0.032041558254515046,14.8999996185,0.0,0.8855763825670773,1.8752365801881299
1648295983770513604,71149,2,3,2.24285411835,-1.2306240797,0.589520931244,0.0,14.8999996185,0.7501184342307692,-0.4115799597658863,0.19716419105150498,14.8999996185,0.0,1.137872310071095,2.62533143624035
1648295983875593220,71150,3,0,0.0127217965201,0.0439508594573,0.010212643072,0.0,15.1999998093,0.004254781444849498,0.014699284099431437,0.0034155996896321067,15.1999998093,0.0,0.015883176109414296,0.046880915437416903
1648295983875599345,71151,3,1,0.0335269682109,0.0146502861753,-0.0293109472841,0.0,15.1999998093,0.01121303284645485,0.0048997612626421405,-0.00980299240270903,15.1999998093,0.0,0.016597345319726262,0.046880914166899254
1648295983875614987,71152,3,2,1.89801108837,-0.0600661747158,0.297459065914,0.0,15.1999998093,0.634786317180602,-0.020089021644080267,0.09948463742943144,15.1999998093,0.0,0.8979481642890307,1.9221175647745616
1648295983875635050,71153,3,3,2.24553442001,-1.2306240797,0.579227685928,0.0,15.1999998093,0.7510148561906353,-0.4115799597658863,0.19372163408963208,15.1999998093,0.0,1.1390542970899018,2.625331439862903
1648295984070485959,71154,5,0,0.0127207012847,0.0439508594573,0.0102140065283,0.0,15.0,0.004254415145384615,0.014699284099431437,0.003416055695083612,15.0,0.0,0.01588297986822227,0.04688091528084813
1648295984070494397,71155,5,1,0.0335269682109,0.0146502861753,-0.0293109472841,0.0,15.0,0.01121303284645485,0.0048997612626421405,-0.00980299240270903,15.0,0.0,0.016597345319726262,0.046880914166899254
1648295984070574526,71156,5,2,1.84054541588,-0.234404578805,0.271955132484,0.0,15.0,0.615567028722408,-0.07839618020234114,0.09095489380735786,15.0,0.0,0.8740660700259367,1.8752366593488998
1648295984070579311,71157,5,3,2.24393773079,-1.2306240797,0.585382342339,0.0,15.0,0.7504808464180601,-0.4115799597658863,0.19578004760501672,15.0,0.0,1.1383501504201703,2.6253313413591703
1648295984175455194,71158,6,0,0.0127419224009,0.0439508594573,0.0101875215769,0.0,15.3999996185,0.004261512508662207,0.014699284099431437,0.0034071978518060196,15.3999996185,0.0,0.01588678478354783,0.04688091540686569
1648295984175470016,71159,6,1,0.0335404723883,0.0146502861753,-0.0292954929173,0.0,15.3999996185,0.011217549293745818,0.0048997612626421405,-0.009797823718160533,15.3999996185,0.0,0.016603447977637752,0.046880913795659694
1648295984175474741,71160,6,2,1.86727917194,-0.117202289402,0.126666501164,0.0,15.3999996185,0.6245080842608695,-0.03919809010100334,0.04236337831571906,15.3999996185,0.0,0.8840572294155672,1.875236594437921
1648295984175478075,71161,6,3,2.24687027931,-1.2306240797,0.574024140835,0.0,15.3999996185,0.7514616318762541,-0.4115799597658863,0.1919813180050167,15.3999996185,0.0,1.139643466898808,2.625331482279034
1648295984370559494,71162,8,0,0.0127217965201,0.0439508594573,0.010212643072,0.0,15.1000003815,0.004254781444849498,0.014699284099431437,0.0034155996896321067,15.1000003815,0.0,0.015883176109414296,0.046880915437416903
1648295984370571191,71163,8,1,0.033517640084,0.0146502861753,-0.0293216109276,0.0,15.1000003815,0.011209913071571907,0.0048997612626421405,-0.009806558838662207,15.1000003815,0.0,0.016593129981268932,0.04688091241868381
1648295984370576857,71164,8,2,2.2453315258,-1.2306240797,0.580013275146,0.0,15.1000003815,0.7509469985953178,-0.4115799597658863,0.1939843729585284,15.1000003815,0.0,1.1389648162605908,2.625331347779632
1648295984370582828,71165,8,3,1.86804330349,-0.0586011447012,0.153272524476,0.0809188112617,15.1000003815,0.6247636466521739,-0.019599045050568562,0.051261713871571905,15.1000003815,0.010934974494824324,0.8837665703810815,1.8752366103063818
1648295984370597210,71166,8,4,0.959424138069,-0.158223092556,-1.37943673134,0.404594063759,15.1000003815,0.3208776381501672,-0.05291742225953177,-0.4613500773712374,15.1000003815,0.05467487348094594,0.4568644995053269,1.6877129256770569
1648295984475633392,71167,9,0,0.0127004906535,0.0439508594573,0.0102391270921,0.0,22.7999992371,0.004247655736956521,0.014699284099431437,0.003424457221438127,22.7999992371,0.0,0.01587936118221376,0.046880915450566385
1648295984475647776,71168,9,1,0.0335404723883,0.0146502861753,-0.0292954929173,0.0,22.7999992371,0.011217549293745818,0.0048997612626421405,-0.009797823718160533,22.7999992371,0.0,0.016603447977637752,0.046880913795659694
1648295984475654108,71169,9,2,2.24486851692,-1.2306240797,0.581803143024,0.0,22.7999992371,0.7507921461270902,-0.4115799597658863,0.19458299097792642,22.7999992371,0.0,1.1387606230692788,2.625331442128532
1648295984475657293,71170,9,3,1.91700065136,-0.120132349432,0.0721973925829,0.0809188112617,22.7999992371,0.6411373415919732,-0.040178043288294316,0.02414628514478261,22.7999992371,0.010934974494824324,0.907594874781541,1.9221175151874783
1648295984670537775,71171,11,0,0.0127100823447,0.0439508594573,0.0102272182703,0.0,16.7999992371,0.004250863660434782,0.014699284099431437,0.003420474337892977,16.7999992371,0.0,0.01588107794688408,0.04688091545386831
1648295984670557169,71172,11,1,0.0335269682109,0.0146502861753,-0.0293109472841,0.0,16.7999992371,0.01121303284645485,0.0048997612626421405,-0.00980299240270903,16.7999992371,0.0,0.016597345319726262,0.046880914166899254
1648295984670561380,71173,11,2,1.90985095501,-0.180198520422,0.120556645095,0.0,16.7999992371,0.6387461387993311,-0.06026706368628762,0.04031994819230769,16.7999992371,0.0,0.9053316401338659,1.922117603527799
1648295984670582790,71174,11,3,2.24367976189,-1.2306240797,0.586370229721,0.0,16.7999992371,0.75039456919398,-0.4115799597658863,0.19611044472274244,16.7999992371,0.0,1.138236391191446,2.6253313211393525
1648295984775608434,71175,12,0,0.0127100823447,0.0439508594573,0.0102272182703,0.0,15.5,0.004250863660434782,0.014699284099431437,0.003420474337892977,15.5,0.0,0.01588107794688408,0.04688091545386831
1648295984775615494,71176,12,1,0.0335041433573,0.0146502861753,-0.0293370354921,0.0,15.5,0.011205399116153847,0.0048997612626421405,-0.009811717555886288,15.5,0.0,0.016587031052466603,0.046880914651800804
1648295984775627479,71177,12,2,2.2436504364,-1.2306240797,0.586482584476,0.0,15.5,0.7503847613377925,-0.4115799597658863,0.1961480215638796,15.5,0.0,1.138223459333377,2.6253313558842493
1648295984970484310,71178,14,0,0.0127100823447,0.0439508594573,0.0102272182703,0.0,15.5,0.004250863660434782,0.014699284099431437,0.003420474337892977,15.5,0.0,0.01588107794688408,0.04688091545386831
1648295984970488114,71179,14,1,0.033517640084,0.0146502861753,-0.0293216109276,0.0,15.5,0.011209913071571907,0.0048997612626421405,-0.009806558838662207,15.5,0.0,0.016593129981268932,0.04688091241868381
1648295984970490653,71180,14,2,2.24364876747,-1.2306240797,0.586489140987,0.0,15.5,0.750384203167224,-0.4115799597658863,0.19615021437692307,15.5,0.0,1.1382227233747833,2.625331394282023
1648295985075589425,71181,15,0,0.0127004906535,0.0439508594573,0.0102391270921,0.0,15.6000003815,0.004247655736956521,0.014699284099431437,0.003424457221438127,15.6000003815,0.0,0.01587936118221376,0.046880915450566385
1648295985075602046,71182,15,1,0.0335404723883,0.0146502861753,-0.0292954929173,0.0,15.6000003815,0.011217549293745818,0.0048997612626421405,-0.009797823718160533,15.6000003815,0.0,0.016603447977637752,0.046880913795659694
1648295985075613403,71183,15,2,1.91095983982,-0.0600661747158,0.197889789939,0.0,15.6000003815,0.6391170032842809,-0.020089021644080267,0.06618387623377926,15.6000003815,0.0,0.9040711568039185,1.922117536393644
1648295985075617305,71184,15,3,2.24495911598,-1.2306240797,0.581453025341,0.0,15.6000003815,0.7508224468160535,-0.4115799597658863,0.19446589476287623,15.6000003815,0.0,1.1388005780498092,2.6253313464470303
