%time,field.header.seq,field.header.frame_id,field.point_id,field.x,field.y,field.z,field.velocity,field.intensity,normalized_x,normalized_y,normalized_z,normalized_intensity,normalized_velocity,normalized_range,range
1648294770460275953,23875,0,0,0.0126902572811,0.0439508594573,0.0102518079802,0.0,13.3999996185,0.004244233204381271,0.014699284099431437,0.0034286983211371234,13.3999996185,0.0,0.015877530791094153,0.04688091556015881
1648294770460302828,23876,0,1,0.0335372425616,0.0146502861753,-0.0292991939932,0.0,13.3999996185,0.011216469084147156,0.0048997612626421405,-0.00979906153618729,13.3999996185,0.0,0.016601988370738802,0.04688091607791967
1648294770460420090,23877,0,2,1.96227836609,-0.12306240201,0.106179729104,0.0,13.3999996185,0.6562803899966555,-0.04115799398327759,0.03551161508494983,13.3999996185,0.0,0.9290327664065741,1.9689984448155133
1648294770460424956,23878,0,3,2.19201183319,-1.31266570091,0.603620529175,0.0,13.3999996185,0.7331143254816053,-0.4390186290668896,0.20187977564381268,13.3999996185,0.0,1.1258999001334307,2.6253313814511174
1648294770565149536,23879,1,0,0.0126902572811,0.0439508594573,0.0102518079802,0.0,14.3999996185,0.004244233204381271,0.014699284099431437,0.0034286983211371234,14.3999996185,0.0,0.015877530791094153,0.04688091556015881
1648294770565153821,23880,1,1,0.0335651524365,0.0146502861753,-0.0292672142386,0.0,14.3999996185,0.011225803490468226,0.0048997612626421405,-0.009788365966086955,14.3999996185,0.0,0.01661460166372055,0.046880914799007266
1648294770565156023,23881,1,2,1.46724069118,-1.68478298187,0.70940977335,0.0,14.3999996185,0.4907159502274247,-0.5634725691872909,0.23726079376254178,14.3999996185,0.0,0.8939270797116144,2.344045897242123
1648294770565157612,23882,1,3,1.98103654385,-0.805765748024,-0.959576368332,0.0,14.3999996185,0.6625540280434782,-0.26948687224882945,-0.3209285512816053,14.3999996185,0.0,0.9749763353372907,2.3440458688812082
1648294770565164165,23883,1,4,2.19166040421,-1.31266570091,0.604895353317,0.0,14.3999996185,0.7329967907056855,-0.4390186290668896,0.20230613823311033,14.3999996185,0.0,1.1257468396746402,2.6253313996888052
1648294770565255709,23884,1,5,1.8909291029,-0.180198520422,0.294026315212,0.0809188112617,14.3999996185,0.6324177601672241,-0.06026706368628762,0.09833656027157191,14.3999996185,0.010934974494824324,0.8964020112177482,1.9221175440106735
1648294770565357723,23885,1,6,1.34953403473,-0.111342176795,-1.15758955479,0.485512852669,14.3999996185,0.45134917549498327,-0.037238186219063545,-0.38715369725418053,14.3999996185,0.06560984495527027,0.6393894266821184,1.781474885758144
1648294770760285051,23886,3,0,0.00634802924469,0.0454158857465,0.00974269397557,0.0,29.6000003815,0.002123086703909699,0.015189259446989964,0.003258426078785953,29.6000003815,0.0,0.015483171408100157,0.046880915512948214
1648294770760296587,23887,3,1,0.0335372425616,0.0146502861753,-0.0292991939932,0.0,29.6000003815,0.011216469084147156,0.0048997612626421405,-0.00979906153618729,29.6000003815,0.0,0.016601988370738802,0.04688091607791967
1648294770760298429,23888,3,2,1.48221278191,-1.68478298187,0.677571296692,0.0,29.6000003815,0.49572333843143807,-0.5634725691872909,0.22661247381003344,29.6000003815,0.0,0.8994357079623571,2.3440459229624806
1648294770760383802,23889,3,3,2.23673439026,-1.2306240797,0.612330973148,0.0,29.6000003815,0.7480717024280936,-0.4115799597658863,0.20479296760802673,29.6000003815,0.0,1.1351742629342074,2.6253315178821937
1648294770760385822,23890,3,4,1.56793987751,-0.307656019926,0.373152077198,-0.566431701183,29.6000003815,0.5243946078628762,-0.10289498994180601,0.12480002581872908,29.6000003815,-0.07654482448418919,0.7487100830538104,1.6408321543655717
1648294770760387506,23891,3,5,1.80625927448,0.171408340335,0.225678727031,-0.161837622523,29.6000003815,0.604100091799331,0.05732720412541805,0.07547783512742474,29.6000003815,-0.021869948989594594,0.856247773811271,1.8283556201176365
1648294770760388566,23892,3,6,2.004165411,-0.0629962310195,0.207659542561,-0.0809188112617,29.6000003815,0.6702894351170567,-0.021068973585117053,0.0694513520270903,29.6000003815,-0.010934974494824324,0.948166522983709,2.0158794620185265
1648294770865222583,23893,4,0,0.0126474238932,0.0439508594573,0.0103046037257,0.0,12.3000001907,0.004229907656588629,0.014699284099431437,0.003446355761103679,12.3000001907,0.0,0.01586988313133818,0.04688091547861809
1648294770865259142,23894,4,1,0.033514522016,0.0146502861753,-0.0293251797557,0.0,12.3000001907,0.011208870239464881,0.0048997612626421405,-0.009807752426655518,12.3000001907,0.0,0.016591720963215706,0.0468809155060271
1648294770865265361,23895,4,2,1.48026382923,-1.68478298187,0.681818664074,0.0,12.3000001907,0.49507151479264216,-0.5634725691872909,0.2280329980180602,12.3000001907,0.0,0.8987173892524217,2.3440459446873234
1648294770865271953,23896,4,3,1.94005727768,-0.879017233849,-0.978804349899,0.0,12.3000001907,0.6488485878528427,-0.29398569693946486,-0.3273593143474916,12.3000001907,0.0,0.963554134401508,2.3440459665851017
1648294770865275045,23897,4,4,2.19196295738,-1.31266570091,0.603798210621,0.0,12.3000001907,0.7330979790568561,-0.4390186290668896,0.20193920087658862,12.3000001907,0.0,1.1258786126675755,2.625331432033056
1648294770865277741,23898,4,5,1.85514867306,-0.0586011447012,0.267398297787,-0.0809188112617,12.3000001907,0.6204510612240802,-0.019599045050568562,0.08943086882508361,12.3000001907,-0.010934974494824324,0.8776691639308453,1.8752366631910637
1648294770865411711,23899,4,6,2.00034952164,-0.0629962310195,0.241666540504,-0.0809188112617,12.3000001907,0.6690132179397993,-0.021068973585117053,0.08082492993444815,12.3000001907,-0.010934974494824324,0.9463621258293577,2.015879324425748
1648294771060175094,23900,6,0,0.0126799661666,0.0439508594573,0.0102645335719,0.0,13.1999998093,0.004240791360066889,0.014699284099431437,0.00343295437187291,13.1999998093,0.0,0.015875691347309377,0.04688091550375397
1648294771060177993,23901,6,1,0.0335372425616,0.0146502861753,-0.0292991939932,0.0,13.1999998093,0.011216469084147156,0.0048997612626421405,-0.00979906153618729,13.1999998093,0.0,0.016601988370738802,0.04688091607791967
1648294771060337068,23902,6,2,1.4799349308,-1.68478298187,0.682532310486,0.0,13.1999998093,0.49496151531772575,-0.5634725691872909,0.22827167574782609,13.1999998093,0.0,0.8985962049317618,2.3440459573690373
1648294771060340440,23903,6,3,2.19379019737,-1.31266570091,0.597125053406,0.0,13.1999998093,0.7337090961103678,-0.4390186290668896,0.19970737572107022,13.1999998093,0.0,1.1266745013969017,2.625331407999257
1648294771060359038,23904,6,4,1.90389621258,-0.180198520422,0.19298659265,-0.161837622523,13.1999998093,0.6367545861471572,-0.06026706368628762,0.06454401091973244,13.1999998093,-0.021869948989594594,0.9025214262964851,1.922117613462143
1648294771165202952,23905,7,0,0.0126596167684,0.0439508594573,0.0102896206081,0.0,29.8999996185,0.004233985541270903,0.014699284099431437,0.0034413446849832774,29.8999996185,0.0,0.015872057842736712,0.046880915477587756
1648294771165210719,23906,7,1,0.0335372425616,0.0146502861753,-0.0292991939932,0.0,29.8999996185,0.011216469084147156,0.0048997612626421405,-0.00979906153618729,29.8999996185,0.0,0.016601988370738802,0.04688091607791967
1648294771165215129,23907,7,2,1.47836780548,-1.68478298187,0.68592017889,0.0,29.8999996185,0.4944373931371237,-0.5634725691872909,0.22940474210367892,29.8999996185,0.0,0.8980189350403451,2.3440459799430147
1648294771165216997,23908,7,3,1.95434451103,-0.805765748024,-1.01283276081,0.0,29.8999996185,0.6536269267658862,-0.26948687224882945,-0.3387400537826087,29.8999996185,0.0,0.9628496731584277,2.344045884758183
1648294771165221842,23909,7,4,2.19340872765,-1.31266570091,0.598524689674,0.0,29.8999996185,0.733581514264214,-0.4390186290668896,0.20017548149632106,29.8999996185,0.0,1.126508336768142,2.625331387277822
1648294771165226072,23910,7,5,1.91738963127,-0.120132349432,0.0610013157129,-0.161837622523,29.8999996185,0.6412674352073578,-0.040178043288294316,0.020401777830401337,29.8999996185,-0.021869948989594594,0.907778674610349,1.9221175666437431
1648294771360230063,23911,9,0,0.0126799661666,0.0439508594573,0.0102645335719,0.0,34.2999992371,0.004240791360066889,0.014699284099431437,0.00343295437187291,34.2999992371,0.0,0.015875691347309377,0.04688091550375397
1648294771360232663,23912,9,1,0.033514522016,0.0146502861753,-0.0293251797557,0.0,34.2999992371,0.011208870239464881,0.0048997612626421405,-0.009807752426655518,34.2999992371,0.0,0.016591720963215706,0.0468809155060271
1648294771360237398,23913,9,2,2.19233703613,-1.31266570091,0.602438032627,0.0,34.2999992371,0.733223089006689,-0.4390186290668896,0.20148429184849498,34.2999992371,0.0,1.1260415414951588,2.6253313134704173
1648294771360250294,23914,9,3,1.91663062572,-0.120132349432,0.0814320892096,0.0809188112617,34.2999992371,0.6410135871973244,-0.040178043288294316,0.027234812444682274,34.2999992371,0.010934974494824324,0.9074200312455305,1.9221175619563262
1648294771465228959,23915,10,0,0.0126596167684,0.0439508594573,0.0102896206081,0.0,15.6999998093,0.004233985541270903,0.014699284099431437,0.0034413446849832774,15.6999998093,0.0,0.015872057842736712,0.046880915477587756
1648294771465238596,23916,10,1,0.033514522016,0.0146502861753,-0.0293251797557,0.0,15.6999998093,0.011208870239464881,0.0048997612626421405,-0.009807752426655518,15.6999998093,0.0,0.016591720963215706,0.0468809155060271
1648294771465241153,23917,10,2,1.47987377644,-1.68478298187,0.682664752007,0.0,15.6999998093,0.494941062354515,-0.5634725691872909,0.228315970570903,15.6999998093,0.0,0.8985736734602001,2.344045915468879
1648294771465246275,23918,10,3,1.9249600172,-0.879017233849,-1.00817096233,0.0,15.6999998093,0.6437993368561873,-0.29398569693946486,-0.33718092385618725,15.6999998093,0.0,0.9567563756139364,2.34404587295291
1648294771465248749,23919,10,4,2.23862028122,-1.2306240797,0.605399131775,0.0,15.6999998093,0.7487024351906353,-0.4115799597658863,0.20247462601170568,15.6999998093,0.0,1.1360056057087322,2.6253313120025266
1648294771465251429,23920,10,5,1.92137753963,-0.0,0.0533322654665,0.0809188112617,15.6999998093,0.6426011838227424,-0.0,0.01783687808244147,15.6999998093,0.010934974494824324,0.9087753093591286,1.922117577135806
1648294771660261297,23921,12,0,0.0126678450033,0.0439508594573,0.0102794887498,0.0,14.6000003815,0.004236737459297658,0.014699284099431437,0.0034379561036120398,14.6000003815,0.0,0.015873526439762208,0.046880915445629195
1648294771660267261,23922,12,1,0.033514522016,0.0146502861753,-0.0293251797557,0.0,14.6000003815,0.011208870239464881,0.0048997612626421405,-0.009807752426655518,14.6000003815,0.0,0.016591720963215706,0.0468809155060271
1648294771660306760,23923,12,2,2.23706459999,-1.2306240797,0.611122488976,0.0,14.6000003815,0.748182140464883,-0.4115799597658863,0.20438879229966553,14.6000003815,0.0,1.1353198200956929,2.6253312832094378
1648294771660375071,23924,12,3,1.83829808235,-0.175803437829,0.325984179974,0.0809188112617,14.6000003815,0.6148154121571906,-0.05879713639765886,0.10902480935585283,14.6000003815,0.010934974494824324,0.8714660551625618,1.875236618114499
1648294771660381770,23925,12,4,1.91819548607,-0.120132349432,0.0251082424074,-0.0809188112617,14.6000003815,0.6415369518628762,-0.040178043288294316,0.008397405487424748,14.6000003815,-0.010934974494824324,0.9081594553675564,1.9221176155470208
1648294771765322165,23926,13,0,0.0126678450033,0.0439508594573,0.0102794887498,0.0,13.8999996185,0.004236737459297658,0.014699284099431437,0.0034379561036120398,13.8999996185,0.0,0.015873526439762208,0.046880915445629195
1648294771765324010,23927,13,1,0.0335281863809,0.0146502861753,-0.0293095558882,0.0,13.8999996185,0.011213440261170568,0.0048997612626421405,-0.0098025270529097,13.8999996185,0.0,0.016597895812800207,0.04688091544940301
1648294771765325778,23928,13,2,1.96388232708,-0.0,0.141847968102,0.0,13.8999996185,0.656816831799331,-0.0,0.04744079200735786,13.8999996185,0.0,0.928879271525542,1.968998385136926
1648294771765332877,23929,13,3,2.19486498833,-1.31266570091,0.593162536621,0.0,13.8999996185,0.7340685579698996,-0.4390186290668896,0.19838211927123747,13.8999996185,0.0,1.127142693835961,2.6253314751080583
1648294771960265694,23930,15,0,0.0126596167684,0.0439508594573,0.0102896206081,0.0,14.0,0.004233985541270903,0.014699284099431437,0.0034413446849832774,14.0,0.0,0.015872057842736712,0.046880915477587756
1648294771960268642,23931,15,1,0.0335509069264,0.0146502861753,-0.0292835440487,0.0,14.0,0.011221039105819395,0.0048997612626421405,-0.009793827441036788,14.0,0.0,0.016608163584802046,0.0468809150151135
1648294771960439488,23932,15,2,2.19218015671,-1.31266570091,0.603009402752,0.0,14.0,0.7331706209732441,-0.4390186290668896,0.20167538553578593,14.0,0.0,1.125973212640672,2.6253314879507967
1648294771960443307,23933,15,3,1.95790588856,0.12306240201,-0.168567433953,0.0809188112617,14.0,0.6548180229297659,0.04115799398327759,-0.05637706821170568,14.0,0.010934974494824324,0.9269667020859068,1.9689984263670435
