%time,field.header.seq,field.header.frame_id,field.point_id,field.x,field.y,field.z,field.velocity,field.intensity,normalized_x,normalized_y,normalized_z,normalized_intensity,normalized_velocity,normalized_range,range
1648127174503561560,98596,0,0,0.0125994505361,0.0439508594573,0.0103632062674,0.0,19.6000003815,0.004213863055551839,0.014699284099431437,0.003465955273377926,19.6000003815,0.0,0.01586134410249293,0.04688091557326548
1648127174503568070,98597,0,1,0.0328478105366,0.0146502861753,-0.0300700943917,0.0,19.6000003815,0.010985889811571906,0.0048997612626421405,-0.010056887756421403,19.6000003815,0.0,0.016290709325713453,0.04688091422735167
1648127174503570945,98598,0,2,1.35427594185,0.0424858294427,-0.111796759069,0.0,19.6000003815,0.45293509760869566,0.01420930750591973,-0.037390220424414713,19.6000003815,0.0,0.6407045416659657,1.3595465743090493
1648127174503577547,98599,0,3,1.84017586708,-1.39177727699,0.41383549571,0.0,19.6000003815,0.61544343380602,-0.4654773501638796,0.13840652030434783,19.6000003815,0.0,0.9870209744202383,2.3440458673069666
1648127174503598227,98600,0,4,2.39378452301,-0.984499275684,0.439228475094,0.0,19.6000003815,0.800596830438127,-0.32926397180066885,0.14689915554983277,19.6000003815,0.0,1.1791205760824897,2.6253313733237436
1648127174503614421,98601,0,5,1.39673697948,-0.281285494566,0.469651252031,0.0809188112617,19.6000003815,0.4671361135384615,-0.09407541624280935,0.15707399733478258,19.6000003815,0.010934974494824324,0.6672948981409154,1.5001893273298672
1648127174503630071,98602,0,6,0.38986620307,0.281285494566,1.42107379436,0.0809188112617,19.6000003815,0.13039003447157188,0.09407541624280935,0.4752755165083612,19.6000003815,0.010934974494824324,0.2070104009953443,1.500189292978118
1648127174608583690,98603,1,0,0.0125994505361,0.0439508594573,0.0103632062674,0.0,21.2999992371,0.004213863055551839,0.014699284099431437,0.003465955273377926,21.2999992371,0.0,0.01586134410249293,0.04688091557326548
1648127174608590117,98604,1,1,0.0328722037375,0.0146502861753,-0.0300434287637,0.0,21.2999992371,0.010994048072742475,0.0048997612626421405,-0.01004796948618729,21.2999992371,0.0,0.01630171299227273,0.04688091589823531
1648127174608645914,98605,1,2,1.35613310337,0.0424858294427,-0.0863979309797,0.0,21.2999992371,0.4535562218628762,0.01420930750591973,-0.028895629090200665,21.2999992371,0.0,0.6415827282594591,1.3595464840294922
1648127174608664512,98606,1,3,1.42103874683,-0.375047326088,0.300925344229,0.0,21.2999992371,0.4752637949264214,-0.1254338883237458,0.10064392783578595,21.2999992371,0.0,0.6837287546064894,1.500189214598371
1648127174608747116,98607,1,4,1.03792715073,0.140642747283,1.07400870323,0.0,21.2999992371,0.3471328263311037,0.047037708121404675,0.3592002351939799,21.2999992371,0.0,0.4931682717070867,1.500189270458762
1648127174608757444,98608,1,5,1.82062518597,-1.39177727699,0.492778837681,0.0,21.2999992371,0.6089047444715718,-0.4654773501638796,0.16480897581304346,21.2999992371,0.0,0.9788764677912977,2.3440458697304183
1648127174608781799,98609,1,6,1.87192201614,-1.24527442455,0.66313713789,0.0,21.2999992371,0.6260608749632107,-0.4164797406521739,0.22178499594983275,21.2999992371,0.0,0.9784476545493397,2.3440459233122795
1648127174608786531,98610,1,7,2.42585682869,-0.902457654476,0.439493477345,0.0,21.2999992371,0.8113233540769231,-0.30182530250033446,0.14698778506521737,21.2999992371,0.0,1.1864188480341482,2.6253315386924045
1648127174608796630,98611,1,8,1.37627589703,0.338421612978,0.620291769505,0.242756426334,21.2999992371,0.46029294215050165,0.11318448594581938,0.20745544130602003,21.2999992371,0.03280492247756756,0.6607192391976712,1.5470702673737888
1648127174803591769,98612,3,0,0.0126200793311,0.0439508594573,0.0103380745277,0.0,31.1000003815,0.004220762318093645,0.014699284099431437,0.0034575500092642137,31.1000003815,0.0,0.015865012515831067,0.0468809154592663
1648127174803708322,98613,3,1,0.0329244062304,0.0146502861753,-0.0299862083048,0.0,31.1000003815,0.011011507100468228,0.0048997612626421405,-0.010028832208963211,31.1000003815,0.0,0.016325263785869217,0.046880914017768956
1648127174803846869,98614,3,2,1.35512638092,-0.0,-0.109541863203,0.0,31.1000003815,0.45321952539130433,-0.0,-0.03663607464983277,31.1000003815,0.0,0.6409491995406799,1.359546589146294
1648127174803850659,98615,3,3,1.87629675865,-1.24527442455,0.650655984879,0.0,31.1000003815,0.6275239995484949,-0.4164797406521739,0.21761069728394647,31.1000003815,0.0,0.9803204141465081,2.34404588897438
1648127174803851746,98616,3,4,2.42606186867,-0.902457654476,0.43835914135,0.0,31.1000003815,0.8113919293210702,-0.30182530250033446,0.14660840847826084,31.1000003815,0.0,1.186512637591423,2.6253313591891607
1648127174803859911,98617,3,5,1.35730838776,-0.46880915761,0.434165656567,-0.323675245047,31.1000003815,0.4539492935652174,-0.15679236040468228,0.1452059052063545,31.1000003815,-0.04373989797932432,0.6608507899200784,1.5001892890848483
1648127174803860874,98618,3,6,1.48597168922,0.348676800728,0.459339588881,-0.0809188112617,31.1000003815,0.49698049806688954,0.11661431462474915,0.15362528056220734,31.1000003815,-0.010934974494824324,0.7124451763420306,1.5939511380348583
1648127174908570520,98619,4,0,0.0125994505361,0.0439508594573,0.0103632062674,0.0,20.5,0.004213863055551839,0.014699284099431437,0.003465955273377926,20.5,0.0,0.01586134410249293,0.04688091557326548
1648127174908578962,98620,4,1,0.0329244062304,0.0146502861753,-0.0299862083048,0.0,20.5,0.011011507100468228,0.0048997612626421405,-0.010028832208963211,20.5,0.0,0.016325263785869217,0.046880914017768956
1648127174908585316,98621,4,2,1.35845172405,0.0424858294427,-0.0342141836882,0.0,20.5,0.4543316802842809,0.01420930750591973,-0.011442870798729096,20.5,0.0,0.6426791235443033,1.3595465209559037
1648127174908589320,98622,4,3,1.85679340363,-1.31852579117,0.555301129818,0.0,20.5,0.6210011383377926,-0.44097852547491634,0.18571944141070232,20.5,0.0,0.9827242174505011,2.344045936094577
1648127174908592417,98623,4,4,1.53377187252,0.298865824938,0.314488679171,-0.0809188112617,20.5,0.512967181444816,0.09995512539732442,0.10518016025785952,20.5,-0.010934974494824324,0.7322989045274289,1.593951086945926
1648127175103555989,98624,6,0,0.0126097733155,0.0439508594573,0.0103506427258,0.0,14.8000001907,0.004217315490133779,0.014699284099431437,0.0034617534199999998,14.8000001907,0.0,0.01586317915559307,0.04688091546611253
1648127175103559615,98625,6,1,0.0329001024365,0.0146502861753,-0.0300128757954,0.0,14.8000001907,0.011003378741304349,0.0048997612626421405,-0.010037751102140467,14.8000001907,0.0,0.016314298877980183,0.04688091657444943
1648127175103669083,98626,6,2,1.35911369324,-0.0,-0.0343054570258,0.0,14.8000001907,0.45455307466220735,-0.0,-0.011473396998595316,14.8000001907,0.0,0.6428351230056837,1.3595465771845487
1648127175103673102,98627,6,3,1.84685814381,-1.39177727699,0.382912427187,0.0,14.8000001907,0.6176783089665552,-0.4654773501638796,0.12806435691872908,14.8000001907,0.0,0.9898091483973834,2.344045844047692
1648127175103674915,98628,6,4,2.42444300652,-0.902457654476,0.447226583958,0.0,14.8000001907,0.8108505038528429,-0.30182530250033446,0.14957410834715718,14.8000001907,0.0,1.185772150299642,2.6253314700023695
1648127175103677802,98629,6,5,1.50505077839,0.338421612978,0.117130368948,-0.161837622523,14.8000001907,0.5033614643444816,0.11318448594581938,0.03917403643745819,14.8000001907,-0.021869948989594594,0.720802507926312,1.5470703141722004
