%time,field.header.seq,field.header.frame_id,field.point_id,field.x,field.y,field.z,field.velocity,field.intensity,normalized_x,normalized_y,normalized_z,normalized_intensity,normalized_velocity,normalized_range,range
1648125780588466097,38632,0,0,0.0126877604052,0.0439508594573,0.0102548981085,0.0,12.6999998093,0.004243398128829431,0.014699284099431437,0.003429731808862876,12.6999998093,0.0,0.015877084379548535,0.04688091558780411
1648125780588523192,38633,0,1,0.0328124724329,0.0146502861753,-0.0301086530089,0.0,12.6999998093,0.010974071047792642,0.0048997612626421405,-0.010069783615016722,12.6999998093,0.0,0.01627476977271537,0.04688091528744241
1648125780588528359,38634,0,2,1.17709493637,-0.0380907431245,0.31420224905,0.0,12.6999998093,0.39367723624414713,-0.01273937897140468,0.10508436423076922,12.6999998093,0.0,0.5568894185116441,1.218903789167853
1648125780588537157,38635,0,3,2.42003130913,-0.902457654476,0.470514059067,0.0,12.6999998093,0.8093750197759197,-0.30182530250033446,0.15736256156086956,12.6999998093,0.0,1.1837543488849194,2.6253313762402435
1648125780693620386,38636,1,0,0.0125787733123,0.0439508594573,0.0103882942349,0.0,13.1000003815,0.004206947596086956,0.014699284099431437,0.003474345897959866,13.1000003815,0.0,0.01585767224999437,0.04688091554341088
1648125780693625620,38637,1,1,0.0329244062304,0.0146502861753,-0.0299862083048,0.0,13.1000003815,0.011011507100468228,0.0048997612626421405,-0.010028832208963211,13.1000003815,0.0,0.016325263785869217,0.046880914017768956
1648125780693632706,38638,1,2,1.19584536552,-0.0,0.235967040062,0.0,13.1000003815,0.3999482827826087,-0.0,0.07891874249565217,13.1000003815,0.0,0.565612285758995,1.218903844538725
1648125780693642669,38639,1,3,1.35798275471,-0.0424858294427,0.0494441017509,0.0,13.1000003815,0.45417483435117056,-0.01420930750591973,0.016536488879899666,13.1000003815,0.0,0.6424573641383716,1.359546588753452
1648125780693646783,38640,1,4,2.41461610794,-0.902457654476,0.497558414936,0.0,13.1000003815,0.8075639156989967,-0.30182530250033446,0.1664074966341137,13.1000003815,0.0,1.18127789664736,2.6253314349086025
1648125780888695602,38641,3,0,0.0126674417406,0.0439508594573,0.0102799860761,0.0,13.3000001907,0.004236602588829431,0.014699284099431437,0.0034381224334782603,13.3000001907,0.0,0.015873454445304285,0.04688091553086012
1648125780888721586,38642,3,1,0.0329244062304,0.0146502861753,-0.0299862083048,0.0,13.3000001907,0.011011507100468228,0.0048997612626421405,-0.010028832208963211,13.3000001907,0.0,0.016325263785869217,0.046880914017768956
1648125780888759507,38643,3,2,1.23050761223,-0.039555773139,0.294104278088,0.0,13.3000001907,0.4115410074347826,-0.013229355564882942,0.09836263481204012,13.3000001907,0.0,0.5821572102529812,1.265784724719912
1648125780888806714,38644,3,3,2.41822361946,-0.902457654476,0.479717731476,0.0,13.3000001907,0.8087704412909699,-0.30182530250033446,0.16044071286822742,13.3000001907,0.0,1.1829276252761192,2.6253312921856216
1648125780993574045,38645,4,0,0.0126674417406,0.0439508594573,0.0102799860761,0.0,12.3000001907,0.004236602588829431,0.014699284099431437,0.0034381224334782603,12.3000001907,0.0,0.015873454445304285,0.04688091553086012
1648125780993579230,38646,4,1,0.0328124724329,0.0146502861753,-0.0301086530089,0.0,12.3000001907,0.010974071047792642,0.0048997612626421405,-0.010069783615016722,12.3000001907,0.0,0.01627476977271537,0.04688091528744241
1648125780993586432,38647,4,2,1.23050808907,-0.079111546278,0.28601077199,0.0,12.3000001907,0.41154116691304343,-0.026458711129765885,0.09565577658528428,12.3000001907,0.0,0.5826082109985641,1.2657847193403446
1648125780993593850,38648,4,3,1.35835397243,-0.0424858294427,-0.037898208946,0.0,12.3000001907,0.4542989874347826,-0.01420930750591973,-0.012674986269565218,12.3000001907,0.0,0.642632900175781,1.3595465546869332
1648125780993650533,38649,4,4,2.03130459785,-0.9713139534,0.804288566113,0.0,12.3000001907,0.6793660862374582,-0.3248541650167224,0.26899283147591974,12.3000001907,0.0,1.0142025373602233,2.3909264444763236
1648125780993691646,38650,4,5,2.4188785553,-0.902457654476,0.476404815912,0.0,12.3000001907,0.8089894833779264,-0.30182530250033446,0.15933271435183946,12.3000001907,0.0,1.1832271471114864,2.6253313756622583
1648125781188528856,38651,6,0,0.0126674417406,0.0439508594573,0.0102799860761,0.0,12.8999996185,0.004236602588829431,0.014699284099431437,0.0034381224334782603,12.8999996185,0.0,0.015873454445304285,0.04688091553086012
1648125781188549672,38652,6,1,0.0328369177878,0.0146502861753,-0.0300819892436,0.0,12.8999996185,0.010982246751772574,0.0048997612626421405,-0.010060865967759198,12.8999996185,0.0,0.016285795892879384,0.046880914364728306
1648125781188554659,38653,6,2,1.22856259346,-0.039555773139,0.302126377821,0.0,12.8999996185,0.41089049948494977,-0.013229355564882942,0.10104561131137123,12.8999996185,0.0,0.5812374910332653,1.26578475793202
1648125781188557792,38654,6,3,1.35800337791,-0.0424858294427,0.0488727763295,0.0,12.8999996185,0.4541817317424749,-0.01420930750591973,0.016345410143645486,12.8999996185,0.0,0.6424671161366818,1.3595465304227574
1648125781188563614,38655,6,4,1.85922753811,-1.31852579117,0.547096014023,0.0,12.8999996185,0.6218152301371237,-0.44097852547491634,0.18297525552608696,12.8999996185,0.0,0.9837532316546663,2.344045935771503
1648125781188727443,38656,6,5,2.41697120667,-0.902457654476,0.485988765955,0.0,12.8999996185,0.8083515741371237,-0.30182530250033446,0.16253804881438128,12.8999996185,0.0,1.1823548739906093,2.6253313529207363
1648125781188746201,38657,6,6,1.27095031738,-0.43511351943,0.767325282097,-0.0809188112617,12.8999996185,0.4250669957792642,-0.1455229161973244,0.2566305291294314,12.8999996185,-0.010934974494824324,0.6184988447363435,1.547070319211226
1648125781293652939,38658,7,0,0.0126877604052,0.0439508594573,0.0102548981085,0.0,19.7999992371,0.004243398128829431,0.014699284099431437,0.003429731808862876,19.7999992371,0.0,0.015877084379548535,0.04688091558780411
1648125781293660909,38659,7,1,0.0328369177878,0.0146502861753,-0.0300819892436,0.0,19.7999992371,0.010982246751772574,0.0048997612626421405,-0.010060865967759198,19.7999992371,0.0,0.016285795892879384,0.046880914364728306
1648125781293666703,38660,7,2,1.17420864105,-0.076181486249,0.318051785231,0.0,19.7999992371,0.392711920083612,-0.02547875794280936,0.10637183452541804,19.7999992371,0.0,0.55596265293437,1.2189038065623636
1648125781293670824,38661,7,3,1.35688829422,-0.0849716588855,-0.000903040345293,0.0,19.7999992371,0.45380879405351165,-0.028418615011872907,-0.00030202018237224075,19.7999992371,0.0,0.6424114419900988,1.3595465572340213
1648125781293675923,38662,7,4,2.23567533493,-0.914177834988,0.33006182313,0.0,19.7999992371,0.7477175033210701,-0.30574509531371236,0.11038856960869564,19.7999992371,0.0,1.1007465615907142,2.4378076471054095
1648125781293743112,38663,7,5,1.02627801895,-0.076181486249,-2.20994472504,0.0,19.7999992371,0.3432367956354515,-0.02547875794280936,-0.739111948173913,19.7999992371,0.0,0.48607835053877235,2.437807596747365
1648125781293751315,38664,7,6,2.39026904106,-0.984499275684,0.457973361015,0.0,19.7999992371,0.7994210839665551,-0.32926397180066885,0.15316834816555183,19.7999992371,0.0,1.1775240558504423,2.6253313146861266
1648125781293756158,38665,7,7,1.30200231075,0.193383783102,0.812907755375,-0.161837622523,19.7999992371,0.4354522778428094,0.06467685053578595,0.27187550346989964,19.7999992371,-0.021869948989594594,0.6192095505983503,1.547070238713809
1648125781488663872,38666,9,0,0.0125683275983,0.0439508594573,0.0104009294882,0.0,33.9000015259,0.004203454046254181,0.014699284099431437,0.003478571735183946,33.9000015259,0.0,0.01585581927475648,0.046880915518705844
1648125781488666790,38667,9,1,0.0328124724329,0.0146502861753,-0.0301086530089,0.0,33.9000015259,0.010974071047792642,0.0048997612626421405,-0.010069783615016722,33.9000015259,0.0,0.01627476977271537,0.04688091528744241
1648125781488747719,38668,9,2,1.24285554886,-0.039555773139,0.236550986767,0.0,33.9000015259,0.41567075212709026,-0.013229355564882942,0.07911404239698996,33.9000015259,0.0,0.5879960579769765,1.2657847146577323
1648125781488772930,38669,9,3,1.35135185719,-0.127457484603,0.0772639587522,0.0,33.9000015259,0.45195714287290967,-0.04262792127190635,0.025840788880334448,33.9000015259,0.0,0.64058384124145,1.35954660517183
1648125781488908716,38670,9,4,2.27662968636,-0.83799636364,0.240052193403,0.0,33.9000015259,0.7614146108227425,-0.28026634235451503,0.08028501451605351,33.9000015259,0.0,1.112678588724289,2.437807558001059
1648125781488922223,38671,9,5,2.38862729073,-0.984499275684,0.466460853815,0.0,33.9000015259,0.7988720035886288,-0.32926397180066885,0.1560069745200669,33.9000015259,0.0,1.1767785345430855,2.6253313859366934
1648125781593634478,38672,10,0,0.0125890737399,0.0439508594573,0.0103758089244,0.0,12.3000001907,0.004210392555150501,0.014699284099431437,0.003470170208829431,12.3000001907,0.0,0.01585950074790286,0.0468809154720728
1648125781593638506,38673,10,1,0.0328239798546,0.0146502861753,-0.0300961062312,0.0,12.3000001907,0.010977919683812707,0.0048997612626421405,-0.010065587368294314,12.3000001907,0.0,0.01627996012278204,0.046880914547319234
1648125781593644787,38674,10,2,1.33691763878,0.0849716588855,-0.231943696737,0.0,12.3000001907,0.44712964507692304,0.028418615011872907,-0.07757314272140467,12.3000001907,0.0,0.6329750837848386,1.359546554609613
1648125781593647588,38675,10,3,1.25370705128,-0.079111546278,0.155470013618,0.0809188112617,12.3000001907,0.41930001715050164,-0.026458711129765885,0.0519966600729097,12.3000001907,0.010934974494824324,0.5935697702540708,1.2657847100980757
1648125781593651841,38676,10,4,2.41190385818,-0.984499275684,0.325339883566,-0.161837622523,12.3000001907,0.8066568087558528,-0.32926397180066885,0.10880932560735786,12.3000001907,-0.021869948989594594,1.1873521707355004,2.6253314237948375
1648125781788517071,38677,12,0,0.0125994505361,0.0439508594573,0.0103632062674,0.0,16.6000003815,0.004213863055551839,0.014699284099431437,0.003465955273377926,16.6000003815,0.0,0.01586134410249293,0.04688091557326548
1648125781788593185,38678,12,1,0.0328124724329,0.0146502861753,-0.0301086530089,0.0,16.6000003815,0.010974071047792642,0.0048997612626421405,-0.010069783615016722,16.6000003815,0.0,0.01627476977271537,0.04688091528744241
1648125781788606550,38679,12,2,1.32101941109,-0.127457484603,0.295007348061,0.0,16.6000003815,0.4418125120702341,-0.04262792127190635,0.09866466490334447,16.6000003815,0.0,0.62626969535144,1.3595466267355005
1648125781788610969,38680,12,3,2.42392539978,-0.902457654476,0.450022757053,0.0,16.6000003815,0.8106773912307691,-0.30182530250033446,0.1505092832953177,16.6000003815,0.0,1.1855353974196086,2.625331339790568
1648125781788615596,38681,12,4,1.22500503063,-0.079111546278,0.308731466532,0.0809188112617,16.6000003815,0.4097006791404682,-0.026458711129765885,0.10325467108093644,16.6000003815,0.010934974494824324,0.5800080657809598,1.265784768533064
1648125781788619553,38682,12,5,1.3540585041,0.090831771493,0.519981086254,-0.161837622523,16.6000003815,0.4528623759531772,0.03037851889397993,0.17390671781070233,16.6000003815,-0.021869948989594594,0.6411641892043765,1.4533083545139263
1648125781893527072,38683,13,0,0.0126877604052,0.0439508594573,0.0102548981085,0.0,29.6000003815,0.004243398128829431,0.014699284099431437,0.003429731808862876,29.6000003815,0.0,0.015877084379548535,0.04688091558780411
1648125781893536938,38684,13,1,0.0328124724329,0.0146502861753,-0.0301086530089,0.0,29.6000003815,0.010974071047792642,0.0048997612626421405,-0.010069783615016722,29.6000003815,0.0,0.01627476977271537,0.04688091528744241
1648125781893539374,38685,13,2,1.23964631557,-0.039555773139,0.252830803394,0.0,29.6000003815,0.4145974299565217,-0.013229355564882942,0.08455879712173912,29.6000003815,0.0,0.5864785364374112,1.2657847613396818
1648125781893644229,38686,13,3,2.4187297821,-0.902457654476,0.477159410715,0.0,29.6000003815,0.8089397264548494,-0.30182530250033446,0.15958508719565218,29.6000003815,0.0,1.1831591081942916,2.6253313467396304
1648125781893652736,38687,13,4,1.15909647942,0.146502867341,0.0931125208735,-0.242756426334,29.6000003815,0.38765768542474915,0.04899761449531772,0.031141311328929763,29.6000003815,-0.03280492247756756,0.5504159594015959,1.1720229009223289
1648125781893660870,38688,13,5,1.32601451874,-0.181663542986,0.566382527351,-0.0809188112617,29.6000003815,0.4434831166354515,-0.06075703778795986,0.18942559443177256,29.6000003815,-0.010934974494824324,0.6301158362731051,1.4533084029372452
1648125782088626854,38689,15,0,0.0126674417406,0.0439508594573,0.0102799860761,0.0,15.6999998093,0.004236602588829431,0.014699284099431437,0.0034381224334782603,15.6999998093,0.0,0.015873454445304285,0.04688091553086012
1648125782088630592,38690,15,1,0.0328124724329,0.0146502861753,-0.0301086530089,0.0,15.6999998093,0.010974071047792642,0.0048997612626421405,-0.010069783615016722,15.6999998093,0.0,0.01627476977271537,0.04688091528744241
1648125782088749809,38691,15,2,1.2338732481,-0.118667319417,0.256292849779,0.0,15.6999998093,0.4126666381605351,-0.039688066694648826,0.08571667216688963,15.6999998093,0.0,0.5849467079481642,1.26578479605433
1648125782088756457,38692,15,3,1.32800841331,-0.0,0.463067859411,0.0,15.6999998093,0.44414997100668896,-0.0,0.15487219378294312,15.6999998093,0.0,0.6281229127252765,1.4064274557337217
1648125782088761087,38693,15,4,2.41771531105,-0.902457654476,0.482274025679,0.0,15.6999998093,0.8086004384782608,-0.30182530250033446,0.16129566076220736,15.6999998093,0.0,1.1826951642092267,2.625331479880693
1648125782088809816,38694,15,5,1.1439691782,-0.0366257168353,0.252251476049,0.161837622523,15.6999998093,0.38259838735785956,-0.012249403623846153,0.08436504215685618,15.6999998093,0.021869948989594594,0.5412144675697513,1.1720229225463905
1648125782193667684,38695,16,0,0.0125994505361,0.0439508594573,0.0103632062674,0.0,37.5,0.004213863055551839,0.014699284099431437,0.003465955273377926,37.5,0.0,0.01586134410249293,0.04688091557326548
1648125782193677582,38696,16,1,0.0328369177878,0.0146502861753,-0.0300819892436,0.0,37.5,0.010982246751772574,0.0048997612626421405,-0.010060865967759198,37.5,0.0,0.016285795892879384,0.046880914364728306
1648125782193685430,38697,16,2,1.33524692059,-0.127457484603,0.221894130111,0.0,37.5,0.44657087645150495,-0.04262792127190635,0.07421208364916387,37.5,0.0,0.6329835977821973,1.3595465252443988
1648125782193693123,38698,16,3,2.41816663742,-0.902457654476,0.480005741119,0.0,37.5,0.8087513837525083,-0.30182530250033446,0.16053703716354514,37.5,0.0,1.182901565927027,2.6253314487814055
1648125782193696442,38699,16,4,1.13506186008,-0.0,0.292014420033,0.161837622523,37.5,0.3796193511973244,-0.0,0.09766368562976588,37.5,0.021869948989594594,0.5368628350025312,1.1720229723497226
1648125782193699316,38700,16,5,1.14420258999,-0.146502867341,0.207304567099,-0.0809188112617,37.5,0.3826764515016722,-0.04899761449531772,0.0693326311367893,37.5,-0.010934974494824324,0.5433997601159344,1.1720229693223005
1648125782388767971,38701,18,0,0.0125890737399,0.0439508594573,0.0103758089244,0.0,15.0,0.004210392555150501,0.014699284099431437,0.003470170208829431,15.0,0.0,0.01585950074790286,0.0468809154720728
1648125782388774559,38702,18,1,0.0328369177878,0.0146502861753,-0.0300819892436,0.0,15.0,0.010982246751772574,0.0048997612626421405,-0.010060865967759198,15.0,0.0,0.016285795892879384,0.046880914364728306
1648125782388777060,38703,18,2,1.30225515366,-0.0849716588855,0.381153821945,0.0,15.0,0.4355368406889632,-0.028418615011872907,0.12747619463043477,15.0,0.0,0.6165973539302936,1.3595465803094298
1648125782388780153,38704,18,3,2.42016220093,-0.902457654476,0.469840198755,0.0,15.0,0.8094187962976589,-0.30182530250033446,0.15713719021906353,15.0,0.0,1.1838142121250785,2.625331352286565
1648125782388787985,38705,18,4,1.25116384029,-0.039555773139,0.18771122396,-0.0809188112617,15.0,0.4184494449130435,-0.013229355564882942,0.0627796735652174,15.0,-0.010934974494824324,0.5919247348647719,1.2657847834598133
1648125782493691191,38706,19,0,0.0125683275983,0.0439508594573,0.0104009294882,0.0,29.2999992371,0.004203454046254181,0.014699284099431437,0.003478571735183946,29.2999992371,0.0,0.01585581927475648,0.046880915518705844
1648125782493705082,38707,19,1,0.0327595062554,0.0146502861753,-0.0301662702113,0.0,29.2999992371,0.01095635660715719,0.0048997612626421405,-0.010089053582374581,29.2999992371,0.0,0.016250881841835,0.046880912891889635
1648125782493715713,38708,19,2,1.22456455231,-0.039555773139,0.317943513393,0.0,29.2999992371,0.4095533619765886,-0.013229355564882942,0.1063356232083612,29.2999992371,0.0,0.5793469845104187,1.2657847683044299
1648125782493719928,38709,19,3,1.38319969177,-0.0,0.254552096128,0.0,29.2999992371,0.46260859256521736,-0.0,0.08513448031036788,29.2999992371,0.0,0.6542273456760598,1.4064274446112681
1648125782493741521,38710,19,4,2.42304039001,-0.902457654476,0.454764544964,0.0,29.2999992371,0.8103814013411371,-0.30182530250033446,0.15209516553979932,29.2999992371,0.0,1.1851306023002988,2.625331472614163
1648125782688696933,38711,21,0,0.0125890737399,0.0439508594573,0.0103758089244,0.0,12.8999996185,0.004210392555150501,0.014699284099431437,0.003470170208829431,12.8999996185,0.0,0.01585950074790286,0.0468809154720728
1648125782688699523,38712,21,1,0.0328369177878,0.0146502861753,-0.0300819892436,0.0,12.8999996185,0.010982246751772574,0.0048997612626421405,-0.010060865967759198,12.8999996185,0.0,0.016285795892879384,0.046880914364728306
1648125782688702630,38713,21,2,1.17811942101,-0.0380907431245,0.310338795185,0.0,12.8999996185,0.39401987324749155,-0.01273937897140468,0.10379223919230769,12.8999996185,0.0,0.5573738537144667,1.2189037872898711
1648125782688703871,38714,21,3,1.31543290615,-0.0439508594573,0.495724529028,0.0,12.8999996185,0.43994411576923076,-0.014699284099431437,0.16579415686555182,12.8999996185,0.0,0.6223485510170136,1.4064274660675902
1648125782688713703,38715,21,4,0.396003186703,1.27457487583,0.443484634161,0.0,12.8999996185,0.13244253735886286,0.4262792226856187,0.14832262012073577,12.8999996185,0.0,0.46561360278407127,1.406427480787014
1648125782688870864,38716,21,5,2.38365960121,-0.984499275684,0.491216033697,0.0,12.8999996185,0.7972105689665552,-0.32926397180066885,0.1642862988953177,12.8999996185,0.0,1.1745229438669595,2.6253314286055294
1648125782793722010,38717,22,0,0.0125683275983,0.0439508594573,0.0104009294882,0.0,12.5,0.004203454046254181,0.014699284099431437,0.003478571735183946,12.5,0.0,0.01585581927475648,0.046880915518705844
1648125782793732124,38718,22,1,0.0328369177878,0.0146502861753,-0.0300819892436,0.0,12.5,0.010982246751772574,0.0048997612626421405,-0.010060865967759198,12.5,0.0,0.016285795892879384,0.046880914364728306
1648125782793744736,38719,22,2,1.11349773407,-0.0366257168353,0.36389452219,0.0,12.5,0.3724072689197324,-0.012249403623846153,0.12170385357525083,12.5,0.0,0.5268058425811616,1.1720229819387555
1648125782793761954,38720,22,3,1.30755889416,-0.0410208031535,0.108157776296,0.0,12.5,0.4373106669431438,-0.013719332158361203,0.036173169329765886,12.5,0.0,0.6186028280887389,1.3126656362385571
1648125782793826704,38721,22,4,2.23444581032,-0.914177834988,0.338284552097,0.0,12.5,0.747306291076923,-0.30574509531371236,0.1131386461862876,12.5,0.0,1.100187915164807,2.4378075460190485
1648125782793835493,38722,22,5,1.00826454163,-0.076181486249,-2.21822118759,0.0,12.5,0.3372122212809364,-0.02547875794280936,-0.7418799958494984,12.5,0.0,0.4775702372099362,2.437807671213759
1648125782793850606,38723,22,6,2.39048838615,-0.984499275684,0.456827044487,0.0,12.5,0.799494443528428,-0.32926397180066885,0.15278496471137124,12.5,0.0,1.1776236638211774,2.625331311799537
1648125782988637110,38724,24,0,0.0125787733123,0.0439508594573,0.0103882942349,0.0,12.1000003815,0.004206947596086956,0.014699284099431437,0.003474345897959866,12.1000003815,0.0,0.01585767224999437,0.04688091554341088
1648125782988764262,38725,24,1,0.0328369177878,0.0146502861753,-0.0300819892436,0.0,12.1000003815,0.010982246751772574,0.0048997612626421405,-0.010060865967759198,12.1000003815,0.0,0.016285795892879384,0.046880914364728306
1648125782988773149,38726,24,2,1.09958064556,-0.0351606868207,0.235861629248,0.0,12.1000003815,0.36775272426755845,-0.011759427030334446,0.07888348804280935,12.1000003815,0.0,0.5202138180945443,1.1251420257635791
1648125782988775000,38727,24,3,1.21959865093,-0.079111546278,0.329441189766,0.0,12.1000003815,0.4078925253946488,-0.026458711129765885,0.11018099992173913,12.1000003815,0.0,0.5774536240602329,1.265784738262873
1648125782988776179,38728,24,4,1.35783588886,-0.0,-0.0681816339493,0.0,12.1000003815,0.4541257153377926,-0.0,-0.022803222056622073,12.1000003815,0.0,0.6422307456530898,1.3595466289481293
1648125782988778173,38729,24,5,2.39049649239,-0.984499275684,0.456785261631,0.0,12.1000003815,0.7994971546454849,-0.32926397180066885,0.1527709905120401,12.1000003815,0.0,1.1776273450028258,2.6253314227339977
1648125783093621557,38730,25,0,0.0125683275983,0.0439508594573,0.0104009294882,0.0,11.8999996185,0.004203454046254181,0.014699284099431437,0.003478571735183946,11.8999996185,0.0,0.01585581927475648,0.046880915518705844
1648125783093637918,38731,25,1,0.0328722037375,0.0146502861753,-0.0300434287637,0.0,11.8999996185,0.010994048072742475,0.0048997612626421405,-0.01004796948618729,11.8999996185,0.0,0.01630171299227273,0.04688091589823531
1648125783093643101,38732,25,2,1.23023855686,-0.079111546278,0.28716802597,0.0,11.8999996185,0.411451022361204,-0.026458711129765885,0.09604281805016722,11.8999996185,0.0,0.5824808589119547,1.2657847442116603
1648125783093648044,38733,25,3,1.85106444359,-1.31852579117,0.574109375477,0.0,11.8999996185,0.6190850981906354,-0.44097852547491634,0.19200982457424748,11.8999996185,0.0,0.9803034109567551,2.3440459490620533
1648125783093656736,38734,25,4,2.39037823677,-0.984499275684,0.457402825356,0.0,11.8999996185,0.799457604270903,-0.32926397180066885,0.15297753356387958,11.8999996185,0.0,1.177573643208396,2.6253312711522
1648125783288552567,38735,27,0,0.0125787733123,0.0439508594573,0.0103882942349,0.0,11.8000001907,0.004206947596086956,0.014699284099431437,0.003474345897959866,11.8000001907,0.0,0.01585767224999437,0.04688091554341088
1648125783288558548,38736,27,1,0.0328369177878,0.0146502861753,-0.0300819892436,0.0,11.8000001907,0.010982246751772574,0.0048997612626421405,-0.010060865967759198,11.8000001907,0.0,0.016285795892879384,0.046880914364728306
1648125783288561289,38737,27,2,1.24198508263,-0.118667319417,0.213546708226,0.0,11.8000001907,0.41537962629765884,-0.039688066694648826,0.07142030375451504,11.8000001907,0.0,0.5887746687182833,1.2657847663671833
1648125783288682972,38738,27,3,1.89010334015,-1.31852579117,0.428428083658,0.0,11.8000001907,0.6321415853344481,-0.44097852547491634,0.14328698450100333,11.8000001907,0.0,0.9968289862099367,2.3440459725213425
1648125783288686644,38739,27,4,2.42154026031,-0.902457654476,0.46268504858,0.0,11.8000001907,0.809879685722408,-0.30182530250033446,0.15474416340468225,11.8000001907,0.0,1.1844444790369328,2.6253313133020035
1648125783393649067,38740,28,0,0.0125787733123,0.0439508594573,0.0103882942349,0.0,12.5,0.004206947596086956,0.014699284099431437,0.003474345897959866,12.5,0.0,0.01585767224999437,0.04688091554341088
1648125783393654032,38741,28,1,0.0327840410173,0.0146502861753,-0.030139606446,0.0,12.5,0.010964562213143812,0.0048997612626421405,-0.010080135935117055,12.5,0.0,0.016261946669531627,0.046880914103310314
1648125783393661948,38742,28,2,1.24105632305,-0.079111546278,0.236075654626,0.0,12.5,0.41506900436454847,-0.026458711129765885,0.07895506843678929,12.5,0.0,0.587592222687642,1.265784795470374
1648125783393665145,38743,28,3,1.8945479393,-1.24527442455,0.595424950123,0.0,12.5,0.6336280733444816,-0.4164797406521739,0.19913877930535115,12.5,0.0,0.9881419154322831,2.344045895022789
1648125783393673199,38744,28,4,2.42307806015,-0.902457654476,0.454564005136,0.0,12.5,0.8103940000501672,-0.30182530250033446,0.15202809536321069,12.5,0.0,1.185147832071611,2.6253315102035955
1648125783588578531,38745,30,0,0.0125890737399,0.0439508594573,0.0103758089244,0.0,12.8999996185,0.004210392555150501,0.014699284099431437,0.003470170208829431,12.8999996185,0.0,0.01585950074790286,0.0468809154720728
1648125783588588712,38746,30,1,0.0328124724329,0.0146502861753,-0.0301086530089,0.0,12.8999996185,0.010974071047792642,0.0048997612626421405,-0.010069783615016722,12.8999996185,0.0,0.01627476977271537,0.04688091528744241
1648125783588650684,38747,30,2,1.2403370142,-0.079111546278,0.239825710654,0.0,12.8999996185,0.41482843284280935,-0.026458711129765885,0.08020926777725752,12.8999996185,0.0,0.5872523484706474,1.2657847040629633
1648125783588713235,38748,30,3,2.41850543022,-0.902457654476,0.478295564651,0.0,12.8999996185,0.8088646923812709,-0.30182530250033446,0.1599650717896321,12.8999996185,0.0,1.1830565051558248,2.625331404088019
1648125783693673758,38749,31,0,0.0126571767032,0.0439508594573,0.0102926222607,0.0,13.0,0.004233169465953177,0.014699284099431437,0.0034423485821739124,13.0,0.0,0.015871622490809013,0.046880915542817876
1648125783693677610,38750,31,1,0.0328369177878,0.0146502861753,-0.0300819892436,0.0,13.0,0.010982246751772574,0.0048997612626421405,-0.010060865967759198,13.0,0.0,0.016285795892879384,0.046880914364728306
1648125783693685247,38751,31,2,1.2372674942,-0.118667319417,0.2393707335,0.0,13.0,0.41380183752508354,-0.039688066694648826,0.08005710150501671,13.0,0.0,0.5865484328819148,1.2657847893531866
1648125783693690638,38752,31,3,2.42434406281,-0.902457654476,0.44776275754,0.0,13.0,0.8108174123110367,-0.30182530250033446,0.1497534306153846,13.0,0.0,1.1857268932781062,2.6253314914586015
1648125783888555799,38753,33,0,0.0125994505361,0.0439508594573,0.0103632062674,0.0,12.6000003815,0.004213863055551839,0.014699284099431437,0.003465955273377926,12.6000003815,0.0,0.01586134410249293,0.04688091557326548
1648125783888560865,38754,33,1,0.032911542803,0.0146502861753,-0.0300003252923,0.0,12.6000003815,0.01100720495083612,0.0048997612626421405,-0.010033553609464882,12.6000003815,0.0,0.01631946022668369,0.046880913518570676
1648125783888563772,38755,33,2,1.23444998264,-0.079111546278,0.268487513065,0.0,12.6000003815,0.4128595259665551,-0.026458711129765885,0.08979515487123746,12.6000003815,0.0,0.5844707347312658,1.2657847135536995
1648125783888737057,38756,33,3,1.86417675018,-1.31852579117,0.529986679554,0.0,12.6000003815,0.6234704850100334,-0.44097852547491634,0.17725307008494984,12.6000003815,0.0,0.9858463122045567,2.344045882314767
1648125783888742052,38757,33,4,2.42131400108,-0.902457654476,0.463867694139,0.0,12.6000003815,0.8098040137391304,-0.30182530250033446,0.15513969703645483,12.6000003815,0.0,1.1843409958983222,2.625331321493383
1648125783993672957,38758,34,0,0.0125890737399,0.0439508594573,0.0103758089244,0.0,13.1000003815,0.004210392555150501,0.014699284099431437,0.003470170208829431,13.1000003815,0.0,0.01585950074790286,0.0468809154720728
1648125783993676296,38759,34,1,0.032911542803,0.0146502861753,-0.0300003252923,0.0,13.1000003815,0.01100720495083612,0.0048997612626421405,-0.010033553609464882,13.1000003815,0.0,0.01631946022668369,0.046880913518570676
1648125783993686071,38760,34,2,1.23493409157,-0.079111546278,0.266251981258,0.0,13.1000003815,0.41302143530769225,-0.026458711129765885,0.08904748537056854,13.1000003815,0.0,0.5846994744669272,1.2657847229288746
1648125783993693592,38761,34,3,2.42079806328,-0.902457654476,0.46655267477,0.0,13.1000003815,0.8096314592909698,-0.30182530250033446,0.1560376838695652,13.1000003815,0.0,1.1841050261597021,2.6253313085470875
1648125784188676144,38762,36,0,0.0125994505361,0.0439508594573,0.0103632062674,0.0,12.6000003815,0.004213863055551839,0.014699284099431437,0.003465955273377926,12.6000003815,0.0,0.01586134410249293,0.04688091557326548
1648125784188679003,38763,36,1,0.0328369177878,0.0146502861753,-0.0300819892436,0.0,12.6000003815,0.010982246751772574,0.0048997612626421405,-0.010060865967759198,12.6000003815,0.0,0.016285795892879384,0.046880914364728306
1648125784188681713,38764,36,2,1.23398470879,-0.079111546278,0.270618259907,0.0,12.6000003815,0.41270391598327755,-0.026458711129765885,0.09050777923311036,12.6000003815,0.0,0.5842508946766901,1.2657847924813799
1648125784188874932,38765,36,3,2.38960123062,-0.984499275684,0.461445569992,0.0,12.6000003815,0.7991977359933109,-0.32926397180066885,0.154329622070903,12.6000003815,0.0,1.1772207972846978,2.625331384657598
1648125784293669848,38766,37,0,0.0125994505361,0.0439508594573,0.0103632062674,0.0,12.3000001907,0.004213863055551839,0.014699284099431437,0.003465955273377926,12.3000001907,0.0,0.01586134410249293,0.04688091557326548
1648125784293672009,38767,37,1,0.0328369177878,0.0146502861753,-0.0300819892436,0.0,12.3000001907,0.010982246751772574,0.0048997612626421405,-0.010060865967759198,12.3000001907,0.0,0.016285795892879384,0.046880914364728306
1648125784293674062,38768,37,2,1.23661267757,-0.079111546278,0.258343547583,0.0,12.3000001907,0.41358283530769224,-0.026458711129765885,0.08640252427525083,12.3000001907,0.0,0.5854926017610708,1.265784712997874
1648125784293681710,38769,37,3,2.38576745987,-0.984499275684,0.480874657631,0.0,12.3000001907,0.7979155384180601,-0.32926397180066885,0.16082764469264213,12.3000001907,0.0,1.1754799768706896,2.6253315281595584
1648125784488705536,38770,39,0,0.0125994505361,0.0439508594573,0.0103632062674,0.0,12.0,0.004213863055551839,0.014699284099431437,0.003465955273377926,12.0,0.0,0.01586134410249293,0.04688091557326548
1648125784488718656,38771,39,1,0.0327995419502,0.0146502861753,-0.0301227364689,0.0,12.0,0.010969746471638795,0.0048997612626421405,-0.010074493802307691,12.0,0.0,0.016268937756809817,0.046880913915322876
1648125784488722524,38772,39,2,1.18766355515,-0.076181486249,0.263397604227,0.0,12.0,0.39721189135451507,-0.02547875794280936,0.08809284422307691,12.0,0.0,0.5623199626308588,1.2189038670014822
1648125784488727072,38773,39,3,2.3846950531,-0.984499275684,0.486163884401,0.0,12.0,0.7975568739464883,-0.32926397180066885,0.16259661685652174,12.0,0.0,1.1749930627389,2.625331339583216
1648125784593680476,38774,40,0,0.0126097733155,0.0439508594573,0.0103506427258,0.0,12.0,0.004217315490133779,0.014699284099431437,0.0034617534199999998,12.0,0.0,0.01586317915559307,0.04688091546611253
1648125784593684570,38775,40,1,0.0328872464597,0.0146502861753,-0.0300269592553,0.0,12.0,0.010999079083511706,0.0048997612626421405,-0.010042461289397992,12.0,0.0,0.0163084990664861,0.0468809145264753
1648125784593694030,38776,40,2,1.18282699585,-0.076181486249,0.284329324961,0.0,12.0,0.395594312993311,-0.02547875794280936,0.09509341971939798,12.0,0.0,0.560034720398305,1.2189038050606866
1648125784593707625,38777,40,3,1.35686779022,0.0849716588855,0.00751872453839,0.0,12.0,0.45380193652842804,0.028418615011872907,0.0025146235914347823,12.0,0.0,0.6424017534791572,1.3595465840378342
1648125784593714364,38778,40,4,0.326557129622,1.317060709,0.0841329470277,0.0,12.0,0.10921643131170568,0.44048853143812705,0.028138109373812704,12.0,0.0,0.4667832516976663,1.359546550462362
1648125784593766184,38779,40,5,2.38778114319,-0.984499275684,0.470773518085,0.0,12.0,0.7985890111003343,-0.32926397180066885,0.1574493371521739,12.0,0.0,1.1763943133262638,2.625331468010504
1648125784788603201,38780,42,0,0.0125994505361,0.0439508594573,0.0103632062674,0.0,12.1000003815,0.004213863055551839,0.014699284099431437,0.003465955273377926,12.1000003815,0.0,0.01586134410249293,0.04688091557326548
1648125784788606343,38781,42,1,0.0327710583806,0.0146502861753,-0.0301537234336,0.0,12.1000003815,0.010960220194180602,0.0048997612626421405,-0.010084857335652174,12.1000003815,0.0,0.0162560915917922,0.04688091497947665
1648125784788609916,38782,42,2,1.17921638489,-0.039555773139,0.45836135745,0.0,12.1000003815,0.39438675079933105,-0.013229355564882942,0.15329811285953177,12.1000003815,0.0,0.5579039650878719,1.2657847666902422
1648125784788743710,38783,42,3,2.38823723793,-0.984499275684,0.468454420567,0.0,12.1000003815,0.7987415511471571,-0.32926397180066885,0.15667371925317725,12.1000003815,0.0,1.1766014168714418,2.6253314976601714
1648125784893632832,38784,43,0,0.0126674417406,0.0439508594573,0.0102799860761,0.0,12.1999998093,0.004236602588829431,0.014699284099431437,0.0034381224334782603,12.1999998093,0.0,0.015873454445304285,0.04688091553086012
1648125784893643195,38785,43,1,0.032911542803,0.0146502861753,-0.0300003252923,0.0,12.1999998093,0.01100720495083612,0.0048997612626421405,-0.010033553609464882,12.1999998093,0.0,0.01631946022668369,0.046880913518570676
1648125784893654646,38786,43,2,1.10889148712,-0.0703213736415,0.177084818482,0.0,12.1999998093,0.3708667181003344,-0.023518854060702338,0.059225691799999994,12.1999998093,0.0,0.5250117919488614,1.1251419727015943
1648125784893667190,38787,43,3,1.05134010315,0.140642747283,-0.375297516584,0.0,12.1999998093,0.35161876359531774,0.047037708121404675,-0.12551756407491638,12.1999998093,0.0,0.4994837893364652,1.1251420447254117
1648125784893696410,38788,43,4,1.17655956745,-0.158223092556,0.439185738564,0.0,12.1999998093,0.3934981830936455,-0.05291742225953177,0.1468848623959866,12.1999998093,0.0,0.5590007994400311,1.265784766749119
1648125784893735682,38789,43,5,1.356351614,-0.0,-0.0931514725089,0.0,12.1999998093,0.45362930234113713,-0.0,-0.03115433863173913,12.1999998093,0.0,0.6415287116606814,1.3595465779556732
1648125784893752837,38790,43,6,2.38162851334,-0.984499275684,0.50097066164,0.0,12.1999998093,0.7965312753645484,-0.32926397180066885,0.16754871626755852,12.1999998093,0.0,1.1736008300924552,2.6253313701703327
1648125785088582303,38791,45,0,0.0125994505361,0.0439508594573,0.0103632062674,0.0,11.8999996185,0.004213863055551839,0.014699284099431437,0.003465955273377926,11.8999996185,0.0,0.01586134410249293,0.04688091557326548
1648125785088588938,38792,45,1,0.0328369177878,0.0146502861753,-0.0300819892436,0.0,11.8999996185,0.010982246751772574,0.0048997612626421405,-0.010060865967759198,11.8999996185,0.0,0.016285795892879384,0.046880914364728306
1648125785088601710,38793,45,2,1.23958468437,-0.118667319417,0.227065458894,0.0,11.8999996185,0.41457681751505016,-0.039688066694648826,0.07594162504816053,11.8999996185,0.0,0.587641912970623,1.2657846756241884
1648125785088797632,38794,45,3,1.40365767479,0.0439508594573,0.0764957740903,0.0,11.8999996185,0.46945072735451504,0.014699284099431437,0.0255838709332107,11.8999996185,0.0,0.6640662917061837,1.4064274419597973
1648125785088802869,38795,45,4,2.41723561287,-0.902457654476,0.48467245698,0.0,11.8999996185,0.8084400043043477,-0.30182530250033446,0.16209781169899665,11.8999996185,0.0,1.1824757901744314,2.6253314489420867
1648125785193682719,38796,46,0,0.0125994505361,0.0439508594573,0.0103632062674,0.0,11.8999996185,0.004213863055551839,0.014699284099431437,0.003465955273377926,11.8999996185,0.0,0.01586134410249293,0.04688091557326548
1648125785193701932,38797,46,1,0.0327995419502,0.0146502861753,-0.0301227364689,0.0,11.8999996185,0.010969746471638795,0.0048997612626421405,-0.010074493802307691,11.8999996185,0.0,0.016268937756809817,0.046880913915322876
1648125785193709153,38798,46,2,1.07532429695,-0.0366257168353,0.464730143547,0.0,11.8999996185,0.3596402330936455,-0.012249403623846153,0.15542814165451505,11.8999996185,0.0,0.5087555821889753,1.1720229916968041
1648125785193716793,38799,46,3,1.25209796429,-0.158223092556,0.0970930680633,0.0,11.8999996185,0.4187618609665552,-0.05291742225953177,0.0324725980144816,11.8999996185,0.0,0.594578208462889,1.2657847064422494
1648125785193721510,38800,46,4,0.514473080635,0.276890397072,-1.12288033962,0.0,11.8999996185,0.1720645754632107,0.09260548397056856,-0.3755452640869565,11.8999996185,0.0,0.26036169441777157,1.2657847762530103
1648125785193744666,38801,46,5,2.25565886497,-0.83799636364,0.39073112607,0.0,11.8999996185,0.7544009581839465,-0.28026634235451503,0.1306793063779264,11.8999996185,0.0,1.103082423971342,2.4378075464383038
1648125785193789727,38802,46,6,2.41993999481,-0.902457654476,0.470984250307,0.0,11.8999996185,0.8093444798695651,-0.30182530250033446,0.15751981615618726,11.8999996185,0.0,1.1837125864922162,2.625331514426434
