%time,field.header.seq,field.header.frame_id,field.point_id,field.x,field.y,field.z,field.velocity,field.intensity,normalized_x,normalized_y,normalized_z,normalized_intensity,normalized_velocity,normalized_range,range
1648295789567079260,65563,0,0,0.0127004906535,0.0439508594573,0.0102391270921,0.0,14.8000001907,0.004247655736956521,0.014699284099431437,0.003424457221438127,14.8000001907,0.0,0.01587936118221376,0.046880915450566385
1648295789567081932,65564,0,1,0.0334906764328,0.0146502861753,-0.0293524079025,0.0,14.8000001907,0.011200895128026755,0.0048997612626421405,-0.009816858830267557,14.8000001907,0.0,0.01658094580441645,0.04688091448147568
1648295789567197087,65565,0,2,2.23862981796,-1.2306240797,0.605364382267,0.0,14.8000001907,0.748705624735786,-0.4115799597658863,0.20246300410267556,14.8000001907,0.0,1.1360098099501148,2.625331431022491
1648295789567199076,65566,0,3,1.85848748684,-0.0,0.250073313713,-0.0809188112617,14.8000001907,0.6215677213511706,-0.0,0.08363655977023411,14.8000001907,-0.010934974494824324,0.8790295014681663,1.8752366253281905
1648295789672343326,65567,1,0,0.0127323288471,0.0439508594573,0.0101995095611,0.0,14.5,0.004258303962240802,0.014699284099431437,0.003411207211070234,14.5,0.0,0.015885064000672747,0.046880915522129064
1648295789672345991,65568,1,1,0.0335134975612,0.0146502861753,-0.0293263476342,0.0,14.5,0.01120852761244147,0.0048997612626421405,-0.009808143021471571,14.5,0.0,0.016591258026702325,0.04688091370019032
1648295789672348514,65569,1,2,2.24049425125,-1.2306240797,0.598427414894,0.0,14.5,0.7493291810200668,-0.4115799597658863,0.2001429481250836,14.5,0.0,1.1368317845386349,2.6253315002716295
1648295789867035994,65570,3,0,0.0127121871337,0.0439508594573,0.0102246021852,0.0,14.3999996185,0.004251567603244147,0.014699284099431437,0.003419599393043478,14.3999996185,0.0,0.01588145482018912,0.04688091550517269
1648295789867048207,65571,3,1,0.0334051251411,0.0146502861753,-0.0294497366995,0.0,14.3999996185,0.011172282655886287,0.0048997612626421405,-0.009849410267391303,14.3999996185,0.0,0.016542293067072764,0.04688091575876707
1648295789867059730,65572,3,2,0.39038169384,-0.0,1.05524718761,0.0,14.3999996185,0.13056243941137122,-0.0,0.35292548080602004,14.3999996185,0.0,0.18464317255207666,1.1251419883037883
1648295789867062734,65573,3,3,1.81669616699,-0.0,0.464895278215,0.0,14.3999996185,0.6075906913010033,-0.0,0.15548337064046822,14.3999996185,0.0,0.8592629960095234,1.8752366738262027
1648295789867225568,65574,3,4,2.23971033096,-1.2306240797,0.601354002953,0.0,14.3999996185,0.7490670003210702,-0.4115799597658863,0.2011217401180602,14.3999996185,0.0,1.1364861658730832,2.6253313369961555
1648295789972162911,65575,4,0,0.0126802325249,0.0439508594573,0.0102642038837,0.0,15.3999996185,0.004240880443110368,0.014699284099431437,0.0034328441082608695,15.3999996185,0.0,0.015875738940323687,0.0468809153631521
1648295789972165595,65576,4,1,0.0335134975612,0.0146502861753,-0.0293263476342,0.0,15.3999996185,0.01120852761244147,0.0048997612626421405,-0.009808143021471571,15.3999996185,0.0,0.016591258026702325,0.04688091370019032
1648295789972167348,65577,4,2,0.417156666517,-0.0,1.04495203495,0.0,15.3999996185,0.1395172797715719,-0.0,0.34948228593645486,15.3999996185,0.0,0.19730722923835847,1.125141964271941
1648295789972178563,65578,4,3,1.96739113331,-0.061531201005,0.0504084341228,0.0,15.3999996185,0.6579903455886287,-0.020578996991638794,0.016859008067826087,15.3999996185,0.0,0.9307663965210969,1.9689984688553306
1648295789972180775,65579,4,4,2.2397210598,-1.2306240797,0.601314246655,0.0,15.3999996185,0.7490705885618728,-0.4115799597658863,0.2011084436973244,15.3999996185,0.0,1.1364908959502271,2.6253313837455603
1648295789972182491,65580,4,5,1.81436824799,0.0586011447012,0.470261603594,-0.0809188112617,15.3999996185,0.6068121230735786,0.019599045050568562,0.15727812829230767,15.3999996185,-0.010934974494824324,0.8583857104967568,1.8752365742192088
1648295790167260369,65581,6,0,0.0127004906535,0.0439508594573,0.0102391270921,0.0,16.3999996185,0.004247655736956521,0.014699284099431437,0.003424457221438127,16.3999996185,0.0,0.01587936118221376,0.046880915450566385
1648295790167266135,65582,6,1,0.0335269682109,0.0146502861753,-0.0293109472841,0.0,16.3999996185,0.01121303284645485,0.0048997612626421405,-0.00980299240270903,16.3999996185,0.0,0.016597345319726262,0.046880914166899254
1648295790167268942,65583,6,2,0.402890175581,-0.0,1.05053508282,0.0,16.3999996185,0.13474587812073577,-0.0,0.35134952602675584,16.3999996185,0.0,0.1905594483122166,1.125141970515416
1648295790167344205,65584,6,3,2.23979473114,-1.2306240797,0.601039588451,0.0,16.3999996185,0.74909522780602,-0.4115799597658863,0.20101658476622072,16.3999996185,0.0,1.136523375881198,2.6253313410054213
1648295790167352593,65585,6,4,1.83486807346,-0.0,0.387003540993,0.0809188112617,16.3999996185,0.613668251993311,-0.0,0.12943262240568562,16.3999996185,0.010934974494824324,0.8678579647667305,1.8752366751276845
1648295790272157792,65586,7,0,0.0127121871337,0.0439508594573,0.0102246021852,0.0,21.2999992371,0.004251567603244147,0.014699284099431437,0.003419599393043478,21.2999992371,0.0,0.01588145482018912,0.04688091550517269
1648295790272255449,65587,7,1,0.0335134975612,0.0146502861753,-0.0293263476342,0.0,21.2999992371,0.01120852761244147,0.0048997612626421405,-0.009808143021471571,21.2999992371,0.0,0.016591258026702325,0.04688091370019032
1648295790272312295,65588,7,2,0.402890175581,-0.0,1.05053508282,0.0,21.2999992371,0.13474587812073577,-0.0,0.35134952602675584,21.2999992371,0.0,0.1905594483122166,1.125141970515416
1648295790272397133,65589,7,3,2.24158167839,-1.2306240797,0.594340741634,0.0,21.2999992371,0.7496928690267559,-0.4115799597658863,0.19877616777056853,21.2999992371,0.0,1.1373112410505868,2.6253314007182516
1648295790467148674,65590,9,0,0.0127121871337,0.0439508594573,0.0102246021852,0.0,14.8999996185,0.004251567603244147,0.014699284099431437,0.003419599393043478,14.8999996185,0.0,0.01588145482018912,0.04688091550517269
1648295790467157551,65591,9,1,0.0335041433573,0.0146502861753,-0.0293370354921,0.0,14.8999996185,0.011205399116153847,0.0048997612626421405,-0.009811717555886288,14.8999996185,0.0,0.016587031052466603,0.046880914651800804
1648295790467162448,65592,9,2,0.451138198376,-0.0,1.03073704243,0.0,14.8999996185,0.15088234059397992,-0.0,0.34472810783612035,14.8999996185,0.0,0.213379852390603,1.1251420020029856
1648295790467167750,65593,9,3,2.23941850662,-1.2306240797,0.602439701557,0.0,14.8999996185,0.7489694002073578,-0.4115799597658863,0.20148485001906352,14.8999996185,0.0,1.1363575089622224,2.625331306205316
1648295790572043835,65594,10,0,0.0127004906535,0.0439508594573,0.0102391270921,0.0,15.3000001907,0.004247655736956521,0.014699284099431437,0.003424457221438127,15.3000001907,0.0,0.01587936118221376,0.046880915450566385
1648295790572052441,65595,10,1,0.0334561355412,0.0146502861753,-0.0293917711824,0.0,15.3000001907,0.011189342990367892,0.0048997612626421405,-0.00983002380682274,15.3000001907,0.0,0.016565338920259937,0.04688091406540503
1648295790572066794,65596,10,2,1.91873848438,-0.0600661747158,0.0968017652631,0.0,15.3000001907,0.6417185566488294,-0.020089021644080267,0.032375172328795984,15.3000001907,0.0,0.9077494041229275,1.9221175558596568
1648295790572085742,65597,10,3,2.2403318882,-1.2306240797,0.599034547806,0.0,15.3000001907,0.7492748789966555,-0.4115799597658863,0.20034600261070232,15.3000001907,0.0,1.1367601998098782,2.625331404658922
1648295790572093566,65598,10,4,1.72676050663,0.162618175149,-0.0258727688342,0.404594063759,15.3000001907,0.5775118751270902,0.05438734954816053,-0.008653099944548494,15.3000001907,0.05467487348094594,0.8185340039463782,1.7345938770539442
1648295790767166652,65599,12,0,0.0127004906535,0.0439508594573,0.0102391270921,0.0,22.8999996185,0.004247655736956521,0.014699284099431437,0.003424457221438127,22.8999996185,0.0,0.01587936118221376,0.046880915450566385
1648295790767173368,65600,12,1,0.0335041433573,0.0146502861753,-0.0293370354921,0.0,22.8999996185,0.011205399116153847,0.0048997612626421405,-0.009811717555886288,22.8999996185,0.0,0.016587031052466603,0.046880914651800804
1648295790767177906,65601,12,2,1.90805327892,-0.0600661747158,0.224188506603,0.0,22.8999996185,0.6381449093377926,-0.020089021644080267,0.07497943364648829,22.8999996185,0.0,0.90269674831479,1.922117516447742
1648295790767188677,65602,12,3,2.23914122581,-1.2306240797,0.603469491005,0.0,22.8999996185,0.7488766641505017,-0.4115799597658863,0.20182926120568562,22.8999996185,0.0,1.1362352659107424,2.625331308850983
1648295790767571352,65603,12,4,1.76513826847,-0.0,-0.240706309676,0.323675245047,22.8999996185,0.5903472469799331,-0.0,-0.08050378250033445,22.8999996185,0.04373989797932432,0.8348770831886406,1.7814748480781615
1648295790872231983,65604,13,0,0.0127004906535,0.0439508594573,0.0102391270921,0.0,24.7000007629,0.004247655736956521,0.014699284099431437,0.003424457221438127,24.7000007629,0.0,0.01587936118221376,0.046880915450566385
1648295790872236233,65605,13,1,0.0335134975612,0.0146502861753,-0.0293263476342,0.0,24.7000007629,0.01120852761244147,0.0048997612626421405,-0.009808143021471571,24.7000007629,0.0,0.016591258026702325,0.04688091370019032
1648295790872242924,65606,13,2,0.412429183722,-0.0,1.04682695866,0.0,24.7000007629,0.13793618184682274,-0.0,0.350109350722408,24.7000007629,0.0,0.19507121910973824,1.1251419967999332
1648295790872245808,65607,13,3,0.587488770485,0.0703213736415,0.957003831863,0.0,24.7000007629,0.19648453862374582,0.023518854060702338,0.3200681711916388,24.7000007629,0.0,0.27886463442448406,1.1251419844789676
1648295790872383583,65608,13,4,1.94024097919,0.061531201005,0.329596310854,0.0,24.7000007629,0.6489100264849498,0.020578996991638794,0.11023287988428092,24.7000007629,0.0,0.9179280691113973,1.9689984444264688
1648295790872386856,65609,13,5,2.23945403099,-1.2306240797,0.60230743885,0.0,24.7000007629,0.7489812812675586,-0.4115799597658863,0.201440615,24.7000007629,0.0,1.1363731705119036,2.625331261640877
1648295791067177958,65610,15,0,0.0127004906535,0.0439508594573,0.0102391270921,0.0,15.6999998093,0.004247655736956521,0.014699284099431437,0.003424457221438127,15.6999998093,0.0,0.01587936118221376,0.046880915450566385
1648295791067189597,65611,15,1,0.0335269682109,0.0146502861753,-0.0293109472841,0.0,15.6999998093,0.01121303284645485,0.0048997612626421405,-0.00980299240270903,15.6999998093,0.0,0.016597345319726262,0.046880914166899254
1648295791067200168,65612,15,2,0.560847580433,0.0703213736415,0.972856342793,0.0,15.6999998093,0.18757444161638795,0.023518854060702338,0.3253700143120401,15.6999998093,0.0,0.26631086870747145,1.1251420211604173
1648295791067313279,65613,15,3,1.91908681393,0.0600661747158,-0.0896309912205,0.0,15.6999998093,0.6418350548260869,0.020089021644080267,-0.02997692014063545,15.6999998093,0.0,0.9079141170825731,1.9221175456595145
1648295791067322754,65614,15,4,2.23925542831,-1.2306240797,0.603046000004,0.0,15.6999998093,0.7489148589665551,-0.4115799597658863,0.20168762541939797,15.6999998093,0.0,1.136285613410061,2.625331403246854
1648295791172295941,65615,16,0,0.0127121871337,0.0439508594573,0.0102246021852,0.0,15.6999998093,0.004251567603244147,0.014699284099431437,0.003419599393043478,15.6999998093,0.0,0.01588145482018912,0.04688091550517269
1648295791172298031,65616,16,1,0.0335269682109,0.0146502861753,-0.0293109472841,0.0,15.6999998093,0.01121303284645485,0.0048997612626421405,-0.00980299240270903,15.6999998093,0.0,0.016597345319726262,0.046880914166899254
1648295791172302191,65617,16,2,0.4103474617,-0.0,1.04764473438,0.0,15.6999998093,0.1372399537458194,-0.0,0.3503828543076923,15.6999998093,0.0,0.19408660388679405,1.1251420038367486
1648295791172304009,65618,16,3,1.91558790207,-0.0600661747158,0.14646114409,0.0,15.6999998093,0.6406648501906353,-0.020089021644080267,0.04898366023076923,15.6999998093,0.0,0.906259603717497,1.9221175361122131
1648295791172310511,65619,16,4,2.24069738388,-1.2306240797,0.597666025162,0.0,15.6999998093,0.7493971183545151,-0.4115799597658863,0.19988830272976585,15.6999998093,0.0,1.1369213452464468,2.625331420849012
