%time,field.header.seq,field.header.frame_id,field.point_id,field.x,field.y,field.z,field.velocity,field.intensity,normalized_x,normalized_y,normalized_z,normalized_intensity,normalized_velocity,normalized_range,range
1648127165903244033,98230,0,0,0.0125994505361,0.0439508594573,0.0103632062674,0.0,12.6999998093,0.004213863055551839,0.014699284099431437,0.003465955273377926,12.6999998093,0.0,0.01586134410249293,0.04688091557326548
1648127165903379220,98231,0,1,0.0328124724329,0.0146502861753,-0.0301086530089,0.0,12.6999998093,0.010974071047792642,0.0048997612626421405,-0.010069783615016722,12.6999998093,0.0,0.01627476977271537,0.04688091528744241
1648127165903396005,98232,0,2,1.3552852869,0.0424858294427,-0.0988104268909,0.0,12.6999998093,0.4532726712040134,0.01420930750591973,-0.03304696551535117,12.6999998093,0.0,0.6411818254915224,1.359546525519966
1648127165903400092,98233,0,3,1.37574863434,-0.234404578805,0.550398111343,0.0,12.6999998093,0.46011660011371236,-0.07839618020234114,0.1840796359006689,12.6999998093,0.0,0.6554086759196294,1.5001892855313512
1648127165903423903,98234,0,4,1.13691723347,0.281285494566,-0.937478303909,0.0,12.6999998093,0.38023987741471565,0.09407541624280935,-0.31353789428394646,12.6999998093,0.0,0.5459074213582134,1.5001892865616702
1648127165903461056,98235,0,5,1.8134251833,-1.39177727699,0.518648147583,0.0,12.6999998093,0.6064967168227424,-0.4654773501638796,0.17346091892408028,12.6999998093,0.0,0.9758820105674244,2.3440458155001185
1648127165903468089,98236,0,6,2.42442250252,-0.902457654476,0.44733697176,0.0,12.6999998093,0.8108436463277592,-0.30182530250033446,0.1496110273444816,12.6999998093,0.0,1.1857627717252768,2.6253313419740127
1648127165903491539,98237,0,7,1.43484318256,0.290075659752,0.500507295132,0.161837622523,12.6999998093,0.47988066306354515,0.09701527082006689,0.16739374419130434,12.6999998093,0.021869948989594594,0.6855529624594342,1.5470702632394622
1648127166008382665,98238,1,0,0.0126303331926,0.0439508594573,0.0103255445138,0.0,37.4000015259,0.004224191703210702,0.014699284099431437,0.003453359369163879,37.4000015259,0.0,0.015866837874218862,0.04688091544645748
1648127166008391825,98239,1,1,0.0327595062554,0.0146502861753,-0.0301662702113,0.0,37.4000015259,0.01095635660715719,0.0048997612626421405,-0.010089053582374581,37.4000015259,0.0,0.016250881841835,0.046880912891889635
1648127166008405045,98240,1,2,1.35483801365,0.0424858294427,-0.104765065014,0.0,37.4000015259,0.4531230814882943,0.01420930750591973,-0.03503848328227425,37.4000015259,0.0,0.6409703256584446,1.3595465449119053
1648127166008415596,98241,1,3,1.50700461864,0.096691891551,0.33617541194,0.0,37.4000015259,0.5040149226220735,0.032338425267892976,0.11243324814046822,37.4000015259,0.0,0.713517945254551,1.5470701826636795
1648127166008417409,98242,1,4,1.83394372463,-1.39177727699,0.440632909536,0.0,37.4000015259,0.6133591052274248,-0.4654773501638796,0.14736886606555183,37.4000015259,0.0,0.9844226467561386,2.3440458474231294
1648127166008558586,98243,1,5,2.42912745476,-0.902457654476,0.421040385962,0.0,37.4000015259,0.8124172089498327,-0.30182530250033446,0.1408161825959866,37.4000015259,0.0,1.1879149616134526,2.6253314107369663
1648127166203225561,98244,3,0,0.0125994505361,0.0439508594573,0.0103632062674,0.0,13.3000001907,0.004213863055551839,0.014699284099431437,0.003465955273377926,13.3000001907,0.0,0.01586134410249293,0.04688091557326548
1648127166203231443,98245,3,1,0.0329001024365,0.0146502861753,-0.0300128757954,0.0,13.3000001907,0.011003378741304349,0.0048997612626421405,-0.010037751102140467,13.3000001907,0.0,0.016314298877980183,0.04688091657444943
1648127166203406788,98246,3,2,1.35393202305,-0.0,-0.123430326581,0.0,13.3000001907,0.4528200745986622,-0.0,-0.04128104567926421,13.3000001907,0.0,0.6403842908122247,1.3595466040412731
1648127166203417257,98247,3,3,1.45497918129,0.0483459457755,0.523569464684,0.0,13.3000001907,0.48661511079933106,0.016169212633946488,0.17510684437591972,13.3000001907,0.0,0.688367616578302,1.5470703709947187
1648127166203424299,98248,3,4,1.87882304192,-1.24527442455,0.64332473278,0.0,13.3000001907,0.6283689103411371,-0.4164797406521739,0.21515877350501672,13.3000001907,0.0,0.9814022362621342,2.3440458884361277
1648127166203427544,98249,3,5,1.29385578632,-0.590406537056,0.299102842808,-0.242756426334,13.3000001907,0.4327276877324414,-0.1974603802862876,0.10003439558795985,13.3000001907,-0.03280492247756756,0.6430374057886026,1.4533083586658513
1648127166203436662,98250,3,6,1.427500844,0.71786403656,0.373152107,-0.242756426334,13.3000001907,0.4774250314381271,0.240088306541806,0.12480003578595317,13.3000001907,-0.03280492247756756,0.7165973180423616,1.640832084512449
1648127166308490955,98251,4,0,0.0125994505361,0.0439508594573,0.0103632062674,0.0,22.0,0.004213863055551839,0.014699284099431437,0.003465955273377926,22.0,0.0,0.01586134410249293,0.04688091557326548
1648127166308498710,98252,4,1,0.0328369177878,0.0146502861753,-0.0300819892436,0.0,22.0,0.010982246751772574,0.0048997612626421405,-0.010060865967759198,22.0,0.0,0.016285795892879384,0.046880914364728306
1648127166308504949,98253,4,2,1.35368847847,0.0424858294427,-0.118698008358,0.0,22.0,0.4527386215618729,0.01420930750591973,-0.03969833055451505,22.0,0.0,0.6404267509460292,1.3595465272045726
1648127166308599390,98254,4,3,1.84303379059,-1.39177727699,0.400915682316,0.0,22.0,0.6163992610668896,-0.4654773501638796,0.13408551248026754,22.0,0.0,0.9882131660746086,2.3440458456116313
1648127166308625494,98255,4,4,2.39792561531,-0.984499275684,0.416027516127,0.0,22.0,0.8019818111404682,-0.32926397180066885,0.13913963750066888,22.0,0.0,1.1810014453531557,2.6253314028055517
1648127166308640432,98256,4,5,1.44460451603,0.338421612978,0.438195437193,-0.0809188112617,22.0,0.4831453230869565,0.11318448594581938,0.14655365792408026,22.0,-0.010934974494824324,0.692581788888806,1.5470703400432917
