%time,field.header.seq,field.header.frame_id,field.point_id,field.x,field.y,field.z,field.velocity,field.intensity,normalized_x,normalized_y,normalized_z,normalized_intensity,normalized_velocity,normalized_range,range
1648127228208681502,100884,0,0,0.0125890737399,0.0439508594573,0.0103758089244,0.0,13.0,0.004210392555150501,0.014699284099431437,0.003470170208829431,13.0,0.0,0.01585950074790286,0.0468809154720728
1648127228208687139,100885,0,1,0.0327970646322,0.0146502861753,-0.0301254354417,0.0,13.0,0.010968917937190636,0.0048997612626421405,-0.010075396468795985,13.0,0.0,0.016267820439645055,0.04688091503009433
1648127228208699342,100886,0,2,1.35541594028,0.0424858294427,-0.0970014408231,0.0,13.0,0.453316367986622,0.01420930750591973,-0.032441953452541805,13.0,0.0,0.6412436068990963,1.3595465039454546
1648127228208704622,100887,0,3,1.4758297205,-0.0,0.46406146884,0.0,13.0,0.49358853528428087,-0.0,0.15520450462876254,13.0,0.0,0.698039600830901,1.5470702669151928
1648127228208769668,100888,0,4,2.42242288589,-0.902457654476,0.458041965961,0.0,13.0,0.8101748782240803,-0.30182530250033446,0.15319129296354514,13.0,0.0,1.1848481674207143,2.625331388375071
1648127228208787247,100889,0,5,1.34196603298,0.140642747283,0.655678927898,0.161837622523,13.0,0.4488180712307692,0.047037708121404675,0.21929061133712371,13.0,0.021869948989594594,0.6364651350324935,1.5001893455577062
1648127228403769900,100890,2,0,0.0125786392018,0.0439508594573,0.010388456285,0.0,32.7999992371,0.004206902743076922,0.014699284099431437,0.0034744000953177254,32.7999992371,0.0,0.015857648451621513,0.046880915468767805
1648127228403877256,100891,2,1,0.0327970646322,0.0146502861753,-0.0301254354417,0.0,32.7999992371,0.010968917937190636,0.0048997612626421405,-0.010075396468795985,32.7999992371,0.0,0.016267820439645055,0.04688091503009433
1648127228403885185,100892,2,2,1.35667920113,0.0424858294427,-0.0773520320654,0.0,32.7999992371,0.45373886325418056,0.01420930750591973,-0.025870244837926423,32.7999992371,0.0,0.6418409588630113,1.3595465557849853
1648127228403896501,100893,2,3,1.82845294476,-1.39177727699,0.462889462709,0.0,32.7999992371,0.611522724,-0.4654773501638796,0.1548125293341137,32.7999992371,0.0,0.9821350454251937,2.3440458217863918
1648127228403898862,100894,2,4,2.42330336571,-0.902457654476,0.453361064196,0.0,32.7999992371,0.8104693530802675,-0.30182530250033446,0.1516257739785953,32.7999992371,0.0,1.1852508839035358,2.625331460008939
1648127228403903759,100895,2,5,1.32363379002,0.046880915761,0.704530775547,-0.0809188112617,32.7999992371,0.4426868862943143,0.015679236040468225,0.23562902192207358,32.7999992371,-0.010934974494824324,0.6262501074145401,1.5001892694050831
1648127228508854308,100896,3,0,0.0125934295356,0.0439508594573,0.0103705218062,0.0,19.1000003815,0.004211849343010033,0.014699284099431437,0.0034684019418729094,19.1000003815,0.0,0.01586027436119016,0.046880915488462134
1648127228508858866,100897,3,1,0.032885145396,0.0146502861753,-0.0300292614847,0.0,19.1000003815,0.010998376386622074,0.0048997612626421405,-0.010043231265785952,19.1000003815,0.0,0.016307551217595504,0.04688091528597467
1648127228508863049,100898,3,2,1.356513381,0.0424858294427,-0.0802065581083,0.0,19.1000003815,0.4536834050167224,0.01420930750591973,-0.026824935822173913,19.1000003815,0.0,0.6417625482956547,1.3595465017788342
1648127228508868289,100899,3,3,1.81632137299,-1.39177727699,0.50841319561,0.0,19.1000003815,0.6074653421371238,-0.4654773501638796,0.17003785806354513,19.1000003815,0.0,0.9770862025999204,2.3440459245066747
1648127228508872703,100900,3,4,2.39577841759,-0.984499275684,0.428220391273,0.0,19.1000003815,0.8012636848127089,-0.32926397180066885,0.14321752216488293,19.1000003815,0.0,1.1800261642545185,2.6253315511596558
1648127228509017794,100901,3,5,1.45113015175,0.241729736328,0.478763401508,0.0809188112617,19.1000003815,0.4853278099498327,0.08084606566153846,0.16012153896588627,19.1000003815,0.010934974494824324,0.6911022012368009,1.5470702561185425
1648127228703854874,100902,5,0,0.0125683275983,0.0439508594573,0.0104009294882,0.0,20.7000007629,0.004203454046254181,0.014699284099431437,0.003478571735183946,20.7000007629,0.0,0.01585581927475648,0.046880915518705844
1648127228703866891,100903,5,1,0.0328981243074,0.0146502861753,-0.0300150439143,0.0,20.7000007629,0.011002717159665552,0.0048997612626421405,-0.010038476225518393,20.7000007629,0.0,0.016313406456717926,0.04688091647078464
1648127228703947928,100904,5,2,1.35348474979,0.0424858294427,-0.120999708772,0.0,20.7000007629,0.45267048487959866,0.01420930750591973,-0.040468130024080264,20.7000007629,0.0,0.6403304148500676,1.3595465946926726
1648127228703955432,100905,5,3,1.82188498974,-1.39177727699,0.488100647926,0.0,20.7000007629,0.6093260835250836,-0.4654773501638796,0.16324436385484947,20.7000007629,0.0,0.9794006920783859,2.3440458927016343
1648127228703965228,100906,5,4,2.42018890381,-0.902457654476,0.469703137875,0.0,20.7000007629,0.8094277270267558,-0.30182530250033446,0.15709135045986622,20.7000007629,0.0,1.1838264246876815,2.62533144307095
1648127228703972097,100907,5,5,1.3517267704,0.697353601456,0.476668387651,-0.404594063759,20.7000007629,0.4520825319063545,0.2332286292494983,0.15942086543511705,20.7000007629,-0.05467487348094594,0.6805533225334515,1.5939510842762623
1648127228703977191,100908,5,6,1.34825253487,-0.562570989132,0.341023147106,-0.242756426334,20.7000007629,0.45092058022408027,-0.1881508324856187,0.11405456424949832,20.7000007629,-0.03280492247756756,0.664875533543139,1.5001892555469187
1648127228703980273,100909,5,7,1.47620546818,0.290075659752,0.360693782568,-0.161837622523,20.7000007629,0.49371420340468225,0.09701527082006689,0.12063337209632106,20.7000007629,-0.021869948989594594,0.704925096772225,1.5470702884640708
1648127228808931700,100910,6,0,0.0125683275983,0.0439508594573,0.0104009294882,0.0,37.0999984741,0.004203454046254181,0.014699284099431437,0.003478571735183946,37.0999984741,0.0,0.01585581927475648,0.046880915518705844
1648127228808944719,100911,6,1,0.0329094603658,0.0146502861753,-0.0300026126206,0.0,37.0999984741,0.01100650848354515,0.0048997612626421405,-0.010034318602207357,37.0999984741,0.0,0.01631852071811631,0.04688091542032999
1648127228809110283,100912,6,2,1.35264599323,0.0424858294427,-0.130041092634,0.0,37.0999984741,0.45238996429096984,0.01420930750591973,-0.04349200422541805,37.0999984741,0.0,0.6399337965775582,1.3595465841515149
1648127228809129619,100913,6,3,1.43761479855,-0.046880915761,0.42618522048,0.0,37.0999984741,0.48080762493311036,-0.015679236040468225,0.14253686303678928,37.0999984741,0.0,0.6801454130040501,1.5001893118630507
1648127228809159371,100914,6,4,1.78451597691,-1.46502864361,0.404653936625,0.0,37.0999984741,0.5968280859230769,-0.489976134986622,0.13533576475752507,37.0999984741,0.0,0.9759529400281736,2.344045862791707
1648127228809162633,100915,6,5,1.36875736713,-0.454158842564,0.179855898023,-0.161837622523,37.0999984741,0.4577783836555184,-0.15189258948628762,0.06015247425518394,37.0999984741,-0.021869948989594594,0.6649762821525049,1.4533083390682726
1648127228809164236,100916,6,6,1.38726568222,0.290075659752,0.620303571224,-0.161837622523,37.0999984741,0.4639684555919732,0.09701527082006689,0.20745938836923078,37.0999984741,-0.021869948989594594,0.6632838143216617,1.5470702899090034
1648127228809224679,100917,6,7,1.51958715916,-0.290075659752,-0.0117138912901,-0.161837622523,37.0999984741,0.5082231301538461,-0.09701527082006689,-0.003917689394682274,37.0999984741,-0.021869948989594594,0.7252540677714516,1.5470702110485077
