%time,field.header.seq,field.header.frame_id,field.point_id,field.x,field.y,field.z,field.velocity,field.intensity,normalized_x,normalized_y,normalized_z,normalized_intensity,normalized_velocity,normalized_range,range
1648294650864771467,20390,0,0,0.00625984510407,0.0454158857465,0.00979958660901,0.0,15.0,0.0020935936802909698,0.015189259446989964,0.0032774537153879594,15.0,0.0,0.015475137205992147,0.046880915483526756
1648294650864821572,20391,0,1,0.0335651524365,0.0146502861753,-0.0292672142386,0.0,15.0,0.011225803490468226,0.0048997612626421405,-0.009788365966086955,15.0,0.0,0.01661460166372055,0.046880914799007266
1648294650864831925,20392,0,2,2.23745107651,-1.2306240797,0.609706163406,0.0,15.0,0.7483113968260869,-0.4115799597658863,0.2039151048180602,15.0,0.0,1.1354901833659803,2.625331322139835
1648294650864840694,20393,0,3,1.75890231133,-0.111342176795,0.259842514992,-0.566431701183,15.0,0.5882616425852842,-0.037238186219063545,0.08690385116789297,15.0,-0.07654482448418919,0.8327605915190506,1.781474825455817
1648294651059746923,20394,2,0,0.0126902572811,0.0439508594573,0.0102518079802,0.0,29.2999992371,0.004244233204381271,0.014699284099431437,0.0034286983211371234,29.2999992371,0.0,0.015877530791094153,0.04688091556015881
1648294651059755732,20395,2,1,0.033649418503,0.0146502861753,-0.0291702933609,0.0,29.2999992371,0.011253986121404682,0.0048997612626421405,-0.009755950956822742,29.2999992371,0.0,0.016652689502672742,0.04688091579064121
1648294651059864927,20396,2,2,1.89456057549,-0.0600661747158,0.318697869778,0.0,29.2999992371,0.6336322994949832,-0.020089021644080267,0.10658791631371238,29.2999992371,0.0,0.8963165460467728,1.9221175957123497
1648294651059866886,20397,2,3,2.2364563942,-1.2306240797,0.61334502697,0.0,29.2999992371,0.7479787271571906,-0.4115799597658863,0.20513211604347825,29.2999992371,0.0,1.1350517238611952,2.6253313982818187
1648294651059868618,20398,2,4,1.76844000816,0.399952799082,-0.235674381256,-0.647350490093,29.2999992371,0.5914515077458193,0.13376347795384613,-0.07882086329632106,29.2999992371,-0.08747979595851352,0.8470669631522145,1.8283557416254819
1648294651059870664,20399,2,5,0.744927763939,-0.285680562258,1.64509999752,-0.647350490093,29.2999992371,0.24913972038093643,-0.09554533854782607,0.5502006680668896,29.2999992371,-0.08747979595851352,0.3650617923875369,1.8283557528499506
1648294651164784950,20400,3,0,0.00628323899582,0.0454158857465,0.00978460349143,0.0,20.6000003815,0.002101417724354515,0.015189259446989964,0.0032724426392742472,20.6000003815,0.0,0.01547725800820147,0.0468809154763667
1648294651164787965,20401,3,1,0.033514522016,0.0146502861753,-0.0293251797557,0.0,20.6000003815,0.011208870239464881,0.0048997612626421405,-0.009807752426655518,20.6000003815,0.0,0.016591720963215706,0.0468809155060271
1648294651164792148,20402,3,2,1.9482228756,-0.12306240201,0.257367283106,0.0,20.6000003815,0.6515795570568561,-0.04115799398327759,0.0860760144167224,20.6000003815,0.0,0.922391358815522,1.9689983865440235
1648294651164814293,20403,3,3,2.23531913757,-1.2306240797,0.617477238178,0.0,20.6000003815,0.7475983737692307,-0.4115799597658863,0.20651412648093645,20.6000003815,0.0,1.134550448506229,2.625331486116009
1648294651359884347,20404,5,0,0.0126799661666,0.0439508594573,0.0102645335719,0.0,15.1000003815,0.004240791360066889,0.014699284099431437,0.00343295437187291,15.1000003815,0.0,0.015875691347309377,0.04688091550375397
1648294651359886781,20405,5,1,0.033514522016,0.0146502861753,-0.0293251797557,0.0,15.1000003815,0.011208870239464881,0.0048997612626421405,-0.009807752426655518,15.1000003815,0.0,0.016591720963215706,0.0468809155060271
1648294651359891921,20406,5,2,1.8525480032,-0.0586011447012,0.284857869148,0.0,15.1000003815,0.6195812719732441,-0.019599045050568562,0.09527019035050166,15.1000003815,0.0,0.8764394033399345,1.8752365727918536
1648294651360010684,20407,5,3,2.23711371422,-1.2306240797,0.610943555832,0.0,15.1000003815,0.7481985666287625,-0.4115799597658863,0.20432894843879598,15.1000003815,0.0,1.1353414699955067,2.6253314884603283
1648294651464877883,20408,6,0,0.0126474238932,0.0439508594573,0.0103046037257,0.0,15.6999998093,0.004229907656588629,0.014699284099431437,0.003446355761103679,15.6999998093,0.0,0.01586988313133818,0.04688091547861809
1648294651464880198,20409,6,1,0.0335372425616,0.0146502861753,-0.0292991939932,0.0,15.6999998093,0.011216469084147156,0.0048997612626421405,-0.00979906153618729,15.6999998093,0.0,0.016601988370738802,0.04688091607791967
1648294651464882202,20410,6,2,0.35960483551,-0.668053030968,-0.466693341732,0.0,15.6999998093,0.12026917575585283,-0.22342910734715715,-0.15608472967625417,15.6999998093,0.0,0.28080227079554027,0.890737427710707
1648294651464883876,20411,6,3,2.2359290123,-1.2306240797,0.615264892578,0.0,15.6999998093,0.7478023452508361,-0.4115799597658863,0.20577421156454848,15.6999998093,0.0,1.1348192624405835,2.6253314193871495
1648294651659782557,20412,8,0,0.0126699265093,0.0439508594573,0.0102769229561,0.0,15.1000003815,0.004237433615150501,0.014699284099431437,0.0034370979786287623,15.1000003815,0.0,0.015873898082116214,0.04688091541589194
1648294651659788845,20413,8,1,0.0335372425616,0.0146502861753,-0.0292991939932,0.0,15.1000003815,0.011216469084147156,0.0048997612626421405,-0.00979906153618729,15.1000003815,0.0,0.016601988370738802,0.04688091607791967
1648294651659800186,20414,8,2,1.95908820629,-0.061531201005,0.187462747097,0.0,15.1000003815,0.6552134469197324,-0.020578996991638794,0.0626965709354515,15.1000003815,0.0,0.9268402328158051,1.9689984688340518
1648294651659802734,20415,8,3,2.23714494705,-1.2306240797,0.610828578472,0.0,15.1000003815,0.7482090123913043,-0.4115799597658863,0.2042904944722408,15.1000003815,0.0,1.1353552376802736,2.6253313489780568
1648294651764998513,20416,9,0,0.00631333654746,0.0454158857465,0.00976521056145,0.0,15.0,0.0021114837951371236,0.015189259446989964,0.0032659567095150496,15.0,0.0,0.015479997744903816,0.04688091545405326
1648294651765004363,20417,9,1,0.0335651524365,0.0146502861753,-0.0292672142386,0.0,15.0,0.011225803490468226,0.0048997612626421405,-0.009788365966086955,15.0,0.0,0.01661460166372055,0.046880914799007266
1648294651765006224,20418,9,2,1.9649181366,-0.061531201005,0.110749319196,0.0,15.0,0.6571632563879598,-0.020578996991638794,0.03703990608561873,15.0,0.0,0.9295970020444541,1.9689984215176788
1648294651765009352,20419,9,3,2.23723316193,-1.2306240797,0.610505759716,0.0,15.0,0.748238515695652,-0.4115799597658863,0.20418252833311035,15.0,0.0,1.135394123651234,2.625331432223975
1648294651959878815,20420,11,0,0.0126678450033,0.0439508594573,0.0102794887498,0.0,15.1000003815,0.004236737459297658,0.014699284099431437,0.0034379561036120398,15.1000003815,0.0,0.015873526439762208,0.046880915445629195
1648294651959881484,20421,11,1,0.0335651524365,0.0146502861753,-0.0292672142386,0.0,15.1000003815,0.011225803490468226,0.0048997612626421405,-0.009788365966086955,15.1000003815,0.0,0.01661460166372055,0.046880914799007266
1648294651960066100,20422,11,2,0.473864972591,-0.75155967474,-0.0634289011359,0.0,15.1000003815,0.15848326842508362,-0.25135775074916383,-0.02121367930966555,15.1000003815,0.0,0.3367708591951996,0.8907374374321939
1648294651960070203,20423,11,3,1.96501028538,-0.12306240201,-0.0233442913741,0.0,15.1000003815,0.6571940753779264,-0.04115799398327759,-0.007807455309063545,15.1000003815,0.0,0.9303236457773298,1.968998408424298
1648294651960071456,20424,11,4,2.23674297333,-1.2306240797,0.612299382687,0.0,15.1000003815,0.7480745730200669,-0.4115799597658863,0.20478240223645483,15.1000003815,0.0,1.13517804633423,2.625331462561915
1648294652064892783,20425,12,0,0.0126678450033,0.0439508594573,0.0102794887498,0.0,15.0,0.004236737459297658,0.014699284099431437,0.0034379561036120398,15.0,0.0,0.015873526439762208,0.046880915445629195
1648294652064894668,20426,12,1,0.033514522016,0.0146502861753,-0.0293251797557,0.0,15.0,0.011208870239464881,0.0048997612626421405,-0.009807752426655518,15.0,0.0,0.016591720963215706,0.0468809155060271
1648294652064896389,20427,12,2,1.9042391777,-0.0600661747158,0.254560559988,0.0,15.0,0.6368692902006688,-0.020089021644080267,0.0851373110327759,15.0,0.0,0.9008931981050938,1.922117548417361
1648294652064904229,20428,12,3,2.23665261269,-1.2306240797,0.612629234791,0.0,15.0,0.748044352070234,-0.4115799597658863,0.20489272066588626,15.0,0.0,1.1351382156412677,2.6253314294982038
1648294652259915686,20429,14,0,0.0126699265093,0.0439508594573,0.0102769229561,0.0,15.5,0.004237433615150501,0.014699284099431437,0.0034370979786287623,15.5,0.0,0.015873898082116214,0.04688091541589194
1648294652259918400,20430,14,1,0.033514522016,0.0146502861753,-0.0293251797557,0.0,15.5,0.011208870239464881,0.0048997612626421405,-0.009807752426655518,15.5,0.0,0.016591720963215706,0.0468809155060271
1648294652259921568,20431,14,2,1.85942924023,-0.117202289402,0.212835222483,0.0,15.5,0.6218826890401337,-0.03919809010100334,0.07118234865652173,15.5,0.0,0.8803480267048603,1.875236600536789
1648294652259928615,20432,14,3,2.2377641201,-1.2306240797,0.608556449413,0.0,15.5,0.7484160936789297,-0.4115799597658863,0.20353058508795985,15.5,0.0,1.135628179395063,2.6253313762012134
1648294652364953876,20433,15,0,0.0126882251352,0.0439508594573,0.0102543225512,0.0,14.8999996185,0.004243553556923077,0.014699284099431437,0.0034295393147826085,14.8999996185,0.0,0.01587716746201119,0.046880915467820236
1648294652364955807,20434,15,1,0.033514522016,0.0146502861753,-0.0293251797557,0.0,14.8999996185,0.011208870239464881,0.0048997612626421405,-0.009807752426655518,14.8999996185,0.0,0.016591720963215706,0.0468809155060271
1648294652364958305,20435,15,2,1.8635597229,-0.0586011447012,0.200557768345,0.0,14.8999996185,0.6232641213712374,-0.019599045050568562,0.06707617670401338,14.8999996185,0.0,0.8816464441850914,1.875236612648906
1648294652364960922,20436,15,3,2.23907828331,-1.2306240797,0.603703081608,0.0,14.8999996185,0.7488556131471571,-0.4115799597658863,0.20190738515317724,14.8999996185,0.0,1.1362075171221575,2.62533133053162
