%time,field.header.seq,field.header.frame_id,field.point_id,field.x,field.y,field.z,field.velocity,field.intensity,normalized_x,normalized_y,normalized_z,normalized_intensity,normalized_velocity,normalized_range,range
1648219886762226824,91167,0,0,0.012357913889,0.0439508594573,0.0106500769034,0.0,15.5,0.004133081568227425,0.014699284099431437,0.0035618986298996654,15.5,0.0,0.015818776170584133,0.046880915314993686
1648219886762232063,91168,0,1,0.0334016978741,0.0146502861753,-0.0294536203146,0.0,15.5,0.011171136412742476,0.0048997612626421405,-0.009850709135317725,15.5,0.0,0.016540744781753033,0.0468809135526118
1648219886762241088,91169,0,2,1.80968987942,0.171408340335,0.196281149983,0.0,15.5,0.6052474513110367,0.05732720412541805,0.06564586955953176,15.5,0.0,0.8578667512905771,1.8283557008006464
1648219886957352897,91170,2,0,0.0123448604718,0.0439508594573,0.0106652053073,0.0,19.7000007629,0.0041287158768561864,0.014699284099431437,0.003566958296755853,19.7000007629,0.0,0.01581649590204501,0.046880915427819955
1648219886957360390,91171,2,1,0.0334246940911,0.0146502861753,-0.0294275209308,0.0,19.7000007629,0.01117882745521739,0.0048997612626421405,-0.009841980244414716,19.7000007629,0.0,0.01655113370672634,0.04688091347482975
1648219886957517832,91172,2,2,1.58486223221,-0.580151319504,-0.00329499761574,0.0,19.7000007629,0.530054258264214,-0.19403054164013378,-0.0011020058915518394,19.7000007629,0.0,0.7743144609893424,1.687712862313132
1648219886957522163,91173,2,3,1.82005178928,0.171408340335,0.0302512645721,0.0,19.7000007629,0.6087129730033445,0.05732720412541805,0.01011747979,19.7000007629,0.0,0.8627568460104956,1.8283556748636027
1648219886957523689,91174,2,4,1.87396156788,0.0586011447012,-0.0366881117225,0.161837622523,19.7000007629,0.6267429992909698,0.019599045050568562,-0.012270271479096989,19.7000007629,0.021869948989594594,0.8865651114765205,1.875236536971622
1648219887062358142,91175,3,0,0.0122477002442,0.0439508594573,0.01077664271,0.0,24.1000003815,0.004096220817458194,0.014699284099431437,0.0036042283311036784,24.1000003815,0.0,0.015799588697385562,0.04688091548174064
1648219887062365411,91176,3,1,0.0334016978741,0.0146502861753,-0.0294536203146,0.0,24.1000003815,0.011171136412742476,0.0048997612626421405,-0.009850709135317725,24.1000003815,0.0,0.016540744781753033,0.0468809135526118
1648219887062368214,91177,3,2,1.59127998352,-0.650472700596,0.231363788247,-0.242756426334,24.1000003815,0.5322006633846154,-0.21754939819264213,0.07737919339364548,24.1000003815,-0.03280492247756756,0.7834556993653374,1.734593878313903
1648219887062369976,91178,3,3,1.505194664,-0.448298752308,0.272208482027,-0.161837622523,24.1000003815,0.5034095866220736,-0.14993269307959864,0.0910396260959866,24.1000003815,-0.021869948989594594,0.7275453499680381,1.5939511302240184
1648219887062372490,91179,3,4,1.82372558117,0.114272229373,-0.0620578080416,-0.0809188112617,24.1000003815,0.6099416659431437,0.03821813691404682,-0.020755119746354515,24.1000003815,-0.010934974494824324,0.8634340146740663,1.828355629892242
1648219887257363641,91180,5,0,0.012225298211,0.0439508594573,0.0108020491898,0.0,22.0,0.004088728498662207,0.014699284099431437,0.0036127254815384612,22.0,0.0,0.015795706837851316,0.04688091541429279
1648219887257365587,91181,5,1,0.0334016978741,0.0146502861753,-0.0294536203146,0.0,22.0,0.011171136412742476,0.0048997612626421405,-0.009850709135317725,22.0,0.0,0.016540744781753033,0.0468809135526118
1648219887257510643,91182,5,2,1.82283329964,0.114272229373,0.0842917785048,0.0809188112617,22.0,0.6096432440267558,0.03821813691404682,0.02819123026916388,22.0,0.010934974494824324,0.8630123961821835,1.8283556778170456
1648219887257514199,91183,5,3,1.59475898743,-0.527410268784,0.164186775684,0.161837622523,22.0,0.5333642098428094,-0.17639139424214045,0.05491196511170568,22.0,0.021869948989594594,0.774641003720546,1.6877129841643923
1648219887362310638,91184,6,0,0.0122477002442,0.0439508594573,0.01077664271,0.0,33.9000015259,0.004096220817458194,0.014699284099431437,0.0036042283311036784,33.9000015259,0.0,0.015799588697385562,0.04688091548174064
1648219887362324509,91185,6,1,0.0334246940911,0.0146502861753,-0.0294275209308,0.0,33.9000015259,0.01117882745521739,0.0048997612626421405,-0.009841980244414716,33.9000015259,0.0,0.01655113370672634,0.04688091347482975
1648219887362326491,91186,6,2,1.81028711796,0.171408340335,0.190693929791,0.0,33.9000015259,0.6054471966421404,0.05732720412541805,0.0637772340438127,33.9000015259,0.0,0.8581486026187368,1.8283556665614755
1648219887362331560,91187,6,3,1.56139910221,-0.580151319504,0.271721065044,0.0809188112617,33.9000015259,0.5222070575953177,-0.19403054164013378,0.09087661038260869,33.9000015259,0.010934974494824324,0.7635759772896752,1.6877129634784085
1648219887362339322,91188,6,4,0.651507735252,-0.0,-1.55689191818,0.0809188112617,33.9000015259,0.21789556362943144,-0.0,-0.5206996381872909,33.9000015259,0.010934974494824324,0.30815086126567165,1.6877128825684153
1648219887362341020,91189,6,5,1.85818767548,0.480529397726,0.103758960962,0.242756426334,33.9000015259,0.6214674499933109,0.16071217315250835,0.034701993632775915,33.9000015259,0.03280492247756756,0.8934606792700945,1.9221175461882116
1648219887557404862,91190,8,0,0.00569708272815,0.0454158857465,0.010137100704,0.0,16.5,0.0019053788388461539,0.015189259446989964,0.00339033468361204,16.5,0.0,0.015426423421746835,0.046880915524694734
1648219887557410730,91191,8,1,0.0334016978741,0.0146502861753,-0.0294536203146,0.0,16.5,0.011171136412742476,0.0048997612626421405,-0.009850709135317725,16.5,0.0,0.016540744781753033,0.0468809135526118
1648219887557412474,91192,8,2,1.8195066452,0.171408340335,-0.0538446232677,-0.0809188112617,16.5,0.6085306505685618,0.05732720412541805,-0.01800823520658863,16.5,-0.010934974494824324,0.8624995731567822,1.828355680527779
1648219887662297218,91193,9,0,0.00569708272815,0.0454158857465,0.010137100704,0.0,23.2999992371,0.0019053788388461539,0.015189259446989964,0.00339033468361204,23.2999992371,0.0,0.015426423421746835,0.046880915524694734
1648219887662303957,91194,9,1,0.0334016978741,0.0146502861753,-0.0294536203146,0.0,23.2999992371,0.011171136412742476,0.0048997612626421405,-0.009850709135317725,23.2999992371,0.0,0.016540744781753033,0.0468809135526118
1648219887662306059,91195,9,2,1.90077471733,-0.0600661747158,0.279255539179,0.404594063759,23.2999992371,0.6357106078026755,-0.020089021644080267,0.09339650139765884,23.2999992371,0.05467487348094594,0.8992549819357748,1.9221176154304618
1648219887662310448,91196,9,3,1.84957289696,-0.117202289402,0.28610470891,0.485512852669,23.2999992371,0.6185862531638796,-0.03919809010100334,0.09568719361538461,23.2999992371,0.06560984495527027,0.8756908104315251,1.8752365670150934
1648219887662323451,91197,9,4,1.813829422,0.171408340335,-0.153383404016,-0.161837622523,23.2999992371,0.6066319137123746,0.05732720412541805,-0.05129879732976589,23.2999992371,-0.021869948989594594,0.8598203101820246,1.8283556710544009
1648219887662381452,91198,9,5,1.62324166298,-0.421928226948,-0.188249707222,-0.0809188112617,23.2999992371,0.5428901882876254,-0.14111311938060198,-0.06295976830167223,23.2999992371,-0.010934974494824324,0.7806231008234836,1.6877129132049467
1648219887662383629,91199,9,6,0.622245848179,0.158223092556,1.56081724167,-0.0809188112617,23.2999992371,0.20810897932408023,0.05291742225953177,0.5220124554080267,23.2999992371,-0.010934974494824324,0.2990300120877744,1.6877129212304842
1648219887857332202,91200,11,0,0.00569708272815,0.0454158857465,0.010137100704,0.0,17.3999996185,0.0019053788388461539,0.015189259446989964,0.00339033468361204,17.3999996185,0.0,0.015426423421746835,0.046880915524694734
1648219887857340636,91201,11,1,0.0334016978741,0.0146502861753,-0.0294536203146,0.0,17.3999996185,0.011171136412742476,0.0048997612626421405,-0.009850709135317725,17.3999996185,0.0,0.016540744781753033,0.0468809135526118
1648219887857350612,91202,11,2,1.61923384666,-0.474669247866,0.0338464379311,0.0,17.3999996185,0.5415497814916388,-0.15875225681137123,0.011319878906722407,17.3999996185,0.0,0.7821474354045962,1.6877128684701193
1648219887857429258,91203,11,3,1.81923007965,0.171408340335,-0.0624962821603,0.0,17.3999996185,0.6084381537290969,0.05732720412541805,-0.020901766608795985,17.3999996185,0.0,0.8623690521808988,1.8283557331995337
1648219887857431604,91204,11,4,1.88509571552,0.0600661747158,0.370596647263,0.0809188112617,17.3999996185,0.6304667944882943,0.020089021644080267,0.12394536697759197,17.3999996185,0.010934974494824324,0.8918409761248396,1.9221174982241398
1648219887857520848,91205,11,5,1.81622827053,0.351606875658,0.306920200586,-0.242756426334,17.3999996185,0.6074342041906354,0.11759427279531771,0.10264889651705685,17.3999996185,-0.03280492247756756,0.8670530767119626,1.8752366611204372
1648219887962362290,91206,12,0,0.012357913889,0.0439508594573,0.0106500769034,0.0,32.2999992371,0.004133081568227425,0.014699284099431437,0.0035618986298996654,32.2999992371,0.0,0.015818776170584133,0.046880915314993686
1648219887962373068,91207,12,1,0.0334016978741,0.0146502861753,-0.0294536203146,0.0,32.2999992371,0.011171136412742476,0.0048997612626421405,-0.009850709135317725,32.2999992371,0.0,0.016540744781753033,0.0468809135526118
1648219887962465350,91208,12,2,1.66453385353,-0.487854540348,-0.0118718761951,0.0,32.2999992371,0.5567002854615385,-0.16316205362809363,-0.003970527155551839,32.2999992371,0.0,0.8040225565306323,1.7345938843227777
1648219887962467479,91209,12,3,2.14353561401,-1.14272224903,0.205783754587,0.0,32.2999992371,0.7169015431471571,-0.3821813541906354,0.0688239981896321,32.2999992371,0.0,1.083493531417949,2.437807625841164
1648219887962541756,91210,12,4,1.7808161974,0.114272229373,-0.398145675659,0.0809188112617,32.2999992371,0.5955907014715719,0.03821813691404682,-0.13315908884916386,32.2999992371,0.010934974494824324,0.8431590557824656,1.8283556684556845
1648219887962544600,91211,12,5,1.64183998108,-0.36918720603,-0.128207787871,0.242756426334,32.2999992371,0.5491103615652173,-0.12347398194983276,-0.04287885881973244,32.2999992371,0.03280492247756756,0.7863143153822871,1.6877129357327887
1648219887962545728,91212,12,6,1.95928645134,0.061531201005,0.185378178954,0.242756426334,32.2999992371,0.65527974961204,0.020578996991638794,0.061999390954515045,32.2999992371,0.03280492247756756,0.9269339758690571,1.968998363720475
1648219888157334442,91213,14,0,0.00569708272815,0.0454158857465,0.010137100704,0.0,21.8999996185,0.0019053788388461539,0.015189259446989964,0.00339033468361204,21.8999996185,0.0,0.015426423421746835,0.046880915524694734
1648219888157336331,91214,14,1,0.0334246940911,0.0146502861753,-0.0294275209308,0.0,21.8999996185,0.01117882745521739,0.0048997612626421405,-0.009841980244414716,21.8999996185,0.0,0.01655113370672634,0.04688091347482975
1648219888157481444,91215,14,2,2.09881305695,-1.21890377998,0.228393420577,0.0,21.8999996185,0.7019441662040133,-0.407660127083612,0.076385759390301,21.8999996185,0.0,1.0731439810899197,2.4378076682618337
1648219888157493063,91216,14,3,1.63389050961,-0.421928226948,-0.0274480078369,-0.0809188112617,21.8999996185,0.5464516754548495,-0.14111311938060198,-0.009179935731404682,21.8999996185,-0.010934974494824324,0.7855773543554756,1.6877129552217471
1648219888157528182,91217,14,4,1.86540293694,0.175803437829,-0.0766648203135,-0.0809188112617,21.8999996185,0.6238805809163879,0.05879713639765886,-0.025640408131605348,21.8999996185,-0.010934974494824324,0.8842573504007213,1.8752366412190686
1648219888262335029,91218,15,0,0.0122609948739,0.0439508594573,0.0107615143061,0.0,19.2000007629,0.004100667181906354,0.014699284099431437,0.003599168664247491,19.2000007629,0.0,0.01580189532016098,0.046880915440011765
1648219888262336938,91219,15,1,0.0334016978741,0.0146502861753,-0.0294536203146,0.0,19.2000007629,0.011171136412742476,0.0048997612626421405,-0.009850709135317725,19.2000007629,0.0,0.016540744781753033,0.0468809135526118
1648219888262338701,91220,15,2,1.63352072239,-0.421928226948,0.0442921891809,0.0,19.2000007629,0.5463280007993311,-0.14111311938060198,0.014813441197625416,19.2000007629,0.0,0.7854052975223123,1.6877130020224016
1648219888262342444,91221,15,3,1.86625170708,0.175803437829,0.0520553700626,0.0,19.2000007629,0.6241644505284281,0.05879713639765886,0.01740982276341137,19.2000007629,0.0,0.8846579145949433,1.8752365302766112
1648219888262346031,91222,15,4,1.7104613781,0.271030306816,0.0983896404505,0.323675245047,19.2000007629,0.5720606615719063,0.09064558756387958,0.032906234264381266,19.2000007629,0.04373989797932432,0.8140782662502268,1.7345939220845048
