%time,field.header.seq,field.header.frame_id,field.point_id,field.x,field.y,field.z,field.velocity,field.intensity,normalized_x,normalized_y,normalized_z,normalized_intensity,normalized_velocity,normalized_range,range
1648125819889079987,39972,0,0,0.0125787733123,0.0439508594573,0.0103882942349,0.0,11.6999998093,0.004206947596086956,0.014699284099431437,0.003474345897959866,11.6999998093,0.0,0.01585767224999437,0.04688091554341088
1648125819889085560,39973,0,1,0.0328498929739,0.0146502861753,-0.030067820102,0.0,11.6999998093,0.01098658627889632,0.0048997612626421405,-0.010056127124414714,11.6999998093,0.0,0.01629164867526164,0.04688091465725798
1648125819889091274,39974,0,2,1.19192266464,-0.0,0.255042672157,0.0,11.6999998093,0.3986363426889632,-0.0,0.08529855256086956,11.6999998093,0.0,0.5637569222855405,1.2189037710596768
1648125819889117037,39975,0,3,1.88385593891,-1.31852579117,0.455113142729,0.0,11.6999998093,0.6300521534816054,-0.44097852547491634,0.1522117534210702,11.6999998093,0.0,0.994179808758782,2.344045953737174
1648125819889141118,39976,0,4,2.3914372921,-0.984499275684,0.451833963394,0.0,11.6999998093,0.7998118033779263,-0.32926397180066885,0.15111503792441472,11.6999998093,0.0,1.1780545848012531,2.625331422191345
1648125819994007725,39977,1,0,0.0126723647118,0.0439508594573,0.0102739166468,0.0,12.3999996185,0.0042382490674916385,0.014699284099431437,0.003436092524013378,12.3999996185,0.0,0.015874333477408915,0.04688091549542953
1648125819994092465,39978,1,1,0.032885145396,0.0146502861753,-0.0300292614847,0.0,12.3999996185,0.010998376386622074,0.0048997612626421405,-0.010043231265785952,12.3999996185,0.0,0.016307551217595504,0.04688091528597467
1648125819994094651,39979,1,2,1.17864525318,-0.076181486249,0.301194608212,0.0,12.3999996185,0.3941957368494983,-0.02547875794280936,0.10073398267959865,12.3999996185,0.0,0.5580588902678159,1.2189037877153526
1648125819994108400,39980,1,3,1.35804629326,-0.0424858294427,0.0476655848324,0.0,12.3999996185,0.4541960847023411,-0.01420930750591973,0.015941667168026755,12.3999996185,0.0,0.6424874093222918,1.3595465377537008
1648125819994111467,39981,1,4,2.39478087425,-0.984499275684,0.433763027191,0.0,12.3999996185,0.8009300582775919,-0.32926397180066885,0.1450712465521739,12.3999996185,0.0,1.1795730921104657,2.6253313358991117
1648125820189030717,39982,3,0,0.0126775633544,0.0439508594573,0.0102675007656,0.0,12.1000003815,0.004239987743946488,0.014699284099431437,0.0034339467443478262,12.1000003815,0.0,0.01587526205054363,0.04688091543060736
1648125820189187808,39983,3,1,0.0329373031855,0.0146502861753,-0.0299720410258,0.0,12.1000003815,0.011015820463377925,0.0048997612626421405,-0.010024093988561873,12.1000003815,0.0,0.016331082676713148,0.04688091370060926
1648125820189192468,39984,3,2,1.23068642616,-0.118667319417,0.271182507277,0.0,12.1000003815,0.4116008114247491,-0.039688066694648826,0.09069649072809363,12.1000003815,0.0,0.5834428837246904,1.2657847228044465
1648125820189195290,39985,3,3,1.35717856884,0.0424858294427,0.0680295601487,0.0,12.1000003815,0.4539058758662207,0.01420930750591973,0.022752361253745818,12.1000003815,0.0,0.642077092498681,1.3595465179522364
1648125820189201117,39986,3,4,2.38742113113,-0.984499275684,0.472595363855,0.0,12.1000003815,0.798468605729097,-0.32926397180066885,0.15805865011872908,12.1000003815,0.0,1.1762308412024773,2.625331380821402
1648125820294090381,39987,4,0,0.0126571767032,0.0439508594573,0.0102926222607,0.0,12.8999996185,0.004233169465953177,0.014699284099431437,0.0034423485821739124,12.8999996185,0.0,0.015871622490809013,0.046880915542817876
1648125820294102260,39988,4,1,0.0329373031855,0.0146502861753,-0.0299720410258,0.0,12.8999996185,0.011015820463377925,0.0048997612626421405,-0.010024093988561873,12.8999996185,0.0,0.016331082676713148,0.04688091370060926
1648125820294105486,39989,4,2,1.23450243473,-0.079111546278,0.268246501684,0.0,12.8999996185,0.41287706847157185,-0.026458711129765885,0.08971454905819397,12.8999996185,0.0,0.5844955181470655,1.2657847699251632
1648125820294108196,39990,4,3,2.39088773727,-0.984499275684,0.454732686281,0.0,12.8999996185,0.7996280057759196,-0.32926397180066885,0.1520845104618729,12.8999996185,0.0,1.1778050171264767,2.625331371850555
1648125820489121783,39991,6,0,0.0126674417406,0.0439508594573,0.0102799860761,0.0,12.5,0.004236602588829431,0.014699284099431437,0.0034381224334782603,12.5,0.0,0.015873454445304285,0.04688091553086012
1648125820489132521,39992,6,1,0.0329244062304,0.0146502861753,-0.0299862083048,0.0,12.5,0.011011507100468228,0.0048997612626421405,-0.010028832208963211,12.5,0.0,0.016325263785869217,0.046880914017768956
1648125820489143645,39993,6,2,1.16556346416,-0.0380907431245,0.354594826698,0.0,12.5,0.3898205565752508,-0.01273937897140468,0.11859358752441472,12.5,0.0,0.5514366912292413,1.21890384559957
1648125820489261527,39994,6,3,2.39220285416,-0.984499275684,0.447763025761,0.0,12.5,0.8000678442006688,-0.32926397180066885,0.14975352032140468,12.5,0.0,1.178402254654056,2.6253314165095833
1648125820594124670,39995,7,0,0.0126571767032,0.0439508594573,0.0102926222607,0.0,11.8000001907,0.004233169465953177,0.014699284099431437,0.0034423485821739124,11.8000001907,0.0,0.015871622490809013,0.046880915542817876
1648125820594129346,39996,7,1,0.0329129882157,0.0146502861753,-0.029998742044,0.0,11.8000001907,0.011007688366454847,0.0048997612626421405,-0.010033024094983276,11.8000001907,0.0,0.01632011233959066,0.046880915120413834
1648125820594147044,39997,7,2,1.18837881088,-0.114272229373,0.245812758803,0.0,11.8000001907,0.3974511073177257,-0.03821813691404682,0.08221162501772575,11.8000001907,0.0,0.5633785507146625,1.218903709463869
1648125820594198795,39998,7,3,1.30847799778,-0.0,0.104769520462,0.0,11.8000001907,0.437618059458194,-0.0,0.0350399733986622,11.8000001907,0.0,0.6188853948251735,1.3126657316667467
1648125820594317102,39999,7,4,2.39395427704,-0.984499275684,0.438302904367,0.0,11.8000001907,0.800653604361204,-0.32926397180066885,0.14658960012274247,11.8000001907,0.0,1.1791976727754878,2.625331472472948
1648125820789106041,40000,9,0,0.0126775633544,0.0439508594573,0.0102675007656,0.0,12.1000003815,0.004239987743946488,0.014699284099431437,0.0034339467443478262,12.1000003815,0.0,0.01587526205054363,0.04688091543060736
1648125820789115925,40001,9,1,0.0328369177878,0.0146502861753,-0.0300819892436,0.0,12.1000003815,0.010982246751772574,0.0048997612626421405,-0.010060865967759198,12.1000003815,0.0,0.016285795892879384,0.046880914364728306
1648125820789124403,40002,9,2,1.24957847595,-0.079111546278,0.185758084059,0.0,12.1000003815,0.41791922272575244,-0.026458711129765885,0.06212644951806019,12.1000003815,0.0,0.5916189794471122,1.2657847645256641
1648125820789208780,40003,9,3,1.27663648129,0.149432912469,0.942628979683,0.0,12.1000003815,0.42696872283946485,0.04997756269866221,0.3152605283220735,12.1000003815,0.0,0.6058897072402091,1.5939511579805994
1648125820789215027,40004,9,4,1.26306068897,-0.448298752308,0.862778067589,0.0,12.1000003815,0.42242832407023406,-0.14993269307959864,0.2885545376551839,12.1000003815,0.0,0.6159311571983305,1.593951087472539
1648125820789218583,40005,9,5,2.39470624924,-0.984499275684,0.434175699949,0.0,12.1000003815,0.8009051000802675,-0.32926397180066885,0.14520926419698996,12.1000003815,0.0,1.1795391989226633,2.625331480479681
1648125820894158352,40006,10,0,0.0125994505361,0.0439508594573,0.0103632062674,0.0,12.0,0.004213863055551839,0.014699284099431437,0.003465955273377926,12.0,0.0,0.01586134410249293,0.04688091557326548
1648125820894161343,40007,10,1,0.0329244062304,0.0146502861753,-0.0299862083048,0.0,12.0,0.011011507100468228,0.0048997612626421405,-0.010028832208963211,12.0,0.0,0.016325263785869217,0.046880914017768956
1648125820894165741,40008,10,2,1.30691945553,0.0410208031535,0.115629412234,0.0,12.0,0.43709680786956523,0.013719332158361203,0.038672044225418055,12.0,0.0,0.6183004601117474,1.312665734491371
1648125820894188657,40009,10,3,1.37693929672,0.199243888259,0.777830541134,0.0,12.0,0.46051481495652175,0.06663675192608695,0.26014399369030095,12.0,0.0,0.6546665153313844,1.593951161291068
1648125820894193288,40010,10,4,2.39270329475,-0.984499275684,0.445081740618,0.0,12.0,0.8002352156354514,-0.32926397180066885,0.14885676943745818,12.0,0.0,1.1786295278042995,2.6253315288476187
1648125821089032243,40011,12,0,0.0126571767032,0.0439508594573,0.0102926222607,0.0,12.3000001907,0.004233169465953177,0.014699284099431437,0.0034423485821739124,12.3000001907,0.0,0.015871622490809013,0.046880915542817876
1648125821089037849,40012,12,1,0.0329244062304,0.0146502861753,-0.0299862083048,0.0,12.3000001907,0.011011507100468228,0.0048997612626421405,-0.010028832208963211,12.3000001907,0.0,0.016325263785869217,0.046880914017768956
1648125821089040941,40013,12,2,1.18643307686,-0.076181486249,0.268885374069,0.0,12.3000001907,0.3968003601538461,-0.02547875794280936,0.0899282187521739,12.3000001907,0.0,0.5617385679680115,1.2189037735206252
1648125821089044156,40014,12,3,1.25341820717,0.193383783102,0.885986447334,0.0,12.3000001907,0.4192034137692307,0.06467685053578595,0.2963165375698996,12.3000001907,0.0,0.5963607123434458,1.547070287508496
1648125821089146531,40015,12,4,2.39603352547,-0.984499275684,0.426789671183,0.0,12.3000001907,0.801349005173913,-0.32926397180066885,0.1427390204625418,12.3000001907,0.0,1.1801420335334183,2.625331389068247
1648125821194005595,40016,13,0,0.0126674417406,0.0439508594573,0.0102799860761,0.0,12.0,0.004236602588829431,0.014699284099431437,0.0034381224334782603,12.0,0.0,0.015873454445304285,0.04688091553086012
1648125821194031222,40017,13,1,0.0329244062304,0.0146502861753,-0.0299862083048,0.0,12.0,0.011011507100468228,0.0048997612626421405,-0.010028832208963211,12.0,0.0,0.016325263785869217,0.046880914017768956
1648125821194043721,40018,13,2,1.23593986034,-0.039555773139,0.270368605852,0.0,12.0,0.4133578128227425,-0.013229355564882942,0.09042428289364549,12.0,0.0,0.5847259004797589,1.265784808170898
1648125821194048918,40019,13,3,1.42057585716,0.241729736328,0.562989771366,0.0,12.0,0.47510898232775917,0.08084606566153846,0.18829089343344482,12.0,0.0,0.6767519312938736,1.5470703002881976
1648125821194128711,40020,13,4,1.35004425049,-0.580151319504,0.483974546194,0.0,12.0,0.4515198162173913,-0.19403054164013378,0.16186439672040132,12.0,0.0,0.6673740629985085,1.5470702612250764
1648125821194143875,40021,13,5,2.39208555222,-0.984499275684,0.448389708996,0.0,12.0,0.8000286127826087,-0.32926397180066885,0.14996311337658863,12.0,0.0,1.1783489829705298,2.625331492230172
1648125821389133944,40022,15,0,0.0125683275983,0.0439508594573,0.0104009294882,0.0,12.1000003815,0.004203454046254181,0.014699284099431437,0.003478571735183946,12.1000003815,0.0,0.01585581927475648,0.046880915518705844
1648125821389147158,40023,15,1,0.0328369177878,0.0146502861753,-0.0300819892436,0.0,12.1000003815,0.010982246751772574,0.0048997612626421405,-0.010060865967759198,12.1000003815,0.0,0.016285795892879384,0.046880914364728306
1648125821389152211,40024,15,2,1.35690402985,-0.0,0.0847251787782,0.0,12.1000003815,0.45381405680602,-0.0,0.028336180193377924,12.1000003815,0.0,0.6417899939306276,1.3595465796147506
1648125821389225330,40025,15,3,1.33383440971,-0.338421612978,0.706953406334,0.0,12.1000003815,0.4460984647859531,-0.11318448594581938,0.23643926633244144,12.1000003815,0.0,0.6409511747610639,1.5470703084812598
1648125821389227833,40026,15,4,1.46878492832,0.241729736328,-0.421501934528,0.0,12.1000003815,0.49123241749832774,0.08084606566153846,-0.14097054666488293,12.1000003815,0.0,0.6993959267363891,1.5470702349589815
1648125821389230800,40027,15,5,2.39063715935,-0.984499275684,0.456048518419,0.0,12.1000003815,0.799544200451505,-0.32926397180066885,0.1525245881,12.1000003815,0.0,1.1776912244205713,2.6253314271991495
1648125821494222068,40028,16,0,0.0126038333401,0.0439508594573,0.0103578744456,0.0,12.1000003815,0.004215328876287625,0.014699284099431437,0.003464172055384615,12.1000003815,0.0,0.01586212306427883,0.04688091535935669
1648125821494254884,40029,16,1,0.0329244062304,0.0146502861753,-0.0299862083048,0.0,12.1000003815,0.011011507100468228,0.0048997612626421405,-0.010028832208963211,12.1000003815,0.0,0.016325263785869217,0.046880914017768956
1648125821494258401,40030,16,2,1.24655532837,-0.079111546278,0.205066278577,0.0,12.1000003815,0.41690813657859527,-0.026458711129765885,0.06858403965785953,12.1000003815,0.0,0.5901905218533433,1.2657847376436304
1648125821494401331,40031,16,3,1.8529804945,-1.31852579117,0.567894697189,0.0,12.1000003815,0.6197259178929765,-0.44097852547491634,0.18993133685250835,12.1000003815,0.0,0.9811128816535923,2.3440459385586547
1648125821494404821,40032,16,4,2.3930811882,-0.984499275684,0.443045139313,0.0,12.1000003815,0.8003616014046823,-0.32926397180066885,0.14817563187725752,12.1000003815,0.0,1.178801149105347,2.6253314824242517
1648125821494407577,40033,16,5,1.4573854208,-0.338421612978,0.393604934216,-0.0809188112617,12.1000003815,0.48741987317725755,-0.11318448594581938,0.13164044622608695,12.1000003815,-0.010934974494824324,0.6985463430546945,1.5470702301867896
1648125821494413698,40034,16,6,0.527022659779,0.193383783102,1.44162273407,-0.0809188112617,12.1000003815,0.17626175912341135,0.06467685053578595,0.4821480715953177,12.1000003815,-0.010934974494824324,0.25752574716673937,1.5470702242868082
1648125821689318733,40035,18,0,0.0125787733123,0.0439508594573,0.0103882942349,0.0,14.5,0.004206947596086956,0.014699284099431437,0.003474345897959866,14.5,0.0,0.01585767224999437,0.04688091554341088
1648125821689322888,40036,18,1,0.0329129882157,0.0146502861753,-0.029998742044,0.0,14.5,0.011007688366454847,0.0048997612626421405,-0.010033024094983276,14.5,0.0,0.01632011233959066,0.046880915120413834
1648125821689328084,40037,18,2,1.18712115288,-0.114272229373,0.251816660166,0.0,14.5,0.39703048591304346,-0.03821813691404682,0.08421961878461538,14.5,0.0,0.5627850739650756,1.2189037715743498
1648125821689432585,40038,18,3,1.35886251926,0.0424858294427,0.00738557288423,0.0,14.5,0.454469069986622,0.01420930750591973,0.0024700912656287623,14.5,0.0,0.6428733744438387,1.3595465930375081
1648125821689436775,40039,18,4,1.48786151409,0.193383783102,0.377222955227,0.0,14.5,0.4976125465183946,0.06467685053578595,0.12616152348729096,14.5,0.0,0.706696248681335,1.5470702410127408
1648125821689441378,40040,18,5,1.27503979206,-0.483459472656,0.730730235577,0.0,14.5,0.42643471306354513,-0.16169213132307692,0.24439138313612038,14.5,0.0,0.6243696616131947,1.547070202099324
1648125821689445409,40041,18,6,2.39474987984,-0.984499275684,0.433934599161,0.0,14.5,0.8009196922541806,-0.32926397180066885,0.1451286284819398,14.5,0.0,1.1795590150590238,2.6253314166339137
1648125821794157931,40042,19,0,0.0126674417406,0.0439508594573,0.0102799860761,0.0,12.1000003815,0.004236602588829431,0.014699284099431437,0.0034381224334782603,12.1000003815,0.0,0.015873454445304285,0.04688091553086012
1648125821794167485,40043,19,1,0.0329373031855,0.0146502861753,-0.0299720410258,0.0,12.1000003815,0.011015820463377925,0.0048997612626421405,-0.010024093988561873,12.1000003815,0.0,0.016331082676713148,0.04688091370060926
1648125821794172899,40044,19,2,1.23899579048,-0.079111546278,0.246660992503,0.0,12.1000003815,0.41437986303678925,-0.026458711129765885,0.08249531521839465,12.1000003815,0.0,0.5866186198676486,1.2657846778991366
1648125821794178552,40045,19,3,2.39047312737,-0.984499275684,0.456907361746,0.0,12.1000003815,0.799489340257525,-0.32926397180066885,0.152811826670903,12.1000003815,0.0,1.177616734551941,2.6253313950277057
1648125821794183670,40046,19,4,1.28943109512,-0.562570989132,0.521007835865,-0.0809188112617,12.1000003815,0.4312478578996656,-0.1881508324856187,0.1742501123294314,12.1000003815,-0.010934974494824324,0.6382398966306726,1.5001892653622242
1648125821989046903,40047,21,0,0.0125787733123,0.0439508594573,0.0103882942349,0.0,19.5,0.004206947596086956,0.014699284099431437,0.003474345897959866,19.5,0.0,0.01585767224999437,0.04688091554341088
1648125821989238321,40048,21,1,0.0329244062304,0.0146502861753,-0.0299862083048,0.0,19.5,0.011011507100468228,0.0048997612626421405,-0.010028832208963211,19.5,0.0,0.016325263785869217,0.046880914017768956
1648125821989241690,40049,21,2,1.18982720375,-0.0380907431245,0.2618907094,0.0,19.5,0.3979355196488294,-0.01273937897140468,0.08758886602006688,19.5,0.0,0.56290998158937,1.2189037792891428
1648125821989243645,40050,21,3,1.35610818863,-0.0,0.0966309458017,0.0,19.5,0.453547889173913,-0.0,0.03231804207414715,19.5,0.0,0.6414135760554371,1.3595466005091075
1648125821989296421,40051,21,4,2.41748452187,-0.902457654476,0.483429640532,0.0,19.5,0.8085232514615385,-0.30182530250033446,0.16168215402408026,19.5,0.0,1.1825896200869068,2.625331493154387
1648125821989297656,40052,21,5,1.29926776886,-0.562570989132,0.495968639851,-0.0809188112617,19.5,0.4345377153377926,-0.1881508324856187,0.16587579928127089,19.5,-0.010934974494824324,0.6426871617412381,1.5001892363055571
1648125821989298701,40053,21,6,1.34203314781,0.046880915761,-0.668817818165,-0.0809188112617,19.5,0.44884051766220734,0.015679236040468225,-0.22368488901839462,19.5,-0.010934974494824324,0.6349499657716104,1.5001893427092456
1648125822093983832,40054,22,0,0.0125994505361,0.0439508594573,0.0103632062674,0.0,19.8999996185,0.004213863055551839,0.014699284099431437,0.003465955273377926,19.8999996185,0.0,0.01586134410249293,0.04688091557326548
1648125822093993157,40055,22,1,0.0328369177878,0.0146502861753,-0.0300819892436,0.0,19.8999996185,0.010982246751772574,0.0048997612626421405,-0.010060865967759198,19.8999996185,0.0,0.016285795892879384,0.046880914364728306
1648125822093999265,40056,22,2,1.17664217949,-0.114272229373,0.296953439713,0.0,19.8999996185,0.3935258125384615,-0.03821813691404682,0.09931553167658862,19.8999996185,0.0,0.5578402605202438,1.2189037313579096
1648125822094009354,40057,22,3,2.42186021805,-0.902457654476,0.461007535458,0.0,19.8999996185,0.809986695,-0.30182530250033446,0.15418312222675584,19.8999996185,0.0,1.1845908177018192,2.625331347019758
1648125822094012759,40058,22,4,1.45735156536,0.187523663044,0.302537679672,-0.0809188112617,19.8999996185,0.48740855028762536,0.0627169441618729,0.10118317045886287,19.8999996185,-0.010934974494824324,0.6921470977125981,1.500189240356029
1648125822094017049,40059,22,5,1.36322367191,-0.46880915761,0.415219426155,-0.0809188112617,19.8999996185,0.4559276494682274,-0.15679236040468228,0.13886937329598661,19.8999996185,-0.010934974494824324,0.6635690524583839,1.5001893139771623
1648125822288998794,40060,24,0,0.0126877604052,0.0439508594573,0.0102548981085,0.0,22.7000007629,0.004243398128829431,0.014699284099431437,0.003429731808862876,22.7000007629,0.0,0.015877084379548535,0.04688091558780411
1648125822289006111,40061,24,1,0.0328369177878,0.0146502861753,-0.0300819892436,0.0,22.7000007629,0.010982246751772574,0.0048997612626421405,-0.010060865967759198,22.7000007629,0.0,0.016285795892879384,0.046880914364728306
1648125822289016869,40062,24,2,1.18913841248,-0.076181486249,0.256656825542,0.0,22.7000007629,0.39770515467558526,-0.02547875794280936,0.08583840319130434,22.7000007629,0.0,0.5630168267621942,1.2189038144906503
1648125822289043125,40063,24,3,1.35933661461,-0.0,0.0238910522312,0.0,22.7000007629,0.45462763030434783,-0.0,0.007990318471973243,22.7000007629,0.0,0.6429405606059502,1.3595465472708501
1648125822289147245,40064,24,4,1.41441059113,0.093761831522,0.491140782833,-0.0809188112617,22.7000007629,0.473047020444816,0.03135847208093645,0.16426113138227424,22.7000007629,-0.010934974494824324,0.6697240632340212,1.5001892780289052
1648125822394069956,40065,25,0,0.0126571767032,0.0439508594573,0.0102926222607,0.0,20.7999992371,0.004233169465953177,0.014699284099431437,0.0034423485821739124,20.7999992371,0.0,0.015871622490809013,0.046880915542817876
1648125822394074677,40066,25,1,0.0329244062304,0.0146502861753,-0.0299862083048,0.0,20.7999992371,0.011011507100468228,0.0048997612626421405,-0.010028832208963211,20.7999992371,0.0,0.016325263785869217,0.046880914017768956
1648125822394084673,40067,25,2,1.18776798248,-0.0380907431245,0.271077007055,0.0,20.7999992371,0.3972468168829431,-0.01273937897140468,0.09066120637290968,20.7999992371,0.0,0.5619362586840594,1.2189037815472896
1648125822394089307,40068,25,3,1.35802876949,-0.0,-0.0642238929868,0.0,20.7999992371,0.45419022390969893,-0.0,-0.021479562871839462,20.7999992371,0.0,0.642321974550369,1.3595465594060776
1648125822394095469,40069,25,4,1.36571478844,-0.281285494566,0.553416073322,-0.0809188112617,20.7999992371,0.45676079880936454,-0.09407541624280935,0.18508898773311036,20.7999992371,-0.010934974494824324,0.6527718120439909,1.5001892424051355
1648125822589126260,40070,27,0,0.0125787733123,0.0439508594573,0.0103882942349,0.0,23.0,0.004206947596086956,0.014699284099431437,0.003474345897959866,23.0,0.0,0.01585767224999437,0.04688091554341088
1648125822589172176,40071,27,1,0.0328369177878,0.0146502861753,-0.0300819892436,0.0,23.0,0.010982246751772574,0.0048997612626421405,-0.010060865967759198,23.0,0.0,0.016285795892879384,0.046880914364728306
1648125822589180153,40072,27,2,1.19024765491,-0.0380907431245,0.259973526001,0.0,23.0,0.39807613876588627,-0.01273937897140468,0.08694766755886287,23.0,0.0,0.5631087961363163,1.2189038596017012
1648125822589201102,40073,27,3,1.34947693348,0.0849716588855,0.141628727317,0.0,23.0,0.4513300780869565,0.028418615011872907,0.047367467330100325,23.0,0.0,0.6389094587272516,1.3595465689742927
1648125822589212425,40074,27,4,1.36077058315,-0.328166425228,0.539609074593,0.0809188112617,23.0,0.45510721844481605,-0.10975465726688963,0.18047126240568562,23.0,0.010934974494824324,0.6529098294197503,1.5001892333957172
1648125822694064985,40075,28,0,0.0126674417406,0.0439508594573,0.0102799860761,0.0,16.2999992371,0.004236602588829431,0.014699284099431437,0.0034381224334782603,16.2999992371,0.0,0.015873454445304285,0.04688091553086012
1648125822694088000,40076,28,1,0.0329244062304,0.0146502861753,-0.0299862083048,0.0,16.2999992371,0.011011507100468228,0.0048997612626421405,-0.010028832208963211,16.2999992371,0.0,0.016325263785869217,0.046880914017768956
1648125822694097252,40077,28,2,1.24774301052,-0.118667319417,0.176823467016,0.0,16.2999992371,0.4173053546889632,-0.039688066694648826,0.059138283282943134,16.2999992371,0.0,0.591491894062904,1.2657847729715694
1648125822694102071,40078,28,3,2.42706227303,-0.902457654476,0.43278670311,0.0,16.2999992371,0.8117265127190636,-0.30182530250033446,0.1447447167591973,16.2999992371,0.0,1.1869702507356799,2.625331488722271
1648125822888942090,40079,30,0,0.0126674417406,0.0439508594573,0.0102799860761,0.0,11.5,0.004236602588829431,0.014699284099431437,0.0034381224334782603,11.5,0.0,0.015873454445304285,0.04688091553086012
1648125822888945231,40080,30,1,0.032885145396,0.0146502861753,-0.0300292614847,0.0,11.5,0.010998376386622074,0.0048997612626421405,-0.010043231265785952,11.5,0.0,0.016307551217595504,0.04688091528597467
1648125822888948138,40081,30,2,1.23542773724,-0.079111546278,0.263951987028,0.0,11.5,0.4131865341939799,-0.026458711129765885,0.08827825653110367,11.5,0.0,0.5849327204671613,1.2657847297832565
1648125822889041914,40082,30,3,1.84729003906,-1.31852579117,0.586140453815,0.0,11.5,0.6178227555384614,-0.44097852547491634,0.19603359659364547,11.5,0.0,0.9787093411489983,2.3440459428068436
1648125822889048123,40083,30,4,2.41718363762,-0.902457654476,0.484931617975,0.0,11.5,0.8084226212775919,-0.30182530250033446,0.16218448761705684,11.5,0.0,1.182452021189902,2.6253314514956068
1648125822993983694,40084,31,0,0.0126571767032,0.0439508594573,0.0102926222607,0.0,13.5,0.004233169465953177,0.014699284099431437,0.0034423485821739124,13.5,0.0,0.015871622490809013,0.046880915542817876
1648125822993993105,40085,31,1,0.0329001024365,0.0146502861753,-0.0300128757954,0.0,13.5,0.011003378741304349,0.0048997612626421405,-0.010037751102140467,13.5,0.0,0.016314298877980183,0.04688091657444943
1648125822993999452,40086,31,2,1.24369430542,-0.118667319417,0.203355416656,0.0,13.5,0.415951272715719,-0.039688066694648826,0.06801184503545149,13.5,0.0,0.5895812625801569,1.265784690820318
1648125822994010604,40087,31,3,1.37376356125,-0.0,0.602778196335,0.0,13.5,0.4594526960702341,-0.0,0.20159805897491637,13.5,0.0,0.6497642340514087,1.5001892801227312
1648125822994013577,40088,31,4,1.3384771347,-0.140642747283,0.662771880627,0.0,13.5,0.44765121561872906,-0.047037708121404675,0.2216628363301003,13.5,0.0,0.6348194764459941,1.5001893174622603
1648125822994016049,40089,31,5,2.38975477219,-0.984499275684,0.460649907589,0.0,13.5,0.7992490876889631,-0.32926397180066885,0.1540635142438127,13.5,0.0,1.1772905212687441,2.6253314138197776
1648125823189062551,40090,33,0,0.0125994505361,0.0439508594573,0.0103632062674,0.0,12.1000003815,0.004213863055551839,0.014699284099431437,0.003465955273377926,12.1000003815,0.0,0.01586134410249293,0.04688091557326548
1648125823189069065,40091,33,1,0.0329373031855,0.0146502861753,-0.0299720410258,0.0,12.1000003815,0.011015820463377925,0.0048997612626421405,-0.010024093988561873,12.1000003815,0.0,0.016331082676713148,0.04688091370060926
1648125823189075954,40092,33,2,1.23016870022,-0.079111546278,0.287467360497,0.0,12.1000003815,0.4114276589364548,-0.026458711129765885,0.09614292993210702,12.1000003815,0.0,0.5824478521468783,1.265784796522131
1648125823189199723,40093,33,3,1.36758852005,0.181663542986,0.456951916218,0.0,12.1000003815,0.45738746489966553,0.06075703778795986,0.15282672783210702,12.1000003815,0.0,0.6496906985138798,1.4533083144185468
1648125823189202176,40094,33,4,2.3877620697,-0.984499275684,0.470869928598,0.0,12.1000003815,0.7985826320066889,-0.32926397180066885,0.157481581470903,12.1000003815,0.0,1.1763856525015142,2.6253314105038688
1648125823294171402,40095,34,0,0.0126674417406,0.0439508594573,0.0102799860761,0.0,11.8000001907,0.004236602588829431,0.014699284099431437,0.0034381224334782603,11.8000001907,0.0,0.015873454445304285,0.04688091553086012
1648125823294179812,40096,34,1,0.032885145396,0.0146502861753,-0.0300292614847,0.0,11.8000001907,0.010998376386622074,0.0048997612626421405,-0.010043231265785952,11.8000001907,0.0,0.016307551217595504,0.04688091528597467
1648125823294183753,40097,34,2,1.18614411354,-0.076181486249,0.270157366991,0.0,11.8000001907,0.39670371690301,-0.02547875794280936,0.0903536344451505,11.8000001907,0.0,0.5616020344653634,1.2189038025505576
1648125823294185850,40098,34,3,1.35007691383,0.0849716588855,-0.135790482163,0.0,11.8000001907,0.4515307404113712,0.028418615011872907,-0.045414876977591966,11.8000001907,0.0,0.639192957370523,1.3595465829152567
1648125823294317335,40099,34,4,1.44499766827,0.140642747283,0.37784793973,0.0,11.8000001907,0.4832768121304348,0.047037708121404675,0.1263705484046823,11.8000001907,0.0,0.6850733539346174,1.5001892244737838
1648125823294321237,40100,34,5,1.3240275383,-0.375047326088,0.597376346588,0.0,11.8000001907,0.4428185746822742,-0.1254338883237458,0.19979142026354513,11.8000001907,0.0,0.6386785110736822,1.5001892942043489
1648125823294325973,40101,34,6,2.41814565659,-0.902457654476,0.480111807585,0.0,11.8000001907,0.8087443667525084,-0.30182530250033446,0.1605725108979933,11.8000001907,0.0,1.1828919708651546,2.625331518568644
1648125823489083053,40102,36,0,0.0126877604052,0.0439508594573,0.0102548981085,0.0,11.8000001907,0.004243398128829431,0.014699284099431437,0.003429731808862876,11.8000001907,0.0,0.015877084379548535,0.04688091558780411
1648125823489088463,40103,36,1,0.0329373031855,0.0146502861753,-0.0299720410258,0.0,11.8000001907,0.011015820463377925,0.0048997612626421405,-0.010024093988561873,11.8000001907,0.0,0.016331082676713148,0.04688091370060926
1648125823489098399,40104,36,2,1.23124134541,-0.079111546278,0.282837659121,0.0,11.8000001907,0.41178640314715714,-0.026458711129765885,0.09459453482307692,11.8000001907,0.0,0.5829546697886504,1.2657847482169193
1648125823489134989,40105,36,3,2.41856718063,-0.902457654476,0.477983683348,0.0,11.8000001907,0.8088853446923077,-0.30182530250033446,0.15986076366153845,11.8000001907,0.0,1.1830847454622198,2.6253314889533077
1648125823594023343,40106,37,0,0.0125890737399,0.0439508594573,0.0103758089244,0.0,11.8999996185,0.004210392555150501,0.014699284099431437,0.003470170208829431,11.8999996185,0.0,0.01585950074790286,0.0468809154720728
1648125823594028455,40107,37,1,0.0329373031855,0.0146502861753,-0.0299720410258,0.0,11.8999996185,0.011015820463377925,0.0048997612626421405,-0.010024093988561873,11.8999996185,0.0,0.016331082676713148,0.04688091370060926
1648125823594030744,40108,37,2,1.22052431107,-0.079111546278,0.325994968414,0.0,11.8999996185,0.40820211072575247,-0.026458711129765885,0.10902841752976587,11.8999996185,0.0,0.5778909843530762,1.265784717121612
1648125823594033132,40109,37,3,2.41620492935,-0.902457654476,0.489784806967,0.0,11.8999996185,0.80809529409699,-0.30182530250033446,0.16380762774816052,11.8999996185,0.0,1.1820044508853678,2.625331452573801
1648125823789080710,40110,39,0,0.0125994505361,0.0439508594573,0.0103632062674,0.0,12.3000001907,0.004213863055551839,0.014699284099431437,0.003465955273377926,12.3000001907,0.0,0.01586134410249293,0.04688091557326548
1648125823789089246,40111,39,1,0.0329244062304,0.0146502861753,-0.0299862083048,0.0,12.3000001907,0.011011507100468228,0.0048997612626421405,-0.010028832208963211,12.3000001907,0.0,0.016325263785869217,0.046880914017768956
1648125823789096355,40112,39,2,1.23533725739,-0.079111546278,0.264375329018,0.0,12.3000001907,0.41315627337458194,-0.026458711129765885,0.08841984248093644,12.3000001907,0.0,0.5848899690131409,1.2657847727175893
1648125823789232755,40113,39,3,2.41628050804,-0.902457654476,0.489411085844,0.0,12.3000001907,0.808120571250836,-0.30182530250033446,0.16368263740602004,12.3000001907,0.0,1.1820390131408411,2.6253313167300174
1648125823894173593,40114,40,0,0.0125890737399,0.0439508594573,0.0103758089244,0.0,12.3999996185,0.004210392555150501,0.014699284099431437,0.003470170208829431,12.3999996185,0.0,0.01585950074790286,0.0468809154720728
1648125823894182858,40115,40,1,0.0328722037375,0.0146502861753,-0.0300434287637,0.0,12.3999996185,0.010994048072742475,0.0048997612626421405,-0.01004796948618729,12.3999996185,0.0,0.01630171299227273,0.04688091589823531
1648125823894186095,40116,40,2,1.23787689209,-0.039555773139,0.261356145144,0.0,12.3999996185,0.4140056495284281,-0.013229355564882942,0.08741008198795987,12.3999996185,0.0,0.5856418457825341,1.2657846948685836
1648125823894189360,40117,40,3,2.41241693497,-0.902457654476,0.508114159107,0.0,12.3999996185,0.8068284063444815,-0.30182530250033446,0.16993784585518393,12.3999996185,0.0,1.180272285448646,2.6253314619181682
1648125823894191993,40118,40,4,1.45107138157,0.093761831522,0.369010567665,0.0809188112617,12.3999996185,0.4853081543712374,0.03135847208093645,0.12341490557357859,12.3999996185,0.010934974494824324,0.6870453865427556,1.5001893995460287
1648125824089064794,40119,42,0,0.0125683275983,0.0439508594573,0.0104009294882,0.0,15.8000001907,0.004203454046254181,0.014699284099431437,0.003478571735183946,15.8000001907,0.0,0.01585581927475648,0.046880915518705844
1648125824089070882,40120,42,1,0.0329001024365,0.0146502861753,-0.0300128757954,0.0,15.8000001907,0.011003378741304349,0.0048997612626421405,-0.010037751102140467,15.8000001907,0.0,0.016314298877980183,0.04688091657444943
1648125824089081245,40121,42,2,1.23559653759,-0.118667319417,0.247851461172,0.0,15.8000001907,0.4132429891605351,-0.039688066694648826,0.08289346527491638,15.8000001907,0.0,0.5857599156810127,1.2657847697010371
1648125824089239641,40122,42,3,2.39174771309,-0.984499275684,0.450188428164,0.0,15.8000001907,0.7999156231070234,-0.32926397180066885,0.15056469169364547,15.8000001907,0.0,1.1781955573279619,2.6253315157797386
1648125824089243637,40123,42,4,1.13723993301,0.140642747283,0.968231797218,0.0809188112617,15.8000001907,0.3803478036822742,0.047037708121404675,0.32382334355117054,15.8000001907,0.010934974494824324,0.5399457838683196,1.5001892749716275
1648125824089395973,40124,42,5,1.42385876179,-0.328166425228,0.339854449034,0.0809188112617,15.8000001907,0.4762069437424749,-0.10975465726688963,0.11366369532909697,15.8000001907,0.010934974494824324,0.6823431624401829,1.5001893289519426
1648125824194228220,40125,43,0,0.0126877604052,0.0439508594573,0.0102548981085,0.0,17.2999992371,0.004243398128829431,0.014699284099431437,0.003429731808862876,17.2999992371,0.0,0.015877084379548535,0.04688091558780411
1648125824194236392,40126,43,1,0.0329373031855,0.0146502861753,-0.0299720410258,0.0,17.2999992371,0.011015820463377925,0.0048997612626421405,-0.010024093988561873,17.2999992371,0.0,0.016331082676713148,0.04688091370060926
1648125824194242057,40127,43,2,1.23678290844,-0.039555773139,0.26648530364,0.0,17.2999992371,0.4136397687090301,-0.013229355564882942,0.08912551961204013,17.2999992371,0.0,0.5851245443185423,1.2657847521810461
1648125824194246679,40128,43,3,1.36198568344,-0.328166425228,0.536534965038,0.0,17.2999992371,0.45551360650167216,-0.10975465726688963,0.17944313211973242,17.2999992371,0.0,0.653476377697077,1.5001893124705215
1648125824194250608,40129,43,4,1.88290572166,-1.31852579117,0.459028184414,0.0,17.2999992371,0.6297343550702341,-0.44097852547491634,0.15352113191103678,17.2999992371,0.0,0.9937770252131405,2.3440458811053277
1648125824194415022,40130,43,5,2.24706029892,-0.914177834988,0.240635365248,0.0,17.2999992371,0.7515251835852843,-0.30574509531371236,0.08048005526688963,17.2999992371,0.0,1.105920551592284,2.437807720057885
1648125824194418740,40131,43,6,1.1263064146,-0.076181486249,-2.16067957878,0.0,17.2999992371,0.3766911085618729,-0.02547875794280936,-0.7226353106287625,17.2999992371,0.0,0.5333306194523746,2.4378076217316926
1648125824194424791,40132,43,7,2.41929960251,-0.902457654476,0.474262148142,0.0,17.2999992371,0.8091303018428094,-0.30182530250033446,0.15861610305752508,17.2999992371,0.0,1.1834197074368376,2.6253314019353122
1648125824389240191,40133,45,0,0.0125683275983,0.0439508594573,0.0104009294882,0.0,12.3999996185,0.004203454046254181,0.014699284099431437,0.003478571735183946,12.3999996185,0.0,0.01585581927475648,0.046880915518705844
1648125824389261983,40134,45,1,0.0328124724329,0.0146502861753,-0.0301086530089,0.0,12.3999996185,0.010974071047792642,0.0048997612626421405,-0.010069783615016722,12.3999996185,0.0,0.01627476977271537,0.04688091528744241
1648125824389264087,40135,45,2,1.19175505638,-0.0380907431245,0.252973109484,0.0,12.3999996185,0.39858028641471566,-0.01273937897140468,0.08460639113177257,12.3999996185,0.0,0.5638215863315723,1.2189037752181577
1648125824389266149,40136,45,3,1.34758353233,-0.0,0.179959967732,0.0,12.3999996185,0.4506968335551839,-0.0,0.06018728017792641,12.3999996185,0.0,0.6373815745323506,1.3595466033178498
1648125824389267937,40137,45,4,1.43730843067,0.140642747283,0.40611821413,0.0,12.3999996185,0.4807051607591973,0.047037708121404675,0.13582548967558528,12.3999996185,0.0,0.681445118220364,1.5001892917517137
1648125824389269567,40138,45,5,1.05197775364,-0.375047326088,1.00162374973,0.0,12.3999996185,0.3518320246287625,-0.1254338883237458,0.3349912206454849,12.3999996185,0.0,0.5131327386249704,1.5001892637205496
1648125824389271289,40139,45,6,2.41864418983,-0.902457654476,0.477593183517,0.0,12.3999996185,0.8089111002775919,-0.30182530250033446,0.15973016171137122,12.3999996185,0.0,1.183119964134672,2.6253313665254994
1648125824389272817,40140,45,7,1.26361465454,0.039555773139,0.0626441165805,-0.0809188112617,12.3999996185,0.4226135968361204,0.013229355564882942,0.02095120955869565,12.3999996185,-0.010934974494824324,0.597812278487309,1.2657847130136384
1648125824494215423,40141,46,0,0.0126571767032,0.0439508594573,0.0102926222607,0.0,25.0,0.004233169465953177,0.014699284099431437,0.0034423485821739124,25.0,0.0,0.015871622490809013,0.046880915542817876
1648125824494218503,40142,46,1,0.0328722037375,0.0146502861753,-0.0300434287637,0.0,25.0,0.010994048072742475,0.0048997612626421405,-0.01004796948618729,25.0,0.0,0.01630171299227273,0.04688091589823531
1648125824494228970,40143,46,2,1.21918964386,-0.039555773139,0.337969124317,0.0,25.0,0.40775573373244145,-0.013229355564882942,0.11303315194548494,25.0,0.0,0.5768054200785785,1.265784806306229
1648125824494236703,40144,46,3,2.38790917397,-0.984499275684,0.470123022795,0.0,25.0,0.7986318307591972,-0.32926397180066885,0.15723178019899664,25.0,0.0,1.1764524492428605,2.625331351184897
