%time,field.header.seq,field.header.frame_id,field.point_id,field.x,field.y,field.z,field.velocity,field.intensity,normalized_x,normalized_y,normalized_z,normalized_intensity,normalized_velocity,normalized_range,range
1648219165453693834,65216,0,0,0.00558340921998,0.0454158857465,0.0102001521736,0.0,11.1999998093,0.0018673609431371235,0.015189259446989964,0.0034114221316387957,11.1999998093,0.0,0.01541712282924028,0.04688091553096522
1648219165453710168,65217,0,1,0.0335209183395,0.0146502861753,-0.0293178688735,0.0,11.1999998093,0.011211009478093645,0.0048997612626421405,-0.009805307315551839,11.1999998093,0.0,0.016594611398484137,0.04688091601734499
1648219165453719349,65218,0,2,1.81280505657,0.171408340335,0.165050521493,0.0,11.1999998093,0.6062893165785953,0.05732720412541805,0.05520084330869565,11.1999998093,0.0,0.8593368833743363,1.828355727670978
1648219165648823585,65219,2,0,0.00554364221171,0.0454158857465,0.0102218193933,0.0,17.3999996185,0.0018540609403712373,0.015189259446989964,0.003418668693411371,17.3999996185,0.0,0.015413912108520486,0.046880915507483835
1648219165648825610,65220,2,1,0.0333998277783,0.0146502861753,-0.0294557418674,0.0,17.3999996185,0.01117051096264214,0.0048997612626421405,-0.009851418684749163,17.3999996185,0.0,0.016539899962330636,0.0468809141292828
1648219165648827719,65221,2,2,1.86021447182,0.175803437829,0.158768728375,0.0,17.3999996185,0.6221453083010033,0.05879713639765886,0.05309990915551839,17.3999996185,0.0,0.8818087505408788,1.875236582149269
1648219165648968134,65222,2,3,1.66520941257,0.108412116766,0.473435014486,0.0809188112617,17.3999996185,0.5569262249397994,0.03625823303210702,0.1583394697277592,17.3999996185,0.010934974494824324,0.7884467639061008,1.734593983534697
1648219165753831115,65223,3,0,0.00554364221171,0.0454158857465,0.0102218193933,0.0,14.3999996185,0.0018540609403712373,0.015189259446989964,0.003418668693411371,14.3999996185,0.0,0.015413912108520486,0.046880915507483835
1648219165753843769,65224,3,1,0.0333998277783,0.0146502861753,-0.0294557418674,0.0,14.3999996185,0.01117051096264214,0.0048997612626421405,-0.009851418684749163,14.3999996185,0.0,0.016539899962330636,0.0468809141292828
1648219165753846035,65225,3,2,1.87394928932,0.0586011447012,0.037310808897,0.0,14.3999996185,0.6267388927491638,0.019599045050568562,0.01247853140367893,14.3999996185,0.0,0.8865593053686763,1.875236552961725
1648219165948830667,65226,5,0,0.00552072422579,0.0454158857465,0.0102342152968,0.0,16.3999996185,0.0018463960621371235,0.015189259446989964,0.0034228144805351166,16.3999996185,0.0,0.015412071871897198,0.04688091548655616
1648219165948955575,65227,5,1,0.0334518700838,0.0146502861753,-0.0293966270983,0.0,16.3999996185,0.011187916415986623,0.0048997612626421405,-0.00983164785896321,16.3999996185,0.0,0.016563411722622077,0.0468809149001822
1648219165948959296,65228,5,2,1.83602154255,0.420463234186,0.383107751608,0.161837622523,16.3999996185,0.6140540276086955,0.14062315524615385,0.12812968281204012,16.3999996185,0.021869948989594594,0.8797156185019709,1.9221175784410196
1648219165949085348,65229,5,3,1.68672704697,0.054206058383,0.401035815477,-0.566431701183,16.3999996185,0.5641227581839464,0.01812911651605351,0.13412569079498327,16.3999996185,-0.07654482448418919,0.7979960134410317,1.7345939447146874
1648219166053924433,65230,6,0,0.00554762780666,0.0454158857465,0.0102196568623,0.0,32.0,0.001855393915270903,0.015189259446989964,0.0034179454388963207,32.0,0.0,0.015414232893972455,0.046880915507309835
1648219166053935123,65231,6,1,0.0334834195673,0.0146502861753,-0.0293606836349,0.0,32.0,0.011198468082709028,0.0048997612626421405,-0.009819626633745818,32.0,0.0,0.016577666760729453,0.0468809131144725
1648219166053943319,65232,6,2,1.85714733601,0.117202289402,0.23190407455,0.0809188112617,32.0,0.6211195103712374,0.03919809010100334,0.07755989115384615,32.0,0.010934974494824324,0.8792698007978993,1.87523654616771
1648219166053945081,65233,6,3,1.06097233295,0.256380021572,-1.22512722015,0.242756426334,32.0,0.35484024513377926,0.08574582661270903,-0.4097415452006689,32.0,0.03280492247756756,0.5090928657079157,1.6408320183062894
1648219166248798720,65234,8,0,0.00554364221171,0.0454158857465,0.0102218193933,0.0,20.8999996185,0.0018540609403712373,0.015189259446989964,0.003418668693411371,20.8999996185,0.0,0.015413912108520486,0.046880915507483835
1648219166248807284,65235,8,1,0.0335348397493,0.0146502861753,-0.0293019413948,0.0,20.8999996185,0.01121566546799331,0.0048997612626421405,-0.009799980399598661,20.8999996185,0.0,0.016600902511934818,0.04688091436324287
1648219166248899447,65236,8,2,1.92101597786,0.0600661747158,0.0250089503825,-0.0809188112617,20.8999996185,0.6424802601538461,0.020089021644080267,0.008364197452341135,20.8999996185,-0.010934974494824324,0.9088263520416449,1.9221175250586617
1648219166353794376,65237,9,0,0.00554364221171,0.0454158857465,0.0102218193933,0.0,15.3000001907,0.0018540609403712373,0.015189259446989964,0.003418668693411371,15.3000001907,0.0,0.015413912108520486,0.046880915507483835
1648219166353796763,65238,9,1,0.0334518700838,0.0146502861753,-0.0293966270983,0.0,15.3000001907,0.011187916415986623,0.0048997612626421405,-0.00983164785896321,15.3000001907,0.0,0.016563411722622077,0.0468809149001822
1648219166353798747,65239,9,2,2.11115884781,-1.12074685097,-0.0588575154543,0.0,15.3000001907,0.7060731932474916,-0.3748317227324415,-0.019684787777357857,15.3000001907,0.0,1.0665727958334532,2.390926471427148
1648219166548820461,65240,11,0,0.00558340921998,0.0454158857465,0.0102001521736,0.0,11.3000001907,0.0018673609431371235,0.015189259446989964,0.0034114221316387957,11.3000001907,0.0,0.01541712282924028,0.04688091553096522
1648219166548825578,65241,11,1,0.0333998277783,0.0146502861753,-0.0294557418674,0.0,11.3000001907,0.01117051096264214,0.0048997612626421405,-0.009851418684749163,11.3000001907,0.0,0.016539899962330636,0.0468809141292828
1648219166548828060,65242,11,2,1.86608922482,0.175803437829,0.0575900264084,0.0,11.3000001907,0.6241101086354515,0.05879713639765886,0.01926087839745819,11.3000001907,0.0,0.8845812334944004,1.8752366397027134
1648219166548977644,65243,11,3,1.58875858784,0.0996219441295,0.0812513828278,0.404594063759,11.3000001907,0.5313573872374582,0.033318375963043476,0.027174375527692307,11.3000001907,0.05467487348094594,0.752191106116292,1.5939511188863107
1648219166653795901,65244,12,0,0.00554364221171,0.0454158857465,0.0102218193933,0.0,17.7000007629,0.0018540609403712373,0.015189259446989964,0.003418668693411371,17.7000007629,0.0,0.015413912108520486,0.046880915507483835
1648219166653798217,65245,12,1,0.0334834195673,0.0146502861753,-0.0293606836349,0.0,17.7000007629,0.011198468082709028,0.0048997612626421405,-0.009819626633745818,17.7000007629,0.0,0.016577666760729453,0.0468809131144725
1648219166653799808,65246,12,2,1.86408030987,0.175803437829,0.10397028178,0.0,17.7000007629,0.6234382307257524,0.05879713639765886,0.0347726694916388,17.7000007629,0.0,0.883633158222052,1.8752365370509778
1648219166653801497,65247,12,3,1.6369035244,0.0512760020792,-0.101229742169,0.485512852669,17.7000007629,0.5474593727090301,0.017149164574983278,-0.03385610105986622,17.7000007629,0.06560984495527027,0.7744143744659893,1.6408320563915035
1648219166848818477,65248,14,0,0.00558340921998,0.0454158857465,0.0102001521736,0.0,22.0,0.0018673609431371235,0.015189259446989964,0.0034114221316387957,22.0,0.0,0.01541712282924028,0.04688091553096522
1648219166848820063,65249,14,1,0.0334834195673,0.0146502861753,-0.0293606836349,0.0,22.0,0.011198468082709028,0.0048997612626421405,-0.009819626633745818,22.0,0.0,0.016577666760729453,0.0468809131144725
1648219166848951399,65250,14,2,1.8669718504,0.175803437829,-0.00464507611468,0.0,22.0,0.6244053011371237,0.05879713639765886,-0.0015535371621003343,22.0,0.0,0.8849977759434479,1.8752366025839529
1648219166953914818,65251,15,0,0.00552072422579,0.0454158857465,0.0102342152968,0.0,19.2000007629,0.0018463960621371235,0.015189259446989964,0.0034228144805351166,19.2000007629,0.0,0.015412071871897198,0.04688091548655616
1648219166953932981,65252,15,1,0.033385772258,0.0146502861753,-0.0294716712087,0.0,19.2000007629,0.01116581011973244,0.0048997612626421405,-0.009856746223645484,19.2000007629,0.0,0.016533550486532746,0.04688091379351458
1648219166953945533,65253,15,2,2.10851120949,-1.12074685097,-0.120983101428,0.0,19.2000007629,0.7051876954816053,-0.3748317227324415,-0.040462575728428096,19.2000007629,0.0,1.0654004843643936,2.3909265850994443
1648219167148800617,65254,17,0,0.00554364221171,0.0454158857465,0.0102218193933,0.0,11.6000003815,0.0018540609403712373,0.015189259446989964,0.003418668693411371,11.6000003815,0.0,0.015413912108520486,0.046880915507483835
1648219167148809818,65255,17,1,0.033385772258,0.0146502861753,-0.0294716712087,0.0,11.6000003815,0.01116581011973244,0.0048997612626421405,-0.009856746223645484,11.6000003815,0.0,0.016533550486532746,0.04688091379351458
1648219167148812108,65256,17,2,1.86383259296,0.175803437829,-0.10832131654,0.0,11.6000003815,0.6233553822608695,0.05879713639765886,-0.036227865063545146,11.6000003815,0.0,0.8835162525023263,1.8752365959924766
1648219167253996182,65257,18,0,0.00554364221171,0.0454158857465,0.0102218193933,0.0,13.3999996185,0.0018540609403712373,0.015189259446989964,0.003418668693411371,13.3999996185,0.0,0.015413912108520486,0.046880915507483835
1648219167254000067,65258,18,1,0.0334227085114,0.0146502861753,-0.0294297784567,0.0,13.3999996185,0.01117816338173913,0.0048997612626421405,-0.00984273526979933,13.3999996185,0.0,0.016550236663220128,0.04688091497898308
1648219167254003313,65259,18,2,1.87039494514,0.117202289402,0.066321156919,0.0,13.3999996185,0.6255501488762542,0.03919809010100334,0.0221809889361204,13.3999996185,0.0,0.8855294844248688,1.8752365512919718
1648219167254004850,65260,18,3,0.651464760303,1.75803434849,0.0377018637955,0.0,13.3999996185,0.2178811907367893,0.5879713540100334,0.012609318995150502,13.3999996185,0.0,0.6638183032202067,1.8752366610433358
1648219167448812623,65261,20,0,0.00552072422579,0.0454158857465,0.0102342152968,0.0,12.6000003815,0.0018463960621371235,0.015189259446989964,0.0034228144805351166,12.6000003815,0.0,0.015412071871897198,0.04688091548655616
1648219167448814488,65262,20,1,0.0333998277783,0.0146502861753,-0.0294557418674,0.0,12.6000003815,0.01117051096264214,0.0048997612626421405,-0.009851418684749163,12.6000003815,0.0,0.016539899962330636,0.0468809141292828
1648219167448816383,65263,20,2,1.91835474968,0.120132349432,-0.00438281614333,0.0,12.6000003815,0.6415902172842809,0.040178043288294316,-0.0014658247971003344,12.6000003815,0.0,0.9082347102991922,1.9221175656231888
1648219167553984409,65264,21,0,0.00558340921998,0.0454158857465,0.0102001521736,0.0,17.7999992371,0.0018673609431371235,0.015189259446989964,0.0034114221316387957,17.7999992371,0.0,0.01541712282924028,0.04688091553096522
1648219167553987422,65265,21,1,0.0333998277783,0.0146502861753,-0.0294557418674,0.0,17.7999992371,0.01117051096264214,0.0048997612626421405,-0.009851418684749163,17.7999992371,0.0,0.016539899962330636,0.0468809141292828
1648219167553989153,65266,21,2,1.91494381428,0.120132349432,-0.114432401955,0.0,17.7999992371,0.6404494362140467,0.040178043288294316,-0.03827170633946488,17.7999992371,0.0,0.9066229844076624,1.9221176779392248
