%time,field.header.seq,field.header.frame_id,field.point_id,field.x,field.y,field.z,field.velocity,field.intensity,normalized_x,normalized_y,normalized_z,normalized_intensity,normalized_velocity,normalized_range,range
1648218535337518960,38675,0,0,0.00509680015966,0.0454158857465,0.0104518029839,0.0,11.6999998093,0.0017046154380133778,0.015189259446989964,0.003495586282240802,11.6999998093,0.0,0.015379370277452876,0.046880915473366265
1648218535337522701,38676,0,1,0.0335027687252,0.0146502861753,-0.0293386057019,0.0,11.6999998093,0.011204939372976588,0.0048997612626421405,-0.00981224270966555,11.6999998093,0.0,0.01658640989289275,0.04688091489939147
1648218535337524443,38677,0,2,1.73189437389,0.054206058383,-0.0801221057773,0.0,11.6999998093,0.5792288875886287,0.01812911651605351,-0.026796690895418057,11.6999998093,0.0,0.8193539365255854,1.7345938922155366
1648218535337603781,38678,0,3,0.824710309505,-1.51776957512,0.15825471282,0.0,11.6999998093,0.2758228459882943,-0.5076152425150501,0.05292799759866221,11.6999998093,0.0,0.6401794429468801,1.7345939386189262
1648218535337606107,38679,0,4,1.72956526279,-0.0,0.724649250507,0.0,11.6999998093,0.5784499206655518,-0.0,0.24235760886521737,11.6999998093,0.0,0.8180517229588642,1.8752366609338136
1648218535337612622,38680,0,5,1.73028969765,0.117202289402,0.713353633881,0.0,11.6999998093,0.5786922065719063,0.03919809010100334,0.2385798106625418,11.6999998093,0.0,0.8193325516307101,1.875236577449903
1648218535442582063,38681,1,0,0.00524778757244,0.0454158857465,0.0103768147528,0.0,17.6000003815,0.0017551129004816054,0.015189259446989964,0.003470506606287625,17.6000003815,0.0,0.015390725945674161,0.04688091548763233
1648218535442589079,38682,1,1,0.0334800891578,0.0146502861753,-0.029364483431,0.0,17.6000003815,0.011197354233377926,0.0048997612626421405,-0.009820897468561872,17.6000003815,0.0,0.016576161922664173,0.046880914477022494
1648218535442599964,38683,1,2,1.68350327015,0.117202289402,0.817675113678,0.161837622523,17.6000003815,0.5630445719565217,0.03919809010100334,0.2734699376849498,17.6000003815,0.021869948989594594,0.7972294966237589,1.8752365794147532
1648218535442609818,38684,1,3,1.57747137547,1.28922522068,0.323206305504,-0.242756426334,17.6000003815,0.5275823998227425,0.4311790035719063,0.10809575434916387,17.6000003815,-0.03280492247756756,0.8617434132772412,2.0627602686648183
1648218535442613009,38685,1,4,1.80593276024,-0.0,0.505093455315,-0.0809188112617,17.6000003815,0.6039908897123745,-0.0,0.1689275770284281,17.6000003815,-0.010934974494824324,0.8541721077810323,1.8752366605605042
1648218535637683340,38686,3,0,0.00532957864925,0.0454158857465,0.0103350449353,0.0,18.8999996185,0.0017824677756688961,0.015189259446989964,0.0034565367676588628,18.8999996185,0.0,0.01539701221960189,0.04688091552574835
1648218535637779220,38687,3,1,0.0334885679185,0.0146502861753,-0.0293548125774,0.0,18.8999996185,0.011200189939297658,0.0048997612626421405,-0.009817663069364548,18.8999996185,0.0,0.01657999305740438,0.04688091389578978
1648218535637791778,38688,3,2,1.72689974308,0.054206058383,-0.153931677341,0.0,18.8999996185,0.5775584425016722,0.01812911651605351,-0.0514821663347826,18.8999996185,0.0,0.8169921504369351,1.7345938950383182
1648218535637917702,38689,3,3,0.930765628815,-1.46356356144,-0.0217503290623,0.0,18.8999996185,0.3112928524464883,-0.4894861409498327,-0.0072743575459197326,18.8999996185,0.0,0.6583336252619197,1.7345939095282898
1648218535637921754,38690,3,4,1.77582657337,0.120132349432,0.725633561611,0.0,18.8999996185,0.5939219308929765,0.040178043288294316,0.24268680990334446,18.8999996185,0.0,0.8408928559297904,1.9221175473428658
1648218535637930218,38691,3,5,1.26430225372,1.44158816338,-0.133787840605,0.0,18.8999996185,0.4228435631170568,0.4821365094916388,-0.044745097192307695,18.8999996185,0.0,0.768146451872192,1.922117532268134
1648218535637934014,38692,3,6,2.07034254074,-1.19546329975,-0.0328509099782,0.0,18.8999996185,0.6924222544280936,-0.39982050158862875,-0.010986926414113711,18.8999996185,0.0,1.057711487289965,2.390926581753048
1648218535637937937,38693,3,7,1.73283183575,-0.285680562258,0.508493006229,-0.0809188112617,18.8999996185,0.5795424199832776,-0.09554533854782607,0.17006455057826084,18.8999996185,-0.010934974494824324,0.8251471049687845,1.828355734539799
1648218535637940067,38694,3,8,1.23334872723,0.34281668067,-1.3054548502,-0.0809188112617,18.8999996185,0.4124912131204013,0.1146544082508361,-0.43660697331103676,18.8999996185,-0.010934974494824324,0.5945112573656028,1.8283557436713902
1648218535742740017,38695,4,0,0.00510282302275,0.0454158857465,0.0104488637298,0.0,18.3999996185,0.0017066297734949832,0.015189259446989964,0.003494603254113712,18.3999996185,0.0,0.015379817063786324,0.046880915458047304
1648218535742749441,38696,4,1,0.0334885679185,0.0146502861753,-0.0293548125774,0.0,18.3999996185,0.011200189939297658,0.0048997612626421405,-0.009817663069364548,18.3999996185,0.0,0.01657999305740438,0.04688091389578978
1648218535742752066,38697,4,2,1.72632443905,0.054206058383,-0.160255089402,0.0,18.3999996185,0.5773660331270903,0.01812911651605351,-0.05359701986688963,18.3999996185,0.0,0.8167201095133372,1.7345939176954246
1648218535742754706,38698,4,3,1.80680346489,0.240264698863,0.610139429569,0.0,18.3999996185,0.6042820952809365,0.08035608657625418,0.20406000988929765,18.3999996185,0.0,0.8583535413826217,1.9221175847936627
1648218535742756375,38699,4,4,1.69428038597,-0.34281668067,0.595630347729,-0.242756426334,18.3999996185,0.5666489585183946,-0.1146544082508361,0.1992074741568562,18.3999996185,-0.03280492247756756,0.8095231421715576,1.8283557678865505
1648218535937687367,38700,6,0,0.00524778757244,0.0454158857465,0.0103768147528,0.0,31.3999996185,0.0017551129004816054,0.015189259446989964,0.003470506606287625,31.3999996185,0.0,0.015390725945674161,0.04688091548763233
1648218535937690302,38701,6,1,0.0335027687252,0.0146502861753,-0.0293386057019,0.0,31.3999996185,0.011204939372976588,0.0048997612626421405,-0.00981224270966555,31.3999996185,0.0,0.01658640989289275,0.04688091489939147
1648218535937868076,38702,6,2,1.73316252232,0.054206058383,-0.0450044348836,0.0,31.3999996185,0.5796530174983278,0.01812911651605351,-0.015051650462742474,31.3999996185,0.0,0.8199536000625194,1.7345939077199706
1648218535937870800,38703,6,3,1.6619759798,-0.44536870718,0.46166574955,-0.242756426334,31.3999996185,0.5558448092976588,-0.14895274487625418,0.15440326071906355,31.3999996185,-0.03280492247756756,0.8000711369949998,1.7814748684937762
1648218535937873136,38704,6,4,1.80141019821,0.410208016634,0.321190059185,-0.0809188112617,31.3999996185,0.6024783271605351,0.13719331659999998,0.10742142447658862,31.3999996185,-0.010934974494824324,0.8630076914582056,1.875236617935202
1648218536042758322,38705,7,0,0.00510282302275,0.0454158857465,0.0104488637298,0.0,19.8999996185,0.0017066297734949832,0.015189259446989964,0.003494603254113712,19.8999996185,0.0,0.015379817063786324,0.046880915458047304
1648218536042776361,38706,7,1,0.0334800891578,0.0146502861753,-0.029364483431,0.0,19.8999996185,0.011197354233377926,0.0048997612626421405,-0.009820897468561872,19.8999996185,0.0,0.016576161922664173,0.046880914477022494
1648218536042799140,38707,7,2,1.72192454338,-0.0,-0.209265619516,0.0,19.8999996185,0.5758944961137124,-0.0,-0.0699885015103679,19.8999996185,0.0,0.8144378069000318,1.7345939676494428
1648218536042812094,38708,7,3,0.930736482143,-1.46356356144,0.0229616444558,0.0,19.8999996185,0.31128310439565215,-0.4894861409498327,0.007679479751103679,19.8999996185,0.0,0.6583244066160303,1.7345938817726119
1648218536042950966,38709,7,4,1.51045930386,-0.632892370224,0.407841742039,-0.566431701183,19.8999996185,0.5051703357391304,-0.21166968903812708,0.13640192041438126,19.8999996185,-0.07654482448418919,0.7451162281678402,1.6877129339595627
1648218536042954376,38710,7,5,1.71629858017,0.628497242928,0.0468484908342,-0.242756426334,19.8999996185,0.5740129030668896,0.2101997467986622,0.01566839158334448,19.8999996185,-0.03280492247756756,0.8385496761246637,1.82835564969048
1648218536042955545,38711,7,6,1.59584593773,1.31852579117,0.406635075808,-0.242756426334,19.8999996185,0.5337277383712374,0.44097852547491634,0.13599835311304348,19.8999996185,-0.03280492247756756,0.8741811353168081,2.1096413448326223
1648218536042961212,38712,7,7,1.70110416412,1.18667328358,0.385535150766,-0.242756426334,19.8999996185,0.5689311585685618,0.3968806968494983,0.12894152199531772,19.8999996185,-0.03280492247756756,0.8971508311939946,2.109641251877936
1648218536042962188,38713,7,8,1.80754494667,0.0586011447012,0.495842039585,-0.0809188112617,19.8999996185,0.6045300824983277,0.019599045050568562,0.16583345805518393,19.8999996185,-0.010934974494824324,0.8551592622767785,1.8752365601737708
1648218536237702214,38714,9,0,0.00524778757244,0.0454158857465,0.0103768147528,0.0,20.1000003815,0.0017551129004816054,0.015189259446989964,0.003470506606287625,20.1000003815,0.0,0.015390725945674161,0.04688091548763233
1648218536237711328,38715,9,1,0.0334800891578,0.0146502861753,-0.029364483431,0.0,20.1000003815,0.011197354233377926,0.0048997612626421405,-0.009820897468561872,20.1000003815,0.0,0.016576161922664173,0.046880914477022494
1648218536237729256,38716,9,2,1.463732481,-0.597731649876,0.2021984905,-0.485512852669,20.1000003815,0.4895426357859532,-0.19991025079464883,0.06762491321070234,20.1000003815,-0.06560984495527027,0.720602590112814,1.5939511067653171
1648218536237825630,38717,9,3,1.60851204395,0.723724126816,0.250130176544,-0.323675245047,20.1000003815,0.5379638942976588,0.24204820294849494,0.08365557743946488,20.1000003815,-0.04373989797932432,0.798371865540364,1.7814748700124066
1648218536237856941,38718,9,4,1.85430765152,-0.175803437829,0.217137739062,-0.161837622523,20.1000003815,0.6201697831170568,-0.05879713639765886,0.07262131741204013,20.1000003815,-0.021869948989594594,0.8790211732555021,1.875236655188638
1648218536237860314,38719,9,5,1.69030666351,0.111342176795,0.551469802856,-0.0809188112617,20.1000003815,0.5653199543511706,0.037238186219063545,0.18443806115585282,20.1000003815,-0.010934974494824324,0.8003499135303913,1.781474849808942
1648218536342850699,38720,10,0,0.00524778757244,0.0454158857465,0.0103768147528,0.0,11.5,0.0017551129004816054,0.015189259446989964,0.003470506606287625,11.5,0.0,0.015390725945674161,0.04688091548763233
1648218536342852739,38721,10,1,0.0335027687252,0.0146502861753,-0.0293386057019,0.0,11.5,0.011204939372976588,0.0048997612626421405,-0.00981224270966555,11.5,0.0,0.01658640989289275,0.04688091489939147
1648218536342854625,38722,10,2,1.77464473248,0.0556710883975,0.145566597581,0.0,11.5,0.5935266663812709,0.018619093109531772,0.04868448079632107,11.5,0.0,0.8395799414228227,1.7814749032567598
1648218536342858785,38723,10,3,1.4297003746,-0.53180539608,0.258004933596,-0.485512852669,11.5,0.4781606604013378,-0.17786133648160535,0.08628927545016722,11.5,-0.06560984495527027,0.6992209159671282,1.5470703559279593
1648218536342864466,38724,10,4,1.58478391171,0.70467877388,0.0265283863991,-0.485512852669,11.5,0.5300280641170568,0.2356785196923077,0.008872370033143812,11.5,-0.06560984495527027,0.7857505088434289,1.7345938938139984
1648218536343023142,38725,10,5,1.63252151012,1.22476398945,0.299677819014,-0.323675245047,11.5,0.5459938160936454,0.409620063361204,0.10022669532240801,11.5,-0.04373989797932432,0.8740749914813029,2.0627603123162306
1648218536537827635,38726,12,0,0.00510282302275,0.0454158857465,0.0104488637298,0.0,18.0,0.0017066297734949832,0.015189259446989964,0.003494603254113712,18.0,0.0,0.015379817063786324,0.046880915458047304
1648218536537833762,38727,12,1,0.0335027687252,0.0146502861753,-0.0293386057019,0.0,18.0,0.011204939372976588,0.0048997612626421405,-0.00981224270966555,18.0,0.0,0.01658640989289275,0.04688091489939147
1648218536537883577,38728,12,2,2.07013201714,-1.19546329975,-0.0441656634212,0.0,18.0,0.6923518451973244,-0.39982050158862875,-0.014771124890033443,18.0,0.0,1.0576193022949525,2.3909265307120418
1648218536537893953,38729,12,3,1.53205549717,0.564036011696,-0.164313420653,-0.566431701183,18.0,0.5123931428662207,0.18864080658729096,-0.05495432128862876,18.0,-0.07654482448418919,0.7487848954289544,1.6408319746718236
1648218536537904358,38730,12,4,1.76925313473,0.0571361146867,0.457562476397,-0.0809188112617,18.0,0.5917234564314381,0.0191090684570903,0.15303092856086956,18.0,-0.010934974494824324,0.8370414889834517,1.8283557121523093
1648218536642796670,38731,13,0,0.00525369495153,0.0454158857465,0.0103738252074,0.0,20.1000003815,0.0017570886125518395,0.015189259446989964,0.003469506758327759,20.1000003815,0.0,0.015391176801424008,0.04688091550104969
1648218536642800929,38732,13,1,0.0335027687252,0.0146502861753,-0.0293386057019,0.0,20.1000003815,0.011204939372976588,0.0048997612626421405,-0.00981224270966555,20.1000003815,0.0,0.01658640989289275,0.04688091489939147
1648218536642805782,38733,13,2,1.73457503319,-0.0,-0.00808936078101,0.0,20.1000003815,0.5801254291605351,-0.0,-0.0027054718331137122,20.1000003815,0.0,0.820421249796341,1.7345938958511111
1648218536642812996,38734,13,3,0.578279972076,-1.62618172169,0.173035740852,0.0,20.1000003815,0.19340467293511704,-0.5438734855150501,0.0578714852347826,20.1000003815,0.0,0.6087767269472188,1.7345939252963714
1648218536642969545,38735,13,4,2.07015585899,-1.19546329975,-0.0430369786918,0.0,20.1000003815,0.6923598190602007,-0.39982050158862875,-0.014393638358461538,20.1000003815,0.0,1.0576297422012726,2.390926590904602
1648218536642973324,38736,13,5,1.70891821384,-0.0571361146867,0.64747107029,-0.0809188112617,20.1000003815,0.5715445531237459,-0.0191090684570903,0.21654550845819395,20.1000003815,-0.010934974494824324,0.8085119101832343,1.8283557597081772
1648218536837745199,38737,15,0,0.00529174832627,0.0454158857465,0.010354465805,0.0,14.1000003815,0.0017698154937357859,0.015189259446989964,0.0034630320418060196,14.1000003815,0.0,0.015394092903179077,0.04688091552641263
1648218536837755821,38738,15,1,0.0334800891578,0.0146502861753,-0.029364483431,0.0,14.1000003815,0.011197354233377926,0.0048997612626421405,-0.009820897468561872,14.1000003815,0.0,0.016576161922664173,0.046880914477022494
1648218536837891178,38739,15,2,1.73459291458,-0.0,-0.00191979145166,0.0,14.1000003815,0.5801314095585284,-0.0,-0.0006420707196187291,14.1000003815,0.0,0.8204297073562914,1.7345939769612821
1648218536837894689,38740,15,3,2.07012891769,-1.19546329975,-0.0443113073707,0.0,14.1000003815,0.6923508085919732,-0.39982050158862875,-0.014819835241036788,14.1000003815,0.0,1.0576179451042331,2.3909265419218615
1648218536837895902,38741,15,4,1.49467456341,0.145037829876,-0.37193864584,0.323675245047,14.1000003815,0.49989115833110365,0.048507635410033445,-0.12439419593311037,14.1000003815,0.04373989797932432,0.7086150796083144,1.5470702566041745
1648218536837896921,38742,15,5,1.55334043503,1.28922522068,0.42427816987,-0.323675245047,14.1000003815,0.519511851180602,0.4311790035719063,0.14189905346822743,14.1000003815,-0.04373989797932432,0.8518805433600734,2.0627603210661243
1648218536942751734,38743,16,0,0.00520934164524,0.0454158857465,0.0103961685672,0.0,18.1000003815,0.001742254730849498,0.015189259446989964,0.0034769794539130433,18.1000003815,0.0,0.015387803795288944,0.0468809155136033
1648218536942754474,38744,16,1,0.0334209166467,0.0146502861753,-0.0294318106025,0.0,18.1000003815,0.011177564095886288,0.0048997612626421405,-0.00984341491722408,18.1000003815,0.0,0.016549427140121226,0.046880913278916476
1648218536942760937,38745,16,2,1.83487892151,-0.0,0.386951953173,0.0,18.1000003815,0.6136718801036789,-0.0,0.1294153689541806,18.1000003815,0.0,0.8678630956896186,1.8752366439108692
1648218536942763463,38746,16,3,1.33459687233,0.761814892292,-1.07471013069,0.0,18.1000003815,0.4463534690066889,0.2547875893953177,-0.3594348263177257,18.1000003815,0.0,0.6807198794647379,1.8752366801976241
1648218536942769089,38747,16,4,2.07012319565,-1.19546329975,-0.0445760898292,0.0,18.1000003815,0.6923488948662206,-0.39982050158862875,-0.01490839124722408,18.1000003815,0.0,1.057615439531561,2.3909265095359555
1648218536942776045,38748,16,5,1.51157212257,1.16909277439,0.474685996771,-0.0809188112617,18.1000003815,0.505542515909699,0.39100092788963203,0.15875785845183946,18.1000003815,-0.010934974494824324,0.8148792526473906,1.9689984744514557
