%time,field.header.seq,field.header.frame_id,field.point_id,field.x,field.y,field.z,field.velocity,field.intensity,normalized_x,normalized_y,normalized_z,normalized_intensity,normalized_velocity,normalized_range,range
1648296034876444285,72589,0,0,0.0127217965201,0.0439508594573,0.010212643072,0.0,22.1000003815,0.004254781444849498,0.014699284099431437,0.0034155996896321067,22.1000003815,0.0,0.015883176109414296,0.046880915437416903
1648296034876475809,72590,0,1,0.0335269682109,0.0146502861753,-0.0293109472841,0.0,22.1000003815,0.01121303284645485,0.0048997612626421405,-0.00980299240270903,22.1000003815,0.0,0.016597345319726262,0.046880914166899254
1648296034876483142,72591,0,2,1.91817784309,-0.120132349432,-0.0264149177819,0.0,22.1000003815,0.6415310512006689,-0.040178043288294316,-0.00883442066284281,22.1000003815,0.0,0.9081511187416699,1.9221175216367188
1648296034876492988,72592,0,3,2.24391031265,-1.2306240797,0.585487425327,0.0,22.1000003815,0.7504716764715719,-0.4115799597658863,0.19581519241705686,22.1000003815,0.0,1.1383380594766177,2.625331339463751
1648296035071317580,72593,2,0,0.0127121871337,0.0439508594573,0.0102246021852,0.0,15.6000003815,0.004251567603244147,0.014699284099431437,0.003419599393043478,15.6000003815,0.0,0.01588145482018912,0.04688091550517269
1648296035071380161,72594,2,1,0.0335404723883,0.0146502861753,-0.0292954929173,0.0,15.6000003815,0.011217549293745818,0.0048997612626421405,-0.009797823718160533,15.6000003815,0.0,0.016603447977637752,0.046880913795659694
1648296035071390220,72595,2,2,1.87389791012,-0.0586011447012,-0.0398126989603,0.0,15.6000003815,0.6267217090702341,-0.019599045050568562,-0.013315283933210702,15.6000003815,0.0,0.8865350099159787,1.8752366577877306
1648296035071405163,72596,2,3,2.24317884445,-1.2306240797,0.588284194469,0.0,15.6000003815,0.750227038277592,-0.4115799597658863,0.19675056671204014,15.6000003815,0.0,1.1380155013032218,2.625331454728631
1648296035176150043,72597,3,0,0.0127004906535,0.0439508594573,0.0102391270921,0.0,15.6000003815,0.004247655736956521,0.014699284099431437,0.003424457221438127,15.6000003815,0.0,0.01587936118221376,0.046880915450566385
1648296035176162905,72598,3,1,0.0335041433573,0.0146502861753,-0.0293370354921,0.0,15.6000003815,0.011205399116153847,0.0048997612626421405,-0.009811717555886288,15.6000003815,0.0,0.016587031052466603,0.046880914651800804
1648296035176175915,72599,3,2,1.90573740005,-0.120132349432,0.219702661037,0.0,15.6000003815,0.6373703679096989,-0.040178043288294316,0.07347915084849498,15.6000003815,0.0,0.9022728228984657,1.9221176026966003
1648296035176178853,72600,3,3,2.24167251587,-1.2306240797,0.593998253345,0.0,15.6000003815,0.7497232494548495,-0.4115799597658863,0.19866162319230768,15.6000003815,0.0,1.1373512935004584,2.6253314493452664
1648296035371455267,72601,5,0,0.0127419224009,0.0439508594573,0.0101875215769,0.0,15.8000001907,0.004261512508662207,0.014699284099431437,0.0034071978518060196,15.8000001907,0.0,0.01588678478354783,0.04688091540686569
1648296035371472067,72602,5,1,0.0335041433573,0.0146502861753,-0.0293370354921,0.0,15.8000001907,0.011205399116153847,0.0048997612626421405,-0.009811717555886288,15.8000001907,0.0,0.016587031052466603,0.046880914651800804
1648296035371495401,72603,5,2,1.91362738609,-0.180198520422,0.00973203964531,0.0,15.8000001907,0.6400091592274246,-0.06026706368628762,0.003254862757628762,15.8000001907,0.0,0.907113866477278,1.9221175802098012
1648296035371501947,72604,5,3,2.24333071709,-1.2306240797,0.587703883648,0.0,15.8000001907,0.7502778318026756,-0.4115799597658863,0.19655648282541804,15.8000001907,0.0,1.138082471998377,2.625331252743537
1648296035476468729,72605,6,0,0.0127217965201,0.0439508594573,0.010212643072,0.0,15.5,0.004254781444849498,0.014699284099431437,0.0034155996896321067,15.5,0.0,0.015883176109414296,0.046880915437416903
1648296035476480469,72606,6,1,0.0335269682109,0.0146502861753,-0.0293109472841,0.0,15.5,0.01121303284645485,0.0048997612626421405,-0.00980299240270903,15.5,0.0,0.016597345319726262,0.046880914166899254
1648296035476486209,72607,6,2,1.91298043728,-0.120132349432,0.143561765552,0.0,15.5,0.6397927883879598,-0.040178043288294316,0.048013968412040135,15.5,0.0,0.905695257417724,1.9221175602247744
1648296035476493585,72608,6,3,2.24228429794,-1.2306240797,0.591684341431,0.0,15.5,0.7499278588428093,-0.4115799597658863,0.19788773960903008,15.5,0.0,1.1376210486001082,2.6253313806490004
1648296035476541772,72609,6,4,0.212053418159,-0.571361124516,0.00338094867766,-0.404594063759,15.5,0.07092087563846153,-0.19109067709565214,0.0011307520661070233,15.5,-0.05467487348094594,0.21581285428705826,0.6094518993120497
1648296035671212826,72610,8,0,0.0127419224009,0.0439508594573,0.0101875215769,0.0,25.2000007629,0.004261512508662207,0.014699284099431437,0.0034071978518060196,25.2000007629,0.0,0.01588678478354783,0.04688091540686569
1648296035671216451,72611,8,1,0.0335269682109,0.0146502861753,-0.0293109472841,0.0,25.2000007629,0.01121303284645485,0.0048997612626421405,-0.00980299240270903,25.2000007629,0.0,0.016597345319726262,0.046880914166899254
1648296035671221074,72612,8,2,1.91299104691,-0.120132349432,0.143421024084,0.0,25.2000007629,0.6397963367591972,-0.040178043288294316,0.04796689768695652,25.2000007629,0.0,0.905700270632317,1.9221176127092674
1648296035671347272,72613,8,3,2.24192404747,-1.2306240797,0.593048214912,0.0,25.2000007629,0.7498073737357859,-0.4115799597658863,0.19834388458595317,25.2000007629,0.0,1.1374622009974666,2.6253314543828647
1648296035776326944,72614,9,0,0.0127004906535,0.0439508594573,0.0102391270921,0.0,15.5,0.004247655736956521,0.014699284099431437,0.003424457221438127,15.5,0.0,0.01587936118221376,0.046880915450566385
1648296035776336617,72615,9,1,0.0335041433573,0.0146502861753,-0.0293370354921,0.0,15.5,0.011205399116153847,0.0048997612626421405,-0.009811717555886288,15.5,0.0,0.016587031052466603,0.046880914651800804
1648296035776354234,72616,9,2,1.96514821053,-0.12306240201,-0.00178447633516,0.0,15.5,0.6572402041906354,-0.04115799398327759,-0.000596814827812709,15.5,0.0,0.9303888179023992,1.9689984836188987
1648296035776358548,72617,9,3,2.24191808701,-1.2306240797,0.593070447445,0.0,15.5,0.749805380270903,-0.4115799597658863,0.19835132021571905,15.5,0.0,1.1374595728408443,2.625331386707717
1648296035971222555,72618,11,0,0.0127217965201,0.0439508594573,0.010212643072,0.0,16.0,0.004254781444849498,0.014699284099431437,0.0034155996896321067,16.0,0.0,0.015883176109414296,0.046880915437416903
1648296035971230730,72619,11,1,0.0335041433573,0.0146502861753,-0.0293370354921,0.0,16.0,0.011205399116153847,0.0048997612626421405,-0.009811717555886288,16.0,0.0,0.016587031052466603,0.046880914651800804
1648296035971254901,72620,11,2,0.356378763914,-0.0,1.06721067429,0.0,16.0,0.11919022204481604,-0.0,0.3569266469197324,16.0,0.0,0.16856042851803948,1.1251419673478484
1648296035971258929,72621,11,3,1.86358189583,-0.117202289402,0.172738134861,0.0,16.0,0.6232715370668895,-0.03919809010100334,0.057771951458528426,16.0,0.0,0.8823102108119415,1.8752366043626771
1648296035971265371,72622,11,4,2.24212503433,-1.2306240797,0.59228771925,0.0,16.0,0.7498745934214046,-0.4115799597658863,0.19808953821070233,16.0,0.0,1.137550823039886,2.625331414789596
1648296036076177288,72623,12,0,0.0127217965201,0.0439508594573,0.010212643072,0.0,15.8000001907,0.004254781444849498,0.014699284099431437,0.0034155996896321067,15.8000001907,0.0,0.015883176109414296,0.046880915437416903
1648296036076185701,72624,12,1,0.0335404723883,0.0146502861753,-0.0292954929173,0.0,15.8000001907,0.011217549293745818,0.0048997612626421405,-0.009797823718160533,15.8000001907,0.0,0.016603447977637752,0.046880913795659694
1648296036076216936,72625,12,2,1.83921635151,-0.175803437829,0.320762783289,0.0,15.8000001907,0.6151225255886287,-0.05879713639765886,0.10727852283913042,15.8000001907,0.0,0.8718993899651675,1.8752366249509838
1648296036076221210,72626,12,3,2.24353122711,-1.2306240797,0.586938738823,0.0,15.8000001907,0.7503448920100334,-0.4115799597658863,0.19630058154615382,15.8000001907,0.0,1.1381708910405264,2.625331422065852
1648296036076223811,72627,12,4,0.128426611423,-0.527410328388,-0.147753447294,0.161837622523,15.8000001907,0.0429520439541806,-0.1763914141765886,-0.04941586866020067,15.8000001907,0.021869948989594594,0.18655746341248466,0.5625710001405982
1648296036271231517,72628,14,0,0.0127121871337,0.0439508594573,0.0102246021852,0.0,12.6999998093,0.004251567603244147,0.014699284099431437,0.003419599393043478,12.6999998093,0.0,0.01588145482018912,0.04688091550517269
1648296036271240960,72629,14,1,0.0335041433573,0.0146502861753,-0.0293370354921,0.0,12.6999998093,0.011205399116153847,0.0048997612626421405,-0.009811717555886288,12.6999998093,0.0,0.016587031052466603,0.046880914651800804
1648296036271246717,72630,14,2,1.85246837139,-0.117202289402,0.266714692116,0.0,12.6999998093,0.6195546392608695,-0.03919809010100334,0.0892022381658863,12.6999998093,0.0,0.8770589446137008,1.87523656391185
1648296036271258828,72631,14,3,2.24216532707,-1.2306240797,0.59213501215,0.0,12.6999998093,0.7498880692541805,-0.4115799597658863,0.19803846560200666,12.6999998093,0.0,1.1375685896245613,2.625331379476936
1648296036376149123,72632,15,0,0.0127004906535,0.0439508594573,0.0102391270921,0.0,15.6999998093,0.004247655736956521,0.014699284099431437,0.003424457221438127,15.6999998093,0.0,0.01587936118221376,0.046880915450566385
1648296036376157309,72633,15,1,0.0335404723883,0.0146502861753,-0.0292954929173,0.0,15.6999998093,0.011217549293745818,0.0048997612626421405,-0.009797823718160533,15.6999998093,0.0,0.016603447977637752,0.046880913795659694
1648296036376168820,72634,15,2,1.85628294945,-0.0586011447012,0.259407013655,0.0,15.6999998093,0.6208304178762541,-0.019599045050568562,0.08675819854682275,15.6999998093,0.0,0.8782055215538689,1.8752366467495476
1648296036376174341,72635,15,3,1.95151495934,-0.184593603015,0.185659453273,0.0,15.6999998093,0.6526805884080268,-0.06173699097491638,0.062093462633110365,15.6999998093,0.0,0.9250920802946769,1.96899844270926
1648296036376189635,72636,15,4,2.24152183533,-1.2306240797,0.594566464424,0.0,15.6999998093,0.749672854625418,-0.4115799597658863,0.1988516603424749,15.6999998093,0.0,1.1372848549089778,2.6253314161104115
