%time,field.header.seq,field.header.frame_id,field.point_id,field.x,field.y,field.z,field.velocity,field.intensity,normalized_x,normalized_y,normalized_z,normalized_intensity,normalized_velocity,normalized_range,range
1648127208903797911,100059,0,0,0.0125787733123,0.0439508594573,0.0103882942349,0.0,12.8000001907,0.004206947596086956,0.014699284099431437,0.003474345897959866,12.8000001907,0.0,0.01585767224999437,0.04688091554341088
1648127208903807661,100060,0,1,0.0329373031855,0.0146502861753,-0.0299720410258,0.0,12.8000001907,0.011015820463377925,0.0048997612626421405,-0.010024093988561873,12.8000001907,0.0,0.016331082676713148,0.04688091370060926
1648127208903810094,100061,0,2,1.35357117653,0.0424858294427,-0.120028153062,0.0,12.8000001907,0.45269939014381266,0.01420930750591973,-0.04014319500401337,12.8000001907,0.0,0.6403712830014768,1.3595465174696002
1648127208903817668,100062,0,3,1.40262174606,-0.140642747283,0.513263821602,0.0,12.8000001907,0.469104262896321,-0.047037708121404675,0.17166014100401336,12.8000001907,0.0,0.665079066668254,1.500189286539936
1648127208903978510,100063,0,4,0.428293764591,0.281285494566,1.40996837616,0.0,12.8000001907,0.1432420617361204,0.09407541624280935,0.4715613298193979,12.8000001907,0.0,0.22335344287045786,1.500189288060689
1648127208903989104,100064,0,5,1.81656575203,-1.39177727699,0.50753891468,0.0,12.8000001907,0.6075470742575251,-0.4654773501638796,0.16974545641471572,12.8000001907,0.0,0.9771878316850575,2.344045833619422
1648127208904067868,100065,0,6,2.42480063438,-0.902457654476,0.445283353329,0.0,12.8000001907,0.8109701118327758,-0.30182530250033446,0.14892419843779262,12.8000001907,0.0,1.1859357308899787,2.625331445620513
1648127208904079412,100066,0,7,1.23468530178,-0.158223092556,-1.13968968391,-0.647350490093,12.8000001907,0.41293822802006686,-0.05291742225953177,-0.3811671183645484,12.8000001907,-0.08747979595851352,0.5863754888288724,1.6877129249550795
1648127208904109129,100067,0,8,1.51459550858,0.474669247866,0.573641598225,-0.647350490093,12.8000001907,0.506553681799331,0.15875225681137123,0.1918533773327759,12.8000001907,-0.08747979595851352,0.7337544167714559,1.6877129888385987
1648127209008651123,100068,1,0,0.0126038333401,0.0439508594573,0.0103578744456,0.0,24.6000003815,0.004215328876287625,0.014699284099431437,0.003464172055384615,24.6000003815,0.0,0.01586212306427883,0.04688091535935669
1648127209008668593,100069,1,1,0.032885145396,0.0146502861753,-0.0300292614847,0.0,24.6000003815,0.010998376386622074,0.0048997612626421405,-0.010043231265785952,24.6000003815,0.0,0.016307551217595504,0.04688091528597467
1648127209008672068,100070,1,2,1.35702216625,0.0424858294427,-0.0710825622082,0.0,24.6000003815,0.4538535673076923,0.01420930750591973,-0.023773432176655517,24.6000003815,0.0,0.6420031351447076,1.359546592084052
1648127209008677662,100071,1,3,1.82783555984,-1.39177727699,0.465321868658,0.0,24.6000003815,0.6113162407491638,-0.4654773501638796,0.15562604302943142,24.6000003815,0.0,0.9818779231263762,2.3440459176416915
1648127209008690834,100072,1,4,2.42224884033,-0.902457654476,0.45896166563,0.0,24.6000003815,0.8101166690066889,-0.30182530250033446,0.15349888482608695,24.6000003815,0.0,1.1847685630680806,2.625331421577134
1648127209203789396,100073,3,0,0.0125890737399,0.0439508594573,0.0103758089244,0.0,12.8999996185,0.004210392555150501,0.014699284099431437,0.003470170208829431,12.8999996185,0.0,0.01585950074790286,0.0468809154720728
1648127209203921644,100074,3,1,0.0328607447445,0.0146502861753,-0.0300559606403,0.0,12.8999996185,0.010990215633612039,0.0048997612626421405,-0.010052160749264214,12.8999996185,0.0,0.016296543798531928,0.04688091509551231
1648127209203925889,100075,3,2,1.35230791569,0.0424858294427,-0.133511319757,0.0,12.8999996185,0.4522768948795986,0.01420930750591973,-0.04465261530334448,12.8999996185,0.0,0.6397739317162436,1.3595466218723513
1648127209203927654,100076,3,3,1.83085310459,-1.39177727699,0.453303337097,0.0,12.8999996185,0.6123254530401337,-0.4654773501638796,0.15160646725652172,12.8999996185,0.0,0.9831348251370191,2.3440458602074785
1648127209203928754,100077,3,4,2.41915011406,-0.902457654476,0.475024372339,0.0,12.8999996185,0.8090803057056855,-0.30182530250033446,0.1588710275381271,12.8999996185,0.0,1.1833513406385396,2.625331454653849
1648127209203929769,100078,3,5,1.43254733086,0.290075659752,0.507041096687,0.0809188112617,12.8999996185,0.4791128196856187,0.09701527082006689,0.1695789621026756,12.8999996185,0.010934974494824324,0.6844780133404573,1.5470702690130869
1648127209308731153,100079,4,0,0.0125890737399,0.0439508594573,0.0103758089244,0.0,21.2999992371,0.004210392555150501,0.014699284099431437,0.003470170208829431,21.2999992371,0.0,0.01585950074790286,0.0468809154720728
1648127209308737346,100080,4,1,0.0328607447445,0.0146502861753,-0.0300559606403,0.0,21.2999992371,0.010990215633612039,0.0048997612626421405,-0.010052160749264214,21.2999992371,0.0,0.016296543798531928,0.04688091509551231
1648127209308739594,100081,4,2,1.35511624813,0.0424858294427,-0.101101897657,0.0,21.2999992371,0.45321613649832776,0.01420930750591973,-0.03381334369799331,21.2999992371,0.0,0.6411018929817159,1.3595464998885505
1648127209308742708,100082,4,3,1.31365954876,-0.0,0.621613919735,0.0,21.2999992371,0.4393510196521739,-0.0,0.20789763201839465,21.2999992371,0.0,0.6213361706345525,1.4533083895913619
1648127209308750223,100083,4,4,1.50317597389,0.241729736328,0.274691253901,0.0,21.2999992371,0.5027344394280936,0.08084606566153846,0.09186998458227424,21.2999992371,0.0,0.7155556718432946,1.5470703147805072
1648127209308752057,100084,4,5,1.82702994347,-1.39177727699,0.468474715948,0.0,21.2999992371,0.6110468038361203,-0.4654773501638796,0.15668050700602004,21.2999992371,0.0,0.9815424374280834,2.3440458533408104
1648127209308753725,100085,4,6,2.39645671844,-0.984499275684,0.424407333136,0.0,21.2999992371,0.8014905412842809,-0.32926397180066885,0.14194225188494983,21.2999992371,0.0,1.18033424870343,2.6253314479505527
1648127209308917159,100086,4,7,1.3185608387,-0.609451889992,0.374878317118,-0.242756426334,21.2999992371,0.4409902470568562,-0.20383006354247488,0.12537736358461538,21.2999992371,-0.03280492247756756,0.6561185036274038,1.5001893361217085
1648127209503872248,100087,6,0,0.0125890737399,0.0439508594573,0.0103758089244,0.0,36.4000015259,0.004210392555150501,0.014699284099431437,0.003470170208829431,36.4000015259,0.0,0.01585950074790286,0.0468809154720728
1648127209503876417,100088,6,1,0.0327970646322,0.0146502861753,-0.0301254354417,0.0,36.4000015259,0.010968917937190636,0.0048997612626421405,-0.010075396468795985,36.4000015259,0.0,0.016267820439645055,0.04688091503009433
1648127209504064397,100089,6,2,1.357427001,0.0424858294427,-0.0628779008985,0.0,36.4000015259,0.4539889635451505,0.01420930750591973,-0.021029398293812708,36.4000015259,0.0,0.6421945674493033,1.359546519678047
1648127209504226456,100090,6,3,1.77500271797,-1.46502864361,0.444530546665,0.0,36.4000015259,0.5936463939698996,-0.489976134986622,0.14867242363377925,36.4000015259,0.0,0.9720641414039296,2.3440458575541836
1648127209504243927,100091,6,4,1.36937499046,0.697353601456,0.423308700323,-0.404594063759,36.4000015259,0.45798494664214046,0.2332286292494983,0.14157481616153844,36.4000015259,-0.05467487348094594,0.6884010576714772,1.5939511177354613
1648127209504248155,100092,6,5,1.35130369663,-0.499574750662,0.191071793437,-0.242756426334,36.4000015259,0.45194103566220734,-0.16708185640869566,0.0639036098451505,36.4000015259,-0.03280492247756756,0.6606192142012167,1.453308309434765
1648127209608809183,100093,7,0,0.0126571767032,0.0439508594573,0.0102926222607,0.0,39.2000007629,0.004233169465953177,0.014699284099431437,0.0034423485821739124,39.2000007629,0.0,0.015871622490809013,0.046880915542817876
1648127209608814424,100094,7,1,0.032885145396,0.0146502861753,-0.0300292614847,0.0,39.2000007629,0.010998376386622074,0.0048997612626421405,-0.010043231265785952,39.2000007629,0.0,0.016307551217595504,0.04688091528597467
1648127209608819843,100095,7,2,1.35761654377,0.0424858294427,-0.0586438775063,0.0,39.2000007629,0.45405235577591974,0.01420930750591973,-0.019613336958628762,39.2000007629,0.0,0.6422841956572827,1.3595465530795217
1648127209608822473,100096,7,3,1.81955826283,-1.39177727699,0.496703863144,0.0,39.2000007629,0.6085479139899665,-0.4654773501638796,0.16612169335919733,39.2000007629,0.0,0.978432568324801,2.3440458588177835
1648127209608972204,100097,7,4,2.43068265915,-0.902457654476,0.41196680069,0.0,39.2000007629,0.8129373441973243,-0.30182530250033446,0.1377815386923077,39.2000007629,0.0,1.1886264191959628,2.625331341466367
1648127209608981195,100098,7,5,1.38837397099,0.46880915761,0.321252912283,-0.242756426334,39.2000007629,0.46433912073244143,0.15679236040468228,0.10744244557959866,39.2000007629,-0.03280492247756756,0.6751336774050198,1.500189235807219
