%time,field.header.seq,field.header.frame_id,field.point_id,field.x,field.y,field.z,field.velocity,field.intensity,normalized_x,normalized_y,normalized_z,normalized_intensity,normalized_velocity,normalized_range,range
1648219822757456627,89341,0,0,0.0123228654265,0.0439508594573,0.0106906108558,0.0,18.7999992371,0.004121359674414716,0.014699284099431437,0.003575455135719063,18.7999992371,0.0,0.015812658352332205,0.04688091530489902
1648219822757483544,89342,0,1,0.0334246940911,0.0146502861753,-0.0294275209308,0.0,18.7999992371,0.01117882745521739,0.0048997612626421405,-0.009841980244414716,18.7999992371,0.0,0.01655113370672634,0.04688091347482975
1648219822757485682,89343,0,2,1.6027354002,-0.527410268784,-0.0381146632135,0.0,18.7999992371,0.5360319064214046,-0.17639139424214045,-0.012747379001170569,18.7999992371,0.0,0.7783150604775788,1.6877129738865386
1648219822757490363,89344,0,3,0.563012838364,0.105482056737,1.58753418922,0.0,18.7999992371,0.18829860814849494,0.035278279845150494,0.5309478893712374,18.7999992371,0.0,0.268621087575331,1.6877128672847634
1648219822757493697,89345,0,4,1.82381606102,0.0571361146867,-0.115391276777,0.0,18.7999992371,0.6099719267625417,0.0191090684570903,-0.03859240025986622,18.7999992371,0.0,0.8628421984199155,1.8283557385783071
1648219822862342139,89346,1,0,0.0123228654265,0.0439508594573,0.0106906108558,0.0,16.6000003815,0.004121359674414716,0.014699284099431437,0.003575455135719063,16.6000003815,0.0,0.015812658352332205,0.04688091530489902
1648219822862345773,89347,1,1,0.0334246940911,0.0146502861753,-0.0294275209308,0.0,16.6000003815,0.01117882745521739,0.0048997612626421405,-0.009841980244414716,16.6000003815,0.0,0.01655113370672634,0.04688091347482975
1648219822862370833,89348,1,2,1.55407905579,-0.421928226948,-0.505163013935,0.0,16.6000003815,0.519758881535117,-0.14111311938060198,-0.16895084078093642,16.6000003815,0.0,0.7484727799530158,1.6877128935303285
1648219822862446188,89349,1,3,1.81505227089,0.0571361146867,0.212615415454,0.0,16.6000003815,0.6070408932742475,0.0191090684570903,0.0711088346,16.6000003815,0.0,0.8586981126750486,1.8283557084312436
1648219823057335784,89350,3,0,0.012225298211,0.0439508594573,0.0108020491898,0.0,17.2000007629,0.004088728498662207,0.014699284099431437,0.0036127254815384612,17.2000007629,0.0,0.015795706837851316,0.04688091541429279
1648219823057341303,89351,3,1,0.0334016978741,0.0146502861753,-0.0294536203146,0.0,17.2000007629,0.011171136412742476,0.0048997612626421405,-0.009850709135317725,17.2000007629,0.0,0.016540744781753033,0.0468809135526118
1648219823057349268,89352,3,2,1.61955761909,-0.474669247866,0.00984985940158,0.0,17.2000007629,0.5416580665852843,-0.15875225681137123,0.0032942673583879595,17.2000007629,0.0,0.7822973866992782,1.68771288913499
1648219823057351699,89353,3,3,1.85938370228,0.234404578805,0.065261259675,0.0,17.2000007629,0.6218674589565216,0.07839618020234114,0.02182650825250836,17.2000007629,0.0,0.8829406741612938,1.8752365959749175
1648219823162391985,89354,4,0,0.0123228654265,0.0439508594573,0.0106906108558,0.0,12.6000003815,0.004121359674414716,0.014699284099431437,0.003575455135719063,12.6000003815,0.0,0.015812658352332205,0.04688091530489902
1648219823162401564,89355,4,1,0.033485610038,0.0146502861753,-0.0293581876904,0.0,12.6000003815,0.01119920068160535,0.0048997612626421405,-0.009818791869698995,12.6000003815,0.0,0.016578656527132345,0.0468809145505924
1648219823162403568,89356,4,2,1.91023945808,0.180198520422,0.114234544337,0.0,12.6000003815,0.6388760729364548,0.06026706368628762,0.038205533223076925,12.6000003815,0.0,0.9055149872347666,1.9221175367515724
1648219823162427441,89357,4,3,1.73719680309,0.0571361146867,0.567245423794,-0.323675245047,12.6000003815,0.5810022752809364,0.0191090684570903,0.18971418855986621,12.6000003815,-0.04373989797932432,0.8218834736509475,1.828355720061838
1648219823162434248,89358,4,4,1.93504798412,0.061531201005,0.358828634024,-0.161837622523,12.6000003815,0.6471732388361203,0.020578996991638794,0.12000957659665551,12.6000003815,-0.021869948989594594,0.9154724994495739,1.9689984200449533
1648219823357315674,89359,6,0,0.00581256346777,0.0454158857465,0.0100713288411,0.0,16.7999992371,0.0019440011597892974,0.015189259446989964,0.003368337405050167,16.7999992371,0.0,0.015436057902408184,0.046880915486278305
1648219823357320952,89360,6,1,0.0334016978741,0.0146502861753,-0.0294536203146,0.0,16.7999992371,0.011171136412742476,0.0048997612626421405,-0.009850709135317725,16.7999992371,0.0,0.016540744781753033,0.0468809135526118
1648219823357485885,89361,6,2,1.86207485199,0.117202289402,-0.188290521502,0.0,16.7999992371,0.6227675090267558,0.03919809010100334,-0.06297341856254181,16.7999992371,0.0,0.8815981118777122,1.8752366388117914
1648219823357490060,89362,6,3,1.66867268085,-0.433648467064,0.190516129136,0.161837622523,16.7999992371,0.558084508645485,-0.14503293212842808,0.06371776894180602,16.7999992371,0.021869948989594594,0.8024656933364279,1.7345938730040091
1648219823357491641,89363,6,4,1.55256986618,-0.298865824938,0.202202856541,-0.404594063759,16.7999992371,0.5192541358461539,-0.09995512539732442,0.06762637342508361,16.7999992371,-0.05467487348094594,0.7411077804745183,1.5939510550451021
1648219823462301506,89364,7,0,0.012225298211,0.0439508594573,0.0108020491898,0.0,31.5,0.004088728498662207,0.014699284099431437,0.0036127254815384612,31.5,0.0,0.015795706837851316,0.04688091541429279
1648219823462303261,89365,7,1,0.0334016978741,0.0146502861753,-0.0294536203146,0.0,31.5,0.011171136412742476,0.0048997612626421405,-0.009850709135317725,31.5,0.0,0.016540744781753033,0.0468809135526118
1648219823462305022,89366,7,2,1.87155497074,0.117202289402,0.0075990180485,0.0,31.5,0.6259381173043478,0.03919809010100334,0.00254147760819398,31.5,0.0,0.8860776171739072,1.8752365531361568
1648219823462408441,89367,7,3,1.5989369154,-0.474669247866,0.257807940245,0.161837622523,31.5,0.5347615101672241,-0.15875225681137123,0.08622339138628761,31.5,0.021869948989594594,0.7727496519283356,1.6877129757017069
1648219823657320674,89368,9,0,0.0123228654265,0.0439508594573,0.0106906108558,0.0,27.8999996185,0.004121359674414716,0.014699284099431437,0.003575455135719063,27.8999996185,0.0,0.015812658352332205,0.04688091530489902
1648219823657326110,89369,9,1,0.0334246940911,0.0146502861753,-0.0294275209308,0.0,27.8999996185,0.01117882745521739,0.0048997612626421405,-0.009841980244414716,27.8999996185,0.0,0.01655113370672634,0.04688091347482975
1648219823657331076,89370,9,2,2.14550924301,-1.14272224903,0.184069886804,0.0,27.8999996185,0.7175616197357858,-0.3821813541906354,0.06156183505150501,27.8999996185,0.0,1.0843670705654413,2.437807575157966
1648219823657337748,89371,9,3,1.8481991291,0.117202289402,-0.294848918915,0.161837622523,27.8999996185,0.6181267990301003,0.03919809010100334,-0.09861167856688961,27.8999996185,0.021869948989594594,0.8750416959356635,1.875236593721553
1648219823657342678,89372,9,4,1.64276087284,-0.36918720603,-0.115811862051,-0.0809188112617,27.8999996185,0.5494183521204014,-0.12347398194983276,-0.038733064231103675,27.8999996185,-0.010934974494824324,0.786744479174746,1.6877129097752368
1648219823762360085,89373,10,0,0.0123228654265,0.0439508594573,0.0106906108558,0.0,13.3999996185,0.004121359674414716,0.014699284099431437,0.003575455135719063,13.3999996185,0.0,0.015812658352332205,0.04688091530489902
1648219823762362776,89374,10,1,0.0334246940911,0.0146502861753,-0.0294275209308,0.0,13.3999996185,0.01117882745521739,0.0048997612626421405,-0.009841980244414716,13.3999996185,0.0,0.01655113370672634,0.04688091347482975
1648219823762364711,89375,10,2,1.61854302883,-0.474669247866,0.0581603124738,0.0,13.3999996185,0.5413187387391304,-0.15875225681137123,0.019451609523010033,13.3999996185,0.0,0.7818274955915463,1.687712965225697
1648219823762366486,89376,10,3,1.86400818825,0.175803437829,-0.105257637799,0.0,13.3999996185,0.6234141097826086,0.05879713639765886,-0.035203223344147154,13.3999996185,0.0,0.8835991216613163,1.875236663712228
1648219823957395816,89377,12,0,0.0122477002442,0.0439508594573,0.01077664271,0.0,14.8000001907,0.004096220817458194,0.014699284099431437,0.0036042283311036784,14.8000001907,0.0,0.015799588697385562,0.04688091548174064
1648219823957405215,89378,12,1,0.0335084721446,0.0146502861753,-0.0293320901692,0.0,14.8000001907,0.01120684687110368,0.0048997612626421405,-0.00981006360173913,14.8000001907,0.0,0.01658898713049176,0.046880914071482226
1648219823957569106,89379,12,2,1.86495733261,0.175803437829,0.0868300721049,0.0,14.8000001907,0.6237315493678929,0.05879713639765886,0.029040157894615382,14.8000001907,0.0,0.8840470545182023,1.875236561778285
1648219824062422032,89380,13,0,0.0123228654265,0.0439508594573,0.0106906108558,0.0,17.2000007629,0.004121359674414716,0.014699284099431437,0.003575455135719063,17.2000007629,0.0,0.015812658352332205,0.04688091530489902
1648219824062437630,89381,13,1,0.0334246940911,0.0146502861753,-0.0294275209308,0.0,17.2000007629,0.01117882745521739,0.0048997612626421405,-0.009841980244414716,17.2000007629,0.0,0.01655113370672634,0.04688091347482975
1648219824062519614,89382,13,2,1.61234807968,-0.421928226948,0.265866875648,0.0,17.2000007629,0.5392468493913043,-0.14111311938060198,0.0889186875076923,17.2000007629,0.0,0.7755560854111196,1.687712935990625
1648219824062522533,89383,13,3,1.86398327351,0.117202289402,-0.16835257411,0.0,17.2000007629,0.6234057770936454,0.03919809010100334,-0.056305208732441464,17.2000007629,0.0,0.8824998674759279,1.875236681002051
1648219824257379241,89384,15,0,0.0123317306861,0.0439508594573,0.0106803840026,0.0,16.1000003815,0.004124324644180602,0.014699284099431437,0.0035720347834782605,16.1000003815,0.0,0.01581420439279159,0.046880915426139355
1648219824257381743,89385,15,1,0.0334246940911,0.0146502861753,-0.0294275209308,0.0,16.1000003815,0.01117882745521739,0.0048997612626421405,-0.009841980244414716,16.1000003815,0.0,0.01655113370672634,0.04688091347482975
1648219824257384298,89386,15,2,1.67759215832,-0.433648467064,-0.08031052351,0.0,16.1000003815,0.5610676114782608,-0.14503293212842808,-0.02685970685953177,16.1000003815,0.0,0.8066153238698174,1.7345939648315867
1648219824257388975,89387,15,3,1.84528303146,0.234404578805,0.237691760063,0.0,16.1000003815,0.6171515155384615,0.07839618020234114,0.07949557192742475,16.1000003815,0.0,0.8762978645033649,1.8752366105536666
