%time,field.header.seq,field.header.frame_id,field.point_id,field.x,field.y,field.z,field.velocity,field.intensity,normalized_x,normalized_y,normalized_z,normalized_intensity,normalized_velocity,normalized_range,range
1648294676364889206,21139,0,0,0.0126678450033,0.0439508594573,0.0102794887498,0.0,21.3999996185,0.004236737459297658,0.014699284099431437,0.0034379561036120398,21.3999996185,0.0,0.015873526439762208,0.046880915445629195
1648294676364903916,21140,0,1,0.0336130186915,0.0146502861753,-0.0292122270912,0.0,21.3999996185,0.01124181227140468,0.0048997612626421405,-0.009769975615785952,21.3999996185,0.0,0.016636235954142337,0.04688091426370814
1648294676364908235,21141,0,2,2.24012255669,-1.2306240797,0.599816918373,0.0,21.3999996185,0.7492048684581939,-0.4115799597658863,0.20060766500769228,21.3999996185,0.0,1.1366679080205475,2.6253314133829457
1648294676364911358,21142,0,3,1.9104231596,-0.120132349432,0.174320578575,-0.0809188112617,21.3999996185,0.6389375115719064,-0.040178043288294316,0.05830119684782608,21.3999996185,-0.010934974494824324,0.9044869056818213,1.9221176067636503
1648294676559922430,21143,2,0,0.0126474238932,0.0439508594573,0.0103046037257,0.0,14.6999998093,0.004229907656588629,0.014699284099431437,0.003446355761103679,14.6999998093,0.0,0.01586988313133818,0.04688091547861809
1648294676559926295,21144,2,1,0.033514522016,0.0146502861753,-0.0293251797557,0.0,14.6999998093,0.011208870239464881,0.0048997612626421405,-0.009807752426655518,14.6999998093,0.0,0.016591720963215706,0.0468809155060271
1648294676559928505,21145,2,2,1.96344840527,-0.12306240201,0.0817372426391,0.0,14.6999998093,0.6566717074481605,-0.04115799398327759,0.02733687044785953,14.6999998093,0.0,0.9295856298343325,1.9689984692172873
1648294676559930542,21146,2,3,2.24053025246,-1.2306240797,0.598292350769,0.0,14.6999998093,0.7493412215585284,-0.4115799597658863,0.20009777617692306,14.6999998093,0.0,1.1368476573114552,2.62533144092601
1648294676665071148,21147,3,0,0.0126902572811,0.0439508594573,0.0102518079802,0.0,15.0,0.004244233204381271,0.014699284099431437,0.0034286983211371234,15.0,0.0,0.015877530791094153,0.04688091556015881
1648294676665073317,21148,3,1,0.0335994325578,0.0146502861753,-0.0292278509587,0.0,15.0,0.011237268413979932,0.0048997612626421405,-0.009775200989531772,15.0,0.0,0.01663009510635915,0.0468809132258355
1648294676665075343,21149,3,2,1.90290749073,-0.180198520422,0.202503144741,0.0,15.0,0.6364239099431438,-0.06026706368628762,0.067726804261204,15.0,0.0,0.9020548238660467,1.9221175688985879
1648294676665079343,21150,3,3,2.23974132538,-1.2306240797,0.60123872757,0.0,15.0,0.749077366347826,-0.4115799597658863,0.20108318647826084,15.0,0.0,1.1364998305455567,2.6253313767375013
1648294676859837040,21151,5,0,0.00645879795775,0.0454158857465,0.00966961681843,0.0,15.1999998093,0.002160133096237458,0.015189259446989964,0.003233985558003344,15.1999998093,0.0,0.015493416425530385,0.04688091550528254
1648294676859839168,21152,5,1,0.033514522016,0.0146502861753,-0.0293251797557,0.0,15.1999998093,0.011208870239464881,0.0048997612626421405,-0.009807752426655518,15.1999998093,0.0,0.016591720963215706,0.0468809155060271
1648294676859840917,21153,5,2,1.91632294655,-0.120132349432,0.0883772522211,0.0,15.1999998093,0.6409106844648829,-0.040178043288294316,0.029557609438494982,15.1999998093,0.0,0.9072746475488915,1.9221175706923546
1648294676859845166,21154,5,3,2.24029970169,-1.2306240797,0.599155008793,0.0,15.1999998093,0.749264114277592,-0.4115799597658863,0.2003862905662207,15.1999998093,0.0,1.1367460090843766,2.6253314273614134
1648294676964970000,21155,6,0,0.0126699265093,0.0439508594573,0.0102769229561,0.0,14.3999996185,0.004237433615150501,0.014699284099431437,0.0034370979786287623,14.3999996185,0.0,0.015873898082116214,0.04688091541589194
1648294676964976566,21156,6,1,0.0335509069264,0.0146502861753,-0.0292835440487,0.0,14.3999996185,0.011221039105819395,0.0048997612626421405,-0.009793827441036788,14.3999996185,0.0,0.016608163584802046,0.0468809150151135
1648294676964980368,21157,6,2,1.96086537838,-0.12306240201,0.129681423306,0.0,14.3999996185,0.6558078188561872,-0.04115799398327759,0.043371713480267554,14.3999996185,0.0,0.9283651065257391,1.9689983896561425
1648294676964982395,21158,6,3,2.24140429497,-1.2306240797,0.595009446144,0.0,14.3999996185,0.7496335434682274,-0.4115799597658863,0.19899981476387957,14.3999996185,0.0,1.1372330290078416,2.6253314228965503
1648294677159836308,21159,8,0,0.0126474238932,0.0439508594573,0.0103046037257,0.0,14.3999996185,0.004229907656588629,0.014699284099431437,0.003446355761103679,14.3999996185,0.0,0.01586988313133818,0.04688091547861809
1648294677159839888,21160,8,1,0.0336356125772,0.0146502861753,-0.0291862115264,0.0,14.3999996185,0.011249368754916387,0.0048997612626421405,-0.00976127475799331,14.3999996185,0.0,0.016646448726352014,0.04688091575177948
1648294677159978158,21161,8,2,2.24012613297,-1.2306240797,0.599803686142,0.0,14.3999996185,0.7492060645384615,-0.4115799597658863,0.20060323951237455,14.3999996185,0.0,1.1366694847506496,2.6253314417539984
1648294677264972484,21162,9,0,0.0126474238932,0.0439508594573,0.0103046037257,0.0,14.5,0.004229907656588629,0.014699284099431437,0.003446355761103679,14.5,0.0,0.01586988313133818,0.04688091547861809
1648294677264974914,21163,9,1,0.033514522016,0.0146502861753,-0.0293251797557,0.0,14.5,0.011208870239464881,0.0048997612626421405,-0.009807752426655518,14.5,0.0,0.016591720963215706,0.0468809155060271
1648294677264977071,21164,9,2,2.01488566399,0.0629962310195,-0.00608276575804,0.0,14.5,0.6738748040100334,0.021068973585117053,-0.0020343698187424747,14.5,0.0,0.9532357549982335,2.0158794021752273
1648294677264979567,21165,9,3,2.24052262306,-1.2306240797,0.59832072258,0.0,14.5,0.7493386699197324,-0.4115799597658863,0.20010726507692306,14.5,0.0,1.1368442935402525,2.6253313956622293
1648294677459897356,21166,11,0,0.00631333654746,0.0454158857465,0.00976521056145,0.0,14.3999996185,0.0021114837951371236,0.015189259446989964,0.0032659567095150496,14.3999996185,0.0,0.015479997744903816,0.04688091545405326
1648294677459903594,21167,11,1,0.0335281863809,0.0146502861753,-0.0293095558882,0.0,14.3999996185,0.011213440261170568,0.0048997612626421405,-0.0098025270529097,14.3999996185,0.0,0.016597895812800207,0.04688091544940301
1648294677459906535,21168,11,2,2.01368021965,0.0629962310195,0.0699524283409,0.0,14.3999996185,0.6734716453678928,0.021068973585117053,0.023395460983578593,14.3999996185,0.0,0.9526657419457277,2.0158794344809223
1648294677459908970,21169,11,3,2.2392809391,-1.2306240797,0.602950751781,0.0,14.3999996185,0.7489233910033444,-0.4115799597658863,0.2016557698264214,14.3999996185,0.0,1.136296860184338,2.625331285538517
1648294677565029885,21170,12,0,0.0126678450033,0.0439508594573,0.0102794887498,0.0,14.5,0.004236737459297658,0.014699284099431437,0.0034379561036120398,14.5,0.0,0.015873526439762208,0.046880915445629195
1648294677565035966,21171,12,1,0.0335372425616,0.0146502861753,-0.0292991939932,0.0,14.5,0.011216469084147156,0.0048997612626421405,-0.00979906153618729,14.5,0.0,0.016601988370738802,0.04688091607791967
1648294677565040991,21172,12,2,2.00875496864,0.0629962310195,0.157178446651,0.0,14.5,0.6718244042274246,0.021068973585117053,0.05256804235819398,14.5,0.0,0.9503367623526927,2.0158794887716303
1648294677565046497,21173,12,3,2.23883986473,-1.2306240797,0.604586362839,0.0,14.5,0.7487758744916387,-0.4115799597658863,0.2022027969361204,14.5,0.0,1.1361024089941563,2.625331262064391
1648294677760029377,21174,14,0,0.00628323899582,0.0454158857465,0.00978460349143,0.0,14.3000001907,0.002101417724354515,0.015189259446989964,0.0032724426392742472,14.3000001907,0.0,0.01547725800820147,0.0468809154763667
1648294677760032261,21175,14,1,0.0336130186915,0.0146502861753,-0.0292122270912,0.0,14.3000001907,0.01124181227140468,0.0048997612626421405,-0.009769975615785952,14.3000001907,0.0,0.016636235954142337,0.04688091426370814
1648294677760034227,21176,14,2,0.528947591782,-0.640217542648,-0.322101086378,0.0,14.3000001907,0.1769055490909699,-0.21411957948093643,-0.10772611584548494,14.3000001907,0.0,0.32929977363406765,0.8907374285456455
1648294677760052241,21177,14,3,1.8584445715,-0.175803437829,0.178295597434,0.0,14.3000001907,0.6215533683946488,-0.05879713639765886,0.059630634593311034,14.3000001907,0.0,0.8809734858518916,1.8752366235103932
1648294677760060169,21178,14,4,2.01540231705,-0.0,0.0438603721559,0.0,14.3000001907,0.6740475976755852,-0.0,0.014669020787926422,14.3000001907,0.0,0.9532472543178161,2.0158795181796365
1648294677760241308,21179,14,5,2.24120521545,-1.2306240797,0.59575855732,0.0,14.3000001907,0.7495669616889632,-0.4115799597658863,0.1992503536187291,14.3000001907,0.0,1.1371452516684648,2.6253313508808294
1648294677865053920,21180,15,0,0.0126902572811,0.0439508594573,0.0102518079802,0.0,14.3000001907,0.004244233204381271,0.014699284099431437,0.0034286983211371234,14.3000001907,0.0,0.015877530791094153,0.04688091556015881
1648294677865056509,21181,15,1,0.0335877910256,0.0146502861753,-0.0292412284762,0.0,14.3000001907,0.011233374924949833,0.0048997612626421405,-0.009779675075652174,14.3000001907,0.0,0.016624833377807784,0.04688091332082697
1648294677865062652,21182,15,2,0.446345955133,-0.612381994724,-0.46816316247,0.0,14.3000001907,0.14927958365652175,-0.20481003168026754,-0.15657630851839463,14.3000001907,0.0,0.29413591632135155,0.8907374281008107
1648294677865069358,21183,15,3,2.01381134987,0.0629962310195,0.0660650804639,0.0,14.3000001907,0.6735155016287625,0.021068973585117053,0.022095344636755852,14.3000001907,0.0,0.9527277488959884,2.015879280325237
1648294677865072096,21184,15,4,2.19706559181,-1.31266570091,0.584958851337,0.0,14.3000001907,0.7348045457558527,-0.4390186290668896,0.19563841181839464,14.3000001907,0.0,1.1281014128147795,2.6253314676090844
1648294678059852910,21185,17,0,0.0126678450033,0.0439508594573,0.0102794887498,0.0,14.3999996185,0.004236737459297658,0.014699284099431437,0.0034379561036120398,14.3999996185,0.0,0.015873526439762208,0.046880915445629195
1648294678059858728,21186,17,1,0.033514522016,0.0146502861753,-0.0293251797557,0.0,14.3999996185,0.011208870239464881,0.0048997612626421405,-0.009807752426655518,14.3999996185,0.0,0.016591720963215706,0.0468809155060271
1648294678060025619,21187,17,2,0.337746918201,-0.606521844864,-0.479741573334,0.0,14.3999996185,0.1129588355187291,-0.20285011533913042,-0.16044868673377927,14.3999996185,0.0,0.25820063194460446,0.8438564488326701
1648294678060029954,21188,17,3,0.5924218297,-0.290075659752,0.526294767857,0.0,14.3999996185,0.19813439120401335,-0.09701527082006689,0.1760183170090301,14.3999996185,0.0,0.29652392269066746,0.8438564423877485
1648294678060038311,21189,17,4,2.24198031425,-1.2306240797,0.592835426331,0.0,14.3999996185,0.7498261920568562,-0.4115799597658863,0.1982727178364548,14.3999996185,0.0,1.1374870108576447,2.6253314453102985
