%time,field.header.seq,field.header.frame_id,field.point_id,field.x,field.y,field.z,field.velocity,field.intensity,normalized_x,normalized_y,normalized_z,normalized_intensity,normalized_velocity,normalized_range,range
1648126879601698380,84706,0,0,0.012588663958,0.0439508594573,0.0103763062507,0.0,27.7999992371,0.004210255504347826,0.014699284099431437,0.003470336538695652,27.7999992371,0.0,0.015859427980213545,0.04688091550611081
1648126879601703055,84707,0,1,0.0327516309917,0.0146502861753,-0.0301748234779,0.0,27.7999992371,0.010953722739698996,0.0048997612626421405,-0.010091914206655518,27.7999992371,0.0,0.016247330369857264,0.04688091498208087
1648126879601706757,84708,0,2,1.90918922424,-1.24527442455,0.546661913395,0.0,27.7999992371,0.638524824160535,-0.4164797406521739,0.18283007136956522,27.7999992371,0.0,0.9944261040983319,2.344045889898308
1648126879601715532,84709,0,3,2.41983413696,-0.902457654476,0.471526920795,0.0,27.7999992371,0.8093090759063545,-0.30182530250033446,0.1577013113026756,27.7999992371,0.0,1.1836641727779942,2.625331351573299
1648126879601788688,84710,0,4,1.20370280743,0.082041606307,0.51716542244,0.161837622523,27.7999992371,0.4025761897759197,0.027438664316722407,0.1729650242274247,27.7999992371,0.021869948989594594,0.5699895239813451,1.3126657411343683
1648126879601798424,84711,0,5,1.40448069572,-0.0,0.373549282551,0.161837622523,27.7999992371,0.4697259851906354,-0.0,0.12493287041839464,27.7999992371,0.021869948989594594,0.6642928588556603,1.4533083262489424
1648126879601808661,84712,0,6,1.56151497364,-0.0,0.319923609495,0.242756426334,27.7999992371,0.5222458105819398,-0.0,0.10699786270735785,27.7999992371,0.03280492247756756,0.7385671082175097,1.5939511061554679
1648126879601832620,84713,0,7,1.08842885494,-0.158223092556,0.626497447491,-0.161837622523,27.7999992371,0.36402302840802675,-0.05291742225953177,0.20953091889331102,27.7999992371,-0.021869948989594594,0.5175188730870554,1.265784725376603
1648126879706743314,84714,1,0,0.0125577617437,0.0439508594573,0.0104136830196,0.0,24.2999992371,0.004199920315618728,0.014699284099431437,0.0034828371303010034,24.2999992371,0.0,0.015853946333670103,0.04688091531827826
1648126879706748868,84715,1,1,0.0328392535448,0.0146502861753,-0.0300794392824,0.0,24.2999992371,0.010983027941404683,0.0048997612626421405,-0.01006001313792642,24.2999992371,0.0,0.016286849479080982,0.04688091430359943
1648126879706755859,84716,1,2,0.257709681988,-1.58955609798,0.315003216267,0.0,24.2999992371,0.08619052909297657,-0.5316241130367892,0.10535224624314381,24.2999992371,0.0,0.5454189327231017,1.6408320740021858
1648126879706776443,84717,1,3,1.8730700016,-1.31852579117,0.497644126415,0.0,24.2999992371,0.6264448165886287,-0.44097852547491634,0.166436162680602,24.2999992371,0.0,0.9896101638481452,2.344045897466525
1648126879706783861,84718,1,4,2.42172312737,-0.902457654476,0.461727648973,0.0,24.2999992371,0.8099408452742474,-0.30182530250033446,0.15442396286722407,24.2999992371,0.0,1.1845281165580424,2.625331435378625
1648126879706842655,84719,1,5,1.19632542133,-0.118667319417,0.396149605513,0.161837622523,24.2999992371,0.4001088365652174,-0.039688066694648826,0.1324915068605351,24.2999992371,0.021869948989594594,0.5672294992620734,1.2657847195973428
1648126879706895226,84720,1,6,1.61242091656,-0.102552004158,0.286202251911,0.323675245047,24.2999992371,0.5392712095518395,-0.034298329149832774,0.09571981669264214,24.2999992371,0.04373989797932432,0.763415516141425,1.640832061704043
1648126879706901818,84721,1,7,1.22718203068,0.164083212614,0.436110258102,0.404594063759,24.2999992371,0.4104287728026756,0.054877328633444813,0.14585627361270903,24.2999992371,0.05467487348094594,0.5830223634532072,1.3126656826120704
1648126879706905484,84722,1,8,1.37528049946,-0.0,0.469796508551,0.404594063759,24.2999992371,0.45996003326421403,-0.0,0.15712257811070235,24.2999992371,0.05467487348094594,0.6504817171918315,1.4533083677050982
1648126879706915605,84723,1,9,1.5939552784,0.153828009963,0.357733756304,0.485512852669,24.2999992371,0.5330954108361203,0.05144749497090301,0.11964339675719063,24.2999992371,0.06560984495527027,0.7556641309787338,1.6408320836050738
1648126879802089120,84724,2,0,0.0126767531037,0.0439508594573,0.0102685010061,0.0,32.5999984741,0.004239716757090301,0.014699284099431437,0.0034342812729431437,32.5999984741,0.0,0.01587511730339346,0.04688091540488284
1648126879802099521,84725,2,1,0.0328392535448,0.0146502861753,-0.0300794392824,0.0,32.5999984741,0.010983027941404683,0.0048997612626421405,-0.01006001313792642,32.5999984741,0.0,0.016286849479080982,0.04688091430359943
1648126879802104376,84726,2,2,0.248132571578,-1.58955609798,0.32260119915,0.0,32.5999984741,0.08298748213311036,-0.5316241130367892,0.10789337764214046,32.5999984741,0.0,0.5444245052748263,1.6408320741003124
1648126879802109679,84727,2,3,1.87234079838,-1.31852579117,0.500380754471,0.0,32.5999984741,0.6262009359130435,-0.44097852547491634,0.16735142290000002,32.5999984741,0.0,0.98930141221307,2.3440459096834467
1648126879802119782,84728,2,4,2.42214369774,-0.902457654476,0.459516584873,0.0,32.5999984741,0.8100815042608696,-0.30182530250033446,0.15368447654615383,32.5999984741,0.0,1.184720473495974,2.6253314842886546
1648126879802125286,84729,2,5,1.24670481682,-0.0410208031535,0.40882229805,0.566431701183,32.5999984741,0.416958132715719,-0.013719332158361203,0.13672986556856184,32.5999984741,0.07654482448418919,0.5898274230234042,1.3126657144743406
1648126879802136294,84730,2,6,1.65391373634,-0.0527410283685,0.331907212734,0.566431701183,32.5999984741,0.5531484068026755,-0.017639139922575247,0.11100575676722406,32.5999984741,0.07654482448418919,0.7824688231194163,1.687712849151881
1648126879906884330,84731,3,0,0.012588663958,0.0439508594573,0.0103763062507,0.0,34.9000015259,0.004210255504347826,0.014699284099431437,0.003470336538695652,34.9000015259,0.0,0.015859427980213545,0.04688091550611081
1648126879906889986,84732,3,1,0.0328392535448,0.0146502861753,-0.0300794392824,0.0,34.9000015259,0.010983027941404683,0.0048997612626421405,-0.01006001313792642,34.9000015259,0.0,0.016286849479080982,0.04688091430359943
1648126879906893256,84733,3,2,0.242971166968,-1.58955609798,0.326506227255,0.0,34.9000015259,0.0812612598555184,-0.5316241130367892,0.10919940710869565,34.9000015259,0.0,0.543903467785199,1.6408320733821267
1648126879906917165,84734,3,3,1.90005111694,-1.24527442455,0.577623188496,0.0,34.9000015259,0.6354686009832776,-0.4164797406521739,0.19318501287491638,34.9000015259,0.0,0.9905029328805596,2.344045901280852
1648126879906934002,84735,3,4,2.41898560524,-0.902457654476,0.475860774517,0.0,34.9000015259,0.8090252860334448,-0.30182530250033446,0.15915076070802675,34.9000015259,0.0,1.183276104766936,2.6253313416032977
1648126879906939002,84736,3,5,1.73145949841,0.054206058383,0.0890267640352,0.566431701183,34.9000015259,0.5790834442842809,0.01812911651605351,0.029774837469966554,34.9000015259,0.07654482448418919,0.8191482989996038,1.7345939167753959
1648126879906961609,84737,3,6,1.73087120056,-0.054206058383,0.0998136550188,0.566431701183,34.9000015259,0.5788866891505017,-0.01812911651605351,0.033382493317324416,34.9000015259,0.07654482448418919,0.8188701133982799,1.7345939511659922
1648126879907086203,84738,3,7,0.799397170544,-0.199243888259,-1.36453151703,-0.566431701183,34.9000015259,0.26735691322541805,-0.06663675192608695,-0.45636505586287623,34.9000015259,-0.07654482448418919,0.3839269394117926,1.593951136092481
1648126879907164925,84739,3,8,1.50606131554,0.398487776518,0.337145298719,-0.566431701183,34.9000015259,0.5036994366354515,0.1332735038521739,0.1127576249896321,34.9000015259,-0.07654482448418919,0.7246986075347307,1.5939511117498737
1648126879907168987,84740,3,9,1.11871111393,-0.0483459457755,-1.06750869751,-0.485512852669,34.9000015259,0.3741508742240802,-0.016169212633946488,-0.35702632023745823,34.9000015259,-0.06560984495527027,0.5293762336963086,1.5470703623826958
1648126879907240724,84741,3,10,1.4049526453,0.483459472656,0.431046694517,-0.485512852669,34.9000015259,0.46988382785953176,0.16169213132307692,0.14416277408595318,34.9000015259,-0.06560984495527027,0.683904941274481,1.5470702149838957
1648126879907253256,84742,3,11,1.22817134857,-0.0,-0.685298085213,-0.323675245047,34.9000015259,0.41075964835117057,-0.0,-0.22919668401772572,34.9000015259,-0.04373989797932432,0.5809018655738287,1.4064275050797523
1648126879907347880,84743,3,12,1.24188745022,0.483459442854,0.449467390776,-0.323675245047,34.9000015259,0.4153469733177257,0.16169212135585284,0.15032354206555182,34.9000015259,-0.04373989797932432,0.6092376864549229,1.4064275336005116
1648126880101888666,84744,5,0,0.012588663958,0.0439508594573,0.0103763062507,0.0,32.2000007629,0.004210255504347826,0.014699284099431437,0.003470336538695652,32.2000007629,0.0,0.015859427980213545,0.04688091550611081
1648126880101911206,84745,5,1,0.0328392535448,0.0146502861753,-0.0300794392824,0.0,32.2000007629,0.010983027941404683,0.0048997612626421405,-0.01006001313792642,32.2000007629,0.0,0.016286849479080982,0.04688091430359943
1648126880101973023,84746,5,2,0.17828668654,-1.58955609798,0.365862220526,0.0,32.2000007629,0.059627654361204006,-0.5316241130367892,0.12236194666421403,32.2000007629,0.0,0.5382704820918487,1.6408320741718305
1648126880101976450,84747,5,3,1.87545001507,-1.31852579117,0.488598287106,0.0,32.2000007629,0.627240807715719,-0.44097852547491634,0.16341079836321068,32.2000007629,0.0,0.9906180503391641,2.3440459268473077
1648126880101984098,84748,5,4,2.42259335518,-0.902457654476,0.457139849663,0.0,32.2000007629,0.8102318913645484,-0.30182530250033446,0.15288958182709028,32.2000007629,0.0,1.1849261364311976,2.6253314504714496
1648126880101989987,84749,5,5,1.84658026695,0.0586011447012,0.32127815485,0.485512852669,32.2000007629,0.6175853735618728,0.019599045050568562,0.10745088790969899,32.2000007629,0.06560984495527027,0.8736174848536459,1.875236632863502
1648126880101994148,84750,5,6,1.10610830784,-0.216824233532,-1.31845653057,-0.566431701183,32.2000007629,0.369935888909699,-0.07251646606421404,-0.4409553613946488,32.2000007629,-0.07654482448418919,0.5281702014097923,1.7345938890478338
1648126880101996885,84751,5,7,1.59128785133,0.433648467064,0.537185370922,-0.566431701183,32.2000007629,0.5322032947591973,0.14503293212842808,0.17966065917123744,32.2000007629,-0.07654482448418919,0.7664954307149255,1.7345939413908986
1648126880401957531,84752,8,0,0.0126626174897,0.0439508594573,0.0102859269828,0.0,32.4000015259,0.004234989126989966,0.014699284099431437,0.0034401093587959866,32.4000015259,0.0,0.015872593324571898,0.04688091533472108
1648126880402123562,84753,8,1,0.0328148305416,0.0146502861753,-0.030106080696,0.0,32.4000015259,0.010974859712909697,0.0048997612626421405,-0.010068923309698996,32.4000015259,0.0,0.016275833369354245,0.04688091384952062
1648126880402129047,84754,8,2,0.2522136271,-1.58955609798,0.319420725107,0.0,32.4000015259,0.08435238364548495,-0.5316241130367892,0.10682967394882942,32.4000015259,0.0,0.544843873798268,1.6408320760968267
1648126880402131576,84755,8,3,1.7766494751,-0.420463234186,0.601051747799,0.0,32.4000015259,0.5941971488628762,-0.14062315524615385,0.2010206514377926,32.4000015259,0.0,0.8520066755753303,1.9221175542113673
1648126880402133504,84756,8,4,2.42057919502,-0.902457654476,0.467687755823,0.0,32.4000015259,0.8095582592040134,-0.30182530250033446,0.1564173096397993,32.4000015259,0.0,1.1840049253783884,2.6253314637265803
1648126880402138082,84757,8,5,1.93038213253,0.061531201005,0.383136630058,0.242756426334,32.4000015259,0.645612753354515,0.020578996991638794,0.12813934115652173,32.4000015259,0.03280492247756756,0.9132661987094329,1.9689984620563796
1648126880402140247,84758,8,6,1.83608043194,0.240264698863,0.51538091898,0.404594063759,32.4000015259,0.6140737230568561,0.08035608657625418,0.1723682003277592,32.4000015259,0.05467487348094594,0.8721411441662796,1.9221175743750367
1648126880507024839,84759,9,0,0.0126767531037,0.0439508594573,0.0102685010061,0.0,36.2999992371,0.004239716757090301,0.014699284099431437,0.0034342812729431437,36.2999992371,0.0,0.01587511730339346,0.04688091540488284
1648126880507035888,84760,9,1,0.0327516309917,0.0146502861753,-0.0301748234779,0.0,36.2999992371,0.010953722739698996,0.0048997612626421405,-0.010091914206655518,36.2999992371,0.0,0.016247330369857264,0.04688091498208087
1648126880507040569,84761,9,2,0.257842063904,-1.58955609798,0.314894855022,0.0,36.2999992371,0.0862348039812709,-0.5316241130367892,0.10531600502408026,36.2999992371,0.0,0.5454329293300225,1.6408320719266198
1648126880507050304,84762,9,3,2.42851138115,-0.902457654476,0.424579799175,0.0,36.2999992371,0.8122111642642139,-0.30182530250033446,0.14199993283444814,36.2999992371,0.0,1.1876331352485405,2.62533147475988
1648126880507056858,84763,9,4,1.9961322546,-0.0629962310195,0.274330288172,0.0809188112617,36.2999992371,0.667602760735786,-0.021068973585117053,0.09174926025819398,36.2999992371,0.010934974494824324,0.9443679335576873,2.0158793639465817
1648126880507059724,84764,9,5,1.18028652668,0.629962325096,1.50792610645,0.0809188112617,36.2999992371,0.39474465775250833,0.2106897408347826,0.5043231125250836,36.2999992371,0.010934974494824324,0.5966882406594902,2.0158794504176467
1648126880507092930,84765,9,6,1.75359380245,-0.46880915761,0.470785647631,-0.485512852669,36.2999992371,0.5864862215551839,-0.15679236040468228,0.15745339385652174,36.2999992371,-0.06560984495527027,0.8441066404367545,1.8752366187405225
1648126880701938561,84766,11,0,0.0125680044293,0.0439508594573,0.0104013206437,0.0,34.5,0.004203345962976589,0.014699284099431437,0.0034787025564214044,34.5,0.0,0.01585576196859492,0.04688091566408767
1648126880701943709,84767,11,1,0.0328392535448,0.0146502861753,-0.0300794392824,0.0,34.5,0.010983027941404683,0.0048997612626421405,-0.01006001313792642,34.5,0.0,0.016286849479080982,0.04688091430359943
1648126880701955155,84768,11,2,0.242990642786,-1.58955609798,0.326491743326,0.0,34.5,0.0812677735070234,-0.5316241130367892,0.10919456298528428,34.5,0.0,0.5439054141886533,1.640832075371215
1648126880702102005,84769,11,3,1.82726943493,0.0571361146867,-0.0265786293894,0.0,34.5,0.6111269013143812,0.0191090684570903,-0.008889173708829431,34.5,0.0,0.8644751792373987,1.8283556948720652
1648126880702105573,84770,11,4,1.53495275974,-0.632892370224,0.302889615297,-0.566431701183,34.5,0.5133621270033444,-0.21166968903812708,0.10130087468127089,34.5,-0.07654482448418919,0.75623105208679,1.6877129038956713
1648126880702110843,84771,11,5,1.60663807392,-0.596266627312,0.268321037292,-0.485512852669,34.5,0.5373371484682273,-0.19942027669297657,0.08973947735518395,34.5,-0.06560984495527027,0.7856404196604417,1.7345938920879576
1648126880702113433,84772,11,6,1.83932244778,-0.0,0.558058321476,-0.0809188112617,34.5,0.6151580092909699,-0.0,0.1866415790889632,34.5,-0.010934974494824324,0.869964799741724,1.922117623111557
1648126880807024999,84773,12,0,0.012588663958,0.0439508594573,0.0103763062507,0.0,12.1000003815,0.004210255504347826,0.014699284099431437,0.003470336538695652,12.1000003815,0.0,0.015859427980213545,0.04688091550611081
1648126880807048082,84774,12,1,0.0328392535448,0.0146502861753,-0.0300794392824,0.0,12.1000003815,0.010983027941404683,0.0048997612626421405,-0.01006001313792642,12.1000003815,0.0,0.016286849479080982,0.04688091430359943
1648126880807189866,84775,12,2,0.247418344021,-1.58955609798,0.323149293661,0.0,12.1000003815,0.08274861004046821,-0.5316241130367892,0.1080766868431438,12.1000003815,0.0,0.5443517819291233,1.6408320729365027
1648126880807192839,84776,12,3,2.42189240456,-0.902457654476,0.460839241743,0.0,12.1000003815,0.8099974597190635,-0.30182530250033446,0.15412683670334448,12.1000003815,0.0,1.184605538874477,2.6253314922344577
1648126880807198754,84777,12,4,1.63259887695,0.316446185112,-0.287850171328,0.242756426334,12.1000003815,0.5460196912876254,0.10583484451906354,-0.09627096031036789,12.1000003815,0.03280492247756756,0.7794074806300244,1.6877129501855161
1648126880807200808,84778,12,5,1.82691121101,0.540595591068,0.254337698221,-0.485512852669,12.1000003815,0.6110070939832776,0.18080120102608696,0.08506277532474915,12.1000003815,-0.06560984495527027,0.8828071205468695,1.9221175382199034
1648126880807357837,84779,12,6,1.85563659668,-0.0,0.2704167068,-0.0809188112617,12.1000003815,0.6206142463812708,-0.0,0.09044037016722407,12.1000003815,-0.010934974494824324,0.8776810842343508,1.875236618204404
1648126881002045939,84780,14,0,0.012588663958,0.0439508594573,0.0103763062507,0.0,20.2999992371,0.004210255504347826,0.014699284099431437,0.003470336538695652,20.2999992371,0.0,0.015859427980213545,0.04688091550611081
1648126881002085349,84781,14,1,0.0328148305416,0.0146502861753,-0.030106080696,0.0,20.2999992371,0.010974859712909697,0.0048997612626421405,-0.010068923309698996,20.2999992371,0.0,0.016275833369354245,0.04688091384952062
1648126881002114494,84782,14,2,0.231214851141,-1.58955609798,0.334934324026,0.0,20.2999992371,0.07732938165250836,-0.5316241130367892,0.11201816857056855,20.2999992371,0.0,0.5427558052160026,1.640832074718285
1648126881002125070,84783,14,3,2.3863465786,-0.984499275684,0.477991521358,0.0,20.2999992371,0.7981092236120401,-0.32926397180066885,0.1598633850695652,20.2999992371,0.0,1.1757429263045467,2.625331352707384
1648126881002133709,84784,14,4,1.66048157215,0.487854540348,-0.116683237255,-0.647350490093,20.2999992371,0.5553450074080267,0.16316205362809363,-0.03902449406521739,20.2999992371,-0.08747979595851352,0.802145878410018,1.7345939241921149
1648126881002167119,84785,14,5,1.85433149338,-0.0,0.279225409031,-0.0809188112617,20.2999992371,0.6201777569832775,-0.0,0.09338642442508362,20.2999992371,-0.010934974494824324,0.8770637950078765,1.8752365494490102
1648126881302018120,84786,17,0,0.0126092731953,0.0439508594573,0.0103512527421,0.0,21.7000007629,0.004217148225852843,0.014699284099431437,0.003461957438829431,21.7000007629,0.0,0.01586309022080583,0.04688091563610805
1648126881302032203,84787,17,1,0.0327270664275,0.0146502861753,-0.0302014648914,0.0,21.7000007629,0.010945507166387959,0.0048997612626421405,-0.010100824378394649,21.7000007629,0.0,0.016236253098846076,0.04688091555798213
1648126881302038784,84788,17,2,0.231740400195,-1.58955609798,0.334570914507,0.0,21.7000007629,0.07750515056688963,-0.5316241130367892,0.11189662692541805,21.7000007629,0.0,0.5428059453349284,1.6408320750588685
1648126881302096786,84789,17,3,2.39637112617,-0.984499275684,0.424890428782,0.0,21.7000007629,0.8014619151070234,-0.32926397180066885,0.14210382233511704,21.7000007629,0.0,1.180295372294574,2.625331459955894
1648126881302101431,84790,17,4,1.84262502193,-0.0,0.348203331232,-0.0809188112617,21.7000007629,0.6162625491404682,-0.0,0.11645596362274246,21.7000007629,-0.010934974494824324,0.8715268549770661,1.87523666008416
1648126881602051111,84791,20,0,0.012588663958,0.0439508594573,0.0103763062507,0.0,21.2000007629,0.004210255504347826,0.014699284099431437,0.003470336538695652,21.2000007629,0.0,0.015859427980213545,0.04688091550611081
1648126881602062592,84792,20,1,0.0328392535448,0.0146502861753,-0.0300794392824,0.0,21.2000007629,0.010983027941404683,0.0048997612626421405,-0.01006001313792642,21.2000007629,0.0,0.016286849479080982,0.04688091430359943
1648126881602065975,84793,20,2,0.27114507556,-1.58955609798,0.30351549387,0.0,21.2000007629,0.09068397175919732,-0.5316241130367892,0.10151019861872909,21.2000007629,0.0,0.5468741747698447,1.6408320741760847
1648126881602073539,84794,20,3,2.39655399323,-0.984499275684,0.423857718706,0.0,21.2000007629,0.8015230746588629,-0.32926397180066885,0.14175843434983276,21.2000007629,0.0,1.1803784314986214,2.625331451835298
1648126881602080256,84795,20,4,1.75624680519,-0.111342176795,-0.277222752571,0.161837622523,21.2000007629,0.5873735134414715,-0.037238186219063545,-0.09271663965585283,21.2000007629,0.021869948989594594,0.8315058454984202,1.7814747754645792
1648126881602085070,84796,20,5,1.80068087578,-0.0,0.316911876202,-0.0809188112617,21.2000007629,0.6022344066153845,-0.0,0.10599059404749163,21.2000007629,-0.010934974494824324,0.85168806556319,1.828355751400066
1648126881901956101,84797,23,0,0.0126767531037,0.0439508594573,0.0102685010061,0.0,21.2000007629,0.004239716757090301,0.014699284099431437,0.0034342812729431437,21.2000007629,0.0,0.01587511730339346,0.04688091540488284
1648126881901964399,84798,23,1,0.0328392535448,0.0146502861753,-0.0300794392824,0.0,21.2000007629,0.010983027941404683,0.0048997612626421405,-0.01006001313792642,21.2000007629,0.0,0.016286849479080982,0.04688091430359943
1648126881902183253,84799,23,2,0.23751989007,-1.58955609798,0.330492973328,0.0,21.2000007629,0.0794380903244147,-0.5316241130367892,0.1105327669993311,21.2000007629,0.0,0.5433645350507637,1.6408320731334607
1648126881902190846,84800,23,3,1.75701546669,0.111342176795,-0.272309273481,0.0,21.2000007629,0.5876305908662207,0.037238186219063545,-0.09107333561237457,21.2000007629,0.0,0.8318690432733106,1.781474886419979
1648126881902200527,84801,23,4,2.39211916924,-0.984499275684,0.448209762573,0.0,21.2000007629,0.8000398559331102,-0.32926397180066885,0.1499029306264214,21.2000007629,0.0,1.1783642498348696,2.6253313952591837
1648126882202040822,84802,26,0,0.012588663958,0.0439508594573,0.0103763062507,0.0,12.6999998093,0.004210255504347826,0.014699284099431437,0.003470336538695652,12.6999998093,0.0,0.015859427980213545,0.04688091550611081
1648126882202050623,84803,26,1,0.0328392535448,0.0146502861753,-0.0300794392824,0.0,12.6999998093,0.010983027941404683,0.0048997612626421405,-0.01006001313792642,12.6999998093,0.0,0.016286849479080982,0.04688091430359943
1648126882202076324,84804,26,2,0.213542804122,-1.58955609798,0.346469014883,0.0,12.6999998093,0.07141899803411371,-0.5316241130367892,0.11587592471003344,12.6999998093,0.0,0.5411335732723912,1.640832074312203
1648126882202214419,84805,26,3,1.77886807919,0.0556710883975,-0.078625254333,0.0,12.6999998093,0.5949391569197324,0.018619093109531772,-0.026296071683277588,12.6999998093,0.0,0.8415770145987505,1.7814749068856992
1648126882202220572,84806,26,4,1.86052572727,-0.234404578805,-0.00329351006076,0.0,12.6999998093,0.6222494071137123,-0.07839618020234114,-0.0011015083815250834,12.6999998093,0.0,0.8834786983153872,1.875236607899609
1648126882202226488,84807,26,5,1.07091963291,0.410208016634,-1.48370242119,0.0,12.6999998093,0.35816710130769225,0.13719331659999998,-0.49622154554849496,12.6999998093,0.0,0.5247755244273662,1.8752366121927007
1648126882202234865,84808,26,6,2.42427301407,-0.902457654476,0.448146283627,0.0,12.6999998093,0.8107936501906354,-0.30182530250033446,0.149881700209699,12.6999998093,0.0,1.1856943955372006,2.6253313231664794
