%time,field.header.seq,field.header.frame_id,field.point_id,field.x,field.y,field.z,field.velocity,field.intensity,normalized_x,normalized_y,normalized_z,normalized_intensity,normalized_velocity,normalized_range,range
1648127870988607004,132868,0,0,0.0125829717144,0.0439508594573,0.0103832082823,0.0,15.6999998093,0.004208351743946488,0.014699284099431437,0.0034726449104682273,15.6999998093,0.0,0.015858417381231733,0.04688091550337248
1648127870988707870,132869,0,1,0.0328476838768,0.0146502861753,-0.0300702322274,0.0,15.6999998093,0.010985847450434783,0.0048997612626421405,-0.010056933855317725,15.6999998093,0.0,0.016290652191957734,0.04688091389145629
1648127870988710219,132870,0,2,1.35886919498,0.0424858294427,-0.00603037280962,0.0,15.6999998093,0.4544713026688963,0.01420930750591973,-0.0020168470935183944,15.6999998093,0.0,0.6428765311620303,1.3595465788877006
1648127870988715078,132871,0,3,1.40390515327,-0.140642747283,0.509742796421,0.0,15.6999998093,0.469533496076923,-0.047037708121404675,0.17048254060903006,15.6999998093,0.0,0.6656845753521334,1.5001892481432044
1648127870988718103,132872,0,4,1.84747004509,-1.39177727699,0.379949331284,0.0,15.6999998093,0.6178829582240802,-0.4654773501638796,0.1270733549444816,15.6999998093,0.0,0.9900645754914514,2.3440458721180573
1648127870988722467,132873,0,5,2.42025232315,-0.902457654476,0.469375491142,0.0,15.6999998093,0.8094489375083612,-0.30182530250033446,0.15698176961270902,15.6999998093,0.0,1.1838554295589678,2.62533130814381
1648127871183577002,132874,2,0,0.0125934295356,0.0439508594573,0.0103705218062,0.0,13.1999998093,0.004211849343010033,0.014699284099431437,0.0034684019418729094,13.1999998093,0.0,0.01586027436119016,0.046880915488462134
1648127871183684794,132875,2,1,0.0329111367464,0.0146502861753,-0.0300007723272,0.0,13.1999998093,0.011007069145953176,0.0048997612626421405,-0.010033703119464882,13.1999998093,0.0,0.016319277030508346,0.04688091453018932
1648127871183688134,132876,2,2,1.35888028145,0.0424858294427,0.00248353555799,0.0,13.1999998093,0.4544750105183946,0.01420930750591973,0.000830613898993311,13.1999998093,0.0,0.6428817735720834,1.3595465541738294
1648127871183707443,132877,2,3,1.86775624752,-1.31852579117,0.517230808735,0.0,13.1999998093,0.6246676413110368,-0.44097852547491634,0.1729868925535117,13.1999998093,0.0,0.9873608176002426,2.3440459405982486
1648127871183712187,132878,2,4,2.41648650169,-0.902457654476,0.488393753767,0.0,13.1999998093,0.8081894654481605,-0.30182530250033446,0.16334239256421404,13.1999998093,0.0,1.1821332147233599,2.6253314628234885
1648127871183766037,132879,2,5,1.49623894691,0.298865824938,0.461116313934,0.161837622523,13.1999998093,0.5004143635150501,0.09995512539732442,0.15421950298795986,13.1999998093,0.021869948989594594,0.7147167953235325,1.5939510728194566
1648127871183769418,132880,2,6,1.38329780102,-0.375047326088,0.443164348602,-0.0809188112617,13.1999998093,0.4626414050234114,-0.1254338883237458,0.14821550120468227,13.1999998093,-0.010934974494824324,0.6661890119358667,1.5001893023829898
1648127871183787192,132881,2,7,0.397812604904,0.140642747283,-1.43962931633,-0.0809188112617,13.1999998093,0.1330476939478261,0.047037708121404675,-0.48148137669899665,13.1999998093,-0.010934974494824324,0.193948250095182,1.5001892612002656
1648127871288580250,132882,3,0,0.0125934295356,0.0439508594573,0.0103705218062,0.0,21.6000003815,0.004211849343010033,0.014699284099431437,0.0034684019418729094,21.6000003815,0.0,0.01586027436119016,0.046880915488462134
1648127871288594867,132883,3,1,0.0329111367464,0.0146502861753,-0.0300007723272,0.0,21.6000003815,0.011007069145953176,0.0048997612626421405,-0.010033703119464882,21.6000003815,0.0,0.016319277030508346,0.04688091453018932
1648127871288598396,132884,3,2,1.35939717293,-0.0,-0.0201497357339,0.0,21.6000003815,0.4546478839230769,-0.0,-0.006739042051471571,21.6000003815,0.0,0.642969203548244,1.3595464999845437
1648127871288600162,132885,3,3,1.87061285973,-1.31852579117,0.506802380085,0.0,21.6000003815,0.6256230300100334,-0.44097852547491634,0.16949912377424747,21.6000003815,0.0,0.9885698818434141,2.344045943540259
1648127871288601762,132886,3,4,2.41864156723,-0.902457654476,0.477607190609,0.0,21.6000003815,0.8089102231538461,-0.30182530250033446,0.15973484635752505,21.6000003815,0.0,1.1831187647379398,2.625331498568616
1648127871288605200,132887,3,5,1.37341809273,0.0454158857465,0.47303840518,-0.161837622523,21.6000003815,0.4593371547591973,0.015189259446989964,0.15820682447491638,21.6000003815,-0.021869948989594594,0.6497783907511063,1.453308361254241
1648127871483476892,132888,5,0,0.0125683275983,0.0439508594573,0.0104009294882,0.0,27.1000003815,0.004203454046254181,0.014699284099431437,0.003478571735183946,27.1000003815,0.0,0.01585581927475648,0.046880915518705844
1648127871483480660,132889,5,1,0.0329224467278,0.0146502861753,-0.0299883615226,0.0,27.1000003815,0.011010851748428094,0.0048997612626421405,-0.010029552348695651,27.1000003815,0.0,0.01632437970896942,0.04688091520409101
1648127871483487154,132890,5,2,1.35584926605,0.0424858294427,-0.0907438546419,0.0,27.1000003815,0.45346129299331095,0.01420930750591973,-0.030349115264849496,27.1000003815,0.0,0.6414485115004388,1.3595465145065937
1648127871483493971,132891,5,3,1.80045521259,-1.46502864361,0.326501816511,0.0,27.1000003815,0.6021589339765886,-0.489976134986622,0.10919793194347827,27.1000003815,0.0,0.9824802167942476,2.3440459328531174
1648127871483589407,132892,5,4,1.30445289612,-0.703213751316,0.233368933201,-0.404594063759,27.1000003815,0.43627187161204006,-0.23518854559063543,0.07804981043511705,27.1000003815,-0.05467487348094594,0.6602877735478547,1.500189320458971
1648127871483686913,132893,5,5,1.41238701344,-0.421928226948,0.278760910034,-0.242756426334,27.1000003815,0.47237023860869565,-0.14111311938060198,0.09323107358996655,27.1000003815,-0.03280492247756756,0.6827738989649473,1.5001893711769956
1648127871483745305,132894,5,6,1.46983659267,0.290075659752,0.385827511549,-0.161837622523,27.1000003815,0.4915841447056856,0.09701527082006689,0.1290393015214047,27.1000003815,-0.021869948989594594,0.701941525644645,1.5470702525096938
1648127871588533346,132895,6,0,0.0125934295356,0.0439508594573,0.0103705218062,0.0,32.7000007629,0.004211849343010033,0.014699284099431437,0.0034684019418729094,32.7000007629,0.0,0.01586027436119016,0.046880915488462134
1648127871588536023,132896,6,1,0.0328476838768,0.0146502861753,-0.0300702322274,0.0,32.7000007629,0.010985847450434783,0.0048997612626421405,-0.010056933855317725,32.7000007629,0.0,0.016290652191957734,0.04688091389145629
1648127871588537712,132897,6,2,1.84094691277,-1.39177727699,0.410391777754,0.0,32.7000007629,0.6157013086187291,-0.4654773501638796,0.13725477516856185,32.7000007629,0.0,0.987342578027109,2.344045847595815
1648127871588538873,132898,6,3,2.4241361618,-0.902457654476,0.448886156082,0.0,32.7000007629,0.8107478802006688,-0.30182530250033446,0.15012914919130432,32.7000007629,0.0,1.1856317993918577,2.6253313562654967
1648127871588539924,132899,6,4,1.35896456242,-0.0,-0.0397765226662,0.0809188112617,32.7000007629,0.4545031981337792,-0.0,-0.013303184838193979,32.7000007629,0.010934974494824324,0.6427645869427365,1.359546561787715
1648127871588550002,132900,6,5,1.35026168823,-0.499574750662,0.198301941156,-0.566431701183,32.7000007629,0.4515925378695652,-0.16708185640869566,0.06632171945016722,32.7000007629,-0.07654482448418919,0.6601423992290795,1.4533083699156786
1648127871783561349,132901,8,0,0.0125934295356,0.0439508594573,0.0103705218062,0.0,32.2999992371,0.004211849343010033,0.014699284099431437,0.0034684019418729094,32.2999992371,0.0,0.01586027436119016,0.046880915488462134
1648127871783571122,132902,8,1,0.0328101180494,0.0146502861753,-0.0301112178713,0.0,32.2999992371,0.010973283628561871,0.0048997612626421405,-0.010070641428528428,32.2999992371,0.0,0.016273707863195052,0.046880914806844864
1648127871783686329,132903,8,2,1.35849952698,0.0424858294427,-0.0322627201676,0.0,32.2999992371,0.4543476678862876,0.01420930750591973,-0.010790207413913042,32.2999992371,0.0,0.6427017279012205,1.3595465764808983
1648127871783691105,132904,8,3,1.86058628559,-1.31852579117,0.542456865311,0.0,32.2999992371,0.6222696607324414,-0.44097852547491634,0.1814237007729097,32.2999992371,0.0,0.9843277509377488,2.3440458696085926
1648127871783694778,132905,8,4,2.42800378799,-0.902457654476,0.427472829819,0.0,32.2999992371,0.8120414006655517,-0.30182530250033446,0.14296750161170566,32.2999992371,0.0,1.1874009373497905,2.625331451997933
1648127871888602211,132906,9,0,0.0125786392018,0.0439508594573,0.010388456285,0.0,12.6999998093,0.004206902743076922,0.014699284099431437,0.0034744000953177254,12.6999998093,0.0,0.015857648451621513,0.046880915468767805
1648127871888606363,132907,9,1,0.0328101180494,0.0146502861753,-0.0301112178713,0.0,12.6999998093,0.010973283628561871,0.0048997612626421405,-0.010070641428528428,12.6999998093,0.0,0.016273707863195052,0.046880914806844864
1648127871888609839,132908,9,2,1.35524654388,0.0424858294427,-0.0993410795927,0.0,12.6999998093,0.4532597136722408,0.01420930750591973,-0.03322444133535117,12.6999998093,0.0,0.6411635052748099,1.3595465753319238
1648127871888615450,132909,9,3,1.84178817272,-1.39177727699,0.406599879265,0.0,12.6999998093,0.6159826664615384,-0.4654773501638796,0.13598658169397992,12.6999998093,0.0,0.987693502194745,2.3440458877196257
1648127871888619109,132910,9,4,2.41510510445,-0.902457654476,0.495179206133,0.0,12.6999998093,0.8077274596822741,-0.30182530250033446,0.16561177462642138,12.6999998093,0.0,1.181501507184387,2.625331394290876
1648127871888621162,132911,9,5,1.46821963787,0.0483459457755,0.485201120377,-0.0809188112617,12.6999998093,0.4910433571471572,0.016169212633946488,0.16227462219966554,12.6999998093,-0.010934974494824324,0.6946283903166519,1.5470702513832841
1648127872083595944,132912,11,0,0.0125934295356,0.0439508594573,0.0103705218062,0.0,16.3999996185,0.004211849343010033,0.014699284099431437,0.0034684019418729094,16.3999996185,0.0,0.01586027436119016,0.046880915488462134
1648127872083606848,132913,11,1,0.032875943929,0.0146502861753,-0.0300393328071,0.0,16.3999996185,0.010995298972909698,0.0048997612626421405,-0.010046599601036788,16.3999996185,0.0,0.016303400241612993,0.046880913917463816
1648127872083629433,132914,11,2,1.45991957188,-0.0,0.51191931963,0.0,16.3999996185,0.4882674153444816,-0.0,0.17121047479264215,16.3999996185,0.0,0.6905144008450229,1.5470703106739283
1648127872083785957,132915,11,3,1.8788651228,-1.31852579117,0.475296884775,0.0,16.3999996185,0.6283829842140468,-0.44097852547491634,0.15896216882107023,16.3999996185,0.0,0.9920647204842703,2.3440459765822754
1648127872083796178,132916,11,4,2.42520689964,-0.902457654476,0.44306525588,0.0,16.3999996185,0.8111059865016722,-0.30182530250033446,0.14818235982608696,16.3999996185,0.0,1.1861215603415698,2.6253314352957027
