%time,field.header.seq,field.header.frame_id,field.point_id,field.x,field.y,field.z,field.velocity,field.intensity,normalized_x,normalized_y,normalized_z,normalized_intensity,normalized_velocity,normalized_range,range
1648127520796616443,114395,0,0,0.0125829717144,0.0439508594573,0.0103832082823,0.0,21.2999992371,0.004208351743946488,0.014699284099431437,0.0034726449104682273,21.2999992371,0.0,0.015858417381231733,0.04688091550337248
1648127520796628261,114396,0,1,0.0328981243074,0.0146502861753,-0.0300150439143,0.0,21.2999992371,0.011002717159665552,0.0048997612626421405,-0.010038476225518393,21.2999992371,0.0,0.016313406456717926,0.04688091647078464
1648127520796663541,114397,0,2,0.144437909126,-0.399952799082,-0.436585694551,0.0,21.2999992371,0.048306993018729094,-0.13376347795384613,-0.1460152824585284,21.2999992371,0.0,0.1501991983445057,0.6094519011150892
1648127520796842613,114398,0,3,1.40021681786,-0.0,-0.132027477026,0.0,21.2999992371,0.468299939083612,-0.0,-0.044156346831438126,21.2999992371,0.0,0.6622761251105383,1.4064275280681318
1648127520796846601,114399,0,4,1.87650418282,-1.24527442455,0.65005761385,0.0,21.2999992371,0.627593372180602,-0.4164797406521739,0.21741057319397994,21.2999992371,0.0,0.9804092288344399,2.3440459129256928
1648127520796853093,114400,0,5,1.81991672516,-1.39177727699,0.495388835669,0.0,21.2999992371,0.6086678010568561,-0.4654773501638796,0.16568188483913043,21.2999992371,0.0,0.9785817020578119,2.3440458557307036
1648127520796866167,114401,0,6,2.40390062332,-0.984499275684,0.379983961582,0.0,21.2999992371,0.8039801415785953,-0.32926397180066885,0.12708493698394646,21.2999992371,0.0,1.1837157172359536,2.625331377498878
1648127520796870449,114402,0,7,1.47105467319,-0.0,0.478983104229,-0.0809188112617,21.2999992371,0.49199152949498326,-0.0,0.16019501813678927,21.2999992371,-0.010934974494824324,0.6957810935844879,1.5470703492895812
1648127520900220575,114403,1,0,0.0125726731494,0.0439508594573,0.0103956768289,0.0,24.1000003815,0.004204907407826087,0.014699284099431437,0.0034768149929431435,24.1000003815,0.0,0.01585658997554579,0.04688091566818964
1648127520900245273,114404,1,1,0.0329111367464,0.0146502861753,-0.0300007723272,0.0,24.1000003815,0.011007069145953176,0.0048997612626421405,-0.010033703119464882,24.1000003815,0.0,0.016319277030508346,0.04688091453018932
1648127520900257883,114405,1,2,0.150994613767,-0.399952799082,-0.434361606836,0.0,24.1000003815,0.05049987082508361,-0.13376347795384613,-0.14527144041337792,24.1000003815,0.0,0.1516348968443918,0.6094519016077675
1648127520900266659,114406,1,3,1.40527176857,0.0439508594573,-0.0363038219512,0.0,24.1000003815,0.4699905580501672,0.014699284099431437,-0.012141746471973244,24.1000003815,0.0,0.6648295407588707,1.4064275271321858
1648127520900360374,114407,1,4,1.83493173122,-1.39177727699,0.436500251293,0.0,24.1000003815,0.6136895422140468,-0.4654773501638796,0.1459867061180602,24.1000003815,0.0,0.9848344388583086,2.344045843485698
1648127520900364575,114408,1,5,1.46096169949,-1.7082233429,-1.05888664722,0.0,24.1000003815,0.488615953006689,-0.5713121548160535,-0.3541426913779264,24.1000003815,0.0,0.8965983924287574,2.4846885133283756
1648127520900377465,114409,1,6,2.32914423943,-0.776465177536,0.381924539804,0.0,24.1000003815,0.7789780064983277,-0.25968735034648827,0.12773395980066887,24.1000003815,0.0,1.1318352305641477,2.48468859499545
1648127520900382310,114410,1,7,2.41995573044,-0.902457654476,0.470903038979,0.0,24.1000003815,0.8093497426220735,-0.30182530250033446,0.15749265517692307,24.1000003815,0.0,1.1837197831388355,2.6253314509850703
1648127520900385099,114411,1,8,1.49128949642,-0.290075659752,0.292127251625,0.0809188112617,24.1000003815,0.49875902890301005,-0.09701527082006689,0.09770142194816052,24.1000003815,0.010934974494824324,0.7119923458836044,1.5470703221428403
1648127520900389191,114412,1,9,1.15207076073,0.290075659752,0.99096685648,0.0809188112617,24.1000003815,0.38530794673244145,0.09701527082006689,0.33142704230100334,24.1000003815,0.010934974494824324,0.5534766394371409,1.5470702106728744
1648127520900438898,114413,1,10,1.43912005424,0.298865824938,0.616678774357,0.161837622523,24.1000003815,0.48131105492976584,0.09995512539732442,0.20624708172474915,24.1000003815,0.021869948989594594,0.6879765187042383,1.5939510728294215
