%time,field.header.seq,field.header.frame_id,field.point_id,field.x,field.y,field.z,field.velocity,field.intensity,normalized_x,normalized_y,normalized_z,normalized_intensity,normalized_velocity,normalized_range,range
1648294697859816022,21736,0,0,0.0126678450033,0.0439508594573,0.0102794887498,0.0,15.1000003815,0.004236737459297658,0.014699284099431437,0.0034379561036120398,15.1000003815,0.0,0.015873526439762208,0.046880915445629195
1648294697859830457,21737,0,1,0.033514522016,0.0146502861753,-0.0293251797557,0.0,15.1000003815,0.011208870239464881,0.0048997612626421405,-0.009807752426655518,15.1000003815,0.0,0.016591720963215706,0.0468809155060271
1648294697859833686,21738,0,2,2.23817753792,-1.2306240797,0.607034087181,0.0,15.1000003815,0.7485543605083611,-0.4115799597658863,0.20302143383979934,15.1000003815,0.0,1.135810426326969,2.6253313504749785
1648294697859840655,21739,0,3,1.7633253336,0.0571361146867,0.479900032282,0.0809188112617,15.1000003815,0.5897409142474916,0.0191090684570903,0.16050168303745818,15.1000003815,0.010934974494824324,0.8342384841112476,1.8283557664473586
1648294697964876500,21740,1,0,0.0126902572811,0.0439508594573,0.0102518079802,0.0,11.6000003815,0.004244233204381271,0.014699284099431437,0.0034286983211371234,11.6000003815,0.0,0.015877530791094153,0.04688091556015881
1648294697964879505,21741,1,1,0.0335372425616,0.0146502861753,-0.0292991939932,0.0,11.6000003815,0.011216469084147156,0.0048997612626421405,-0.00979906153618729,11.6000003815,0.0,0.016601988370738802,0.04688091607791967
1648294697964883639,21742,1,2,2.23869848251,-1.2306240797,0.605109870434,0.0,11.6000003815,0.7487285894682273,-0.4115799597658863,0.2023778830882943,11.6000003815,0.0,1.136040080567165,2.625331307935572
1648294697964889014,21743,1,3,1.86099994183,0.117202289402,0.198633089662,0.161837622523,11.6000003815,0.6224080073010033,0.03919809010100334,0.06643247145886287,11.6000003815,0.021869948989594594,0.8810902027445192,1.8752365889244498
1648294698159968450,21744,3,0,0.0126474238932,0.0439508594573,0.0103046037257,0.0,21.1000003815,0.004229907656588629,0.014699284099431437,0.003446355761103679,21.1000003815,0.0,0.01586988313133818,0.04688091547861809
1648294698159988805,21745,3,1,0.0335372425616,0.0146502861753,-0.0292991939932,0.0,21.1000003815,0.011216469084147156,0.0048997612626421405,-0.00979906153618729,21.1000003815,0.0,0.016601988370738802,0.04688091607791967
1648294698159995167,21746,3,2,1.9638698101,-0.12306240201,-0.07089086622,0.0,21.1000003815,0.6568126455183946,-0.04115799398327759,-0.023709319806020066,21.1000003815,0.0,0.9297847509474825,1.9689983495991314
1648294698159999758,21747,3,3,2.23967123032,-1.2306240797,0.601499915123,0.0,21.1000003815,0.7490539231839464,-0.4115799597658863,0.2011705401749164,21.1000003815,0.0,1.1364689274042699,2.6253314063854014
1648294698160083084,21748,3,4,1.70721948147,0.111342176795,0.496646106243,-0.161837622523,21.1000003815,0.5709764152073578,0.037238186219063545,0.16610237666989966,21.1000003815,-0.021869948989594594,0.8083407795966845,1.7814748926354471
1648294698264964054,21749,4,0,0.0126902572811,0.0439508594573,0.0102518079802,0.0,19.2999992371,0.004244233204381271,0.014699284099431437,0.0034286983211371234,19.2999992371,0.0,0.015877530791094153,0.04688091556015881
1648294698264970325,21750,4,1,0.0335372425616,0.0146502861753,-0.0292991939932,0.0,19.2999992371,0.011216469084147156,0.0048997612626421405,-0.00979906153618729,19.2999992371,0.0,0.016601988370738802,0.04688091607791967
1648294698264972158,21751,4,2,1.91754698753,-0.120132349432,0.05583794415,0.0,19.2999992371,0.6413200627190635,-0.040178043288294316,0.018674897709030098,19.2999992371,0.0,0.9078530282234251,1.9221176100260693
1648294698264974291,21752,4,3,2.23942255974,-1.2306240797,0.602424919605,0.0,19.2999992371,0.7489707557658862,-0.4115799597658863,0.20147990622240802,19.2999992371,0.0,1.1363592958505395,2.625331371535985
1648294698264978713,21753,4,4,1.98589384556,-0.314981162548,0.144161388278,0.161837622523,19.2999992371,0.6641785436655517,-0.1053448704173913,0.04821451112976589,19.2999992371,0.021869948989594594,0.9451792514939393,2.0158794617891753
1648294698265000832,21754,4,5,1.69057917595,0.108412116766,0.372833669186,-0.404594063759,19.2999992371,0.5654110956354514,0.03625823303210702,0.12469353484481606,19.2999992371,-0.05467487348094594,0.8004336784506095,1.734593924264743
1648294698459873973,21755,6,0,0.0126902572811,0.0439508594573,0.0102518079802,0.0,20.0,0.004244233204381271,0.014699284099431437,0.0034286983211371234,20.0,0.0,0.015877530791094153,0.04688091556015881
1648294698460031347,21756,6,1,0.0335372425616,0.0146502861753,-0.0292991939932,0.0,20.0,0.011216469084147156,0.0048997612626421405,-0.00979906153618729,20.0,0.0,0.016601988370738802,0.04688091607791967
1648294698460035189,21757,6,2,2.23945760727,-1.2306240797,0.602294683456,0.0,20.0,0.748982477347826,-0.4115799597658863,0.2014363489819398,20.0,0.0,1.1363747471802872,2.6253313859427934
1648294698460038034,21758,6,3,1.96440577507,-0.061531201005,0.119494073093,0.0809188112617,20.0,0.6569918980167223,-0.020578996991638794,0.039964572940802676,20.0,0.010934974494824324,0.929354724115831,1.96899846910297
1648294698564941986,21759,7,0,0.0126699265093,0.0439508594573,0.0102769229561,0.0,22.2000007629,0.004237433615150501,0.014699284099431437,0.0034370979786287623,22.2000007629,0.0,0.015873898082116214,0.04688091541589194
1648294698564953455,21760,7,1,0.0335372425616,0.0146502861753,-0.0292991939932,0.0,22.2000007629,0.011216469084147156,0.0048997612626421405,-0.00979906153618729,22.2000007629,0.0,0.016601988370738802,0.04688091607791967
1648294698564957087,21761,7,2,1.95928001404,-0.184593603015,0.0640464648604,0.0,22.2000007629,0.6552775966688963,-0.06173699097491638,0.021420222361337792,22.2000007629,0.0,0.9287566492074049,1.968998456411725
1648294698564960137,21762,7,3,0.586513996124,0.553780794144,-1.79618561268,0.0,22.2000007629,0.19615852713177256,0.18521096794113712,-0.6007309741404682,22.2000007629,0.0,0.3335557497311441,1.9689983724753888
1648294698564963042,21763,7,4,2.2372853756,-1.2306240797,0.610314428806,0.0,22.2000007629,0.7482559784615384,-0.4115799597658863,0.20411853806220734,22.2000007629,0.0,1.1354171400361,2.6253314418221367
1648294698565095763,21764,7,5,1.8818808794,-0.120132349432,0.372328579426,0.0809188112617,22.2000007629,0.6293915984615384,-0.040178043288294316,0.12452460850367893,22.2000007629,0.010934974494824324,0.8910004733951699,1.9221175813900544
1648294698565098375,21765,7,6,1.78144061565,-0.0,0.0110452473164,0.404594063759,22.2000007629,0.595799537006689,-0.0,0.0036940626476254174,22.2000007629,0.05467487348094594,0.8425877856904703,1.781474856565686
1648294698760091275,21766,9,0,0.012702328153,0.0439508594573,0.0102368472144,0.0,21.8999996185,0.004248270285284281,0.014699284099431437,0.003423694720535117,21.8999996185,0.0,0.01587968998026903,0.04688091539670276
1648294698760101866,21767,9,1,0.0335372425616,0.0146502861753,-0.0292991939932,0.0,21.8999996185,0.011216469084147156,0.0048997612626421405,-0.00979906153618729,21.8999996185,0.0,0.016601988370738802,0.04688091607791967
1648294698760107248,21768,9,2,1.92861056328,-0.184593603015,-0.351199746132,0.0,21.8999996185,0.6450202552775919,-0.06173699097491638,-0.11745810907424749,21.8999996185,0.0,0.9142831702986643,1.9689984166454881
1648294698760189198,21769,9,3,2.2397043705,-1.2306240797,0.601376771927,0.0,21.8999996185,0.7490650068561873,-0.4115799597658863,0.20112935515953176,21.8999996185,0.0,1.136483538056671,2.6253314675651174
1648294698865565162,21770,10,0,0.0126678450033,0.0439508594573,0.0102794887498,0.0,15.1000003815,0.004236737459297658,0.014699284099431437,0.0034379561036120398,15.1000003815,0.0,0.015873526439762208,0.046880915445629195
1648294698865602194,21771,10,1,0.033514522016,0.0146502861753,-0.0293251797557,0.0,15.1000003815,0.011208870239464881,0.0048997612626421405,-0.009807752426655518,15.1000003815,0.0,0.016591720963215706,0.0468809155060271
1648294698865642579,21772,10,2,1.96729552746,-0.061531201005,-0.0540107749403,0.0,15.1000003815,0.6579583703879598,-0.020578996991638794,-0.01806380432785953,15.1000003815,0.0,0.9307211878131609,1.9689984623840844
1648294698865658468,21773,10,3,2.23951411247,-1.2306240797,0.602084100246,0.0,15.1000003815,0.7490013754080268,-0.4115799597658863,0.20136591981471572,15.1000003815,0.0,1.1363996585740073,2.6253312837161715
1648294698865688877,21774,10,4,1.7721735239,-0.111342176795,-0.143724188209,0.161837622523,15.1000003815,0.5927001752173913,-0.037238186219063545,-0.048068290370903,15.1000003815,0.021869948989594594,0.8390313926894144,1.7814748725204992
1648294699060405854,21775,12,0,0.0126882251352,0.0439508594573,0.0102543225512,0.0,21.1000003815,0.004243553556923077,0.014699284099431437,0.0034295393147826085,21.1000003815,0.0,0.01587716746201119,0.046880915467820236
1648294699060429698,21776,12,1,0.033514522016,0.0146502861753,-0.0293251797557,0.0,21.1000003815,0.011208870239464881,0.0048997612626421405,-0.009807752426655518,21.1000003815,0.0,0.016591720963215706,0.0468809155060271
1648294699060444192,21777,12,2,2.24231743813,-1.2306240797,0.591558873653,0.0,21.1000003815,0.7499389425183947,-0.4115799597658863,0.19784577714147156,21.1000003815,0.0,1.1376356614892593,2.625331411436843
1648294699165627325,21778,13,0,0.0126678450033,0.0439508594573,0.0102794887498,0.0,14.8000001907,0.004236737459297658,0.014699284099431437,0.0034379561036120398,14.8000001907,0.0,0.015873526439762208,0.046880915445629195
1648294699165662599,21779,13,1,0.0335509069264,0.0146502861753,-0.0292835440487,0.0,14.8000001907,0.011221039105819395,0.0048997612626421405,-0.009793827441036788,14.8000001907,0.0,0.016608163584802046,0.0468809150151135
1648294699165735459,21780,13,2,1.964838624,-0.12306240201,0.0349216870964,0.0,14.8000001907,0.6571366635451504,-0.04115799398327759,0.011679494012173912,14.8000001907,0.0,0.9302425326866279,1.968998399537273
1648294699165752444,21781,13,3,2.239590168,-1.2306240797,0.601801693439,0.0,14.8000001907,0.7490268120401337,-0.4115799597658863,0.20127146937759197,14.8000001907,0.0,1.1364331892332693,2.625331412291749
1648294699360300361,21782,15,0,0.00631579104811,0.0454158857465,0.00976362358779,0.0,14.8000001907,0.0021123046983645482,0.015189259446989964,0.003265425949093645,14.8000001907,0.0,0.015480221730499849,0.04688091552291377
1648294699360340681,21783,15,1,0.0335372425616,0.0146502861753,-0.0292991939932,0.0,14.8000001907,0.011216469084147156,0.0048997612626421405,-0.00979906153618729,14.8000001907,0.0,0.016601988370738802,0.04688091607791967
1648294699360444054,21784,15,2,1.95616698265,-0.12306240201,-0.187672972679,0.0,14.8000001907,0.6542364490468228,-0.04115799398327759,-0.06276688049464882,14.8000001907,0.0,0.9261450442514495,1.968998416320503
1648294699360469841,21785,15,3,2.24216771126,-1.2306240797,0.592126309872,0.0,14.8000001907,0.7498888666421404,-0.4115799597658863,0.1980355551411371,14.8000001907,0.0,1.1375696409049232,2.6253314529401828
