%time,field.header.seq,field.header.frame_id,field.point_id,field.x,field.y,field.z,field.velocity,field.intensity,normalized_x,normalized_y,normalized_z,normalized_intensity,normalized_velocity,normalized_range,range
1648295957775117817,70436,0,0,0.0127323288471,0.0439508594573,0.0101995095611,0.0,15.0,0.004258303962240802,0.014699284099431437,0.003411207211070234,15.0,0.0,0.015885064000672747,0.046880915522129064
1648295957775122497,70437,0,1,0.0334186702967,0.0146502861753,-0.029434364289,0.0,15.0,0.01117681280826087,0.0048997612626421405,-0.009844268992976588,15.0,0.0,0.016548412296431853,0.04688091520560668
1648295957775124936,70438,0,2,1.79423844814,0.0586011447012,0.54202067852,0.0,15.0,0.600079748541806,0.019599045050568562,0.18127781890301004,15.0,0.0,0.848867205036741,1.8752365501150534
1648295957775127401,70439,0,3,2.24284029007,-1.2306240797,0.589573383331,0.0,15.0,0.7501138093879599,-0.4115799597658863,0.19718173355551838,15.0,0.0,1.1378662124124794,2.625331401296057
1648295957969946632,70440,2,0,0.0127004906535,0.0439508594573,0.0102391270921,0.0,14.6999998093,0.004247655736956521,0.014699284099431437,0.003424457221438127,14.6999998093,0.0,0.01587936118221376,0.046880915450566385
1648295957969971787,70441,2,1,0.0335269682109,0.0146502861753,-0.0293109472841,0.0,14.6999998093,0.01121303284645485,0.0048997612626421405,-0.00980299240270903,14.6999998093,0.0,0.016597345319726262,0.046880914166899254
1648295957969977091,70442,2,2,1.8285639286,-0.0586011447012,0.411621421576,0.0,14.6999998093,0.611559842341137,-0.019599045050568562,0.13766602728294314,14.6999998093,0.0,0.8650982626820649,1.8752366063613424
1648295957969980473,70443,2,3,2.24351215363,-1.2306240797,0.587011098862,0.0,14.6999998093,0.7503385129197323,-0.4115799597658863,0.19632478222809363,14.6999998093,0.0,1.1381624801503865,2.6253313008476025
1648295958075078637,70444,3,0,0.0127217965201,0.0439508594573,0.010212643072,0.0,14.6000003815,0.004254781444849498,0.014699284099431437,0.0034155996896321067,14.6000003815,0.0,0.015883176109414296,0.046880915437416903
1648295958075090254,70445,3,1,0.033517640084,0.0146502861753,-0.0293216109276,0.0,14.6000003815,0.011209913071571907,0.0048997612626421405,-0.009806558838662207,14.6000003815,0.0,0.016593129981268932,0.04688091241868381
1648295958075100161,70446,3,2,1.81368935108,-0.351606875658,0.321583598852,0.0,14.6000003815,0.606585067250836,-0.11759427279531771,0.10755304309431438,14.6000003815,0.0,0.8658633267540912,1.8752366432750764
1648295958075102513,70447,3,3,1.10448145866,0.234404578805,1.49722659588,0.0,14.6000003815,0.36939179219397994,0.07839618020234114,0.5007446808963211,14.6000003815,0.0,0.5282485715559284,1.8752365926727443
1648295958075107168,70448,3,4,2.24075579643,-1.2306240797,0.597447276115,0.0,14.6000003815,0.7494166543244146,-0.4115799597658863,0.19981514251337792,14.6000003815,0.0,1.136947099401941,2.625331486214521
1648295958270224413,70449,5,0,0.0127419224009,0.0439508594573,0.0101875215769,0.0,14.8000001907,0.004261512508662207,0.014699284099431437,0.0034071978518060196,14.8000001907,0.0,0.01588678478354783,0.04688091540686569
1648295958270229411,70450,5,1,0.033517640084,0.0146502861753,-0.0293216109276,0.0,14.8000001907,0.011209913071571907,0.0048997612626421405,-0.009806558838662207,14.8000001907,0.0,0.016593129981268932,0.04688091241868381
1648295958270236194,70451,5,2,1.82648289204,-0.175803437829,0.386737495661,0.0,14.8000001907,0.6108638434916388,-0.05879713639765886,0.12934364403377926,14.8000001907,0.0,0.8658905091403414,1.8752366501904338
1648295958270243330,70452,5,3,2.24434947968,-1.2306240797,0.583801388741,0.0,14.8000001907,0.750618555076923,-0.4115799597658863,0.19525130058227422,14.8000001907,0.0,1.138531727152311,2.6253312693778814
1648295958375142135,70453,6,0,0.0127217965201,0.0439508594573,0.010212643072,0.0,15.0,0.004254781444849498,0.014699284099431437,0.0034155996896321067,15.0,0.0,0.015883176109414296,0.046880915437416903
1648295958375150900,70454,6,1,0.0335041433573,0.0146502861753,-0.0293370354921,0.0,15.0,0.011205399116153847,0.0048997612626421405,-0.009811717555886288,15.0,0.0,0.016587031052466603,0.046880914651800804
1648295958375162333,70455,6,2,1.96087408066,-0.061531201005,0.167754486203,0.0,15.0,0.6558107293177257,-0.020578996991638794,0.056105179332107014,15.0,0.0,0.9276847096366719,1.9689984297968726
1648295958375171903,70456,6,3,2.24322485924,-1.2306240797,0.588108897209,0.0,15.0,0.7502424278394649,-0.4115799597658863,0.19669193886588626,15.0,0.0,1.1380357922059385,2.6253314970925437
1648295958570089692,70457,8,0,0.0127016305923,0.0439508594573,0.0102377133444,0.0,14.8999996185,0.0042480369873913034,0.014699284099431437,0.0034239843961204014,14.8999996185,0.0,0.01587956515551629,0.04688091553351634
1648295958570104764,70458,8,1,0.0335269682109,0.0146502861753,-0.0293109472841,0.0,14.8999996185,0.01121303284645485,0.0048997612626421405,-0.00980299240270903,14.8999996185,0.0,0.016597345319726262,0.046880914166899254
1648295958570116406,70459,8,2,2.24482584,-1.2306240797,0.581967711449,0.0,14.8999996185,0.7507778729096989,-0.4115799597658863,0.1946380305849498,14.8999996185,0.0,1.1387418022460194,2.6253314256753115
1648295958570120307,70460,8,3,1.86112999916,-0.117202289402,0.197410792112,0.0809188112617,14.8999996185,0.6224515047357859,-0.03919809010100334,0.06602367629163879,14.8999996185,0.010934974494824324,0.8811516565059925,1.8752365907417279
1648295958570182878,70461,8,4,1.99213278294,-0.251984924078,0.177989065647,0.161837622523,14.8999996185,0.6662651447959865,-0.08427589434046821,0.059528115601003344,14.8999996185,0.021869948989594594,0.9460025965645757,2.015879345178366
1648295958675037498,70462,9,0,0.012779421173,0.0439508594573,0.0101404432207,0.0,20.1000003815,0.004274053904013378,0.014699284099431437,0.003391452582173913,20.1000003815,0.0,0.015893521528743147,0.046880915533556916
1648295958675045239,70463,9,1,0.0335404723883,0.0146502861753,-0.0292954929173,0.0,20.1000003815,0.011217549293745818,0.0048997612626421405,-0.009797823718160533,20.1000003815,0.0,0.016603447977637752,0.046880913795659694
1648295958675065001,70464,9,2,2.24173474312,-1.2306240797,0.593762695789,0.0,20.1000003815,0.749744061244147,-0.4115799597658863,0.19858284140100332,20.1000003815,0.0,1.137378731128125,2.625331297752606
1648295958675069768,70465,9,3,1.91010177135,-0.120132349432,0.17780739069,0.0809188112617,20.1000003815,0.6388300238628761,-0.040178043288294316,0.0594673547458194,20.1000003815,0.010934974494824324,0.9043350451794743,1.9221175891392404
1648295958870070857,70466,11,0,0.0128108067438,0.0439508594573,0.0101007642224,0.0,18.5,0.004284550750434783,0.014699284099431437,0.0033781820141806015,18.5,0.0,0.01589917303830298,0.046880915672999006
1648295958870079489,70467,11,1,0.0335404723883,0.0146502861753,-0.0292954929173,0.0,18.5,0.011217549293745818,0.0048997612626421405,-0.009797823718160533,18.5,0.0,0.016603447977637752,0.046880913795659694
1648295958870102277,70468,11,2,1.90607476234,-0.120132349432,0.216756418347,0.0,18.5,0.6374831981070234,-0.040178043288294316,0.07249378540033444,18.5,0.0,0.9024322306411672,1.9221176150028279
1648295958870106215,70469,11,3,2.24339556694,-1.2306240797,0.587456703186,0.0,18.5,0.7502995207157189,-0.4115799597658863,0.19647381377458192,18.5,0.0,1.1381110687684939,2.6253313454536893
1648295958974992613,70470,12,0,0.0127100823447,0.0439508594573,0.0102272182703,0.0,15.3000001907,0.004250863660434782,0.014699284099431437,0.003420474337892977,15.3000001907,0.0,0.01588107794688408,0.04688091545386831
1648295958975002301,70471,12,1,0.0335404723883,0.0146502861753,-0.0292954929173,0.0,15.3000001907,0.011217549293745818,0.0048997612626421405,-0.009797823718160533,15.3000001907,0.0,0.016603447977637752,0.046880913795659694
1648295958975013402,70472,12,2,2.24322938919,-1.2306240797,0.588090956211,0.0,15.3000001907,0.7502439428729097,-0.4115799597658863,0.19668593853210703,15.3000001907,0.0,1.1380377897573823,2.6253313487711187
1648295959170175958,70473,14,0,0.0127004906535,0.0439508594573,0.0102391270921,0.0,15.3000001907,0.004247655736956521,0.014699284099431437,0.003424457221438127,15.3000001907,0.0,0.01587936118221376,0.046880915450566385
1648295959170182481,70474,14,1,0.0335269682109,0.0146502861753,-0.0293109472841,0.0,15.3000001907,0.01121303284645485,0.0048997612626421405,-0.00980299240270903,15.3000001907,0.0,0.016597345319726262,0.046880914166899254
1648295959170185179,70475,14,2,1.9109634161,-0.120132349432,0.168294996023,0.0,15.3000001907,0.6391181993645484,-0.040178043288294316,0.056285951847157185,15.3000001907,0.0,0.9047421846473399,1.92211762510493
1648295959170196717,70476,14,3,2.2418782711,-1.2306240797,0.593220710754,0.0,15.3000001907,0.7497920639130434,-0.4115799597658863,0.19840157550301,15.3000001907,0.0,1.1374420167616683,2.6253313352099537
1648295959274952669,70477,15,0,0.0127004906535,0.0439508594573,0.0102391270921,0.0,15.5,0.004247655736956521,0.014699284099431437,0.003424457221438127,15.5,0.0,0.01587936118221376,0.046880915450566385
1648295959274964571,70478,15,1,0.0335269682109,0.0146502861753,-0.0293109472841,0.0,15.5,0.01121303284645485,0.0048997612626421405,-0.00980299240270903,15.5,0.0,0.016597345319726262,0.046880914166899254
1648295959274972792,70479,15,2,1.90535485744,-0.120132349432,0.222995519638,0.0,15.5,0.6372424272374582,-0.040178043288294316,0.07458044135050167,15.5,0.0,0.9020920669784489,1.9221175603820067
1648295959274981625,70480,15,3,2.24297595024,-1.2306240797,0.589056789875,0.0,15.5,0.7501591806822742,-0.4115799597658863,0.1970089598244147,15.5,0.0,1.1379260327475993,2.6253313392008906
