%time,field.header.seq,field.header.frame_id,field.point_id,field.x,field.y,field.z,field.velocity,field.intensity,normalized_x,normalized_y,normalized_z,normalized_intensity,normalized_velocity,normalized_range,range
1648218522542537878,38280,0,0,0.00529174832627,0.0454158857465,0.010354465805,0.0,11.3000001907,0.0017698154937357859,0.015189259446989964,0.0034630320418060196,11.3000001907,0.0,0.015394092903179077,0.04688091552641263
1648218522542542277,38281,0,1,0.0334505960345,0.0146502861753,-0.0293980780989,0.0,11.3000001907,0.011187490312541805,0.0048997612626421405,-0.009832133143444815,11.3000001907,0.0,0.016562836092207215,0.04688091569061464
1648218522542548522,38282,0,2,1.73274695873,0.054206058383,-0.0588727742434,0.0,11.3000001907,0.5795140330200669,0.01812911651605351,-0.019689891051304347,11.3000001907,0.0,0.8197570943883432,1.73459399379238
1648218522542558948,38283,0,3,1.84081828594,0.180198520422,0.522926926613,0.0,11.3000001907,0.61565828961204,0.06026706368628762,0.1748919487,11.3000001907,0.0,0.872755623357084,1.9221175924459657
1648218522542568250,38284,0,4,2.07052373886,-1.19546329975,-0.0181447006762,0.0,11.3000001907,0.69248285580602,-0.39982050158862875,-0.006068461764615384,11.3000001907,0.0,1.0577908321880582,2.3909266580960993
1648218522542617911,38285,0,5,1.77113497257,0.175803437829,0.590496718884,0.0809188112617,11.3000001907,0.5923528336354514,0.05879713639765886,0.19749054143277592,11.3000001907,0.010934974494824324,0.839774292462244,1.8752366023586997
1648218522542624619,38286,0,6,1.60774195194,0.805765748024,-1.50348210335,-0.647350490093,11.3000001907,0.5377063384414715,0.26948687224882945,-0.5028368238628762,11.3000001907,-0.08747979595851352,0.8067709632322705,2.3440458740840073
1648218522542690768,38287,0,7,1.2390832901,1.7580344677,0.931954205036,-0.647350490093,11.3000001907,0.4144091271237458,0.5879713938795986,0.3116903695772575,11.3000001907,-0.08747979595851352,0.8301687836263467,2.3440459103248266
1648218522542696733,38288,0,8,1.55830585957,0.861436843872,-1.45140480995,-0.566431701183,11.3000001907,0.5211725282842808,0.28810596785016723,-0.48541966887959864,11.3000001907,-0.07654482448418919,0.7913574774950576,2.2971648853089204
1648218522542703067,38289,0,9,1.14671051502,1.72287368774,0.99685895443,-0.566431701183,11.3000001907,0.38351522241471575,0.5762119356989966,0.3333976436220736,11.3000001907,-0.07654482448418919,0.7913204448828568,2.2971648883333415
1648218522737544527,38290,2,0,0.00518398126587,0.0454158857465,0.0104088373482,0.0,19.8999996185,0.0017337729986187291,0.015189259446989964,0.003481216504414716,19.8999996185,0.0,0.01538588769520474,0.04688091546509428
1648218522737547064,38291,2,1,0.0335027687252,0.0146502861753,-0.0293386057019,0.0,19.8999996185,0.011204939372976588,0.0048997612626421405,-0.00981224270966555,19.8999996185,0.0,0.01658640989289275,0.04688091489939147
1648218522737644703,38292,2,2,1.72929930687,0.054206058383,-0.124104306102,0.0,19.8999996185,0.5783609721973244,0.01812911651605351,-0.041506456890301004,19.8999996185,0.0,0.8181268197460104,1.7345939779382213
1648218522737647366,38293,2,3,1.80941677094,0.240264698863,0.6023452878,0.0,19.8999996185,0.6051561106822742,0.08035608657625418,0.20145327351170567,19.8999996185,0.0,0.8595841653043895,1.9221175880298087
1648218522737650133,38294,2,4,2.06930851936,-1.19546329975,-0.0732064172626,0.0,19.8999996185,0.6920764278795986,-0.39982050158862875,-0.024483751592842804,19.8999996185,0.0,1.0572587183578828,2.3909264791861458
1648218522842496546,38295,3,0,0.00526678469032,0.0454158857465,0.0103671858087,0.0,11.3999996185,0.00176146645161204,0.015189259446989964,0.003467286223645485,11.3999996185,0.0,0.015392177580455708,0.046880915527594394
1648218522842510129,38296,3,1,0.0334732718766,0.0146502861753,-0.0293722543865,0.0,11.3999996185,0.011195074206220734,0.0048997612626421405,-0.009823496450334448,11.3999996185,0.0,0.016573081590231374,0.046880914484342506
1648218522842516496,38297,3,2,1.72585272789,0.054206058383,-0.165256738663,0.0,11.3999996185,0.5772082701973243,0.01812911651605351,-0.05526981226187291,11.3999996185,0.0,0.8164970540265454,1.734593821274683
1648218522842529168,38298,3,3,2.06671023369,-1.19546329975,-0.126911714673,0.0,11.3999996185,0.6912074360167223,-0.39982050158862875,-0.042445389522742474,11.3999996185,0.0,1.0561211448977836,2.390926656007953
1648218522842571539,38299,3,4,1.71257376671,-0.34281668067,0.540788710117,-0.161837622523,11.3999996185,0.5727671460568562,-0.1146544082508361,0.1808657893367893,11.3999996185,-0.021869948989594594,0.8180892619608091,1.8283557126442556
1648218523037565935,38300,5,0,0.00525369495153,0.0454158857465,0.0103738252074,0.0,32.5,0.0017570886125518395,0.015189259446989964,0.003469506758327759,32.5,0.0,0.015391176801424008,0.04688091550104969
1648218523037664396,38301,5,1,0.0334505960345,0.0146502861753,-0.0293980780989,0.0,32.5,0.011187490312541805,0.0048997612626421405,-0.009832133143444815,32.5,0.0,0.016562836092207215,0.04688091569061464
1648218523037667289,38302,5,2,1.7317647934,0.054206058383,-0.0828767716885,0.0,32.5,0.579185549632107,0.01812911651605351,-0.027717983842307687,32.5,0.0,0.8192926624051654,1.734593945484266
1648218523037731273,38303,5,3,2.06941437721,-1.19546329975,-0.0701547041535,0.0,32.5,0.6921118318428093,-0.39982050158862875,-0.02346311175702341,32.5,0.0,1.0573050690525423,2.3909266086953562
1648218523037732340,38304,5,4,1.70275604725,0.540595591068,0.709164321423,-0.242756426334,32.5,0.5694836278428094,0.18080120102608696,0.23717870281705683,32.5,-0.03280492247756756,0.8254164276621166,1.9221175261434844
1648218523037733442,38305,5,5,1.71416282654,-0.457088917494,0.442267179489,-0.0809188112617,32.5,0.5732986041939799,-0.15287254765685618,0.1479154446451505,32.5,-0.010934974494824324,0.8250530861518118,1.8283557455923598
1648218523142487157,38306,6,0,0.00526678469032,0.0454158857465,0.0103671858087,0.0,24.0,0.00176146645161204,0.015189259446989964,0.003467286223645485,24.0,0.0,0.015392177580455708,0.046880915527594394
1648218523142498606,38307,6,1,0.0335027687252,0.0146502861753,-0.0293386057019,0.0,24.0,0.011204939372976588,0.0048997612626421405,-0.00981224270966555,24.0,0.0,0.01658640989289275,0.04688091489939147
1648218523142511501,38308,6,2,2.06978678703,-1.19546329975,-0.0581422187388,0.0,24.0,0.6922363836220735,-0.39982050158862875,-0.019445558106622074,24.0,0.0,1.0574681343241108,2.390926674411618
1648218523142515218,38309,6,3,1.72408473492,0.527410328388,0.515638113022,-0.161837622523,24.0,0.5766169682006689,0.1763914141765886,0.17245421840200667,24.0,-0.021869948989594594,0.8343189959656193,1.875236649405987
1648218523142517191,38310,6,4,1.71145617962,-0.514225006104,0.386490255594,-0.0809188112617,24.0,0.5723933711103679,-0.17198160739264212,0.12926095504816054,24.0,-0.010934974494824324,0.8275542374150106,1.8283556353541455
1648218523337531208,38311,8,0,0.00529174832627,0.0454158857465,0.010354465805,0.0,26.2000007629,0.0017698154937357859,0.015189259446989964,0.0034630320418060196,26.2000007629,0.0,0.015394092903179077,0.04688091552641263
1648218523337541635,38312,8,1,0.0335027687252,0.0146502861753,-0.0293386057019,0.0,26.2000007629,0.011204939372976588,0.0048997612626421405,-0.00981224270966555,26.2000007629,0.0,0.01658640989289275,0.04688091489939147
1648218523337573404,38313,8,2,1.73232913017,-0.0,-0.0886090993881,0.0,26.2000007629,0.5793742910267557,-0.0,-0.02963515029702341,26.2000007629,0.0,0.8193589800603346,1.7345938394131113
1648218523337691693,38314,8,3,1.74027240276,0.0571361146867,0.557738482952,0.0,26.2000007629,0.5820309039331103,0.0191090684570903,0.18653460968294314,26.2000007629,0.0,0.8233377816933246,1.8283557604512186
1648218523337695061,38315,8,4,1.67615640163,0.571361124516,0.454896390438,-0.323675245047,26.2000007629,0.5605874252943143,0.19109067709565214,0.15213926101605352,26.2000007629,-0.04373989797932432,0.8154950457661233,1.8283556938864325
1648218523442505538,38316,9,0,0.00518398126587,0.0454158857465,0.0104088373482,0.0,38.7000007629,0.0017337729986187291,0.015189259446989964,0.003481216504414716,38.7000007629,0.0,0.01538588769520474,0.04688091546509428
1648218523442511741,38317,9,1,0.0335027687252,0.0146502861753,-0.0293386057019,0.0,38.7000007629,0.011204939372976588,0.0048997612626421405,-0.00981224270966555,38.7000007629,0.0,0.01658640989289275,0.04688091489939147
1648218523442521496,38318,9,2,1.67361199856,0.0527410283685,-0.211225762963,0.0,38.7000007629,0.5597364543678929,0.017639139922575247,-0.070644067880602,38.7000007629,0.0,0.7917833895415392,1.687712967520445
1648218523442525669,38319,9,3,1.79624295235,-0.228544458747,0.253304898739,-0.161837622523,38.7000007629,0.6007501512876254,-0.07643627382842809,0.08471735743779263,38.7000007629,-0.021869948989594594,0.8530205111842177,1.8283557326779105
1648218523637500250,38320,11,0,0.00529174832627,0.0454158857465,0.010354465805,0.0,28.6000003815,0.0017698154937357859,0.015189259446989964,0.0034630320418060196,28.6000003815,0.0,0.015394092903179077,0.04688091552641263
1648218523637502736,38321,11,1,0.0334885679185,0.0146502861753,-0.0293548125774,0.0,28.6000003815,0.011200189939297658,0.0048997612626421405,-0.009817663069364548,28.6000003815,0.0,0.01657999305740438,0.04688091389578978
1648218523637652212,38322,11,2,1.73291897774,0.054206058383,0.0535655841231,0.0,28.6000003815,0.5795715644615385,0.01812911651605351,0.017914911077959866,28.6000003815,0.0,0.8198384362363375,1.7345938291079317
1648218523637656207,38323,11,3,1.53032648563,0.564036011696,-0.179705351591,-0.566431701183,28.6000003815,0.5118148781371238,0.18864080658729096,-0.06010212427792642,28.6000003815,-0.07654482448418919,0.7479935112518968,1.640832041526811
1648218523742554694,38324,12,0,0.00529746292159,0.0454158857465,0.0103515433148,0.0,22.7999992371,0.0017717267296287623,0.015189259446989964,0.003462054620334448,22.7999992371,0.0,0.01539453259299989,0.046880915525861294
1648218523742561389,38325,12,1,0.0334885679185,0.0146502861753,-0.0293548125774,0.0,22.7999992371,0.011200189939297658,0.0048997612626421405,-0.009817663069364548,22.7999992371,0.0,0.01657999305740438,0.04688091389578978
1648218523742569361,38326,12,2,1.7332918644,0.054206058383,-0.0397141613066,0.0,22.7999992371,0.5796962757190635,0.01812911651605351,-0.01328232819618729,22.7999992371,0.0,0.820014761471254,1.7345939578382417
1648218523742573795,38327,12,3,1.81896817684,-0.0,0.455924421549,0.0,22.7999992371,0.6083505608160534,-0.0,0.1524830841301003,22.7999992371,0.0,0.8603376137833412,1.8752366001444787
1648218523742576011,38328,12,4,0.792281985283,1.69943320751,0.0269897803664,0.0,22.7999992371,0.26497725260301,0.5683723102040134,0.009026682396789297,22.7999992371,0.0,0.6807884927058667,1.8752366301978867
1648218523937546557,38329,14,0,0.00529174832627,0.0454158857465,0.010354465805,0.0,11.6999998093,0.0017698154937357859,0.015189259446989964,0.0034630320418060196,11.6999998093,0.0,0.015394092903179077,0.04688091552641263
1648218523937564686,38330,14,1,0.0335027687252,0.0146502861753,-0.0293386057019,0.0,11.6999998093,0.011204939372976588,0.0048997612626421405,-0.00981224270966555,11.6999998093,0.0,0.01658640989289275,0.04688091489939147
1648218523937577461,38331,14,2,1.70500230789,0.162618175149,-0.274478197098,0.0,11.6999998093,0.5702348855819398,0.05438734954816053,-0.09179872812642138,11.6999998093,0.0,0.8082658184410434,1.7345938491419788
1648218523937658075,38332,14,3,0.577790081501,-1.62618172169,0.174664750695,0.0,11.6999998093,0.1932408299334448,-0.5438734855150501,0.05841630458026756,11.6999998093,0.0,0.6086726582926347,1.734593942504969
1648218523937660045,38333,14,4,1.74553132057,0.0571361146867,0.541054844856,-0.0809188112617,11.6999998093,0.5837897393210703,0.0191090684570903,0.18095479761070232,11.6999998093,-0.010934974494824324,0.8258244825448227,1.8283556743244709
1648218524042588403,38334,15,0,0.00529174832627,0.0454158857465,0.010354465805,0.0,15.3000001907,0.0017698154937357859,0.015189259446989964,0.0034630320418060196,15.3000001907,0.0,0.015394092903179077,0.04688091552641263
1648218524042597622,38335,15,1,0.0335027687252,0.0146502861753,-0.0293386057019,0.0,15.3000001907,0.011204939372976588,0.0048997612626421405,-0.00981224270966555,15.3000001907,0.0,0.01658640989289275,0.04688091489939147
1648218524042609091,38336,15,2,1.72157144547,-0.0,0.21215030551,0.0,15.3000001907,0.575776403167224,-0.0,0.0709532794347826,15.3000001907,0.0,0.8142707982534872,1.7345938988667207
1648218524042625642,38337,15,3,2.07057070732,-1.19546329975,-0.0115809598938,0.0,15.3000001907,0.6924985643210702,-0.39982050158862875,-0.003873230733712374,15.3000001907,0.0,1.0578113993827394,2.3909265303837475
