%time,field.header.seq,field.header.frame_id,field.point_id,field.x,field.y,field.z,field.velocity,field.intensity,normalized_x,normalized_y,normalized_z,normalized_intensity,normalized_velocity,normalized_range,range
1648218116337698946,20166,0,0,0.00483629899099,0.0454158857465,0.0105748651549,0.0,20.0,0.001617491301334448,0.015189259446989964,0.0035367441989632106,20.0,0.0,0.015360539012930474,0.04688091551061808
1648218116337700955,20167,0,1,0.0334734544158,0.0146502861753,-0.0293720476329,0.0,20.0,0.0111951352561204,0.0048997612626421405,-0.009823427301973244,20.0,0.0,0.016573164068353043,0.04688091528217184
1648218116337707296,20168,0,2,1.78041052818,0.0556710883975,0.0263001080602,0.0,20.0,0.5954550261471572,0.018619093109531772,0.008796022762608696,20.0,0.0,0.8423063854418087,1.781474842545223
1648218116337710778,20169,0,3,1.7576225996,-0.0,0.653662979603,0.161837622523,20.0,0.5878336453511704,-0.0,0.2186163811381271,20.0,0.021869948989594594,0.8313223136748413,1.8752366500066422
1648218116442776782,20170,1,0,0.00483629899099,0.0454158857465,0.0105748651549,0.0,35.0,0.001617491301334448,0.015189259446989964,0.0035367441989632106,35.0,0.0,0.015360539012930474,0.04688091551061808
1648218116442799518,20171,1,1,0.0334734544158,0.0146502861753,-0.0293720476329,0.0,35.0,0.0111951352561204,0.0048997612626421405,-0.009823427301973244,35.0,0.0,0.016573164068353043,0.04688091528217184
1648218116442803787,20172,1,2,0.27673047781,-0.50543487072,-0.403069972992,0.0,35.0,0.09255199926755851,-0.16904176278260868,-0.1348060110341137,35.0,0.0,0.21379163384355349,0.7032137434780876
1648218116442808170,20173,1,3,1.72273004055,0.117202289402,0.731421291828,0.0,35.0,0.5761638931605351,0.03919809010100334,0.24462250562809362,35.0,0.0,0.8157610886965468,1.8752365918448304
1648218116442810282,20174,1,4,1.8255007267,-0.234404578805,0.359324395657,0.161837622523,35.0,0.6105353601003344,-0.07839618020234114,0.12017538316287624,35.0,0.021869948989594594,0.8669791306231125,1.8752366333509074
1648218116442813174,20175,1,5,1.31216967106,0.351606875658,1.29270863533,0.161837622523,35.0,0.4388527327959866,0.11759427279531771,0.43234402519397985,35.0,0.021869948989594594,0.6316738518881961,1.8752365868114986
1648218116638295327,20176,3,0,0.00483629899099,0.0454158857465,0.0105748651549,0.0,34.0999984741,0.001617491301334448,0.015189259446989964,0.0035367441989632106,34.0999984741,0.0,0.015360539012930474,0.04688091551061808
1648218116638331921,20177,3,1,0.0334734544158,0.0146502861753,-0.0293720476329,0.0,34.0999984741,0.0111951352561204,0.0048997612626421405,-0.009823427301973244,34.0999984741,0.0,0.016573164068353043,0.04688091528217184
1648218116638354039,20178,3,2,1.72766292095,0.108412116766,-0.110651180148,0.0,34.0999984741,0.5778136859364549,0.03625823303210702,-0.03700708366153846,34.0999984741,0.0,0.8179559711705483,1.7345939118869627
1648218116638545157,20179,3,3,0.999219238758,-1.40935754776,0.15520387888,0.0,34.0999984741,0.334187036373913,-0.4713570393846154,0.0519076517993311,34.0999984741,0.0,0.6674873850030336,1.73459390883042
1648218116743346175,20180,4,0,0.00483629899099,0.0454158857465,0.0105748651549,0.0,12.8999996185,0.001617491301334448,0.015189259446989964,0.0035367441989632106,12.8999996185,0.0,0.015360539012930474,0.04688091551061808
1648218116743371320,20181,4,1,0.0334959626198,0.0146502861753,-0.0293463747948,0.0,12.8999996185,0.01120266308354515,0.0048997612626421405,-0.009814841068494983,12.8999996185,0.0,0.016583334428206507,0.04688091413829404
1648218116743380485,20182,4,2,0.280061930418,-0.50543487072,-0.400762379169,0.0,12.8999996185,0.09366619746421403,-0.16904176278260868,-0.13403424052474916,12.8999996185,0.0,0.2147599372775612,0.7032137498416802
1648218116743388396,20183,4,3,1.73068022728,0.054206058383,-0.103071279824,0.0,12.8999996185,0.5788228184882942,0.01812911651605351,-0.03447199994113712,12.8999996185,0.0,0.8187798087832394,1.734593910570405
1648218116743433042,20184,4,4,1.82152426243,0.175803437829,0.409457057714,0.0,12.8999996185,0.6092054389397993,0.05879713639765886,0.13694215977056853,12.8999996185,0.0,0.863550598932241,1.875236670259372
1648218116938200667,20185,6,0,0.00483629899099,0.0454158857465,0.0105748651549,0.0,14.6000003815,0.001617491301334448,0.015189259446989964,0.0035367441989632106,14.6000003815,0.0,0.015360539012930474,0.04688091551061808
1648218116938309402,20186,6,1,0.0334879569709,0.0146502861753,-0.0293555110693,0.0,14.6000003815,0.011199985608996654,0.0048997612626421405,-0.009817896678695651,14.6000003815,0.0,0.016579716997414427,0.046880914850745296
1648218116938323406,20187,6,2,1.72711539268,0.108412116766,-0.118891946971,0.0,14.6000003815,0.5776305661137123,0.03625823303210702,-0.03976319296688963,14.6000003815,0.0,0.8176972552725771,1.734593918399471
1648218116938330521,20188,6,3,1.6960299015,0.64461261034,0.473781943321,-0.0809188112617,14.6000003815,0.5672340807692308,0.21558950178595315,0.15845549943846152,14.6000003815,-0.010934974494824324,0.8306550656274504,1.8752365648121496
1648218116938342998,20189,6,4,1.81375551224,-0.46880915761,0.0837921053171,-0.0809188112617,14.6000003815,0.606607194729097,-0.15679236040468228,0.028024115490668897,14.6000003815,-0.010934974494824324,0.8720828066620055,1.8752365721032254
1648218117043298965,20190,7,0,0.00483629899099,0.0454158857465,0.0105748651549,0.0,21.0,0.001617491301334448,0.015189259446989964,0.0035367441989632106,21.0,0.0,0.015360539012930474,0.04688091551061808
1648218117043323600,20191,7,1,0.0334879569709,0.0146502861753,-0.0293555110693,0.0,21.0,0.011199985608996654,0.0048997612626421405,-0.009817896678695651,21.0,0.0,0.016579716997414427,0.046880914850745296
1648218117043377942,20192,7,2,1.72086429596,0.108412116766,-0.188915446401,0.0,21.0,0.5755398983143812,0.03625823303210702,-0.06318242354548495,21.0,0.0,0.8147435231814163,1.7345939461616027
1648218117043443477,20193,7,3,1.78750824928,0.293005734682,0.485256850719,-0.0809188112617,21.0,0.5978288459130434,0.09799522899063544,0.16229326111003342,21.0,-0.010934974494824324,0.8511179253877631,1.875236601863965
1648218117238382109,20194,9,0,0.00462535722181,0.0454158857465,0.0106688160449,0.0,18.6000003815,0.0015469422146521738,0.015189259446989964,0.0035681659013043474,18.6000003815,0.0,0.01534599827247872,0.04688091555599578
1648218117238560082,20195,9,1,0.0334734544158,0.0146502861753,-0.0293720476329,0.0,18.6000003815,0.0111951352561204,0.0048997612626421405,-0.009823427301973244,18.6000003815,0.0,0.016573164068353043,0.04688091528217184
1648218117238592478,20196,9,2,0.279341876507,-0.50543487072,-0.401264607906,0.0,18.6000003815,0.09342537675819397,-0.16904176278260868,-0.1342022100020067,18.6000003815,0.0,0.2145500398729227,0.7032137499140294
1648218117238637085,20197,9,3,1.74963665009,0.0571361146867,0.527628183365,0.0809188112617,18.6000003815,0.5851627592274247,0.0191090684570903,0.17646427537290968,18.6000003815,0.010934974494824324,0.8277657072327916,1.828355666390076
1648218117238667092,20198,9,4,1.80268752575,0.234404578805,0.460309296846,-0.161837622523,18.6000003815,0.6029055270066889,0.07839618020234114,0.15394959760735785,18.6000003815,-0.021869948989594594,0.8562336772521532,1.8752366439525079
1648218117343354820,20199,10,0,0.00488637946546,0.0454158857465,0.0105518177152,0.0,29.2000007629,0.0016342406238996656,0.015189259446989964,0.003529036025150501,29.2000007629,0.0,0.015364084332676055,0.046880915514891756
1648218117343427396,20200,10,1,0.0334734544158,0.0146502861753,-0.0293720476329,0.0,29.2000007629,0.0111951352561204,0.0048997612626421405,-0.009823427301973244,29.2000007629,0.0,0.016573164068353043,0.04688091528217184
1648218117343459567,20201,10,2,1.7806032896,0.0556710883975,-0.00233795749955,0.0,29.2000007629,0.5955194948494983,0.018619093109531772,-0.0007819255851337793,29.2000007629,0.0,0.8423975356800522,1.7814748976797212
1648218117343507826,20202,10,3,1.83673346043,-0.0,0.378050863743,-0.161837622523,29.2000007629,0.6142921272341136,-0.0,0.12643841596755853,29.2000007629,-0.021869948989594594,0.8687402575935024,1.8752365878043205
1648218117538265928,20203,12,0,0.00488637946546,0.0454158857465,0.0105518177152,0.0,24.7000007629,0.0016342406238996656,0.015189259446989964,0.003529036025150501,24.7000007629,0.0,0.015364084332676055,0.046880915514891756
1648218117538311918,20204,12,1,0.03341537714,0.0146502861753,-0.0294381007552,0.0,24.7000007629,0.0111757114180602,0.0048997612626421405,-0.009845518647224081,24.7000007629,0.0,0.016546924542959963,0.046880913925604395
1648218117538352261,20205,12,2,1.77384030819,0.111342176795,-0.121433600783,0.0,24.7000007629,0.5932576281571906,0.037238186219063545,-0.040613244409030094,24.7000007629,0.0,0.8398189740927962,1.7814748493010415
1648218117538361766,20206,12,3,1.57407104969,0.580151319504,-0.184661015868,-0.647350490093,24.7000007629,0.5264451671204012,0.19403054164013378,-0.06175953707959866,24.7000007629,-0.08747979595851352,0.7693743426044425,1.6877129239819821
1648218117538375503,20207,12,4,1.88681864738,1.12514197826,0.487594872713,-0.161837622523,24.7000007629,0.6310430258795986,0.37630166496989964,0.16307520826521738,24.7000007629,-0.021869948989594594,0.9685213183413559,2.250283946358709
1648218117538386801,20208,12,5,1.826810956,-0.0,0.423407822847,-0.0809188112617,24.7000007629,0.6109735638795987,-0.0,0.14160796750735785,24.7000007629,-0.010934974494824324,0.864047100289953,1.8752366393097355
1648218117643501202,20209,13,0,0.00462535722181,0.0454158857465,0.0106688160449,0.0,20.1000003815,0.0015469422146521738,0.015189259446989964,0.0035681659013043474,20.1000003815,0.0,0.01534599827247872,0.04688091555599578
1648218117643578511,20210,13,1,0.0334734544158,0.0146502861753,-0.0293720476329,0.0,20.1000003815,0.0111951352561204,0.0048997612626421405,-0.009823427301973244,20.1000003815,0.0,0.016573164068353043,0.04688091528217184
1648218117643589040,20211,13,2,1.78044950962,0.0556710883975,0.0235115904361,0.0,20.1000003815,0.5954680634180601,0.018619093109531772,0.007863408172608695,20.1000003815,0.0,0.8423248184221638,1.781474816345798
1648218117643625062,20212,13,3,2.06674742699,-1.19546329975,-0.126301199198,0.0,20.1000003815,0.6912198752474916,-0.39982050158862875,-0.0422412037451505,20.1000003815,0.0,1.0561374273099586,2.390926477526609
1648218117643829253,20213,13,4,1.80101132393,-0.0,0.522370159626,-0.0809188112617,20.1000003815,0.6023449243913044,-0.0,0.17470573900535116,20.1000003815,-0.010934974494824324,0.8518443613007791,1.8752366177610185
1648218117838415801,20214,15,0,0.00483629899099,0.0454158857465,0.0105748651549,0.0,21.8999996185,0.001617491301334448,0.015189259446989964,0.0035367441989632106,21.8999996185,0.0,0.015360539012930474,0.04688091551061808
1648218117838473583,20215,15,1,0.0334734544158,0.0146502861753,-0.0293720476329,0.0,21.8999996185,0.0111951352561204,0.0048997612626421405,-0.009823427301973244,21.8999996185,0.0,0.016573164068353043,0.04688091528217184
1648218117838497868,20216,15,2,1.74415612221,0.111342176795,0.345217734575,0.0,21.8999996185,0.5833298067591972,0.037238186219063545,0.11545743631270902,21.8999996185,0.0,0.8257929579624244,1.7814749347776884
1648218117838517037,20217,15,3,1.7557425499,0.117202289402,0.64818495512,0.0,21.8999996185,0.5872048661872908,0.03919809010100334,0.2167842659264214,21.8999996185,0.0,0.831357684763685,1.8752365222057563
1648218117943347008,20218,16,0,0.00462535722181,0.0454158857465,0.0106688160449,0.0,17.3999996185,0.0015469422146521738,0.015189259446989964,0.0035681659013043474,17.3999996185,0.0,0.01534599827247872,0.04688091555599578
1648218117943370395,20219,16,1,0.0334734544158,0.0146502861753,-0.0293720476329,0.0,17.3999996185,0.0111951352561204,0.0048997612626421405,-0.009823427301973244,17.3999996185,0.0,0.016573164068353043,0.04688091528217184
1648218117943411294,20220,16,2,0.28171429038,-0.50543487072,-0.399602591991,0.0,17.3999996185,0.09421882621404681,-0.16904176278260868,-0.13364635183645485,17.3999996185,0.0,0.2152428674566413,0.7032137523327995
1648218117943420417,20221,16,3,1.77145040035,0.114272229373,0.437938064337,0.0,17.3999996185,0.5924583278762542,0.03821813691404682,0.1464675800458194,17.3999996185,0.0,0.8387337876400563,1.8283556578251643
