%time,field.header.seq,field.header.frame_id,field.point_id,field.x,field.y,field.z,field.velocity,field.intensity,normalized_x,normalized_y,normalized_z,normalized_intensity,normalized_velocity,normalized_range,range
1648127816385022193,130570,0,0,0.0125726731494,0.0439508594573,0.0103956768289,0.0,12.6000003815,0.004204907407826087,0.014699284099431437,0.0034768149929431435,12.6000003815,0.0,0.01585658997554579,0.04688091566818964
1648127816385033241,130571,0,1,0.0329502373934,0.0146502861753,-0.0299578215927,0.0,12.6000003815,0.011020146285418059,0.0048997612626421405,-0.010019338325317725,12.6000003815,0.0,0.016336918581388457,0.046880914068303366
1648127816385117857,130572,0,2,1.35877847672,0.0424858294427,-0.0168200042099,0.0,12.6000003815,0.4544409621137123,0.01420930750591973,-0.00562541946819398,12.6000003815,0.0,0.6428336336202943,1.3595465814169734
1648127816385124063,130573,0,3,1.87705218792,-1.31852579117,0.482406526804,0.0,12.6000003815,0.6277766514782608,-0.44097852547491634,0.16133997551973242,12.6000003815,0.0,0.9912966802186653,2.3440459115083114
1648127816385130095,130574,0,4,2.42275619507,-0.902457654476,0.456276446581,0.0,12.6000003815,0.8102863528662206,-0.30182530250033446,0.15260081825451502,12.6000003815,0.0,1.1850006162495872,2.6253315208896897
1648127816385135535,130575,0,5,1.28838002682,-0.281285494566,0.715208470821,0.161837622523,12.6000003815,0.4308963300401338,-0.09407541624280935,0.2392001574652174,12.6000003815,0.021869948989594594,0.6165983120519952,1.5001892479604222
1648127816385183906,130576,0,6,1.46253561974,0.281285494566,0.180099457502,0.161837622523,12.6000003815,0.48914234773913035,0.09407541624280935,0.06023393227491638,12.6000003815,0.021869948989594594,0.6981193713432928,1.5001892490796018
1648127816385207753,130577,0,7,1.44505906105,-0.0,0.402954190969,-0.0809188112617,12.6000003815,0.4832973448327759,-0.0,0.1347672879494983,12.6000003815,-0.010934974494824324,0.6834856597214182,1.5001892447095428
1648127816489889567,130578,1,0,0.0126673094928,0.0439508594573,0.0102801481262,0.0,21.3999996185,0.0042365583587959865,0.014699284099431437,0.00343817663083612,21.3999996185,0.0,0.015873430835542962,0.04688091533148996
1648127816489908733,130579,1,1,0.0329111367464,0.0146502861753,-0.0300007723272,0.0,21.3999996185,0.011007069145953176,0.0048997612626421405,-0.010033703119464882,21.3999996185,0.0,0.016319277030508346,0.04688091453018932
1648127816489917304,130580,1,2,1.3594776392,-0.0,-0.0136911803856,0.0,21.3999996185,0.45467479571906355,-0.0,-0.004578990095518394,21.3999996185,0.0,0.6430072625751161,1.3595465787920458
1648127816489921185,130581,1,3,1.84510731697,-1.39177727699,0.391261875629,0.0,21.3999996185,0.6170927481505016,-0.4654773501638796,0.13085681459163878,21.3999996185,0.0,0.9890784009144391,2.3440458304398946
1648127816489942220,130582,1,4,2.42488098145,-0.902457654476,0.444845765829,0.0,21.3999996185,0.8109969837625417,-0.30182530250033446,0.14877784810334446,21.3999996185,0.0,1.1859724822158815,2.625331473870724
1648127816489950919,130583,1,5,1.42214560509,-0.234404578805,0.416082203388,0.0809188112617,21.3999996185,0.4756339816354515,-0.07839618020234114,0.13915792755451503,21.3999996185,0.010934974494824324,0.677201100149065,1.5001893309238554
1648127816489954447,130584,1,6,0.928917527199,0.281285494566,-1.14392244816,0.0809188112617,21.3999996185,0.3106747582605351,0.09407541624280935,-0.3825827585819398,21.3999996185,0.010934974494824324,0.44931925707868525,1.5001892777896768
1648127816489957350,130585,1,7,2.14681649208,-0.914177834988,0.705948650837,-0.242756426334,21.3999996185,0.7179988267826087,-0.30574509531371236,0.23610322770468226,21.3999996185,-0.03280492247756756,1.06043608663172,2.437807552344648
1648127816489960915,130586,1,8,1.25308191776,-0.076181486249,-2.08970999718,-0.242756426334,21.3999996185,0.41909094239464884,-0.02547875794280936,-0.6988996646086956,21.3999996185,-0.03280492247756756,0.5932314920001954,2.437807577266553
1648127816685182212,130587,3,0,0.0125683275983,0.0439508594573,0.0104009294882,0.0,23.7000007629,0.004203454046254181,0.014699284099431437,0.003478571735183946,23.7000007629,0.0,0.01585581927475648,0.046880915518705844
1648127816685196768,130588,3,1,0.0329111367464,0.0146502861753,-0.0300007723272,0.0,23.7000007629,0.011007069145953176,0.0048997612626421405,-0.010033703119464882,23.7000007629,0.0,0.016319277030508346,0.04688091453018932
1648127816685203347,130589,3,2,1.35943865776,-0.0,-0.0171295776963,0.0,23.7000007629,0.4546617584481605,-0.0,-0.005728955751270903,23.7000007629,0.0,0.6429888250897887,1.3595465739151285
1648127816685206330,130590,3,3,1.84156894684,-1.39177727699,0.407591879368,0.0,23.7000007629,0.6159093467692307,-0.4654773501638796,0.13631835430367892,23.7000007629,0.0,0.987602050621093,2.34404592848302
1648127816685340334,130591,3,4,2.42628836632,-0.902457654476,0.4371047616,0.0,23.7000007629,0.8114676810434782,-0.30182530250033446,0.14618888347826087,23.7000007629,0.0,1.1866162429301137,2.6253315271171926
1648127816685349823,130592,3,5,1.47713410854,0.290075659752,0.35687187314,-0.0809188112617,23.7000007629,0.49402478546488293,0.09701527082006689,0.11935514151839464,23.7000007629,-0.010934974494824324,0.7053601492000652,1.5470703270476334
1648127816790140709,130593,4,0,0.0126038333401,0.0439508594573,0.0103578744456,0.0,24.0,0.004215328876287625,0.014699284099431437,0.003464172055384615,24.0,0.0,0.01586212306427883,0.04688091535935669
1648127816790160406,130594,4,1,0.0328981243074,0.0146502861753,-0.0300150439143,0.0,24.0,0.011002717159665552,0.0048997612626421405,-0.010038476225518393,24.0,0.0,0.016313406456717926,0.04688091647078464
1648127816790165123,130595,4,2,1.35806798935,-0.0,-0.0633896738291,0.0,24.0,0.4542033409197324,-0.0,-0.021200559809063546,24.0,0.0,0.6423405248038562,1.3595465841394738
1648127816790192702,130596,4,3,1.87850964069,-1.24527442455,0.644239246845,0.0,24.0,0.6282640938762541,-0.4164797406521739,0.21546463105183944,24.0,0.0,0.9812680152139901,2.344045876210408
1648127816790196924,130597,4,4,1.47560620308,0.338421612978,0.318565011024,-0.161837622523,24.0,0.4935137802943143,0.11318448594581938,0.10654348194782608,24.0,-0.021869948989594594,0.7070519291675745,1.5470703025226509
1648127816985096158,130598,6,0,0.0126367397606,0.0439508594573,0.010317703709,0.0,34.4000015259,0.004226334368093645,0.014699284099431437,0.0034507370264214047,34.4000015259,0.0,0.015867978996005033,0.04688091561221024
1648127816985249117,130599,6,1,0.0328232087195,0.0146502861753,-0.0300969481468,0.0,34.4000015259,0.01097766177909699,0.0048997612626421405,-0.01006586894541806,34.4000015259,0.0,0.016279612301998543,0.04688091512986084
1648127816985373803,130600,6,2,1.3577824831,-0.0,-0.0692358836532,0.0,34.4000015259,0.4541078538795986,-0.0,-0.02315581393083612,34.4000015259,0.0,0.6422054857366681,1.35954657110319
1648127816985377644,130601,6,3,1.42789041996,-0.0,0.460105329752,0.0,34.4000015259,0.47755532440133774,-0.0,0.15388138118795985,34.4000015259,0.0,0.6753652165518549,1.5001893100138204
1648127816985378913,130602,6,4,1.84191548824,-1.39177727699,0.406022578478,0.0,34.4000015259,0.61602524690301,-0.4654773501638796,0.1357935045076923,34.4000015259,0.0,0.9877466138435584,2.344045858936642
1648127816985380807,130603,6,5,2.42930674553,-0.902457654476,0.420004695654,0.0,34.4000015259,0.8124771724180602,-0.30182530250033446,0.14046979787759195,34.4000015259,0.0,1.1879969800594237,2.6253314126737015
1648127816985383648,130604,6,6,1.43603885174,0.328166425228,0.284019738436,-0.161837622523,34.4000015259,0.48028055242140466,0.10975465726688963,0.09498987907558527,34.4000015259,-0.021869948989594594,0.6880297252736917,1.5001893207775197
1648127817090124595,130605,7,0,0.0125890737399,0.0439508594573,0.0103758089244,0.0,35.9000015259,0.004210392555150501,0.014699284099431437,0.003470170208829431,35.9000015259,0.0,0.01585950074790286,0.0468809154720728
1648127817090128197,130606,7,1,0.0329111367464,0.0146502861753,-0.0300007723272,0.0,35.9000015259,0.011007069145953176,0.0048997612626421405,-0.010033703119464882,35.9000015259,0.0,0.016319277030508346,0.04688091453018932
1648127817090131226,130607,7,2,1.35954535007,-0.0,-0.00186264456715,0.0,35.9000015259,0.45469744149498326,-0.0,-0.0006229580492140467,35.9000015259,0.0,0.6430392885385522,1.3595466260271263
1648127817090134449,130608,7,3,1.87251472473,-1.31852579117,0.499729722738,0.0,35.9000015259,0.6262591052608695,-0.44097852547491634,0.16713368653444816,35.9000015259,0.0,0.9893750521285247,2.3440459577616948
1648127817090139421,130609,7,4,2.39169883728,-0.984499275684,0.450447291136,0.0,35.9000015259,0.7998992766822741,-0.32926397180066885,0.15065126793846154,35.9000015259,0.0,1.1781733610974245,2.625331391302931
1648127817090271827,130610,7,5,1.47338593006,0.234404578805,0.157341092825,-0.0809188112617,35.9000015259,0.4927712140668896,0.07839618020234114,0.05262243907190635,35.9000015259,-0.010934974494824324,0.7012794734599257,1.5001892630447953
1648127817285074069,130611,9,0,0.0126571767032,0.0439508594573,0.0102926222607,0.0,21.3999996185,0.004233169465953177,0.014699284099431437,0.0034423485821739124,21.3999996185,0.0,0.015871622490809013,0.046880915542817876
1648127817285245394,130612,9,1,0.0328981243074,0.0146502861753,-0.0300150439143,0.0,21.3999996185,0.011002717159665552,0.0048997612626421405,-0.010038476225518393,21.3999996185,0.0,0.016313406456717926,0.04688091647078464
1648127817285249223,130613,9,2,1.35954654217,-0.0,-2.09750432987e-05,0.0,21.3999996185,0.4546978401906354,-0.0,-7.015064648394649e-06,21.3999996185,0.0,0.6430398523793508,1.3595465423318012
1648127817285251219,130614,9,3,1.82846975327,-1.39177727699,0.462823092937,0.0,21.3999996185,0.6115283455752508,-0.4654773501638796,0.15479033208595316,21.3999996185,0.0,0.9821420459381595,2.344045827778272
1648127817285252254,130615,9,4,2.42244553566,-0.902457654476,0.457922101021,0.0,21.3999996185,0.8101824533979933,-0.30182530250033446,0.1531512043548495,21.3999996185,0.0,1.184858526921,2.6253313775531035
1648127817390056666,130616,10,0,0.0126723647118,0.0439508594573,0.0102739166468,0.0,12.3000001907,0.0042382490674916385,0.014699284099431437,0.003436092524013378,12.3000001907,0.0,0.015874333477408915,0.04688091549542953
1648127817390060406,130617,10,1,0.0328981243074,0.0146502861753,-0.0300150439143,0.0,12.3000001907,0.011002717159665552,0.0048997612626421405,-0.010038476225518393,12.3000001907,0.0,0.016313406456717926,0.04688091647078464
1648127817390066579,130618,10,2,1.35936129093,-0.0,-0.0224471706897,0.0,12.3000001907,0.45463588325418053,-0.0,-0.00750741494638796,12.3000001907,0.0,0.6429522320395332,1.3595466136734145
1648127817390068068,130619,10,3,1.45568013191,-0.046880915761,0.359674036503,0.0,12.3000001907,0.486849542444816,-0.015679236040468225,0.1202923199006689,12.3000001907,0.0,0.6886877321400942,1.5001892811357058
1648127817390069658,130620,10,4,1.87123966217,-1.31852579117,0.504483044147,0.0,12.3000001907,0.6258326629331104,-0.44097852547491634,0.16872342613612037,12.3000001907,0.0,0.9888352258682575,2.344045920431252
1648127817390071270,130621,10,5,2.42150139809,-0.902457654476,0.462889134884,0.0,12.3000001907,0.8098666883244148,-0.30182530250033446,0.15481241969364548,12.3000001907,0.0,1.1844267047582675,2.625331443888144
1648127817584995170,130622,12,0,0.0125831468031,0.0439508594573,0.0103829959407,0.0,13.5,0.0042084103020401335,0.014699284099431437,0.003472573893210702,13.5,0.0,0.015858448460566152,0.04688091546896556
1648127817584998000,130623,12,1,0.0328737124801,0.0146502861753,-0.0300417765975,0.0,13.5,0.010994552668929765,0.0048997612626421405,-0.010047416922240803,13.5,0.0,0.016302393603720582,0.04688091507614338
1648127817585153352,130624,12,2,1.35910248756,-0.0,0.034746658057,0.0,13.5,0.45454932694314376,-0.0,0.011620955871906355,13.5,0.0,0.642829822930556,1.3595465795396309
1648127817585157809,130625,12,3,1.47835302353,0.187523663044,0.17284438014,0.0,13.5,0.49443244934113706,0.0627169441618729,0.057807484996655514,13.5,0.0,0.7020401049854315,1.500189310096467
1648127817585294866,130626,12,4,1.86379778385,-1.31852579117,0.5313180089,0.0,13.5,0.6233437404180602,-0.44097852547491634,0.17769833073578595,13.5,0.0,0.9856860034345559,2.3440459184167244
1648127817585297543,130627,12,5,2.42108774185,-0.902457654476,0.465047091246,0.0,13.5,0.8097283417558528,-0.30182530250033446,0.15553414422943143,13.5,0.0,1.184237513387743,2.6253313065087656
