%time,field.header.seq,field.header.frame_id,field.point_id,field.x,field.y,field.z,field.velocity,field.intensity,normalized_x,normalized_y,normalized_z,normalized_intensity,normalized_velocity,normalized_range,range
1648294851565356621,26550,0,0,0.0127002792433,0.0439508594573,0.010239389725,0.0,14.6000003815,0.004247585031204013,0.014699284099431437,0.003424545058528428,14.6000003815,0.0,0.015879323355559413,0.04688091553962624
1648294851565364058,26551,0,1,0.033514522016,0.0146502861753,-0.0293251797557,0.0,14.6000003815,0.011208870239464881,0.0048997612626421405,-0.009807752426655518,14.6000003815,0.0,0.016591720963215706,0.0468809155060271
1648294851565366419,26552,0,2,0.355396568775,-0.5845464468,-0.570448875427,0.0,14.6000003815,0.11886172868729096,-0.19550048387959865,-0.19078557706588625,14.6000003815,0.0,0.25783068143690646,0.8907374411348596
1648294851565396558,26553,0,3,1.87106490135,-0.117202289402,-0.0434982590377,0.0,14.6000003815,0.6257742144983277,-0.03919809010100334,-0.014547912721638795,14.6000003815,0.0,0.8858460505807791,1.8752366091361021
1648294851565518587,26554,0,4,2.2402048111,-1.2306240797,0.599509656429,0.0,14.6000003815,0.7492323782943143,-0.4115799597658863,0.20050490181571906,14.6000003815,0.0,1.136704172883164,2.6253314170528403
1648294851565532443,26555,0,5,1.13450849056,0.114272229373,1.42923641205,-0.0809188112617,14.6000003815,0.3794342777792642,0.03821813691404682,0.4780054889799331,14.6000003815,-0.010934974494824324,0.5379603779990906,1.8283556489611539
1648294851565535831,26556,0,6,1.69097590446,-0.457088917494,0.523979723454,-0.0809188112617,14.6000003815,0.5655437807558528,-0.15287254765685618,0.17524405466688964,14.6000003815,-0.010934974494824324,0.8142785467702964,1.8283556925694413
1648294851760710875,26557,2,0,0.00634802924469,0.0454158857465,0.00974269397557,0.0,12.6999998093,0.002123086703909699,0.015189259446989964,0.003258426078785953,12.6999998093,0.0,0.015483171408100157,0.046880915512948214
1648294851760715317,26558,2,1,0.033514522016,0.0146502861753,-0.0293251797557,0.0,12.6999998093,0.011208870239464881,0.0048997612626421405,-0.009807752426655518,12.6999998093,0.0,0.016591720963215706,0.0468809155060271
1648294851760717834,26559,2,2,0.362933009863,-0.612381994724,-0.535426080227,0.0,12.6999998093,0.12138227754615383,-0.20481003168026754,-0.17907226763444814,12.6999998093,0.0,0.26723484743097264,0.8907374273587091
1648294851760719472,26560,2,3,1.76511561871,0.167013257742,0.173568457365,0.0,12.6999998093,0.5903396718093644,0.05585727683678929,0.05804965129264214,12.6999998093,0.0,0.836732867526786,1.781474834250444
1648294851760722208,26561,2,4,1.18172490597,-0.44536870718,1.25651323795,0.0,12.6999998093,0.3952257210602006,-0.14895274487625418,0.42023854112040127,12.6999998093,0.0,0.5784407155286369,1.78147482605525
1648294851760723650,26562,2,5,2.24040389061,-1.2306240797,0.598765432835,0.0,12.6999998093,0.7492989600702341,-0.4115799597658863,0.20025599760367893,12.6999998093,0.0,1.1367919450829855,2.625331457579401
1648294851865501882,26563,3,0,0.0126920221373,0.0439508594573,0.0102496230975,0.0,14.5,0.00424482345729097,0.014699284099431437,0.0034279675911371237,14.5,0.0,0.015877846371688233,0.04688091559056686
1648294851865509193,26564,3,1,0.033514522016,0.0146502861753,-0.0293251797557,0.0,14.5,0.011208870239464881,0.0048997612626421405,-0.009807752426655518,14.5,0.0,0.016591720963215706,0.0468809155060271
1648294851865539921,26565,3,2,1.79353630543,-0.171408340335,0.311016231775,0.0,14.5,0.5998449182040133,-0.05732720412541805,0.10401880661371236,14.5,0.0,0.8502436475053466,1.8283556531647265
1648294851865549507,26566,3,3,2.19077444077,-1.31266570091,0.608096420765,0.0,14.5,0.7327004818628762,-0.4390186290668896,0.20337672935284282,14.5,0.0,1.1253609860449016,2.625331436147415
1648294852060507001,26567,5,0,0.012702328153,0.0439508594573,0.0102368472144,0.0,14.8999996185,0.004248270285284281,0.014699284099431437,0.003423694720535117,14.8999996185,0.0,0.01587968998026903,0.04688091539670276
1648294852060513204,26568,5,1,0.033514522016,0.0146502861753,-0.0293251797557,0.0,14.8999996185,0.011208870239464881,0.0048997612626421405,-0.009807752426655518,14.8999996185,0.0,0.016591720963215706,0.0468809155060271
1648294852060634543,26569,5,2,1.85843503475,-0.117202289402,0.221348941326,0.0,14.8999996185,0.6215501788461538,-0.03919809010100334,0.07402974626287624,14.8999996185,0.0,0.8798782528935113,1.875236654092876
1648294852060638708,26570,5,3,2.23744344711,-1.2306240797,0.609733998775,0.0,14.8999996185,0.7483088451872909,-0.4115799597658863,0.20392441430602007,14.8999996185,0.0,1.1354868202017856,2.625331284583929
1648294852165465066,26571,6,0,0.00634802924469,0.0454158857465,0.00974269397557,0.0,14.8000001907,0.002123086703909699,0.015189259446989964,0.003258426078785953,14.8000001907,0.0,0.015483171408100157,0.046880915512948214
1648294852165474680,26572,6,1,0.0335651524365,0.0146502861753,-0.0292672142386,0.0,14.8000001907,0.011225803490468226,0.0048997612626421405,-0.009788365966086955,14.8000001907,0.0,0.01661460166372055,0.046880914799007266
1648294852165479484,26573,6,2,2.19174861908,-1.31266570091,0.604575455189,0.0,14.8000001907,0.733026294006689,-0.4390186290668896,0.20219914889264212,14.8000001907,0.0,1.12578526019758,2.6253313567246357
1648294852165481946,26574,6,3,1.87356936932,-0.0586011447012,0.0530686117709,-0.0809188112617,14.8000001907,0.6266118292040134,-0.019599045050568562,0.017748699588929762,14.8000001907,-0.010934974494824324,0.8863796543037827,1.8752366659623856
1648294852360543012,26575,8,0,0.0127002792433,0.0439508594573,0.010239389725,0.0,19.2000007629,0.004247585031204013,0.014699284099431437,0.003424545058528428,19.2000007629,0.0,0.015879323355559413,0.04688091553962624
1648294852360547153,26576,8,1,0.0335424281657,0.0146502861753,-0.0292932540178,0.0,19.2000007629,0.011218203399899665,0.0048997612626421405,-0.009797074922341137,19.2000007629,0.0,0.01660433182859007,0.04688091406127537
1648294852360549522,26577,8,2,1.87152409554,-0.117202289402,-0.013162872754,0.0,19.2000007629,0.6259277911505017,-0.03919809010100334,-0.00440229857993311,19.2000007629,0.0,0.8860630280835887,1.8752365392256582
1648294852360553346,26578,8,3,2.23600077629,-1.2306240797,0.615004062653,0.0,19.2000007629,0.7478263465852842,-0.4115799597658863,0.2056869774759197,19.2000007629,0.0,1.1348508944240543,2.6253314255892817
1648294852360702901,26579,8,4,1.92836952209,-0.307655990124,0.252376228571,-0.161837622523,19.2000007629,0.6449396394949832,-0.10289497997458194,0.0844067654083612,19.2000007629,-0.021869948989594594,0.9178679938247153,1.968998471998522
1648294852465546799,26580,9,0,0.0126799661666,0.0439508594573,0.0102645335719,0.0,18.7999992371,0.004240791360066889,0.014699284099431437,0.00343295437187291,18.7999992371,0.0,0.015875691347309377,0.04688091550375397
1648294852465550051,26581,9,1,0.033514522016,0.0146502861753,-0.0293251797557,0.0,18.7999992371,0.011208870239464881,0.0048997612626421405,-0.009807752426655518,18.7999992371,0.0,0.016591720963215706,0.0468809155060271
1648294852465553276,26582,9,2,1.86725318432,-0.117202289402,0.127048894763,0.0,18.7999992371,0.6244993927491639,-0.03919809010100334,0.04249126915150501,18.7999992371,0.0,0.8840449498502411,1.8752365857818447
1648294852465719396,26583,9,3,2.23670506477,-1.2306240797,0.612436950207,0.0,18.7999992371,0.7480618945719064,-0.4115799597658863,0.2048284114404682,18.7999992371,0.0,1.1351613363314963,2.625331253439096
1648294852465725428,26584,9,4,1.35933315754,-0.0527410283685,-0.998902738094,0.566431701183,18.7999992371,0.4546264740936455,-0.017639139922575247,-0.3340811833090301,18.7999992371,0.07654482448418919,0.6431808463805871,1.687712928620482
1648294852465731129,26585,9,5,1.94560265541,-0.24612480402,0.176090195775,-0.161837622523,18.7999992371,0.6507032292341137,-0.08231598796655518,0.058893042065217394,18.7999992371,-0.021869948989594594,0.9239076290118603,1.9689984431025853
1648294852660501011,26586,11,0,0.0126799661666,0.0439508594573,0.0102645335719,0.0,19.2000007629,0.004240791360066889,0.014699284099431437,0.00343295437187291,19.2000007629,0.0,0.015875691347309377,0.04688091550375397
1648294852660504117,26587,11,1,0.0335651524365,0.0146502861753,-0.0292672142386,0.0,19.2000007629,0.011225803490468226,0.0048997612626421405,-0.009788365966086955,19.2000007629,0.0,0.01661460166372055,0.046880914799007266
1648294852660508714,26588,11,2,1.87123024464,-0.117202289402,-0.0356805622578,0.0,19.2000007629,0.625829513257525,-0.03919809010100334,-0.011933298413979934,19.2000007629,0.0,0.8859241782431879,1.8752365471106778
1648294852660516287,26589,11,3,2.23661971092,-1.2306240797,0.612748742104,0.0,19.2000007629,0.7480333481337792,-0.4115799597658863,0.2049326896668896,19.2000007629,0.0,1.1351237126945029,2.625331289144928
1648294852765517969,26590,12,0,0.0127002792433,0.0439508594573,0.010239389725,0.0,14.8000001907,0.004247585031204013,0.014699284099431437,0.003424545058528428,14.8000001907,0.0,0.015879323355559413,0.04688091553962624
1648294852765527736,26591,12,1,0.0335651524365,0.0146502861753,-0.0292672142386,0.0,14.8000001907,0.011225803490468226,0.0048997612626421405,-0.009788365966086955,14.8000001907,0.0,0.01661460166372055,0.046880914799007266
1648294852765534406,26592,12,2,0.304400086403,-0.640217542648,-0.53932851553,0.0,14.8000001907,0.10180604896421404,-0.21411957948093643,-0.18037742994314382,14.8000001907,0.0,0.2580235212698659,0.8907374260578654
1648294852765540103,26593,12,3,1.86907720566,-0.117202289402,-0.0965740382671,0.0,14.8000001907,0.6251094333311037,-0.03919809010100334,-0.0322990094538796,14.8000001907,0.0,0.884906829867774,1.875236657658462
1648294852765542564,26594,12,4,2.23621869087,-1.2306240797,0.614210665226,0.0,14.8000001907,0.7478992277157189,-0.4115799597658863,0.20542162716588627,14.8000001907,0.0,1.1349469471814204,2.6253312934201607
1648294852960586843,26595,14,0,0.00634802924469,0.0454158857465,0.00974269397557,0.0,14.8999996185,0.002123086703909699,0.015189259446989964,0.003258426078785953,14.8999996185,0.0,0.015483171408100157,0.046880915512948214
1648294852960589713,26596,14,1,0.0335372425616,0.0146502861753,-0.0292991939932,0.0,14.8999996185,0.011216469084147156,0.0048997612626421405,-0.00979906153618729,14.8999996185,0.0,0.016601988370738802,0.04688091607791967
1648294852960762246,26597,14,2,0.354807853699,-0.5845464468,-0.570815205574,0.0,14.8999996185,0.11866483401304347,-0.19550048387959865,-0.19090809550969898,14.8999996185,0.0,0.25764922833155063,0.8907374250740137
1648294852960766389,26598,14,3,1.87523019314,-0.0,-0.00490712188184,0.0,14.8999996185,0.6271672886755852,-0.0,-0.00164117788690301,14.8999996185,0.0,0.8869484855217747,1.875236613632809
1648294852960769186,26599,14,4,2.23825502396,-1.2306240797,0.606748700142,0.0,14.8999996185,0.7485802755719062,-0.4115799597658863,0.2029259866695652,14.8999996185,0.0,1.1358445849813743,2.6253314386842015
1648294853065521471,26600,15,0,0.00634802924469,0.0454158857465,0.00974269397557,0.0,15.1999998093,0.002123086703909699,0.015189259446989964,0.003258426078785953,15.1999998093,0.0,0.015483171408100157,0.046880915512948214
1648294853065525324,26601,15,1,0.033514522016,0.0146502861753,-0.0293251797557,0.0,15.1999998093,0.011208870239464881,0.0048997612626421405,-0.009807752426655518,15.1999998093,0.0,0.016591720963215706,0.0468809155060271
1648294853065528183,26602,15,2,1.87428641319,-0.0586011447012,-0.0113398442045,0.0,15.1999998093,0.6268516432073578,-0.019599045050568562,-0.0037925900349498327,15.1999998093,0.0,0.8867187196345994,1.8752365837129745
1648294853065530692,26603,15,3,2.23533654213,-1.2306240797,0.617413580418,0.0,15.1999998093,0.7476041946923077,-0.4115799597658863,0.20649283626020065,15.1999998093,0.0,1.1345581197646757,2.625331333642242
1648294853065533149,26604,15,4,1.92622625828,0.184593603015,-0.364050000906,0.161837622523,15.1999998093,0.6442228288561873,0.06173699097491638,-0.12175585314581938,15.1999998093,0.021869948989594594,0.9131580161689289,1.9689984254745068
