%time,field.header.seq,field.header.frame_id,field.point_id,field.x,field.y,field.z,field.velocity,field.intensity,normalized_x,normalized_y,normalized_z,normalized_intensity,normalized_velocity,normalized_range,range
1648296069176893452,73576,0,0,0.0127334436402,0.0439508594573,0.0101981181651,0.0,15.1999998093,0.004258676802742474,0.014699284099431437,0.003410741861237458,15.1999998093,0.0,0.015885263902631005,0.0468809156062766
1648296069176928566,73577,0,1,0.0335041433573,0.0146502861753,-0.0293370354921,0.0,15.1999998093,0.011205399116153847,0.0048997612626421405,-0.009811717555886288,15.1999998093,0.0,0.016587031052466603,0.046880914651800804
1648296069176934581,73578,0,2,1.84912765026,-0.175803437829,0.257550507784,0.0,15.1999998093,0.6184373412240802,-0.05879713639765886,0.08613729357324415,15.1999998093,0.0,0.87657663286742,1.8752365663479262
1648296069177288565,73579,0,3,2.24453496933,-1.2306240797,0.583088099957,0.0,15.1999998093,0.7506805917491639,-0.4115799597658863,0.1950127424605351,15.1999998093,0.0,1.1386135274704223,2.625331328879111
1648296069371791270,73580,2,0,0.0127217965201,0.0439508594573,0.010212643072,0.0,15.3000001907,0.004254781444849498,0.014699284099431437,0.0034155996896321067,15.3000001907,0.0,0.015883176109414296,0.046880915437416903
1648296069371795242,73581,2,1,0.0335041433573,0.0146502861753,-0.0293370354921,0.0,15.3000001907,0.011205399116153847,0.0048997612626421405,-0.009811717555886288,15.3000001907,0.0,0.016587031052466603,0.046880914651800804
1648296069371809932,73582,2,2,1.90250146389,-0.180198520422,0.206283420324,0.0,15.3000001907,0.6362881150133779,-0.06026706368628762,0.06899111047625417,15.3000001907,0.0,0.9018632100157552,1.9221176281295687
1648296069371830135,73583,2,3,2.23950719833,-1.2306240797,0.602110147476,0.0,15.3000001907,0.7489990629866221,-0.4115799597658863,0.20137463126287625,15.3000001907,0.0,1.136396610339262,2.625331359391216
1648296069476725351,73584,3,0,0.0128222452477,0.0439508594573,0.0100862393156,0.0,14.8000001907,0.004288376337023411,0.014699284099431437,0.0033733241858193977,14.8000001907,0.0,0.015901235683168858,0.04688091556016218
1648296069476736931,73585,3,1,0.0335041433573,0.0146502861753,-0.0293370354921,0.0,14.8000001907,0.011205399116153847,0.0048997612626421405,-0.009811717555886288,14.8000001907,0.0,0.016587031052466603,0.046880914651800804
1648296069476746577,73586,3,2,1.8783082962,0.0600661747158,0.40359133482,0.0,14.8000001907,0.6281967545819397,0.020089021644080267,0.1349803795384615,14.8000001907,0.0,0.8886314723917783,1.9221175735267926
1648296069476755811,73587,3,3,2.24007248878,-1.2306240797,0.600004255772,0.0,14.8000001907,0.7491881233377926,-0.4115799597658863,0.20067031965618728,14.8000001907,0.0,1.1366458338381817,2.62533150049113
1648296069476758203,73588,3,4,1.81522858143,-0.351606875658,0.312777966261,-0.161837622523,14.8000001907,0.6070998600100334,-0.11759427279531771,0.10460801547190636,14.8000001907,-0.021869948989594594,0.8665846138967987,1.8752365861481899
1648296069671656746,73589,5,0,0.0127016305923,0.0439508594573,0.0102377133444,0.0,29.0,0.0042480369873913034,0.014699284099431437,0.0034239843961204014,29.0,0.0,0.01587956515551629,0.04688091553351634
1648296069671660991,73590,5,1,0.033517640084,0.0146502861753,-0.0293216109276,0.0,29.0,0.011209913071571907,0.0048997612626421405,-0.009806558838662207,29.0,0.0,0.016593129981268932,0.04688091241868381
1648296069671669395,73591,5,2,2.24319791794,-1.2306240797,0.588210761547,0.0,29.0,0.7502334173712374,-0.4115799597658863,0.1967260072063545,29.0,0.0,1.1380239120343383,2.6253312980626893
1648296069776839483,73592,6,0,0.0127004906535,0.0439508594573,0.0102391270921,0.0,15.6000003815,0.004247655736956521,0.014699284099431437,0.003424457221438127,15.6000003815,0.0,0.01587936118221376,0.046880915450566385
1648296069776865871,73593,6,1,0.0335041433573,0.0146502861753,-0.0293370354921,0.0,15.6000003815,0.011205399116153847,0.0048997612626421405,-0.009811717555886288,15.6000003815,0.0,0.016587031052466603,0.046880914651800804
1648296069776872868,73594,6,2,2.24401593208,-1.2306240797,0.585082828999,0.0,15.6000003815,0.7505070006956521,-0.4115799597658863,0.19567987591939798,15.6000003815,0.0,1.138384635994028,2.6253314163655253
1648296069971834840,73595,8,0,0.0127217965201,0.0439508594573,0.010212643072,0.0,15.8999996185,0.004254781444849498,0.014699284099431437,0.0034155996896321067,15.8999996185,0.0,0.015883176109414296,0.046880915437416903
1648296069971866973,73596,8,1,0.033517640084,0.0146502861753,-0.0293216109276,0.0,15.8999996185,0.011209913071571907,0.0048997612626421405,-0.009806558838662207,15.8999996185,0.0,0.016593129981268932,0.04688091241868381
1648296069971882807,73597,8,2,2.24062275887,-1.2306240797,0.597945511341,0.0,15.8999996185,0.7493721601571905,-0.4115799597658863,0.19998177636822742,15.8999996185,0.0,1.1368884431280832,2.6253313710151964
1648296069971888750,73598,8,3,1.96707212925,0.061531201005,0.0616133399308,-0.161837622523,15.8999996185,0.6578836552675584,0.020578996991638794,0.020606468204280935,15.8999996185,-0.021869948989594594,0.9306155505113748,1.9689984901026905
1648296070076812010,73599,9,0,0.0127217965201,0.0439508594573,0.010212643072,0.0,32.5999984741,0.004254781444849498,0.014699284099431437,0.0034155996896321067,32.5999984741,0.0,0.015883176109414296,0.046880915437416903
1648296070076825647,73600,9,1,0.0335269682109,0.0146502861753,-0.0293109472841,0.0,32.5999984741,0.01121303284645485,0.0048997612626421405,-0.00980299240270903,32.5999984741,0.0,0.016597345319726262,0.046880914166899254
1648296070076829178,73601,9,2,2.23871636391,-1.2306240797,0.605043828487,0.0,32.5999984741,0.7487345698695652,-0.4115799597658863,0.20235579548060198,32.5999984741,0.0,1.1360479635633411,2.6253313348920533
1648296070076844660,73602,9,3,1.96262907982,0.061531201005,0.14579385519,-0.0809188112617,32.5999984741,0.6563976855585284,0.020578996991638794,0.04876048668561872,32.5999984741,-0.010934974494824324,0.9285145870315487,1.9689984362267483
1648296070271726872,73603,11,0,0.0127217965201,0.0439508594573,0.010212643072,0.0,15.1999998093,0.004254781444849498,0.014699284099431437,0.0034155996896321067,15.1999998093,0.0,0.015883176109414296,0.046880915437416903
1648296070271733466,73604,11,1,0.0335269682109,0.0146502861753,-0.0293109472841,0.0,15.1999998093,0.01121303284645485,0.0048997612626421405,-0.00980299240270903,15.1999998093,0.0,0.016597345319726262,0.046880914166899254
1648296070271739484,73605,11,2,2.23907327652,-1.2306240797,0.603721499443,0.0,15.1999998093,0.7488539386354515,-0.4115799597658863,0.20191354496421404,15.1999998093,0.0,1.1362053098364508,2.625331295675497
1648296070376738004,73606,12,0,0.0127909947187,0.0439508594573,0.0101258400828,0.0,16.0,0.004277924655083612,0.014699284099431437,0.0033865685895652173,16.0,0.0,0.015895604164200314,0.04688091541674061
1648296070376744549,73607,12,1,0.033517640084,0.0146502861753,-0.0293216109276,0.0,16.0,0.011209913071571907,0.0048997612626421405,-0.009806558838662207,16.0,0.0,0.016593129981268932,0.04688091241868381
1648296070376747360,73608,12,2,2.23665356636,-1.2306240797,0.612625658512,0.0,16.0,0.7480446710234112,-0.4115799597658863,0.20489152458595317,16.0,0.0,1.135138636014974,2.6253314074447136
1648296070571760936,73609,14,0,0.0127909947187,0.0439508594573,0.0101258400828,0.0,15.8999996185,0.004277924655083612,0.014699284099431437,0.0033865685895652173,15.8999996185,0.0,0.015895604164200314,0.04688091541674061
1648296070571773012,73610,14,1,0.0335269682109,0.0146502861753,-0.0293109472841,0.0,15.8999996185,0.01121303284645485,0.0048997612626421405,-0.00980299240270903,15.8999996185,0.0,0.016597345319726262,0.046880914166899254
1648296070571776772,73611,14,2,1.91968679428,-0.0600661747158,0.075701251626,0.0,15.8999996185,0.6420357171505017,-0.020089021644080267,0.025318144356521737,15.8999996185,0.0,0.908197827009366,1.9221175856267887
1648296070571794309,73612,14,3,2.23854851723,-1.2306240797,0.605664372444,0.0,15.8999996185,0.7486784338561873,-0.4115799597658863,0.2025633352655518,15.8999996185,0.0,1.1359739688582637,2.6253312974895358
1648296070676761023,73613,15,0,0.0128108067438,0.0439508594573,0.0101007642224,0.0,16.0,0.004284550750434783,0.014699284099431437,0.0033781820141806015,16.0,0.0,0.01589917303830298,0.046880915672999006
1648296070676763594,73614,15,1,0.0335041433573,0.0146502861753,-0.0293370354921,0.0,16.0,0.011205399116153847,0.0048997612626421405,-0.009811717555886288,16.0,0.0,0.016587031052466603,0.046880914651800804
1648296070676791964,73615,15,2,1.87080907822,-0.117202289402,0.0533794946969,0.0,16.0,0.6256886549230769,-0.03919809010100334,0.01785267381167224,16.0,0.0,0.8857251696019849,1.8752366128693019
1648296070676802541,73616,15,3,2.2394516468,-1.2306240797,0.602316558361,0.0,16.0,0.7489804838795986,-0.4115799597658863,0.2014436650036789,16.0,0.0,1.1363721193983616,2.6253313201134336
