%time,field.header.seq,field.header.frame_id,field.point_id,field.x,field.y,field.z,field.velocity,field.intensity,normalized_x,normalized_y,normalized_z,normalized_intensity,normalized_velocity,normalized_range,range
1648218505441955578,37787,0,0,0.00510282302275,0.0454158857465,0.0104488637298,0.0,15.1999998093,0.0017066297734949832,0.015189259446989964,0.003494603254113712,15.1999998093,0.0,0.015379817063786324,0.046880915458047304
1648218505441961276,37788,0,1,0.0335848033428,0.0146502861753,-0.0292446613312,0.0,15.1999998093,0.011232375699933109,0.0048997612626421405,-0.009780823187692307,15.1999998093,0.0,0.01662348303334124,0.04688091420790897
1648218505442050033,37789,0,2,1.72953546047,0.054206058383,-0.120767168701,0.0,15.1999998093,0.5784399533344481,0.01812911651605351,-0.04039035742508361,15.1999998093,0.0,0.8182384885183351,1.7345938760484114
1648218505442054298,37790,0,3,1.81165897846,0.0586011447012,0.480593204498,0.0,15.1999998093,0.6059060128628762,0.019599045050568562,0.16073351321003343,15.1999998093,0.0,0.8571046117094867,1.875236565504384
1648218505442057324,37791,0,4,1.56052565575,1.38445210457,0.314067572355,-0.161837622523,15.1999998093,0.5219149350334448,0.463027459722408,0.10503932185785952,15.1999998093,-0.021869948989594594,0.8713121296521218,2.109641294653485
1648218505637098727,37792,2,0,0.0052226819098,0.0454158857465,0.0103894732893,0.0,14.0,0.001746716357792642,0.015189259446989964,0.003474740230535117,14.0,0.0,0.015388815374067449,0.04688091551686221
1648218505637123471,37793,2,1,0.0335027687252,0.0146502861753,-0.0293386057019,0.0,14.0,0.011204939372976588,0.0048997612626421405,-0.00981224270966555,14.0,0.0,0.01658640989289275,0.04688091489939147
1648218505637135390,37794,2,2,1.72669434547,0.054206058383,-0.156219258904,0.0,14.0,0.5774897476488293,0.01812911651605351,-0.052247243780602005,14.0,0.0,0.8168950251682708,1.7345939341229137
1648218505637142979,37795,2,3,1.77745163441,0.117202289402,0.586038887501,0.0809188112617,14.0,0.5944654295685619,0.03919809010100334,0.19599962792675582,14.0,0.010934974494824324,0.8416143916140193,1.8752365895990992
1648218505742183740,37796,3,0,0.0052226819098,0.0454158857465,0.0103894732893,0.0,23.2000007629,0.001746716357792642,0.015189259446989964,0.003474740230535117,23.2000007629,0.0,0.015388815374067449,0.04688091551686221
1648218505742188552,37797,3,1,0.0335170030594,0.0146502861753,-0.0293223429471,0.0,23.2000007629,0.011209700019866221,0.0048997612626421405,-0.009806803661237458,23.2000007629,0.0,0.016592842116456903,0.04688091482692462
1648218505742194663,37798,3,2,1.7238073349,0.108412116766,-0.159847378731,0.0,23.2000007629,0.5765241922742474,0.03625823303210702,-0.05346066178294314,23.2000007629,0.0,0.8161341482976664,1.734593929253731
1648218505742202971,37799,3,3,1.74413537979,-0.228544458747,0.498641967773,-0.0809188112617,23.2000007629,0.5833228694949832,-0.07643627382842809,0.16676988888729097,23.2000007629,-0.010934974494824324,0.8284767010052226,1.8283557106547121
1648218505937160201,37800,5,0,0.00529174832627,0.0454158857465,0.010354465805,0.0,20.7000007629,0.0017698154937357859,0.015189259446989964,0.0034630320418060196,20.7000007629,0.0,0.015394092903179077,0.04688091552641263
1648218505937162466,37801,5,1,0.0335027687252,0.0146502861753,-0.0293386057019,0.0,20.7000007629,0.011204939372976588,0.0048997612626421405,-0.00981224270966555,20.7000007629,0.0,0.01658640989289275,0.04688091489939147
1648218505937164785,37802,5,2,1.72833144665,0.108412116766,-0.0996654257178,0.0,20.7000007629,0.5780372731270902,0.03625823303210702,-0.03333291830026756,20.7000007629,0.0,0.818271860515205,1.7345938929975733
1648218505937266376,37803,5,3,1.75175893307,-0.399952799082,0.338028162718,0.0,20.7000007629,0.5858725528662208,-0.13376347795384613,0.11305289723010033,20.7000007629,0.0,0.8392770486783696,1.828355720278354
1648218505937268960,37804,5,4,0.66743761301,0.285680562258,-1.67803406715,0.0,20.7000007629,0.2232232819431438,0.09554533854782607,-0.5612154070735785,20.7000007629,0.0,0.32982749873404316,1.828355731642096
1648218505937488707,37805,5,5,1.83324372768,0.360397040844,0.451517134905,0.0809188112617,20.7000007629,0.613124992535117,0.12053412737257524,0.15100907521906354,20.7000007629,0.010934974494824324,0.8754273178304655,1.922117664254713
1648218506042221919,37806,6,0,0.00526678469032,0.0454158857465,0.0103671858087,0.0,14.8999996185,0.00176146645161204,0.015189259446989964,0.003467286223645485,14.8999996185,0.0,0.015392177580455708,0.046880915527594394
1648218506042224724,37807,6,1,0.0335027687252,0.0146502861753,-0.0293386057019,0.0,14.8999996185,0.011204939372976588,0.0048997612626421405,-0.00981224270966555,14.8999996185,0.0,0.01658640989289275,0.04688091489939147
1648218506042227322,37808,6,2,1.71936535835,0.054206058383,-0.222846895456,0.0,14.8999996185,0.5750385813879598,0.01812911651605351,-0.07453073426622073,14.8999996185,0.0,0.8134294099889721,1.7345939787379125
1648218506042230199,37809,6,3,1.80566310883,0.300330877304,0.586445271969,0.0,14.8999996185,0.6039007052943143,0.10044510946622072,0.19613554246454848,14.8999996185,0.0,0.8599310110268275,1.9221175706669467
1648218506042385958,37810,6,4,2.07009005547,-1.19546329975,-0.0460906922817,0.0,14.8999996185,0.69233781119398,-0.39982050158862875,-0.01541494725140468,14.8999996185,0.0,1.0576009280954346,2.3909265339445196
1648218506237241140,37811,8,0,0.00526678469032,0.0454158857465,0.0103671858087,0.0,11.5,0.00176146645161204,0.015189259446989964,0.003467286223645485,11.5,0.0,0.015392177580455708,0.046880915527594394
1648218506237378236,37812,8,1,0.0335027687252,0.0146502861753,-0.0293386057019,0.0,11.5,0.011204939372976588,0.0048997612626421405,-0.00981224270966555,11.5,0.0,0.01658640989289275,0.04688091489939147
1648218506237383386,37813,8,2,1.72993314266,0.0556710883975,0.421763569117,0.0809188112617,11.5,0.5785729574113712,0.018619093109531772,0.14105804987190634,11.5,0.010934974494824324,0.8184375386819095,1.781474798135291
1648218506237387004,37814,8,3,1.71056199074,0.64461261034,0.418287664652,-0.566431701183,11.5,0.5720943112842809,0.21558950178595315,0.1398955400173913,11.5,-0.07654482448418919,0.8372948317575996,1.875236601598253
1648218506237393183,37815,8,4,1.86806237698,0.300330877304,0.338644355536,-0.0809188112617,11.5,0.6247700257458193,0.10044510946622072,0.11325898178461537,11.5,-0.010934974494824324,0.8892493408243519,1.9221174989283956
1648218506342241791,37816,9,0,0.00529174832627,0.0454158857465,0.010354465805,0.0,14.1000003815,0.0017698154937357859,0.015189259446989964,0.0034630320418060196,14.1000003815,0.0,0.015394092903179077,0.04688091552641263
1648218506342248726,37817,9,1,0.0335027687252,0.0146502861753,-0.0293386057019,0.0,14.1000003815,0.011204939372976588,0.0048997612626421405,-0.00981224270966555,14.1000003815,0.0,0.01658640989289275,0.04688091489939147
1648218506342253706,37818,9,2,2.07059812546,-1.19546329975,-0.00454094912857,0.0,14.1000003815,0.6925077342675585,-0.39982050158862875,-0.0015187120831337791,14.1000003815,0.0,1.0578234056454592,2.3909265397386457
1648218506342256008,37819,9,3,1.7265650034,0.0571361146867,0.598826766014,0.161837622523,14.1000003815,0.5774464894314381,0.0191090684570903,0.20027651037257524,14.1000003815,0.021869948989594594,0.8168562008154688,1.8283557482781954
1648218506342330433,37820,9,4,1.68552398682,0.514225006104,0.487304836512,-0.485512852669,14.1000003815,0.5637203969297658,0.17198160739264212,0.16297820619130435,14.1000003815,-0.06560984495527027,0.8155605710863311,1.828355674024131
1648218506537223697,37821,11,0,0.0052226819098,0.0454158857465,0.0103894732893,0.0,36.0999984741,0.001746716357792642,0.015189259446989964,0.003474740230535117,36.0999984741,0.0,0.015388815374067449,0.04688091551686221
1648218506537226815,37822,11,1,0.0335027687252,0.0146502861753,-0.0293386057019,0.0,36.0999984741,0.011204939372976588,0.0048997612626421405,-0.00981224270966555,36.0999984741,0.0,0.01658640989289275,0.04688091489939147
1648218506537232092,37823,11,2,1.78134274483,-0.0,0.0217022001743,0.0,36.0999984741,0.5957668042909698,-0.0,0.007258260927859531,36.0999984741,0.0,0.842541494639967,1.781474939495609
1648218506537368400,37824,11,3,1.83957886696,0.0586011447012,0.359204292297,0.0,36.0999984741,0.6152437682140468,0.019599045050568562,0.12013521481505017,36.0999984741,0.0,0.8703067914358326,1.8752365785496818
1648218506537376300,37825,11,4,1.49709737301,-0.338421612978,-0.193898886442,-0.566431701183,36.0999984741,0.5007014625451505,-0.11318448594581938,-0.06484912590033445,36.0999984741,-0.07654482448418919,0.717087607652318,1.5470702991679213
1648218506642363991,37826,12,0,0.0050718318671,0.0454158857465,0.0104639418423,0.0,16.6000003815,0.0016962648384949831,0.015189259446989964,0.0034996461011036787,16.6000003815,0.0,0.015377523576720755,0.046880915472143986
1648218506642365988,37827,12,1,0.0334800891578,0.0146502861753,-0.029364483431,0.0,16.6000003815,0.011197354233377926,0.0048997612626421405,-0.009820897468561872,16.6000003815,0.0,0.016576161922664173,0.046880914477022494
1648218506642371811,37828,12,2,1.47186398506,-0.187523663044,-0.221403360367,-0.647350490093,16.6000003815,0.49226220236120394,-0.0627169441618729,-0.07404794661103678,16.6000003815,-0.08747979595851352,0.6989832378762807,1.5001893756122735
1648218506642515862,37829,12,3,1.64303934574,1.47674882412,0.428266823292,-0.161837622523,16.6000003815,0.5495114868695652,0.49389592779933106,0.1432330512682274,16.6000003815,-0.021869948989594594,0.920792558560267,2.2502839494433036
1648218506642519427,37830,12,4,1.68085575104,0.111342176795,0.57963758707,-0.0809188112617,16.6000003815,0.5621591140602006,0.037238186219063545,0.19385872477257524,16.6000003815,-0.010934974494824324,0.7958846785526059,1.7814749137953145
1648218506642520675,37831,12,5,1.88143849373,-0.0,0.39335128665,-0.0809188112617,16.6000003815,0.6292436433879598,-0.0,0.13155561426421405,16.6000003815,-0.010934974494824324,0.889884894516312,1.9221175927601883
1648218506837234106,37832,14,0,0.0052226819098,0.0454158857465,0.0103894732893,0.0,16.2999992371,0.001746716357792642,0.015189259446989964,0.003474740230535117,16.2999992371,0.0,0.015388815374067449,0.04688091551686221
1648218506837344959,37833,14,1,0.0334800891578,0.0146502861753,-0.029364483431,0.0,16.2999992371,0.011197354233377926,0.0048997612626421405,-0.009820897468561872,16.2999992371,0.0,0.016576161922664173,0.046880914477022494
1648218506837347810,37834,14,2,2.07035589218,-1.19546329975,-0.0319961346686,0.0,16.2999992371,0.692426719792642,-0.39982050158862875,-0.010701048384147156,16.2999992371,0.0,1.0577173337220955,2.3909265513535405
1648218506837364803,37835,14,3,1.51796364784,0.241729736328,-0.175440743566,0.242756426334,16.2999992371,0.5076801497792642,0.08084606566153846,-0.05867583396856187,16.2999992371,0.03280492247756756,0.7225056091773558,1.5470702492427146
1648218506837366954,37836,14,4,1.44004702568,0.090831771493,-0.173548549414,0.404594063759,16.2999992371,0.4816210788227424,0.03037851889397993,-0.058042993115050165,16.2999992371,0.05467487348094594,0.6817921835449248,1.4533082762738518
1648218506837367906,37837,14,5,1.49415647984,0.093761831522,-0.0962983220816,0.485512852669,16.2999992371,0.4997178862341137,0.03135847208093645,-0.03220679668280936,16.2999992371,0.06560984495527027,0.7074031986186039,1.5001893994206037
1648218506837368887,37838,14,6,1.71904337406,-0.108412116766,-0.204823121428,-0.242756426334,16.2999992371,0.5749308943344481,-0.03625823303210702,-0.06850271619665552,16.2999992371,-0.03280492247756756,0.8138831156763404,1.7345938487244739
1648218506837370644,37839,14,7,1.81874597073,0.0586011447012,0.453035622835,-0.0809188112617,16.2999992371,0.6082762443913043,0.019599045050568562,0.15151693071404682,16.2999992371,-0.010934974494824324,0.8604557522316147,1.87523659194364
1648218506942271689,37840,15,0,0.00529174832627,0.0454158857465,0.010354465805,0.0,15.1999998093,0.0017698154937357859,0.015189259446989964,0.0034630320418060196,15.1999998093,0.0,0.015394092903179077,0.04688091552641263
1648218506942354677,37841,15,1,0.0335848033428,0.0146502861753,-0.0292446613312,0.0,15.1999998093,0.011232375699933109,0.0048997612626421405,-0.009780823187692307,15.1999998093,0.0,0.01662348303334124,0.04688091420790897
1648218506942362358,37842,15,2,1.76548099518,0.0571361146867,0.471907824278,-0.0809188112617,15.1999998093,0.5904618712976588,0.0191090684570903,0.15782870377190633,15.1999998093,-0.010934974494824324,0.8352578041598676,1.8283557297632347
1648218507137242911,37843,17,0,0.00510282302275,0.0454158857465,0.0104488637298,0.0,20.6000003815,0.0017066297734949832,0.015189259446989964,0.003494603254113712,20.6000003815,0.0,0.015379817063786324,0.046880915458047304
1648218507137482728,37844,17,1,0.0335848033428,0.0146502861753,-0.0292446613312,0.0,20.6000003815,0.011232375699933109,0.0048997612626421405,-0.009780823187692307,20.6000003815,0.0,0.01662348303334124,0.04688091420790897
1648218507137486769,37845,17,2,1.73459386826,-0.0,-0.00054830010049,0.0,20.6000003815,0.5801317285150501,-0.0,-0.00018337796003010034,20.6000003815,0.0,0.8204301584289303,1.7345939549180351
1648218507137601166,37846,17,3,1.81401479244,0.228544458747,0.00154371967074,0.0,20.6000003815,0.6066939105150502,0.07643627382842809,0.0005162942042608695,20.6000003815,0.0,0.8613927710799887,1.8283557148119503
1648218507137603863,37847,17,4,1.15148878098,1.37126672268,0.36957526207,0.0,20.6000003815,0.3851133046755853,0.4586176330033444,0.12360376657859531,20.6000003815,0.0,0.7120074776137472,1.8283557399440797
1648218507137604972,37848,17,5,1.68673479557,-0.0,0.573217391968,-0.161837622523,20.6000003815,0.5641253496889632,-0.0,0.19171150233043477,20.6000003815,-0.021869948989594594,0.7977937204085966,1.7814747960723907
1648218507137606205,37849,17,6,1.85378718376,-0.0,0.507946014404,-0.161837622523,20.6000003815,0.6199957136321069,-0.0,0.16988161016856188,20.6000003815,-0.021869948989594594,0.8768063468317112,1.9221176020789519
