%time,field.header.seq,field.header.frame_id,field.point_id,field.x,field.y,field.z,field.velocity,field.intensity,normalized_x,normalized_y,normalized_z,normalized_intensity,normalized_velocity,normalized_range,range
1648218499142035742,37601,0,0,0.00526678469032,0.0454158857465,0.0103671858087,0.0,21.3999996185,0.00176146645161204,0.015189259446989964,0.003467286223645485,21.3999996185,0.0,0.015392177580455708,0.046880915527594394
1648218499142142462,37602,0,1,0.0335027687252,0.0146502861753,-0.0293386057019,0.0,21.3999996185,0.011204939372976588,0.0048997612626421405,-0.00981224270966555,21.3999996185,0.0,0.01658640989289275,0.04688091489939147
1648218499142146194,37603,0,2,1.74941408634,-0.0,0.531446039677,0.0,21.3999996185,0.5850883231906354,-0.0,0.17774115039364546,21.3999996185,0.0,0.8274398418423293,1.828355692575486
1648218499142148110,37604,0,3,1.7386713028,1.33610606194,0.505589365959,0.242756426334,21.3999996185,0.5814954189966555,0.4468582146956522,0.16909343343110364,21.3999996185,0.03280492247756756,0.9359252687416755,2.250283963170846
1648218499337142350,37605,2,0,0.0052226819098,0.0454158857465,0.0103894732893,0.0,19.2999992371,0.001746716357792642,0.015189259446989964,0.003474740230535117,19.2999992371,0.0,0.015388815374067449,0.04688091551686221
1648218499337308887,37606,2,1,0.0335027687252,0.0146502861753,-0.0293386057019,0.0,19.2999992371,0.011204939372976588,0.0048997612626421405,-0.00981224270966555,19.2999992371,0.0,0.01658640989289275,0.04688091489939147
1648218499337312308,37607,2,2,1.73021495342,0.054206058383,-0.110607229173,0.0,19.2999992371,0.5786672085016722,0.01812911651605351,-0.03699238433879599,19.2999992371,0.0,0.818559796994629,1.734593912403973
1648218499337313463,37608,2,3,0.835731446743,-1.51776957512,0.0821254551411,0.0,19.2999992371,0.2795088450645485,-0.5076152425150501,0.027466707405050167,19.2999992371,0.0,0.6433689636377004,1.734593936521521
1648218499337314488,37609,2,4,2.06852531433,-1.19546329975,-0.0927366018295,0.0,19.2999992371,0.6918144863979933,-0.39982050158862875,-0.031015585896153844,19.2999992371,0.0,1.0569157963957303,2.390926505435093
1648218499337315613,37610,2,5,1.75217270851,0.175803437829,0.644590079784,0.0809188112617,19.2999992371,0.5860109393010033,0.05879713639765886,0.21558196648294312,19.2999992371,0.010934974494824324,0.8308277470146584,1.8752366304431312
1648218499442121082,37611,3,0,0.00524778757244,0.0454158857465,0.0103768147528,0.0,20.1000003815,0.0017551129004816054,0.015189259446989964,0.003470506606287625,20.1000003815,0.0,0.015390725945674161,0.04688091548763233
1648218499442124153,37612,3,1,0.0335027687252,0.0146502861753,-0.0293386057019,0.0,20.1000003815,0.011204939372976588,0.0048997612626421405,-0.00981224270966555,20.1000003815,0.0,0.01658640989289275,0.04688091489939147
1648218499442126727,37613,3,2,1.71530389786,0.117202289402,0.748671233654,0.0,20.1000003815,0.5736802333979932,0.03919809010100334,0.2503917169411371,20.1000003815,0.0,0.8122527381614163,1.875236639668653
1648218499637070292,37614,5,0,0.0052226819098,0.0454158857465,0.0103894732893,0.0,15.6999998093,0.001746716357792642,0.015189259446989964,0.003474740230535117,15.6999998093,0.0,0.015388815374067449,0.04688091551686221
1648218499637075138,37615,5,1,0.0335027687252,0.0146502861753,-0.0293386057019,0.0,15.6999998093,0.011204939372976588,0.0048997612626421405,-0.00981224270966555,15.6999998093,0.0,0.01658640989289275,0.04688091489939147
1648218499637076766,37616,5,2,1.73793423176,-0.285680562258,0.490770667791,-0.0809188112617,15.6999998093,0.5812489069431438,-0.09554533854782607,0.16413734708729094,15.6999998093,-0.010934974494824324,0.8275442558337395,1.8283557164674746
1648218499742165221,37617,6,0,0.0052226819098,0.0454158857465,0.0103894732893,0.0,24.0,0.001746716357792642,0.015189259446989964,0.003474740230535117,24.0,0.0,0.015388815374067449,0.04688091551686221
1648218499742169137,37618,6,1,0.0334648787975,0.0146502861753,-0.0293818153441,0.0,24.0,0.011192267156354515,0.0048997612626421405,-0.009826694095016722,24.0,0.0,0.016569289321793874,0.04688091371618456
1648218499742170230,37619,6,2,1.7214230299,0.054206058383,-0.2063498348,0.0,24.0,0.5757267658528428,0.01812911651605351,-0.06901332267558527,24.0,0.0,0.8144024083365672,1.7345938426494845
1648218499742171497,37620,6,3,0.808724343777,-1.51776957512,0.226178124547,0.0,24.0,0.2704763691561873,-0.5076152425150501,0.07564485770802676,24.0,0.0,0.6356006348151655,1.7345939269469044
1648218499742172702,37621,6,4,1.20726037025,1.37126672268,0.0709548071027,0.0,24.0,0.4037660101170568,0.4586176330033444,0.02373070471662207,24.0,0.0,0.732382492385833,1.8283557123701877
1648218499742173821,37622,6,5,1.72942888737,0.228544458747,0.547473847866,0.0,24.0,0.5784043101571905,0.07643627382842809,0.18310162135986618,24.0,0.0,0.8215507263544993,1.828355671140328
1648218499742174898,37623,6,6,1.61191725731,0.46880915761,0.835735082626,-0.0809188112617,24.0,0.5391027616421404,0.15679236040468228,0.2795100610789298,24.0,-0.010934974494824324,0.7783620105719682,1.8752366248035681
1648218499742176710,37624,6,7,0.970987737179,1.17202293873,-1.09547138214,-0.0809188112617,24.0,0.32474506260167224,0.3919809159632107,-0.36637838867558525,24.0,-0.010934974494824324,0.6037944599345755,1.8752366527318685
1648218499937241525,37625,8,0,0.0052226819098,0.0454158857465,0.0103894732893,0.0,16.2999992371,0.001746716357792642,0.015189259446989964,0.003474740230535117,16.2999992371,0.0,0.015388815374067449,0.04688091551686221
1648218499937243221,37626,8,1,0.0335253626108,0.0146502861753,-0.0293127838522,0.0,16.2999992371,0.011212495856454847,0.0048997612626421405,-0.009803606639531772,16.2999992371,0.0,0.01659661974900078,0.04688091424417414
1648218499937245660,37627,8,2,1.85829627514,0.175803437829,0.179833829403,0.0,16.2999992371,0.6215037709498328,0.05879713639765886,0.06014509344581939,16.2999992371,0.0,0.8809035008775306,1.8752365453855258
1648218499937246767,37628,8,3,2.06943583488,-1.19546329975,-0.0695179626346,0.0,16.2999992371,0.6921190083210702,-0.39982050158862875,-0.02325015472729097,16.2999992371,0.0,1.0573144645039458,2.390926582491296
1648218499937247919,37629,8,4,1.63482773304,-0.487854540348,0.313292324543,-0.323675245047,16.2999992371,0.5467651281070234,-0.16316205362809363,0.10478004165317725,16.2999992371,-0.04373989797932432,0.790269616252527,1.7345938573258066
1648218499937248923,37630,8,5,1.72140419483,0.457088917494,0.413185149431,-0.161837622523,16.2999992371,0.5757204664983278,0.15287254765685618,0.13818901318762541,16.2999992371,-0.021869948989594594,0.8284190527246473,1.8283557225508595
1648218500042130228,37631,9,0,0.00529174832627,0.0454158857465,0.010354465805,0.0,33.7999992371,0.0017698154937357859,0.015189259446989964,0.0034630320418060196,33.7999992371,0.0,0.015394092903179077,0.04688091552641263
1648218500042137337,37632,9,1,0.0335027687252,0.0146502861753,-0.0293386057019,0.0,33.7999992371,0.011204939372976588,0.0048997612626421405,-0.00981224270966555,33.7999992371,0.0,0.01658640989289275,0.04688091489939147
1648218500042228926,37633,9,2,1.73458182812,-0.0,-0.00645536696538,0.0,33.7999992371,0.5801277017123746,-0.0,-0.0021589856071505013,33.7999992371,0.0,0.8204244636699736,1.734593840127071
1648218500042230937,37634,9,3,2.07059669495,-1.19546329975,0.0052348007448,0.0,33.7999992371,0.6925072558361203,-0.39982050158862875,0.0017507694798662207,33.7999992371,0.0,1.0578227792319137,2.390926719355041
1648218500042232140,37635,9,4,1.49950063229,-0.68563336134,0.360249727964,-0.485512852669,33.7999992371,0.5015052281906354,-0.2293088165016722,0.12048485885083611,33.7999992371,-0.06560984495527027,0.745384143331799,1.6877129847573706
1648218500042233104,37636,9,5,1.80314421654,-0.228544458747,0.198300033808,-0.0809188112617,33.7999992371,0.6030582664013378,-0.07643627382842809,0.06632108154113711,33.7999992371,-0.010934974494824324,0.8562715978629375,1.8283556926030184
1648218500042234102,37637,9,6,1.30904066563,0.457088917494,-1.19179141521,-0.0809188112617,33.7999992371,0.4378062426856187,0.15287254765685618,-0.3985924465585284,33.7999992371,-0.010934974494824324,0.6377449553670304,1.828355687533781
1648218500237132519,37638,11,0,0.00529174832627,0.0454158857465,0.010354465805,0.0,16.2999992371,0.0017698154937357859,0.015189259446989964,0.0034630320418060196,16.2999992371,0.0,0.015394092903179077,0.04688091552641263
1648218500237297261,37639,11,1,0.0335253626108,0.0146502861753,-0.0293127838522,0.0,16.2999992371,0.011212495856454847,0.0048997612626421405,-0.009803606639531772,16.2999992371,0.0,0.01659661974900078,0.04688091424417414
1648218500237300969,37640,11,2,1.73085272312,-0.054206058383,0.10013384372,0.0,16.2999992371,0.5788805094046822,-0.01812911651605351,0.033489579839464885,16.2999992371,0.0,0.818861376060015,1.734593967634928
1648218500237443199,37641,11,3,1.83048093319,0.0586011447012,0.403010904789,0.0,16.2999992371,0.612200981,0.019599045050568562,0.13478625578227424,16.2999992371,0.0,0.8660047371935207,1.8752366064876382
1648218500237447615,37642,11,4,0.902926266193,1.64083206654,0.0943751484156,0.0,16.2999992371,0.3019820288270903,0.5487732664013377,0.03156359478782609,16.2999992371,0.0,0.6953692467932737,1.8752366201110795
1648218500237448904,37643,11,5,1.49474549294,-0.547920703888,0.078733459115,-0.323675245047,16.2999992371,0.4999148805819397,-0.18325107153444814,0.026332260573578594,16.2999992371,-0.04373989797932432,0.730349731890848,1.5939511109183297
1648218500342113784,37644,12,0,0.0052226819098,0.0454158857465,0.0103894732893,0.0,23.2000007629,0.001746716357792642,0.015189259446989964,0.003474740230535117,23.2000007629,0.0,0.015388815374067449,0.04688091551686221
1648218500342116540,37645,12,1,0.0334648787975,0.0146502861753,-0.0293818153441,0.0,23.2000007629,0.011192267156354515,0.0048997612626421405,-0.009826694095016722,23.2000007629,0.0,0.016569289321793874,0.04688091371618456
1648218500342118434,37646,12,2,1.73444747925,-0.0,0.0225371327251,0.0,23.2000007629,0.580082768979933,-0.0,0.007537502583645484,23.2000007629,0.0,0.8203609191903602,1.7345938950163948
1648218500342120842,37647,12,3,1.80414092541,-0.171408340335,0.242031693459,-0.242756426334,23.2000007629,0.6033916138494982,-0.05732720412541805,0.08094705466856186,23.2000007629,-0.03280492247756756,0.8552480854469312,1.828355719906354
1648218500342122831,37648,12,4,1.65815186501,0.34281668067,-0.689850568771,-0.242756426334,23.2000007629,0.5545658411404681,0.1146544082508361,-0.2307192537695652,23.2000007629,-0.03280492247756756,0.7926109875916554,1.828355734318519
1648218500537166963,37649,14,0,0.0052226819098,0.0454158857465,0.0103894732893,0.0,23.3999996185,0.001746716357792642,0.015189259446989964,0.003474740230535117,23.3999996185,0.0,0.015388815374067449,0.04688091551686221
1648218500537181418,37650,14,1,0.0334505960345,0.0146502861753,-0.0293980780989,0.0,23.3999996185,0.011187490312541805,0.0048997612626421405,-0.009832133143444815,23.3999996185,0.0,0.016562836092207215,0.04688091569061464
1648218500537204031,37651,14,2,2.0702753067,-1.19546329975,-0.0368400588632,0.0,23.3999996185,0.6923997681270903,-0.39982050158862875,-0.012321089920802674,23.3999996185,0.0,1.0576820464087868,2.390926501697194
1648218500537351708,37652,14,3,1.26059699059,1.44158816338,0.165089637041,0.161837622523,23.3999996185,0.42160434467892977,0.4821365094916388,0.055213925431772566,23.3999996185,0.021869948989594594,0.7667829293151228,1.922117528597098
1648218500537355508,37653,14,4,1.7328068018,0.0571361146867,0.580517709255,-0.0809188112617,23.3999996185,0.5795340474247491,0.0191090684570903,0.19415308001839465,23.3999996185,-0.010934974494824324,0.8198076486263839,1.8283557527802157
1648218500642210461,37654,15,0,0.0052226819098,0.0454158857465,0.0103894732893,0.0,20.3999996185,0.001746716357792642,0.015189259446989964,0.003474740230535117,20.3999996185,0.0,0.015388815374067449,0.04688091551686221
1648218500642216366,37655,15,1,0.0335027687252,0.0146502861753,-0.0293386057019,0.0,20.3999996185,0.011204939372976588,0.0048997612626421405,-0.00981224270966555,20.3999996185,0.0,0.01658640989289275,0.04688091489939147
1648218500642218150,37656,15,2,1.72522723675,0.111342176795,0.429937839508,0.0,20.3999996185,0.5769990758361203,0.037238186219063545,0.14379191956789297,20.3999996185,0.0,0.8168491596031421,1.7814748509586926
1648218500642219959,37657,15,3,2.06938695908,-1.19546329975,-0.0709556117654,0.0,20.3999996185,0.6921026618996655,-0.39982050158862875,-0.023730973834581937,20.3999996185,0.0,1.0572930637755023,2.3909265121079173
1648218500837141256,37658,17,0,0.00524778757244,0.0454158857465,0.0103768147528,0.0,11.6000003815,0.0017551129004816054,0.015189259446989964,0.003470506606287625,11.6000003815,0.0,0.015390725945674161,0.04688091548763233
1648218500837148613,37659,17,1,0.0335027687252,0.0146502861753,-0.0293386057019,0.0,11.6000003815,0.011204939372976588,0.0048997612626421405,-0.00981224270966555,11.6000003815,0.0,0.01658640989289275,0.04688091489939147
1648218500837151580,37660,17,2,1.72687792778,0.108412116766,0.122292749584,0.0,11.6000003815,0.5775511464147156,0.03625823303210702,0.0409005851451505,11.6000003815,0.0,0.81758504934503,1.7345939239822807
1648218500837310554,37661,17,3,1.82008230686,-0.0,0.45145636797,0.0,11.6000003815,0.6087231795518394,-0.0,0.15098875182943142,11.6000003815,0.0,0.860864576253084,1.875236639980534
