%time,field.header.seq,field.header.frame_id,field.point_id,field.x,field.y,field.z,field.velocity,field.intensity,normalized_x,normalized_y,normalized_z,normalized_intensity,normalized_velocity,normalized_range,range
1648127161608417460,98044,0,0,0.0125890737399,0.0439508594573,0.0103758089244,0.0,18.0,0.004210392555150501,0.014699284099431437,0.003470170208829431,18.0,0.0,0.01585950074790286,0.0468809154720728
1648127161608421315,98045,0,1,0.0329001024365,0.0146502861753,-0.0300128757954,0.0,18.0,0.011003378741304349,0.0048997612626421405,-0.010037751102140467,18.0,0.0,0.016314298877980183,0.04688091657444943
1648127161608428110,98046,0,2,1.3534938097,0.0424858294427,-0.120898351073,0.0,18.0,0.45267351494983277,0.01420930750591973,-0.04043423112809364,18.0,0.0,0.6403346989613095,1.3595465971756262
1648127161608432620,98047,0,3,1.40565621853,-0.0454158857465,0.366296350956,0.0,18.0,0.47011913663210697,-0.015189259446989964,0.12250714078795985,18.0,0.0,0.6650223446306021,1.4533083031806702
1648127161608437744,98048,0,4,1.82750320435,-1.39177727699,0.466625362635,0.0,18.0,0.6112050850668895,-0.4654773501638796,0.15606199419230768,18.0,0.0,0.9817395151153051,2.3440458996592755
1648127161608701052,98049,0,5,2.42413687706,-0.902457654476,0.44888317585,0.0,18.0,0.8107481194180601,-0.30182530250033446,0.15012815245819397,18.0,0.0,1.185632126550753,2.62533150714452
1648127161608711081,98050,0,6,1.42365801334,-0.234404578805,0.410877168179,0.0809188112617,18.0,0.47613980379264215,-0.07839618020234114,0.13741711310334448,18.0,0.010934974494824324,0.677911636263687,1.5001892190129682
1648127161803594658,98051,2,0,0.0125994505361,0.0439508594573,0.0103632062674,0.0,20.6000003815,0.004213863055551839,0.014699284099431437,0.003465955273377926,20.6000003815,0.0,0.01586134410249293,0.04688091557326548
1648127161803665722,98052,2,1,0.0327995419502,0.0146502861753,-0.0301227364689,0.0,20.6000003815,0.010969746471638795,0.0048997612626421405,-0.010074493802307691,20.6000003815,0.0,0.016268937756809817,0.046880913915322876
1648127161803672101,98053,2,2,1.35616743565,0.0424858294427,-0.0858586877584,0.0,20.6000003815,0.4535677042307692,0.01420930750591973,-0.02871528018675585,20.6000003815,0.0,0.6415989627969632,1.359546569075339
1648127161803676199,98054,2,3,1.40872097015,0.046880915761,0.513687968254,0.0,20.6000003815,0.471144137173913,0.015679236040468225,0.1718019960715719,20.6000003815,0.0,0.6664828838233692,1.5001892949664286
1648127161803678745,98055,2,4,1.82546794415,-1.39177727699,0.474524706602,0.0,20.6000003815,0.6105243960367892,-0.4654773501638796,0.158703915251505,20.6000003815,0.0,0.9808920632912469,2.3440458402174307
1648127161803681668,98056,2,5,1.87858700752,-1.24527442455,0.644013881683,0.0,20.6000003815,0.628289969070234,-0.4164797406521739,0.21538925808795986,20.6000003815,0.0,0.98130114890499,2.344045950288024
1648127161803764592,98057,2,6,2.42445588112,-0.902457654476,0.447156786919,0.0,20.6000003815,0.8108548097391304,-0.30182530250033446,0.14955076485585284,20.6000003815,0.0,1.1857780391724166,2.6253314704447135
1648127161803766385,98058,2,7,1.48564529419,0.193383783102,0.385858893394,0.0809188112617,20.6000003815,0.4968713358494983,0.06467685053578595,0.1290497971217391,20.6000003815,0.010934974494824324,0.7056524241954804,1.5470702354214483
1648127161908497150,98059,3,0,0.0125994505361,0.0439508594573,0.0103632062674,0.0,20.6000003815,0.004213863055551839,0.014699284099431437,0.003465955273377926,20.6000003815,0.0,0.01586134410249293,0.04688091557326548
1648127161908535731,98060,3,1,0.0328369177878,0.0146502861753,-0.0300819892436,0.0,20.6000003815,0.010982246751772574,0.0048997612626421405,-0.010060865967759198,20.6000003815,0.0,0.016285795892879384,0.046880914364728306
1648127161908548462,98061,3,2,1.35345101357,0.0424858294427,-0.121375761926,0.0,20.6000003815,0.4526592018628762,0.01420930750591973,-0.04059390030969899,20.6000003815,0.0,0.6403144621840663,1.3595465300681002
1648127161908551435,98062,3,3,1.42488360405,-0.046880915761,0.466987133026,0.0,20.6000003815,0.4765497003511705,-0.015679236040468225,0.1561829876341137,20.6000003815,0.0,0.6741254128516396,1.5001893506370954
1648127161908614325,98063,3,4,1.82268154621,-1.39177727699,0.485117524862,0.0,20.6000003815,0.6095924903712374,-0.4654773501638796,0.1622466638334448,20.6000003815,0.0,0.9797321940967344,2.3440458657134693
1648127161908623046,98064,3,5,2.42644405365,-0.902457654476,0.436238855124,0.0,20.6000003815,0.8115197503846153,-0.30182530250033446,0.14589928265016722,20.6000003815,0.0,1.1866874583301346,2.6253313890508503
1648127162103506679,98065,5,0,0.0125994505361,0.0439508594573,0.0103632062674,0.0,12.6999998093,0.004213863055551839,0.014699284099431437,0.003465955273377926,12.6999998093,0.0,0.01586134410249293,0.04688091557326548
1648127162103516400,98066,5,1,0.0328124724329,0.0146502861753,-0.0301086530089,0.0,12.6999998093,0.010974071047792642,0.0048997612626421405,-0.010069783615016722,12.6999998093,0.0,0.01627476977271537,0.04688091528744241
1648127162103642880,98067,5,2,1.35430347919,-0.0,-0.11928512156,0.0,12.6999998093,0.4529443074214046,-0.0,-0.03989468948494983,12.6999998093,0.0,0.640559982555039,1.3595465618991218
1648127162103902675,98068,5,3,2.03259301186,-1.12074685097,0.57360470295,0.0,12.6999998093,0.6797969939331103,-0.3748317227324415,0.1918410377759197,12.6999998093,0.0,1.0318656532163266,2.3909266427616793
1648127162103912392,98069,5,4,1.41144394875,0.769140005112,0.32951399684,-0.242756426334,12.6999998093,0.47205483235785944,0.2572374599036789,0.11020535011371237,12.6999998093,-0.03280492247756756,0.7154317859045057,1.6408320578414328
1648127162103914104,98070,5,5,1.44773614407,-0.234404578805,0.315725415945,-0.0809188112617,12.6999998093,0.4841926903244147,-0.07839618020234114,0.10559378459698995,12.6999998093,-0.010934974494824324,0.6892249877924531,1.5001893172813436
1648127162103915742,98071,5,6,0.1312623173,0.328166425228,-1.45795917511,-0.0809188112617,12.6999998093,0.04390044056856186,0.10975465726688963,-0.48761176425083613,12.6999998093,-0.010934974494824324,0.12609751050675058,1.5001893063468097
1648127162208587899,98072,6,0,0.0125994505361,0.0439508594573,0.0103632062674,0.0,17.2999992371,0.004213863055551839,0.014699284099431437,0.003465955273377926,17.2999992371,0.0,0.01586134410249293,0.04688091557326548
1648127162208589936,98073,6,1,0.0328124724329,0.0146502861753,-0.0301086530089,0.0,17.2999992371,0.010974071047792642,0.0048997612626421405,-0.010069783615016722,17.2999992371,0.0,0.01627476977271537,0.04688091528744241
1648127162208591959,98074,6,2,1.35915899277,-0.0,-0.0324626863003,0.0,17.2999992371,0.454568225006689,-0.0,-0.010857085719163878,17.2999992371,0.0,0.6428565488283242,1.359546613260977
1648127162208593196,98075,6,3,1.83780801296,-1.39177727699,0.424227029085,0.0,17.2999992371,0.6146515093511705,-0.4654773501638796,0.14188194952675584,17.2999992371,0.0,0.9860335285429858,2.344045830066462
1648127162208594183,98076,6,4,2.4306678772,-0.902457654476,0.412054091692,0.0,17.2999992371,0.8129324004013377,-0.30182530250033446,0.13781073300735786,17.2999992371,0.0,1.1886196567758671,2.6253313546778045
1648127162208606734,98077,6,5,1.40985655785,0.046880915761,0.510563135147,-0.0809188112617,17.2999992371,0.4715239323913043,0.015679236040468225,0.1707569013869565,17.2999992371,-0.010934974494824324,0.6670198468399058,1.5001893376992033
