%time,field.header.seq,field.header.frame_id,field.point_id,field.x,field.y,field.z,field.velocity,field.intensity,normalized_x,normalized_y,normalized_z,normalized_intensity,normalized_velocity,normalized_range,range
1648295896069082159,68685,0,0,0.0127100823447,0.0439508594573,0.0102272182703,0.0,14.6000003815,0.004250863660434782,0.014699284099431437,0.003420474337892977,14.6000003815,0.0,0.01588107794688408,0.04688091545386831
1648295896069092088,68686,0,1,0.0335404723883,0.0146502861753,-0.0292954929173,0.0,14.6000003815,0.011217549293745818,0.0048997612626421405,-0.009797823718160533,14.6000003815,0.0,0.016603447977637752,0.046880913795659694
1648295896069094342,68687,0,2,0.492731124163,-0.79111546278,-0.102374173701,0.0,14.6000003815,0.16479301811471572,-0.26458711129765883,-0.034238854080602,14.6000003815,0.0,0.3525901545754699,0.9376183165923699
1648295896069099243,68688,0,3,2.24248743057,-1.2306240797,0.590913832188,0.0,14.6000003815,0.7499957961772575,-0.4115799597658863,0.1976300442100334,14.6000003815,0.0,1.1377106186759467,2.625331342682866
1648295896069105366,68689,0,4,2.01151251793,-0.0,0.132618576288,0.0809188112617,14.6000003815,0.6727466615150501,-0.0,0.04435403889230769,14.6000003815,0.010934974494824324,0.9514074527558058,2.01587953423952
1648295896069111531,68690,0,5,1.80524623394,-0.175803437829,0.476121276617,-0.566431701183,14.6000003815,0.6037612822541806,-0.05879713639765886,0.15923788515618728,14.6000003815,-0.07654482448418919,0.8558694264588435,1.8752365941273783
1648295896174160017,68691,1,0,0.0127217965201,0.0439508594573,0.010212643072,0.0,25.6000003815,0.004254781444849498,0.014699284099431437,0.0034155996896321067,25.6000003815,0.0,0.015883176109414296,0.046880915437416903
1648295896174180343,68692,1,1,0.0335404723883,0.0146502861753,-0.0292954929173,0.0,25.6000003815,0.011217549293745818,0.0048997612626421405,-0.009797823718160533,25.6000003815,0.0,0.016603447977637752,0.046880913795659694
1648295896174183670,68693,1,2,1.86237120628,-0.117202289402,0.185335725546,0.0,25.6000003815,0.622866624173913,-0.03919809010100334,0.061985192490301,25.6000003815,0.0,0.8817381432643024,1.8752365764845658
1648295896174252631,68694,1,3,2.24194955826,-1.2306240797,0.592951416969,0.0,25.6000003815,0.7498159057725752,-0.4115799597658863,0.19831151069197323,25.6000003815,0.0,1.137473449527497,2.625331375313453
1648295896174255106,68695,1,4,1.9425880909,0.12306240201,0.296920597553,0.161837622523,25.6000003815,0.6496950136789297,0.04115799398327759,0.09930454767658861,25.6000003815,0.021869948989594594,0.9197288742163403,1.9689983968876683
1648295896174257120,68696,1,5,1.83481681347,0.120132349432,0.559956729412,-0.242756426334,25.6000003815,0.6136511081839464,0.040178043288294316,0.18727649813110367,25.6000003815,-0.03280492247756756,0.8687632820931414,1.9221175976474594
1648295896369246346,68697,3,0,0.0127100823447,0.0439508594573,0.0102272182703,0.0,26.3999996185,0.004250863660434782,0.014699284099431437,0.003420474337892977,26.3999996185,0.0,0.01588107794688408,0.04688091545386831
1648295896369326508,68698,3,1,0.033517640084,0.0146502861753,-0.0293216109276,0.0,26.3999996185,0.011209913071571907,0.0048997612626421405,-0.009806558838662207,26.3999996185,0.0,0.016593129981268932,0.04688091241868381
1648295896369330323,68699,3,2,2.006295681,0.0629962310195,0.185951977968,0.0,26.3999996185,0.6710019,0.021068973585117053,0.06219129697926421,26.3999996185,0.0,0.949173851965566,2.0158792183144625
1648295896369331527,68700,3,3,2.24171686172,-1.2306240797,0.593830227852,0.0,26.3999996185,0.7497380808428094,-0.4115799597658863,0.19860542737525083,26.3999996185,0.0,1.137370846739359,2.6253313035059014
1648295896369332574,68701,3,4,1.91215181351,-0.0600661747158,0.18602013588,0.161837622523,26.3999996185,0.6395156566923076,-0.020089021644080267,0.06221409226755852,26.3999996185,0.021869948989594594,0.9046347987446665,1.9221175807445767
1648295896369342431,68702,3,5,1.94828140736,-0.24612480402,0.143446326256,-0.161837622523,26.3999996185,0.6515991328963211,-0.08231598796655518,0.047975359951839464,26.3999996185,-0.021869948989594594,0.9251695962672926,1.968998402725327
1648295896369343420,68703,3,6,1.89511013031,-0.120132349432,0.297761470079,-0.0809188112617,26.3999996185,0.6338160970936454,-0.040178043288294316,0.09958577594615384,26.3999996185,-0.010934974494824324,0.8972513388301623,1.9221176031781315
1648295896474243746,68704,4,0,0.0127100823447,0.0439508594573,0.0102272182703,0.0,11.3999996185,0.004250863660434782,0.014699284099431437,0.003420474337892977,11.3999996185,0.0,0.01588107794688408,0.04688091545386831
1648295896474283444,68705,4,1,0.0335269682109,0.0146502861753,-0.0293109472841,0.0,11.3999996185,0.01121303284645485,0.0048997612626421405,-0.00980299240270903,11.3999996185,0.0,0.016597345319726262,0.046880914166899254
1648295896474332110,68706,4,2,0.390583008528,-0.849716603756,0.0674886479974,0.0,11.3999996185,0.13062976873846152,-0.28418615510234113,0.02257145417973244,11.3999996185,0.0,0.3389543386846962,0.9376183183246432
1648295896474362949,68707,4,3,0.294480353594,-0.527410328388,-0.717110693455,0.0,11.3999996185,0.09848841257324413,-0.1763914141765886,-0.23983635232608694,11.3999996185,0.0,0.22475289946430485,0.9376183017682068
1648295896474366045,68708,4,4,1.47591161728,-1.68478298187,0.691189110279,0.0,11.3999996185,0.49361592551170563,-0.5634725691872909,0.2311669265147157,11.3999996185,0.0,0.8971146526860888,2.344045900614813
1648295896474371611,68709,4,5,2.24277615547,-1.2306240797,0.589817166328,0.0,11.3999996185,0.7500923596889632,-0.4115799597658863,0.19726326633043476,11.3999996185,0.0,1.137837931960612,2.625331369327967
1648295896474375550,68710,4,6,1.91697990894,-0.120132349432,0.0727475434542,0.0809188112617,11.3999996185,0.6411304043277591,-0.040178043288294316,0.024330282091705683,11.3999996185,0.010934974494824324,0.9075850736263945,1.922117571257878
1648295896474377899,68711,4,7,1.77712023258,0.0556710883975,-0.111342176795,0.242756426334,11.3999996185,0.5943545928361204,0.018619093109531772,-0.037238186219063545,11.3999996185,0.03280492247756756,0.840750518690891,1.7814748584984308
1648295896474382880,68712,4,8,1.90453791618,-0.240264698863,0.0976953953505,-0.242756426334,11.3999996185,0.6369692027357859,-0.08035608657625418,0.03267404526772575,11.3999996185,-0.03280492247756756,0.9043874341882333,1.9221176316655741
1648295896669209943,68713,6,0,0.0127100823447,0.0439508594573,0.0102272182703,0.0,24.7000007629,0.004250863660434782,0.014699284099431437,0.003420474337892977,24.7000007629,0.0,0.01588107794688408,0.04688091545386831
1648295896669215597,68714,6,1,0.0335404723883,0.0146502861753,-0.0292954929173,0.0,24.7000007629,0.011217549293745818,0.0048997612626421405,-0.009797823718160533,24.7000007629,0.0,0.016603447977637752,0.046880913795659694
1648295896669334973,68715,6,2,2.2399892807,-1.2306240797,0.600314497948,0.0,24.7000007629,0.749160294548495,-0.4115799597658863,0.2007740795812709,24.7000007629,0.0,1.1366091488004415,2.625331426626919
1648295896669337970,68716,6,3,1.8620275259,-0.117202289402,0.188757300377,-0.0809188112617,24.7000007629,0.62275168090301,-0.03919809010100334,0.0631295318986622,24.7000007629,-0.010934974494824324,0.881575749667954,1.875236572354528
1648295896774242948,68717,7,0,0.0127004906535,0.0439508594573,0.0102391270921,0.0,21.7000007629,0.004247655736956521,0.014699284099431437,0.003424457221438127,21.7000007629,0.0,0.01587936118221376,0.046880915450566385
1648295896774248971,68718,7,1,0.0335404723883,0.0146502861753,-0.0292954929173,0.0,21.7000007629,0.011217549293745818,0.0048997612626421405,-0.009797823718160533,21.7000007629,0.0,0.016603447977637752,0.046880913795659694
1648295896774251404,68719,7,2,2.24317455292,-1.2306240797,0.588300228119,0.0,21.7000007629,0.7502256029832775,-0.4115799597658863,0.19675592913678927,21.7000007629,0.0,1.1380136088923247,2.625331380761328
1648295896774280770,68720,7,3,1.86212420464,-0.117202289402,0.18780143559,-0.0809188112617,21.7000007629,0.6227840149297659,-0.03919809010100334,0.06280984467892976,21.7000007629,-0.010934974494824324,0.8816214316653401,1.875236600900507
1648295896969301258,68721,9,0,0.0127217965201,0.0439508594573,0.010212643072,0.0,23.0,0.004254781444849498,0.014699284099431437,0.0034155996896321067,23.0,0.0,0.015883176109414296,0.046880915437416903
1648295896969310409,68722,9,1,0.0335269682109,0.0146502861753,-0.0293109472841,0.0,23.0,0.01121303284645485,0.0048997612626421405,-0.00980299240270903,23.0,0.0,0.016597345319726262,0.046880914166899254
1648295896969312274,68723,9,2,1.96846950054,-0.0,0.0456385575235,0.0,23.0,0.6583510035250836,-0.0,0.0152637316132107,23.0,0.0,0.9310489179871105,1.9689984897122248
1648295896969416144,68724,9,3,2.23995494843,-1.2306240797,0.600442230701,0.0,23.0,0.7491488121839464,-0.4115799597658863,0.20081679956555182,23.0,0.0,1.1365940123342742,2.6253313446006596
1648295897074327025,68725,10,0,0.0127004906535,0.0439508594573,0.0102391270921,0.0,15.8999996185,0.004247655736956521,0.014699284099431437,0.003424457221438127,15.8999996185,0.0,0.01587936118221376,0.046880915450566385
1648295897074330091,68726,10,1,0.0335269682109,0.0146502861753,-0.0293109472841,0.0,15.8999996185,0.01121303284645485,0.0048997612626421405,-0.00980299240270903,15.8999996185,0.0,0.016597345319726262,0.046880914166899254
1648295897074332637,68727,10,2,2.24176836014,-1.2306240797,0.593636095524,0.0,15.8999996185,0.7497553043946488,-0.4115799597658863,0.19854050017525082,15.8999996185,0.0,1.1373935537960085,2.625331373364368
1648295897269283141,68728,12,0,0.0127004906535,0.0439508594573,0.0102391270921,0.0,15.6000003815,0.004247655736956521,0.014699284099431437,0.003424457221438127,15.6000003815,0.0,0.01587936118221376,0.046880915450566385
1648295897269287625,68729,12,1,0.0335269682109,0.0146502861753,-0.0293109472841,0.0,15.6000003815,0.01121303284645485,0.0048997612626421405,-0.00980299240270903,15.6000003815,0.0,0.016597345319726262,0.046880914166899254
1648295897269291612,68730,12,2,0.474889069796,-0.861436843872,0.0405664555728,0.0,15.6000003815,0.158825775851505,-0.28810596785016723,0.013567376445752509,15.6000003815,0.0,0.3653167158241553,0.9844992137678946
1648295897269295941,68731,12,3,2.24425601959,-1.2306240797,0.584160864353,0.0,15.6000003815,0.750587297521739,-0.4115799597658863,0.19537152653946485,15.6000003815,0.0,1.1384905118984803,2.625331335745084
1648295897374160972,68732,13,0,0.0126887271181,0.0439508594573,0.0102537022904,0.0,15.6999998093,0.004243721444180602,0.014699284099431437,0.0034293318696989963,15.6999998093,0.0,0.015877257207319986,0.046880915664832074
1648295897374168848,68733,13,1,0.0335269682109,0.0146502861753,-0.0293109472841,0.0,15.6999998093,0.01121303284645485,0.0048997612626421405,-0.00980299240270903,15.6999998093,0.0,0.016597345319726262,0.046880914166899254
1648295897374174656,68734,13,2,0.277937829494,-0.791115403175,-0.0947666242719,0.0,15.6999998093,0.09295579581739129,-0.2645870913628762,-0.03169452316785953,15.6999998093,0.0,0.29544523835722264,0.843856463671678
1648295897374177905,68735,13,3,0.528232574463,-0.830671191216,0.0139441834763,0.0,15.6999998093,0.17666641286387957,-0.2778164519117057,0.004663606513812708,15.6999998093,0.0,0.3736362185618394,0.9844992234089562
1648295897374180231,68736,13,4,1.85722398758,-0.117202289402,0.231289565563,0.0,15.6999998093,0.621145146347826,-0.03919809010100334,0.0773543697535117,15.6999998093,0.0,0.879306019500885,1.8752365663622144
1648295897374209893,68737,13,5,2.24183964729,-1.2306240797,0.593366861343,0.0,15.6999998093,0.7497791462508361,-0.4115799597658863,0.19845045529866218,15.6999998093,0.0,1.1374249863556514,2.625331381338148
1648295897569192279,68738,15,0,0.0127100823447,0.0439508594573,0.0102272182703,0.0,15.6999998093,0.004250863660434782,0.014699284099431437,0.003420474337892977,15.6999998093,0.0,0.01588107794688408,0.04688091545386831
1648295897569194039,68739,15,1,0.0335404723883,0.0146502861753,-0.0292954929173,0.0,15.6999998093,0.011217549293745818,0.0048997612626421405,-0.009797823718160533,15.6999998093,0.0,0.016603447977637752,0.046880913795659694
1648295897569342376,68740,15,2,1.8594866991,-0.0586011447012,0.235345363617,0.0,15.6999998093,0.6219019060535117,-0.019599045050568562,0.07871082395217391,15.6999998093,0.0,0.8797204579142605,1.8752366033293302
1648295897569345763,68741,15,3,2.24510216713,-1.2306240797,0.580900251865,0.0,15.6999998093,0.7508702900100335,-0.4115799597658863,0.19428102069063546,15.6999998093,0.0,1.13886366529115,2.625331306522306
1648295897674215755,68742,16,0,0.0127217965201,0.0439508594573,0.010212643072,0.0,15.3000001907,0.004254781444849498,0.014699284099431437,0.0034155996896321067,15.3000001907,0.0,0.015883176109414296,0.046880915437416903
1648295897674218210,68743,16,1,0.0335269682109,0.0146502861753,-0.0293109472841,0.0,15.3000001907,0.01121303284645485,0.0048997612626421405,-0.00980299240270903,15.3000001907,0.0,0.016597345319726262,0.046880914166899254
1648295897674220890,68744,16,2,1.86935389042,-0.0586011447012,0.136360839009,0.0,15.3000001907,0.6252019700401338,-0.019599045050568562,0.045605631775585284,15.3000001907,0.0,0.8843863009177737,1.8752366091253443
1648295897674227997,68745,16,3,2.24509048462,-1.2306240797,0.580945849419,0.0,15.3000001907,0.7508663828160534,-0.4115799597658863,0.19429627070869562,15.3000001907,0.0,1.1388585131470095,2.625331405675463
