%time,field.header.seq,field.header.frame_id,field.point_id,field.x,field.y,field.z,field.velocity,field.intensity,normalized_x,normalized_y,normalized_z,normalized_intensity,normalized_velocity,normalized_range,range
1648219259150443721,68094,0,0,0.0122110880911,0.0439508594573,0.0108181107789,0.0,18.1000003815,0.004083975950200668,0.014699284099431437,0.0036180972504682276,18.1000003815,0.0,0.01579324767612516,0.046880915522507595
1648219259150448494,68095,0,1,0.033385772258,0.0146502861753,-0.0294716712087,0.0,18.1000003815,0.01116581011973244,0.0048997612626421405,-0.009856746223645484,18.1000003815,0.0,0.016533550486532746,0.04688091379351458
1648219259150451526,68096,0,2,2.13265633583,-1.14272224903,0.298107922077,0.0,18.1000003815,0.7132629885719064,-0.3821813541906354,0.09970164617959865,18.1000003815,0.0,1.07868010513963,2.4378075228346248
1648219259150455627,68097,0,3,1.87043631077,0.117202289402,0.0651440247893,0.0809188112617,18.1000003815,0.625563983535117,0.03919809010100334,0.021787299260635447,18.1000003815,0.010934974494824324,0.8855490304100698,1.8752365486129228
1648219259150458342,68098,0,4,1.9166880846,0.120132349432,0.0800685957074,0.161837622523,18.1000003815,0.6410328042140468,0.040178043288294316,0.0267787945509699,18.1000003815,0.021869948989594594,0.907447181559084,1.9221175757601885
1648219259255384527,68099,1,0,0.0122110880911,0.0439508594573,0.0108181107789,0.0,28.3999996185,0.004083975950200668,0.014699284099431437,0.0036180972504682276,28.3999996185,0.0,0.01579324767612516,0.046880915522507595
1648219259255392815,68100,1,1,0.0334010198712,0.0146502861753,-0.0294543914497,0.0,28.3999996185,0.011170909655919731,0.0048997612626421405,-0.009850967040033444,28.3999996185,0.0,0.016540438492141915,0.046880914977489974
1648219259255394607,68101,1,2,0.919621825218,1.46356356144,0.145235866308,0.0,28.3999996185,0.307565827832107,0.4894861409498327,0.04857386833043478,28.3999996185,0.0,0.6548207075849527,1.7345939169311235
1648219259255397079,68102,1,3,1.95202147961,0.24612480402,0.0773913636804,0.161837622523,28.3999996185,0.652849993180602,0.08231598796655518,0.025883399224214048,28.3999996185,0.021869948989594594,0.9269315773382274,1.9689983999955432
1648219259255399465,68103,1,4,1.92739486694,0.440973609686,0.393015414476,0.485512852669,28.3999996185,0.6446136678729096,0.14748281260401339,0.1314432824334448,28.3999996185,0.06560984495527027,0.9234742777309621,2.0158794144397385
1648219259450493182,68104,3,0,0.00562270963565,0.0454158857465,0.0101785408333,0.0,30.2999992371,0.0018805048948662205,0.015189259446989964,0.003404194258628762,30.2999992371,0.0,0.015420317761551009,0.04688091546974235
1648219259450501189,68105,3,1,0.0334010198712,0.0146502861753,-0.0294543914497,0.0,30.2999992371,0.011170909655919731,0.0048997612626421405,-0.009850967040033444,30.2999992371,0.0,0.016540438492141915,0.046880914977489974
1648219259450509200,68106,3,2,1.85039186478,0.0586011447012,0.298542976379,0.0,30.2999992371,0.618860155444816,0.019599045050568562,0.09984714929063544,30.2999992371,0.0,0.8754198458803969,1.8752365333870629
1648219259450519144,68107,3,3,1.94683861732,0.580151319504,0.358083724976,0.161837622523,30.2999992371,0.6511165944214047,0.19403054164013378,0.11976044313578595,30.2999992371,0.021869948989594594,0.9410385168265004,2.0627603131491963
1648219259555434585,68108,4,0,0.0122110880911,0.0439508594573,0.0108181107789,0.0,21.6000003815,0.004083975950200668,0.014699284099431437,0.0036180972504682276,21.6000003815,0.0,0.01579324767612516,0.046880915522507595
1648219259555443443,68109,4,1,0.0334010198712,0.0146502861753,-0.0294543914497,0.0,21.6000003815,0.011170909655919731,0.0048997612626421405,-0.009850967040033444,21.6000003815,0.0,0.016540438492141915,0.046880914977489974
1648219259555448156,68110,4,2,0.852674782276,1.55879044533,0.129501789808,0.0,21.6000003815,0.2851755124668896,0.5213345971003345,0.04331163538729097,21.6000003815,0.0,0.659120556465412,1.7814748525715987
1648219259555451211,68111,4,3,1.91723585129,0.120132349432,-0.0656578242779,0.0,21.6000003815,0.6412160037759197,0.040178043288294316,-0.021959138554481603,21.6000003815,0.0,0.9077060108643087,1.9221175928492646
1648219259750468027,68112,6,0,0.00558724580333,0.0454158857465,0.0101980511099,0.0,15.3999996185,0.0018686440813812707,0.015189259446989964,0.0034107194347491637,15.3999996185,0.0,0.01541743376680232,0.0468809155226954
1648219259750471303,68113,6,1,0.0334466174245,0.0146502861753,-0.0294026006013,0.0,15.3999996185,0.011186159673745819,0.0048997612626421405,-0.009833645686053511,15.3999996185,0.0,0.016561038521903233,0.04688091321933288
1648219259750473244,68114,6,2,1.86824214458,0.0586011447012,0.150829479098,0.0,15.3999996185,0.6248301486889631,0.019599045050568562,0.05044464183879599,15.3999996185,0.0,0.8838605953362996,1.8752366081937881
1648219259855579625,68115,7,0,0.00556434690952,0.0454158857465,0.0102105634287,0.0,12.3000001907,0.0018609855884682272,0.015189259446989964,0.0034149041567558525,12.3000001907,0.0,0.015415580990314532,0.04688091552220511
1648219259855582690,68116,7,1,0.0334149859846,0.0146502861753,-0.0294385440648,0.0,12.3000001907,0.011175580596856187,0.0048997612626421405,-0.009845666911304347,12.3000001907,0.0,0.01654674783105567,0.04688091349391959
1648219259855591949,68117,7,2,1.9208086729,0.0600661747158,-0.0377090275288,0.0,12.3000001907,0.6424109273913043,0.020089021644080267,-0.012611714892575251,12.3000001907,0.0,0.9087283246681197,1.9221175494724603
1648219260050522399,68118,9,0,0.00566155510023,0.0454158857465,0.0101569853723,0.0,14.5,0.0018934966890401337,0.015189259446989964,0.003396985074347826,14.5,0.0,0.015423497073322436,0.04688091547895794
1648219260050528136,68119,9,1,0.0334466174245,0.0146502861753,-0.0294026006013,0.0,14.5,0.011186159673745819,0.0048997612626421405,-0.009833645686053511,14.5,0.0,0.016561038521903233,0.04688091321933288
1648219260050608015,68120,9,2,0.854097664356,1.55879044533,0.119758546352,0.0,14.5,0.285651392761204,0.5213345971003345,0.04005302553578595,14.5,0.0,0.6595325606113768,1.7814748334272978
1648219260050611619,68121,9,3,1.9128909111,0.180198520422,-0.0539727546275,0.0,14.5,0.6397628465217391,0.06026706368628762,-0.0180510885041806,14.5,0.0,0.9067662976448583,1.9221176349987914
1648219260155587655,68122,10,0,0.0122110880911,0.0439508594573,0.0108181107789,0.0,14.8999996185,0.004083975950200668,0.014699284099431437,0.0036180972504682276,14.8999996185,0.0,0.01579324767612516,0.046880915522507595
1648219260155589984,68123,10,1,0.0334466174245,0.0146502861753,-0.0294026006013,0.0,14.8999996185,0.011186159673745819,0.0048997612626421405,-0.009833645686053511,14.8999996185,0.0,0.016561038521903233,0.04688091321933288
1648219260155591873,68124,10,2,1.86970221996,0.117202289402,0.0836042687297,0.0,14.8999996185,0.6253184682140468,0.03919809010100334,0.027961293889531773,14.8999996185,0.0,0.8852021597616503,1.8752366361913502
1648219260350618384,68125,12,0,0.0122110880911,0.0439508594573,0.0108181107789,0.0,15.3000001907,0.004083975950200668,0.014699284099431437,0.0036180972504682276,15.3000001907,0.0,0.01579324767612516,0.046880915522507595
1648219260350660237,68126,12,1,0.0333628132939,0.0146502861753,-0.0294976588339,0.0,15.3000001907,0.011158131536421404,0.0048997612626421405,-0.0098654377370903,15.3000001907,0.0,0.016523179451880688,0.04688091373451434
1648219260350674127,68127,12,2,1.84957516193,0.117202289402,0.286089807749,0.0,15.3000001907,0.6185870106789297,0.03919809010100334,0.09568220994949832,15.3000001907,0.0,0.8756918806457868,1.8752365275792053
1648219260455741302,68128,13,0,0.0122110880911,0.0439508594573,0.0108181107789,0.0,14.3999996185,0.004083975950200668,0.014699284099431437,0.0036180972504682276,14.3999996185,0.0,0.01579324767612516,0.046880915522507595
1648219260455747734,68129,13,1,0.0334981679916,0.0146502861753,-0.0293438583612,0.0,14.3999996185,0.011203400666086955,0.0048997612626421405,-0.009813999451906355,14.3999996185,0.0,0.016584330960296344,0.04688091474506239
1648219260455749345,68130,13,2,2.06678438187,-1.19546329975,-0.125698387623,0.0,14.3999996185,0.6912322347391303,-0.39982050158862875,-0.042039594522742474,14.3999996185,0.0,1.0561536053886702,2.3909266544254213
1648219260455750861,68131,13,3,1.81103360653,0.117202289402,0.472158163786,-0.0809188112617,14.3999996185,0.6056968583712374,0.03919809010100334,0.1579124293598662,14.3999996185,-0.010934974494824324,0.8574811127652551,1.8752366336683741
1648219260650641645,68132,15,0,0.00560000818223,0.0454158857465,0.0101910484955,0.0,12.8000001907,0.001872912435528428,0.015189259446989964,0.003408377423244147,12.8000001907,0.0,0.015418469591055006,0.046880915511728405
1648219260650645676,68133,15,1,0.0334149859846,0.0146502861753,-0.0294385440648,0.0,12.8000001907,0.011175580596856187,0.0048997612626421405,-0.009845666911304347,12.8000001907,0.0,0.01654674783105567,0.04688091349391959
1648219260650647636,68134,15,2,0.955616414547,1.50311934948,0.0328967049718,0.0,12.8000001907,0.319604152022408,0.5027155014983277,0.01100224246548495,12.8000001907,0.0,0.6760299574920035,1.7814748675552075
1648219260755561914,68135,16,0,0.00560000818223,0.0454158857465,0.0101910484955,0.0,14.1000003815,0.001872912435528428,0.015189259446989964,0.003408377423244147,14.1000003815,0.0,0.015418469591055006,0.046880915511728405
1648219260755691509,68136,16,1,0.0333487987518,0.0146502861753,-0.0295135043561,0.0,14.1000003815,0.011153444398595318,0.0048997612626421405,-0.00987073724284281,14.1000003815,0.0,0.01651684910435411,0.046880915121014624
1648219260755694289,68137,16,2,1.83259987831,0.117202289402,0.379939138889,0.0,14.1000003815,0.6129096582976588,0.03919809010100334,0.1270699461167224,14.1000003815,0.0,0.8676710141157603,1.8752366357029748
1648219260755699182,68138,16,3,1.97416698933,0.580151319504,-0.145151540637,-0.242756426334,14.1000003815,0.6602565181705685,0.19403054164013378,-0.04854566576488294,14.1000003815,-0.03280492247756756,0.9536903012312793,2.062760244195094
1648219260950556774,68139,18,0,0.00560000818223,0.0454158857465,0.0101910484955,0.0,21.0,0.001872912435528428,0.015189259446989964,0.003408377423244147,21.0,0.0,0.015418469591055006,0.046880915511728405
1648219260950561383,68140,18,1,0.0334694497287,0.0146502861753,-0.0293766111135,0.0,21.0,0.011193795895886286,0.0048997612626421405,-0.009824953549665552,21.0,0.0,0.016571354608130556,0.04688091542060558
1648219260950565033,68141,18,2,1.00236642361,1.40935754776,0.133375182748,0.0,21.0,0.3352396065585284,0.4713570393846154,0.04460708453110368,21.0,0.0,0.668542179812511,1.734593924808295
1648219260950573216,68142,18,3,1.91935777664,0.0600661747158,-0.0836290642619,0.0,21.0,0.6419256778060201,0.020089021644080267,-0.02796958670966555,21.0,0.0,0.9080422459577819,1.9221175927821779
1648219261055568947,68143,19,0,0.0122110880911,0.0439508594573,0.0108181107789,0.0,13.8000001907,0.004083975950200668,0.014699284099431437,0.0036180972504682276,13.8000001907,0.0,0.01579324767612516,0.046880915522507595
1648219261055571996,68144,19,1,0.0334842801094,0.0146502861753,-0.0293597038835,0.0,13.8000001907,0.011198755889431438,0.0048997612626421405,-0.009819298957692306,13.8000001907,0.0,0.016578055596873812,0.046880914150534136
1648219261055579938,68145,19,2,1.92106842995,0.0600661747158,0.0205950383097,0.0,13.8000001907,0.6424978026588628,0.020089021644080267,0.006887972678829431,13.8000001907,0.0,0.9088511548287488,1.9221175857627768
1648219261250532522,68146,21,0,0.00566155510023,0.0454158857465,0.0101569853723,0.0,15.1000003815,0.0018934966890401337,0.015189259446989964,0.003396985074347826,15.1000003815,0.0,0.015423497073322436,0.04688091547895794
1648219261250543624,68147,21,1,0.0334981679916,0.0146502861753,-0.0293438583612,0.0,15.1000003815,0.011203400666086955,0.0048997612626421405,-0.009813999451906355,15.1000003815,0.0,0.016584330960296344,0.04688091474506239
1648219261250547976,68148,21,2,0.921241760254,1.46356356144,0.134578436613,0.0,15.1000003815,0.3081076121250836,0.4894861409498327,0.0450095105729097,15.1000003815,0.0,0.6553299043083579,1.7345939106350006
1648219261250560067,68149,21,3,1.86555421352,0.117202289402,0.149944096804,0.0,15.1000003815,0.6239311750903009,0.03919809010100334,0.05014852735919732,15.1000003815,0.0,0.8832421597538774,1.875236553715201
