%time,field.header.seq,field.header.frame_id,field.point_id,field.x,field.y,field.z,field.velocity,field.intensity,normalized_x,normalized_y,normalized_z,normalized_intensity,normalized_velocity,normalized_range,range
1648218300934885394,28624,0,0,0.00501889223233,0.0454158857465,0.0104894367978,0.0,18.8999996185,0.0016785592750267558,0.015189259446989964,0.003508172842073578,18.8999996185,0.0,0.015373637338884073,0.04688091553835019
1648218300934946400,28625,0,1,0.0334949493408,0.0146502861753,-0.0293475333601,0.0,18.8999996185,0.011202324194247491,0.0048997612626421405,-0.009815228548528428,18.8999996185,0.0,0.016582876564002216,0.046880915420703204
1648218300934959369,28626,0,2,0.497762441635,0.105482056737,-1.00351905823,0.0,18.8999996185,0.1664757329882943,0.035278279845150494,-0.3356251030869565,18.8999996185,0.0,0.2380606989337225,1.1251419523005666
1648218300934963022,28627,0,3,1.73365187645,0.054206058383,0.0181306377053,0.0,18.8999996185,0.5798166810869565,0.01812911651605351,0.0060637584298662206,18.8999996185,0.0,0.8201849987649369,1.7345938560676466
1648218300934968074,28628,0,4,1.73125386238,-0.0571361146867,0.585132598877,0.0,18.8999996185,0.5790146696923076,-0.0191090684570903,0.19569652136354512,18.8999996185,0.0,0.8190733373362131,1.8283557175439664
1648218301040046469,28629,1,0,0.00497833499685,0.0454158857465,0.0105087459087,0.0,20.2000007629,0.0016649949822240802,0.015189259446989964,0.0035146307386956523,20.2000007629,0.0,0.015370687009032375,0.04688091549931189
1648218301040060360,28630,1,1,0.0334949493408,0.0146502861753,-0.0293475333601,0.0,20.2000007629,0.011202324194247491,0.0048997612626421405,-0.009815228548528428,20.2000007629,0.0,0.016582876564002216,0.046880915420703204
1648218301040063500,28631,1,2,0.489157795906,0.105482056737,-1.00774133205,0.0,20.2000007629,0.1635979250521739,0.035278279845150494,-0.33703723479933106,20.2000007629,0.0,0.23403657661055072,1.1251419492272927
1648218301040065485,28632,1,3,1.73150253296,0.054206058383,-0.0881855115294,0.0,20.2000007629,0.5790978371103679,0.01812911651605351,-0.029493482116856186,20.2000007629,0.0,0.8191686485440376,1.7345939014236211
1648218301040067810,28633,1,4,1.64502942562,-0.22268435359,0.646484851837,0.0809188112617,20.2000007629,0.5501770654247491,-0.07447637243812709,0.2162156695107023,20.2000007629,0.010934974494824324,0.7816241658817362,1.7814748934925158
1648218301234859647,28634,3,0,0.00501889223233,0.0454158857465,0.0104894367978,0.0,20.2000007629,0.0016785592750267558,0.015189259446989964,0.003508172842073578,20.2000007629,0.0,0.015373637338884073,0.04688091553835019
1648218301234865560,28635,3,1,0.0334949493408,0.0146502861753,-0.0293475333601,0.0,20.2000007629,0.011202324194247491,0.0048997612626421405,-0.009815228548528428,20.2000007629,0.0,0.016582876564002216,0.046880915420703204
1648218301234872892,28636,3,2,0.495979130268,0.140642747283,-1.00008440018,0.0,20.2000007629,0.1658793077819398,0.047037708121404675,-0.33447638802006685,20.2000007629,0.0,0.23925809387718835,1.125141985488099
1648218301235022872,28637,3,3,1.73294603825,0.054206058383,-0.0526862591505,0.0,20.2000007629,0.579580614799331,0.01812911651605351,-0.017620822458361204,20.2000007629,0.0,0.8198512322171587,1.7345939323527753
1648218301235026775,28638,3,4,1.76460802555,0.180198520422,0.740420758724,-0.0809188112617,20.2000007629,0.5901699082107024,0.06026706368628762,0.24763236077725753,20.2000007629,-0.010934974494824324,0.836799354732199,1.9221175537794695
1648218301340007839,28639,4,0,0.00501889223233,0.0454158857465,0.0104894367978,0.0,14.6999998093,0.0016785592750267558,0.015189259446989964,0.003508172842073578,14.6999998093,0.0,0.015373637338884073,0.04688091553835019
1648218301340009834,28640,4,1,0.0334949493408,0.0146502861753,-0.0293475333601,0.0,14.6999998093,0.011202324194247491,0.0048997612626421405,-0.009815228548528428,14.6999998093,0.0,0.016582876564002216,0.046880915420703204
1648218301340011688,28641,4,2,0.489157795906,0.105482056737,-1.00774133205,0.0,14.6999998093,0.1635979250521739,0.035278279845150494,-0.33703723479933106,14.6999998093,0.0,0.23403657661055072,1.1251419492272927
1648218301340013589,28642,4,3,1.73133325577,-0.228544458747,0.541421413422,0.0,14.6999998093,0.5790412226655518,-0.07643627382842809,0.18107739579331103,14.6999998093,0.0,0.8224475539806831,1.8283556981810143
1648218301340191976,28643,4,4,1.65883803368,0.64461261034,0.5909678936,-0.242756426334,14.6999998093,0.5547953289899665,0.21558950178595315,0.19764812494983278,14.6999998093,-0.03280492247756756,0.813679634388428,1.8752365425883473
1648218301535139004,28644,6,0,0.00501889223233,0.0454158857465,0.0104894367978,0.0,31.2999992371,0.0016785592750267558,0.015189259446989964,0.003508172842073578,31.2999992371,0.0,0.015373637338884073,0.04688091553835019
1648218301535141920,28645,6,1,0.0334805957973,0.0146502861753,-0.029363906011,0.0,31.2999992371,0.011197523678026755,0.0048997612626421405,-0.009820704351505017,31.2999992371,0.0,0.016576390845742875,0.046880914626137686
1648218301535279839,28646,6,2,0.497762441635,0.105482056737,-1.00351905823,0.0,31.2999992371,0.1664757329882943,0.035278279845150494,-0.3356251030869565,31.2999992371,0.0,0.2380606989337225,1.1251419523005666
1648218301535286146,28647,6,3,1.73186576366,0.054206058383,0.0807399302721,0.0,31.2999992371,0.5792193189498327,0.01812911651605351,0.027003321161237454,31.2999992371,0.0,0.8193404077397066,1.7345939745206655
1648218301535291220,28648,6,4,1.48164868355,1.45037841797,0.389494359493,0.242756426334,31.2999992371,0.49553467677257523,0.4850763939698996,0.13026567207123743,31.2999992371,0.03280492247756756,0.8522959226436804,2.1096412569096836
1648218301535294597,28649,6,5,1.67373383045,0.514225006104,0.526376545429,-0.161837622523,31.2999992371,0.559777200819398,0.17198160739264212,0.17604566736755853,31.2999992371,-0.021869948989594594,0.8101103026105507,1.8283556983457177
1648218301535298102,28650,6,6,1.75028264523,-0.514225006104,0.122342765331,-0.161837622523,31.2999992371,0.5853788111137124,-0.17198160739264212,0.04091731281973244,31.2999992371,-0.021869948989594594,0.8455260955660466,1.8283556676218171
