%time,field.header.seq,field.header.frame_id,field.point_id,field.x,field.y,field.z,field.velocity,field.intensity,normalized_x,normalized_y,normalized_z,normalized_intensity,normalized_velocity,normalized_range,range
1648219273955607038,68483,0,0,0.00560000818223,0.0454158857465,0.0101910484955,0.0,30.3999996185,0.001872912435528428,0.015189259446989964,0.003408377423244147,30.3999996185,0.0,0.015418469591055006,0.046880915511728405
1648219273955612583,68484,0,1,0.0334694497287,0.0146502861753,-0.0293766111135,0.0,30.3999996185,0.011193795895886286,0.0048997612626421405,-0.009824953549665552,30.3999996185,0.0,0.016571354608130556,0.04688091542060558
1648219273955619169,68485,0,2,1.86442577839,0.0586011447012,0.19234007597,0.0,30.3999996185,0.6235537720367893,0.019599045050568562,0.06432778460535117,30.3999996185,0.0,0.8820559709051975,1.8752365936354787
1648219273955622489,68486,0,3,0.709654688835,1.31266570091,0.154489159584,-0.0809188112617,30.3999996185,0.2373427052959866,0.4390186290668896,0.051668615245484946,30.3999996185,-0.010934974494824324,0.5526305060184483,1.5001892947758335
1648219274150785839,68487,2,0,0.00560000818223,0.0454158857465,0.0101910484955,0.0,14.1999998093,0.001872912435528428,0.015189259446989964,0.003408377423244147,14.1999998093,0.0,0.015418469591055006,0.046880915511728405
1648219274150788660,68488,2,1,0.0333628132939,0.0146502861753,-0.0294976588339,0.0,14.1999998093,0.011158131536421404,0.0048997612626421405,-0.0098654377370903,14.1999998093,0.0,0.016523179451880688,0.04688091373451434
1648219274150791163,68489,2,2,0.874079108238,1.21890377998,0.0287601277232,-0.0809188112617,14.1999998093,0.29233414991237455,0.407660127083612,0.009618771813779263,14.1999998093,-0.010934974494824324,0.580607689945464,1.5001892738099165
1648219274255878849,68490,3,0,0.0122110880911,0.0439508594573,0.0108181107789,0.0,21.1000003815,0.004083975950200668,0.014699284099431437,0.0036180972504682276,21.1000003815,0.0,0.01579324767612516,0.046880915522507595
1648219274255882573,68491,3,1,0.0334466174245,0.0146502861753,-0.0294026006013,0.0,21.1000003815,0.011186159673745819,0.0048997612626421405,-0.009833645686053511,21.1000003815,0.0,0.016561038521903233,0.04688091321933288
1648219274255886920,68492,3,2,1.84793293476,0.180198520422,0.49720069766,-0.485512852669,21.1000003815,0.6180377708227425,0.06026706368628762,0.16628785874916388,21.1000003815,-0.06560984495527027,0.8761127160887785,1.9221176269642228
1648219274255896362,68493,3,3,1.80195653439,-0.0571361146867,0.304258108139,-0.323675245047,21.1000003815,0.6026610482909698,-0.0191090684570903,0.10175856459498327,21.1000003815,-0.04373989797932432,0.8525056215366787,1.8283557869847527
1648219274255898955,68494,3,4,0.867429673672,1.21890377998,0.111387424171,-0.161837622523,21.1000003815,0.29011025875317725,0.407660127083612,0.03725331912073578,21.1000003815,-0.021869948989594594,0.5783724610331111,1.500189262019861
1648219274450812312,68495,5,0,0.00558724580333,0.0454158857465,0.0101980511099,0.0,36.0,0.0018686440813812707,0.015189259446989964,0.0034107194347491637,36.0,0.0,0.01541743376680232,0.0468809155226954
1648219274450816906,68496,5,1,0.0334981679916,0.0146502861753,-0.0293438583612,0.0,36.0,0.011203400666086955,0.0048997612626421405,-0.009813999451906355,36.0,0.0,0.016584330960296344,0.04688091474506239
1648219274450818657,68497,5,2,1.91323292255,0.0600661747158,-0.174550428987,0.0,36.0,0.6398772316220736,0.020089021644080267,-0.05837806989531772,36.0,0.0,0.905146016887482,1.9221175857719395
1648219274450822915,68498,5,3,1.8636496067,0.117202289402,0.172005861998,0.0809188112617,36.0,0.6232941828428092,0.03919809010100334,0.057527044146488286,36.0,0.010934974494824324,0.8823422051556511,1.8752365850088915
1648219274450995227,68499,5,4,0.669177770615,1.06800591946,0.117368735373,-0.485512852669,36.0,0.22380527445317722,0.35719261520401335,0.03925375764983277,36.0,-0.06560984495527027,0.4772464416864795,1.2657847181609987
1648219274450998535,68500,5,5,0.907181382179,1.13539719582,-0.00052494101692,-0.323675245047,36.0,0.30340514454147155,0.37973150361872904,-0.00017556555749832775,36.0,-0.04373989797932432,0.5729793873334391,1.4533083389326544
1648219274451076755,68501,5,6,1.72443664074,0.108412116766,0.152909129858,-0.242756426334,36.0,0.5767346624548495,0.03625823303210702,0.051140177210033444,36.0,-0.03280492247756756,0.8164315043017564,1.7345939343207306
1648219274555932232,68502,6,0,0.00560000818223,0.0454158857465,0.0101910484955,0.0,15.0,0.001872912435528428,0.015189259446989964,0.003408377423244147,15.0,0.0,0.015418469591055006,0.046880915511728405
1648219274555934039,68503,6,1,0.0334466174245,0.0146502861753,-0.0294026006013,0.0,15.0,0.011186159673745819,0.0048997612626421405,-0.009833645686053511,15.0,0.0,0.016561038521903233,0.04688091321933288
1648219274555935240,68504,6,2,2.10848331451,-1.12074685097,-0.121467605233,0.0,15.0,0.7051783660568561,-0.3748317227324415,-0.040624617134782604,15.0,0.0,1.0653881340975244,2.3909265506592394
1648219274555936203,68505,6,3,1.72977030277,0.108412116766,0.0704093128443,0.0809188112617,15.0,0.578518495909699,0.03625823303210702,0.023548265165317727,15.0,0.010934974494824324,0.8189517444159035,1.7345938887076446
1648219274555937240,68506,6,4,0.412847906351,1.14272224903,-0.0973084941506,-0.404594063759,15.0,0.1380762228598662,0.3821813541906354,-0.032544646873110365,15.0,-0.05467487348094594,0.4291767399679097,1.2189038006505855
1648219274555938408,68507,6,5,0.649871408939,1.40203237534,0.0734762698412,-0.404594063759,15.0,0.21734829730401337,0.4689071489431437,0.024574003291371233,15.0,-0.05467487348094594,0.5606732372887929,1.547070260811596
1648219274555940185,68508,6,6,0.732813298702,1.18667316437,0.18118982017,-0.323675245047,15.0,0.24508805976655515,0.3968806569799331,0.06059860206354514,15.0,-0.04373989797932432,0.5269255829480025,1.4064274886120693
1648219274555941263,68509,6,7,0.378229349852,1.54414010048,0.115126311779,-0.323675245047,15.0,0.12649811031839464,0.5164348162140467,0.03850378320367893,15.0,-0.04373989797932432,0.5465422794498936,1.5939511155188186
1648219274750886069,68510,8,0,0.0122110880911,0.0439508594573,0.0108181107789,0.0,12.1000003815,0.004083975950200668,0.014699284099431437,0.0036180972504682276,12.1000003815,0.0,0.01579324767612516,0.046880915522507595
1648219274750889727,68511,8,1,0.0334981679916,0.0146502861753,-0.0293438583612,0.0,12.1000003815,0.011203400666086955,0.0048997612626421405,-0.009813999451906355,12.1000003815,0.0,0.016584330960296344,0.04688091474506239
1648219274855907410,68512,9,0,0.00559638626873,0.0454158857465,0.0101930378005,0.0,25.2999992371,0.0018717010932207357,0.015189259446989964,0.00340904274264214,25.2999992371,0.0,0.015418175395055708,0.04688091548818552
1648219274855915063,68513,9,1,0.0334010198712,0.0146502861753,-0.0294543914497,0.0,25.2999992371,0.011170909655919731,0.0048997612626421405,-0.009850967040033444,25.2999992371,0.0,0.016540438492141915,0.046880914977489974
1648219275050775334,68514,11,0,0.0121114477515,0.0439508594573,0.0109295481816,0.0,24.8999996185,0.004050651421906354,0.014699284099431437,0.003655367284816053,24.8999996185,0.0,0.015776073875314534,0.04688091548942455
1648219275050780349,68515,11,1,0.0334466174245,0.0146502861753,-0.0294026006013,0.0,24.8999996185,0.011186159673745819,0.0048997612626421405,-0.009833645686053511,24.8999996185,0.0,0.016561038521903233,0.04688091321933288
1648219275050785052,68516,11,2,1.86614906788,0.117202289402,0.142350703478,0.0,24.8999996185,0.6241301230367893,0.03919809010100334,0.04760893092909699,24.8999996185,0.0,0.8835232375163665,1.8752366365264794
1648219275050789789,68517,11,3,0.711391746998,1.14711737633,0.162512540817,-0.161837622523,24.8999996185,0.23792366120334446,0.3836512964314381,0.054352020340133776,24.8999996185,-0.021869948989594594,0.5102976135299193,1.3595465489264744
1648219275155824526,68518,12,0,0.0122110880911,0.0439508594573,0.0108181107789,0.0,26.2999992371,0.004083975950200668,0.014699284099431437,0.0036180972504682276,26.2999992371,0.0,0.01579324767612516,0.046880915522507595
1648219275155845521,68519,12,1,0.0333628132939,0.0146502861753,-0.0294976588339,0.0,26.2999992371,0.011158131536421404,0.0048997612626421405,-0.0098654377370903,26.2999992371,0.0,0.016523179451880688,0.04688091373451434
1648219275155859023,68520,12,2,2.10802388191,-1.12074685097,-0.129193857312,0.0,26.2999992371,0.7050247096688962,-0.3748317227324415,-0.04320864793043478,26.2999992371,0.0,1.0651847271032349,2.3909264404053148
1648219275155861738,68521,12,3,0.782153964043,1.10463154316,0.128028303385,-0.323675245047,26.2999992371,0.2615899545294314,0.3694419876789297,0.04281883056354514,26.2999992371,-0.04373989797932432,0.5228250098088063,1.3595465847406123
1648219275155954897,68522,12,4,0.670993208885,2.6795372963,0.143039420247,-0.242756426334,26.2999992371,0.22441244444314382,0.8961663198327758,0.04783927098561873,26.2999992371,-0.03280492247756756,0.9507028785296252,2.7659740209150736
1648219275351081532,68523,14,0,0.00560000818223,0.0454158857465,0.0101910484955,0.0,13.8999996185,0.001872912435528428,0.015189259446989964,0.003408377423244147,13.8999996185,0.0,0.015418469591055006,0.046880915511728405
1648219275351086709,68524,14,1,0.0334326848388,0.0146502861753,-0.029418444261,0.0,13.8999996185,0.011181499946086955,0.0048997612626421405,-0.009838944568896321,13.8999996185,0.0,0.016554743807125908,0.04688091470189418
1648219275351088525,68525,14,2,2.10551404953,-1.12074685097,-0.165129289031,0.0,13.8999996185,0.7041853008461538,-0.3748317227324415,-0.05522718696688963,13.8999996185,0.0,1.064073632894898,2.390926723850665
1648219275351089568,68526,14,3,1.91174805164,0.0600661747158,0.190125241876,0.0809188112617,13.8999996185,0.6393806192775919,0.020089021644080267,0.0635870374167224,13.8999996185,0.010934974494824324,0.9044438741050824,1.922117625405046
1648219275351090552,68527,14,4,0.737803280354,1.02845013142,0.0121497772634,-0.404594063759,13.8999996185,0.24675694995117056,0.3439632546555184,0.004063470656655519,13.8999996185,-0.05467487348094594,0.48998847461101164,1.2657847251434537
1648219275351091566,68528,14,5,0.406322091818,1.27457487583,0.434050112963,-0.323675245047,13.8999996185,0.13589367619331102,0.4262792226856187,0.1451672618605351,13.8999996185,-0.04373989797932432,0.4675982871569572,1.4064274801636978
1648219275351092673,68529,14,6,0.569195270538,1.06654083729,-0.155672430992,-0.242756426334,13.8999996185,0.1903663112167224,0.35670262116722407,-0.052064358191304345,13.8999996185,-0.03280492247756756,0.44689531754102346,1.2189038187572638
1648219275455829401,68530,15,0,0.00560000818223,0.0454158857465,0.0101910484955,0.0,25.7000007629,0.001872912435528428,0.015189259446989964,0.003408377423244147,25.7000007629,0.0,0.015418469591055006,0.046880915511728405
1648219275455836386,68531,15,1,0.0334149859846,0.0146502861753,-0.0294385440648,0.0,25.7000007629,0.011175580596856187,0.0048997612626421405,-0.009845666911304347,25.7000007629,0.0,0.01654674783105567,0.04688091349391959
1648219275455839230,68532,15,2,1.90369725227,-0.0,0.265466958284,0.323675245047,25.7000007629,0.6366880442374582,-0.0,0.08878493588093646,25.7000007629,0.04373989797932432,0.9004128671614144,1.922117565145511
1648219275455844862,68533,15,3,0.653831839561,1.06800591946,0.184602856636,-0.242756426334,25.7000007629,0.2186728560404682,0.35719261520401335,0.06174008583143813,25.7000007629,-0.03280492247756756,0.47246396719122724,1.2657847104083273
1648219275650808349,68534,17,0,0.00560000818223,0.0454158857465,0.0101910484955,0.0,25.7000007629,0.001872912435528428,0.015189259446989964,0.003408377423244147,25.7000007629,0.0,0.015418469591055006,0.046880915511728405
1648219275650947662,68535,17,1,0.0333628132939,0.0146502861753,-0.0294976588339,0.0,25.7000007629,0.011158131536421404,0.0048997612626421405,-0.0098654377370903,25.7000007629,0.0,0.016523179451880688,0.04688091373451434
1648219275650991896,68536,17,2,0.651524722576,1.02845001221,0.0594352707267,0.0,25.7000007629,0.21790124500869565,0.34396321478595315,0.019878016965451502,25.7000007629,0.0,0.46181446304611007,1.2189037874864608
1648219275650994544,68537,17,3,1.85295903683,0.175803437829,0.228359892964,0.0,25.7000007629,0.6197187414147156,0.05879713639765886,0.07637454614180601,25.7000007629,0.0,0.8783847335705711,1.875236593509466
1648219275755795563,68538,18,0,0.00556060066447,0.0454158857465,0.0102126039565,0.0,12.6999998093,0.001859732663702341,0.015189259446989964,0.003415586607525083,12.6999998093,0.0,0.015415278580319484,0.04688091549299315
1648219275755803578,68539,18,1,0.0334981679916,0.0146502861753,-0.0293438583612,0.0,12.6999998093,0.011203400666086955,0.0048997612626421405,-0.009813999451906355,12.6999998093,0.0,0.016584330960296344,0.04688091474506239
1648219275755807312,68540,18,2,0.58929079771,1.06654083729,0.0308785457164,0.0,12.6999998093,0.19708722331438128,0.35670262116722407,0.010327272814849497,12.6999998093,0.0,0.4526847767874614,1.2189038052522858
1648219275755810910,68541,18,3,2.14560961723,-1.14272224903,0.182894825935,0.0,12.6999998093,0.71759518970903,-0.3821813541906354,0.06116883810535117,12.6999998093,0.0,1.084411499421721,2.43780747503404
1648219275950977744,68542,20,0,0.00562270963565,0.0454158857465,0.0101785408333,0.0,11.8000001907,0.0018805048948662205,0.015189259446989964,0.003404194258628762,11.8000001907,0.0,0.015420317761551009,0.04688091546974235
1648219275950983209,68543,20,1,0.0334149859846,0.0146502861753,-0.0294385440648,0.0,11.8000001907,0.011175580596856187,0.0048997612626421405,-0.009845666911304347,11.8000001907,0.0,0.01654674783105567,0.04688091349391959
1648219276055833914,68544,21,0,0.00556060066447,0.0454158857465,0.0102126039565,0.0,24.8999996185,0.001859732663702341,0.015189259446989964,0.003415586607525083,24.8999996185,0.0,0.015415278580319484,0.04688091549299315
1648219276055836410,68545,21,1,0.0334010198712,0.0146502861753,-0.0294543914497,0.0,24.8999996185,0.011170909655919731,0.0048997612626421405,-0.009850967040033444,24.8999996185,0.0,0.016540438492141915,0.046880914977489974
1648219276055911909,68546,21,2,1.85475337505,0.175803437829,0.213296934962,0.0,24.8999996185,0.6203188545317725,0.05879713639765886,0.0713367675458194,24.8999996185,0.0,0.8792315200354145,1.8752366553254138
