%time,field.header.seq,field.header.frame_id,field.point_id,field.x,field.y,field.z,field.velocity,field.intensity,normalized_x,normalized_y,normalized_z,normalized_intensity,normalized_velocity,normalized_range,range
1648219484754611401,75896,0,0,0.00573791889474,0.0454158857465,0.0101140420884,0.0,17.8999996185,0.0019190364196454846,0.015189259446989964,0.0033826227720401333,17.8999996185,0.0,0.015429808945927536,0.04688091550671427
1648219484754616340,75897,0,1,0.0334614515305,0.0146502861753,-0.0293857175857,0.0,17.8999996185,0.011191120913210702,0.0048997612626421405,-0.009827999192541806,17.8999996185,0.0,0.016567740794057963,0.04688091319047343
1648219484754618467,75898,0,2,0.752129018307,1.26578474045,0.287504523993,0.0,17.8999996185,0.2515481666578595,0.42333937807692307,0.09615535919498328,17.8999996185,0.0,0.5529640036461836,1.5001892949397977
1648219484754628435,75899,0,3,1.7462348938,-0.0556710883975,0.348162472248,-0.242756426334,17.8999996185,0.5840250480936454,-0.018619093109531772,0.11644229841070233,17.8999996185,-0.03280492247756756,0.8261459823964473,1.7814748613129232
1648219484754633757,75900,0,4,1.91835820675,0.120132349432,0.00245993747376,-0.0809188112617,17.8999996185,0.6415913734949832,0.040178043288294316,0.0008227215631304348,17.8999996185,-0.010934974494824324,0.9082363438273289,1.9221175931970194
1648219484860069106,75901,1,0,0.00567744718865,0.0454158857465,0.0101481107995,0.0,12.3000001907,0.001898811768779264,0.015189259446989964,0.0033940169897993307,12.3000001907,0.0,0.015424803882529047,0.046880915493599094
1648219484860124976,75902,1,1,0.0334476083517,0.0146502861753,-0.0294014774263,0.0,12.3000001907,0.011186491087525082,0.0048997612626421405,-0.009833270042240803,12.3000001907,0.0,0.01656148622960647,0.04688091577940992
1648219484860228469,75903,1,2,1.91803789139,0.120132349432,-0.035139746964,0.0,12.3000001907,0.6414842446120401,0.040178043288294316,-0.011752423733779263,12.3000001907,0.0,0.9080849890475206,1.9221175656042853
1648219484860241036,75904,1,3,1.02356302738,0.162618175149,-1.39093136787,0.161837622523,12.3000001907,0.34232877169899667,0.05438734954816053,-0.46519443741471567,12.3000001907,0.021869948989594594,0.4871713863280163,1.7345939040688487
1648219484860264099,75905,1,4,0.322524726391,1.317060709,-0.522909164429,-0.0809188112617,12.3000001907,0.10786780146856187,0.44048853143812705,-0.17488600817023411,12.3000001907,-0.010934974494824324,0.4661556301449549,1.453308330867544
1648219485055168157,75906,3,0,0.0122741637751,0.0439508594573,0.0107464920729,0.0,11.3000001907,0.004105071496688963,0.014699284099431437,0.003594144505986622,11.3000001907,0.0,0.015804182263617888,0.04688091546979662
1648219485055220845,75907,3,1,0.0334476083517,0.0146502861753,-0.0294014774263,0.0,11.3000001907,0.011186491087525082,0.0048997612626421405,-0.009833270042240803,11.3000001907,0.0,0.01656148622960647,0.04688091577940992
1648219485055236044,75908,3,2,1.90881073475,0.180198520422,0.136038213968,0.0,11.3000001907,0.6383982390468227,0.06026706368628762,0.045497730424080264,11.3000001907,0.0,0.9048407275324953,1.922117666408255
1648219485160056535,75909,4,0,0.00567744718865,0.0454158857465,0.0101481107995,0.0,13.1999998093,0.001898811768779264,0.015189259446989964,0.0033940169897993307,13.1999998093,0.0,0.015424803882529047,0.046880915493599094
1648219485160072771,75910,4,1,0.0334385335445,0.0146502861753,-0.0294117927551,0.0,13.1999998093,0.011183456034949833,0.0048997612626421405,-0.009836719984983276,13.1999998093,0.0,0.01655738621287189,0.046880912573176205
1648219485160111420,75911,4,2,0.811532020569,1.18081307411,0.243313446641,0.0,13.1999998093,0.2714153914946488,0.39492076057190634,0.0813757346625418,13.1999998093,0.0,0.550722286285093,1.4533083532802784
1648219485355220338,75912,6,0,0.00567744718865,0.0454158857465,0.0101481107995,0.0,12.8000001907,0.001898811768779264,0.015189259446989964,0.0033940169897993307,12.8000001907,0.0,0.015424803882529047,0.046880915493599094
1648219485355350836,75913,6,1,0.0334614515305,0.0146502861753,-0.0293857175857,0.0,12.8000001907,0.011191120913210702,0.0048997612626421405,-0.009827999192541806,12.8000001907,0.0,0.016567740794057963,0.04688091319047343
1648219485355392280,75914,6,2,0.779878914356,1.22622895241,0.0160160716623,0.0,12.8000001907,0.2608290683464883,0.4101100175284281,0.0053565457064548485,12.8000001907,0.0,0.5515920886544347,1.4533083221866967
1648219485355415810,75915,6,3,1.96719896793,0.061531201005,0.0574208907783,0.161837622523,12.8000001907,0.6579260762307692,0.020578996991638794,0.019204311297090302,12.8000001907,0.021869948989594594,0.9306755281439464,1.9689984831938667
1648219485460260013,75916,7,0,0.00567744718865,0.0454158857465,0.0101481107995,0.0,22.5,0.001898811768779264,0.015189259446989964,0.0033940169897993307,22.5,0.0,0.015424803882529047,0.046880915493599094
1648219485460321388,75917,7,1,0.0334476083517,0.0146502861753,-0.0294014774263,0.0,22.5,0.011186491087525082,0.0048997612626421405,-0.009833270042240803,22.5,0.0,0.01656148622960647,0.04688091577940992
1648219485460339473,75918,7,2,0.769905686378,1.22622895241,-0.125351414084,0.0,22.5,0.25749354059464885,0.4101100175284281,-0.04192354986086956,22.5,0.0,0.5484487882866583,1.4533083591098497
1648219485655259775,75919,9,0,0.00567744718865,0.0454158857465,0.0101481107995,0.0,14.6999998093,0.001898811768779264,0.015189259446989964,0.0033940169897993307,14.6999998093,0.0,0.015424803882529047,0.046880915493599094
1648219485655296097,75920,9,1,0.0334476083517,0.0146502861753,-0.0294014774263,0.0,14.6999998093,0.011186491087525082,0.0048997612626421405,-0.009833270042240803,14.6999998093,0.0,0.01656148622960647,0.04688091577940992
1648219485655336628,75921,9,2,0.841079771519,1.18081307411,0.101834915578,0.0,14.6999998093,0.2812975824478261,0.39492076057190634,0.03405850019331103,14.6999998093,0.0,0.5605524657984086,1.453308311432347
1648219485655356281,75922,9,3,1.81380438805,0.114272229373,-0.199849516153,0.161837622523,14.6999998093,0.6066235411538461,0.03821813691404682,-0.06683930306120402,14.6999998093,0.021869948989594594,0.8587461017979906,1.8283556354336263
1648219485760202037,75923,10,0,0.0122741637751,0.0439508594573,0.0107464920729,0.0,19.1000003815,0.004105071496688963,0.014699284099431437,0.003594144505986622,19.1000003815,0.0,0.015804182263617888,0.04688091546979662
1648219485760226902,75924,10,1,0.0334614515305,0.0146502861753,-0.0293857175857,0.0,19.1000003815,0.011191120913210702,0.0048997612626421405,-0.009827999192541806,19.1000003815,0.0,0.016567740794057963,0.04688091319047343
1648219485955236628,75925,12,0,0.0122741637751,0.0439508594573,0.0107464920729,0.0,27.0,0.004105071496688963,0.014699284099431437,0.003594144505986622,27.0,0.0,0.015804182263617888,0.04688091546979662
1648219485955273497,75926,12,1,0.0334246940911,0.0146502861753,-0.0294275209308,0.0,27.0,0.01117882745521739,0.0048997612626421405,-0.009841980244414716,27.0,0.0,0.01655113370672634,0.04688091347482975
1648219485955327746,75927,12,2,0.776718974113,1.22622895241,0.0719394385815,0.0,27.0,0.25977223214481604,0.4101100175284281,0.0240600129035117,27.0,0.0,0.5505937265027344,1.4533083263021302
1648219486060442941,75928,13,0,0.00573791889474,0.0454158857465,0.0101140420884,0.0,16.0,0.0019190364196454846,0.015189259446989964,0.0033826227720401333,16.0,0.0,0.015429808945927536,0.04688091550671427
1648219486060475672,75929,13,1,0.0334476083517,0.0146502861753,-0.0294014774263,0.0,16.0,0.011186491087525082,0.0048997612626421405,-0.009833270042240803,16.0,0.0,0.01656148622960647,0.04688091577940992
1648219486060693041,75930,13,2,0.753287196159,1.22622895241,0.202548921108,0.0,16.0,0.2519355171100334,0.4101100175284281,0.06774211408294313,16.0,0.0,0.5432616644308408,1.4533083324152618
1648219486060715196,75931,13,3,1.96883046627,-0.0,0.0257203374058,-0.0809188112617,16.0,0.6584717278494983,-0.0,0.008602119533712375,16.0,-0.010934974494824324,0.931219647964006,1.9689984613171272
1648219486255185196,75932,15,0,0.00550643447787,0.0454158857465,0.0102419108152,0.0,13.8999996185,0.001841616882230769,0.015189259446989964,0.003425388232508361,13.8999996185,0.0,0.01541092820143578,0.04688091547681986
1648219486255224636,75933,15,1,0.0334246940911,0.0146502861753,-0.0294275209308,0.0,13.8999996185,0.01117882745521739,0.0048997612626421405,-0.009841980244414716,13.8999996185,0.0,0.01655113370672634,0.04688091347482975
1648219486255250499,75934,15,2,0.747410416603,1.22622895241,0.223260879517,0.0,13.8999996185,0.24997003899765885,0.4101100175284281,0.07466919047391303,13.8999996185,0.0,0.5414427645376284,1.4533083619445326
1648219486255312958,75935,15,3,1.91076409817,0.0600661747158,-0.199771299958,0.161837622523,13.8999996185,0.6390515378494983,0.020089021644080267,-0.0668131437986622,13.8999996185,0.021869948989594594,0.9039785975598282,1.922117570932463
1648219486255363052,75936,15,4,1.92109966278,0.0600661747158,0.0174410417676,-0.0809188112617,13.8999996185,0.6425082484214046,0.020089021644080267,0.005833124336989966,13.8999996185,-0.010934974494824324,0.9088659237586693,1.9221175951581002
1648219486360089670,75937,16,0,0.00573791889474,0.0454158857465,0.0101140420884,0.0,12.3000001907,0.0019190364196454846,0.015189259446989964,0.0033826227720401333,12.3000001907,0.0,0.015429808945927536,0.04688091550671427
1648219486360128486,75938,16,1,0.0334246940911,0.0146502861753,-0.0294275209308,0.0,12.3000001907,0.01117882745521739,0.0048997612626421405,-0.009841980244414716,12.3000001907,0.0,0.01655113370672634,0.04688091347482975
1648219486360155376,75939,16,2,0.780001223087,1.22622895241,-0.00811319705099,0.0,12.3000001907,0.26086997427658865,0.4101100175284281,-0.0027134438297625415,12.3000001907,0.0,0.5516307763670403,1.4533083553438102
1648219486360204557,75940,16,3,1.91982960701,0.0600661747158,0.0719883963466,-0.0809188112617,12.3000001907,0.6420834806053511,0.020089021644080267,0.024076386737993307,12.3000001907,-0.010934974494824324,0.9082653582093622,1.9221175808221815
1648219486555291458,75941,18,0,0.00567744718865,0.0454158857465,0.0101481107995,0.0,16.3999996185,0.001898811768779264,0.015189259446989964,0.0033940169897993307,16.3999996185,0.0,0.015424803882529047,0.046880915493599094
1648219486555328479,75942,18,1,0.0334614515305,0.0146502861753,-0.0293857175857,0.0,16.3999996185,0.011191120913210702,0.0048997612626421405,-0.009827999192541806,16.3999996185,0.0,0.016567740794057963,0.04688091319047343
1648219486555353455,75943,18,2,0.72857773304,1.22622895241,0.278643369675,0.0,16.3999996185,0.24367148262207355,0.4101100175284281,0.09319176243311035,16.3999996185,0.0,0.5356694963908684,1.453308323885221
1648219486660196133,75944,19,0,0.0122607154772,0.0439508594573,0.0107618328184,0.0,16.1000003815,0.00410057373819398,0.014699284099431437,0.003599275190100334,16.1000003815,0.0,0.015801846822461295,0.04688091548444185
1648219486660234884,75945,19,1,0.0334385335445,0.0146502861753,-0.0294117927551,0.0,16.1000003815,0.011183456034949833,0.0048997612626421405,-0.009836719984983276,16.1000003815,0.0,0.01655738621287189,0.046880912573176205
1648219486660255356,75946,19,2,0.722521483898,1.18081307411,0.442434489727,0.0,16.1000003815,0.24164598123678926,0.39492076057190634,0.14797140124648828,16.1000003815,0.0,0.5222527813487204,1.4533083252989598
1648219486660289379,75947,19,3,1.91021800041,0.120132349432,0.176554471254,0.0,16.1000003815,0.6388688964581939,0.040178043288294316,0.0590483181451505,16.1000003815,0.0,0.904389965051524,1.9221176009261793
1648219486855259060,75948,21,0,0.00573791889474,0.0454158857465,0.0101140420884,0.0,12.8000001907,0.0019190364196454846,0.015189259446989964,0.0033826227720401333,12.8000001907,0.0,0.015429808945927536,0.04688091550671427
1648219486855268061,75949,21,1,0.0334246940911,0.0146502861753,-0.0294275209308,0.0,12.8000001907,0.01117882745521739,0.0048997612626421405,-0.009841980244414716,12.8000001907,0.0,0.01655113370672634,0.04688091347482975
1648219486855297601,75950,21,2,0.713101148605,1.22622895241,0.316155672073,0.0,12.8000001907,0.23849536742642138,0.4101100175284281,0.10573768296755852,12.8000001907,0.0,0.5309899312085824,1.4533083295895013
1648219486855452298,75951,21,3,1.84933912754,0.420463234186,-0.312555998564,-0.242756426334,12.8000001907,0.6185080694113712,0.14062315524615385,-0.10453377878394648,12.8000001907,-0.03280492247756756,0.8859341598817301,1.9221175281940743
1648219486855462749,75952,21,4,1.86827123165,0.117202289402,0.111077986658,-0.0809188112617,12.8000001907,0.62483987680602,0.03919809010100334,0.03714982831371237,12.8000001907,-0.010934974494824324,0.8845259937172514,1.8752365426185766
