%time,field.header.seq,field.header.frame_id,field.point_id,field.x,field.y,field.z,field.velocity,field.intensity,normalized_x,normalized_y,normalized_z,normalized_intensity,normalized_velocity,normalized_range,range
1648294717059908988,22272,0,0,0.0126902572811,0.0439508594573,0.0102518079802,0.0,14.5,0.004244233204381271,0.014699284099431437,0.0034286983211371234,14.5,0.0,0.015877530791094153,0.04688091556015881
1648294717059919341,22273,0,1,0.0335509069264,0.0146502861753,-0.0292835440487,0.0,14.5,0.011221039105819395,0.0048997612626421405,-0.009793827441036788,14.5,0.0,0.016608163584802046,0.0468809150151135
1648294717059923301,22274,0,2,1.91616022587,-0.120132349432,0.0918378308415,0.0,14.5,0.6408562628327759,-0.040178043288294316,0.030714993592474916,14.5,0.0,0.9071977592490293,1.9221175769863543
1648294717059926357,22275,0,3,2.24172830582,-1.2306240797,0.593787431717,0.0,14.5,0.7497419083010033,-0.4115799597658863,0.19859111428662204,14.5,0.0,1.137375892748984,2.6253313955988777
1648294717165134880,22276,1,0,0.0126902572811,0.0439508594573,0.0102518079802,0.0,14.6000003815,0.004244233204381271,0.014699284099431437,0.0034286983211371234,14.6000003815,0.0,0.015877530791094153,0.04688091556015881
1648294717165136811,22277,1,1,0.0335372425616,0.0146502861753,-0.0292991939932,0.0,14.6000003815,0.011216469084147156,0.0048997612626421405,-0.00979906153618729,14.6000003815,0.0,0.016601988370738802,0.04688091607791967
1648294717165138549,22278,1,2,1.96022808552,-0.12306240201,0.13898293674,0.0,14.6000003815,0.6555946774314381,-0.04115799398327759,0.04648258753846154,14.6000003815,0.0,0.928063975500391,1.9689984151224578
1648294717165142763,22279,1,3,2.23938083649,-1.2306240797,0.602580070496,0.0,14.6000003815,0.7489568015016722,-0.4115799597658863,0.20153179615250835,14.6000003815,0.0,1.1363409014517252,2.62533138817466
1648294717360104538,22280,3,0,0.0126678450033,0.0439508594573,0.0102794887498,0.0,15.0,0.004236737459297658,0.014699284099431437,0.0034379561036120398,15.0,0.0,0.015873526439762208,0.046880915445629195
1648294717360109403,22281,3,1,0.0335372425616,0.0146502861753,-0.0292991939932,0.0,15.0,0.011216469084147156,0.0048997612626421405,-0.00979906153618729,15.0,0.0,0.016601988370738802,0.04688091607791967
1648294717360273763,22282,3,2,1.95726239681,-0.12306240201,0.175881370902,0.0,15.0,0.6546028082976588,-0.04115799398327759,0.05882320097056856,15.0,0.0,0.9266626428917324,1.9689984005542676
1648294717360277501,22283,3,3,2.24204397202,-1.2306240797,0.592594444752,0.0,15.0,0.7498474822809363,-0.4115799597658863,0.19819212199063543,15.0,0.0,1.1375150797448828,2.625331402691786
1648294717360279196,22284,3,4,1.64358329773,-0.263705134392,0.278331518173,-0.161837622523,15.0,0.5496934106120401,-0.08819569712107023,0.09308746427190635,15.0,-0.021869948989594594,0.782370866233697,1.6877129164908977
1648294717465278166,22285,4,0,0.00631333654746,0.0454158857465,0.00976521056145,0.0,18.7999992371,0.0021114837951371236,0.015189259446989964,0.0032659567095150496,18.7999992371,0.0,0.015479997744903816,0.04688091545405326
1648294717465287252,22286,4,1,0.0336130186915,0.0146502861753,-0.0292122270912,0.0,18.7999992371,0.01124181227140468,0.0048997612626421405,-0.009769975615785952,18.7999992371,0.0,0.016636235954142337,0.04688091426370814
1648294717465296099,22287,4,2,1.9155766964,-0.120132349432,0.103297099471,0.0,18.7999992371,0.6406611024749164,-0.040178043288294316,0.03454752490668896,18.7999992371,0.0,0.9069220317156412,1.9221176217729008
1648294717465299619,22288,4,3,2.24160075188,-1.2306240797,0.5942684412,0.0,18.7999992371,0.7496992481204013,-0.4115799597658863,0.19875198702341135,18.7999992371,0.0,1.1373196509976775,2.625331319390513
1648294717465423756,22289,4,4,1.96357619762,0.12306240201,0.0786056444049,0.242756426334,18.7999992371,0.6567144473645484,0.04115799398327759,0.026289513178896322,18.7999992371,0.03280492247756756,0.9296460139340006,1.968998396642465
1648294717660079762,22290,6,0,0.0126474238932,0.0439508594573,0.0103046037257,0.0,24.6000003815,0.004229907656588629,0.014699284099431437,0.003446355761103679,24.6000003815,0.0,0.01586988313133818,0.04688091547861809
1648294717660113257,22291,6,1,0.0335509069264,0.0146502861753,-0.0292835440487,0.0,24.6000003815,0.011221039105819395,0.0048997612626421405,-0.009793827441036788,24.6000003815,0.0,0.016608163584802046,0.0468809150151135
1648294717660252843,22292,6,2,2.24091219902,-1.2306240797,0.596859693527,0.0,24.6000003815,0.7494689628829431,-0.4115799597658863,0.19961862659765883,24.6000003815,0.0,1.1370160579035624,2.625331332043875
1648294717765116103,22293,7,0,0.0126902572811,0.0439508594573,0.0102518079802,0.0,14.1999998093,0.004244233204381271,0.014699284099431437,0.0034286983211371234,14.1999998093,0.0,0.015877530791094153,0.04688091556015881
1648294717765118110,22294,7,1,0.0335372425616,0.0146502861753,-0.0292991939932,0.0,14.1999998093,0.011216469084147156,0.0048997612626421405,-0.00979906153618729,14.1999998093,0.0,0.016601988370738802,0.04688091607791967
1648294717765119870,22295,7,2,1.45948445797,-1.68478298187,0.725232899189,0.0,14.1999998093,0.4881218922976588,-0.5634725691872909,0.24255280909331103,14.1999998093,0.0,0.8910820948190019,2.344045933236129
1648294717765121470,22296,7,3,1.91056489944,-0.879017233849,-1.03519177437,0.0,14.1999998093,0.6389849162006689,-0.29398569693946486,-0.34621798473913046,14.1999998093,0.0,0.9502794516714199,2.3440459769592903
1648294717765145630,22297,7,4,2.24147248268,-1.2306240797,0.594752728939,0.0,14.1999998093,0.7496563487224079,-0.4115799597658863,0.19891395616688962,14.1999998093,0.0,1.1372630942928348,2.6253314694966616
1648294717960097753,22298,9,0,0.0126902572811,0.0439508594573,0.0102518079802,0.0,15.0,0.004244233204381271,0.014699284099431437,0.0034286983211371234,15.0,0.0,0.015877530791094153,0.04688091556015881
1648294717960100722,22299,9,1,0.0336130186915,0.0146502861753,-0.0292122270912,0.0,15.0,0.01124181227140468,0.0048997612626421405,-0.009769975615785952,15.0,0.0,0.016636235954142337,0.04688091426370814
1648294717960162485,22300,9,2,1.90408015251,-0.120132349432,0.233630284667,0.0,15.0,0.6368161045183945,-0.040178043288294316,0.0781372189521739,15.0,0.0,0.9014897543014239,1.9221176130705793
1648294717960168472,22301,9,3,2.23922896385,-1.2306240797,0.603143632412,0.0,15.0,0.7489060079765886,-0.4115799597658863,0.2017202783986622,15.0,0.0,1.1362739462153257,2.625331258984542
1648294717960309441,22302,9,4,1.96713113785,0.061531201005,0.0596975907683,-0.161837622523,15.0,0.6579033905852842,0.020578996991638794,0.01996574942083612,15.0,-0.021869948989594594,0.9306434536407636,1.9689984267489125
1648294718065160737,22303,10,0,0.0126678450033,0.0439508594573,0.0102794887498,0.0,26.2000007629,0.004236737459297658,0.014699284099431437,0.0034379561036120398,26.2000007629,0.0,0.015873526439762208,0.046880915445629195
1648294718065163162,22304,10,1,0.0335372425616,0.0146502861753,-0.0292991939932,0.0,26.2000007629,0.011216469084147156,0.0048997612626421405,-0.00979906153618729,26.2000007629,0.0,0.016601988370738802,0.04688091607791967
1648294718065166469,22305,10,2,2.24100804329,-1.2306240797,0.596500098705,0.0,26.2000007629,0.7495010178227424,-0.4115799597658863,0.199498360770903,26.2000007629,0.0,1.1370583163213495,2.6253314159136214
1648294718065170481,22306,10,3,1.82042562962,-0.114272229373,-0.126004457474,0.323675245047,26.2000007629,0.6088380032173913,-0.03821813691404682,-0.042141959021404676,26.2000007629,0.04373989797932432,0.8618747323785872,1.8283557473004444
1648294718260170832,22307,12,0,0.0126678450033,0.0439508594573,0.0102794887498,0.0,22.2000007629,0.004236737459297658,0.014699284099431437,0.0034379561036120398,22.2000007629,0.0,0.015873526439762208,0.046880915445629195
1648294718260183881,22308,12,1,0.0335509069264,0.0146502861753,-0.0292835440487,0.0,22.2000007629,0.011221039105819395,0.0048997612626421405,-0.009793827441036788,22.2000007629,0.0,0.016608163584802046,0.0468809150151135
1648294718260189720,22309,12,2,2.24237728119,-1.2306240797,0.591332256794,0.0,22.2000007629,0.7499589569197324,-0.4115799597658863,0.19776998554983277,22.2000007629,0.0,1.137662048856845,2.625331471387873
1648294718365166327,22310,13,0,0.0126678450033,0.0439508594573,0.0102794887498,0.0,15.3000001907,0.004236737459297658,0.014699284099431437,0.0034379561036120398,15.3000001907,0.0,0.015873526439762208,0.046880915445629195
1648294718365169268,22311,13,1,0.0335281863809,0.0146502861753,-0.0293095558882,0.0,15.3000001907,0.011213440261170568,0.0048997612626421405,-0.0098025270529097,15.3000001907,0.0,0.016597895812800207,0.04688091544940301
1648294718365171080,22312,13,2,2.2423658371,-1.2306240797,0.591375231743,0.0,15.3000001907,0.7499551294648829,-0.4115799597658863,0.1977843584424749,15.3000001907,0.0,1.1376570026604096,2.6253313767312774
1648294718560077776,22313,15,0,0.0126882251352,0.0439508594573,0.0102543225512,0.0,15.3999996185,0.004243553556923077,0.014699284099431437,0.0034295393147826085,15.3999996185,0.0,0.01587716746201119,0.046880915467820236
1648294718560080132,22314,15,1,0.0335372425616,0.0146502861753,-0.0292991939932,0.0,15.3999996185,0.011216469084147156,0.0048997612626421405,-0.00979906153618729,15.3999996185,0.0,0.016601988370738802,0.04688091607791967
1648294718560082647,22315,15,2,2.24108910561,-1.2306240797,0.596195816994,0.0,15.3999996185,0.7495281289665551,-0.4115799597658863,0.19939659431237458,15.3999996185,0.0,1.1370940574574728,2.6253314946921362
