%time,field.header.seq,field.header.frame_id,field.point_id,field.x,field.y,field.z,field.velocity,field.intensity,normalized_x,normalized_y,normalized_z,normalized_intensity,normalized_velocity,normalized_range,range
1648125652387070143,34095,0,0,0.0126463817433,0.0439508594573,0.0103058833629,0.0,11.8000001907,0.0042295591114715715,0.014699284099431437,0.003446783733411371,11.8000001907,0.0,0.015869697337714487,0.04688091562802829
1648125652387075853,34096,0,1,0.0328519046307,0.0146502861753,-0.0300656240433,0.0,11.8000001907,0.010987259073812709,0.0048997612626421405,-0.010055392656622074,11.8000001907,0.0,0.01629255610212983,0.04688091586131667
1648125652387077981,34097,0,2,1.18449831009,-0.0380907431245,0.285025417805,0.0,11.8000001907,0.39615328096655517,-0.01273937897140468,0.09532622669063545,11.8000001907,0.0,0.5603901639194874,1.2189038682819728
1648125652387080555,34098,0,3,2.39403605461,-0.984499275684,0.437855571508,0.0,11.8000001907,0.8006809547190634,-0.32926397180066885,0.146439990470903,11.8000001907,0.0,1.17923481360822,2.625331399289532
1648125652492198418,34099,1,0,0.0126463817433,0.0439508594573,0.0103058833629,0.0,11.3000001907,0.0042295591114715715,0.014699284099431437,0.003446783733411371,11.3000001907,0.0,0.015869697337714487,0.04688091562802829
1648125652492207020,34100,1,1,0.0328392535448,0.0146502861753,-0.0300794392824,0.0,11.3000001907,0.010983027941404683,0.0048997612626421405,-0.01006001313792642,11.3000001907,0.0,0.016286849479080982,0.04688091430359943
1648125652492218283,34101,1,2,1.24161493778,-0.079111546278,0.233119785786,0.0,11.3000001907,0.4152558320334448,-0.026458711129765885,0.07796648354046823,11.3000001907,0.0,0.5878561690330598,1.265784786208872
1648125652687173910,34102,3,0,0.0126463817433,0.0439508594573,0.0103058833629,0.0,26.1000003815,0.0042295591114715715,0.014699284099431437,0.003446783733411371,26.1000003815,0.0,0.015869697337714487,0.04688091562802829
1648125652687178800,34103,3,1,0.0328762494028,0.0146502861753,-0.0300389975309,0.0,26.1000003815,0.010995401138060199,0.0048997612626421405,-0.010046487468528428,26.1000003815,0.0,0.016303538045608367,0.046880913306746805
1648125652687293268,34104,3,2,1.24217367172,-0.039555773139,0.240105852485,0.0,26.1000003815,0.4154426995719063,-0.013229355564882942,0.08030296069732441,26.1000003815,0.0,0.5876736246453881,1.2657847014008816
1648125652687298506,34105,3,3,2.39377236366,-0.984499275684,0.439294695854,0.0,26.1000003815,0.8005927637658863,-0.32926397180066885,0.146921302961204,26.1000003815,0.0,1.179115053722304,2.6253313662564888
1648125652687306526,34106,3,4,1.32786417007,0.149432912469,0.868980109692,0.0809188112617,26.1000003815,0.4441017291204013,0.04997756269866221,0.29062879922809365,26.1000003815,0.010934974494824324,0.6300400371315773,1.5939510282706235
1648125652792188668,34107,4,0,0.0126362647861,0.0439508594573,0.0103182848543,0.0,12.0,0.004226175513745819,0.014699284099431437,0.003450931389397993,12.0,0.0,0.015867894377697606,0.04688091548929313
1648125652792193297,34108,4,1,0.0328519046307,0.0146502861753,-0.0300656240433,0.0,12.0,0.010987259073812709,0.0048997612626421405,-0.010055392656622074,12.0,0.0,0.01629255610212983,0.04688091586131667
1648125652792195344,34109,4,2,1.24222993851,-0.039555773139,0.23981487751,0.0,12.0,0.415461517896321,-0.013229355564882942,0.0802056446521739,12.0,0.0,0.5877002310311714,1.2657847584776485
1648125652792196934,34110,4,3,1.36580610275,0.199243888259,0.797217547894,0.0,12.0,0.45679133871237454,0.06663675192608695,0.26662794243946486,12.0,0.0,0.6494282954665168,1.5939511460480307
1648125652792198635,34111,4,4,2.39144349098,-0.984499275684,0.451800942421,0.0,12.0,0.7998138765819397,-0.32926397180066885,0.15110399412073577,12.0,0.0,1.1780573999054598,2.6253313859292953
1648125652987184893,34112,6,0,0.0126463817433,0.0439508594573,0.0103058833629,0.0,11.1999998093,0.0042295591114715715,0.014699284099431437,0.003446783733411371,11.1999998093,0.0,0.015869697337714487,0.04688091562802829
1648125652987198013,34113,6,1,0.0328762494028,0.0146502861753,-0.0300389975309,0.0,11.1999998093,0.010995401138060199,0.0048997612626421405,-0.010046487468528428,11.1999998093,0.0,0.016303538045608367,0.046880913306746805
1648125652987315773,34114,6,2,1.17965662479,-0.0380907431245,0.304443240166,0.0,11.1999998093,0.39453398822408026,-0.01273937897140468,0.10182048166086956,11.1999998093,0.0,0.5581007323992457,1.218903746653313
1648125652987321438,34115,6,3,1.46801376343,0.149432912469,0.602731585503,0.0,11.1999998093,0.4909745028193979,0.04997756269866221,0.20158247006789295,11.1999998093,0.0,0.696139125183184,1.5939510560590748
1648125653092134838,34116,7,0,0.0126362647861,0.0439508594573,0.0103182848543,0.0,12.0,0.004226175513745819,0.014699284099431437,0.003450931389397993,12.0,0.0,0.015867894377697606,0.04688091548929313
1648125653092138330,34117,7,1,0.0328762494028,0.0146502861753,-0.0300389975309,0.0,12.0,0.010995401138060199,0.0048997612626421405,-0.010046487468528428,12.0,0.0,0.016303538045608367,0.046880913306746805
1648125653092150137,34118,7,2,1.17393839359,-0.0380907431245,0.325797855854,0.0,12.0,0.39262153631772573,-0.01273937897140468,0.10896249359665551,12.0,0.0,0.5553968251057612,1.218903810616535
1648125653092154617,34119,7,3,1.35807728767,0.0424858294427,0.0467746518552,0.0,12.0,0.4542064507257525,0.01420930750591973,0.01564369627264214,12.0,0.0,0.6425020655076282,1.3595465542028025
1648125653092160163,34120,7,4,2.38832187653,-0.984499275684,0.46802213788,0.0,12.0,0.7987698583712374,-0.32926397180066885,0.15652914310367894,12.0,0.0,1.1766398499161776,2.6253313945633354
1648125653287128074,34121,9,0,0.0126362647861,0.0439508594573,0.0103182848543,0.0,11.3000001907,0.004226175513745819,0.014699284099431437,0.003450931389397993,11.3000001907,0.0,0.015867894377697606,0.04688091548929313
1648125653287134361,34122,9,1,0.0328635908663,0.0146502861753,-0.0300528481603,0.0,11.3000001907,0.010991167513812709,0.0048997612626421405,-0.010051119786053511,11.3000001907,0.0,0.016297827679303527,0.046880914796874326
1648125653287240791,34123,9,2,1.30583322048,-0.082041606307,0.105640992522,0.0,11.3000001907,0.43673351855518394,-0.027438664316722407,0.035331435626086954,11.3000001907,0.0,0.6182436516121036,1.3126657016070902
1648125653287253245,34124,9,3,2.38128829002,-0.984499275684,0.502585351467,0.0,11.3000001907,0.7964174883010033,-0.32926397180066885,0.16808874631003343,11.3000001907,0.0,1.1734463747736021,2.6253313656599437
1648125653287349551,34125,9,4,1.27997779846,0.096691891551,0.86355894804,-0.0809188112617,11.3000001907,0.4280862202207358,0.032338425267892976,0.2888157016856187,11.3000001907,-0.010934974494824324,0.606268420449688,1.547070309708699
1648125653287353272,34126,9,5,1.1030985117,-0.483459472656,0.971013426781,-0.0809188112617,11.3000001907,0.3689292681270903,-0.16169213132307692,0.324753654441806,11.3000001907,-0.010934974494824324,0.5462251871649458,1.5470702838606116
1648125653392306598,34127,10,0,0.0126667525619,0.0439508594573,0.0102808354422,0.0,16.2999992371,0.004236372094280936,0.014699284099431437,0.0034384065024080264,16.2999992371,0.0,0.01587333141083504,0.046880915572216936
1648125653392314926,34128,10,1,0.0328392535448,0.0146502861753,-0.0300794392824,0.0,16.2999992371,0.010983027941404683,0.0048997612626421405,-0.01006001313792642,16.2999992371,0.0,0.016286849479080982,0.04688091430359943
1648125653392319765,34129,10,2,1.30932664871,-0.0410208031535,0.0840957537293,0.0,16.2999992371,0.43790188920066886,-0.013719332158361203,0.028125670143578595,16.2999992371,0.0,0.6194387372500214,1.3126656372088121
1648125653392321791,34130,10,3,1.88078439236,-1.31852579117,0.467644304037,0.0,16.2999992371,0.6290248803879599,-0.44097852547491634,0.15640277726989965,16.2999992371,0.0,0.9928779684453704,2.344045944008713
1648125653392507536,34131,10,4,2.37993168831,-0.984499275684,0.508970558643,0.0,16.2999992371,0.795963775354515,-0.32926397180066885,0.17022426710468228,16.2999992371,0.0,1.1728305190773207,2.6253313494509176
1648125653392510748,34132,10,5,1.14659023285,-0.703213751316,0.664371192455,-0.0809188112617,16.2999992371,0.383474994264214,-0.23518854559063543,0.22219772322909698,16.2999992371,-0.010934974494824324,0.5911174117118496,1.5001892625502347
1648125653392512603,34133,10,6,1.4072612524,-0.187523663044,-0.484787225723,-0.0809188112617,16.2999992371,0.4706559372575251,-0.0627169441618729,-0.16213619589397993,16.2999992371,-0.010934974494824324,0.6685562337130081,1.500189325029364
1648125653587377739,34134,12,0,0.0125577617437,0.0439508594573,0.0104136830196,0.0,16.1000003815,0.004199920315618728,0.014699284099431437,0.0034828371303010034,16.1000003815,0.0,0.015853946333670103,0.04688091531827826
1648125653587383109,34135,12,1,0.0328635908663,0.0146502861753,-0.0300528481603,0.0,16.1000003815,0.010991167513812709,0.0048997612626421405,-0.010051119786053511,16.1000003815,0.0,0.016297827679303527,0.046880914796874326
1648125653587395507,34136,12,2,1.23797571659,-0.039555773139,0.260887980461,0.0,16.1000003815,0.4140387012006689,-0.013229355564882942,0.087253505170903,16.1000003815,0.0,0.5856885759791935,1.2657847654337475
1648125653587397390,34137,12,3,1.3697193861,0.421928226948,0.443185508251,-0.323675245047,16.1000003815,0.4581001291304348,0.14111311938060198,0.1482225780103679,16.1000003815,-0.04373989797932432,0.6630417551557112,1.5001893280774068
1648125653587404463,34138,12,4,1.48924016953,0.0996219441295,0.559391915798,-0.161837622523,16.1000003815,0.4980736352943143,0.033318375963043476,0.18708759725685617,16.1000003815,-0.021869948989594594,0.7051700550416204,1.5939511064502703
1648125653587415551,34139,12,5,1.26403284073,0.647542655468,-0.723594903946,-0.161837622523,16.1000003815,0.4227534584381271,0.21656944998929767,-0.2420049845973244,16.1000003815,-0.021869948989594594,0.6358799414287744,1.593951096524333
1648125653692316102,34140,13,0,0.0126667525619,0.0439508594573,0.0102808354422,0.0,28.5,0.004236372094280936,0.014699284099431437,0.0034384065024080264,28.5,0.0,0.01587333141083504,0.046880915572216936
1648125653692334788,34141,13,1,0.0328519046307,0.0146502861753,-0.0300656240433,0.0,28.5,0.010987259073812709,0.0048997612626421405,-0.010055392656622074,28.5,0.0,0.01629255610212983,0.04688091586131667
1648125653692340709,34142,13,2,1.30418944359,-0.0410208031535,0.143172442913,0.0,28.5,0.43618376039799334,-0.013719332158361203,0.0478837601715719,28.5,0.0,0.6170095345655038,1.3126656693433514
1648125653692513126,34143,13,3,2.40871047974,-0.902457654476,0.525404274464,0.0,28.5,0.8055887892107022,-0.30182530250033446,0.17572049313177254,28.5,0.0,1.1785775781989698,2.62533153048461
1648125653692517587,34144,13,4,1.35590708256,0.454158842564,0.259539961815,-0.485512852669,28.5,0.45348062961872904,0.15189258948628762,0.08680266281438126,28.5,-0.06560984495527027,0.6590604840374271,1.453308385235004
1648125653692523973,34145,13,5,1.17897129059,-0.499574750662,0.687427639961,-0.485512852669,28.5,0.39430477946153847,-0.16708185640869566,0.22990890968595315,28.5,-0.06560984495527027,0.5821244411235461,1.4533082934177455
1648125653692529356,34146,13,6,1.48912477493,0.145037829876,0.39357060194,-0.242756426334,28.5,0.49803504178260866,0.048507635410033445,0.13162896385953177,28.5,-0.03280492247756756,0.7059963147070119,1.5470702589465277
1648125653887135845,34147,15,0,0.0126463817433,0.0439508594573,0.0103058833629,0.0,33.7000007629,0.0042295591114715715,0.014699284099431437,0.003446783733411371,33.7000007629,0.0,0.015869697337714487,0.04688091562802829
1648125653887147824,34148,15,1,0.0327643528581,0.0146502861753,-0.0301610082388,0.0,33.7000007629,0.010957977544515048,0.0048997612626421405,-0.01008729372535117,33.7000007629,0.0,0.016253067530871846,0.04688091425312899
1648125653887151916,34149,15,2,1.35857355595,-0.0424858294427,0.0289752129465,0.0,33.7000007629,0.4543724267391304,-0.01420930750591973,0.009690706671070233,33.7000007629,0.0,0.6427367336487083,1.3595465110084897
1648125653887194256,34150,15,3,2.25884532928,-0.83799636364,0.371867626905,0.0,33.7000007629,0.7554666653110368,-0.28026634235451503,0.12437044378093645,33.7000007629,0.0,1.1045401701382953,2.4378075516791498
1648125653887304037,34151,15,4,0.963526785374,-0.076181486249,-2.23801660538,0.0,33.7000007629,0.3222497609946488,-0.02547875794280936,-0.7485005369163878,33.7000007629,0.0,0.4564416545721094,2.437807582836857
1648125653992179860,34152,16,0,0.0126463817433,0.0439508594573,0.0103058833629,0.0,12.5,0.0042295591114715715,0.014699284099431437,0.003446783733411371,12.5,0.0,0.015869697337714487,0.04688091562802829
1648125653992186861,34153,16,1,0.0328519046307,0.0146502861753,-0.0300656240433,0.0,12.5,0.010987259073812709,0.0048997612626421405,-0.010055392656622074,12.5,0.0,0.01629255610212983,0.04688091586131667
1648125653992189805,34154,16,2,1.23358023167,-0.039555773139,0.280938059092,0.0,12.5,0.412568639354515,-0.013229355564882942,0.0939592170876254,12.5,0.0,0.5836101268880911,1.2657847527135153
1648125653992199791,34155,16,3,1.86605644226,-1.31852579117,0.523329913616,0.0,12.5,0.6240991445685617,-0.44097852547491634,0.1750267269618729,12.5,0.0,0.9866415480976121,2.3440458839719525
1648125653992310798,34156,16,4,2.41667985916,-0.902457654476,0.487435221672,0.0,12.5,0.8082541334983276,-0.30182530250033446,0.1630218132682274,12.5,0.0,1.1822216382149682,2.625331303877351
1648125653992334023,34157,16,5,1.16288626194,0.228544458747,0.284937560558,-0.566431701183,12.5,0.3889251712173913,0.07643627382842809,0.09529684299598662,12.5,-0.07654482448418919,0.5553089964782929,1.2189037867073387
1648125654091341733,34158,17,0,0.0126667525619,0.0439508594573,0.0102808354422,0.0,32.0,0.004236372094280936,0.014699284099431437,0.0034384065024080264,32.0,0.0,0.01587333141083504,0.046880915572216936
1648125654091347558,34159,17,1,0.0328762494028,0.0146502861753,-0.0300389975309,0.0,32.0,0.010995401138060199,0.0048997612626421405,-0.010046487468528428,32.0,0.0,0.016303538045608367,0.046880913306746805
1648125654091414348,34160,17,2,1.18440544605,-0.076181486249,0.27768099308,0.0,32.0,0.3961222227591973,-0.02547875794280936,0.09286989735117056,32.0,0.0,0.560780525547814,1.2189038573234154
1648125654091416773,34161,17,3,1.35777270794,-0.0424858294427,0.054909389466,0.0,32.0,0.45410458459531766,-0.01420930750591973,0.01836434430301003,32.0,0.0,0.6423580402865444,1.359546546897782
1648125654091418165,34162,17,4,2.389077425,-0.984499275684,0.464150130749,0.0,32.0,0.799022550167224,-0.32926397180066885,0.1552341574411371,32.0,0.0,1.176982937207426,2.625331428665963
1648125654091419275,34163,17,5,1.24790263176,0.039555773139,0.208291962743,-0.404594063759,32.0,0.4173587397190635,0.013229355564882942,0.06966286379364547,32.0,-0.05467487348094594,0.5903826310863423,1.265784807653137
1648125654091498576,34164,17,6,1.19802069664,0.0380907431245,0.221408963203,-0.323675245047,32.0,0.4006758182742475,0.01273937897140468,0.07404982046923077,32.0,-0.04373989797932432,0.5667843632952947,1.2189037793346096
1648125654091512616,34165,17,7,1.08237445354,-0.140642747283,0.273184090853,-0.0809188112617,32.0,0.3619981449966555,-0.047037708121404675,0.09136591667324413,32.0,-0.010934974494824324,0.5140990760032095,1.125141941060995
1648125654091527602,34166,17,8,1.37194335461,-0.187523663044,0.577212572098,-0.0809188112617,32.0,0.45884393130769224,-0.0627169441618729,0.19304768297591973,32.0,-0.010934974494824324,0.65192708310117,1.5001893366665318
1648125654192238639,34167,18,0,0.0126362647861,0.0439508594573,0.0103182848543,0.0,14.3000001907,0.004226175513745819,0.014699284099431437,0.003450931389397993,14.3000001907,0.0,0.015867894377697606,0.04688091548929313
1648125654192287288,34168,18,1,0.0328762494028,0.0146502861753,-0.0300389975309,0.0,14.3000001907,0.010995401138060199,0.0048997612626421405,-0.010046487468528428,14.3000001907,0.0,0.016303538045608367,0.046880913306746805
1648125654192290911,34169,18,2,1.00772500038,-0.0,0.500434577465,0.0,14.3000001907,0.33703177270234114,-0.0,0.16736942390133777,14.3000001907,0.0,0.4766349039062971,1.1251419655818744
1648125654192299595,34170,18,3,1.30667614937,-0.123062409461,0.0233295224607,0.0,14.3000001907,0.43701543457190634,-0.041157996475250834,0.007802515873143813,14.3000001907,0.0,0.6194020994329943,1.3126656781423829
1648125654192304182,34171,18,4,1.40602862835,-0.0,0.0334937088192,0.0,14.3000001907,0.4702436884113712,-0.0,0.011201909304080266,14.3000001907,0.0,0.665025001771709,1.4064275069374348
1648125654192319638,34172,18,5,2.25587534904,-0.83799636364,0.389479488134,0.0,14.3000001907,0.7544733608829431,-0.28026634235451503,0.13026069837257526,14.3000001907,0.0,1.1031814570689564,2.43780757393961
1648125654192602881,34173,18,6,1.28637123108,-0.076181486249,-2.06938433647,0.0,14.3000001907,0.43022449199999996,-0.02547875794280936,-0.6921017847725752,14.3000001907,0.0,0.6089625556137457,2.4378076411039418
1648125654192611370,34174,18,7,2.38831210136,-0.984499275684,0.468071877956,0.0,14.3000001907,0.798766589083612,-0.32926397180066885,0.156545778580602,14.3000001907,0.0,1.1766354111612005,2.625331369609977
1648125654192635743,34175,18,8,1.14688014984,0.0366257168353,0.238667473197,-0.323675245047,14.3000001907,0.38357195646822745,0.012249403623846153,0.07982189739030099,14.3000001907,-0.04373989797932432,0.5425909504100371,1.1720229025035993
1648125654192639671,34176,18,9,1.34977269173,-0.27249532938,0.464720338583,-0.0809188112617,14.3000001907,0.45142899388963204,-0.09113556166555183,0.15542486240234113,14.3000001907,-0.010934974494824324,0.6448891095750544,1.453308300728604
1648125654387115042,34177,20,0,0.0126463817433,0.0439508594573,0.0103058833629,0.0,13.3000001907,0.0042295591114715715,0.014699284099431437,0.003446783733411371,13.3000001907,0.0,0.015869697337714487,0.04688091562802829
1648125654387122376,34178,20,1,0.0328519046307,0.0146502861753,-0.0300656240433,0.0,13.3000001907,0.010987259073812709,0.0048997612626421405,-0.010055392656622074,13.3000001907,0.0,0.01629255610212983,0.04688091586131667
1648125654387129228,34179,20,2,1.30249214172,-0.0410208031535,0.15786896646,0.0,13.3000001907,0.43561610090969893,-0.013719332158361203,0.05279898543812709,13.3000001907,0.0,0.6162069415532492,1.3126656452062953
1648125654387133571,34180,20,3,2.24330544472,-0.914177834988,0.27343288064,0.0,13.3000001907,0.7502693795050166,-0.30574509531371236,0.09144912395986621,13.3000001907,0.0,1.1042139045285004,2.4378076159756397
1648125654387140688,34181,20,4,2.38587450981,-0.984499275684,0.480343014002,0.0,13.3000001907,0.7979513410735785,-0.32926397180066885,0.16064983745886288,13.3000001907,0.0,1.1755285826249384,2.6253314860192325
1648125654387225707,34182,20,5,1.30063831806,-0.0483459457755,0.836318790913,-0.161837622523,13.3000001907,0.43499609299665554,-0.016169212633946488,0.279705281241806,13.3000001907,-0.021869948989594594,0.6153898319617507,1.5470702908766154
1648125654387234458,34183,20,6,1.03815627098,-0.0,0.433792710304,-0.0809188112617,13.3000001907,0.34720945517725754,-0.0,0.1450811740147157,13.3000001907,-0.010934974494824324,0.4910283204958509,1.1251420170307345
1648125654492328637,34184,21,0,0.0126362647861,0.0439508594573,0.0103182848543,0.0,17.7999992371,0.004226175513745819,0.014699284099431437,0.003450931389397993,17.7999992371,0.0,0.015867894377697606,0.04688091548929313
1648125654492333831,34185,21,1,0.0328762494028,0.0146502861753,-0.0300389975309,0.0,17.7999992371,0.010995401138060199,0.0048997612626421405,-0.010046487468528428,17.7999992371,0.0,0.016303538045608367,0.046880913306746805
1648125654492341936,34186,21,2,1.25409519672,-0.039555773139,0.167007729411,0.0,17.7999992371,0.4194298316789297,-0.013229355564882942,0.05585542789665551,17.7999992371,0.0,0.5933108656118584,1.2657847381398692
1648125654492349117,34187,21,3,1.3957670927,0.0439508594573,0.167154937983,0.0,17.7999992371,0.4668117366889632,0.014699284099431437,0.055904661532775915,17.7999992371,0.0,0.6603351149031585,1.4064274700116415
1648125654492357403,34188,21,4,2.20966005325,-0.914177834988,0.47390589118,0.0,17.7999992371,0.7390167402173913,-0.30574509531371236,0.15849695357190632,17.7999992371,0.0,1.0889313788992718,2.43780751057323
1648125654492365138,34189,21,5,1.41758167744,-0.076181486249,-1.981808424,0.0,17.7999992371,0.47410758442809364,-0.02547875794280936,-0.6628121819397993,17.7999992371,0.0,0.6709733007585266,2.4378076340224375
1648125654492407008,34190,21,6,2.38484191895,-0.984499275684,0.485442996025,0.0,17.7999992371,0.7976059929598661,-0.32926397180066885,0.1623555170652174,17.7999992371,0.0,1.1750597444968234,2.625331351390366
1648125654492413179,34191,21,7,1.13506686687,-0.0732514336705,0.282657235861,0.161837622523,17.7999992371,0.37962102570903006,-0.02449880724765886,0.09453419259565217,17.7999992371,0.021869948989594594,0.5374238903112794,1.1720228998553923
1648125654687200219,34192,23,0,0.0126362647861,0.0439508594573,0.0103182848543,0.0,30.6000003815,0.004226175513745819,0.014699284099431437,0.003450931389397993,30.6000003815,0.0,0.015867894377697606,0.04688091548929313
1648125654687206882,34193,23,1,0.0328519046307,0.0146502861753,-0.0300656240433,0.0,30.6000003815,0.010987259073812709,0.0048997612626421405,-0.010055392656622074,30.6000003815,0.0,0.01629255610212983,0.04688091586131667
1648125654687211792,34194,23,2,1.14414048195,-0.0366257168353,0.251473337412,0.0,30.6000003815,0.3826556795819398,-0.012249403623846153,0.08410479512107023,30.6000003815,0.0,0.5412954702579472,1.1720229199975603
1648125654687249373,34195,23,3,1.3579723835,-0.0,0.0654064267874,0.0,30.6000003815,0.45417136571906347,-0.0,0.021875059126220734,30.6000003815,0.0,0.6422953050414105,1.3595466137701078
1648125654687263388,34196,23,4,1.88493287563,-1.31852579117,0.450632065535,0.0,30.6000003815,0.630412332986622,-0.44097852547491634,0.15071306539632107,30.6000003815,0.0,0.9946363552039019,2.3440459607481237
1648125654687270881,34197,23,5,2.38887286186,-0.984499275684,0.465202122927,0.0,30.6000003815,0.7989541344013377,-0.32926397180066885,0.15558599428996653,30.6000003815,0.0,1.176890046214995,2.6253314817617404
1648125654792143573,34198,24,0,0.0126362647861,0.0439508594573,0.0103182848543,0.0,12.3999996185,0.004226175513745819,0.014699284099431437,0.003450931389397993,12.3999996185,0.0,0.015867894377697606,0.04688091548929313
1648125654792147735,34199,24,1,0.0328762494028,0.0146502861753,-0.0300389975309,0.0,12.3999996185,0.010995401138060199,0.0048997612626421405,-0.010046487468528428,12.3999996185,0.0,0.016303538045608367,0.046880913306746805
1648125654792149731,34200,24,2,1.29620420933,-0.0410208031535,0.203133001924,0.0,12.3999996185,0.43351311348829424,-0.013719332158361203,0.06793745883745819,12.3999996185,0.0,0.6132336090002739,1.3126656371851988
1648125654792154221,34201,24,3,1.86503303051,-1.31852579117,0.526965916157,0.0,12.3999996185,0.6237568663913043,-0.44097852547491634,0.17624278132341134,12.3999996185,0.0,0.986208556376708,2.3440459772933155
1648125654792163718,34202,24,4,2.38656401634,-0.984499275684,0.476904809475,0.0,12.3999996185,0.7981819452642139,-0.32926397180066885,0.1594999362792642,12.3999996185,0.0,1.175841655418569,2.6253313743624096
1648125654987166127,34203,26,0,0.0126259634271,0.0439508594573,0.0103308875114,0.0,12.8000001907,0.004222730243177257,0.014699284099431437,0.0034551463248829427,12.8000001907,0.0,0.015866059827477193,0.0468809154802997
1648125654987174061,34204,26,1,0.0328519046307,0.0146502861753,-0.0300656240433,0.0,12.8000001907,0.010987259073812709,0.0048997612626421405,-0.010055392656622074,12.8000001907,0.0,0.01629255610212983,0.04688091586131667
1648125654987178782,34205,26,2,1.06439304352,-0.140642747283,0.336499094963,0.0,12.8000001907,0.35598429549163874,-0.047037708121404675,0.11254150333210702,12.8000001907,0.0,0.5056304809430214,1.1251420240876244
1648125654987205580,34206,26,3,1.3044167757,-0.0410208031535,0.141086414456,0.0,12.8000001907,0.43625979120401337,-0.013719332158361203,0.04718609179130435,12.8000001907,0.0,0.6171170317837696,1.312665687584997
1648125654987426954,34207,26,4,1.85668301582,-1.31852579117,0.55566996336,0.0,12.8000001907,0.6209642193377927,-0.44097852547491634,0.18584279711036786,12.8000001907,0.0,0.9826775581672861,2.344045902151967
1648125654987432542,34208,26,5,2.38529253006,-0.984499275684,0.483224153519,0.0,12.8000001907,0.7977566990167224,-0.32926397180066885,0.16161342927056854,12.8000001907,0.0,1.1752643382567458,2.6253313810501164
1648125655092258838,34209,27,0,0.0126259634271,0.0439508594573,0.0103308875114,0.0,12.8000001907,0.004222730243177257,0.014699284099431437,0.0034551463248829427,12.8000001907,0.0,0.015866059827477193,0.0468809154802997
1648125655092262340,34210,27,1,0.0328519046307,0.0146502861753,-0.0300656240433,0.0,12.8000001907,0.010987259073812709,0.0048997612626421405,-0.010055392656622074,12.8000001907,0.0,0.01629255610212983,0.04688091586131667
1648125655092266596,34211,27,2,1.09448349476,-0.0351606868207,0.258484065533,0.0,12.8000001907,0.3660479915585284,-0.011759427030334446,0.0864495202451505,12.8000001907,0.0,0.5178035808799961,1.125141949415377
1648125655092381760,34212,27,3,1.3078520298,-0.0410208031535,0.10455352813,0.0,12.8000001907,0.4374087056187291,-0.013719332158361203,0.03496773516053511,12.8000001907,0.0,0.6187414416191753,1.3126656384577793
1648125655092404836,34213,27,4,2.28509235382,-0.83799636364,0.137915164232,0.0,12.8000001907,0.7642449343879598,-0.28026634235451503,0.04612547298729097,12.8000001907,0.0,1.116552668767619,2.4378075320840304
1648125655092416176,34214,27,5,2.3889708519,-0.984499275684,0.46469861269,0.0,12.8000001907,0.7989869069899664,-0.32926397180066885,0.1554175962173913,12.8000001907,0.0,1.1769345428734506,2.62533147539242
1648125655287187991,34215,29,0,0.0126362647861,0.0439508594573,0.0103182848543,0.0,12.6999998093,0.004226175513745819,0.014699284099431437,0.003450931389397993,12.6999998093,0.0,0.015867894377697606,0.04688091548929313
1648125655287190892,34216,29,1,0.0328762494028,0.0146502861753,-0.0300389975309,0.0,12.6999998093,0.010995401138060199,0.0048997612626421405,-0.010046487468528428,12.6999998093,0.0,0.016303538045608367,0.046880913306746805
1648125655287194302,34217,29,2,1.35619020462,-0.0424858294427,0.0854987129569,0.0,12.6999998093,0.453575319270903,-0.01420930750591973,0.02859488727655518,12.6999998093,0.0,0.6416097294486742,1.359546596012052
1648125655287197733,34218,29,3,2.33206176758,-0.854111671448,0.075218513608,0.0,12.6999998093,0.7799537684214046,-0.2856560774073579,0.025156693514381268,12.6999998093,0.0,1.1394100036024164,2.4846884432261214
1648125655287206964,34219,29,4,2.38420772552,-0.984499275684,0.488548696041,0.0,12.6999998093,0.7973938881337792,-0.32926397180066885,0.16339421272274246,12.6999998093,0.0,1.1747718028588208,2.6253314325347445
1648125655392383598,34220,30,0,0.0126506788656,0.0439508594573,0.0103006083518,0.0,12.8000001907,0.004230996276120401,0.014699284099431437,0.0034450195156521734,12.8000001907,0.0,0.015870463509705293,0.046880915682322666
1648125655392414364,34221,30,1,0.0328001193702,0.0146502861753,-0.0301221106201,0.0,12.8000001907,0.010969939588695651,0.0048997612626421405,-0.010074284488327758,12.8000001907,0.0,0.016269198185225747,0.0468809157752608
1648125655392419298,34222,30,2,1.30785274506,-0.082041606307,0.0766919627786,0.0,12.8000001907,0.43740894483612036,-0.027438664316722407,0.025649485879130435,12.8000001907,0.0,0.6191979088666096,1.3126657171882123
1648125655392421955,34223,30,3,2.3849799633,-0.984499275684,0.484764128923,0.0,12.8000001907,0.797652161638796,-0.32926397180066885,0.16212847121170568,12.8000001907,0.0,1.1751224213076863,2.625331314302114
1648125655587204868,34224,32,0,0.0126463817433,0.0439508594573,0.0103058833629,0.0,11.3999996185,0.0042295591114715715,0.014699284099431437,0.003446783733411371,11.3999996185,0.0,0.015869697337714487,0.04688091562802829
1648125655587218371,34225,32,1,0.0329271182418,0.0146502861753,-0.0299832299352,0.0,11.3999996185,0.011012414127692308,0.0048997612626421405,-0.010027836098729096,11.3999996185,0.0,0.01632648738309875,0.04688091379308575
1648125655587224590,34226,32,2,1.30787706375,-0.0410208031535,0.104240171611,0.0,11.3999996185,0.43741707817725745,-0.013719332158361203,0.034862933649163874,11.3999996185,0.0,0.6187532792940408,1.3126656594701374
1648125655587388407,34227,32,3,2.38602995872,-0.984499275684,0.479570388794,0.0,11.3999996185,0.7980033306755853,-0.32926397180066885,0.1603914343792642,11.3999996185,0.0,1.175599164113605,2.625331511550439
1648125655692318682,34228,33,0,0.0126463817433,0.0439508594573,0.0103058833629,0.0,11.3999996185,0.0042295591114715715,0.014699284099431437,0.003446783733411371,11.3999996185,0.0,0.015869697337714487,0.04688091562802829
1648125655692325002,34229,33,1,0.0328519046307,0.0146502861753,-0.0300656240433,0.0,11.3999996185,0.010987259073812709,0.0048997612626421405,-0.010055392656622074,11.3999996185,0.0,0.01629255610212983,0.04688091586131667
1648125655692328522,34230,33,2,1.30568730831,-0.082041606307,0.107429362833,0.0,11.3999996185,0.43668471849832774,-0.027438664316722407,0.03592955278695652,11.3999996185,0.0,0.618174705920109,1.3126657001102566
1648125655692414001,34231,33,3,1.3796377182,-0.227079421282,0.39640840888,0.0,11.3999996185,0.46141729705685613,-0.07594629474314381,0.13257806317056856,11.3999996185,0.0,0.6569472457752772,1.453308268634237
1648125655692416980,34232,33,4,2.38821125031,-0.984499275684,0.468586802483,0.0,11.3999996185,0.7987328596354514,-0.32926397180066885,0.15671799414147156,11.3999996185,0.0,1.1765896163271214,2.625331482192452
1648125655887179704,34233,35,0,0.0126463817433,0.0439508594573,0.0103058833629,0.0,11.6999998093,0.0042295591114715715,0.014699284099431437,0.003446783733411371,11.6999998093,0.0,0.015869697337714487,0.04688091562802829
1648125655887190792,34234,35,1,0.0328519046307,0.0146502861753,-0.0300656240433,0.0,11.6999998093,0.010987259073812709,0.0048997612626421405,-0.010055392656622074,11.6999998093,0.0,0.01629255610212983,0.04688091586131667
1648125655887195296,34235,35,2,1.30781424046,-0.082041606307,0.0773454979062,0.0,11.6999998093,0.4373960670434782,-0.027438664316722407,0.025868059500401337,11.6999998093,0.0,0.6191797148079801,1.3126656995449213
1648125655887198117,34236,35,3,1.35049927235,-0.181663542986,0.505227982998,0.0,11.6999998093,0.4516719974414715,-0.06075703778795986,0.16897256956454848,11.6999998093,0.0,0.6416436738457763,1.4533083782433558
1648125655887201066,34237,35,4,2.32584500313,-0.854111671448,0.186049491167,0.0,11.6999998093,0.777874582986622,-0.2856560774073579,0.06222391008929766,11.6999998093,0.0,1.1365637370042125,2.4846883384142937
1648125655887395411,34238,35,5,2.38851833344,-0.984499275684,0.467018336058,0.0,11.6999998093,0.7988355630234113,-0.32926397180066885,0.15619342343076922,11.6999998093,0.0,1.1767290582915901,2.6253313656023876
1648125655992241739,34239,36,0,0.0126463817433,0.0439508594573,0.0103058833629,0.0,12.0,0.0042295591114715715,0.014699284099431437,0.003446783733411371,12.0,0.0,0.015869697337714487,0.04688091562802829
1648125655992254234,34240,36,1,0.0328519046307,0.0146502861753,-0.0300656240433,0.0,12.0,0.010987259073812709,0.0048997612626421405,-0.010055392656622074,12.0,0.0,0.01629255610212983,0.04688091586131667
1648125655992259764,34241,36,2,1.35757243633,-0.0424858294427,0.059655405581,0.0,12.0,0.4540376041237458,-0.01420930750591973,0.019951640662541806,12.0,0.0,0.6422633387767516,1.359546517409919
1648125655992261741,34242,36,3,2.3883600235,-0.984499275684,0.467827379704,0.0,12.0,0.798782616555184,-0.32926397180066885,0.15646400658996654,12.0,0.0,1.1766571718845908,2.625331385344706
1648125655992302313,34243,36,4,1.12809443474,-0.146502867341,0.282095164061,0.0809188112617,12.0,0.3772891086086956,-0.04899761449531772,0.09434620871605351,12.0,0.010934974494824324,0.5358123824397119,1.1720229628369476
1648125655992415924,34244,36,5,0.68996232748,0.256380021572,-0.912063062191,0.0809188112617,12.0,0.23075663126421403,0.08574582661270903,-0.30503781344180597,12.0,0.010934974494824324,0.3374160525616907,1.1720229341681425
1648125656187147063,34245,38,0,0.0126362647861,0.0439508594573,0.0103182848543,0.0,19.2999992371,0.004226175513745819,0.014699284099431437,0.003450931389397993,19.2999992371,0.0,0.015867894377697606,0.04688091548929313
1648125656187156947,34246,38,1,0.0328519046307,0.0146502861753,-0.0300656240433,0.0,19.2999992371,0.010987259073812709,0.0048997612626421405,-0.010055392656622074,19.2999992371,0.0,0.01629255610212983,0.04688091586131667
1648125656187164490,34247,38,2,1.11498951912,-0.109877154231,0.344039261341,0.0,19.2999992371,0.3729061936856187,-0.0367482121173913,0.11506329810735785,19.2999992371,0.0,0.5286477935942012,1.1720228795178929
1648125656187171970,34248,38,3,1.35531079769,-0.0424858294427,0.0984607711434,0.0,19.2999992371,0.4532812032408027,-0.01420930750591973,0.03293002379377926,19.2999992371,0.0,0.641193888650428,1.3595465889379046
1648125656187173778,34249,38,4,1.83726584911,-1.31852579117,0.616842746735,0.0,19.2999992371,0.6144701836488294,-0.44097852547491634,0.2063019219849498,19.2999992371,0.0,0.9744789752051523,2.3440458691087813
1648125656187342168,34250,38,5,2.38701415062,-0.984499275684,0.474646747112,0.0,19.2999992371,0.7983324918461538,-0.32926397180066885,0.15874473147558527,19.2999992371,0.0,1.176046044251895,2.625331391201203
1648125656292146483,34251,39,0,0.0126362647861,0.0439508594573,0.0103182848543,0.0,12.5,0.004226175513745819,0.014699284099431437,0.003450931389397993,12.5,0.0,0.015867894377697606,0.04688091548929313
1648125656292164418,34252,39,1,0.0328762494028,0.0146502861753,-0.0300389975309,0.0,12.5,0.010995401138060199,0.0048997612626421405,-0.010046487468528428,12.5,0.0,0.016303538045608367,0.046880913306746805
1648125656292172097,34253,39,2,1.35741519928,-0.0424858294427,0.063132442534,0.0,12.5,0.45398501648160533,-0.01420930750591973,0.02111452927558528,12.5,0.0,0.642188986825066,1.3595465325762504
1648125656292252127,34254,39,3,1.88350999355,-1.24527442455,0.629470407963,0.0,12.5,0.6299364526923076,-0.4164797406521739,0.21052522005451504,12.5,0.0,0.9834100076950802,2.34404592163681
1648125656292254562,34255,39,4,2.38903951645,-0.984499275684,0.464345693588,0.0,12.5,0.799009871722408,-0.32926397180066885,0.15529956307290968,12.5,0.0,1.1769657230971808,2.62533151394937
1648125656292256259,34256,39,5,1.13272714615,-0.0366257168353,0.298706352711,-0.242756426334,12.5,0.37883851041806016,-0.012249403623846153,0.09990179020434782,12.5,-0.03280492247756756,0.535898574210353,1.172022916119276
1648125656487206881,34257,41,0,0.0126362647861,0.0439508594573,0.0103182848543,0.0,28.1000003815,0.004226175513745819,0.014699284099431437,0.003450931389397993,28.1000003815,0.0,0.015867894377697606,0.04688091548929313
1648125656487217621,34258,41,1,0.0328519046307,0.0146502861753,-0.0300656240433,0.0,28.1000003815,0.010987259073812709,0.0048997612626421405,-0.010055392656622074,28.1000003815,0.0,0.01629255610212983,0.04688091586131667
1648125656487220948,34259,41,2,1.18521523476,-0.076181486249,0.274203896523,0.0,28.1000003815,0.3963930551036789,-0.02547875794280936,0.09170698880367892,28.1000003815,0.0,0.5611631450613669,1.218903830670289
1648125656487223630,34260,41,3,1.35028612614,-0.0849716588855,0.133693531156,0.0,28.1000003815,0.45160071108361205,-0.028418615011872907,0.04471355557056856,28.1000003815,0.0,0.6392918130100221,1.3595465293739977
1648125656487241703,34261,41,4,1.93648731709,-1.04603040218,0.934005856514,0.0,28.1000003815,0.6476546211003344,-0.34984294387290965,0.31237654064013376,28.1000003815,0.0,0.9804606579781258,2.3909265299330573
1648125656487268492,34262,41,5,1.60252571106,-0.224149376154,-1.76016998291,0.0,28.1000003815,0.5359617762742475,-0.07496634653979932,-0.5886856130133779,28.1000003815,0.0,0.7616626578529488,2.39092659154897
1648125656487285696,34263,41,6,2.38585877419,-0.984499275684,0.480420708656,0.0,28.1000003815,0.7979460783244147,-0.32926397180066885,0.16067582229297658,28.1000003815,0.0,1.1755214378957866,2.625331402224729
1648125656592528267,34264,42,0,0.0126566989347,0.0439508594573,0.010293208994,0.0,12.1000003815,0.004233009677157191,0.014699284099431437,0.0034425448140468226,12.1000003815,0.0,0.015871537256662026,0.04688091537452244
1648125656592531864,34265,42,1,0.0328392535448,0.0146502861753,-0.0300794392824,0.0,12.1000003815,0.010983027941404683,0.0048997612626421405,-0.01006001313792642,12.1000003815,0.0,0.016286849479080982,0.04688091430359943
1648125656592533219,34266,42,2,1.18277108669,-0.076181486249,0.284562051296,0.0,12.1000003815,0.39557561427759197,-0.02547875794280936,0.09517125461404681,12.1000003815,0.0,0.5600083038031639,1.218903861424164
1648125656592534351,34267,42,3,1.35409915447,-0.0424858294427,0.113918043673,0.0,12.1000003815,0.4528759713946488,-0.01420930750591973,0.038099680158193976,12.1000003815,0.0,0.6406209451407996,1.3595465738672166
1648125656592535467,34268,42,4,1.90223896503,-1.24527442455,0.57037717104,0.0,12.1000003815,0.6362003227525083,-0.4164797406521739,0.19076159566555181,12.1000003815,0.0,0.9914419174689425,2.3440459871257504
1648125656592536577,34269,42,5,1.74955844879,-0.0,-1.69763112068,0.0,12.1000003815,0.5851366049464882,-0.0,-0.5677696055785953,12.1000003815,0.0,0.8275081225562715,2.4378076600982497
1648125656592537804,34270,42,6,2.38888454437,-0.984499275684,0.465142190456,0.0,12.1000003815,0.7989580415953177,-0.32926397180066885,0.15556594998528428,12.1000003815,0.0,1.176895351161522,2.6253314928774976
1648125656787254825,34271,44,0,0.0126463817433,0.0439508594573,0.0103058833629,0.0,12.5,0.0042295591114715715,0.014699284099431437,0.003446783733411371,12.5,0.0,0.015869697337714487,0.04688091562802829
1648125656787261840,34272,44,1,0.0328762494028,0.0146502861753,-0.0300389975309,0.0,12.5,0.010995401138060199,0.0048997612626421405,-0.010046487468528428,12.5,0.0,0.016303538045608367,0.046880913306746805
1648125656787264803,34273,44,2,1.17682862282,-0.076181486249,0.308216422796,0.0,12.5,0.39358816816722403,-0.02547875794280936,0.1030824156508361,12.5,0.0,0.5572005557685404,1.2189038475682514
1648125656787441452,34274,44,3,1.35483717918,-0.0424858294427,0.104775235057,0.0,12.5,0.4531228024013378,-0.01420930750591973,0.035041884634448156,12.5,0.0,0.6409699310668804,1.359546497061834
1648125656787445142,34275,44,4,1.87768280506,-1.31852579117,0.479946166277,0.0,12.5,0.6279875602207358,-0.44097852547491634,0.16051711246722405,12.5,0.0,0.9915638212006406,2.344045925514783
1648125656787544693,34276,44,5,2.28128147125,-0.83799636364,0.190845951438,0.0,12.5,0.7629703917224079,-0.28026634235451503,0.06382807740401338,12.5,0.0,1.1148079924125354,2.4378074644488854
1648125656787547476,34277,44,6,2.38961005211,-0.984499275684,0.461399585009,0.0,12.5,0.7992006863244147,-0.32926397180066885,0.1543142424779264,12.5,0.0,1.1772248031573165,2.625331331853935
1648125656892241744,34278,45,0,0.0126362647861,0.0439508594573,0.0103182848543,0.0,12.8000001907,0.004226175513745819,0.014699284099431437,0.003450931389397993,12.8000001907,0.0,0.015867894377697606,0.04688091548929313
1648125656892249115,34279,45,1,0.0328519046307,0.0146502861753,-0.0300656240433,0.0,12.8000001907,0.010987259073812709,0.0048997612626421405,-0.010055392656622074,12.8000001907,0.0,0.01629255610212983,0.04688091586131667
1648125656892397323,34280,45,2,1.16352033615,-0.076181486249,0.355166763067,0.0,12.8000001907,0.3891372361705685,-0.02547875794280936,0.1187848705909699,12.8000001907,0.0,0.5509126466648282,1.2189038604702203
1648125656892400346,34281,45,3,1.35195708275,-0.0424858294427,0.13701812923,0.0,12.8000001907,0.4521595594481605,-0.01420930750591973,0.04582546128093645,12.8000001907,0.0,0.6396080353001414,1.3595466034818422
1648125656892402779,34282,45,4,2.2432103157,-0.914177834988,0.274211704731,0.0,12.8000001907,0.7502375637792641,-0.30574509531371236,0.09170960024448159,12.8000001907,0.0,1.1041706695612241,2.4378075587416084
1648125656892404482,34283,45,5,1.01821470261,-0.076181486249,-2.21367144585,0.0,12.8000001907,0.3405400343177257,-0.02547875794280936,-0.7403583430936455,12.8000001907,0.0,0.4822698384229973,2.4378076358953975
1648125656892405698,34284,45,6,2.39109706879,-0.984499275684,0.453630924225,0.0,12.8000001907,0.7996980163177257,-0.32926397180066885,0.15171602816889632,12.8000001907,0.0,1.1779000796888346,2.6253314136717445
