%time,field.header.seq,field.header.frame_id,field.point_id,field.x,field.y,field.z,field.velocity,field.intensity,normalized_x,normalized_y,normalized_z,normalized_intensity,normalized_velocity,normalized_range,range
1648127831189505769,131182,0,0,0.0126673094928,0.0439508594573,0.0102801481262,0.0,13.5,0.0042365583587959865,0.014699284099431437,0.00343817663083612,13.5,0.0,0.015873430835542962,0.04688091533148996
1648127831189511194,131183,0,1,0.0329111367464,0.0146502861753,-0.0300007723272,0.0,13.5,0.011007069145953176,0.0048997612626421405,-0.010033703119464882,13.5,0.0,0.016319277030508346,0.04688091453018932
1648127831189520704,131184,0,2,1.35753512383,-0.0,-0.0739271938801,0.0,13.5,0.4540251250267558,-0.0,-0.024724814006722405,13.5,0.0,0.6420884894709782,1.3595465576533667
1648127831189539940,131185,0,3,1.85670363903,-1.31852579117,0.55560106039,0.0,13.5,0.6209711167324414,-0.44097852547491634,0.18581975263879597,13.5,0.0,0.9826862752485669,2.3440459047284485
1648127831189551603,131186,0,4,2.43507862091,-0.902457654476,0.385133206844,0.0,13.5,0.8144075655217391,-0.30182530250033446,0.12880709258996653,13.5,0.0,1.1906375933874715,2.625331463863033
1648127831189562894,131187,0,5,1.3783608675,-0.187523663044,0.561715424061,0.0809188112617,13.5,0.4609902566889632,-0.0627169441618729,0.18786469032140465,13.5,0.010934974494824324,0.6549484320229463,1.5001893290131154
1648127831384549940,131188,2,0,0.0126620735973,0.0439508594573,0.010286597535,0.0,18.6000003815,0.004234807223177257,0.014699284099431437,0.003440333623745819,18.6000003815,0.0,0.015872496258331467,0.04688091555916807
1648127831384560709,131189,2,1,0.0329111367464,0.0146502861753,-0.0300007723272,0.0,18.6000003815,0.011007069145953176,0.0048997612626421405,-0.010033703119464882,18.6000003815,0.0,0.016319277030508346,0.04688091453018932
1648127831384564923,131190,2,2,1.35862767696,-0.0,-0.0499776825309,0.0,18.6000003815,0.45439052741137126,-0.0,-0.01671494399026756,18.6000003815,0.0,0.6426052464790248,1.3595465910931062
1648127831384650093,131191,2,3,1.48391604424,-0.0483459457755,0.434835940599,0.0,18.6000003815,0.4962929913846153,-0.016169212633946488,0.14543008046789296,18.6000003815,0.0,0.7020505039042287,1.5470702802595728
1648127831384658738,131192,2,4,1.87297618389,-1.31852579117,0.497997045517,0.0,18.6000003815,0.6264134394280936,-0.44097852547491634,0.1665541958250836,18.6000003815,0.0,0.9895704391918239,2.3440458836685094
1648127831384666727,131193,2,5,2.42174553871,-0.902457654476,0.461609691381,0.0,18.6000003815,0.8099483407056857,-0.30182530250033446,0.15438451216755852,18.6000003815,0.0,1.1845383668135048,2.6253313656681465
1648127831489574649,131194,3,0,0.0125831468031,0.0439508594573,0.0103829959407,0.0,12.6000003815,0.0042084103020401335,0.014699284099431437,0.003472573893210702,12.6000003815,0.0,0.015858448460566152,0.04688091546896556
1648127831489585120,131195,3,1,0.0329224467278,0.0146502861753,-0.0299883615226,0.0,12.6000003815,0.011010851748428094,0.0048997612626421405,-0.010029552348695651,12.6000003815,0.0,0.01632437970896942,0.04688091520409101
1648127831489593121,131196,3,2,1.35935759544,-0.0,-0.0226654503495,0.0,12.6000003815,0.45463464730434777,-0.0,-0.0075804181770903,12.6000003815,0.0,0.6429504841425173,1.3595465401816755
1648127831489599524,131197,3,3,1.8685529232,-1.31852579117,0.514345169067,0.0,12.6000003815,0.6249340880267558,-0.44097852547491634,0.17202179567458192,12.6000003815,0.0,0.98769797442624,2.344045912887011
1648127831489618823,131198,3,4,0.281288981438,-1.31999075413,2.08618736267,0.0,12.6000003815,0.09407658242073579,-0.4414684796421404,0.6977215259765885,12.6000003815,0.0,0.46108049756791264,2.4846884702576144
1648127831489620997,131199,3,5,2.18281602859,-0.388232588768,-1.12172472477,0.0,12.6000003815,0.730038805548495,-0.12984367517324413,-0.3751587708260869,12.6000003815,0.0,1.0405636430299887,2.4846884544769905
1648127831489630521,131200,3,6,2.42803430557,-0.902457654476,0.427299529314,0.0,12.6000003815,0.8120516072140468,-0.30182530250033446,0.1429095415765886,12.6000003815,0.0,1.1874148974925536,2.6253314638153946
1648127831489673948,131201,3,7,1.43112742901,0.290075659752,0.511035084724,0.0809188112617,12.6000003815,0.4786379361237458,0.09701527082006689,0.1709147440548495,12.6000003815,0.010934974494824324,0.6838132132138782,1.5470702842030792
1648127831489683041,131202,3,8,1.34716629982,-0.0454158857465,0.543309867382,-0.0809188112617,12.6000003815,0.450557290909699,-0.015189259446989964,0.1817089857464883,12.6000003815,-0.010934974494824324,0.637365247237659,1.4533083822931372
1648127831684657101,131203,5,0,0.0125934295356,0.0439508594573,0.0103705218062,0.0,23.6000003815,0.004211849343010033,0.014699284099431437,0.0034684019418729094,23.6000003815,0.0,0.01586027436119016,0.046880915488462134
1648127831684661784,131204,5,1,0.0328232087195,0.0146502861753,-0.0300969481468,0.0,23.6000003815,0.01097766177909699,0.0048997612626421405,-0.01006586894541806,23.6000003815,0.0,0.016279612301998543,0.04688091512986084
1648127831684665930,131205,5,2,1.34327208996,-0.0454158857465,0.552867770195,0.0,23.6000003815,0.4492548795852842,-0.015189259446989964,0.18490560876086956,23.6000003815,0.0,0.6355238841026547,1.45330839179578
1648127831684669396,131206,5,3,1.89026176929,-1.24527442455,0.608895123005,0.0,23.6000003815,0.6321945716688963,-0.4164797406521739,0.20364385384782607,23.6000003815,0.0,0.9863038716688384,2.3440459081888667
1648127831684672071,131207,5,4,2.38996863365,-0.984499275684,0.459539562464,0.0,23.6000003815,0.7993206132608696,-0.32926397180066885,0.15369216135919733,23.6000003815,0.0,1.1773876373962047,2.6253315034720424
1648127831789699532,131208,6,0,0.0125726731494,0.0439508594573,0.0103956768289,0.0,12.8999996185,0.004204907407826087,0.014699284099431437,0.0034768149929431435,12.8999996185,0.0,0.01585658997554579,0.04688091566818964
1648127831789708531,131209,6,1,0.0329111367464,0.0146502861753,-0.0300007723272,0.0,12.8999996185,0.011007069145953176,0.0048997612626421405,-0.010033703119464882,12.8999996185,0.0,0.016319277030508346,0.04688091453018932
1648127831789723344,131210,6,2,1.35728335381,-0.0,-0.0784141495824,0.0,12.8999996185,0.4539409210066889,-0.0,-0.026225468087759198,12.8999996185,0.0,0.6419694070037932,1.3595465719806925
1648127831789728871,131211,6,3,1.33287107944,-0.0454158857465,0.577492117882,0.0,12.8999996185,0.44577628074916387,-0.015189259446989964,0.19314117654916385,12.8999996185,0.0,0.6306058186852248,1.4533083166697724
1648127831789736579,131212,6,4,1.86682903767,-1.31852579117,0.520567417145,0.0,12.8999996185,0.6243575376822742,-0.44097852547491634,0.17410281509866218,12.8999996185,0.0,0.9869684542331515,2.344045936764335
1648127831789740426,131213,6,5,2.42517733574,-0.902457654476,0.443226724863,0.0,12.8999996185,0.8110960989096989,-0.30182530250033446,0.1482363628304348,12.8999996185,0.0,1.1861080374748678,2.6253313805198135
1648127831789832816,131214,6,6,1.80309343338,0.515690088272,-0.859009861946,-0.323675245047,12.8999996185,0.6030412820668896,0.17247160142876253,-0.28729426820936455,12.8999996185,-0.04373989797932432,0.8700942644640048,2.062760320434865
1648127831789836050,131215,6,7,1.79915702343,0.386767566204,-0.93189316988,-0.323675245047,12.8999996185,0.6017247569999999,0.1293537010715719,-0.31166995648160534,12.8999996185,-0.04373989797932432,0.8607425552128415,2.062760292737345
1648127831789840274,131216,6,8,1.34602570534,-0.454158842564,0.306691527367,-0.242756426334,12.8999996185,0.45017582118394645,-0.15189258948628762,0.10257241717959865,12.8999996185,-0.03280492247756756,0.6545134824418295,1.4533083453533941
1648127831789850036,131217,6,9,1.51098895073,0.241729736328,0.227827832103,-0.0809188112617,12.8999996185,0.5053474751605351,0.08084606566153846,0.07619659936555184,12.8999996185,-0.010934974494824324,0.7192275214667505,1.5470702620547343
1648127831984614532,131218,8,0,0.0126571767032,0.0439508594573,0.0102926222607,0.0,16.7999992371,0.004233169465953177,0.014699284099431437,0.0034423485821739124,16.7999992371,0.0,0.015871622490809013,0.046880915542817876
1648127831984624438,131219,8,1,0.0329111367464,0.0146502861753,-0.0300007723272,0.0,16.7999992371,0.011007069145953176,0.0048997612626421405,-0.010033703119464882,16.7999992371,0.0,0.016319277030508346,0.04688091453018932
1648127831984628766,131220,8,2,1.35419142246,-0.0,-0.120549961925,0.0,16.7999992371,0.45290683025418055,-0.0,-0.040317713018394645,16.7999992371,0.0,0.6405069818368713,1.3595465060027763
1648127831984811843,131221,8,3,1.82736873627,-1.39177727699,0.467151552439,0.0,16.7999992371,0.6111601124648829,-0.4654773501638796,0.1562379774043478,16.7999992371,0.0,0.9816835180707495,2.3440458741221093
1648127831984815651,131222,8,4,2.42744135857,-0.902457654476,0.430654793978,0.0,16.7999992371,0.811853297180602,-0.30182530250033446,0.1440317036715719,16.7999992371,0.0,1.1871436583309738,2.6253313922236035
1648127831984818761,131223,8,5,1.39763665199,0.515690088272,0.176758542657,-0.404594063759,16.7999992371,0.46743700735451504,0.17247160142876253,0.05911656945050167,16.7999992371,-0.05467487348094594,0.6831845760762547,1.5001893415599332
1648127832089695669,131224,9,0,0.0125934295356,0.0439508594573,0.0103705218062,0.0,40.4000015259,0.004211849343010033,0.014699284099431437,0.0034684019418729094,40.4000015259,0.0,0.01586027436119016,0.046880915488462134
1648127832089701265,131225,9,1,0.0329111367464,0.0146502861753,-0.0300007723272,0.0,40.4000015259,0.011007069145953176,0.0048997612626421405,-0.010033703119464882,40.4000015259,0.0,0.016319277030508346,0.04688091453018932
1648127832089704150,131226,9,2,1.35330426693,-0.0,-0.130131959915,0.0,40.4000015259,0.4526101227190635,-0.0,-0.04352239462040134,40.4000015259,0.0,0.6400873740166505,1.3595465295024896
1648127832089707028,131227,9,3,1.37284517288,-0.0,0.476866155863,0.0,40.4000015259,0.45914554276923075,-0.0,0.15948700864983278,40.4000015259,0.0,0.649329853687402,1.453308363461613
1648127832089710308,131228,9,4,1.86860918999,-1.31852579117,0.514140665531,0.0,40.4000015259,0.6249529063511705,-0.44097852547491634,0.1719533998431438,40.4000015259,0.0,0.9877217878753011,2.3440459020352433
1648127832089713250,131229,9,5,2.43356728554,-0.902457654476,0.394569188356,0.0,40.4000015259,0.813902102187291,-0.30182530250033446,0.1319629392494983,40.4000015259,0.0,1.1899461236203936,2.625331292574855
1648127832284701468,131230,11,0,0.0126416329294,0.0439508594573,0.0103117069229,0.0,13.6999998093,0.004227970879397993,0.014699284099431437,0.003448731412341137,13.6999998093,0.0,0.01586885088939564,0.046880915411506324
1648127832284709016,131231,11,1,0.0329111367464,0.0146502861753,-0.0300007723272,0.0,13.6999998093,0.011007069145953176,0.0048997612626421405,-0.010033703119464882,13.6999998093,0.0,0.016319277030508346,0.04688091453018932
1648127832284715499,131232,11,2,1.3594442606,-0.0,0.0166763681918,0.0,13.6999998093,0.45466363230769224,-0.0,0.0055773806661538455,13.6999998093,0.0,0.6429914751273524,1.3595465416580446
1648127832284720781,131233,11,3,1.87677514553,-1.31852579117,0.483483344316,0.0,13.6999998093,0.6276839951605351,-0.44097852547491634,0.16170011515585284,13.6999998093,0.0,0.9911793255972466,2.3440459366425843
1648127832284727870,131234,11,4,2.42531085014,-0.902457654476,0.442496091127,0.0,13.6999998093,0.8111407525551838,-0.30182530250033446,0.14799200372140467,13.6999998093,0.0,1.186169108576428,2.625331470232246
1648127832284851465,131235,11,5,1.47752916813,-0.0483459457755,0.456066608429,-0.0809188112617,13.6999998093,0.49415691241806015,-0.016169212633946488,0.15253063827056854,13.6999998093,-0.010934974494824324,0.6990304368325477,1.5470703036616624
