%time,field.header.seq,field.header.frame_id,field.point_id,field.x,field.y,field.z,field.velocity,field.intensity,normalized_x,normalized_y,normalized_z,normalized_intensity,normalized_velocity,normalized_range,range
1648294710564993184,22093,0,0,0.00631579104811,0.0454158857465,0.00976362358779,0.0,15.0,0.0021123046983645482,0.015189259446989964,0.003265425949093645,15.0,0.0,0.015480221730499849,0.04688091552291377
1648294710564996398,22094,0,1,0.0335372425616,0.0146502861753,-0.0292991939932,0.0,15.0,0.011216469084147156,0.0048997612626421405,-0.00979906153618729,15.0,0.0,0.016601988370738802,0.04688091607791967
1648294710565007978,22095,0,2,1.96503067017,-0.12306240201,-0.021558014676,0.0,15.0,0.6572008930334448,-0.04115799398327759,-0.007210038353177257,15.0,0.0,0.9303332779583036,1.968998384329962
1648294710565021535,22096,0,3,2.24015498161,-1.2306240797,0.599695801735,0.0,15.0,0.7492157129130435,-0.4115799597658863,0.200567157770903,15.0,0.0,1.1366822037106452,2.625331411800833
1648294710760014526,22097,2,0,0.0125969899818,0.0439508594573,0.0103661967441,0.0,14.6000003815,0.004213040127692308,0.014699284099431437,0.003466955432809364,14.6000003815,0.0,0.015860906886773187,0.04688091550486504
1648294710760017628,22098,2,1,0.0335372425616,0.0146502861753,-0.0292991939932,0.0,14.6000003815,0.011216469084147156,0.0048997612626421405,-0.00979906153618729,14.6000003815,0.0,0.016601988370738802,0.04688091607791967
1648294710760029800,22099,2,2,2.24091601372,-1.2306240797,0.596845388412,0.0,14.6000003815,0.7494702387023411,-0.4115799597658863,0.19961384227826084,14.6000003815,0.0,1.1370177398272978,2.6253313359941597
1648294710760038148,22100,2,3,1.73202216625,-0.0,0.416835784912,-0.161837622523,14.6000003815,0.5792716275083611,-0.0,0.1394099615090301,14.6000003815,-0.021869948989594594,0.8192137919202599,1.7814749102820802
1648294710865302275,22101,3,0,0.0126902572811,0.0439508594573,0.0102518079802,0.0,24.1000003815,0.004244233204381271,0.014699284099431437,0.0034286983211371234,24.1000003815,0.0,0.015877530791094153,0.04688091556015881
1648294710865309064,22102,3,1,0.0335281863809,0.0146502861753,-0.0293095558882,0.0,24.1000003815,0.011213440261170568,0.0048997612626421405,-0.0098025270529097,24.1000003815,0.0,0.016597895812800207,0.04688091544940301
1648294710865312457,22103,3,2,1.96487939358,-0.12306240201,0.0325517840683,0.0,24.1000003815,0.6571502988561873,-0.04115799398327759,0.010886884303779263,24.1000003815,0.0,0.9302617970454768,1.9689984775895102
1648294710865318110,22104,3,3,2.24043107033,-1.2306240797,0.598663449287,0.0,24.1000003815,0.749308050277592,-0.4115799597658863,0.20022188939364546,24.1000003815,0.0,1.1368039284337916,2.6253313946909085
1648294710865322377,22105,3,4,1.00863409042,0.054206058383,-1.41015422344,0.566431701183,24.1000003815,0.3373358161939799,0.01812911651605351,-0.4716234861003344,24.1000003815,0.07654482448418919,0.47740922764455423,1.7345938887844818
1648294711060037451,22106,5,0,0.0126902572811,0.0439508594573,0.0102518079802,0.0,25.2999992371,0.004244233204381271,0.014699284099431437,0.0034286983211371234,25.2999992371,0.0,0.015877530791094153,0.04688091556015881
1648294711060041252,22107,5,1,0.0335509069264,0.0146502861753,-0.0292835440487,0.0,25.2999992371,0.011221039105819395,0.0048997612626421405,-0.009793827441036788,25.2999992371,0.0,0.016608163584802046,0.0468809150151135
1648294711060047506,22108,5,2,1.96504986286,-0.12306240201,0.0197295434773,0.0,25.2999992371,0.657207311993311,-0.04115799398327759,0.0065985095241806015,25.2999992371,0.0,0.930342346850703,1.9689983680034877
1648294711060051981,22109,5,3,2.24114704132,-1.2306240797,0.595977783203,0.0,25.2999992371,0.7495475054581939,-0.4115799597658863,0.19932367331204012,25.2999992371,0.0,1.1371196019584269,2.625331446584683
1648294711060156862,22110,5,4,2.00736260414,0.125992462039,0.135613888502,0.242756426334,25.2999992371,0.6713587304816052,0.04213794717023411,0.04535581555250836,25.2999992371,0.03280492247756756,0.9503792382935702,2.01587942391032
1648294711165129481,22111,6,0,0.0126902572811,0.0439508594573,0.0102518079802,0.0,24.7999992371,0.004244233204381271,0.014699284099431437,0.0034286983211371234,24.7999992371,0.0,0.015877530791094153,0.04688091556015881
1648294711165137928,22112,6,1,0.0335509069264,0.0146502861753,-0.0292835440487,0.0,24.7999992371,0.011221039105819395,0.0048997612626421405,-0.009793827441036788,24.7999992371,0.0,0.016608163584802046,0.0468809150151135
1648294711165142083,22113,6,2,2.2420527935,-1.2306240797,0.592560887337,0.0,24.7999992371,0.7498504326086957,-0.4115799597658863,0.19818089877491638,24.7999992371,0.0,1.1375189694452505,2.6253313618627723
1648294711165143903,22114,6,3,1.84714233875,-0.117202289402,0.301399052143,-0.0809188112617,24.7999992371,0.6177733574414714,-0.03919809010100334,0.10080235857625418,24.7999992371,-0.010934974494824324,0.8745423560906483,1.8752366743631557
1648294711360137088,22115,8,0,0.0126902572811,0.0439508594573,0.0102518079802,0.0,13.8000001907,0.004244233204381271,0.014699284099431437,0.0034286983211371234,13.8000001907,0.0,0.015877530791094153,0.04688091556015881
1648294711360148318,22116,8,1,0.0336220227182,0.0146502861753,-0.0292018633336,0.0,13.8000001907,0.011244823651571905,0.0048997612626421405,-0.009766509476120401,13.8000001907,0.0,0.016640305836756436,0.04688091422781338
1648294711360152889,22117,8,2,0.369588136673,-1.01086974144,0.0647593513131,0.0,13.8000001907,0.12360807246588627,-0.33808352556521737,0.02165864592411371,13.8000001907,0.0,0.380602655555726,1.0782610066727287
1648294711360164687,22118,8,3,1.96506559849,-0.12306240201,0.0181057397276,0.0,13.8000001907,0.6572125747458194,-0.04115799398327759,0.006055431347023411,13.8000001907,0.0,0.9303497822199918,1.9689984710426813
1648294711360236653,22119,8,4,2.24134540558,-1.2306240797,0.595231175423,0.0,13.8000001907,0.7496138480200669,-0.4115799597658863,0.1990739717133779,13.8000001907,0.0,1.1372070636290441,2.6253314085744477
1648294711360244496,22120,8,5,1.70374882221,0.325236350298,-0.0166496466845,-0.647350490093,13.8000001907,0.5698156596020066,0.10877469909632106,-0.005568443707190634,13.8000001907,-0.08747979595851352,0.8131492526091597,1.7345938843060194
1648294711360435452,22121,8,6,0.440587460995,-0.271030306816,1.65566945076,-0.647350490093,13.8000001907,0.14735366588461538,-0.09064558756387958,0.5537356022608696,13.8000001907,-0.08747979595851352,0.22725058469467285,1.734593920253013
1648294711465060302,22122,9,0,0.0126902572811,0.0439508594573,0.0102518079802,0.0,15.3000001907,0.004244233204381271,0.014699284099431437,0.0034286983211371234,15.3000001907,0.0,0.015877530791094153,0.04688091556015881
1648294711465067795,22123,9,1,0.033514522016,0.0146502861753,-0.0293251797557,0.0,15.3000001907,0.011208870239464881,0.0048997612626421405,-0.009807752426655518,15.3000001907,0.0,0.016591720963215706,0.0468809155060271
1648294711465076213,22124,9,2,0.333079993725,-1.01086974144,0.172762483358,0.0,15.3000001907,0.11139799121237458,-0.33808352556521737,0.05778009476856187,15.3000001907,0.0,0.37298725869781607,1.0782610036697247
1648294711465081876,22125,9,3,1.45898807049,-1.68478298187,0.72623103857,0.0,15.3000001907,0.48795587641806015,-0.5634725691872909,0.24288663497324414,15.3000001907,0.0,0.8909002249906331,2.3440459481873135
1648294711465086159,22126,9,4,1.98850226402,-0.805765748024,-0.944008052349,0.0,15.3000001907,0.6650509244214047,-0.26948687224882945,-0.3157217566384615,15.3000001907,0.0,0.9783703994203763,2.3440458394837536
1648294711465171994,22127,9,5,2.2408208847,-1.2306240797,0.597202301025,0.0,15.3000001907,0.7494384229765886,-0.4115799597658863,0.19973321104515052,15.3000001907,0.0,1.136975796993129,2.6253313031300864
1648294711465250729,22128,9,6,2.0064997673,0.188988685608,-0.044854644686,-0.161837622523,15.3000001907,0.6710701562876253,0.06320691826354514,-0.015001553406688961,15.3000001907,-0.021869948989594594,0.951139013938641,2.015879455377404
1648294711660063766,22129,11,0,0.0125984027982,0.0439508594573,0.0103644803166,0.0,20.8999996185,0.004213512641538461,0.014699284099431437,0.0034663813767892974,20.8999996185,0.0,0.01586115792105377,0.04688091565161904
1648294711660069402,22130,11,1,0.0335994325578,0.0146502861753,-0.0292278509587,0.0,20.8999996185,0.011237268413979932,0.0048997612626421405,-0.009775200989531772,20.8999996185,0.0,0.01663009510635915,0.0468809132258355
1648294711660073749,22131,11,2,2.24148774147,-1.2306240797,0.594694554806,0.0,20.8999996185,0.7496614519966555,-0.4115799597658863,0.19889449993511704,20.8999996185,0.0,1.1372698222059512,2.625331318941223
1648294711660078105,22132,11,3,1.96686184406,-0.0,0.0917033478618,-0.0809188112617,20.8999996185,0.6578133257725752,-0.0,0.030670016007290968,20.8999996185,-0.010934974494824324,0.9302885268173269,1.9689984808597916
1648294711765102937,22133,12,0,0.00631333654746,0.0454158857465,0.00976521056145,0.0,18.7000007629,0.0021114837951371236,0.015189259446989964,0.0032659567095150496,18.7000007629,0.0,0.015479997744903816,0.04688091545405326
1648294711765105814,22134,12,1,0.0335372425616,0.0146502861753,-0.0292991939932,0.0,18.7000007629,0.011216469084147156,0.0048997612626421405,-0.00979906153618729,18.7000007629,0.0,0.016601988370738802,0.04688091607791967
1648294711765107961,22135,12,2,1.96490323544,-0.12306240201,0.0310791637748,0.0,18.7000007629,0.657158272722408,-0.04115799398327759,0.010394369155451503,18.7000007629,0.0,0.9302730627529344,1.9689984748221598
1648294711765109749,22136,12,3,2.23795104027,-1.2306240797,0.607868611813,0.0,18.7000007629,0.7484786087859532,-0.4115799597658863,0.20330053906789297,18.7000007629,0.0,1.1357105788453326,2.6253313568786916
1648294711960083110,22137,14,0,0.0126902572811,0.0439508594573,0.0102518079802,0.0,14.8999996185,0.004244233204381271,0.014699284099431437,0.0034286983211371234,14.8999996185,0.0,0.015877530791094153,0.04688091556015881
1648294711960089262,22138,14,1,0.0335877910256,0.0146502861753,-0.0292412284762,0.0,14.8999996185,0.011233374924949833,0.0048997612626421405,-0.009779675075652174,14.8999996185,0.0,0.016624833377807784,0.04688091332082697
1648294711960091379,22139,14,2,2.23860692978,-1.2306240797,0.605449140072,0.0,14.8999996185,0.7486979698260869,-0.4115799597658863,0.2024913511946488,14.8999996185,0.0,1.1359997197729834,2.625331459608564
1648294712065322834,22140,15,0,0.00628323899582,0.0454158857465,0.00978460349143,0.0,14.6999998093,0.002101417724354515,0.015189259446989964,0.0032724426392742472,14.6999998093,0.0,0.01547725800820147,0.0468809154763667
1648294712065333373,22141,15,1,0.0335877910256,0.0146502861753,-0.0292412284762,0.0,14.6999998093,0.011233374924949833,0.0048997612626421405,-0.009779675075652174,14.6999998093,0.0,0.016624833377807784,0.04688091332082697
1648294712065339316,22142,15,2,1.96371650696,-0.12306240201,-0.0750209465623,0.0,14.6999998093,0.6567613735652174,-0.04115799398327759,-0.02509061757936455,14.6999998093,0.0,0.9297123125372007,1.9689984806796468
1648294712065345019,22143,15,3,2.24127006531,-1.2306240797,0.59551513195,0.0,14.6999998093,0.7495886506053512,-0.4115799597658863,0.19916894045150502,14.6999998093,0.0,1.1371738448951378,2.6253314845126874
