%time,field.header.seq,field.header.frame_id,field.point_id,field.x,field.y,field.z,field.velocity,field.intensity,normalized_x,normalized_y,normalized_z,normalized_intensity,normalized_velocity,normalized_range,range
1648294877260519491,27451,0,0,0.0127002792433,0.0439508594573,0.010239389725,0.0,14.8000001907,0.004247585031204013,0.014699284099431437,0.003424545058528428,14.8000001907,0.0,0.015879323355559413,0.04688091553962624
1648294877260524662,27452,0,1,0.033514522016,0.0146502861753,-0.0293251797557,0.0,14.8000001907,0.011208870239464881,0.0048997612626421405,-0.009807752426655518,14.8000001907,0.0,0.016591720963215706,0.0468809155060271
1648294877260526919,27453,0,2,0.330009371042,-0.612381994724,-0.556322991848,0.0,14.8000001907,0.11037102710434782,-0.20481003168026754,-0.18606120128695652,14.8000001907,0.0,0.2575085946624104,0.8907374269089581
1648294877260561937,27454,0,3,2.23765015602,-1.2306240797,0.608975410461,0.0,14.8000001907,0.7483779786020066,-0.4115799597658863,0.20367070583979932,14.8000001907,0.0,1.1355779413997702,2.6253313880003692
1648294877365599801,27455,1,0,0.0127122588456,0.0439508594573,0.0102245127782,0.0,14.5,0.004251591587157191,0.014699284099431437,0.0034195694910367893,14.5,0.0,0.015881467661515717,0.04688091545122009
1648294877365603242,27456,1,1,0.0335008911788,0.0146502861753,-0.0293407458812,0.0,14.5,0.01120431143103679,0.0048997612626421405,-0.009812958488695652,14.5,0.0,0.0165855614833569,0.04688091257278532
1648294877365770181,27457,1,2,0.319675505161,-0.612381994724,-0.562324643135,0.0,14.5,0.10691488466923077,-0.20481003168026754,-0.18806844252006685,14.5,0.0,0.254575596247052,0.8907374137976863
1648294877365772784,27458,1,3,1.85742998123,-0.117202289402,0.229629442096,0.0,14.5,0.6212140405451504,-0.03919809010100334,0.07679914451371236,14.5,0.0,0.8794033537623277,1.8752365697400604
1648294877365775267,27459,1,4,2.23785591125,-1.2306240797,0.608218967915,0.0,14.5,0.7484467930602007,-0.4115799597658863,0.2034177150217391,14.5,0.0,1.1356686432956957,2.6253314110766337
1648294877560720255,27460,3,0,0.0126799661666,0.0439508594573,0.0102645335719,0.0,14.5,0.004240791360066889,0.014699284099431437,0.00343295437187291,14.5,0.0,0.015875691347309377,0.04688091550375397
1648294877560727187,27461,3,1,0.0335994325578,0.0146502861753,-0.0292278509587,0.0,14.5,0.011237268413979932,0.0048997612626421405,-0.009775200989531772,14.5,0.0,0.01663009510635915,0.0468809132258355
1648294877560731835,27462,3,2,0.315929234028,-0.612381994724,-0.564437925816,0.0,14.5,0.1056619511799331,-0.20481003168026754,-0.18877522602541807,14.5,0.0,0.2535272074771726,0.8907374251007601
1648294877560738639,27463,3,3,1.85248363018,-0.117202289402,0.266609162092,0.0,14.5,0.619559742535117,-0.03919809010100334,0.08916694384347824,14.5,0.0,0.8770661545219536,1.875236630944836
1648294877560759652,27464,3,4,2.19460105896,-1.31266570091,0.594138264656,0.0,14.5,0.7339802872775919,-0.4390186290668896,0.19870844971772572,14.5,0.0,1.1270277196644118,2.6253314700933172
1648294877665563347,27465,4,0,0.0126920221373,0.0439508594573,0.0102496230975,0.0,14.8000001907,0.00424482345729097,0.014699284099431437,0.0034279675911371237,14.8000001907,0.0,0.015877846371688233,0.04688091559056686
1648294877665569744,27466,4,1,0.033514522016,0.0146502861753,-0.0293251797557,0.0,14.8000001907,0.011208870239464881,0.0048997612626421405,-0.009807752426655518,14.8000001907,0.0,0.016591720963215706,0.0468809155060271
1648294877665574211,27467,4,2,0.314678668976,-0.612381994724,-0.56513607502,0.0,14.8000001907,0.1052437019986622,-0.20481003168026754,-0.18900872074247488,14.8000001907,0.0,0.2531790328949825,0.8907374222854135
1648294877665728345,27468,4,3,2.23807239532,-1.2306240797,0.607421755791,0.0,14.8000001907,0.7485191957591973,-0.4115799597658863,0.20315108889331102,14.8000001907,0.0,1.1357640759069991,2.625331381300101
1648294877665750140,27469,4,4,1.91965723038,-0.0600661747158,0.0764455273747,-0.0809188112617,14.8000001907,0.6420258295585284,-0.020089021644080267,0.02556706601160535,14.8000001907,-0.010934974494824324,0.9081838472640049,1.9221175162176731
1648294877860638856,27470,6,0,0.012702328153,0.0439508594573,0.0102368472144,0.0,19.3999996185,0.004248270285284281,0.014699284099431437,0.003423694720535117,19.3999996185,0.0,0.01587968998026903,0.04688091539670276
1648294877860651413,27471,6,1,0.033514522016,0.0146502861753,-0.0293251797557,0.0,19.3999996185,0.011208870239464881,0.0048997612626421405,-0.009807752426655518,19.3999996185,0.0,0.016591720963215706,0.0468809155060271
1648294877860655569,27472,6,2,0.31688901782,-0.612381994724,-0.563899636269,0.0,19.3999996185,0.10598294910367892,-0.20481003168026754,-0.18859519607658862,19.3999996185,0.0,0.2537950355666915,0.890737423072243
1648294877860658968,27473,6,3,2.19218373299,-1.31266570091,0.602996468544,0.0,19.3999996185,0.7331718170535115,-0.4390186290668896,0.20167105971371235,19.3999996185,0.0,1.1259747702816731,2.6253315033740114
1648294877860668160,27474,6,4,1.91513621807,0.120132349432,0.111165590584,0.161837622523,19.3999996185,0.6405137853076923,0.040178043288294316,0.03717912728561872,19.3999996185,0.021869948989594594,0.9067138983719468,1.922117661245899
1648294877860776355,27475,6,5,1.87149190903,-0.117202289402,0.0171416923404,-0.0809188112617,19.3999996185,0.6259170264314381,-0.03919809010100334,0.005733007471705685,19.3999996185,-0.010934974494824324,0.886047819376084,1.8752365663622594
1648294877965683448,27476,7,0,0.0126920221373,0.0439508594573,0.0102496230975,0.0,18.8999996185,0.00424482345729097,0.014699284099431437,0.0034279675911371237,18.8999996185,0.0,0.015877846371688233,0.04688091559056686
1648294877965692885,27477,7,1,0.033514522016,0.0146502861753,-0.0293251797557,0.0,18.8999996185,0.011208870239464881,0.0048997612626421405,-0.009807752426655518,18.8999996185,0.0,0.016591720963215706,0.0468809155060271
1648294877965698306,27478,7,2,0.333217650652,-0.612381994724,-0.554407298565,0.0,18.8999996185,0.11144403031839463,-0.20481003168026754,-0.18542050119230769,18.8999996185,0.0,0.2584312149568754,0.8907374264452598
1648294877965700489,27479,7,3,1.87280094624,-0.0586011447012,-0.0754627287388,0.0,18.8999996185,0.6263548315183946,-0.019599045050568562,-0.025238370815652174,18.8999996185,0.0,0.8860162935859403,1.875236545566035
1648294877965702565,27480,7,4,0.782577812672,1.69943320751,-0.126535326242,0.0,18.8999996185,0.2617317099237458,0.5683723102040134,-0.04231950710434783,18.8999996185,0.0,0.6782728499400981,1.87523663799036
1648294877965710586,27481,7,5,2.19391727448,-1.31266570091,0.596657812595,0.0,18.8999996185,0.7337515968160534,-0.4390186290668896,0.1995511078913043,18.8999996185,0.0,1.1267298559672534,2.625331368596723
1648294877965811057,27482,7,6,1.91719853878,-0.120132349432,0.0667387545109,-0.0809188112617,18.8999996185,0.6412035246755852,-0.040178043288294316,0.02232065368257525,18.8999996185,-0.010934974494824324,0.9076883800486065,1.9221176030185783
1648294878160708667,27483,9,0,0.0126920221373,0.0439508594573,0.0102496230975,0.0,14.6000003815,0.00424482345729097,0.014699284099431437,0.0034279675911371237,14.6000003815,0.0,0.015877846371688233,0.04688091559056686
1648294878160717295,27484,9,1,0.033514522016,0.0146502861753,-0.0293251797557,0.0,14.6000003815,0.011208870239464881,0.0048997612626421405,-0.009807752426655518,14.6000003815,0.0,0.016591720963215706,0.0468809155060271
1648294878160751960,27485,9,2,0.335207998753,-0.612381994724,-0.553206145763,0.0,14.6000003815,0.11210969857959865,-0.20481003168026754,-0.18501877784715717,14.6000003815,0.0,0.2590064055348615,0.8907374189962438
1648294878160763669,27486,9,3,1.72551977634,-0.114272229373,0.593639373779,0.0,14.6000003815,0.5770969151638796,-0.03821813691404682,0.19854159658160533,14.6000003815,0.0,0.8170326339703409,1.828355640198876
1648294878160772264,27487,9,4,2.236089468,-1.2306240797,0.614681482315,0.0,14.6000003815,0.7478560093645484,-0.4115799597658863,0.20557909107525082,14.6000003815,0.0,1.1348899879575218,2.625331418914374
1648294878265682977,27488,10,0,0.0126596167684,0.0439508594573,0.0102896206081,0.0,15.0,0.004233985541270903,0.014699284099431437,0.0034413446849832774,15.0,0.0,0.015872057842736712,0.046880915477587756
1648294878265688016,27489,10,1,0.0335994325578,0.0146502861753,-0.0292278509587,0.0,15.0,0.011237268413979932,0.0048997612626421405,-0.009775200989531772,15.0,0.0,0.01663009510635915,0.0468809132258355
1648294878265691957,27490,10,2,0.337219059467,-0.612381994724,-0.551982581615,0.0,15.0,0.11278229413612038,-0.20481003168026754,-0.18460955906856186,15.0,0.0,0.25958975484037294,0.8907374315342953
1648294878265694191,27491,10,3,2.23832845688,-1.2306240797,0.606477558613,0.0,15.0,0.7486048350769231,-0.4115799597658863,0.20283530388394647,15.0,0.0,1.1358769570169045,2.625331395370394
1648294878460670074,27492,12,0,0.0127122588456,0.0439508594573,0.0102245127782,0.0,14.6000003815,0.004251591587157191,0.014699284099431437,0.0034195694910367893,14.6000003815,0.0,0.015881467661515717,0.04688091545122009
1648294878460672386,27493,12,1,0.0334917195141,0.0146502861753,-0.0293512195349,0.0,14.6000003815,0.011201243984648829,0.0048997612626421405,-0.009816461382909699,14.6000003815,0.0,0.016581417129972686,0.04688091561835401
1648294878460784309,27494,12,2,0.344341158867,-0.612381994724,-0.547567903996,0.0,14.6000003815,0.11516426717959866,-0.20481003168026754,-0.18313307825953176,14.6000003815,0.0,0.2616730134096754,0.8907374195791857
1648294878460788047,27495,12,3,1.86492657661,-0.117202289402,0.157558172941,0.0,14.6000003815,0.6237212630802675,-0.03919809010100334,0.052695041117391296,14.6000003815,0.0,0.8829455919276425,1.87523654258546
1648294878460940103,27496,12,4,2.19642615318,-1.31266570091,0.587355136871,0.0,14.6000003815,0.7345906866822742,-0.4390186290668896,0.19643984510735787,14.6000003815,0.0,1.1278228187922257,2.625331435367235
1648294878565645158,27497,13,0,0.0127002792433,0.0439508594573,0.010239389725,0.0,15.0,0.004247585031204013,0.014699284099431437,0.003424545058528428,15.0,0.0,0.015879323355559413,0.04688091553962624
1648294878565649462,27498,13,1,0.033514522016,0.0146502861753,-0.0293251797557,0.0,15.0,0.011208870239464881,0.0048997612626421405,-0.009807752426655518,15.0,0.0,0.016591720963215706,0.0468809155060271
1648294878565651453,27499,13,2,0.326456129551,-0.612381994724,-0.558415472507,0.0,15.0,0.10918265202374582,-0.20481003168026754,-0.18676102759431434,15.0,0.0,0.2564933762941042,0.8907374202978005
1648294878565653229,27500,13,3,1.91344535351,-0.120132349432,0.137226000428,0.0,15.0,0.6399482787658862,-0.040178043288294316,0.04589498342073579,15.0,0.0,0.9059149375925517,1.9221175503705612
1648294878565654987,27501,13,4,2.23599243164,-1.2306240797,0.61503380537,0.0,15.0,0.7478235557324415,-0.4115799597658863,0.20569692487290966,15.0,0.0,1.1348472162795804,2.625331286073576
1648294878760681906,27502,15,0,0.0126920221373,0.0439508594573,0.0102496230975,0.0,14.6999998093,0.00424482345729097,0.014699284099431437,0.0034279675911371237,14.6999998093,0.0,0.015877846371688233,0.04688091559056686
1648294878760684854,27503,15,1,0.033649418503,0.0146502861753,-0.0291702933609,0.0,14.6999998093,0.011253986121404682,0.0048997612626421405,-0.009755950956822742,14.6999998093,0.0,0.016652689502672742,0.04688091579064121
1648294878760835152,27504,15,2,0.354303747416,-0.612381994724,-0.541174948215,0.0,14.6999998093,0.11849623659397993,-0.20481003168026754,-0.18099496595819398,14.6999998093,0.0,0.2646315651065555,0.8907374346409125
1648294878760838713,27505,15,3,2.23643803596,-1.2306240797,0.613411486149,0.0,14.6999998093,0.747972587277592,-0.4115799597658863,0.20515434319364548,14.6999998093,0.0,1.135043631724507,2.62533128682184
