%time,field.header.seq,field.header.frame_id,field.point_id,field.x,field.y,field.z,field.velocity,field.intensity,normalized_x,normalized_y,normalized_z,normalized_intensity,normalized_velocity,normalized_range,range
1648294789659994525,24485,0,0,0.0126678450033,0.0439508594573,0.0102794887498,0.0,29.7999992371,0.004236737459297658,0.014699284099431437,0.0034379561036120398,29.7999992371,0.0,0.015873526439762208,0.046880915445629195
1648294789659999805,24486,0,1,0.033514522016,0.0146502861753,-0.0293251797557,0.0,29.7999992371,0.011208870239464881,0.0048997612626421405,-0.009807752426655518,29.7999992371,0.0,0.016591720963215706,0.0468809155060271
1648294789660007649,24487,0,2,0.485658854246,-0.5845464468,-0.464601010084,0.0,29.7999992371,0.1624277104501672,-0.19550048387959865,-0.15538495320535117,29.7999992371,0.0,0.30163879299805574,0.8907374303043046
1648294789660017147,24488,0,3,0.652392089367,-0.250519901514,0.552302002907,0.0,29.7999992371,0.21819133423645484,-0.08378592023879598,0.184716388932107,29.7999992371,0.0,0.31974207902938045,0.8907374258098218
1648294789660021406,24489,0,4,1.67373478413,-0.271030306816,0.366019487381,0.0,29.7999992371,0.5597775197759197,-0.09064558756387958,0.12241454427458193,29.7999992371,0.0,0.7968176490501206,1.7345938487041062
1648294789660026255,24490,0,5,2.19069933891,-1.31266570091,0.60836660862,0.0,29.7999992371,0.7326753641839464,-0.4390186290668896,0.20346709318394648,29.7999992371,0.0,1.1253282788732932,2.625331363148289
1648294789660110393,24491,0,6,1.83740961552,0.120132349432,0.551389217377,-0.242756426334,29.7999992371,0.6145182660602005,0.040178043288294316,0.18441110949063544,29.7999992371,-0.03280492247756756,0.869988318200737,1.9221175681068592
1648294789765252476,24492,1,0,0.0126799661666,0.0439508594573,0.0102645335719,0.0,25.3999996185,0.004240791360066889,0.014699284099431437,0.00343295437187291,25.3999996185,0.0,0.015875691347309377,0.04688091550375397
1648294789765311042,24493,1,1,0.033514522016,0.0146502861753,-0.0293251797557,0.0,25.3999996185,0.011208870239464881,0.0048997612626421405,-0.009807752426655518,25.3999996185,0.0,0.016591720963215706,0.0468809155060271
1648294789765314305,24494,1,2,0.489320755005,-0.5845464468,-0.460742682219,0.0,25.3999996185,0.1636524264230769,-0.19550048387959865,-0.15409454254816052,25.3999996185,0.0,0.3029598530259057,0.8907374298655731
1648294789765322074,24495,1,3,0.673196077347,-0.250519901514,0.526744663715,0.0,25.3999996185,0.22514918974816053,-0.08378592023879598,0.17616878385117055,25.3999996185,0.0,0.3292482281178872,0.8907374025840616
1648294789765330218,24496,1,4,2.18793940544,-1.31266570091,0.618219196796,0.0,25.3999996185,0.7317523095117056,-0.4390186290668896,0.20676227317591972,25.3999996185,0.0,1.1241264348903113,2.625331418984996
1648294789765359021,24497,1,5,1.68782889843,-0.271030306816,0.294265657663,-0.485512852669,25.3999996185,0.5644912703779263,-0.09064558756387958,0.09841660791404681,25.3999996185,-0.06560984495527027,0.803440981784332,1.7345939279462617
1648294789960203553,24498,3,0,0.00634802924469,0.0454158857465,0.00974269397557,0.0,33.9000015259,0.002123086703909699,0.015189259446989964,0.003258426078785953,33.9000015259,0.0,0.015483171408100157,0.046880915512948214
1648294789960338704,24499,3,1,0.033514522016,0.0146502861753,-0.0293251797557,0.0,33.9000015259,0.011208870239464881,0.0048997612626421405,-0.009807752426655518,33.9000015259,0.0,0.016591720963215706,0.0468809155060271
1648294789960342515,24500,3,2,0.466958880424,-0.612381994724,-0.447605699301,0.0,33.9000015259,0.15617353860334449,-0.20481003168026754,-0.14970090277625417,33.9000015259,0.0,0.30121005527148803,0.8907374279302055
1648294789960347452,24501,3,3,0.644210457802,-0.278355449438,0.548565685749,0.0,33.9000015259,0.21545500260936454,-0.09309546803946488,0.1834667845314381,33.9000015259,0.0,0.3186039586513162,0.8907374370455998
1648294789960350919,24502,3,4,2.23499727249,-1.2306240797,0.618640482426,0.0,33.9000015259,0.7474907265852841,-0.4115799597658863,0.2069031713799331,33.9000015259,0.0,1.1344085842159697,2.625331308629729
1648294789960352696,24503,3,5,1.90336108208,-0.120132349432,0.23941758275,0.0809188112617,33.9000015259,0.6365756127357859,-0.040178043288294316,0.08007277015050167,33.9000015259,0.010934974494824324,0.9011499856418789,1.9221175742099268
1648294790065477656,24504,4,0,0.0126799661666,0.0439508594573,0.0102645335719,0.0,18.0,0.004240791360066889,0.014699284099431437,0.00343295437187291,18.0,0.0,0.015875691347309377,0.04688091550375397
1648294790065482104,24505,4,1,0.033514522016,0.0146502861753,-0.0293251797557,0.0,18.0,0.011208870239464881,0.0048997612626421405,-0.009807752426655518,18.0,0.0,0.016591720963215706,0.0468809155060271
1648294790065483907,24506,4,2,0.46639674902,-0.612381994724,-0.448191404343,0.0,18.0,0.15598553478929764,-0.20481003168026754,-0.1498967907501672,18.0,0.0,0.3010151544422283,0.8907374303831184
1648294790065617526,24507,4,3,0.650049328804,-0.250519901514,0.55505746603,0.0,18.0,0.21740780227558526,-0.08378592023879598,0.1856379485050167,18.0,0.0,0.31867285013138763,0.8907374144655426
1648294790065621317,24508,4,4,1.91217315197,-0.0600661747158,0.185800671577,0.0,18.0,0.6395227933010034,-0.020089021644080267,0.062140692835117056,18.0,0.0,0.9046448889446356,1.922117581735919
1648294790065622369,24509,4,5,2.23371338844,-1.2306240797,0.623260736465,0.0,18.0,0.7470613339264214,-0.4115799597658863,0.2084484068444816,18.0,0.0,1.1338427300894673,2.625331421526142
1648294790260193386,24510,6,0,0.0127002792433,0.0439508594573,0.010239389725,0.0,14.6000003815,0.004247585031204013,0.014699284099431437,0.003424545058528428,14.6000003815,0.0,0.015879323355559413,0.04688091553962624
1648294790260202111,24511,6,1,0.0335651524365,0.0146502861753,-0.0292672142386,0.0,14.6000003815,0.011225803490468226,0.0048997612626421405,-0.009788365966086955,14.6000003815,0.0,0.01661460166372055,0.046880914799007266
1648294790260318055,24512,6,2,0.480421096087,-0.5845464468,-0.470015108585,0.0,14.6000003815,0.16067595186856187,-0.19550048387959865,-0.15719568848996654,14.6000003815,0.0,0.29975650487503025,0.8907374362460069
1648294790260321749,24513,6,3,0.653943002224,-0.278355449438,0.536926388741,0.0,14.6000003815,0.21871003418862875,-0.09309546803946488,0.1795740430571906,14.6000003815,0.0,0.3230091705804486,0.8907374210821172
1648294790260324897,24514,6,4,2.23483133316,-1.2306240797,0.619239807129,0.0,14.6000003815,0.7474352284816053,-0.4115799597658863,0.2071036144244147,14.6000003815,0.0,1.1343354463436235,2.625331341363283
1648294790260327752,24515,6,5,1.83531928062,-0.117202289402,0.36657717824,-0.0809188112617,14.6000003815,0.6138191573979933,-0.03919809010100334,0.12260106295652173,14.6000003815,-0.010934974494824324,0.8689559288278844,1.8752365360303178
1648294790365427948,24516,7,0,0.0126799661666,0.0439508594573,0.0102645335719,0.0,12.8000001907,0.004240791360066889,0.014699284099431437,0.00343295437187291,12.8000001907,0.0,0.015875691347309377,0.04688091550375397
1648294790365436516,24517,7,1,0.033514522016,0.0146502861753,-0.0293251797557,0.0,12.8000001907,0.011208870239464881,0.0048997612626421405,-0.009807752426655518,12.8000001907,0.0,0.016591720963215706,0.0468809155060271
1648294790365440798,24518,7,2,0.483236938715,-0.5845464468,-0.467119574547,0.0,12.8000001907,0.16161770525585284,-0.19550048387959865,-0.1562272824571906,12.8000001907,0.0,0.30076735943498367,0.8907374384913437
1648294790365442928,24519,7,3,0.673196077347,-0.250519901514,0.526744663715,0.0,12.8000001907,0.22514918974816053,-0.08378592023879598,0.17616878385117055,12.8000001907,0.0,0.3292482281178872,0.8907374025840616
1648294790365491155,24520,7,4,2.19025230408,-1.31266570091,0.609974086285,0.0,12.8000001907,0.7325258542073578,-0.4390186290668896,0.20400471113210703,12.8000001907,0.0,1.1251335968818146,2.6253313664778606
1648294790560356017,24521,9,0,0.012702328153,0.0439508594573,0.0102368472144,0.0,14.8999996185,0.004248270285284281,0.014699284099431437,0.003423694720535117,14.8999996185,0.0,0.01587968998026903,0.04688091539670276
1648294790560376818,24522,9,1,0.033514522016,0.0146502861753,-0.0293251797557,0.0,14.8999996185,0.011208870239464881,0.0048997612626421405,-0.009807752426655518,14.8999996185,0.0,0.016591720963215706,0.0468809155060271
1648294790560380790,24523,9,2,0.470565825701,-0.612381994724,-0.443812161684,0.0,14.8999996185,0.15737987481638793,-0.20481003168026754,-0.14843216109832774,14.8999996185,0.0,0.3024632193694236,0.8907374128431084
1648294790560384845,24524,9,3,0.632200539112,-0.278355449438,0.562364578247,0.0,14.8999996185,0.21143830739531772,-0.09309546803946488,0.18808179874481606,14.8999996185,0.0,0.3131758002111286,0.8907374454642966
1648294790560398662,24525,9,4,2.19325566292,-1.31266570091,0.599085748196,0.0,14.8999996185,0.7335303220468227,-0.4390186290668896,0.2003631264869565,14.8999996185,0.0,1.1264416644425055,2.625331479826453
1648294790665385255,24526,10,0,0.0126799661666,0.0439508594573,0.0102645335719,0.0,14.6000003815,0.004240791360066889,0.014699284099431437,0.00343295437187291,14.6000003815,0.0,0.015875691347309377,0.04688091550375397
1648294790665530112,24527,10,1,0.0335651524365,0.0146502861753,-0.0292672142386,0.0,14.6000003815,0.011225803490468226,0.0048997612626421405,-0.009788365966086955,14.6000003815,0.0,0.01661460166372055,0.046880914799007266
1648294790665533494,24528,10,2,0.494925498962,-0.612381994724,-0.416473537683,0.0,14.6000003815,0.16552692272976588,-0.20481003168026754,-0.1392888085896321,14.6000003815,0.0,0.3110393437712406,0.8907374274022188
1648294790665534703,24529,10,3,0.626281678677,-0.278355449438,0.568948745728,0.0,14.6000003815,0.20945875541036788,-0.09309546803946488,0.19028386144749163,14.6000003815,0.0,0.31050395586144736,0.8907374318752842
1648294790665535763,24530,10,4,1.46866166592,-1.68478298187,0.706463456154,0.0,14.6000003815,0.4911911926153846,-0.5634725691872909,0.2362754033959866,14.6000003815,0.0,0.8944489429991933,2.344045946610845
1648294790665536707,24531,10,5,2.19329833984,-1.31266570091,0.598928928375,0.0,14.6000003815,0.733544595264214,-0.4390186290668896,0.2003106783862876,14.6000003815,0.0,1.1264602536931565,2.6253313526362474
1648294790860329406,24532,12,0,0.012702328153,0.0439508594573,0.0102368472144,0.0,15.0,0.004248270285284281,0.014699284099431437,0.003423694720535117,15.0,0.0,0.01587968998026903,0.04688091539670276
1648294790860334342,24533,12,1,0.033514522016,0.0146502861753,-0.0293251797557,0.0,15.0,0.011208870239464881,0.0048997612626421405,-0.009807752426655518,15.0,0.0,0.016591720963215706,0.0468809155060271
1648294790860338398,24534,12,2,0.471565455198,-0.612381994724,-0.442749887705,0.0,15.0,0.15771419906287626,-0.20481003168026754,-0.14807688552006687,15.0,0.0,0.3028113046914882,0.8907374186936531
1648294790860348126,24535,12,3,0.669242143631,-0.250519901514,0.53175920248,0.0,15.0,0.22382680388996654,-0.08378592023879598,0.17784588711705684,15.0,0.0,0.3274400047481324,0.89073740085873
1648294790860359680,24536,12,4,1.91609680653,-0.120132349432,0.0931526497006,0.0,15.0,0.6408350523511704,-0.040178043288294316,0.03115473234133779,15.0,0.0,0.9071677925314207,1.9221176263488036
1648294790860495138,24537,12,5,2.23343515396,-1.2306240797,0.624257087708,0.0,15.0,0.7469682789163878,-0.4115799597658863,0.20878163468494984,15.0,0.0,1.1337201077406671,2.6253314312740543
1648294790965461480,24538,13,0,0.012702328153,0.0439508594573,0.0102368472144,0.0,14.8000001907,0.004248270285284281,0.014699284099431437,0.003423694720535117,14.8000001907,0.0,0.01587968998026903,0.04688091539670276
1648294790965464189,24539,13,1,0.033514522016,0.0146502861753,-0.0293251797557,0.0,14.8000001907,0.011208870239464881,0.0048997612626421405,-0.009807752426655518,14.8000001907,0.0,0.016591720963215706,0.0468809155060271
1648294790965578995,24540,13,2,0.445272535086,-0.612381994724,-0.469184219837,0.0,14.8000001907,0.14892058029632108,-0.20481003168026754,-0.1569177992765886,14.8000001907,0.0,0.2937717269385504,0.8907374305080665
1648294790965585195,24541,13,3,1.96744811535,-0.061531201005,-0.0481295138597,0.0,14.8000001907,0.6580094031270903,-0.020578996991638794,-0.016096827377826084,14.8000001907,0.0,0.9307933413623677,1.9689983812577794
1648294790965588728,24542,13,4,2.19061875343,-1.31266570091,0.608657002449,0.0,14.8000001907,0.7326484125183945,-0.4390186290668896,0.20356421486588627,14.8000001907,0.0,1.1252931837522249,2.6253314289542473
1648294791160307026,24543,15,0,0.0126190679148,0.0439508594573,0.0103393094614,0.0,14.3999996185,0.004220424051772575,0.014699284099431437,0.0034579630305685612,14.3999996185,0.0,0.01586483253581199,0.04688091554366518
1648294791160311020,24544,15,1,0.033514522016,0.0146502861753,-0.0293251797557,0.0,14.3999996185,0.011208870239464881,0.0048997612626421405,-0.009807752426655518,14.3999996185,0.0,0.016591720963215706,0.0468809155060271
1648294791160319475,24545,15,2,0.449553757906,-0.612381994724,-0.4650837183,0.0,14.3999996185,0.15035242739331103,-0.20481003168026754,-0.15554639408026755,14.3999996185,0.0,0.2952267838848534,0.8907374213185979
1648294791160324758,24546,15,3,1.9121325016,-0.120132349432,0.154445558786,0.0,14.3999996185,0.6395091978595318,-0.040178043288294316,0.05165403303879598,14.3999996185,0.0,0.9052945948454345,1.9221175603182667
1648294791160327161,24547,15,4,2.23310208321,-1.2306240797,0.625447511673,0.0,14.3999996185,0.7468568840167223,-0.4115799597658863,0.20917976979030098,14.3999996185,0.0,1.1335733208254437,2.6253314323018837
1648294791265305727,24548,16,0,0.0126678450033,0.0439508594573,0.0102794887498,0.0,14.6000003815,0.004236737459297658,0.014699284099431437,0.0034379561036120398,14.6000003815,0.0,0.015873526439762208,0.046880915445629195
1648294791265309142,24549,16,1,0.033514522016,0.0146502861753,-0.0293251797557,0.0,14.6000003815,0.011208870239464881,0.0048997612626421405,-0.009807752426655518,14.6000003815,0.0,0.016591720963215706,0.0468809155060271
1648294791265426212,24550,16,2,0.459869086742,-0.612381994724,-0.454886645079,0.0,14.6000003815,0.15380237014782608,-0.20481003168026754,-0.1521360016986622,14.6000003815,0.0,0.29875991565645144,0.8907374160067009
1648294791265432863,24551,16,3,0.646458268166,-0.278355449438,0.545914947987,0.0,14.6000003815,0.21620677865083612,-0.09309546803946488,0.18258025016287624,14.6000003815,0.0,0.31962088235694225,0.8907374355822618
1648294791265492741,24552,16,4,1.91651105881,-0.0600661747158,0.133840501308,0.0,14.6000003815,0.6409735982642141,-0.020089021644080267,0.044762709467558524,14.6000003815,0.0,0.9066961321932308,1.92211754678958
1648294791265495296,24553,16,5,2.18932414055,-1.31266570091,0.613297283649,0.0,14.6000003815,0.7322154316220736,-0.4390186290668896,0.20511614837759198,14.6000003815,0.0,1.1247294044697018,2.6253314062936473
