%time,field.header.seq,field.header.frame_id,field.point_id,field.x,field.y,field.z,field.velocity,field.intensity,normalized_x,normalized_y,normalized_z,normalized_intensity,normalized_velocity,normalized_range,range
1648218731445938660,46654,0,0,0.00539573840797,0.0454158857465,0.0103006586432,0.0,27.0,0.0018045947852742474,0.015189259446989964,0.003445036335518394,27.0,0.0,0.015402166316010612,0.04688091551569908
1648218731445943349,46655,0,1,0.0334964394569,0.0146502861753,-0.0293458327651,0.0,27.0,0.01120282256083612,0.0048997612626421405,-0.009814659787658862,27.0,0.0,0.01658354989409825,0.046880915541243115
1648218731445954122,46656,0,2,1.90744805336,-0.0,0.488463759422,0.0,27.0,0.6379424927625418,-0.0,0.16336580582675583,27.0,0.0,0.9021869252788867,1.968998456204455
1648218731445958468,46657,0,3,2.10987615585,-1.12074685097,-0.0942299962044,0.0,27.0,0.7056441992809364,-0.3748317227324415,-0.031515048897792636,27.0,0.0,1.0660048275332703,2.3909266381819885
1648218731446132435,46658,0,4,2.15813779831,0.9713139534,0.339882433414,0.0,27.0,0.7217852168260869,0.3248541650167224,0.1136730546535117,27.0,0.0,1.071204008107734,2.390926519386845
1648218731446143665,46659,0,5,1.86753678322,0.188988685608,0.735091686249,0.161837622523,27.0,0.6245942418795987,0.06320691826354514,0.24585006229063544,27.0,0.021869948989594594,0.8855682065739915,2.015879497182295
1648218731640944237,46660,2,0,0.00543765118346,0.0454158857465,0.0102785946801,0.0,23.6000003815,0.001818612435939799,0.015189259446989964,0.0034376570836454844,23.6000003815,0.0,0.01540546347671123,0.046880915489460155
1648218731640951408,46661,2,1,0.0333765335381,0.0146502861753,-0.0294821355492,0.0,23.6000003815,0.011162720246856188,0.0048997612626421405,-0.009860246003076922,23.6000003815,0.0,0.016529377092015133,0.04688091501431583
1648218731641037401,46662,2,2,1.95605611801,0.12306240201,0.188824906945,0.0,23.6000003815,0.6541993705719064,0.04115799398327759,0.0631521427909699,23.6000003815,0.0,0.926092659177301,1.968998409617339
1648218731641040828,46663,2,3,1.93948018551,0.395557761192,0.729751110077,0.242756426334,23.6000003815,0.648655580438127,0.1322935656160535,0.24406391641371236,23.6000003815,0.03280492247756756,0.9268277680186627,2.1096412052962332
1648218731641043244,46664,2,4,1.89810621738,-0.061531201005,0.519962966442,-0.242756426334,23.6000003815,0.63481813290301,-0.020578996991638794,0.1739006576729097,23.6000003815,-0.03280492247756756,0.8980042421069676,1.9689984224536328
1648218731641131121,46665,2,5,2.04999375343,-0.0,0.229142025113,-0.0809188112617,23.6000003815,0.6856166399431437,-0.0,0.07663612880033444,23.6000003815,-0.010934974494824324,0.969608350796265,2.0627603973256097
1648218731746068687,46666,3,0,0.00540081458166,0.0454158857465,0.0102979978547,0.0,14.3000001907,0.0018062925022274247,0.015189259446989964,0.0034441464396989963,14.3000001907,0.0,0.015402564324007217,0.04688091547847609
1648218731746074884,46667,3,1,0.0334289707243,0.0146502861753,-0.0294226650149,0.0,14.3000001907,0.011180257767324413,0.0048997612626421405,-0.009840356192274247,14.3000001907,0.0,0.016553065816292893,0.04688091493649962
1648218731746080009,46668,3,2,1.96434605122,0.12306240201,0.0561689734459,0.0,14.3000001907,0.6569719234849498,0.04115799398327759,0.01878560984812709,14.3000001907,0.0,0.9300097832623897,1.968998404598146
1648218731746085432,46669,3,3,1.98213577271,0.46148404479,0.555658996105,-0.0809188112617,14.3000001907,0.6629216631137124,0.15434248989632104,0.185839129132107,14.3000001907,-0.010934974494824324,0.9501325523516688,2.1096413593321555
1648218731746251303,46670,3,4,0.918152093887,1.18667328358,-1.48303389549,-0.0809188112617,14.3000001907,0.30707427889197325,0.3968806968494983,-0.4959979583578595,14.3000001907,-0.010934974494824324,0.588305628942809,2.109641269183902
1648218731940990188,46671,5,0,0.00543765118346,0.0454158857465,0.0102785946801,0.0,16.3999996185,0.001818612435939799,0.015189259446989964,0.0034376570836454844,16.3999996185,0.0,0.01540546347671123,0.046880915489460155
1648218731941082463,46672,5,1,0.0335114225745,0.0146502861753,-0.0293287187815,0.0,16.3999996185,0.011207833636956521,0.0048997612626421405,-0.009808936047324414,16.3999996185,0.0,0.01659032037358762,0.046880913742686436
1648218731941089426,46673,5,2,1.91958713531,0.0600661747158,0.0781876817346,0.0,16.3999996185,0.6420023863913044,0.020089021644080267,0.026149726332642138,16.3999996185,0.0,0.9081507017312026,1.9221175897867624
1648218731941090629,46674,5,3,1.17711126804,-0.0,-1.33718419075,0.566431701183,16.3999996185,0.3936826983411371,-0.0,-0.44721879289297656,16.3999996185,0.07654482448418919,0.5567514112656721,1.7814748096278175
1648218731941091555,46675,5,4,1.89898824692,0.659262895584,0.640157878399,-0.323675245047,16.3999996185,0.6351131260602005,0.22048926273712371,0.21409962488260867,16.3999996185,-0.04373989797932432,0.9248528968275337,2.1096412104219056
1648218731941092537,46676,5,5,2.03917837143,0.263705164194,0.472014844418,-0.0809188112617,16.3999996185,0.6819994553277591,0.0881957070882943,0.15786449646086956,16.3999996185,-0.010934974494824324,0.968516905832585,2.109641404950481
1648218731941094246,46677,5,6,1.47264778614,1.45037841797,-0.422252267599,-0.0809188112617,16.3999996185,0.4925243431906354,0.4850763939698996,-0.14122149418026755,16.3999996185,-0.010934974494824324,0.8487988956505392,2.1096412099759285
1648218732046055166,46678,6,0,0.00543765118346,0.0454158857465,0.0102785946801,0.0,15.6999998093,0.001818612435939799,0.015189259446989964,0.0034376570836454844,15.6999998093,0.0,0.01540546347671123,0.046880915489460155
1648218732046060104,46679,6,1,0.0335255041718,0.0146502861753,-0.0293126236647,0.0,15.6999998093,0.011212543201270903,0.0048997612626421405,-0.009803553065117055,15.6999998093,0.0,0.0165966837202985,0.04688091531849496
1648218732046062679,46680,6,2,1.92115330696,0.0600661747158,-0.00989124365151,0.0,15.6999998093,0.6425261896187291,0.020089021644080267,-0.0033081082446521737,15.6999998093,0.0,0.9088912902446268,1.922117533058087
1648218732046065267,46681,6,3,1.66978621483,-0.271030306816,0.383630692959,-0.647350490093,15.6999998093,0.5584569280367893,-0.09064558756387958,0.1283045795849498,15.6999998093,-0.08747979595851352,0.7949622025539178,1.7345938830254408
1648218732046068793,46682,6,4,2.0674533844,0.329631447792,0.259934425354,-0.161837622523,15.6999998093,0.6914559814046821,0.11024463136856186,0.086934590419398,15.6999998093,-0.021869948989594594,0.9840612923930167,2.109641271288694
1648218732241034807,46683,8,0,0.00521788839251,0.0454158857465,0.0103918816894,0.0,27.0,0.0017451131747525082,0.015189259446989964,0.003475545715518394,27.0,0.0,0.015388451596355088,0.04688091554633206
1648218732241128114,46684,8,1,0.0335114225745,0.0146502861753,-0.0293287187815,0.0,27.0,0.011207833636956521,0.0048997612626421405,-0.009808936047324414,27.0,0.0,0.01659032037358762,0.046880913742686436
1648218732241130781,46685,8,2,1.93909204006,0.188988685608,0.517663478851,0.0,27.0,0.6485257659063545,0.06320691826354514,0.1731315982779264,27.0,0.0,0.919329349365733,2.01587949551753
1648218732241134284,46686,8,3,1.95248436928,0.184593603015,0.17517131567,0.566431701183,27.0,0.6530048057792641,0.06173699097491638,0.058585724304347817,27.0,0.07654482448418919,0.925549571225802,1.9689984764824826
1648218732241136151,46687,8,4,1.53141212463,-0.193383783102,0.10395244509,-0.161837622523,27.0,0.5121779681036789,-0.06467685053578595,0.03476670404347826,27.0,-0.021869948989594594,0.7272108614541278,1.5470702937716831
1648218732241137243,46688,8,5,1.67430496216,-0.210964113474,-0.0239154566079,-0.161837622523,27.0,0.5599682147692308,-0.07055655969030099,-0.007998480470869564,27.0,-0.021869948989594594,0.7950515902877056,1.687712923619486
1648218732241138298,46689,8,6,1.54392564297,1.35368645191,0.196994096041,-0.161837622523,27.0,0.5163630912943143,0.4527379437826087,0.06588431305719063,27.0,-0.021869948989594594,0.859205056923285,2.0627603047809564
1648218732346044832,46690,9,0,0.00521258730441,0.0454158857465,0.0103945415467,0.0,18.8999996185,0.0017433402355886286,0.015189259446989964,0.0034764352998996654,18.8999996185,0.0,0.015388049678306159,0.046880915504193287
1648218732346049634,46691,9,1,0.0335255041718,0.0146502861753,-0.0293126236647,0.0,18.8999996185,0.011212543201270903,0.0048997612626421405,-0.009803553065117055,18.8999996185,0.0,0.0165966837202985,0.04688091531849496
1648218732346052394,46692,9,2,1.54768538475,1.25992465019,0.28465744853,-0.0809188112617,18.8999996185,0.5176205300167224,0.4213794816688963,0.09520316004347826,18.8999996185,-0.010934974494824324,0.844643530586207,2.01587946994079
1648218732346070047,46693,9,3,2.00664353371,-0.0,-0.19274815917,-0.0809188112617,18.8999996185,0.6711182386989967,-0.0,-0.06446426728093645,18.8999996185,-0.010934974494824324,0.9491045151240652,2.0158794914983336
1648218732541044771,46694,11,0,0.00543765118346,0.0454158857465,0.0102785946801,0.0,19.7999992371,0.001818612435939799,0.015189259446989964,0.0034376570836454844,19.7999992371,0.0,0.01540546347671123,0.046880915489460155
1648218732541052686,46695,11,1,0.0334289707243,0.0146502861753,-0.0294226650149,0.0,19.7999992371,0.011180257767324413,0.0048997612626421405,-0.009840356192274247,19.7999992371,0.0,0.016553065816292893,0.04688091493649962
1648218732541060157,46696,11,2,1.91753816605,0.120132349432,0.0561374872923,0.0,19.7999992371,0.6413171123913043,0.040178043288294316,0.018775079361973243,19.7999992371,0.0,0.9078488599179478,1.9221175346783408
1648218732646079046,46697,12,0,0.00525635527447,0.0454158857465,0.0103724775836,0.0,17.1000003815,0.0017579783526655518,0.015189259446989964,0.0034690560480267556,17.1000003815,0.0,0.015391380000664505,0.046880915521487786
1648218732646084720,46698,12,1,0.0334289707243,0.0146502861753,-0.0294226650149,0.0,17.1000003815,0.011180257767324413,0.0048997612626421405,-0.009840356192274247,17.1000003815,0.0,0.016553065816292893,0.04688091493649962
1648218732646086922,46699,12,2,1.71817421913,0.162618175149,-0.173922196031,0.323675245047,17.1000003815,0.5746402070668896,0.05438734954816053,-0.058167958538795986,17.1000003815,0.04373989797932432,0.8144818714659211,1.7345939722148298
1648218732646091180,46700,12,3,1.52066874504,1.32292079926,0.0348845869303,-0.0809188112617,17.1000003815,0.5085848645618729,0.44244842784615385,0.01166708592986622,17.1000003815,-0.010934974494824324,0.8444393052353558,2.0158794129762683
1648218732841055850,46701,14,0,0.00525635527447,0.0454158857465,0.0103724775836,0.0,19.0,0.0017579783526655518,0.015189259446989964,0.0034690560480267556,19.0,0.0,0.015391380000664505,0.046880915521487786
1648218732841202252,46702,14,1,0.0334658920765,0.0146502861753,-0.0293806623667,0.0,19.0,0.011192606045652172,0.0048997612626421405,-0.009826308483846153,19.0,0.0,0.016569747150069238,0.046880914438608735
1648218732841205781,46703,14,2,1.90423107147,0.180198520422,-0.189653679729,0.0,19.0,0.6368665790869564,0.06026706368628762,-0.06342932432408026,19.0,0.0,0.902679454779609,1.9221175818739114
1648218732841213630,46704,14,3,0.732361316681,0.900992631912,1.53179466724,0.0,19.0,0.2449368952110368,0.30133532839866217,0.5123059087759197,19.0,0.0,0.45911996843131797,1.9221175103295176
1648218732841343893,46705,14,4,1.81024551392,0.228544458747,-0.116890139878,0.0809188112617,19.0,0.6054332822474916,0.07643627382842809,-0.03909369226688963,19.0,0.010934974494824324,0.8596170208079387,1.828355735378688
1648218732841347143,46706,14,5,1.08751606941,-1.4284029007,0.346205919981,0.0809188112617,19.0,0.3637177489665551,-0.47772672264214044,0.11578793310401336,19.0,0.010934974494824324,0.7020000166331882,1.8283557058141178
1648218732946065749,46707,15,0,0.00528081972152,0.0454158857465,0.0103600434959,0.0,12.6999998093,0.001766160441979933,0.015189259446989964,0.003464897490267558,12.6999998093,0.0,0.015393253326103725,0.04688091548068655
1648218732946072394,46708,15,1,0.0334289707243,0.0146502861753,-0.0294226650149,0.0,12.6999998093,0.011180257767324413,0.0048997612626421405,-0.009840356192274247,12.6999998093,0.0,0.016553065816292893,0.04688091493649962
1648218732946075235,46709,15,2,1.95859003067,0.184593603015,-0.0824925750494,0.0,12.6999998093,0.6550468329999999,0.06173699097491638,-0.02758948998307692,12.6999998093,0.0,0.9284310221558176,1.9689984081893646
1648218732946078039,46710,15,3,1.25247013569,0.98449921608,1.15716660023,0.0,12.6999998093,0.418886333006689,0.3292639518662207,0.3870122408795987,12.6999998093,0.0,0.6777508907837322,1.968998397141379
1648218733141090079,46711,17,0,0.00529456837103,0.0454158857465,0.0103530241176,0.0,19.5,0.0017707586525183944,0.015189259446989964,0.003462549872107023,19.5,0.0,0.015394309824052243,0.04688091552811506
1648218733141111681,46712,17,1,0.0335481353104,0.0146502861753,-0.029286717996,0.0,19.5,0.011220112143946486,0.0048997612626421405,-0.00979488896187291,19.5,0.0,0.016606911015488682,0.046880914227437204
1648218733141116016,46713,17,2,1.95468819141,0.184593603015,0.148572832346,0.0,19.5,0.6537418700367893,0.06173699097491638,0.049689910483612036,19.5,0.0,0.9265896186192858,1.968998377455672
1648218733246055579,46714,18,0,0.00521258730441,0.0454158857465,0.0103945415467,0.0,19.2999992371,0.0017433402355886286,0.015189259446989964,0.0034764352998996654,19.2999992371,0.0,0.015388049678306159,0.046880915504193287
1648218733246057690,46715,18,1,0.0333765335381,0.0146502861753,-0.0294821355492,0.0,19.2999992371,0.011162720246856188,0.0048997612626421405,-0.009860246003076922,19.2999992371,0.0,0.016529377092015133,0.04688091501431583
1648218733246061295,46716,18,2,1.93336033821,0.12306240201,0.352034568787,0.0,19.2999992371,0.6466088087658862,0.04115799398327759,0.11773731397558528,19.2999992371,0.0,0.9153687145713493,1.968998448392737
1648218733441045802,46717,20,0,0.00542545318604,0.0454158857465,0.010285038501,0.0,18.1000003815,0.001814532838140468,0.015189259446989964,0.0034398122076923074,18.1000003815,0.0,0.015404501335303071,0.04688091549212862
1648218733441049987,46718,20,1,0.0334595963359,0.0146502861753,-0.0293878335506,0.0,18.1000003815,0.011190500446789297,0.0048997612626421405,-0.009828706873110368,18.1000003815,0.0,0.01656690257501599,0.046880915443038546
1648218733441052934,46719,20,2,1.87625610828,0.120132349432,0.399708807468,0.0,18.1000003815,0.6275104041070234,0.040178043288294316,0.13368187540735785,18.1000003815,0.0,0.888342777134815,1.9221175551993572
1648218733441058883,46720,20,3,0.277088224888,-0.457088917494,-0.175436466932,0.0809188112617,18.1000003815,0.09267164711973244,-0.15287254765685618,-0.058674403656187285,18.1000003815,0.010934974494824324,0.2013605825052813,0.5625709882290433
1648218733441268236,46721,20,4,0.0815131738782,0.457088917494,0.317665606737,0.0809188112617,18.1000003815,0.02726193106294314,0.15287254765685618,0.10624267783846153,18.1000003815,0.010934974494824324,0.15765925788756932,0.5625709854899387
1648218733546047407,46722,21,0,0.00543765118346,0.0454158857465,0.0102785946801,0.0,14.6000003815,0.001818612435939799,0.015189259446989964,0.0034376570836454844,14.6000003815,0.0,0.01540546347671123,0.046880915489460155
1648218733546090447,46723,21,1,0.0335114225745,0.0146502861753,-0.0293287187815,0.0,14.6000003815,0.011207833636956521,0.0048997612626421405,-0.009808936047324414,14.6000003815,0.0,0.01659032037358762,0.046880913742686436
1648218733546096789,46724,21,2,1.83690989017,0.180198520422,0.536494970322,0.0,14.6000003815,0.6143511338361204,0.06026706368628762,0.1794297559605351,14.6000003815,0.0,0.8709114479996347,1.9221176614732625
