%time,field.header.seq,field.header.frame_id,field.point_id,field.x,field.y,field.z,field.velocity,field.intensity,normalized_x,normalized_y,normalized_z,normalized_intensity,normalized_velocity,normalized_range,range
1648295808767505147,66178,0,0,0.0127004906535,0.0439508594573,0.0102391270921,0.0,15.8000001907,0.004247655736956521,0.014699284099431437,0.003424457221438127,15.8000001907,0.0,0.01587936118221376,0.046880915450566385
1648295808767511346,66179,0,1,0.0335134975612,0.0146502861753,-0.0293263476342,0.0,15.8000001907,0.01120852761244147,0.0048997612626421405,-0.009808143021471571,15.8000001907,0.0,0.016591258026702325,0.04688091370019032
1648295808767515351,66180,0,2,1.96367192268,-0.12306240201,0.0761763304472,0.0,15.8000001907,0.6567464624347825,-0.04115799398327759,0.02547703359438127,15.8000001907,0.0,0.9296912456885512,1.9689983768481476
1648295808767520027,66181,0,3,2.24164772034,-1.2306240797,0.594091236591,0.0,15.8000001907,0.7497149566354515,-0.4115799597658863,0.19869272126789297,15.8000001907,0.0,1.137340360528317,2.625331317193549
1648295808872550481,66182,1,0,0.0127004906535,0.0439508594573,0.0102391270921,0.0,15.3000001907,0.004247655736956521,0.014699284099431437,0.003424457221438127,15.3000001907,0.0,0.01587936118221376,0.046880915450566385
1648295808872553791,66183,1,1,0.03342808038,0.0146502861753,-0.0294236782938,0.0,15.3000001907,0.011179959993311037,0.0048997612626421405,-0.00984069508153846,15.3000001907,0.0,0.016552663572215777,0.046880916023974664
1648295808872555638,66184,1,2,1.91239643097,-0.120132349432,0.151142507792,0.0,15.3000001907,0.6395974685518394,-0.040178043288294316,0.050549333709698996,15.3000001907,0.0,0.9054193054702989,1.9221175687841003
1648295808872557279,66185,1,3,2.24149608612,-1.2306240797,0.594663321972,0.0,15.3000001907,0.7496642428494983,-0.4115799597658863,0.19888405417123745,15.3000001907,0.0,1.1372735015356297,2.6253313688232818
1648295809067421730,66186,3,0,0.0127004906535,0.0439508594573,0.0102391270921,0.0,15.6999998093,0.004247655736956521,0.014699284099431437,0.003424457221438127,15.6999998093,0.0,0.01587936118221376,0.046880915450566385
1648295809067438169,66187,3,1,0.033554457128,0.0146502861753,-0.0292794778943,0.0,15.6999998093,0.011222226464214047,0.0048997612626421405,-0.009792467523177258,15.6999998093,0.0,0.016609768031465726,0.04688091620196622
1648295809067601514,66188,3,2,1.86019837856,-0.175803437829,0.158958137035,0.0,15.6999998093,0.6221399259397993,-0.05879713639765886,0.053163256533444815,15.6999998093,0.0,0.8818011556724809,1.8752366639118878
1648295809067610378,66189,3,3,2.24047207832,-1.2306240797,0.598509967327,0.0,15.6999998093,0.7493217653244146,-0.4115799597658863,0.20017055763444816,15.6999998093,0.0,1.1368220086093879,2.6253313962733884
1648295809067615630,66190,3,4,1.92880487442,-0.184593603015,0.350131094456,0.0809188112617,15.6999998093,0.6450852422809363,-0.06173699097491638,0.1171007004869565,15.6999998093,0.010934974494824324,0.9143748660543691,1.9689984319865181
1648295809067620110,66191,3,5,1.59012305737,-0.307656019926,0.263032495975,-0.161837622523,15.6999998093,0.5318137315618728,-0.10289498994180601,0.08797073443979933,15.6999998093,-0.021869948989594594,0.7591041227069261,1.6408320017952056
1648295809172479732,66192,4,0,0.0127004906535,0.0439508594573,0.0102391270921,0.0,22.2999992371,0.004247655736956521,0.014699284099431437,0.003424457221438127,22.2999992371,0.0,0.01587936118221376,0.046880915450566385
1648295809172500358,66193,4,1,0.0335269682109,0.0146502861753,-0.0293109472841,0.0,22.2999992371,0.01121303284645485,0.0048997612626421405,-0.00980299240270903,22.2999992371,0.0,0.016597345319726262,0.046880914166899254
1648295809172506453,66194,4,2,2.24100899696,-1.2306240797,0.596496462822,0.0,22.2999992371,0.7495013367759198,-0.4115799597658863,0.19949714475652172,22.2999992371,0.0,1.1370587368024,2.6253314038711943
1648295809172509988,66195,4,3,1.89694619179,-0.120132349432,-0.285830825567,0.0809188112617,22.2999992371,0.6344301644782608,-0.040178043288294316,-0.09559559383511705,22.2999992371,0.010934974494824324,0.8981188909951189,1.922117555398459
1648295809367505455,66196,6,0,0.0127993011847,0.0439508594573,0.0101153394207,0.0,12.5,0.00428070273735786,0.014699284099431437,0.003383056662441471,12.5,0.0,0.01589709988919501,0.04688091562083623
1648295809367513521,66197,6,1,0.0335269682109,0.0146502861753,-0.0293109472841,0.0,12.5,0.01121303284645485,0.0048997612626421405,-0.00980299240270903,12.5,0.0,0.016597345319726262,0.046880914166899254
1648295809367653518,66198,6,2,1.99622428417,-0.125992462039,0.25096693635,0.0,12.5,0.6676335398561872,-0.04213794717023411,0.0839354302173913,12.5,0.0,0.9451162328907105,2.015879434971641
1648295809367657351,66199,6,3,2.23778414726,-1.2306240797,0.608482956886,0.0,12.5,0.7484227917257525,-0.4115799597658863,0.2035060056474916,12.5,0.0,1.1356370078638802,2.6253314122385327
1648295809472546935,66200,7,0,0.0127100823447,0.0439508594573,0.0102272182703,0.0,15.1999998093,0.004250863660434782,0.014699284099431437,0.003420474337892977,15.1999998093,0.0,0.01588107794688408,0.04688091545386831
1648295809472553116,66201,7,1,0.0335134975612,0.0146502861753,-0.0293263476342,0.0,15.1999998093,0.01120852761244147,0.0048997612626421405,-0.009808143021471571,15.1999998093,0.0,0.016591258026702325,0.04688091370019032
1648295809472555981,66202,7,2,1.90432524681,-0.120132349432,0.231623962522,0.0,15.1999998093,0.6368980758561873,-0.040178043288294316,0.07746620820133779,15.1999998093,0.0,0.9016055641027862,1.9221176048911297
1648295809472558954,66203,7,3,2.24015641212,-1.2306240797,0.599690556526,0.0,15.1999998093,0.7492161913444816,-0.4115799597658863,0.20056540352040134,15.1999998093,0.0,1.1366828344029616,2.6253314342928755
1648295809667583065,66204,9,0,0.0127004906535,0.0439508594573,0.0102391270921,0.0,16.1000003815,0.004247655736956521,0.014699284099431437,0.003424457221438127,16.1000003815,0.0,0.01587936118221376,0.046880915450566385
1648295809667588741,66205,9,1,0.0335269682109,0.0146502861753,-0.0293109472841,0.0,16.1000003815,0.01121303284645485,0.0048997612626421405,-0.00980299240270903,16.1000003815,0.0,0.016597345319726262,0.046880914166899254
1648295809667592252,66206,9,2,2.24130964279,-1.2306240797,0.595365047455,0.0,16.1000003815,0.7496018872207357,-0.4115799597658863,0.1991187449682274,16.1000003815,0.0,1.1371912952228687,2.625331232460393
1648295809772861077,66207,10,0,0.0127217965201,0.0439508594573,0.010212643072,0.0,15.5,0.004254781444849498,0.014699284099431437,0.0034155996896321067,15.5,0.0,0.015883176109414296,0.046880915437416903
1648295809772870603,66208,10,1,0.0335269682109,0.0146502861753,-0.0293109472841,0.0,15.5,0.01121303284645485,0.0048997612626421405,-0.00980299240270903,15.5,0.0,0.016597345319726262,0.046880914166899254
1648295809772985177,66209,10,2,1.90514266491,-0.120132349432,0.224801421165,0.0,15.5,0.6371714598361203,-0.040178043288294316,0.07518442179431437,15.5,0.0,0.9019918035225495,1.922117591095361
1648295809773088734,66210,10,3,2.24033784866,-1.2306240797,0.599011898041,0.0,15.5,0.7492768724615384,-0.4115799597658863,0.2003384274384615,15.5,0.0,1.1367628277228181,2.6253313230277566
1648295809773093334,66211,10,4,1.96865677834,-0.0,-0.0366811044514,0.0809188112617,15.5,0.6584136382408026,-0.0,-0.012267927910167222,15.5,0.010934974494824324,0.9311374968515557,1.9689984800217095
1648295809773095805,66212,10,5,1.84461081028,-0.117202289402,0.31652328372,-0.0809188112617,15.5,0.6169266924013378,-0.03919809010100334,0.10586063000668895,15.5,-0.010934974494824324,0.873346195882295,1.8752366269833254
1648295809967516566,66213,12,0,0.0127004906535,0.0439508594573,0.0102391270921,0.0,16.0,0.004247655736956521,0.014699284099431437,0.003424457221438127,16.0,0.0,0.01587936118221376,0.046880915450566385
1648295809967521667,66214,12,1,0.0334416292608,0.0146502861753,-0.0294082760811,0.0,16.0,0.011184491391571906,0.0048997612626421405,-0.009835543839832775,16.0,0.0,0.016558784852977005,0.04688091461028868
1648295809967548726,66215,12,2,1.90850269794,-0.180198520422,0.140292808414,0.0,16.0,0.638295216702341,-0.06026706368628762,0.04692067171036789,16.0,0.0,0.9046953555178362,1.9221176152616737
1648295809967709963,66216,12,3,2.24071574211,-1.2306240797,0.597597301006,0.0,16.0,0.7494032582307691,-0.4115799597658863,0.19986531806220734,16.0,0.0,1.1369294394001213,2.6253314451030167
1648295810072650583,66217,13,0,0.0127004906535,0.0439508594573,0.0102391270921,0.0,15.1999998093,0.004247655736956521,0.014699284099431437,0.003424457221438127,15.1999998093,0.0,0.01587936118221376,0.046880915450566385
1648295810072654569,66218,13,1,0.0335269682109,0.0146502861753,-0.0293109472841,0.0,15.1999998093,0.01121303284645485,0.0048997612626421405,-0.00980299240270903,15.1999998093,0.0,0.016597345319726262,0.046880914166899254
1648295810072658382,66219,13,2,1.90442323685,-0.120132349432,0.230817198753,0.0,15.1999998093,0.6369308484448161,-0.040178043288294316,0.07719638754280936,15.1999998093,0.0,0.9016518655022805,1.9221176409560539
1648295810072660167,66220,13,3,2.24252486229,-1.2306240797,0.590771317482,0.0,15.1999998093,0.750008315147157,-0.4115799597658863,0.19758238042876253,15.1999998093,0.0,1.1377271240770535,2.625331242545533
1648295810072875411,66221,13,4,1.8456389904,-0.117202289402,0.31047180295,-0.0809188112617,15.1999998093,0.6172705653511705,-0.03919809010100334,0.10383672339464882,15.1999998093,-0.010934974494824324,0.8738320158734594,1.8752366250563752
1648295810072879669,66222,13,5,1.96798479557,-0.061531201005,0.0143005689606,-0.0809188112617,15.1999998093,0.6581888948394649,-0.020578996991638794,0.00478279898347826,15.1999998093,-0.010934974494824324,0.931047118945746,1.9689984130426335
1648295810267559714,66223,15,0,0.0127004906535,0.0439508594573,0.0102391270921,0.0,18.2000007629,0.004247655736956521,0.014699284099431437,0.003424457221438127,18.2000007629,0.0,0.01587936118221376,0.046880915450566385
1648295810267565813,66224,15,1,0.0335269682109,0.0146502861753,-0.0293109472841,0.0,18.2000007629,0.01121303284645485,0.0048997612626421405,-0.00980299240270903,18.2000007629,0.0,0.016597345319726262,0.046880914166899254
1648295810267569801,66225,15,2,2.23975968361,-1.2306240797,0.601170301437,0.0,18.2000007629,0.7490835062240803,-0.4115799597658863,0.2010603014839465,18.2000007629,0.0,1.1365079242463785,2.6253313690260307
1648295810267581717,66226,15,3,1.90097773075,0.0600661747158,-0.277870088816,-0.161837622523,18.2000007629,0.6357785052675585,0.020089021644080267,-0.0929331400722408,18.2000007629,-0.021869948989594594,0.8993509794908316,1.9221175990066321
