%time,field.header.seq,field.header.frame_id,field.point_id,field.x,field.y,field.z,field.velocity,field.intensity,normalized_x,normalized_y,normalized_z,normalized_intensity,normalized_velocity,normalized_range,range
1648125664692316531,34560,0,0,0.0126362647861,0.0439508594573,0.0103182848543,0.0,13.5,0.004226175513745819,0.014699284099431437,0.003450931389397993,13.5,0.0,0.015867894377697606,0.04688091548929313
1648125664692330019,34561,0,1,0.0328519046307,0.0146502861753,-0.0300656240433,0.0,13.5,0.010987259073812709,0.0048997612626421405,-0.010055392656622074,13.5,0.0,0.01629255610212983,0.04688091586131667
1648125664692399711,34562,0,2,1.23579263687,-0.079111546278,0.262238055468,0.0,13.5,0.41330857420401335,-0.026458711129765885,0.08770503527357859,13.5,0.0,0.5851051344978586,1.2657846877855026
1648125664692418358,34563,0,3,2.41544795036,-0.902457654476,0.493503838778,0.0,13.5,0.8078421238662207,-0.30182530250033446,0.16505145109632108,13.5,0.0,1.181658287075748,2.625331342499318
1648125664887339859,34564,2,0,0.0126362647861,0.0439508594573,0.0103182848543,0.0,13.1000003815,0.004226175513745819,0.014699284099431437,0.003450931389397993,13.1000003815,0.0,0.015867894377697606,0.04688091548929313
1648125664887346065,34565,2,1,0.032824549824,0.0146502861753,-0.0300954841077,0.0,13.1000003815,0.0109781103090301,0.0048997612626421405,-0.010065379300234113,13.1000003815,0.0,0.016280217208174907,0.046880914238560535
1648125664887348617,34566,2,2,1.23045647144,-0.079111546278,0.286232978106,0.0,13.1000003815,0.41152390349163875,-0.026458711129765885,0.09573009301204013,13.1000003815,0.0,0.5825838220244702,1.2657847694685307
1648125664887351975,34567,2,3,2.42018723488,-0.902457654476,0.46971142292,0.0,13.1000003815,0.8094271688561873,-0.30182530250033446,0.15709412137792642,13.1000003815,0.0,1.1838256614022622,2.6253313868576584
1648125664992531569,34568,3,0,0.0126260910183,0.0439508594573,0.0103307310492,0.0,13.5,0.004222772915819397,0.014699284099431437,0.0034550939963879593,13.5,0.0,0.015866082542107033,0.04688091536487569
1648125664992544625,34569,3,1,0.0328519046307,0.0146502861753,-0.0300656240433,0.0,13.5,0.010987259073812709,0.0048997612626421405,-0.010055392656622074,13.5,0.0,0.01629255610212983,0.04688091586131667
1648125664992551013,34570,3,2,1.17998421192,-0.0380907431245,0.303171187639,0.0,13.5,0.3946435491371237,-0.01273937897140468,0.10139504603311035,13.5,0.0,0.5582556345686694,1.2189037755732326
1648125664992613269,34571,3,3,1.3394767046,-0.212429150939,0.0950935706496,0.0,13.5,0.44798551993311037,-0.07104653877558528,0.03180386978247492,13.5,0.0,0.6375183627249251,1.359546532309075
1648125664992616535,34572,3,4,0.621472597122,0.297400802374,-1.17204582691,0.0,13.5,0.20785036693043477,0.09946515129565217,-0.39198857087290967,13.5,0.0,0.3103173639816176,1.3595465591892792
1648125664992618797,34573,3,5,2.41399693489,-0.902457654476,0.500554442406,0.0,13.5,0.8073568344113712,-0.30182530250033446,0.16740951251036787,13.5,0.0,1.1809947626348387,2.6253315542218703
1648125665187412458,34574,5,0,0.0126362647861,0.0439508594573,0.0103182848543,0.0,13.1999998093,0.004226175513745819,0.014699284099431437,0.003450931389397993,13.1999998093,0.0,0.015867894377697606,0.04688091548929313
1648125665187415622,34575,5,1,0.0328762494028,0.0146502861753,-0.0300389975309,0.0,13.1999998093,0.010995401138060199,0.0048997612626421405,-0.010046487468528428,13.1999998093,0.0,0.016303538045608367,0.046880913306746805
1648125665187418584,34576,5,2,1.22897279263,-0.039555773139,0.300453364849,0.0,13.1999998093,0.41102768984280935,-0.013229355564882942,0.10048607520033444,13.1999998093,0.0,0.5814314572532995,1.265784740255029
1648125665187586920,34577,5,3,2.39074635506,-0.984499275684,0.455476135015,0.0,13.1999998093,0.7995807207558528,-0.32926397180066885,0.15233315552341137,13.1999998093,0.0,1.1777408123754776,2.6253314967110724
1648125665292351536,34578,6,0,0.0126506788656,0.0439508594573,0.0103006083518,0.0,12.1999998093,0.004230996276120401,0.014699284099431437,0.0034450195156521734,12.1999998093,0.0,0.015870463509705293,0.046880915682322666
1648125665292354717,34579,6,1,0.0328762494028,0.0146502861753,-0.0300389975309,0.0,12.1999998093,0.010995401138060199,0.0048997612626421405,-0.010046487468528428,12.1999998093,0.0,0.016303538045608367,0.046880913306746805
1648125665292356694,34580,6,2,1.22716546059,-0.079111546278,0.300028651953,0.0,12.1999998093,0.41042323096655514,-0.026458711129765885,0.1003440307535117,12.1999998093,0.0,0.5810288464686594,1.2657846959148689
1648125665292358552,34581,6,3,1.39688611031,0.0996219441295,0.761225819588,0.0,12.1999998093,0.4671859900702341,0.033318375963043476,0.25459057511304345,12.1999998093,0.0,0.6615403334737985,1.593951092517134
1648125665292363301,34582,6,4,2.39461231232,-0.984499275684,0.434693753719,0.0,12.1999998093,0.8008736830501672,-0.32926397180066885,0.14538252632742474,12.1999998093,0.0,1.1794965347683863,2.625331523762127
1648125665487560092,34583,8,0,0.0126302465796,0.0439508594573,0.0103256506845,0.0,12.1999998093,0.004224162735652174,0.014699284099431437,0.003453394877759197,12.1999998093,0.0,0.015866822450331473,0.046880915496128585
1648125665487562437,34584,8,1,0.0328889451921,0.0146502861753,-0.0300250984728,0.0,12.1999998093,0.010999647221438126,0.0048997612626421405,-0.010041838954113712,12.1999998093,0.0,0.016309265416415034,0.04688091444467014
1648125665487563751,34585,8,2,1.18515825272,-0.0380907431245,0.282268553972,0.0,12.1999998093,0.39637399756521735,-0.01273937897140468,0.0944041986528428,12.1999998093,0.0,0.5607022237054522,1.2189038211702938
1648125665487564908,34586,8,3,1.35013341904,-0.0849716588855,0.13522747159,0.0,12.1999998093,0.45154963847491636,-0.028418615011872907,0.0452265791270903,12.1999998093,0.0,0.6392196568417217,1.3595465792296408
1648125665487566114,34587,8,4,2.39468359947,-0.984499275684,0.434300929308,0.0,12.1999998093,0.8008975249063545,-0.32926397180066885,0.1452511469257525,12.1999998093,0.0,1.1795289118661743,2.625331533843051
1648125665487567287,34588,8,5,1.24324071407,-0.483459472656,0.783610641956,0.0809188112617,12.1999998093,0.4157995699230769,-0.16169213132307692,0.2620771377779264,12.1999998093,0.010934974494824324,0.6098548270106834,1.5470701900718
1648125665487569393,34589,8,6,1.00754892826,0.096691891551,-1.17000949383,0.0809188112617,12.1999998093,0.3369728857056856,0.032338425267892976,-0.3913075230200669,12.1999998093,0.010934974494824324,0.4776475951477629,1.547070257093038
1648125665592397064,34590,9,0,0.0126362647861,0.0439508594573,0.0103182848543,0.0,12.3999996185,0.004226175513745819,0.014699284099431437,0.003450931389397993,12.3999996185,0.0,0.015867894377697606,0.04688091548929313
1648125665592404164,34591,9,1,0.0328889451921,0.0146502861753,-0.0300250984728,0.0,12.3999996185,0.010999647221438126,0.0048997612626421405,-0.010041838954113712,12.3999996185,0.0,0.016309265416415034,0.04688091444467014
1648125665592406210,34592,9,2,1.24225759506,-0.039555773139,0.239671126008,0.0,12.3999996185,0.4154707675785953,-0.013229355564882942,0.08015756722675585,12.3999996185,0.0,0.5877133087427546,1.2657846737556993
1648125665592410964,34593,9,3,2.38689088821,-0.984499275684,0.475266367197,0.0,12.3999996185,0.7982912669598662,-0.32926397180066885,0.15895196227324412,12.3999996185,0.0,1.1759900751854704,2.6253314182843424
1648125665787354227,34594,11,0,0.0126055367291,0.0439508594573,0.0103558013216,0.0,12.6000003815,0.004215898571605351,0.014699284099431437,0.003463478702876254,12.6000003815,0.0,0.015862425872732264,0.046880915352374236
1648125665787358866,34595,11,1,0.0328762494028,0.0146502861753,-0.0300389975309,0.0,12.6000003815,0.010995401138060199,0.0048997612626421405,-0.010046487468528428,12.6000003815,0.0,0.016303538045608367,0.046880913306746805
1648125665787366288,34596,11,2,1.15182685852,-0.0380907431245,0.396951466799,0.0,12.6000003815,0.3852263740869565,-0.01273937897140468,0.13275968789264214,12.6000003815,0.0,0.5449412907469432,1.2189038041263578
1648125665787590042,34597,11,3,1.31180119514,-0.0410208031535,0.0242098700255,0.0,12.6000003815,0.43872949670234107,-0.013719332158361203,0.008096946496822742,12.6000003815,0.0,0.6206088644454335,1.3126656846542237
1648125665787853655,34598,11,4,2.38285732269,-0.984499275684,0.495093464851,0.0,12.6000003815,0.7969422483913043,-0.32926397180066885,0.16558309861237455,12.6000003815,0.0,1.174158702079036,2.6253314806054195
1648125665787859825,34599,11,5,1.31756389141,0.249054864049,0.861787140369,-0.0809188112617,12.6000003815,0.44065681986956523,0.0832959411535117,0.2882231238692307,12.6000003815,-0.010934974494824324,0.6287249634043222,1.5939510684331897
1648125665892366164,34600,12,0,0.0126302465796,0.0439508594573,0.0103256506845,0.0,14.3999996185,0.004224162735652174,0.014699284099431437,0.003453394877759197,14.3999996185,0.0,0.015866822450331473,0.046880915496128585
1648125665892373254,34601,12,1,0.0328762494028,0.0146502861753,-0.0300389975309,0.0,14.3999996185,0.010995401138060199,0.0048997612626421405,-0.010046487468528428,14.3999996185,0.0,0.016303538045608367,0.046880913306746805
1648125665892380038,34602,12,2,1.35526883602,-0.0849716588855,0.0662800520658,0.0,14.3999996185,0.4532671692374582,-0.028418615011872907,0.022167241493578592,14.3999996185,0.0,0.6416462195760763,1.3595465589683218
1648125665892383667,34603,12,3,2.39031791687,-0.984499275684,0.457719027996,0.0,14.3999996185,0.7994374303913043,-0.32926397180066885,0.15308328695518394,14.3999996185,0.0,1.1775462510437773,2.6253314602391944
1648125665892386083,34604,12,4,1.35887134075,0.615312039852,0.683512747288,-0.566431701183,14.3999996185,0.4544720203177257,0.20578997988361203,0.22859958103277592,14.3999996185,-0.07654482448418919,0.674862319531805,1.6408320763575173
1648125665892391342,34605,12,5,1.45805239677,0.149432912469,0.626444876194,-0.161837622523,14.3999996185,0.48764294206354514,0.04997756269866221,0.20951333651973245,14.3999996185,-0.021869948989594594,0.6914398272171475,1.593951119064015
1648125666087297987,34606,14,0,0.0126302465796,0.0439508594573,0.0103256506845,0.0,33.5,0.004224162735652174,0.014699284099431437,0.003453394877759197,33.5,0.0,0.015866822450331473,0.046880915496128585
1648125666087306564,34607,14,1,0.0328762494028,0.0146502861753,-0.0300389975309,0.0,33.5,0.010995401138060199,0.0048997612626421405,-0.010046487468528428,33.5,0.0,0.016303538045608367,0.046880913306746805
1648125666087310094,34608,14,2,1.23399102688,-0.039555773139,0.279128164053,0.0,33.5,0.41270602905685616,-0.013229355564882942,0.09335390102107023,33.5,0.0,0.5838043753590918,1.265784754836532
1648125666087312835,34609,14,3,1.35284423828,-0.0,0.134830743074,0.0,33.5,0.4524562669832776,-0.0,0.04509389400468227,33.5,0.0,0.6398697891484533,1.3595465649713072
1648125666087417471,34610,14,4,2.38255882263,-0.984499275684,0.496528059244,0.0,33.5,0.7968424155953177,-0.32926397180066885,0.1660628960682274,33.5,0.0,1.174023182781973,2.6253314992074785
1648125666087421205,34611,14,5,1.38018655777,0.46880915761,0.35478296876,-0.647350490093,33.5,0.46160085544147156,0.15679236040468228,0.11865651129096988,33.5,-0.08747979595851352,0.6713676666103816,1.5001892931994143
1648125666192341647,34612,15,0,0.0126506788656,0.0439508594573,0.0103006083518,0.0,36.5,0.004230996276120401,0.014699284099431437,0.0034450195156521734,36.5,0.0,0.015870463509705293,0.046880915682322666
1648125666192355569,34613,15,1,0.0328889451921,0.0146502861753,-0.0300250984728,0.0,36.5,0.010999647221438126,0.0048997612626421405,-0.010041838954113712,36.5,0.0,0.016309265416415034,0.04688091444467014
1648125666192359574,34614,15,2,1.23723745346,-0.079111546278,0.255334734917,0.0,36.5,0.41379179045484943,-0.026458711129765885,0.08539623241371236,36.5,0.0,0.5857878072222982,1.2657847288752604
1648125666192365270,34615,15,3,1.26911091805,-0.57136118412,0.202341645956,-0.647350490093,36.5,0.42445181205685617,-0.19109069703010034,0.06767279128963209,36.5,-0.08747979595851352,0.6299478835650987,1.4064274836339432
1648125666192437311,34616,15,4,1.30210745335,0.351606875658,0.398656487465,-0.647350490093,36.5,0.43548744259197325,0.11759427279531771,0.1333299289180602,36.5,-0.08747979595851352,0.6269984356478523,1.4064274634966194
1648125666387299026,34617,17,0,0.0126506788656,0.0439508594573,0.0103006083518,0.0,31.1000003815,0.004230996276120401,0.014699284099431437,0.0034450195156521734,31.1000003815,0.0,0.015870463509705293,0.046880915682322666
1648125666387305421,34618,17,1,0.0328762494028,0.0146502861753,-0.0300389975309,0.0,31.1000003815,0.010995401138060199,0.0048997612626421405,-0.010046487468528428,31.1000003815,0.0,0.016303538045608367,0.046880913306746805
1648125666387314283,34619,17,2,1.18233275414,-0.039555773139,0.450261682272,0.0,31.1000003815,0.3954290147625418,-0.013229355564882942,0.1505891913953177,31.1000003815,0.0,0.5593775355525202,1.2657847302062515
1648125666387323152,34620,17,3,1.30416560173,-0.0849716588855,0.374564915895,0.0,31.1000003815,0.4361757865317726,-0.028418615011872907,0.12527254712207359,31.1000003815,0.0,0.6175000009655174,1.35954660669245
1648125666387497691,34621,17,4,1.35376596451,-0.281285494566,0.582034468651,0.0809188112617,31.1000003815,0.45276453662541805,-0.09407541624280935,0.19466035740836118,31.1000003815,0.010934974494824324,0.647179754930975,1.5001893009939717
1648125666387507400,34622,17,5,1.39907407761,0.046880915761,0.539408862591,-0.0809188112617,31.1000003815,0.46791775170903005,0.015679236040468225,0.18040430186989964,31.1000003815,-0.010934974494824324,0.6619213572409337,1.500189326699993
1648125666492481506,34623,18,0,0.0126055367291,0.0439508594573,0.0103558013216,0.0,17.2000007629,0.004215898571605351,0.014699284099431437,0.003463478702876254,17.2000007629,0.0,0.015862425872732264,0.046880915352374236
1648125666492487207,34624,18,1,0.0328889451921,0.0146502861753,-0.0300250984728,0.0,17.2000007629,0.010999647221438126,0.0048997612626421405,-0.010041838954113712,17.2000007629,0.0,0.016309265416415034,0.04688091444467014
1648125666492507328,34625,18,2,1.21554946899,-0.039555773139,0.350836187601,0.0,17.2000007629,0.4065382839431438,-0.013229355564882942,0.11733651759230768,17.2000007629,0.0,0.5750841403408152,1.2657848163415846
1648125666492607359,34626,18,3,1.87119305134,-1.31852579117,0.504655897617,0.0,17.2000007629,0.6258170740267558,-0.44097852547491634,0.168781236661204,17.2000007629,0.0,0.9888154935157778,2.3440459194229097
1648125666492611746,34627,18,4,2.3912756443,-0.984499275684,0.45268881321,0.0,17.2000007629,0.7997577405685617,-0.32926397180066885,0.15140094087290967,17.2000007629,0.0,1.1779811757089387,2.625331444303781
1648125666492614449,34628,18,5,1.15126502514,0.146502867341,0.163596063852,-0.485512852669,17.2000007629,0.38503846994648827,0.04899761449531772,0.054714402626086955,17.2000007629,-0.06560984495527027,0.5467266345292656,1.172023003339784
1648125666492617187,34629,18,6,1.08461928368,-0.24612480402,0.170200377703,-0.323675245047,17.2000007629,0.36274892430769223,-0.08231598796655518,0.0569232032451505,17.2000007629,-0.04373989797932432,0.5195666329237143,1.125142025814805
1648125666492620105,34630,18,7,0.597797989845,0.175803437829,0.936843216419,-0.323675245047,17.2000007629,0.19993243807525082,0.05879713639765886,0.3133254904411371,17.2000007629,-0.04373989797932432,0.2887958843854824,1.1251419899574966
1648125666492622252,34631,18,8,1.4296900034,-0.140642747283,0.432173639536,-0.0809188112617,17.2000007629,0.4781571917725752,-0.047037708121404675,0.14453967877458193,17.2000007629,-0.010934974494824324,0.6778503862011034,1.5001893023532045
1648125666687439058,34632,20,0,0.0126157794148,0.0439508594573,0.0103433215991,0.0,14.0,0.004219324218996655,0.014699284099431437,0.0034593048826421402,14.0,0.0,0.01586424743773941,0.0468809155091988
1648125666687455752,34633,20,1,0.0328762494028,0.0146502861753,-0.0300389975309,0.0,14.0,0.010995401138060199,0.0048997612626421405,-0.010046487468528428,14.0,0.0,0.016303538045608367,0.046880913306746805
1648125666687534430,34634,20,2,1.22114682198,-0.079111546278,0.323655337095,0.0,14.0,0.408410308354515,-0.026458711129765885,0.10824593213879598,14.0,0.0,0.5781851116511981,1.265784726885432
1648125666687540808,34635,20,3,2.39058613777,-0.984499275684,0.456315368414,0.0,14.0,0.7995271363779264,-0.32926397180066885,0.15261383558996655,14.0,0.0,1.1776680545617795,2.6253313355405656
1648125666687543511,34636,20,4,1.0714918375,-0.0703213736415,0.336012840271,0.161837622523,14.0,0.35835847408026755,-0.023518854060702338,0.11237887634481604,14.0,0.021869948989594594,0.5073408404481194,1.1251419831500993
1648125666687619789,34637,20,5,1.13355743885,-0.0,0.297800689936,-0.161837622523,14.0,0.37911620028428095,-0.0,0.09959889295518394,14.0,-0.021869948989594594,0.5361512721573848,1.1720229170534717
1648125666687623041,34638,20,6,1.33400082588,0.0454158857465,0.574877858162,-0.0809188112617,14.0,0.4461541223678929,0.015189259446989964,0.19226684219464882,14.0,-0.010934974494824324,0.6311400125283435,1.4533084180350673
1648125666792401197,34639,21,0,0.0126157794148,0.0439508594573,0.0103433215991,0.0,15.8000001907,0.004219324218996655,0.014699284099431437,0.0034593048826421402,15.8000001907,0.0,0.01586424743773941,0.0468809155091988
1648125666792405935,34640,21,1,0.0328762494028,0.0146502861753,-0.0300389975309,0.0,15.8000001907,0.010995401138060199,0.0048997612626421405,-0.010046487468528428,15.8000001907,0.0,0.016303538045608367,0.046880913306746805
1648125666792407569,34641,21,2,1.24795591831,-0.039555773139,0.207971915603,0.0,15.8000001907,0.41737656130769224,-0.013229355564882942,0.06955582461638796,15.8000001907,0.0,0.5904078282905213,1.2657847174433576
1648125666792415996,34642,21,3,2.38702988625,-0.984499275684,0.474567651749,0.0,15.8000001907,0.7983377545986622,-0.32926397180066885,0.15871827817692308,15.8000001907,0.0,1.1760531892568546,2.6253313996064516
1648125666792452791,34643,21,4,1.10036659241,-0.0,0.403523385525,0.242756426334,15.8000001907,0.36801558274581936,-0.0,0.13495765402173912,15.8000001907,0.03280492247756756,0.5204526282837757,1.1720229350817126
1648125666792510890,34644,21,5,1.1112600565,-0.0351606868207,0.172653838992,-0.0809188112617,15.8000001907,0.3716588817725752,-0.011759427030334446,0.05774375886020067,15.8000001907,-0.010934974494824324,0.5257365622866302,1.1251420066768292
1648125666792531248,34645,21,6,1.11612462997,0.0351606868207,0.137746021152,-0.0809188112617,15.8000001907,0.3732858294214047,0.011759427030334446,0.04606890339531772,15.8000001907,-0.010934974494824324,0.5280368405875994,1.1251419598728776
1648125666792537863,34646,21,7,1.38077890873,-0.090831771493,0.444189339876,-0.0809188112617,15.8000001907,0.46179896613043475,-0.03037851889397993,0.1485583076508361,15.8000001907,-0.010934974494824324,0.6537885167609391,1.4533082863472715
1648125666987385471,34647,23,0,0.0126362647861,0.0439508594573,0.0103182848543,0.0,12.8999996185,0.004226175513745819,0.014699284099431437,0.003450931389397993,12.8999996185,0.0,0.015867894377697606,0.04688091548929313
1648125666987392365,34648,23,1,0.0328762494028,0.0146502861753,-0.0300389975309,0.0,12.8999996185,0.010995401138060199,0.0048997612626421405,-0.010046487468528428,12.8999996185,0.0,0.016303538045608367,0.046880913306746805
1648125666987483537,34649,23,2,1.23795831203,-0.039555773139,0.260970681906,0.0,12.8999996185,0.41403288027759194,-0.013229355564882942,0.08728116451705684,12.8999996185,0.0,0.5856803460511371,1.2657847914741565
1648125666987486793,34650,23,3,1.34649014473,0.127457484603,0.138150691986,0.0,12.8999996185,0.450331152083612,0.04262792127190635,0.04620424481137123,12.8999996185,0.0,0.6382894584323561,1.3595465177523536
1648125666987489912,34651,23,4,1.14735591412,-0.297400802374,-0.665953397751,0.0,12.8999996185,0.3837310749565217,-0.09946515129565217,-0.2227268888799331,12.8999996185,0.0,0.5517176742654184,1.3595465269327642
1648125666987496112,34652,23,5,2.38101863861,-0.984499275684,0.503861248493,0.0,12.8999996185,0.7963273038829431,-0.32926397180066885,0.16851546772341133,12.8999996185,0.0,1.1733239590773326,2.625331357936263
1648125666987527400,34653,23,6,1.11543750763,-0.0366257168353,0.357904165983,-0.0809188112617,12.8999996185,0.3730560226187291,-0.012249403623846153,0.11970038996086955,12.8999996185,-0.010934974494824324,0.5277230712346689,1.1720228959322907
1648125667092421915,34654,24,0,0.0126157794148,0.0439508594573,0.0103433215991,0.0,26.6000003815,0.004219324218996655,0.014699284099431437,0.0034593048826421402,26.6000003815,0.0,0.01586424743773941,0.0468809155091988
1648125667092433609,34655,24,1,0.0328889451921,0.0146502861753,-0.0300250984728,0.0,26.6000003815,0.010999647221438126,0.0048997612626421405,-0.010041838954113712,26.6000003815,0.0,0.016309265416415034,0.04688091444467014
1648125667092436519,34656,24,2,1.10027682781,-0.146502867341,0.376252144575,0.0,26.6000003815,0.36798556114046815,-0.04899761449531772,0.12583683765050166,26.6000003815,0.0,0.5227116917019957,1.1720229794044388
1648125667092442393,34657,24,3,1.30868697166,-0.0,0.10212636739,0.0,26.6000003815,0.4376879503879598,-0.0,0.03415597571571906,26.6000003815,0.0,0.6189842355259352,1.3126657551368128
1648125667092471528,34658,24,4,2.38838624954,-0.984499275684,0.467693597078,0.0,26.6000003815,0.79879138780602,-0.32926397180066885,0.15641926323678929,26.6000003815,0.0,1.1766690807495905,2.625331407948685
1648125667287546267,34659,26,0,0.0126157794148,0.0439508594573,0.0103433215991,0.0,12.1999998093,0.004219324218996655,0.014699284099431437,0.0034593048826421402,12.1999998093,0.0,0.01586424743773941,0.0468809155091988
1648125667287549593,34660,26,1,0.0327888466418,0.0146502861753,-0.0301343798637,0.0,12.1999998093,0.01096616944541806,0.0048997612626421405,-0.010078387914280935,12.1999998093,0.0,0.016264114025735608,0.04688091508159193
1648125667287552633,34661,26,2,1.17858171463,-0.076181486249,0.301443129778,0.0,12.1999998093,0.3941744864983277,-0.02547875794280936,0.10081710026020066,12.1999998093,0.0,0.5580288690728723,1.2189037851272977
1648125667287638463,34662,26,3,2.38486194611,-0.984499275684,0.485345304012,0.0,12.1999998093,0.797612691006689,-0.32926397180066885,0.16232284415117054,12.1999998093,0.0,1.1750688374881768,2.625331481918502
1648125667392463392,34663,27,0,0.0126362647861,0.0439508594573,0.0103182848543,0.0,12.1000003815,0.004226175513745819,0.014699284099431437,0.003450931389397993,12.1000003815,0.0,0.015867894377697606,0.04688091548929313
1648125667392469728,34664,27,1,0.0328762494028,0.0146502861753,-0.0300389975309,0.0,12.1000003815,0.010995401138060199,0.0048997612626421405,-0.010046487468528428,12.1000003815,0.0,0.016303538045608367,0.046880913306746805
1648125667392472692,34665,27,2,1.16702353954,-0.0380907431245,0.349759489298,0.0,12.1000003815,0.3903088761003344,-0.01273937897140468,0.11697641782541805,12.1000003815,0.0,0.5521270952434678,1.21890383004823
1648125667392475732,34666,27,3,2.41505765915,-0.902457654476,0.495410680771,0.0,12.1000003815,0.8077115916889631,-0.30182530250033446,0.16568919089331102,12.1000003815,0.0,1.1814798110534326,2.6253314186523933
1648125667587528947,34667,29,0,0.0126157794148,0.0439508594573,0.0103433215991,0.0,12.0,0.004219324218996655,0.014699284099431437,0.0034593048826421402,12.0,0.0,0.01586424743773941,0.0468809155091988
1648125667587538836,34668,29,1,0.0328889451921,0.0146502861753,-0.0300250984728,0.0,12.0,0.010999647221438126,0.0048997612626421405,-0.010041838954113712,12.0,0.0,0.016309265416415034,0.04688091444467014
1648125667587651154,34669,29,2,1.17903900146,-0.076181486249,0.299649506807,0.0,12.0,0.3943274252374582,-0.02547875794280936,0.10021722635685618,12.0,0.0,0.5582449316340584,1.218903775012851
1648125667587656616,34670,29,3,2.41922521591,-0.902457654476,0.474641770124,0.0,12.0,0.8091054233812709,-0.30182530250033446,0.15874306693110365,12.0,0.0,1.1833856875589588,2.625331459713907
1648125667692444987,34671,30,0,0.0126362647861,0.0439508594573,0.0103182848543,0.0,13.6999998093,0.004226175513745819,0.014699284099431437,0.003450931389397993,13.6999998093,0.0,0.015867894377697606,0.04688091548929313
1648125667692451001,34672,30,1,0.0328762494028,0.0146502861753,-0.0300389975309,0.0,13.6999998093,0.010995401138060199,0.0048997612626421405,-0.010046487468528428,13.6999998093,0.0,0.016303538045608367,0.046880913306746805
1648125667692455043,34673,30,2,1.24762248993,-0.079111546278,0.198470547795,0.0,13.6999998093,0.417265046799331,-0.026458711129765885,0.06637810963043478,13.6999998093,0.0,0.5906947620857529,1.2657847654619945
1648125667692457549,34674,30,3,2.42190003395,-0.902457654476,0.460798531771,0.0,13.6999998093,0.810000011354515,-0.30182530250033446,0.15411322132809363,13.6999998093,0.0,1.184609028337218,2.6253313846925392
1648125667887423110,34675,32,0,0.0126157794148,0.0439508594573,0.0103433215991,0.0,13.3999996185,0.004219324218996655,0.014699284099431437,0.0034593048826421402,13.3999996185,0.0,0.01586424743773941,0.0468809155091988
1648125667887430231,34676,32,1,0.0328762494028,0.0146502861753,-0.0300389975309,0.0,13.3999996185,0.010995401138060199,0.0048997612626421405,-0.010046487468528428,13.3999996185,0.0,0.016303538045608367,0.046880913306746805
1648125667887439830,34677,32,2,1.18208813667,-0.076181486249,0.287385821342,0.0,13.3999996185,0.3953472028996655,-0.02547875794280936,0.09611565931170568,13.3999996185,0.0,0.5596856160269682,1.2189038485506045
1648125667887546817,34678,32,3,2.42261600494,-0.902457654476,0.457019358873,0.0,13.3999996185,0.810239466535117,-0.30182530250033446,0.15284928390401337,13.3999996185,0.0,1.1849364959742106,2.6253313733505066
1648125667992450500,34679,33,0,0.0126463817433,0.0439508594573,0.0103058833629,0.0,12.6999998093,0.0042295591114715715,0.014699284099431437,0.003446783733411371,12.6999998093,0.0,0.015869697337714487,0.04688091562802829
1648125667992468896,34680,33,1,0.032824549824,0.0146502861753,-0.0300954841077,0.0,12.6999998093,0.0109781103090301,0.0048997612626421405,-0.010065379300234113,12.6999998093,0.0,0.016280217208174907,0.046880914238560535
1648125667992513345,34681,33,2,1.2402690649,-0.039555773139,0.249757558107,0.0,12.6999998093,0.41480570732441474,-0.013229355564882942,0.08353095588862876,12.6999998093,0.0,0.586773010206228,1.26578467772687
1648125667992518276,34682,33,3,2.4224832058,-0.902457654476,0.457722872496,0.0,12.6999998093,0.8101950521070234,-0.30182530250033446,0.15308457274113713,12.6999998093,0.0,1.1848757564178716,2.6253313940360665
1648125667992605311,34683,33,4,0.978605687618,-0.0,0.555225491524,0.0809188112617,12.6999998093,0.3272928721130435,-0.0,0.18569414432240802,12.6999998093,0.010934974494824324,0.46286201861030907,1.1251419636100886
1648125668187523046,34684,35,0,0.0126362647861,0.0439508594573,0.0103182848543,0.0,17.3999996185,0.004226175513745819,0.014699284099431437,0.003450931389397993,17.3999996185,0.0,0.015867894377697606,0.04688091548929313
1648125668187529468,34685,35,1,0.0328372865915,0.0146502861753,-0.0300815850496,0.0,17.3999996185,0.010982370097491638,0.0048997612626421405,-0.010060730785819396,17.3999996185,0.0,0.01628596224812785,0.04688091333161941
1648125668187532191,34686,35,2,1.23131322861,-0.079111546278,0.282524704933,0.0,17.3999996185,0.41181044435117053,-0.026458711129765885,0.09448986787056857,17.3999996185,0.0,0.5829886341499854,1.2657847813123513
1648125668187577269,34687,35,3,2.41798186302,-0.902457654476,0.480935096741,0.0,17.3999996185,0.8086895862943143,-0.30182530250033446,0.16084785844180602,17.3999996185,0.0,1.1828170641274824,2.6253313458101375
1648125668292544221,34688,36,0,0.0126362647861,0.0439508594573,0.0103182848543,0.0,12.3999996185,0.004226175513745819,0.014699284099431437,0.003450931389397993,12.3999996185,0.0,0.015867894377697606,0.04688091548929313
1648125668292553064,34689,36,1,0.0328889451921,0.0146502861753,-0.0300250984728,0.0,12.3999996185,0.010999647221438126,0.0048997612626421405,-0.010041838954113712,12.3999996185,0.0,0.016309265416415034,0.04688091444467014
1648125668292558846,34690,36,2,2.42079353333,-0.902457654476,0.466576397419,0.0,12.3999996185,0.809629944257525,-0.30182530250033446,0.15604561786588628,12.3999996185,0.0,1.184102954352494,2.625331347423247
1648125668487594708,34691,38,0,0.0125474631786,0.0439508594573,0.0104260900989,0.0,12.6000003815,0.004196475979464882,0.014699284099431437,0.0034869866551505016,12.6000003815,0.0,0.015852122076499706,0.046880915456121795
1648125668487600719,34692,38,1,0.0328372865915,0.0146502861753,-0.0300815850496,0.0,12.6000003815,0.010982370097491638,0.0048997612626421405,-0.010060730785819396,12.6000003815,0.0,0.01628596224812785,0.04688091333161941
1648125668487607375,34693,38,2,1.235445261,-0.118667319417,0.248604014516,0.0,12.6000003815,0.41319239498327753,-0.039688066694648826,0.08314515535652174,12.6000003815,0.0,0.585688529153502,1.2657846900869223
1648125668487618925,34694,38,3,2.42010092735,-0.902457654476,0.470155805349,0.0,12.6000003815,0.8093983034615384,-0.30182530250033446,0.15724274426387957,12.6000003815,0.0,1.1837861886853773,2.625331369177236
1648125668592369318,34695,39,0,0.0126362647861,0.0439508594573,0.0103182848543,0.0,13.3999996185,0.004226175513745819,0.014699284099431437,0.003450931389397993,13.3999996185,0.0,0.015867894377697606,0.04688091548929313
1648125668592371618,34696,39,1,0.0328762494028,0.0146502861753,-0.0300389975309,0.0,13.3999996185,0.010995401138060199,0.0048997612626421405,-0.010046487468528428,13.3999996185,0.0,0.016303538045608367,0.046880913306746805
1648125668592374398,34697,39,2,1.2378937006,-0.039555773139,0.261276453733,0.0,13.3999996185,0.41401127110367886,-0.013229355564882942,0.08738342934214047,13.3999996185,0.0,0.585649793861852,1.2657846809189464
1648125668592376402,34698,39,3,2.42340183258,-0.902457654476,0.452834695578,0.0,13.3999996185,0.8105022851438127,-0.30182530250033446,0.1514497309625418,13.3999996185,0.0,1.1852959215639371,2.62533150702795
1648125668787469994,34699,41,0,0.0126405349001,0.0439508594573,0.0103130536154,0.0,13.1000003815,0.004227603645518395,0.014699284099431437,0.003449181811170568,13.1000003815,0.0,0.01586865521091812,0.046880915567745665
1648125668787479710,34700,41,1,0.0329005159438,0.0146502861753,-0.0300124194473,0.0,13.1000003815,0.0110035170380602,0.0048997612626421405,-0.01003759847735786,13.1000003815,0.0,0.016314485429968387,0.04688091461850009
1648125668787488201,34701,41,2,1.15542078018,-0.0380907431245,0.386365801096,0.0,13.1000003815,0.3864283545752508,-0.01273937897140468,0.1292193314702341,13.1000003815,0.0,0.5466406847427738,1.2189038584892946
1648125668787633581,34702,41,3,1.34931993484,-0.0,0.166440427303,0.0,13.1000003815,0.451277570180602,-0.0,0.055665694750167215,13.1000003815,0.0,0.6382028601441836,1.359546506154691
1648125668787637860,34703,41,4,2.39139580727,-0.984499275684,0.452053964138,0.0,13.1000003815,0.7997979288528427,-0.32926397180066885,0.15118861676856185,13.1000003815,0.0,1.1780357452643555,2.6253315061804545
1648125668892456909,34704,42,0,0.0126200383529,0.0439508594573,0.0103381248191,0.0,11.6999998093,0.004220748613010033,0.014699284099431437,0.0034575668291304345,11.6999998093,0.0,0.015865005223580926,0.04688091551835667
1648125668892461805,34705,42,1,0.0328889451921,0.0146502861753,-0.0300250984728,0.0,11.6999998093,0.010999647221438126,0.0048997612626421405,-0.010041838954113712,11.6999998093,0.0,0.016309265416415034,0.04688091444467014
1648125668892463826,34706,42,2,1.1228634119,-0.0732514336705,0.32779532671,0.0,11.6999998093,0.3755396026421405,-0.02449880724765886,0.10963054405016721,11.6999998093,0.0,0.5316579519407111,1.172022947954266
1648125668892465787,34707,42,3,1.30354094505,0.123062409461,0.0934227705002,0.0,11.6999998093,0.43596687125418054,0.041157996475250834,0.031245073745886285,11.6999998093,0.0,0.6179224921753336,1.3126656718647467
1648125668892470832,34708,42,4,2.42208504677,-0.902457654476,0.459825098515,0.0,11.6999998093,0.8100618885518394,-0.30182530250033446,0.15378765836622071,11.6999998093,0.0,1.1846936480785923,2.625331391107318
1648125669087315687,34709,44,0,0.0126157794148,0.0439508594573,0.0103433215991,0.0,11.6000003815,0.004219324218996655,0.014699284099431437,0.0034593048826421402,11.6000003815,0.0,0.01586424743773941,0.0468809155091988
1648125669087320861,34710,44,1,0.0328372865915,0.0146502861753,-0.0300815850496,0.0,11.6000003815,0.010982370097491638,0.0048997612626421405,-0.010060730785819396,11.6000003815,0.0,0.01628596224812785,0.04688091333161941
1648125669087325073,34711,44,2,1.12725377083,-0.114272229373,0.449407458305,0.0,11.6000003815,0.3770079501103678,-0.03821813691404682,0.15030349776086957,11.6000003815,0.0,0.5345377581443841,1.2189037163929273
1648125669087493788,34712,44,3,1.35210132599,0.127457484603,0.0627968385816,0.0,11.6000003815,0.45220780133444816,0.04262792127190635,0.02100228715103679,11.6000003815,0.0,0.6409375405196948,1.3595465600931378
1648125669087498401,34713,44,4,2.38908076286,-0.984499275684,0.464132934809,0.0,11.6000003815,0.7990236665083611,-0.32926397180066885,0.15522840629063545,11.6000003815,0.0,1.1769844529163844,2.6253314260230947
1648125669192491523,34714,45,0,0.0126405349001,0.0439508594573,0.0103130536154,0.0,12.0,0.004227603645518395,0.014699284099431437,0.003449181811170568,12.0,0.0,0.01586865521091812,0.046880915567745665
1648125669192499481,34715,45,1,0.0328372865915,0.0146502861753,-0.0300815850496,0.0,12.0,0.010982370097491638,0.0048997612626421405,-0.010060730785819396,12.0,0.0,0.01628596224812785,0.04688091333161941
1648125669192509929,34716,45,2,1.13637876511,-0.146502867341,0.246613040566,0.0,12.0,0.3800597876622073,-0.04899761449531772,0.0824792777812709,12.0,0.0,0.5397144157996115,1.1720229433374034
1648125669192607864,34717,45,3,0.352431356907,0.219754308462,1.09596443176,0.0,12.0,0.11787001903244146,0.0734964242347826,0.36654328821404675,12.0,0.0,0.1821768567867921,1.1720229746476563
1648125669192614933,34718,45,4,1.32358968258,0.0849716588855,0.298759073019,0.0,12.0,0.44267213464214045,0.028418615011872907,0.09991942241438127,12.0,0.0,0.6266776326441305,1.3595465473300834
1648125669192617578,34719,45,5,2.39160084724,-0.984499275684,0.450967341661,0.0,12.0,0.7998665040936453,-0.32926397180066885,0.1508251978799331,12.0,0.0,1.1781288604681284,2.6253314037633793
1648125669387421336,34720,47,0,0.0126157794148,0.0439508594573,0.0103433215991,0.0,11.6999998093,0.004219324218996655,0.014699284099431437,0.0034593048826421402,11.6999998093,0.0,0.01586424743773941,0.0468809155091988
1648125669387426938,34721,47,1,0.0328889451921,0.0146502861753,-0.0300250984728,0.0,11.6999998093,0.010999647221438126,0.0048997612626421405,-0.010041838954113712,11.6999998093,0.0,0.016309265416415034,0.04688091444467014
1648125669387588307,34722,47,2,1.12850105762,-0.076181486249,0.454321563244,0.0,11.6999998093,0.3774251028829431,-0.02547875794280936,0.15194701111839465,11.6999998093,0.0,0.5343674612836271,1.2189037446513311
1648125669387591959,34723,47,3,1.35200226307,-0.0,0.143027439713,0.0,11.6999998093,0.45217466992307687,-0.0,0.047835264118060196,11.6999998093,0.0,0.639471550766793,1.3595466037827675
1648125669387593621,34724,47,4,2.38987159729,-0.984499275684,0.46004280448,0.0,11.6999998093,0.7992881596287624,-0.32926397180066885,0.1538604697257525,11.6999998093,0.0,1.1773435723574575,2.625331304294679
