%time,field.header.seq,field.header.frame_id,field.point_id,field.x,field.y,field.z,field.velocity,field.intensity,normalized_x,normalized_y,normalized_z,normalized_intensity,normalized_velocity,normalized_range,range
1648219146748387330,64766,0,0,0.00546696037054,0.0454158857465,0.0102630360052,0.0,19.7000007629,0.0018284148396454846,0.015189259446989964,0.0034324535134448156,19.7000007629,0.0,0.015407783883467653,0.046880915540081204
1648219146748393118,64767,0,1,0.0333998277783,0.0146502861753,-0.0294557418674,0.0,19.7000007629,0.01117051096264214,0.0048997612626421405,-0.009851418684749163,19.7000007629,0.0,0.016539899962330636,0.0468809141292828
1648219146748397543,64768,0,2,1.81379389763,0.114272229373,0.199945360422,0.0,19.7000007629,0.6066200326521739,0.03821813691404682,0.06687135800066889,19.7000007629,0.0,0.8587411449435912,1.8283557073611212
1648219146853489616,64769,1,0,0.00546696037054,0.0454158857465,0.0102630360052,0.0,19.7000007629,0.0018284148396454846,0.015189259446989964,0.0034324535134448156,19.7000007629,0.0,0.015407783883467653,0.046880915540081204
1648219146853506701,64770,1,1,0.0334227085114,0.0146502861753,-0.0294297784567,0.0,19.7000007629,0.01117816338173913,0.0048997612626421405,-0.00984273526979933,19.7000007629,0.0,0.016550236663220128,0.04688091497898308
1648219146853514428,64771,1,2,1.91567611694,0.120132349432,0.10143674165,0.0,19.7000007629,0.6406943534916387,0.040178043288294316,0.03392533165551839,19.7000007629,0.0,0.906969009588869,1.9221176288018738
1648219146853520988,64772,1,3,2.07054018974,-1.19546329975,-0.0161401499063,0.0,19.7000007629,0.6924883577725752,-0.39982050158862875,-0.005398043446923077,19.7000007629,0.0,1.057798035917868,2.3909265322917626
1648219147048485834,64773,3,0,0.00550753669813,0.0454158857465,0.0102413184941,0.0,11.3000001907,0.0018419855177692307,0.015189259446989964,0.00342519013180602,11.3000001907,0.0,0.015411016314419924,0.04688091555332495
1648219147048489476,64774,3,1,0.0334227085114,0.0146502861753,-0.0294297784567,0.0,11.3000001907,0.01117816338173913,0.0048997612626421405,-0.00984273526979933,11.3000001907,0.0,0.016550236663220128,0.04688091497898308
1648219147048641049,64775,3,2,1.86930036545,0.117202289402,0.0921529754996,0.0,11.3000001907,0.6251840687123745,0.03919809010100334,0.030820393143678928,11.3000001907,0.0,0.885012276644276,1.87523662608376
1648219147048648990,64776,3,3,1.7776671648,-0.0849716588855,2.05575942993,-0.161837622523,11.3000001907,0.5945375133110368,-0.028418615011872907,0.6875449598428094,11.3000001907,-0.021869948989594594,0.8412831432682669,2.7190931512855427
1648219147048652725,64777,3,4,1.42863631248,-1.27457487583,-1.930783391,-0.161837622523,11.3000001907,0.4778047867826086,-0.4262792226856187,-0.6457469535117056,11.3000001907,-0.021869948989594594,0.7989423034476291,2.7190931080775758
1648219147153585266,64778,4,0,0.00546696037054,0.0454158857465,0.0102630360052,0.0,18.2999992371,0.0018284148396454846,0.015189259446989964,0.0034324535134448156,18.2999992371,0.0,0.015407783883467653,0.046880915540081204
1648219147153595664,64779,4,1,0.0333998277783,0.0146502861753,-0.0294557418674,0.0,18.2999992371,0.01117051096264214,0.0048997612626421405,-0.009851418684749163,18.2999992371,0.0,0.016539899962330636,0.0468809141292828
1648219147153598423,64780,4,2,1.82244420052,0.114272229373,0.0923224687576,0.0,18.2999992371,0.6095131105418059,0.03821813691404682,0.03087707985204013,18.2999992371,0.0,0.862828540229098,1.8283556668909786
1648219147153600111,64781,4,3,1.9584646225,0.0629962310195,0.473516255617,0.161837622523,18.2999992371,0.6550048904682274,0.021068973585117053,0.15836664067458192,18.2999992371,0.021869948989594594,0.9265563742819536,2.0158794227434025
1648219147348567835,64782,6,0,0.00554364221171,0.0454158857465,0.0102218193933,0.0,15.3000001907,0.0018540609403712373,0.015189259446989964,0.003418668693411371,15.3000001907,0.0,0.015413912108520486,0.046880915507483835
1648219147348573759,64783,6,1,0.0333998277783,0.0146502861753,-0.0294557418674,0.0,15.3000001907,0.01117051096264214,0.0048997612626421405,-0.009851418684749163,15.3000001907,0.0,0.016539899962330636,0.0468809141292828
1648219147348716367,64784,6,2,1.85002815723,0.117202289402,-0.283146262169,0.0,15.3000001907,0.6187385141237457,0.03919809010100334,-0.09469774654481605,15.3000001907,0.0,0.875905924165197,1.8752366157275129
1648219147348720014,64785,6,3,0.956106185913,1.33317601681,-0.0288529228419,-0.323675245047,15.3000001907,0.31976795515484946,0.44587826649163875,-0.009649806970535116,15.3000001907,-0.04373989797932432,0.6350673340815259,1.640832051641789
1648219147453520966,64786,7,0,0.00550339836627,0.0454158857465,0.0102435424924,0.0,19.5,0.0018406014602909697,0.015189259446989964,0.003425933943946488,19.5,0.0,0.015410685579143596,0.04688091546152453
1648219147453681678,64787,7,1,0.0333998277783,0.0146502861753,-0.0294557418674,0.0,19.5,0.01117051096264214,0.0048997612626421405,-0.009851418684749163,19.5,0.0,0.016539899962330636,0.0468809141292828
1648219147453686849,64788,7,2,1.83332777023,0.117202289402,-0.376411169767,0.0,19.5,0.6131531004113712,0.03919809010100334,-0.12589002333344482,19.5,0.0,0.8680149418965784,1.8752366406571024
1648219147453687968,64789,7,3,1.95866453648,-0.061531201005,0.191838875413,0.0809188112617,19.5,0.6550717513311036,-0.020578996991638794,0.06416015900100333,19.5,0.010934974494824324,0.926639894404067,1.9689984787402084
1648219147453691604,64790,7,4,1.423396945,0.615311980247,-1.2133783102,0.0809188112617,19.5,0.47605248996655514,0.2057899599488294,-0.40581214387959863,19.5,0.010934974494824324,0.7039896689742364,1.9689983798202133
1648219147453750492,64791,7,5,0.915841817856,1.29508531094,0.157060444355,-0.404594063759,19.5,0.3063016113230769,0.4331388999799331,0.05252857670735785,19.5,-0.05467487348094594,0.6125770652530611,1.5939511225653469
1648219147648610389,64792,9,0,0.00554364221171,0.0454158857465,0.0102218193933,0.0,18.7999992371,0.0018540609403712373,0.015189259446989964,0.003418668693411371,18.7999992371,0.0,0.015413912108520486,0.046880915507483835
1648219147648615431,64793,9,1,0.0334378667176,0.0146502861753,-0.029412554577,0.0,18.7999992371,0.01118323301591973,0.0048997612626421405,-0.009836974774916388,18.7999992371,0.0,0.016557084942936142,0.04688091490561134
1648219147648620905,64794,9,2,1.8714877367,0.117202289402,-0.0175949595869,0.0,18.7999992371,0.6259156310033445,0.03919809010100334,-0.005884601868528428,18.7999992371,0.0,0.8860458478748129,1.8752366005020336
1648219147753578989,64795,10,0,0.00554364221171,0.0454158857465,0.0102218193933,0.0,18.2999992371,0.0018540609403712373,0.015189259446989964,0.003418668693411371,18.2999992371,0.0,0.015413912108520486,0.046880915507483835
1648219147753580764,64796,10,1,0.0334834195673,0.0146502861753,-0.0293606836349,0.0,18.2999992371,0.011198468082709028,0.0048997612626421405,-0.009819626633745818,18.2999992371,0.0,0.016577666760729453,0.0468809131144725
1648219147753582730,64797,10,2,1.87402617931,0.0586011447012,-0.033223066479,0.0,18.2999992371,0.6267646084648829,0.019599045050568562,-0.011111393471237458,18.2999992371,0.0,0.8865956639952455,1.8752365149617247
1648219147948516216,64798,12,0,0.00554364221171,0.0454158857465,0.0102218193933,0.0,13.0,0.0018540609403712373,0.015189259446989964,0.003418668693411371,13.0,0.0,0.015413912108520486,0.046880915507483835
1648219147948523561,64799,12,1,0.0334518700838,0.0146502861753,-0.0293966270983,0.0,13.0,0.011187916415986623,0.0048997612626421405,-0.00983164785896321,13.0,0.0,0.016563411722622077,0.0468809149001822
1648219147948525722,64800,12,2,1.79537940025,0.171408340335,0.30019402504,0.0,13.0,0.6004613378762542,0.05732720412541805,0.10039933947826085,13.0,0.0,0.8511134148285524,1.8283556718122886
1648219147948624006,64801,12,3,1.84256017208,0.0586011447012,-0.34358432889,0.0809188112617,13.0,0.6162408602274247,0.019599045050568562,-0.11491114678595317,13.0,0.010934974494824324,0.8717165354601042,1.875236591194445
1648219147948627218,64802,12,4,1.03983545303,1.19546329975,0.174040272832,0.485512852669,13.0,0.3477710545250836,0.39982050158862875,0.0582074491076923,13.0,0.06560984495527027,0.6338342419131047,1.5939511557744488
1648219148053594007,64803,13,0,0.00554364221171,0.0454158857465,0.0102218193933,0.0,22.2000007629,0.0018540609403712373,0.015189259446989964,0.003418668693411371,22.2000007629,0.0,0.015413912108520486,0.046880915507483835
1648219148053595688,64804,13,1,0.0333998277783,0.0146502861753,-0.0294557418674,0.0,22.2000007629,0.01117051096264214,0.0048997612626421405,-0.009851418684749163,22.2000007629,0.0,0.016539899962330636,0.0468809141292828
1648219148053597568,64805,13,2,1.81852316856,0.171408340335,0.0804806649685,0.0,22.2000007629,0.6082017286153846,0.05732720412541805,0.026916610357357856,22.2000007629,0.0,0.8620354364608923,1.828355674139929
1648219148248536012,64806,15,0,0.00550753669813,0.0454158857465,0.0102413184941,0.0,21.5,0.0018419855177692307,0.015189259446989964,0.00342519013180602,21.5,0.0,0.015411016314419924,0.04688091555332495
1648219148248538715,64807,15,1,0.0335348397493,0.0146502861753,-0.0293019413948,0.0,21.5,0.01121566546799331,0.0048997612626421405,-0.009799980399598661,21.5,0.0,0.016600902511934818,0.04688091436324287
1648219148248543201,64808,15,2,1.86103498936,0.175803437829,-0.148842468858,0.0,21.5,0.6224197288829431,0.05879713639765886,-0.04978008991906355,21.5,0.0,0.882195976557362,1.8752365613197752
1648219148248547869,64809,15,3,0.955956757069,1.33317601681,-0.0334413647652,-0.161837622523,21.5,0.31971797895284276,0.44587826649163875,-0.011184402931505017,21.5,-0.021869948989594594,0.6350170081666866,1.6408320871011193
1648219148353560013,64810,16,0,0.00554364221171,0.0454158857465,0.0102218193933,0.0,22.3999996185,0.0018540609403712373,0.015189259446989964,0.003418668693411371,22.3999996185,0.0,0.015413912108520486,0.046880915507483835
1648219148353566573,64811,16,1,0.0334518700838,0.0146502861753,-0.0293966270983,0.0,22.3999996185,0.011187916415986623,0.0048997612626421405,-0.00983164785896321,22.3999996185,0.0,0.016563411722622077,0.0468809149001822
1648219148353569971,64812,16,2,1.91709113121,0.120132349432,-0.0697562918067,0.0,22.3999996185,0.6411676024113712,0.040178043288294316,-0.02332986348050167,22.3999996185,0.0,0.9076376280908413,1.9221176152854724
1648219148353576675,64813,16,3,0.819617331028,1.34489619732,0.245279103518,-0.242756426334,22.3999996185,0.2741195087050167,0.4497980593043478,0.08203314498929766,22.3999996185,-0.03280492247756756,0.5938024117998487,1.5939511251948262
1648219148548628463,64814,18,0,0.00554364221171,0.0454158857465,0.0102218193933,0.0,20.2999992371,0.0018540609403712373,0.015189259446989964,0.003418668693411371,20.2999992371,0.0,0.015413912108520486,0.046880915507483835
1648219148548635088,64815,18,1,0.0333998277783,0.0146502861753,-0.0294557418674,0.0,20.2999992371,0.01117051096264214,0.0048997612626421405,-0.009851418684749163,20.2999992371,0.0,0.016539899962330636,0.0468809141292828
1648219148548637613,64816,18,2,1.86631512642,0.175803437829,0.0497316867113,0.0,20.2999992371,0.6241856610100334,0.05879713639765886,0.01663267114090301,20.2999992371,0.0,0.8846878444228955,1.8752365825462523
1648219148653699006,64817,19,0,0.00554364221171,0.0454158857465,0.0102218193933,0.0,15.6000003815,0.0018540609403712373,0.015189259446989964,0.003418668693411371,15.6000003815,0.0,0.015413912108520486,0.046880915507483835
1648219148653729782,64818,19,1,0.0333998277783,0.0146502861753,-0.0294557418674,0.0,15.6000003815,0.01117051096264214,0.0048997612626421405,-0.009851418684749163,15.6000003815,0.0,0.016539899962330636,0.0468809141292828
1648219148653739356,64819,19,2,1.92211735249,-0.0,0.000908492773306,0.0,15.6000003815,0.6428486128729096,-0.0,0.0003038437368916388,15.6000003815,0.0,0.9091252268776002,1.9221175671904895
1648219148653746823,64820,19,3,0.778802096844,1.34489619732,0.354121088982,0.485512852669,15.6000003815,0.26046892871036786,0.4497980593043478,0.1184351468167224,15.6000003815,0.06560984495527027,0.5813831953204452,1.593951138923714
1648219148653751433,64821,19,4,0.956057608128,1.50311934948,0.015451496467,-0.161837622523,15.6000003815,0.31975170840401335,0.5027155014983277,0.005167724570903009,15.6000003815,-0.021869948989594594,0.6761694946544731,1.7814748602165793
1648219148848581619,64822,21,0,0.00554762780666,0.0454158857465,0.0102196568623,0.0,22.7000007629,0.001855393915270903,0.015189259446989964,0.0034179454388963207,22.7000007629,0.0,0.015414232893972455,0.046880915507309835
1648219148848584614,64823,21,1,0.0334834195673,0.0146502861753,-0.0293606836349,0.0,22.7000007629,0.011198468082709028,0.0048997612626421405,-0.009819626633745818,22.7000007629,0.0,0.016577666760729453,0.0468809131144725
1648219148848777885,64824,21,2,1.86611437798,0.117202289402,-0.142803966999,0.0,22.7000007629,0.6241185210635452,0.03919809010100334,-0.04776052407993311,22.7000007629,0.0,0.8835068460044099,1.8752365774310729
1648219148848781325,64825,21,3,2.1118645668,-1.12074685097,-0.0220011696219,0.0,22.7000007629,0.7063092196655518,-0.3748317227324415,-0.007358250709665551,22.7000007629,0.0,1.066885302146248,2.3909264948821107
1648219148848782391,64826,21,4,1.01112020016,1.40935754776,-0.0127736097202,-0.0809188112617,22.7000007629,0.3381672910234113,0.4713570393846154,-0.004272110274314381,22.7000007629,-0.010934974494824324,0.671484692315212,1.7345938780316743
