%time,field.header.seq,field.header.frame_id,field.point_id,field.x,field.y,field.z,field.velocity,field.intensity,normalized_x,normalized_y,normalized_z,normalized_intensity,normalized_velocity,normalized_range,range
1648296075671780021,73746,0,0,0.0127334436402,0.0439508594573,0.0101981181651,0.0,12.6999998093,0.004258676802742474,0.014699284099431437,0.003410741861237458,12.6999998093,0.0,0.015885263902631005,0.0468809156062766
1648296075671791813,73747,0,1,0.0335041433573,0.0146502861753,-0.0293370354921,0.0,12.6999998093,0.011205399116153847,0.0048997612626421405,-0.009811717555886288,12.6999998093,0.0,0.016587031052466603,0.046880914651800804
1648296075671794476,73748,0,2,1.82121956348,-0.0586011447012,0.442987024784,0.0,12.6999998093,0.6091035329364548,-0.019599045050568562,0.1481561955799331,12.6999998093,0.0,0.8616254117876492,1.8752365975229772
1648296075671799095,73749,0,3,2.23996400833,-1.2306240797,0.600408315659,0.0,12.6999998093,0.749151842250836,-0.4115799597658863,0.20080545674214045,12.6999998093,0.0,1.1365980066745371,2.6253313180746822
1648296075776744617,73750,1,0,0.0127016305923,0.0439508594573,0.0102377133444,0.0,16.1000003815,0.0042480369873913034,0.014699284099431437,0.0034239843961204014,16.1000003815,0.0,0.01587956515551629,0.04688091553351634
1648296075776766778,73751,1,1,0.0335041433573,0.0146502861753,-0.0293370354921,0.0,16.1000003815,0.011205399116153847,0.0048997612626421405,-0.009811717555886288,16.1000003815,0.0,0.016587031052466603,0.046880914651800804
1648296075776778623,73752,1,2,1.8583881855,-0.117202289402,0.221740737557,0.0,16.1000003815,0.6215345102006689,-0.03919809010100334,0.07416078179163879,16.1000003815,0.0,0.8798561160828156,1.8752365129069386
1648296075776789668,73753,1,3,2.23827147484,-1.2306240797,0.606687486172,0.0,16.1000003815,0.7485857775384614,-0.4115799597658863,0.20290551376989965,16.1000003815,0.0,1.135851837145415,2.625331317471683
1648296075776815577,73754,1,4,2.00290989876,-0.0629962310195,0.219438463449,0.161837622523,16.1000003815,0.6698695313578595,-0.021068973585117053,0.07339079045117057,16.1000003815,0.021869948989594594,0.9475728361087221,2.0158794177515467
1648296075971882711,73755,3,0,0.0127217965201,0.0439508594573,0.010212643072,0.0,20.5,0.004254781444849498,0.014699284099431437,0.0034155996896321067,20.5,0.0,0.015883176109414296,0.046880915437416903
1648296075971917569,73756,3,1,0.033517640084,0.0146502861753,-0.0293216109276,0.0,20.5,0.011209913071571907,0.0048997612626421405,-0.009806558838662207,20.5,0.0,0.016593129981268932,0.04688091241868381
1648296075971923854,73757,3,2,2.24185109138,-1.2306240797,0.593323469162,0.0,20.5,0.7497829737056856,-0.4115799597658863,0.19843594286354513,20.5,0.0,1.1374300323970572,2.625331346805123
1648296076076875008,73758,4,0,0.0127217965201,0.0439508594573,0.010212643072,0.0,15.6999998093,0.004254781444849498,0.014699284099431437,0.0034155996896321067,15.6999998093,0.0,0.015883176109414296,0.046880915437416903
1648296076076885436,73759,4,1,0.033517640084,0.0146502861753,-0.0293216109276,0.0,15.6999998093,0.011209913071571907,0.0048997612626421405,-0.009806558838662207,15.6999998093,0.0,0.016593129981268932,0.04688091241868381
1648296076076933400,73760,4,2,2.24118733406,-1.2306240797,0.595826089382,0.0,15.6999998093,0.7495609812909699,-0.4115799597658863,0.1992729395926421,15.6999998093,0.0,1.1371373675280627,2.625331411589152
1648296076076949241,73761,4,3,1.90641748905,-0.180198520422,0.166243344545,-0.0809188112617,15.6999998093,0.6375978224247492,-0.06026706368628762,0.05559978078428093,15.6999998093,-0.010934974494824324,0.9037112842534007,1.922117581971377
1648296076272090720,73762,6,0,0.0128108067438,0.0439508594573,0.0101007642224,0.0,15.3000001907,0.004284550750434783,0.014699284099431437,0.0033781820141806015,15.3000001907,0.0,0.01589917303830298,0.046880915672999006
1648296076272119784,73763,6,1,0.033517640084,0.0146502861753,-0.0293216109276,0.0,15.3000001907,0.011209913071571907,0.0048997612626421405,-0.009806558838662207,15.3000001907,0.0,0.016593129981268932,0.04688091241868381
1648296076272241985,73764,6,2,1.91250503063,-0.180198520422,0.0662490054965,0.0,15.3000001907,0.6396337895083611,-0.06026706368628762,0.022156858025585282,15.3000001907,0.0,0.9065841871150301,1.9221175639582015
1648296076272248139,73765,6,3,2.23882365227,-1.2306240797,0.604647040367,0.0,15.3000001907,0.7487704522642139,-0.4115799597658863,0.2022230904237458,15.3000001907,0.0,1.1360952616963067,2.6253314104938497
1648296076377150389,73766,7,0,0.0127217965201,0.0439508594573,0.010212643072,0.0,16.2999992371,0.004254781444849498,0.014699284099431437,0.0034155996896321067,16.2999992371,0.0,0.015883176109414296,0.046880915437416903
1648296076377156963,73767,7,1,0.0335269682109,0.0146502861753,-0.0293109472841,0.0,16.2999992371,0.01121303284645485,0.0048997612626421405,-0.00980299240270903,16.2999992371,0.0,0.016597345319726262,0.046880914166899254
1648296076377166931,73768,7,2,1.96292304993,-0.0,0.154557645321,0.0,16.2999992371,0.6564960033210703,-0.0,0.05169152017424749,16.2999992371,0.0,0.92842555154039,1.9689984676666628
1648296076377176294,73769,7,3,2.24225592613,-1.2306240797,0.591791927814,0.0,16.2999992371,0.7499183699431438,-0.4115799597658863,0.19792372167692307,16.2999992371,0.0,1.1376085383106318,2.6253313980578503
1648296076571754101,73770,9,0,0.0127217965201,0.0439508594573,0.010212643072,0.0,16.2000007629,0.004254781444849498,0.014699284099431437,0.0034155996896321067,16.2000007629,0.0,0.015883176109414296,0.046880915437416903
1648296076571761917,73771,9,1,0.0335404723883,0.0146502861753,-0.0292954929173,0.0,16.2000007629,0.011217549293745818,0.0048997612626421405,-0.009797823718160533,16.2000007629,0.0,0.016603447977637752,0.046880913795659694
1648296076571769794,73772,9,2,1.86371231079,-0.117202289402,0.171325728297,0.0,16.2000007629,0.6233151541103679,-0.03919809010100334,0.05729957468127089,16.2000007629,0.0,0.882371833727046,1.8752366408556997
1648296076571793666,73773,9,3,2.2395157814,-1.2306240797,0.602078616619,0.0,16.2000007629,0.7490019335785953,-0.4115799597658863,0.2013640858257525,16.2000007629,0.0,1.1364003943548409,2.625331449792002
1648296076677045579,73774,10,0,0.0127217965201,0.0439508594573,0.010212643072,0.0,16.2999992371,0.004254781444849498,0.014699284099431437,0.0034155996896321067,16.2999992371,0.0,0.015883176109414296,0.046880915437416903
1648296076677084847,73775,10,1,0.0334416292608,0.0146502861753,-0.0294082760811,0.0,16.2999992371,0.011184491391571906,0.0048997612626421405,-0.009835543839832775,16.2999992371,0.0,0.016558784852977005,0.04688091461028868
1648296076677087661,73776,10,2,2.2388548851,-1.2306240797,0.604531407356,0.0,16.2999992371,0.7487808980267557,-0.4115799597658863,0.2021844171759197,16.2999992371,0.0,1.136109030762628,2.625331416136529
1648296076871858779,73777,12,0,0.0127217965201,0.0439508594573,0.010212643072,0.0,15.8000001907,0.004254781444849498,0.014699284099431437,0.0034155996896321067,15.8000001907,0.0,0.015883176109414296,0.046880915437416903
1648296076871873427,73778,12,1,0.0334186702967,0.0146502861753,-0.029434364289,0.0,15.8000001907,0.01117681280826087,0.0048997612626421405,-0.009844268992976588,15.8000001907,0.0,0.016548412296431853,0.04688091520560668
1648296076871890530,73779,12,2,1.85531830788,-0.117202289402,0.246109202504,0.0,15.8000001907,0.6205077952775919,-0.03919809010100334,0.08231077006822742,15.8000001907,0.0,0.8784055659364199,1.8752365556784911
1648296076871972255,73780,12,3,2.24130105972,-1.2306240797,0.595397889614,0.0,15.8000001907,0.7495990166287625,-0.4115799597658863,0.19912972896789297,15.8000001907,0.0,1.1371875108101144,2.6253313529526654
1648296076976795688,73781,13,0,0.0127217965201,0.0439508594573,0.010212643072,0.0,16.0,0.004254781444849498,0.014699284099431437,0.0034155996896321067,16.0,0.0,0.015883176109414296,0.046880915437416903
1648296076976821740,73782,13,1,0.033517640084,0.0146502861753,-0.0293216109276,0.0,16.0,0.011209913071571907,0.0048997612626421405,-0.009806558838662207,16.0,0.0,0.016593129981268932,0.04688091241868381
1648296076976885406,73783,13,2,1.9053555727,-0.120132349432,0.222990185022,0.0,16.0,0.6372426664548495,-0.040178043288294316,0.07457865719799331,16.0,0.0,0.9020924049472145,1.9221176505133974
1648296076976890062,73784,13,3,2.23915243149,-1.2306240797,0.603428006172,0.0,16.0,0.7488804118695651,-0.4115799597658863,0.20181538667959864,16.0,0.0,1.1362402060500885,2.625331330635767
1648296077171744485,73785,15,0,0.0127121871337,0.0439508594573,0.0102246021852,0.0,16.1000003815,0.004251567603244147,0.014699284099431437,0.003419599393043478,16.1000003815,0.0,0.01588145482018912,0.04688091550517269
1648296077171752959,73786,15,1,0.0334416292608,0.0146502861753,-0.0294082760811,0.0,16.1000003815,0.011184491391571906,0.0048997612626421405,-0.009835543839832775,16.1000003815,0.0,0.016558784852977005,0.04688091461028868
1648296077171759418,73787,15,2,1.85499453545,-0.117202289402,0.248538166285,0.0,16.1000003815,0.6203995101839465,-0.03919809010100334,0.0831231325367893,16.1000003815,0.0,0.8782525802640877,1.8752366046157325
1648296077171763956,73788,15,3,2.2386302948,-1.2306240797,0.605362415314,0.0,16.1000003815,0.7487057842140468,-0.4115799597658863,0.20246234625886286,16.1000003815,0.0,1.1360100201635681,2.6253313840748955
