%time,field.header.seq,field.header.frame_id,field.point_id,field.x,field.y,field.z,field.velocity,field.intensity,normalized_x,normalized_y,normalized_z,normalized_intensity,normalized_velocity,normalized_range,range
1648294889965503546,27899,0,0,0.0126092592254,0.0439508594573,0.0103512695059,0.0,19.2999992371,0.004217143553645485,0.014699284099431437,0.0034619630454515047,19.2999992371,0.0,0.015863087736626348,0.04688091558014249
1648294889965507558,27900,0,1,0.033514522016,0.0146502861753,-0.0293251797557,0.0,19.2999992371,0.011208870239464881,0.0048997612626421405,-0.009807752426655518,19.2999992371,0.0,0.016591720963215706,0.0468809155060271
1648294889965535182,27901,0,2,0.340992808342,-0.612381994724,-0.549659311771,0.0,19.2999992371,0.11404441750568561,-0.20481003168026754,-0.18383254574280936,19.2999992371,0.0,0.2606902518417105,0.8907374258554979
1648294889965540573,27902,0,3,2.23558449745,-1.2306240797,0.616515874863,0.0,19.2999992371,0.7476871228929766,-0.4115799597658863,0.20619260028862874,19.2999992371,0.0,1.134667409755318,2.6253315018744456
1648294890160613382,27903,2,0,0.0127002792433,0.0439508594573,0.010239389725,0.0,14.3000001907,0.004247585031204013,0.014699284099431437,0.003424545058528428,14.3000001907,0.0,0.015879323355559413,0.04688091553962624
1648294890160617110,27904,2,1,0.0335515737534,0.0146502861753,-0.0292827803642,0.0,14.3000001907,0.011221262124882943,0.0048997612626421405,-0.009793572028160535,14.3000001907,0.0,0.01660846494356277,0.04688091522363875
1648294890160629135,27905,2,2,0.334439069033,-0.612381994724,-0.553671360016,0.0,14.3000001907,0.11185253144916388,-0.20481003168026754,-0.18517436789832775,14.3000001907,0.0,0.25878393818018264,0.8907374322771958
1648294890160726356,27906,2,3,1.46983659267,-1.68478298187,0.704015612602,0.0,14.3000001907,0.4915841447056856,-0.5634725691872909,0.23545672662274245,14.3000001907,0.0,0.8948805947603107,2.3440459227450927
1648294890160731059,27907,2,4,2.23949933052,-1.2306240797,0.602139353752,0.0,14.3000001907,0.7489964316120401,-0.4115799597658863,0.2013843992481605,14.3000001907,0.0,1.1363931416618227,2.6253313463778007
1648294890160733894,27908,2,5,1.92032909393,-0.0600661747158,-0.0571319721639,0.161837622523,14.3000001907,0.6422505330869565,-0.020089021644080267,-0.019107682997959865,14.3000001907,0.021869948989594594,0.9085015483154533,1.9221175397416101
1648294890265659342,27909,3,0,0.0127002792433,0.0439508594573,0.010239389725,0.0,30.6000003815,0.004247585031204013,0.014699284099431437,0.003424545058528428,30.6000003815,0.0,0.015879323355559413,0.04688091553962624
1648294890265660977,27910,3,1,0.033514522016,0.0146502861753,-0.0293251797557,0.0,30.6000003815,0.011208870239464881,0.0048997612626421405,-0.009807752426655518,30.6000003815,0.0,0.016591720963215706,0.0468809155060271
1648294890265662600,27911,3,2,0.324459135532,-0.612381994724,-0.559578180313,0.0,30.6000003815,0.10851476104749164,-0.20481003168026754,-0.1871498930812709,30.6000003815,0.0,0.2559258795183883,0.8907374349238535
1648294890265665232,27912,3,3,2.23978662491,-1.2306240797,0.601069629192,0.0,30.6000003815,0.7490925166923076,-0.4115799597658863,0.2010266318367893,30.6000003815,0.0,1.1365198020314995,2.625331302864499
1648294890265666298,27913,3,4,1.86474514008,-0.117202289402,0.159690752625,0.0809188112617,30.6000003815,0.6236605819665552,-0.03919809010100334,0.05340827846989966,30.6000003815,0.010934974494824324,0.8828598604904919,1.8752365052352697
1648294890460624393,27914,5,0,0.0127122588456,0.0439508594573,0.0102245127782,0.0,18.0,0.004251591587157191,0.014699284099431437,0.0034195694910367893,18.0,0.0,0.015881467661515717,0.04688091545122009
1648294890460632041,27915,5,1,0.033649418503,0.0146502861753,-0.0291702933609,0.0,18.0,0.011253986121404682,0.0048997612626421405,-0.009755950956822742,18.0,0.0,0.016652689502672742,0.04688091579064121
1648294890460664827,27916,5,2,0.326897084713,-0.612381994724,-0.558157444,0.0,18.0,0.10933012866655517,-0.20481003168026754,-0.1866747304347826,18.0,0.0,0.2566189843822222,0.8907374157116207
1648294890460687437,27917,5,3,1.92062783241,-0.0600661747158,0.0460087768734,0.0,18.0,0.6423504456220736,-0.020089021644080267,0.015387550793779263,18.0,0.0,0.9086428114349275,1.9221175883702615
1648294890460695783,27918,5,4,2.23808336258,-1.2306240797,0.607381403446,0.0,18.0,0.7485228637391304,-0.4115799597658863,0.2031375931257525,18.0,0.0,1.135768910633385,2.6253313948236907
1648294890460702614,27919,5,5,1.85919237137,-0.117202289402,0.214894965291,-0.0809188112617,18.0,0.6218034686856186,-0.03919809010100334,0.07187122584983277,18.0,-0.010934974494824324,0.8802361033305215,1.8752366508014113
1648294890565688881,27920,6,0,0.0126920221373,0.0439508594573,0.0102496230975,0.0,17.5,0.00424482345729097,0.014699284099431437,0.0034279675911371237,17.5,0.0,0.015877846371688233,0.04688091559056686
1648294890565696872,27921,6,1,0.033514522016,0.0146502861753,-0.0293251797557,0.0,17.5,0.011208870239464881,0.0048997612626421405,-0.009807752426655518,17.5,0.0,0.016591720963215706,0.0468809155060271
1648294890565702230,27922,6,2,0.325426846743,-0.612381994724,-0.559015929699,0.0,17.5,0.10883841028193979,-0.20481003168026754,-0.18696184939765886,17.5,0.0,0.2562006014479121,0.890737419052593
1648294890565723681,27923,6,3,2.2366361618,-1.2306240797,0.612689256668,0.0,17.5,0.7480388501003343,-0.4115799597658863,0.2049127948722408,17.5,0.0,1.1351309641621752,2.625331421181961
1648294890565840469,27924,6,4,1.91716098785,-0.120132349432,-0.0678087174892,0.161837622523,17.5,0.6411909658361203,-0.040178043288294316,-0.02267850083250836,17.5,0.021869948989594594,0.9076706365759497,1.922117597047998
1648294890565844792,27925,6,5,1.84599256516,-0.117202289402,0.308362156153,-0.0809188112617,17.5,0.6173888177792641,-0.03919809010100334,0.10313115590401337,17.5,-0.010934974494824324,0.8739990817531339,1.875236557507984
1648294890760597593,27926,8,0,0.0126214576885,0.0439508594573,0.0103363925591,0.0,15.6999998093,0.0042212233071906346,0.014699284099431437,0.003456987477959866,15.6999998093,0.0,0.015865257812406854,0.046880915651827344
1648294890760766763,27927,8,1,0.033514522016,0.0146502861753,-0.0293251797557,0.0,15.6999998093,0.011208870239464881,0.0048997612626421405,-0.009807752426655518,15.6999998093,0.0,0.016591720963215706,0.0468809155060271
1648294890760779562,27928,8,2,0.347717195749,-0.612381994724,-0.54543030262,0.0,15.6999998093,0.11629337650468227,-0.20481003168026754,-0.18241816141137124,15.6999998093,0.0,0.26266984584187003,0.8907374308390988
1648294890760782307,27929,8,3,2.23624539375,-1.2306240797,0.61411434412,0.0,15.6999998093,0.747908158444816,-0.4115799597658863,0.20538941274916386,15.6999998093,0.0,1.134958717406726,2.6253315055930564
1648294890760787902,27930,8,4,1.96748971939,-0.061531201005,-0.0463977046311,0.0809188112617,15.6999998093,0.6580233175217391,-0.020578996991638794,-0.015517626966923074,15.6999998093,0.010934974494824324,0.9308130144781028,1.9689983828326252
1648294890865512579,27931,9,0,0.0126214576885,0.0439508594573,0.0103363925591,0.0,16.5,0.0042212233071906346,0.014699284099431437,0.003456987477959866,16.5,0.0,0.015865257812406854,0.046880915651827344
1648294890865520387,27932,9,1,0.0335651524365,0.0146502861753,-0.0292672142386,0.0,16.5,0.011225803490468226,0.0048997612626421405,-0.009788365966086955,16.5,0.0,0.01661460166372055,0.046880914799007266
1648294890865523399,27933,9,2,0.358876496553,-0.5845464468,-0.568266034126,0.0,16.5,0.12002558413143813,-0.19550048387959865,-0.19005552980802673,16.5,0.0,0.2589067803077839,0.8907374325725583
1648294890865526014,27934,9,3,1.96481716633,-0.12306240201,-0.0361109115183,0.0,16.5,0.6571294870668896,-0.04115799398327759,-0.012077227932541805,16.5,0.0,0.9302323935524468,1.96899843824829
1648294890865531627,27935,9,4,2.23757338524,-1.2306240797,0.609257400036,0.0,16.5,0.7483523027558528,-0.4115799597658863,0.20376501673444816,16.5,0.0,1.1355440992585288,2.6253313808680407
1648294891060671567,27936,11,0,0.0127002792433,0.0439508594573,0.010239389725,0.0,14.6000003815,0.004247585031204013,0.014699284099431437,0.003424545058528428,14.6000003815,0.0,0.015879323355559413,0.04688091553962624
1648294891060689721,27937,11,1,0.033514522016,0.0146502861753,-0.0293251797557,0.0,14.6000003815,0.011208870239464881,0.0048997612626421405,-0.009807752426655518,14.6000003815,0.0,0.016591720963215706,0.0468809155060271
1648294891060698827,27938,11,2,0.353089511395,-0.612381994724,-0.54196792841,0.0,14.6000003815,0.118090137590301,-0.20481003168026754,-0.18126017672575248,14.6000003815,0.0,0.2642682543724551,0.8907374169441474
1648294891060809935,27939,11,3,1.85758674145,-0.0586011447012,0.249899953604,0.0,14.6000003815,0.6212664687123746,-0.019599045050568562,0.08357857980066889,14.6000003815,0.0,0.8788220370812182,1.8752366738581032
1648294891060813689,27940,11,4,2.23873448372,-1.2306240797,0.604976832867,0.0,14.6000003815,0.7487406300066889,-0.4115799597658863,0.20233338891872907,14.6000003815,0.0,1.136055951670742,2.625331347171308
1648294891165649179,27941,12,0,0.0126214576885,0.0439508594573,0.0103363925591,0.0,14.6000003815,0.0042212233071906346,0.014699284099431437,0.003456987477959866,14.6000003815,0.0,0.015865257812406854,0.046880915651827344
1648294891165651500,27942,12,1,0.0335994325578,0.0146502861753,-0.0292278509587,0.0,14.6000003815,0.011237268413979932,0.0048997612626421405,-0.009775200989531772,14.6000003815,0.0,0.01663009510635915,0.0468809132258355
1648294891165653836,27943,12,2,0.344522356987,-0.612381994724,-0.547453939915,0.0,14.6000003815,0.11522486855752508,-0.20481003168026754,-0.18309496318227425,14.6000003815,0.0,0.2617263642529542,0.8907374350808882
1648294891165655462,27944,12,3,1.84015715122,-0.117202289402,0.341463476419,0.0,14.6000003815,0.6154371743210701,-0.03919809010100334,0.11420183157826086,14.6000003815,0.0,0.8712418271296282,1.8752365246963714
1648294891165659766,27945,12,4,2.23655676842,-1.2306240797,0.612978577614,0.0,14.6000003815,0.7480122971304347,-0.4115799597658863,0.20500955773043478,14.6000003815,0.0,1.1350959680122155,2.625331320141606
1648294891360603762,27946,14,0,0.0127002792433,0.0439508594573,0.010239389725,0.0,14.8999996185,0.004247585031204013,0.014699284099431437,0.003424545058528428,14.8999996185,0.0,0.015879323355559413,0.04688091553962624
1648294891360608352,27947,14,1,0.033514522016,0.0146502861753,-0.0293251797557,0.0,14.8999996185,0.011208870239464881,0.0048997612626421405,-0.009807752426655518,14.8999996185,0.0,0.016591720963215706,0.0468809155060271
1648294891360610406,27948,14,2,0.371788144112,-0.5845464468,-0.559903740883,0.0,14.8999996185,0.1243438609070234,-0.19550048387959865,-0.18725877621505016,14.8999996185,0.0,0.26295100434812485,0.8907374313587187
1648294891360611988,27949,14,3,1.90644311905,-0.0600661747158,0.237491950393,0.0,14.8999996185,0.6376063943311037,-0.020089021644080267,0.07942874595083611,14.8999996185,0.0,0.9019353618605038,1.9221175141024944
1648294891360616841,27950,14,4,2.23920512199,-1.2306240797,0.603232324123,0.0,14.8999996185,0.7488980341103678,-0.4115799597658863,0.20174994117826084,14.8999996185,0.0,1.1362634352427416,2.6253313011409736
1648294891465598774,27951,15,0,0.0126799661666,0.0439508594573,0.0102645335719,0.0,14.8000001907,0.004240791360066889,0.014699284099431437,0.00343295437187291,14.8000001907,0.0,0.015875691347309377,0.04688091550375397
1648294891465605667,27952,15,1,0.033514522016,0.0146502861753,-0.0293251797557,0.0,14.8000001907,0.011208870239464881,0.0048997612626421405,-0.009807752426655518,14.8000001907,0.0,0.016591720963215706,0.0468809155060271
1648294891465608773,27953,15,2,0.381767123938,-0.5845464468,-0.553147792816,0.0,14.8000001907,0.12768131235384614,-0.19550048387959865,-0.18499926181137122,14.8000001907,0.0,0.266130558647364,0.8907374282489818
1648294891465612245,27954,15,3,1.96450388432,-0.12306240201,0.0503478087485,0.0,14.8000001907,0.6570247104749164,-0.04115799398327759,0.016838732022909697,14.8000001907,0.0,0.9300843622048609,1.9689984175063764
1648294891465615138,27955,15,4,2.23568916321,-1.2306240797,0.616135835648,0.0,14.8000001907,0.7477221281638795,-0.4115799597658863,0.2060654968722408,14.8000001907,0.0,1.134713543222575,2.625331412984228
