%time,field.header.seq,field.header.frame_id,field.point_id,field.x,field.y,field.z,field.velocity,field.intensity,normalized_x,normalized_y,normalized_z,normalized_intensity,normalized_velocity,normalized_range,range
1648294731865047240,22677,0,0,0.0126902572811,0.0439508594573,0.0102518079802,0.0,26.7999992371,0.004244233204381271,0.014699284099431437,0.0034286983211371234,26.7999992371,0.0,0.015877530791094153,0.04688091556015881
1648294731865063627,22678,0,1,0.033514522016,0.0146502861753,-0.0293251797557,0.0,26.7999992371,0.011208870239464881,0.0048997612626421405,-0.009807752426655518,26.7999992371,0.0,0.016591720963215706,0.0468809155060271
1648294731865066122,22679,0,2,0.37407797575,-0.807230770588,0.0430965460837,0.0,26.7999992371,0.12510969088628762,-0.2699768463505016,0.014413560563110366,26.7999992371,0.0,0.322788424626236,0.8907374255130736
1648294731865087324,22680,0,3,2.23883581161,-1.2306240797,0.604601323605,0.0,26.7999992371,0.7487745189331103,-0.4115799597658863,0.20220780053678927,26.7999992371,0.0,1.1361006221668528,2.6253312509833493
1648294731865091504,22681,0,4,1.74837076664,-0.167013257742,0.298259675503,-0.566431701183,26.7999992371,0.5847393868361204,-0.05585727683678929,0.09975239983377925,26.7999992371,-0.07654482448418919,0.8288307043121568,1.7814748384229544
1648294732060107400,22682,2,0,0.00631579104811,0.0454158857465,0.00976362358779,0.0,20.2999992371,0.0021123046983645482,0.015189259446989964,0.003265425949093645,20.2999992371,0.0,0.015480221730499849,0.04688091552291377
1648294732060109687,22683,2,1,0.0335372425616,0.0146502861753,-0.0292991939932,0.0,20.2999992371,0.011216469084147156,0.0048997612626421405,-0.00979906153618729,20.2999992371,0.0,0.016601988370738802,0.04688091607791967
1648294732060111555,22684,2,2,2.24008870125,-1.2306240797,0.599943459034,0.0,20.2999992371,0.7491935455685618,-0.4115799597658863,0.20064998629899666,20.2999992371,0.0,1.1366529816633015,2.6253314398458465
1648294732165201965,22685,3,0,0.00631333654746,0.0454158857465,0.00976521056145,0.0,15.1000003815,0.0021114837951371236,0.015189259446989964,0.0032659567095150496,15.1000003815,0.0,0.015479997744903816,0.04688091545405326
1648294732165205584,22686,3,1,0.0336130186915,0.0146502861753,-0.0292122270912,0.0,15.1000003815,0.01124181227140468,0.0048997612626421405,-0.009769975615785952,15.1000003815,0.0,0.016636235954142337,0.04688091426370814
1648294732165207242,22687,3,2,1.91127300262,-0.120132349432,0.164741322398,0.0,15.1000003815,0.639221740006689,-0.040178043288294316,0.05509743224013377,15.1000003815,0.0,0.9048884687942675,1.922117575807881
1648294732165208999,22688,3,3,2.23891758919,-1.2306240797,0.60429918766,0.0,15.1000003815,0.7488018692943144,-0.4115799597658863,0.2021067517257525,15.1000003815,0.0,1.136136674083804,2.625331427635065
1648294732360011453,22689,5,0,0.0126474238932,0.0439508594573,0.0103046037257,0.0,15.3000001907,0.004229907656588629,0.014699284099431437,0.003446355761103679,15.3000001907,0.0,0.01586988313133818,0.04688091547861809
1648294732360015942,22690,5,1,0.0336356125772,0.0146502861753,-0.0291862115264,0.0,15.3000001907,0.011249368754916387,0.0048997612626421405,-0.00976127475799331,15.3000001907,0.0,0.016646448726352014,0.04688091575177948
1648294732360030385,22691,5,2,2.23722052574,-1.2306240797,0.610551893711,0.0,15.3000001907,0.7482342895451505,-0.4115799597658863,0.20419795776287625,15.3000001907,0.0,1.1353885534842953,2.6253313926519684
1648294732360033170,22692,5,3,1.90102732182,-0.180198520422,0.219453468919,-0.0809188112617,15.3000001907,0.635795090909699,-0.06026706368628762,0.07339580900301003,15.3000001907,-0.010934974494824324,0.9011675283847682,1.9221176369018058
1648294732465268336,22693,6,0,0.00628323899582,0.0454158857465,0.00978460349143,0.0,17.0,0.002101417724354515,0.015189259446989964,0.0032724426392742472,17.0,0.0,0.01547725800820147,0.0468809154763667
1648294732465284585,22694,6,1,0.0335281863809,0.0146502861753,-0.0293095558882,0.0,17.0,0.011213440261170568,0.0048997612626421405,-0.0098025270529097,17.0,0.0,0.016597895812800207,0.04688091544940301
1648294732465293410,22695,6,2,2.19213438034,-1.31266570091,0.603175640106,0.0,17.0,0.7331553111505017,-0.4390186290668896,0.20173098331304345,17.0,0.0,1.125953274876071,2.6253314527182012
1648294732465296325,22696,6,3,1.90332496166,-0.120132349432,0.239704504609,-0.0809188112617,17.0,0.6365635323277592,-0.040178043288294316,0.08016873063846153,17.0,-0.010934974494824324,0.9011329183542593,1.9221175667965629
1648294732660069514,22697,8,0,0.0126699265093,0.0439508594573,0.0102769229561,0.0,16.5,0.004237433615150501,0.014699284099431437,0.0034370979786287623,16.5,0.0,0.015873898082116214,0.04688091541589194
1648294732660337031,22698,8,1,0.0336220227182,0.0146502861753,-0.0292018633336,0.0,16.5,0.011244823651571905,0.0048997612626421405,-0.009766509476120401,16.5,0.0,0.016640305836756436,0.04688091422781338
1648294732660341471,22699,8,2,1.90371668339,-0.180198520422,0.194749623537,0.0,16.5,0.6366945429397993,-0.06026706368628762,0.06513365335685618,16.5,0.0,0.9024367019265157,1.9221176169130503
1648294732660344147,22700,8,3,2.2362408638,-1.2306240797,0.614130079746,0.0,16.5,0.7479066434113711,-0.4115799597658863,0.20539467550033444,16.5,0.0,1.1349567206720335,2.6253313279118258
1648294732765208624,22701,9,0,0.00631579104811,0.0454158857465,0.00976362358779,0.0,15.5,0.0021123046983645482,0.015189259446989964,0.003265425949093645,15.5,0.0,0.015480221730499849,0.04688091552291377
1648294732765224255,22702,9,1,0.0335994325578,0.0146502861753,-0.0292278509587,0.0,15.5,0.011237268413979932,0.0048997612626421405,-0.009775200989531772,15.5,0.0,0.01663009510635915,0.0468809132258355
1648294732765229417,22703,9,2,2.23618340492,-1.2306240797,0.614339828491,0.0,15.5,0.7478874263946487,-0.4115799597658863,0.20546482558227422,15.5,0.0,1.1349313936971301,2.6253314592347055
1648294732960007970,22704,11,0,0.0126902572811,0.0439508594573,0.0102518079802,0.0,15.8999996185,0.004244233204381271,0.014699284099431437,0.0034286983211371234,15.8999996185,0.0,0.015877530791094153,0.04688091556015881
1648294732960009830,22705,11,1,0.0335994325578,0.0146502861753,-0.0292278509587,0.0,15.8999996185,0.011237268413979932,0.0048997612626421405,-0.009775200989531772,15.8999996185,0.0,0.01663009510635915,0.0468809132258355
1648294732960011884,22706,11,2,2.23627281189,-1.2306240797,0.614013433456,0.0,15.8999996185,0.7479173283913043,-0.4115799597658863,0.2053556633632107,15.8999996185,0.0,1.1349708029270449,2.6253312574226335
1648294733065114885,22707,12,0,0.0126678450033,0.0439508594573,0.0102794887498,0.0,15.6999998093,0.004236737459297658,0.014699284099431437,0.0034379561036120398,15.6999998093,0.0,0.015873526439762208,0.046880915445629195
1648294733065117245,22708,12,1,0.033601410687,0.0146502861753,-0.0292255785316,0.0,15.6999998093,0.011237929995652172,0.0048997612626421405,-0.009774440980468226,15.6999998093,0.0,0.01663098919503125,0.04688091430082548
1648294733065119560,22709,12,2,2.23650407791,-1.2306240797,0.613170981407,0.0,15.6999998093,0.7479946748862876,-0.4115799597658863,0.20507390682508359,15.6999998093,0.0,1.135072742425513,2.6253313635587325
1648294733260093725,22710,14,0,0.0126678450033,0.0439508594573,0.0102794887498,0.0,15.8000001907,0.004236737459297658,0.014699284099431437,0.0034379561036120398,15.8000001907,0.0,0.015873526439762208,0.046880915445629195
1648294733260097982,22711,14,1,0.033514522016,0.0146502861753,-0.0293251797557,0.0,15.8000001907,0.011208870239464881,0.0048997612626421405,-0.009807752426655518,15.8000001907,0.0,0.016591720963215706,0.0468809155060271
1648294733260100805,22712,14,2,2.23663902283,-1.2306240797,0.612678706646,0.0,15.8000001907,0.7480398069665551,-0.4115799597658863,0.20490926643678928,15.8000001907,0.0,1.1351322252909617,2.6253313965213656
1648294733365184787,22713,15,0,0.0126902572811,0.0439508594573,0.0102518079802,0.0,15.8000001907,0.004244233204381271,0.014699284099431437,0.0034286983211371234,15.8000001907,0.0,0.015877530791094153,0.04688091556015881
1648294733365187447,22714,15,1,0.0335509069264,0.0146502861753,-0.0292835440487,0.0,15.8000001907,0.011221039105819395,0.0048997612626421405,-0.009793827441036788,15.8000001907,0.0,0.016608163584802046,0.0468809150151135
1648294733365192828,22715,15,2,2.23714447021,-1.2306240797,0.610830783844,0.0,15.8000001907,0.7482088529130434,-0.4115799597658863,0.2042912320548495,15.8000001907,0.0,1.1353550274851443,2.6253314557632774
