%time,field.header.seq,field.header.frame_id,field.point_id,field.x,field.y,field.z,field.velocity,field.intensity,normalized_x,normalized_y,normalized_z,normalized_intensity,normalized_velocity,normalized_range,range
1648218738946040728,46867,0,0,0.00525635527447,0.0454158857465,0.0103724775836,0.0,29.3999996185,0.0017579783526655518,0.015189259446989964,0.0034690560480267556,29.3999996185,0.0,0.015391380000664505,0.046880915521487786
1648218738946047098,46868,0,1,0.0333765335381,0.0146502861753,-0.0294821355492,0.0,29.3999996185,0.011162720246856188,0.0048997612626421405,-0.009860246003076922,29.3999996185,0.0,0.016529377092015133,0.04688091501431583
1648218738946123120,46869,0,2,1.83401465416,-0.0,0.575261950493,-0.161837622523,29.3999996185,0.6133828274782608,-0.0,0.19239530116822742,29.3999996185,-0.021869948989594594,0.8674543135465127,1.9221175987328756
1648218739141472517,46870,2,0,0.00543765118346,0.0454158857465,0.0102785946801,0.0,37.2999992371,0.001818612435939799,0.015189259446989964,0.0034376570836454844,37.2999992371,0.0,0.01540546347671123,0.046880915489460155
1648218739141511611,46871,2,1,0.0333907417953,0.0146502861753,-0.0294660404325,0.0,37.2999992371,0.011167472172341137,0.0048997612626421405,-0.009854863020903009,37.2999992371,0.0,0.016535795410893176,0.04688091361554621
1648218739141542373,46872,2,2,1.39495456219,0.12306240201,-1.38416481018,0.566431701183,37.2999992371,0.46653998735451496,0.04115799398327759,-0.4629313746421404,37.2999992371,0.07654482448418919,0.6610696635531156,1.9689984274000323
1648218739141564884,46873,2,3,1.8134521246,-0.0586011447012,0.473782211542,-0.485512852669,37.2999992371,0.6065057272909699,-0.019599045050568562,0.1584555891444816,37.2999992371,-0.06560984495527027,0.8579525144437721,1.8752365947661573
1648218739141606927,46874,2,4,1.97924232483,0.386767566204,0.433579146862,-0.0809188112617,37.2999992371,0.6619539547926421,0.1293537010715719,0.14500974811438125,37.2999992371,-0.010934974494824324,0.9450388650802422,2.0627603368446388
1648218739246513880,46875,3,0,0.00543765118346,0.0454158857465,0.0102785946801,0.0,24.5,0.001818612435939799,0.015189259446989964,0.0034376570836454844,24.5,0.0,0.01540546347671123,0.046880915489460155
1648218739246534650,46876,3,1,0.0333907417953,0.0146502861753,-0.0294660404325,0.0,24.5,0.011167472172341137,0.0048997612626421405,-0.009854863020903009,24.5,0.0,0.016535795410893176,0.04688091361554621
1648218739246585211,46877,3,2,1.96487665176,0.12306240201,0.0327114909887,0.0,24.5,0.6571493818595318,0.04115799398327759,0.010940297989531772,24.5,0.0,0.930260501486254,1.9689983882834345
1648218739246675352,46878,3,3,1.74210000038,-0.114272229373,0.543059825897,-0.566431701183,24.5,0.5826421405953177,-0.03821813691404682,0.18162535983177255,24.5,-0.07654482448418919,0.824866264302383,1.8283556897477995
1648218739246705909,46879,3,4,1.93323791027,0.515690088272,0.501632511616,-0.161837622523,24.5,0.6465678629665551,0.17247160142876253,0.16777007077458192,24.5,-0.021869948989594594,0.9305087082567675,2.062760350006097
1648218739441485956,46880,5,0,0.00525635527447,0.0454158857465,0.0103724775836,0.0,37.5,0.0017579783526655518,0.015189259446989964,0.0034690560480267556,37.5,0.0,0.015391380000664505,0.046880915521487786
1648218739441527041,46881,5,1,0.0334289707243,0.0146502861753,-0.0294226650149,0.0,37.5,0.011180257767324413,0.0048997612626421405,-0.009840356192274247,37.5,0.0,0.016553065816292893,0.04688091493649962
1648218739441538585,46882,5,2,1.87457156181,0.184593603015,0.57346445322,0.0,37.5,0.626947010638796,0.06173699097491638,0.19179413151170566,37.5,0.0,0.8887837556754072,1.9689984300978394
1648218739441555324,46883,5,3,1.64577102661,0.922968029976,-0.562603354454,0.0,37.5,0.5504250925117057,0.30868495985819394,-0.18816165700802676,37.5,0.0,0.8373899744896008,1.968998423267425
1648218739441721443,46884,5,4,1.66782057285,-0.325236350298,0.348442316055,-0.647350490093,37.5,0.5577995226923076,-0.10877469909632106,0.11653589165719062,37.5,-0.08747979595851352,0.7963118423049023,1.7345939566349924
1648218739546438515,46885,6,0,0.00539573840797,0.0454158857465,0.0103006586432,0.0,28.7000007629,0.0018045947852742474,0.015189259446989964,0.003445036335518394,28.7000007629,0.0,0.015402166316010612,0.04688091551569908
1648218739546456478,46886,6,1,0.0333907417953,0.0146502861753,-0.0294660404325,0.0,28.7000007629,0.011167472172341137,0.0048997612626421405,-0.009854863020903009,28.7000007629,0.0,0.016535795410893176,0.04688091361554621
1648218739546487414,46887,6,2,1.98661470413,0.125992462039,0.318210184574,0.0,28.7000007629,0.6644196334882942,0.04213794717023411,0.10642481089431438,28.7000007629,0.0,0.9405756244561944,2.015879412247368
1648218739546517286,46888,6,3,1.65048468113,-0.316446185112,0.155361175537,-0.485512852669,28.7000007629,0.5520015655953177,-0.10583484451906354,0.05196025937692307,28.7000007629,-0.06560984495527027,0.7877896109709356,1.6877129393297234
1648218739546550844,46889,6,4,1.63304269314,-0.263705134392,0.334673047066,-0.323675245047,28.7000007629,0.5461681247959865,-0.08819569712107023,0.11193078497190634,28.7000007629,-0.04373989797932432,0.7774173409932404,1.687712915147327
1648218739546580590,46890,6,5,2.03529429436,0.32230630517,-0.0931435972452,-0.242756426334,28.7000007629,0.680700432896321,0.10779475089297658,-0.031151704764280932,28.7000007629,-0.03280492247756756,0.9686722185603118,2.062760274174991
1648218739546601752,46891,6,6,1.66545951366,-0.210964113474,0.173532068729,-0.161837622523,28.7000007629,0.5570098707892975,-0.07055655969030099,0.05803748118026756,28.7000007629,-0.021869948989594594,0.7908844545372926,1.687712839227053
1648218739546619802,46892,6,7,2.06961011887,0.329631447792,0.24216388166,-0.161837622523,28.7000007629,0.6921772972809365,0.11024463136856186,0.08099126476923076,28.7000007629,-0.021869948989594594,0.9850749720137417,2.1096412683399954
1648218739741670179,46893,8,0,0.00543765118346,0.0454158857465,0.0102785946801,0.0,14.3999996185,0.001818612435939799,0.015189259446989964,0.0034376570836454844,14.3999996185,0.0,0.01540546347671123,0.046880915489460155
1648218739741708318,46894,8,1,0.0334289707243,0.0146502861753,-0.0294226650149,0.0,14.3999996185,0.011180257767324413,0.0048997612626421405,-0.009840356192274247,14.3999996185,0.0,0.016553065816292893,0.04688091493649962
1648218739741753064,46895,8,2,1.87375366688,1.19546329975,0.35169968009,0.566431701183,14.3999996185,0.6266734671839465,0.39982050158862875,0.11762531106688963,14.3999996185,0.07654482448418919,0.9722631857862768,2.250283975450835
1648218739741775153,46896,8,3,1.760871768,0.64461261034,0.0178188867867,-0.566431701183,14.3999996185,0.5889203237458194,0.21558950178595315,0.005959493908595317,14.3999996185,-0.07654482448418919,0.8603099027223138,1.8752366019985616
1648218739741803499,46897,8,4,1.92578244209,0.12306240201,0.391372472048,-0.0809188112617,14.3999996185,0.6440743953478261,0.04115799398327759,0.1308938033605351,14.3999996185,-0.010934974494824324,0.9117881519048507,1.9689984207529365
1648218739846682031,46898,9,0,0.00543765118346,0.0454158857465,0.0102785946801,0.0,20.2999992371,0.001818612435939799,0.015189259446989964,0.0034376570836454844,20.2999992371,0.0,0.01540546347671123,0.046880915489460155
1648218739846754872,46899,9,1,0.0334289707243,0.0146502861753,-0.0294226650149,0.0,20.2999992371,0.011180257767324413,0.0048997612626421405,-0.009840356192274247,20.2999992371,0.0,0.016553065816292893,0.04688091493649962
1648218739846767598,46900,9,2,1.73677408695,0.571361124516,-0.00685821706429,-0.485512852669,20.2999992371,0.5808608986454848,0.19109067709565214,-0.0022937180817023412,20.2999992371,-0.06560984495527027,0.8433945778953972,1.828355763753459
1648218739846794984,46901,9,3,1.94028556347,0.12306240201,0.311612576246,-0.0809188112617,20.2999992371,0.6489249376153846,0.04115799398327759,0.10421825292508359,20.2999992371,-0.010934974494824324,0.9186409144965128,1.9689984307442288
1648218740041688116,46902,11,0,0.00543765118346,0.0454158857465,0.0102785946801,0.0,20.1000003815,0.001818612435939799,0.015189259446989964,0.0034376570836454844,20.1000003815,0.0,0.01540546347671123,0.046880915489460155
1648218740041886384,46903,11,1,0.0334431305528,0.0146502861753,-0.0294065698981,0.0,20.1000003815,0.011184993495919733,0.0048997612626421405,-0.00983497321006689,20.1000003815,0.0,0.01655946313859305,0.04688091529995604
1648218740041906532,46904,11,2,1.53479444981,1.16909277439,0.393170267344,0.0,20.1000003815,0.5133091805384614,0.39100092788963203,0.131495072690301,20.1000003815,0.0,0.8245328102996793,1.9689984198627077
1648218740041920577,46905,11,3,1.24657988548,0.553780794144,-1.4199719429,0.0,20.1000003815,0.4169163496588629,0.18521096794113712,-0.4749070043143812,20.1000003815,0.0,0.6180142295056282,1.9689984503471023
1648218740041934938,46906,11,4,1.50966989994,1.14125728607,0.336102157831,0.0809188112617,20.1000003815,0.5049063210501672,0.3816914000234114,0.11240874843846153,20.1000003815,0.010934974494824324,0.8096598736041332,1.9221175979349876
1648218740146626713,46907,12,0,0.00529456837103,0.0454158857465,0.0103530241176,0.0,18.2999992371,0.0017707586525183944,0.015189259446989964,0.003462549872107023,18.2999992371,0.0,0.015394309824052243,0.04688091552811506
1648218740146694293,46908,12,1,0.0333993732929,0.0146502861753,-0.0294562578201,0.0,18.2999992371,0.011170358960836119,0.0048997612626421405,-0.009851591244180601,18.2999992371,0.0,0.016539694648292396,0.04688091451903291
1648218740146911571,46909,12,2,1.75595939159,0.167013257742,-0.249730795622,0.242756426334,18.2999992371,0.5872773884916388,0.05585727683678929,-0.08352200522474916,18.2999992371,0.03280492247756756,0.8324118556596489,1.7814747495984096
1648218740147280666,46910,12,3,1.92603683472,0.12306240201,0.390118777752,-0.0809188112617,18.2999992371,0.6441594764949833,0.04115799398327759,0.13047450760936455,18.2999992371,-0.010934974494824324,0.9119083521853002,1.9689984520667918
1648218740341569239,46911,14,0,0.00547427730635,0.0454158857465,0.0102591346949,0.0,22.1000003815,0.0018308619753678928,0.015189259446989964,0.003431148727391304,22.1000003815,0.0,0.015408365055828276,0.04688091546518755
1648218740341670791,46912,14,1,0.0333765335381,0.0146502861753,-0.0294821355492,0.0,22.1000003815,0.011162720246856188,0.0048997612626421405,-0.009860246003076922,22.1000003815,0.0,0.016529377092015133,0.04688091501431583
1648218740341698771,46913,14,2,1.90952074528,0.12306240201,0.464264035225,0.0,22.1000003815,0.6386357007625417,0.04115799398327759,0.15527225258361202,22.1000003815,0.0,0.9041045830243606,1.9689984575531179
1648218740341708144,46914,14,3,1.66107177734,1.04603040218,0.153673559427,0.0,22.1000003815,0.5555424004481605,0.34984294387290965,0.05139583927324415,22.1000003815,0.0,0.8600260477270864,1.9689983785232743
1648218740446697290,46915,15,0,0.00525635527447,0.0454158857465,0.0103724775836,0.0,16.6000003815,0.0017579783526655518,0.015189259446989964,0.0034690560480267556,16.6000003815,0.0,0.015391380000664505,0.046880915521487786
1648218740446777127,46916,15,1,0.0334517285228,0.0146502861753,-0.0293967872858,0.0,16.6000003815,0.011187869071170567,0.0048997612626421405,-0.009831701433377926,16.6000003815,0.0,0.016563347763607406,0.046880914335237424
1648218740446843285,46917,15,2,1.93163752556,0.184593603015,0.334150671959,0.0,16.6000003815,0.6460326172441471,0.06173699097491638,0.11175607757826087,16.6000003815,0.0,0.9157116036947889,1.9689984763824144
1648218740446935769,46918,15,3,1.3975263834,0.98449921608,-0.977054834366,0.0,16.6000003815,0.4674001282274247,0.3292639518662207,-0.32677419209565217,16.6000003815,0.0,0.7384717392917531,1.9689984378153251
1648218740641513757,46919,17,0,0.00546205835417,0.0454158857465,0.0102656455711,0.0,13.8999996185,0.0018267753692876253,0.015189259446989964,0.0034333262779598656,13.8999996185,0.0,0.015407394946831401,0.046880915505085274
1648218740641552226,46920,17,1,0.0333907417953,0.0146502861753,-0.0294660404325,0.0,13.8999996185,0.011167472172341137,0.0048997612626421405,-0.009854863020903009,13.8999996185,0.0,0.016535795410893176,0.04688091361554621
1648218740641604423,46921,17,2,1.96539270878,0.061531201005,0.101981475949,0.0,13.8999996185,0.657321976180602,0.020578996991638794,0.03410751703979933,13.8999996185,0.0,0.9298214107327953,1.968998428099789
1648218740746707307,46922,18,0,0.00523719796911,0.0454158857465,0.0103821633384,0.0,16.7999992371,0.00175157122712709,0.015189259446989964,0.00347229543090301,16.7999992371,0.0,0.015389918975594798,0.04688091548052371
1648218740746766950,46923,18,1,0.0334289707243,0.0146502861753,-0.0294226650149,0.0,16.7999992371,0.011180257767324413,0.0048997612626421405,-0.009840356192274247,16.7999992371,0.0,0.016553065816292893,0.04688091493649962
1648218740746775402,46924,18,2,1.94573748112,0.184593603015,0.238716498017,0.0,16.7999992371,0.650748321444816,0.06173699097491638,0.07983829365117057,16.7999992371,0.0,0.9223655521435783,1.9689984027760818
1648218740941676379,46925,20,0,0.00543271563947,0.0454158857465,0.010281204246,0.0,19.0,0.0018169617523311034,0.015189259446989964,0.003438529848160535,19.0,0.0,0.015405073922797063,0.04688091549987534
1648218740941686597,46926,20,1,0.0334289707243,0.0146502861753,-0.0294226650149,0.0,19.0,0.011180257767324413,0.0048997612626421405,-0.009840356192274247,19.0,0.0,0.016553065816292893,0.04688091493649962
1648218740941745368,46927,20,2,1.91765940189,0.120132349432,0.05183179304,0.0,19.0,0.6413576594949832,0.040178043288294316,0.017335047839464882,19.0,0.0,0.9079061460020202,1.9221175556679426
1648218740941797398,46928,20,3,1.62824749947,1.02112495899,-0.0254875216633,0.0,19.0,0.5445643810936455,0.34151336421070233,-0.008524254736889631,19.0,0.0,0.8424559978101658,1.9221175081568698
1648218741046664106,46929,21,0,0.00525120040402,0.0454158857465,0.0103750880808,0.0,20.7000007629,0.0017562543157257522,0.015189259446989964,0.0034699291240133778,20.7000007629,0.0,0.01539098635536347,0.04688091548281325
1648218741046688056,46930,21,1,0.0334431305528,0.0146502861753,-0.0294065698981,0.0,20.7000007629,0.011184993495919733,0.0048997612626421405,-0.00983497321006689,20.7000007629,0.0,0.01655946313859305,0.04688091529995604
1648218741046714562,46931,21,2,1.91521215439,0.120132349432,0.109848342836,0.0,20.7000007629,0.6405391820702341,0.040178043288294316,0.0367385761993311,20.7000007629,0.0,0.906749779540577,1.9221175916491304
1648218741046729452,46932,21,3,1.68909692764,0.900992631912,-0.172335490584,0.0,20.7000007629,0.5649153604147157,0.30133532839866217,-0.05763728782073578,20.7000007629,0.0,0.8538511047050918,1.9221174977189686
