%time,field.header.seq,field.header.frame_id,field.point_id,field.x,field.y,field.z,field.velocity,field.intensity,normalized_x,normalized_y,normalized_z,normalized_intensity,normalized_velocity,normalized_range,range
1648127241603628885,101449,0,0,0.0125890737399,0.0439508594573,0.0103758089244,0.0,12.8000001907,0.004210392555150501,0.014699284099431437,0.003470170208829431,12.8000001907,0.0,0.01585950074790286,0.0468809154720728
1648127241603634418,101450,0,1,0.032785564661,0.0146502861753,-0.0301379524171,0.0,12.8000001907,0.010965071792976589,0.0048997612626421405,-0.010079582748193979,12.8000001907,0.0,0.01626263383591816,0.04688091627788627
1648127241603733764,101451,0,2,1.35531437397,0.0424858294427,-0.0984115973115,0.0,12.8000001907,0.4532823993210702,0.01420930750591973,-0.03291357769615384,12.8000001907,0.0,0.6411955797479658,1.3595465937137012
1648127241603740013,101452,0,3,1.39526605606,0.093761831522,0.543147563934,0.0,12.8000001907,0.4666441659063545,0.03135847208093645,0.18165470365685618,12.8000001907,0.0,0.6606791270504354,1.5001892962059906
1648127241603750993,101453,0,4,1.82656121254,-1.39177727699,0.470298916101,0.0,12.8000001907,0.6108900376387959,-0.4654773501638796,0.15729060739163878,12.8000001907,0.0,0.9813472574416489,2.344045844770761
1648127241603778112,101454,0,5,2.39516997337,-0.984499275684,0.431610256433,0.0,12.8000001907,0.8010601917625417,-0.32926397180066885,0.14435125633210702,12.8000001907,0.0,1.1797498144857799,2.6253314911861563
1648127241603781335,101455,0,6,1.39314293861,0.290075659752,0.606988549232,0.0809188112617,12.8000001907,0.46593409318060197,0.09701527082006689,0.2030062037565217,12.8000001907,0.010934974494824324,0.666033873874558,1.5470702100028404
1648127241708918366,101456,1,0,0.0125890737399,0.0439508594573,0.0103758089244,0.0,15.1999998093,0.004210392555150501,0.014699284099431437,0.003470170208829431,15.1999998093,0.0,0.01585950074790286,0.0468809154720728
1648127241708925854,101457,1,1,0.0329129882157,0.0146502861753,-0.029998742044,0.0,15.1999998093,0.011007688366454847,0.0048997612626421405,-0.010033024094983276,15.1999998093,0.0,0.01632011233959066,0.046880915120413834
1648127241708928673,101458,1,2,1.35476231575,0.0424858294427,-0.105739444494,0.0,15.1999998093,0.45309776446488287,0.01420930750591973,-0.03536436270702341,15.1999998093,0.0,0.640934530779819,1.359546544992718
1648127241709023449,101459,1,3,1.45201873779,0.290075659752,0.448245644569,0.0,15.1999998093,0.4856249959163879,0.09701527082006689,0.14991493129397993,15.1999998093,0.0,0.6935958737549369,1.5470702831962424
1648127241709034579,101460,1,4,1.86469137669,-1.24527442455,0.683204948902,0.0,15.1999998093,0.6236426008996655,-0.4164797406521739,0.22849663842876253,15.1999998093,0.0,0.9753540699087183,2.344045930638853
1648127241709191519,101461,1,5,2.40491724014,-0.984499275684,0.373496085405,0.0,15.1999998093,0.8043201472040133,-0.32926397180066885,0.12491507873076922,15.1999998093,0.0,1.1841775886760073,2.625331423184085
1648127241709199359,101462,1,6,1.45542740822,-0.241729736328,0.46553632617,-0.161837622523,15.1999998093,0.4867650194715719,-0.08084606566153846,0.15569776794983278,15.1999998093,-0.021869948989594594,0.6931208081534339,1.5470702236831564
1648127241903921351,101463,3,0,0.0125890737399,0.0439508594573,0.0103758089244,0.0,27.6000003815,0.004210392555150501,0.014699284099431437,0.003470170208829431,27.6000003815,0.0,0.01585950074790286,0.0468809154720728
1648127241903934102,101464,3,1,0.032925914973,0.0146502861753,-0.0299845542759,0.0,27.6000003815,0.011012011696655518,0.0048997612626421405,-0.010028279022040133,27.6000003815,0.0,0.016325944494743463,0.046880915700867075
1648127241904031477,101465,3,2,1.35370922089,0.0424858294427,-0.118462011218,0.0,27.6000003815,0.4527455588260869,0.01420930750591973,-0.039619401745150495,27.6000003815,0.0,0.6404365593041119,1.3595465966740008
1648127241904052747,101466,3,3,1.85261249542,-1.31852579117,0.569093883038,0.0,27.6000003815,0.6196028412775919,-0.44097852547491634,0.19033240235384616,27.6000003815,0.0,0.9809574005880994,2.344045897135562
1648127241904068012,101467,3,4,1.35723698139,0.676843225956,0.305315107107,-0.566431701183,27.6000003815,0.4539254118361204,0.22636897189163876,0.10211207595551838,27.6000003815,-0.07654482448418919,0.6806904365836651,1.5470702281418653
1648127241904200366,101468,3,5,1.29412817955,-0.590406537056,0.297921836376,-0.485512852669,27.6000003815,0.43281878914715716,-0.1974603802862876,0.09963941015919732,27.6000003815,-0.06560984495527027,0.6431600191713006,1.4533083102678188
1648127241904282452,101469,3,6,1.46797895432,0.241729736328,0.424300670624,-0.0809188112617,27.6000003815,0.4909628609765886,0.08084606566153846,0.14190657880401336,27.6000003815,-0.010934974494824324,0.6990172730695458,1.5470703070137508
1648127242008870128,101470,4,0,0.0125994086266,0.0439508594573,0.0103632565588,0.0,14.8000001907,0.004213849038996655,0.014699284099431437,0.003465972093244147,14.8000001907,0.0,0.015861336654982894,0.04688091542705721
1648127242008875325,101471,4,1,0.0328737124801,0.0146502861753,-0.0300417765975,0.0,14.8000001907,0.010994552668929765,0.0048997612626421405,-0.010047416922240803,14.8000001907,0.0,0.016302393603720582,0.04688091507614338
1648127242008879185,101472,4,2,1.35272836685,0.0424858294427,-0.12918061018,0.0,14.8000001907,0.45241751399665553,0.01420930750591973,-0.04320421745150501,14.8000001907,0.0,0.639972748139814,1.359546509035487
1648127242008890997,101473,4,3,1.83149826527,-1.39177727699,0.450689762831,0.0,14.8000001907,0.6125412258428093,-0.4654773501638796,0.1507323621508361,14.8000001907,0.0,0.98340361511925,2.3440458926295324
1648127242009005695,101474,4,4,2.4295501709,-0.902457654476,0.418594360352,0.0,14.8000001907,0.8125585855852842,-0.30182530250033446,0.13999811383010033,14.8000001907,0.0,1.188108338177177,2.6253314247083246
1648127242009010478,101475,4,5,2.13845777512,-1.04603040218,0.222145363688,0.161837622523,14.8000001907,0.7152032692709029,-0.34984294387290965,0.07429610825685619,14.8000001907,0.021869948989594594,1.070243672314506,2.3909265611607786
1648127242009015448,101476,4,6,1.37499475479,0.562570989132,0.208497211337,-0.485512852669,14.8000001907,0.45986446648494983,0.1881508324856187,0.0697315088083612,14.8000001907,-0.06560984495527027,0.67701653660454,1.500189248277788
