%time,field.header.seq,field.header.frame_id,field.point_id,field.x,field.y,field.z,field.velocity,field.intensity,normalized_x,normalized_y,normalized_z,normalized_intensity,normalized_velocity,normalized_range,range
1648217990027493322,15220,0,0,0.0334379263222,0.0146502861753,-0.0294124856591,0.0,12.3999996185,0.011183252950568563,0.0048997612626421405,-0.009836951725451504,12.3999996185,0.0,0.01655711187205333,0.04688091418044048
1648217990027500820,15221,0,1,0.00451880740002,0.0454158857465,0.0107143800706,0.0,12.3999996185,0.001511306822749164,0.015189259446989964,0.0035834047058862875,12.3999996185,0.0,0.015338894978874789,0.04688091550679111
1648217990027511522,15222,0,2,1.76321053505,0.171408340335,0.452318966389,0.0,12.3999996185,0.589702520083612,0.05732720412541805,0.15127724628394648,12.3999996185,0.0,0.8359333303073655,1.8283557250718252
1648217990027514116,15223,0,3,2.12956357002,-1.14272224903,0.319453656673,0.0,12.3999996185,0.7122286187357859,-0.3821813541906354,0.10684068785050167,12.3999996185,0.0,1.0773123029946141,2.4378075756602
1648217990327570409,15224,3,0,0.0045289453119,0.0454158857465,0.0107100987807,0.0,11.3999996185,0.0015146974287290969,0.015189259446989964,0.003581972836354515,11.3999996185,0.0,0.015339563851334592,0.046880915516547605
1648217990327617306,15225,3,1,0.033452514559,0.0146502861753,-0.0293958913535,0.0,11.3999996185,0.011188131959531772,0.0048997612626421405,-0.009831401790468227,11.3999996185,0.0,0.01656370290480607,0.04688091342758873
1648217990327804564,15226,3,2,1.86762332916,0.117202289402,0.121486485004,0.0,11.3999996185,0.6246231870100334,0.03919809010100334,0.04063093143946488,11.3999996185,0.0,0.8842198492279557,1.8752365830215607
1648217990327809431,15227,3,3,1.28645074368,1.47674882412,0.203008323908,0.0,11.3999996185,0.4302510848428093,0.49389592779933106,0.06789576050434783,11.3999996185,0.0,0.783686914216124,1.9689984725820797
1648217990327813067,15228,3,4,0.408471405506,-1.66134238243,-0.974703788757,0.0,11.3999996185,0.13661251020267556,-0.5556329038227424,-0.32598788921638794,11.3999996185,0.0,0.5882634441287723,1.9689984450454718
1648217990327815754,15229,3,5,1.70802748203,-0.162618175149,0.254977285862,-0.485512852669,11.3999996185,0.5712466495083612,-0.05438734954816053,0.08527668423478262,11.3999996185,-0.06560984495527027,0.8096934314541095,1.7345938909624021
1648217990627588346,15230,6,0,0.0334379263222,0.0146502861753,-0.0294124856591,0.0,26.8999996185,0.011183252950568563,0.0048997612626421405,-0.009836951725451504,26.8999996185,0.0,0.01655711187205333,0.04688091418044048
1648217990627590539,15231,6,1,0.0045289453119,0.0454158857465,0.0107100987807,0.0,26.8999996185,0.0015146974287290969,0.015189259446989964,0.003581972836354515,26.8999996185,0.0,0.015339563851334592,0.046880915516547605
1648217990627610336,15232,6,2,1.84502339363,0.117202289402,0.314108908176,0.0809188112617,26.8999996185,0.6170646801438127,0.03919809010100334,0.10505314654715718,26.8999996185,0.010934974494824324,0.8735411434097068,1.8752365466464627
1648217990732624744,15233,7,0,0.0334379263222,0.0146502861753,-0.0294124856591,0.0,25.3999996185,0.011183252950568563,0.0048997612626421405,-0.009836951725451504,25.3999996185,0.0,0.01655711187205333,0.04688091418044048
1648217990732632512,15234,7,1,0.0045289453119,0.0454158857465,0.0107100987807,0.0,25.3999996185,0.0015146974287290969,0.015189259446989964,0.003581972836354515,25.3999996185,0.0,0.015339563851334592,0.046880915516547605
1648217990732634387,15235,7,2,1.86288058758,0.117202289402,0.180143117905,0.0,25.3999996185,0.623036985812709,0.03919809010100334,0.06024853441638796,25.3999996185,0.0,0.8819788328802104,1.875236519256174
1648217990732641052,15236,7,3,1.95257532597,0.12306240201,0.221946388483,0.0,25.3999996185,0.6530352260769231,0.04115799398327759,0.07422956136555184,25.3999996185,0.0,0.9244479398340416,1.9689984656509942
1648217990732668225,15237,7,4,1.14665031433,1.59981119633,-0.0524591617286,0.0,25.3999996185,0.3834950884046822,0.5350539118160534,-0.01754487014334448,25.3999996185,0.0,0.7618527772546945,1.968998418207892
1648217990927608129,15238,9,0,0.0334903821349,0.0146502861753,-0.0293527450413,0.0,14.8000001907,0.011200796700635451,0.0048997612626421405,-0.009816971585719063,14.8000001907,0.0,0.01658081282352649,0.04688091532830153
1648217990927611659,15239,9,1,0.0045289453119,0.0454158857465,0.0107100987807,0.0,14.8000001907,0.0015146974287290969,0.015189259446989964,0.003581972836354515,14.8000001907,0.0,0.015339563851334592,0.046880915516547605
1648217990927613400,15240,9,2,1.95879530907,0.061531201005,0.190498530865,0.0,14.8000001907,0.6551154879832776,0.020578996991638794,0.06371188323244147,14.8000001907,0.0,0.9267017321168217,1.9689984362089976
1648217990927706650,15241,9,3,1.05145323277,1.66134238243,-0.106501296163,0.0,14.8000001907,0.3516565995886287,0.5556329038227424,-0.035619162596321065,14.8000001907,0.0,0.7456893802911285,1.9689984607523368
1648217990927710009,15242,9,4,2.13547492027,-1.14272224903,0.277197360992,0.0,14.8000001907,0.7142056589531772,-0.3821813541906354,0.0927081474889632,14.8000001907,0.0,1.0799268651406315,2.437807549924988
1648217991227724537,15243,12,0,0.0334379263222,0.0146502861753,-0.0294124856591,0.0,11.3000001907,0.011183252950568563,0.0048997612626421405,-0.009836951725451504,11.3000001907,0.0,0.01655711187205333,0.04688091418044048
1648217991227728775,15244,12,1,0.0045289453119,0.0454158857465,0.0107100987807,0.0,11.3000001907,0.0015146974287290969,0.015189259446989964,0.003581972836354515,11.3000001907,0.0,0.015339563851334592,0.046880915516547605
1648217991227736257,15245,12,2,1.79353415966,0.175803437829,0.518498361111,0.0,11.3000001907,0.599844200555184,0.05879713639765886,0.17341082311404682,11.3000001907,0.0,0.8503430091015862,1.875236566701543
1648217991227739526,15246,12,3,2.13808083534,-1.14272224903,0.256324738264,0.0,11.3000001907,0.7150772024548494,-0.3821813541906354,0.08572733721204012,11.3000001907,0.0,1.081079737314642,2.437807656137473
