%time,field.header.seq,field.header.frame_id,field.point_id,field.x,field.y,field.z,field.velocity,field.intensity,normalized_x,normalized_y,normalized_z,normalized_intensity,normalized_velocity,normalized_range,range
1648217968623765140,14766,0,0,0.0334379263222,0.0146502861753,-0.0294124856591,0.0,25.7000007629,0.011183252950568563,0.0048997612626421405,-0.009836951725451504,25.7000007629,0.0,0.01655711187205333,0.04688091418044048
1648217968623771939,14767,0,1,0.0045289453119,0.0454158857465,0.0107100987807,0.0,25.7000007629,0.0015146974287290969,0.015189259446989964,0.003581972836354515,25.7000007629,0.0,0.015339563851334592,0.046880915516547605
1648217968623776011,14768,0,2,1.20333230495,1.53828001022,-0.250281751156,0.0,25.7000007629,0.40245227590301,0.51447491980602,-0.0837062712896321,25.7000007629,0.0,0.7672158183121851,1.9689984715434485
1648217968623790420,14769,0,3,1.85221755505,0.117202289402,0.268451333046,0.0809188112617,25.7000007629,0.6194707541973243,0.03919809010100334,0.08978305453043478,25.7000007629,0.010934974494824324,0.8769404317735441,1.8752366160276
1648217968923822012,14770,3,0,0.0334379263222,0.0146502861753,-0.0294124856591,0.0,19.7999992371,0.011183252950568563,0.0048997612626421405,-0.009836951725451504,19.7999992371,0.0,0.01655711187205333,0.04688091418044048
1648217968923829213,14771,3,1,0.00451880740002,0.0454158857465,0.0107143800706,0.0,19.7999992371,0.001511306822749164,0.015189259446989964,0.0035834047058862875,19.7999992371,0.0,0.015338894978874789,0.04688091550679111
1648217968923832600,14772,3,2,1.86949682236,0.117202289402,-0.0880770236254,0.0,19.7999992371,0.6252497733645485,0.03919809010100334,-0.029457198536923076,19.7999992371,0.0,0.885105105878621,1.8752366004176424
1648217969028878633,14773,4,0,0.0334379263222,0.0146502861753,-0.0294124856591,0.0,21.1000003815,0.011183252950568563,0.0048997612626421405,-0.009836951725451504,21.1000003815,0.0,0.01655711187205333,0.04688091418044048
1648217969028885620,14774,4,1,0.00447322009131,0.0454158857465,0.0107334926724,0.0,21.1000003815,0.001496060231207358,0.015189259446989964,0.0035897968804013375,21.1000003815,0.0,0.015335905417639165,0.046880915531513516
1648217969028889408,14775,4,2,1.36685526371,1.41521763802,-0.0762924551964,0.0,21.1000003815,0.4571422286655518,0.47331693579264206,-0.02551587130314381,21.1000003815,0.0,0.8012408852316208,1.9689984290533438
1648217969028897835,14776,4,3,1.95747089386,0.12306240201,-0.173546254635,0.0,21.1000003815,0.6546725397525084,0.04115799398327759,-0.058042225630434784,21.1000003815,0.0,0.9267611607532584,1.9689984656152921
1648217969028936087,14777,4,4,1.87153434753,0.117202289402,0.0116137079895,-0.0809188112617,21.1000003815,0.6259312199096989,0.03919809010100334,0.0038841832740802674,21.1000003815,-0.010934974494824324,0.8860678723341988,1.8752365367704624
1648217969223902239,14778,6,0,0.0334379263222,0.0146502861753,-0.0294124856591,0.0,18.5,0.011183252950568563,0.0048997612626421405,-0.009836951725451504,18.5,0.0,0.01655711187205333,0.04688091418044048
1648217969224060133,14779,6,1,0.00447322009131,0.0454158857465,0.0107334926724,0.0,18.5,0.001496060231207358,0.015189259446989964,0.0035897968804013375,18.5,0.0,0.015335905417639165,0.046880915531513516
1648217969224065814,14780,6,2,0.473671168089,-0.527410268784,-0.457785695791,0.0,18.5,0.15841845086588627,-0.17639139424214045,-0.15310558387658862,18.5,0.0,0.28514335887791714,0.8438564512809384
1648217969224067671,14781,6,3,1.9209779501,0.0600661747158,-0.0277806296945,-0.0809188112617,18.5,0.6424675418394649,0.020089021644080267,-0.009291180499832775,18.5,-0.010934974494824324,0.908808370023684,1.9221175805609838
1648217969329065294,14782,7,0,0.00447322009131,0.0454158857465,0.0107334926724,0.0,22.2000007629,0.001496060231207358,0.015189259446989964,0.0035897968804013375,22.2000007629,0.0,0.015335905417639165,0.046880915531513516
1648217969329069973,14783,7,1,0.033452514559,0.0146502861753,-0.0293958913535,0.0,22.2000007629,0.011188131959531772,0.0048997612626421405,-0.009831401790468227,22.2000007629,0.0,0.01656370290480607,0.04688091342758873
1648217969329072693,14784,7,2,1.86695432663,0.175803437829,-0.00932349823415,0.0,22.2000007629,0.6243994403444816,0.05879713639765886,-0.003118226834163879,22.2000007629,0.0,0.884989505843752,1.8752365808330143
1648217969329077883,14785,7,3,1.28098344803,1.47674882412,0.235051512718,0.0,22.2000007629,0.4284225578695652,0.49389592779933106,0.07861254605953177,22.2000007629,0.0,0.7816808579463641,1.968998450303517
1648217969329082579,14786,7,4,1.88912856579,0.184593603015,-0.523520112038,0.0,22.2000007629,0.6318155738428094,0.06173699097491638,-0.17509033847424746,22.2000007629,0.0,0.8956524408247174,1.9689984367861042
1648217969523918931,14787,9,0,0.03341537714,0.0146502861753,-0.0294381007552,0.0,14.3000001907,0.0111757114180602,0.0048997612626421405,-0.009845518647224081,14.3000001907,0.0,0.016546924542959963,0.046880913925604395
1648217969523921225,14788,9,1,0.00447322009131,0.0454158857465,0.0107334926724,0.0,14.3000001907,0.001496060231207358,0.015189259446989964,0.0035897968804013375,14.3000001907,0.0,0.015335905417639165,0.046880915531513516
1648217969523922921,14789,9,2,1.92116701603,0.0600661747158,-0.00671153701842,0.0,14.3000001907,0.6425307745919733,0.020089021644080267,-0.002244661210173913,14.3000001907,0.0,0.9088977727919343,1.9221175025361361
1648217969628947501,14790,10,0,0.0334903821349,0.0146502861753,-0.0293527450413,0.0,20.3999996185,0.011200796700635451,0.0048997612626421405,-0.009816971585719063,20.3999996185,0.0,0.01658081282352649,0.04688091532830153
1648217969628952745,14791,10,1,0.00466256355867,0.0454158857465,0.0106526082382,0.0,20.3999996185,0.0015593858055752508,0.015189259446989964,0.0035627452301672242,20.3999996185,0.0,0.015348516890215583,0.046880915513184525
1648217969628961826,14792,10,2,0.426974445581,-0.527410268784,-0.501622319221,0.0,20.3999996185,0.14280081792006688,-0.17639139424214045,-0.16776666194682271,20.3999996185,0.0,0.2681381568519602,0.8438564569514583
1648217969628965212,14793,10,3,1.91822731495,0.120132349432,0.0225482322276,0.0,20.3999996185,0.6415475969732441,0.040178043288294316,0.007541214791839464,20.3999996185,0.0,0.9081744950871303,1.922117643636031
1648217969629111765,14794,10,4,1.38041317463,1.4489133358,0.242650985718,0.0,20.3999996185,0.46167664703344474,0.4845863999331103,0.08115417582541806,20.3999996185,0.0,0.8130895595395504,2.015879432957506
