%time,field.header.seq,field.header.frame_id,field.point_id,field.x,field.y,field.z,field.velocity,field.intensity,normalized_x,normalized_y,normalized_z,normalized_intensity,normalized_velocity,normalized_range,range
1648294943460777204,29575,0,0,0.0127122588456,0.0439508594573,0.0102245127782,0.0,13.6000003815,0.004251591587157191,0.014699284099431437,0.0034195694910367893,13.6000003815,0.0,0.015881467661515717,0.04688091545122009
1648294943460786981,29576,0,1,0.033514522016,0.0146502861753,-0.0293251797557,0.0,13.6000003815,0.011208870239464881,0.0048997612626421405,-0.009807752426655518,13.6000003815,0.0,0.016591720963215706,0.0468809155060271
1648294943460861997,29577,0,2,2.19463157654,-1.31266570091,0.594025373459,0.0,13.6000003815,0.7339904938260869,-0.4390186290668896,0.19867069346454846,13.6000003815,0.0,1.1270410137709708,2.6253314349630394
1648294943460868454,29578,0,3,1.73035037518,-0.285680562258,0.516873896122,-0.323675245047,13.6000003815,0.5787125000602006,-0.09554533854782607,0.17286752378662204,13.6000003815,-0.04373989797932432,0.8239813269547278,1.828355662618723
1648294943565906649,29579,1,0,0.0126335900277,0.0439508594573,0.0103215593845,0.0,30.7000007629,0.0042252809457190635,0.014699284099431437,0.00345202655,30.7000007629,0.0,0.01586741791144076,0.046880915436359576
1648294943565908490,29580,1,1,0.0335008911788,0.0146502861753,-0.0293407458812,0.0,30.7000007629,0.01120431143103679,0.0048997612626421405,-0.009812958488695652,30.7000007629,0.0,0.0165855614833569,0.04688091257278532
1648294943565910396,29581,1,2,2.19026970863,-1.31266570091,0.609911561012,0.0,30.7000007629,0.7325316751270902,-0.4390186290668896,0.20398379966956517,30.7000007629,0.0,1.1251411763848893,2.625331360256031
1648294943565912067,29582,1,3,1.92046248913,-0.0600661747158,0.0524563938379,0.0809188112617,30.7000007629,0.6422951468662207,-0.020089021644080267,0.017543944427391305,30.7000007629,0.010934974494824324,0.9085646263015176,1.9221175278205185
1648294943760883962,29583,3,0,0.0127122588456,0.0439508594573,0.0102245127782,0.0,16.2000007629,0.004251591587157191,0.014699284099431437,0.0034195694910367893,16.2000007629,0.0,0.015881467661515717,0.04688091545122009
1648294943760886051,29584,3,1,0.033514522016,0.0146502861753,-0.0293251797557,0.0,16.2000007629,0.011208870239464881,0.0048997612626421405,-0.009807752426655518,16.2000007629,0.0,0.016591720963215706,0.0468809155060271
1648294943760887910,29585,3,2,2.23711824417,-1.2306240797,0.610926687717,0.0,16.2000007629,0.7482000816622073,-0.4115799597658863,0.20432330692876252,16.2000007629,0.0,1.1353434668326392,2.625331423211287
1648294943760992351,29586,3,3,1.91652989388,-0.120132349432,-0.0837698876858,0.0809188112617,16.2000007629,0.6409798976187291,-0.040178043288294316,-0.028016684844749163,16.2000007629,0.010934974494824324,0.907372433714574,1.9221175847482972
1648294943865558824,29587,4,0,0.0126214576885,0.0439508594573,0.0103363925591,0.0,16.5,0.0042212233071906346,0.014699284099431437,0.003456987477959866,16.5,0.0,0.015865257812406854,0.046880915651827344
1648294943865561831,29588,4,1,0.033514522016,0.0146502861753,-0.0293251797557,0.0,16.5,0.011208870239464881,0.0048997612626421405,-0.009807752426655518,16.5,0.0,0.016591720963215706,0.0468809155060271
1648294943865564016,29589,4,2,1.91775512695,-0.120132349432,0.0481587834656,0.0,16.5,0.6413896745652173,-0.040178043288294316,0.01610661654367893,16.5,0.0,0.9079513777952136,1.9221175241769035
1648294943865571990,29590,4,3,2.23484015465,-1.2306240797,0.619208395481,0.0,16.5,0.747438178812709,-0.4115799597658863,0.20709310885652174,16.5,0.0,1.1343393344033375,2.625331441819806
1648294944060879850,29591,6,0,0.0126920221373,0.0439508594573,0.0102496230975,0.0,15.1000003815,0.00424482345729097,0.014699284099431437,0.0034279675911371237,15.1000003815,0.0,0.015877846371688233,0.04688091559056686
1648294944060883583,29592,6,1,0.033514522016,0.0146502861753,-0.0293251797557,0.0,15.1000003815,0.011208870239464881,0.0048997612626421405,-0.009807752426655518,15.1000003815,0.0,0.016591720963215706,0.0468809155060271
1648294944061016269,29593,6,2,1.96478891373,-0.12306240201,0.0376181490719,0.0,15.1000003815,0.6571200380367893,-0.04115799398327759,0.012581320759832777,15.1000003815,0.0,0.9302190436922211,1.9689984650690768
1648294944061021299,29594,6,3,2.19185161591,-1.31266570091,0.604202508926,0.0,15.1000003815,0.7330607411070234,-0.4390186290668896,0.20207441770100334,15.1000003815,0.0,1.125830119055503,2.625331487699276
1648294944165821416,29595,7,0,0.0126092592254,0.0439508594573,0.0103512695059,0.0,14.8000001907,0.004217143553645485,0.014699284099431437,0.0034619630454515047,14.8000001907,0.0,0.015863087736626348,0.04688091558014249
1648294944165823264,29596,7,1,0.033514522016,0.0146502861753,-0.0293251797557,0.0,14.8000001907,0.011208870239464881,0.0048997612626421405,-0.009807752426655518,14.8000001907,0.0,0.016591720963215706,0.0468809155060271
1648294944165825375,29597,7,2,1.96455252171,-0.12306240201,-0.0484128557146,0.0,14.8000001907,0.657040977160535,-0.04115799398327759,-0.01619159054,14.8000001907,0.0,0.9301073442376794,1.9689984179638218
1648294944165827171,29598,7,3,2.23678827286,-1.2306240797,0.612133860588,0.0,14.8000001907,0.7480897233645485,-0.4115799597658863,0.20472704367491637,14.8000001907,0.0,1.1351980143077163,2.625331458391466
1648294944360839246,29599,9,0,0.0126420250162,0.0439508594573,0.0103112263605,0.0,15.0,0.004228102012107024,0.014699284099431437,0.0034485706891304343,15.0,0.0,0.015868920766245093,0.046880915441179616
1648294944360840876,29600,9,1,0.0335651524365,0.0146502861753,-0.0292672142386,0.0,15.0,0.011225803490468226,0.0048997612626421405,-0.009788365966086955,15.0,0.0,0.01661460166372055,0.046880914799007266
1648294944361018423,29601,9,2,2.23688483238,-1.2306240797,0.611780643463,0.0,15.0,0.7481220175183946,-0.4115799597658863,0.20460891085719063,15.0,0.0,1.1352405777950658,2.625331395192838
1648294944361021964,29602,9,3,1.86115014553,-0.0,0.229417428374,0.0809188112617,15.0,0.6224582426521739,-0.0,0.07672823691438127,15.0,0.010934974494824324,0.8802888887696273,1.8752365772478092
1648294944361040398,29603,9,4,0.791567087173,1.69943320751,0.0431364811957,0.0809188112617,15.0,0.26473815624515046,0.5683723102040134,0.01442691678785953,15.0,0.010934974494824324,0.6806024285519487,1.8752366347459248
1648294944465864377,29604,10,0,0.0126214576885,0.0439508594573,0.0103363925591,0.0,12.1999998093,0.0042212233071906346,0.014699284099431437,0.003456987477959866,12.1999998093,0.0,0.015865257812406854,0.046880915651827344
1648294944465869224,29605,10,1,0.033514522016,0.0146502861753,-0.0293251797557,0.0,12.1999998093,0.011208870239464881,0.0048997612626421405,-0.009807752426655518,12.1999998093,0.0,0.016591720963215706,0.0468809155060271
1648294944465871321,29606,10,2,1.96304571629,-0.12306240201,-0.0908953547478,0.0,12.1999998093,0.6565370288595317,-0.04115799398327759,-0.030399784196588626,12.1999998093,0.0,0.9293953523641758,1.9689984267509504
1648294944465873106,29607,10,3,2.2377383709,-1.2306240797,0.608650624752,0.0,12.1999998093,0.7484074819063544,-0.4115799597658863,0.20356208185685618,12.1999998093,0.0,1.1356168285243526,2.625331260078746
1648294944660925309,29608,12,0,0.0127122588456,0.0439508594573,0.0102245127782,0.0,14.8999996185,0.004251591587157191,0.014699284099431437,0.0034195694910367893,14.8999996185,0.0,0.015881467661515717,0.04688091545122009
1648294944660928682,29609,12,1,0.0335903465748,0.0146502861753,-0.0292382948101,0.0,14.8999996185,0.011234229623678928,0.0048997612626421405,-0.009778693916421404,14.8999996185,0.0,0.016625988418917503,0.0468809145755038
1648294944660932422,29610,12,2,1.84225893021,-0.117202289402,0.329936414957,0.0,14.8999996185,0.6161401104381271,-0.03919809010100334,0.11034662707591972,14.8999996185,0.0,0.8722349234288783,1.8752366198680748
1648294944661137967,29611,12,3,2.23947501183,-1.2306240797,0.602230489254,0.0,14.8999996185,0.7489882982709031,-0.4115799597658863,0.20141487934916388,14.8999996185,0.0,1.1363824203032953,2.6253315059884463
1648294944765854168,29612,13,0,0.0126214576885,0.0439508594573,0.0103363925591,0.0,14.5,0.0042212233071906346,0.014699284099431437,0.003456987477959866,14.5,0.0,0.015865257812406854,0.046880915651827344
1648294944765857983,29613,13,1,0.033514522016,0.0146502861753,-0.0293251797557,0.0,14.5,0.011208870239464881,0.0048997612626421405,-0.009807752426655518,14.5,0.0,0.016591720963215706,0.0468809155060271
1648294944765861618,29614,13,2,2.23792481422,-1.2306240797,0.607965111732,0.0,14.5,0.7484698375317724,-0.4115799597658863,0.20333281328829428,14.5,0.0,1.1356990176409258,2.6253313460823184
1648294944765869004,29615,13,3,1.84481608868,-0.117202289402,0.315324425697,0.0809188112617,14.5,0.6169953473846154,-0.03919809010100334,0.10545967414615383,14.5,0.010934974494824324,0.8734431908579349,1.8752365907092328
1648294944960798559,29616,15,0,0.0127122588456,0.0439508594573,0.0102245127782,0.0,16.7000007629,0.004251591587157191,0.014699284099431437,0.0034195694910367893,16.7000007629,0.0,0.015881467661515717,0.04688091545122009
1648294944960803216,29617,15,1,0.033514522016,0.0146502861753,-0.0293251797557,0.0,16.7000007629,0.011208870239464881,0.0048997612626421405,-0.009807752426655518,16.7000007629,0.0,0.016591720963215706,0.0468809155060271
1648294944960833164,29618,15,2,1.96407914162,-0.12306240201,0.0648363828659,0.0,16.7000007629,0.6568826560602007,-0.04115799398327759,0.021684408985250835,16.7000007629,0.0,0.9298836637634492,1.9689984727973662
1648294944960998773,29619,15,3,2.23897075653,-1.2306240797,0.6041020751,0.0,16.7000007629,0.7488196510133779,-0.4115799597658863,0.20204082779264212,16.7000007629,0.0,1.1361601131744075,2.6253314059893693
