%time,field.header.seq,field.header.frame_id,field.point_id,field.x,field.y,field.z,field.velocity,field.intensity,normalized_x,normalized_y,normalized_z,normalized_intensity,normalized_velocity,normalized_range,range
1648126103991585737,54889,0,0,0.0125784864649,0.0439508594573,0.0103886406869,0.0,13.3999996185,0.004206851660501672,0.014699284099431437,0.0034744617681939797,13.3999996185,0.0,0.015857621348194982,0.04688091535054028
1648126103991690073,54890,0,1,0.0328762494028,0.0146502861753,-0.0300389975309,0.0,13.3999996185,0.010995401138060199,0.0048997612626421405,-0.010046487468528428,13.3999996185,0.0,0.016303538045608367,0.046880913306746805
1648126103991699497,54891,0,2,1.25501871109,-0.039555773139,0.159919649363,0.0,13.3999996185,0.41973869936120395,-0.013229355564882942,0.05348483256287625,13.3999996185,0.0,0.5937475619583902,1.265784704689946
1648126103991702291,54892,0,3,1.85262143612,-1.39177727699,0.35397836566,0.0,13.3999996185,0.6196058314782608,-0.4654773501638796,0.11838741326421405,13.3999996185,0.0,0.9922156702649484,2.344045830966697
1648126103991751922,54893,0,4,2.41429162025,-0.902457654476,0.499129801989,0.0,13.3999996185,0.8074553913879599,-0.30182530250033446,0.16693304414347823,13.3999996185,0.0,1.1811295150796908,2.6253312943255893
1648126104096566076,54894,1,0,0.0125784864649,0.0439508594573,0.0103886406869,0.0,13.1999998093,0.004206851660501672,0.014699284099431437,0.0034744617681939797,13.1999998093,0.0,0.015857621348194982,0.04688091535054028
1648126104096572770,54895,1,1,0.0328392535448,0.0146502861753,-0.0300794392824,0.0,13.1999998093,0.010983027941404683,0.0048997612626421405,-0.01006001313792642,13.1999998093,0.0,0.016286849479080982,0.04688091430359943
1648126104096575352,54896,1,2,1.23355567455,0.039555773139,0.281046003103,0.0,13.1999998093,0.412560426270903,0.013229355564882942,0.09399531876354514,13.1999998093,0.0,0.583598514818467,1.2657847831536375
1648126104096581669,54897,1,3,1.88446354866,-1.31852579117,0.452590465546,0.0,13.1999998093,0.630255367444816,-0.44097852547491634,0.15136804867759196,13.1999998093,0.0,0.9944373868253503,2.344045916297686
1648126104096589210,54898,1,4,2.38548088074,-0.984499275684,0.482293188572,0.0,13.1999998093,0.7978196925551838,-0.32926397180066885,0.16130206975652173,13.1999998093,0.0,1.1753498571845098,2.6253313268883516
1648126104291448127,54899,3,0,0.0126463817433,0.0439508594573,0.0103058833629,0.0,13.0,0.0042295591114715715,0.014699284099431437,0.003446783733411371,13.0,0.0,0.015869697337714487,0.04688091562802829
1648126104291460891,54900,3,1,0.0328762494028,0.0146502861753,-0.0300389975309,0.0,13.0,0.010995401138060199,0.0048997612626421405,-0.010046487468528428,13.0,0.0,0.016303538045608367,0.046880913306746805
1648126104291470001,54901,3,2,1.21607375145,-0.158223092556,0.313593745232,0.0,13.0,0.4067136292474916,-0.05291742225953177,0.10488085124816053,13.0,0.0,0.577609042527838,1.2657847182804403
1648126104291536511,54902,3,3,0.951687574387,0.316446185112,-0.772245824337,0.0,13.0,0.31829015865785953,0.10583484451906354,-0.25827619543043473,13.0,0.0,0.46240487076939957,1.2657847528393138
1648126104291540131,54903,3,4,2.41643452644,-0.902457654476,0.488650172949,0.0,13.0,0.8081720824214046,-0.30182530250033446,0.16342815148795986,13.0,0.0,1.182109446218969,2.6253313372252114
1648126104291543256,54904,3,5,1.30655956268,-0.75888478756,0.851945996284,-0.647350490093,13.0,0.4369764423678929,-0.25380762125752504,0.28493177133244146,13.0,-0.08747979595851352,0.668068208327117,1.734593898353409
1648126104291668320,54905,3,6,1.3570857048,0.241729736328,0.702361345291,-0.161837622523,13.0,0.45387481765886284,0.08084606566153846,0.23490345996354514,13.0,-0.021869948989594594,0.6469472826611776,1.5470702424119922
1648126104396602337,54906,4,0,0.0126463817433,0.0439508594573,0.0103058833629,0.0,33.2000007629,0.0042295591114715715,0.014699284099431437,0.003446783733411371,33.2000007629,0.0,0.015869697337714487,0.04688091562802829
1648126104396613478,54907,4,1,0.0328635908663,0.0146502861753,-0.0300528481603,0.0,33.2000007629,0.010991167513812709,0.0048997612626421405,-0.010051119786053511,33.2000007629,0.0,0.016297827679303527,0.046880914796874326
1648126104396615511,54908,4,2,1.22343575954,-0.0,0.324678361416,0.0,33.2000007629,0.4091758393110368,-0.0,0.10858808074113711,33.2000007629,0.0,0.5786620213490624,1.2657847747911157
1648126104396617288,54909,4,3,2.41523075104,-0.902457654476,0.494566380978,0.0,33.2000007629,0.8077694819531772,-0.30182530250033446,0.16540681638060198,33.2000007629,0.0,1.1815589639028714,2.6253314655649183
1648126104396619180,54910,4,4,1.40103948116,-0.448298752308,0.613837599754,-0.323675245047,33.2000007629,0.46857507731103676,-0.14993269307959864,0.2052968561050167,33.2000007629,-0.04373989797932432,0.6794152033978849,1.5939510651088833
1648126104396623005,54911,4,5,1.33045661449,0.290075659752,0.734280407429,-0.0809188112617,33.2000007629,0.4449687673879599,0.09701527082006689,0.24557873158160534,33.2000007629,-0.010934974494824324,0.6367152979737581,1.5470702660690139
1648126104591531583,54912,6,0,0.0126463817433,0.0439508594573,0.0103058833629,0.0,17.7999992371,0.0042295591114715715,0.014699284099431437,0.003446783733411371,17.7999992371,0.0,0.015869697337714487,0.04688091562802829
1648126104591682681,54913,6,1,0.0328519046307,0.0146502861753,-0.0300656240433,0.0,17.7999992371,0.010987259073812709,0.0048997612626421405,-0.010055392656622074,17.7999992371,0.0,0.01629255610212983,0.04688091586131667
1648126104591687591,54914,6,2,1.20077121258,-0.0,0.209463119507,0.0,17.7999992371,0.401595723270903,-0.0,0.07005455501906355,17.7999992371,0.0,0.5679421184407434,1.2189037301585584
1648126104591692700,54915,6,3,1.33213484287,-0.127457484603,0.239871323109,0.0,17.7999992371,0.44553004778260863,-0.04262792127190635,0.08022452277892976,17.7999992371,0.0,0.6315149931920151,1.3595465794225903
1648126104591695942,54916,6,4,1.83706688881,-1.31852579117,0.617435336113,0.0,17.7999992371,0.6144036417424749,-0.44097852547491634,0.2065001124123746,17.7999992371,0.0,0.9743950584351617,2.3440459488293954
1648126104591808091,54917,6,5,2.40096211433,-0.984499275684,0.398129820824,0.0,17.7999992371,0.8029973626521738,-0.32926397180066885,0.13315378622876253,17.7999992371,0.0,1.1823807728387015,2.6253314557403327
1648126104591810746,54918,6,6,1.36596429348,0.375047326088,0.494013160467,-0.323675245047,17.7999992371,0.4568442453110368,0.1254338883237458,0.16522179279832774,17.7999992371,-0.04373989797932432,0.6581390349216762,1.5001893049154391
1648126104696762932,54919,7,0,0.0126463817433,0.0439508594573,0.0103058833629,0.0,38.9000015259,0.0042295591114715715,0.014699284099431437,0.003446783733411371,38.9000015259,0.0,0.015869697337714487,0.04688091562802829
1648126104696769786,54920,7,1,0.0328762494028,0.0146502861753,-0.0300389975309,0.0,38.9000015259,0.010995401138060199,0.0048997612626421405,-0.010046487468528428,38.9000015259,0.0,0.016303538045608367,0.046880913306746805
1648126104696772549,54921,7,2,1.2479698658,-0.039555773139,0.207888379693,0.0,38.9000015259,0.4173812260200669,-0.013229355564882942,0.06952788618494983,38.9000015259,0.0,0.5904144235337501,1.2657847461337473
1648126104696782972,54922,7,3,1.33965325356,-0.0424858294427,0.227795645595,0.0,38.9000015259,0.44804456640802676,-0.01420930750591973,0.07618583464715718,38.9000015259,0.0,0.6337900057553063,1.3595465205830108
1648126104696789199,54923,7,4,1.88982021809,-1.31852579117,0.429675072432,0.0,38.9000015259,0.6320468956822741,-0.44097852547491634,0.14370403760267558,38.9000015259,0.0,0.9967088926126978,2.344045943780039
1648126104696928804,54924,7,5,1.40409517288,-0.421928226948,0.317901581526,-0.566431701183,38.9000015259,0.4695970477859531,-0.14111311938060198,0.10632159917257525,38.9000015259,-0.07654482448418919,0.678937174589733,1.5001893542940279
1648126104891504081,54925,9,0,0.0126463817433,0.0439508594573,0.0103058833629,0.0,41.0999984741,0.0042295591114715715,0.014699284099431437,0.003446783733411371,41.0999984741,0.0,0.015869697337714487,0.04688091562802829
1648126104891532164,54926,9,1,0.0328762494028,0.0146502861753,-0.0300389975309,0.0,41.0999984741,0.010995401138060199,0.0048997612626421405,-0.010046487468528428,41.0999984741,0.0,0.016303538045608367,0.046880913306746805
1648126104891596960,54927,9,2,0.107547201216,-0.399952799082,-0.447105109692,0.0,41.0999984741,0.035968963617391304,-0.13376347795384613,-0.14953348150234114,41.0999984741,0.0,0.14310905185112338,0.6094519022003433
1648126104891598928,54928,9,3,1.85047674179,-1.39177727699,0.365024328232,0.0,41.0999984741,0.6188885424046823,-0.4654773501638796,0.12208171512775919,41.0999984741,0.0,0.9913199379388934,2.344045844443461
1648126104891618082,54929,9,4,2.40910100937,-0.902457654476,0.523609876633,0.0,41.0999984741,0.8057194011270903,-0.30182530250033446,0.1751203600779264,41.0999984741,0.0,1.178756132511985,2.6253313684899857
1648126104891677117,54930,9,5,1.23034310341,0.039555773139,0.294791817665,0.0809188112617,41.0999984741,0.4114859877625418,0.013229355564882942,0.09859258115886288,41.0999984741,0.010934974494824324,0.5820794207825006,1.2657847475220299
1648126104891682329,54931,9,6,1.46081197262,0.187523663044,0.285361915827,-0.0809188112617,41.0999984741,0.48856587713043476,0.0627169441618729,0.09543876783511705,41.0999984741,-0.010934974494824324,0.6937770878873599,1.5001893768974073
1648126104996657912,54932,10,0,0.0126463817433,0.0439508594573,0.0103058833629,0.0,15.5,0.0042295591114715715,0.014699284099431437,0.003446783733411371,15.5,0.0,0.015869697337714487,0.04688091562802829
1648126104996663793,54933,10,1,0.0328519046307,0.0146502861753,-0.0300656240433,0.0,15.5,0.010987259073812709,0.0048997612626421405,-0.010055392656622074,15.5,0.0,0.01629255610212983,0.04688091586131667
1648126104996674752,54934,10,2,1.22819745541,-0.0,0.306172966957,0.0,15.5,0.4107683797357859,-0.0,0.10239898560434783,15.5,0.0,0.5809142136163701,1.2657846875242451
1648126104996678481,54935,10,3,1.88347399235,-1.31852579117,0.456691265106,0.0,15.5,0.6299244121571905,-0.44097852547491634,0.15273955354715718,15.5,0.0,0.9940179022498515,2.3440459580527513
1648126104996680648,54936,10,4,2.38884711266,-0.984499275684,0.465334415436,0.0,15.5,0.7989455226287625,-0.32926397180066885,0.15563023927625416,15.5,0.0,1.176878353689558,2.625331497101938
1648126104996829313,54937,10,5,2.09774923325,-0.533270418644,-1.12159526348,0.242756426334,15.5,0.7015883723244147,-0.1783513105832776,-0.3751154727357859,15.5,0.03280492247756756,1.0080980499675694,2.437807441136908
1648126104996850456,54938,10,6,1.11605072021,0.0732514336705,0.350289642811,-0.485512852669,15.5,0.3732611104381271,0.02449880724765886,0.11715372669264214,15.5,-0.06560984495527027,0.5284391210797753,1.1720229590228604
1648126104996857622,54939,10,7,1.20573508739,0.181663542986,0.790763139725,-0.161837622523,15.5,0.40325588207023405,0.06075703778795986,0.2644692775,15.5,-0.021869948989594594,0.5735172451541912,1.4533083248097551
1648126104997163699,54940,10,8,1.4227296114,-0.27249532938,0.11701221019,-0.161837622523,15.5,0.47582930147157193,-0.09113556166555183,0.039134518458193976,15.5,-0.021869948989594594,0.6790675510418266,1.4533083323995148
1648126105191558945,54941,12,0,0.0126463817433,0.0439508594573,0.0103058833629,0.0,22.8999996185,0.0042295591114715715,0.014699284099431437,0.003446783733411371,22.8999996185,0.0,0.015869697337714487,0.04688091562802829
1648126105191565551,54942,12,1,0.0328762494028,0.0146502861753,-0.0300389975309,0.0,22.8999996185,0.010995401138060199,0.0048997612626421405,-0.010046487468528428,22.8999996185,0.0,0.016303538045608367,0.046880913306746805
1648126105191628280,54943,12,2,1.07174408436,0.0732514336705,0.46865427494,0.0,22.8999996185,0.35844283757859524,0.02449880724765886,0.156740560180602,22.8999996185,0.0,0.5075063814173654,1.1720230306248147
1648126105191727378,54944,12,3,1.87670898438,-1.31852579117,0.483739852905,0.0,22.8999996185,0.6276618676856187,-0.44097852547491634,0.16178590398160533,22.8999996185,0.0,0.9911513003690353,2.3440458867781655
1648126105191731983,54945,12,4,2.40271139145,-0.984499275684,0.38743236661,0.0,22.8999996185,0.803582405167224,-0.32926397180066885,0.1295760423444816,22.8999996185,0.0,1.1831754421532898,2.625331349205837
1648126105296693658,54946,13,0,0.0126463817433,0.0439508594573,0.0103058833629,0.0,13.0,0.0042295591114715715,0.014699284099431437,0.003446783733411371,13.0,0.0,0.015869697337714487,0.04688091562802829
1648126105296701086,54947,13,1,0.0328392535448,0.0146502861753,-0.0300794392824,0.0,13.0,0.010983027941404683,0.0048997612626421405,-0.01006001313792642,13.0,0.0,0.016286849479080982,0.04688091430359943
1648126105296703356,54948,13,2,1.19336903095,-0.039555773139,0.420138955116,0.0,13.0,0.3991200772408027,-0.013229355564882942,0.1405147007076923,13.0,0.0,0.5645960396266261,1.2657847545397007
1648126105296705119,54949,13,3,1.35643601418,-0.0,0.0919141769409,0.0,13.0,0.4536575298260869,-0.0,0.030740527404983273,13.0,0.0,0.641568631352729,1.3595465701796494
1648126105296715603,54950,13,4,2.406072855,-0.984499275684,0.365978062153,0.0,13.0,0.8047066404682274,-0.32926397180066885,0.12240068968327758,13.0,0.0,1.1847026283220923,2.6253314741890095
1648126105296863045,54951,13,5,1.08690190315,-0.0,0.290841519833,0.161837622523,13.0,0.36351234219063544,-0.0,0.09727141131538461,13.0,0.021869948989594594,0.5140840844160061,1.1251420073616758
1648126105491627251,54952,15,0,0.0126463817433,0.0439508594573,0.0103058833629,0.0,31.7000007629,0.0042295591114715715,0.014699284099431437,0.003446783733411371,31.7000007629,0.0,0.015869697337714487,0.04688091562802829
1648126105491727305,54953,15,1,0.0328519046307,0.0146502861753,-0.0300656240433,0.0,31.7000007629,0.010987259073812709,0.0048997612626421405,-0.010055392656622074,31.7000007629,0.0,0.01629255610212983,0.04688091586131667
1648126105491731067,54954,15,2,0.133922591805,-0.380907416344,-0.456514954567,0.0,31.7000007629,0.044790164483277585,-0.12739378473043478,-0.15268058681170565,31.7000007629,0.0,0.14227260473057518,0.6094519047184446
1648126105491733055,54955,15,3,1.33434796333,-0.0,0.260542660952,0.0,31.7000007629,0.44627022184949827,-0.0,0.08713801369632107,31.7000007629,0.0,0.6311214002228104,1.3595466028860017
1648126105491740944,54956,15,4,1.87460243702,-1.31852579117,0.491840183735,0.0,31.7000007629,0.6269573367959866,-0.44097852547491634,0.16449504472742474,31.7000007629,0.0,0.9902590894582407,2.344045930692971
1648126105491743077,54957,15,5,2.41324782372,-0.902457654476,0.504152715206,0.0,31.7000007629,0.8071062955585283,-0.30182530250033446,0.16861294822943143,31.7000007629,0.0,1.180652217162124,2.625331376619192
1648126105491744913,54958,15,6,1.12931013107,0.0732514336705,0.304845571518,-0.0809188112617,31.7000007629,0.37769569601003344,0.02449880724765886,0.10195504064147157,31.7000007629,-0.010934974494824324,0.5347039079019015,1.1720230233004216
1648126105596720306,54959,16,0,0.0126463817433,0.0439508594573,0.0103058833629,0.0,20.0,0.0042295591114715715,0.014699284099431437,0.003446783733411371,20.0,0.0,0.015869697337714487,0.04688091562802829
1648126105596725955,54960,16,1,0.0328762494028,0.0146502861753,-0.0300389975309,0.0,20.0,0.010995401138060199,0.0048997612626421405,-0.010046487468528428,20.0,0.0,0.016303538045608367,0.046880913306746805
1648126105596728967,54961,16,2,1.23133742809,-0.0,0.29329007864,0.0,20.0,0.41181853782274247,-0.0,0.09809032730434782,20.0,0.0,0.5823993614255798,1.2657847099897965
1648126105596730773,54962,16,3,2.38545227051,-0.984499275684,0.482434809208,0.0,20.0,0.797810123916388,-0.32926397180066885,0.16134943451772574,20.0,0.0,1.1753368669334405,2.625331351246771
1648126105596732606,54963,16,4,1.1353675127,-0.0,0.290823549032,-0.0809188112617,20.0,0.3797215761538461,-0.0,0.0972654010140468,20.0,-0.010934974494824324,0.5370074029224572,1.1720229202392556
1648126105791640352,54964,18,0,0.0126463817433,0.0439508594573,0.0103058833629,0.0,23.2999992371,0.0042295591114715715,0.014699284099431437,0.003446783733411371,23.2999992371,0.0,0.015869697337714487,0.04688091562802829
1648126105791649049,54965,18,1,0.0328635908663,0.0146502861753,-0.0300528481603,0.0,23.2999992371,0.010991167513812709,0.0048997612626421405,-0.010051119786053511,23.2999992371,0.0,0.016297827679303527,0.046880914796874326
1648126105791651749,54966,18,2,1.12708437443,-0.0,0.32143214345,0.0,23.2999992371,0.37695129579598663,-0.0,0.10750238911371236,23.2999992371,0.0,0.5330896348687966,1.1720229562287277
1648126105791653636,54967,18,3,1.30218064785,-0.082041606307,0.143826782703,0.0,23.2999992371,0.4355119223578595,-0.027438664316722407,0.04810260291070234,23.2999992371,0.0,0.6165177607588952,1.3126657640935009
1648126105791655850,54968,18,4,1.30539631844,-0.0,0.137955024838,0.0,23.2999992371,0.4365873974715718,-0.0,0.04613880429364549,23.2999992371,0.0,0.61742781866547,1.3126656608119065
1648126105791789654,54969,18,5,1.84890890121,-1.39177727699,0.372884750366,0.0,23.2999992371,0.6183641810066889,-0.4654773501638796,0.124710618851505,23.2999992371,0.0,0.990665273550927,2.344045893487323
1648126105791792192,54970,18,6,2.39445638657,-0.984499275684,0.435551136732,0.0,23.2999992371,0.8008215339698996,-0.32926397180066885,0.14566927649899666,23.2999992371,0.0,1.179425716891809,2.6253314083590893
1648126105896729349,54971,19,0,0.0126259634271,0.0439508594573,0.0103308875114,0.0,12.3000001907,0.004222730243177257,0.014699284099431437,0.0034551463248829427,12.3000001907,0.0,0.015866059827477193,0.0468809154802997
1648126105896735261,54972,19,1,0.0328519046307,0.0146502861753,-0.0300656240433,0.0,12.3000001907,0.010987259073812709,0.0048997612626421405,-0.010055392656622074,12.3000001907,0.0,0.01629255610212983,0.04688091586131667
1648126105896738355,54973,19,2,1.1271033287,0.0366257168353,0.319271832705,0.0,12.3000001907,0.3769576350167224,0.012249403623846153,0.10677987715886286,12.3000001907,0.0,0.5332393131455527,1.1720229775303594
1648126105896740463,54974,19,3,1.24294626713,-0.0,0.239364683628,0.0,12.3000001907,0.4157010926856187,-0.0,0.08005507813645485,12.3000001907,0.0,0.587890123169317,1.265784687354344
1648126105896748020,54975,19,4,1.32733333111,-0.0849716588855,0.281661331654,0.0,12.3000001907,0.4439241910066889,-0.028418615011872907,0.09420111426555183,12.3000001907,0.0,0.6284464912791538,1.359546637831313
1648126105896822886,54976,19,5,2.40158939362,-0.984499275684,0.394328117371,0.0,12.3000001907,0.8032071550568561,-0.32926397180066885,0.1318823135020067,12.3000001907,0.0,1.1826657308787674,2.625331427366792
1648126106091607931,54977,21,0,0.0126362647861,0.0439508594573,0.0103182848543,0.0,12.3000001907,0.004226175513745819,0.014699284099431437,0.003450931389397993,12.3000001907,0.0,0.015867894377697606,0.04688091548929313
1648126106091610388,54978,21,1,0.0328519046307,0.0146502861753,-0.0300656240433,0.0,12.3000001907,0.010987259073812709,0.0048997612626421405,-0.010055392656622074,12.3000001907,0.0,0.01629255610212983,0.04688091586131667
1648126106091784865,54979,21,2,1.13235032558,0.0732514336705,0.293351143599,0.0,12.3000001907,0.3787124834715719,0.02449880724765886,0.09811075036755852,12.3000001907,0.0,0.5361403564655147,1.1720230056729932
1648126106091788261,54980,21,3,1.29685282707,-0.0,0.203135401011,0.0,12.3000001907,0.4337300424983277,-0.0,0.06793826120769231,12.3000001907,0.0,0.6133869085097939,1.3126657023870743
1648126106091790194,54981,21,4,2.39971327782,-0.984499275684,0.40558847785,0.0,12.3000001907,0.8025796915785953,-0.32926397180066885,0.13564832035117055,12.3000001907,0.0,1.1818134733513312,2.625331341551502
1648126106196720610,54982,22,0,0.0126463817433,0.0439508594573,0.0103058833629,0.0,12.6000003815,0.0042295591114715715,0.014699284099431437,0.003446783733411371,12.6000003815,0.0,0.015869697337714487,0.04688091562802829
1648126106196729659,54983,22,1,0.0328519046307,0.0146502861753,-0.0300656240433,0.0,12.6000003815,0.010987259073812709,0.0048997612626421405,-0.010055392656622074,12.6000003815,0.0,0.01629255610212983,0.04688091586131667
1648126106196734879,54984,22,2,1.23229241371,0.039555773139,0.286534190178,0.0,12.6000003815,0.41213793100668894,0.013229355564882942,0.0958308328354515,12.6000003815,0.0,0.5830011699796241,1.265784774049998
1648126106196741071,54985,22,3,1.34639680386,-0.0424858294427,0.183786436915,0.0,12.6000003815,0.45029993440133775,-0.01420930750591973,0.061467035757525074,12.6000003815,0.0,0.6369787800731638,1.3595465617409979
1648126106197121848,54986,22,4,2.39769363403,-0.984499275684,0.417362898588,0.0,12.6000003815,0.8019042254280936,-0.32926397180066885,0.1395862537083612,12.6000003815,0.0,1.1808960736003882,2.6253314791865967
1648126106391672263,54987,24,0,0.0126463817433,0.0439508594573,0.0103058833629,0.0,12.8999996185,0.0042295591114715715,0.014699284099431437,0.003446783733411371,12.8999996185,0.0,0.015869697337714487,0.04688091562802829
1648126106391678442,54988,24,1,0.0328519046307,0.0146502861753,-0.0300656240433,0.0,12.8999996185,0.010987259073812709,0.0048997612626421405,-0.010055392656622074,12.8999996185,0.0,0.01629255610212983,0.04688091586131667
1648126106391681461,54989,24,2,1.13479042053,0.0366257168353,0.290769696236,0.0,12.8999996185,0.3795285687391304,0.012249403623846153,0.09724739004548495,12.8999996185,0.0,0.5368742095384035,1.1720229340373547
1648126106391855763,54990,24,3,2.3975250721,-0.984499275684,0.418329000473,0.0,12.8999996185,0.8018478502006688,-0.32926397180066885,0.13990936470668894,12.8999996185,0.0,1.18081950901432,2.6253313024849207
1648126106496670620,54991,25,0,0.0126463817433,0.0439508594573,0.0103058833629,0.0,12.3999996185,0.0042295591114715715,0.014699284099431437,0.003446783733411371,12.3999996185,0.0,0.015869697337714487,0.04688091562802829
1648126106496674278,54992,25,1,0.0328762494028,0.0146502861753,-0.0300389975309,0.0,12.3999996185,0.010995401138060199,0.0048997612626421405,-0.010046487468528428,12.3999996185,0.0,0.016303538045608367,0.046880913306746805
1648126106496680539,54993,25,2,1.12679290771,0.0366257168353,0.320365339518,0.0,12.3999996185,0.3768538152876254,0.012249403623846153,0.10714559850100334,12.3999996185,0.0,0.5330925286315868,1.172022888327587
1648126106496684283,54994,25,3,1.35577833652,-0.0849716588855,0.0548810474575,0.0,12.3999996185,0.45343757074247487,-0.028418615011872907,0.018354865370401336,12.3999996185,0.0,0.6418869673087831,1.3595466192671455
1648126106496686098,54995,25,4,1.88393712044,-1.31852579117,0.454776734114,0.0,12.3999996185,0.6300793044949832,-0.44097852547491634,0.1520992421785953,12.3999996185,0.0,0.9942142223061361,2.3440459068976502
1648126106496769585,54996,25,5,2.39886140823,-0.984499275684,0.410596936941,0.0,12.3999996185,0.802294785361204,-0.32926397180066885,0.1373233902812709,12.3999996185,0.0,1.181426514160535,2.62533135515174
