%time,field.header.seq,field.header.frame_id,field.point_id,field.x,field.y,field.z,field.velocity,field.intensity,normalized_x,normalized_y,normalized_z,normalized_intensity,normalized_velocity,normalized_range,range
1648220007862358265,94731,0,0,0.0122964046896,0.0439508594573,0.010721036233,0.0,21.2000007629,0.004112509929632107,0.014699284099431437,0.00358563084715719,21.2000007629,0.0,0.015808049496330762,0.0468809154479203
1648220007862363229,94732,0,1,0.0334718860686,0.0146502861753,-0.0293738357723,0.0,21.2000007629,0.01119461072528428,0.0048997612626421405,-0.009824025341906354,21.2000007629,0.0,0.016572455430991152,0.04688091583987642
1648220007862367315,94733,0,2,1.59947729111,-0.527410268784,-0.109021387994,0.0,21.2000007629,0.5349422378294314,-0.17639139424214045,-0.036462002673578596,21.2000007629,0.0,0.7768142117589032,1.6877129078831898
1648220007862384466,94734,0,3,1.75454330444,0.228544458747,0.460683941841,0.0,21.2000007629,0.5868037807491638,0.07643627382842809,0.15407489693678927,21.2000007629,0.0,0.8333785803341719,1.8283556741097604
1648220007862387591,94735,0,4,1.56942880154,-0.410208016634,0.246885225177,0.0809188112617,21.2000007629,0.5248925757658862,-0.13719331659999998,0.08257030942374581,21.2000007629,0.010934974494824324,0.7548817379616499,1.640832012859567
1648220008057472254,94736,2,0,0.0122742131352,0.0439508594573,0.0107464361936,0.0,16.6000003815,0.004105088005083611,0.014699284099431437,0.0035941258172575248,16.6000003815,0.0,0.01580419083960835,0.04688091558392145
1648220008057476123,94737,2,1,0.0334718860686,0.0146502861753,-0.0293738357723,0.0,16.6000003815,0.01119461072528428,0.0048997612626421405,-0.009824025341906354,16.6000003815,0.0,0.016572455430991152,0.04688091583987642
1648220008057478525,94738,2,2,1.58824074268,-0.410208016634,0.039379004389,0.0,16.6000003815,0.5311841948762541,-0.13719331659999998,0.013170235581605351,16.6000003815,0.0,0.7636329641210995,1.6408320997610288
1648220008057485063,94739,2,3,1.81145143509,0.0571361146867,0.241379380226,0.0,16.6000003815,0.6058366003645484,0.0191090684570903,0.0807288897076923,16.6000003815,0.0,0.8569954079105937,1.8283557756873796
1648220008162652935,94740,3,0,0.0122964046896,0.0439508594573,0.010721036233,0.0,23.2000007629,0.004112509929632107,0.014699284099431437,0.00358563084715719,23.2000007629,0.0,0.015808049496330762,0.0468809154479203
1648220008162658872,94741,3,1,0.0333878919482,0.0146502861753,-0.0294692683965,0.0,23.2000007629,0.011166519046220735,0.0048997612626421405,-0.009855942607525084,23.2000007629,0.0,0.016534508025644712,0.04688091289200561
1648220008162670940,94742,3,2,1.56180083752,-0.461484014988,0.200351536274,0.0,23.2000007629,0.5223414172307692,-0.15434247992909697,0.06700720276722408,23.2000007629,0.0,0.7546540355818425,1.640832133478306
1648220008162698479,94743,3,3,1.66031754017,-0.487854540348,-0.118993423879,0.0,23.2000007629,0.5552901472140468,-0.16316205362809363,-0.03979713173210702,23.2000007629,0.0,0.8020699164849237,1.7345938491937432
1648220008162716084,94744,3,4,1.00374436378,0.216824233532,1.39796292782,0.0,23.2000007629,0.3357004561137124,0.07251646606421404,0.4675461297056856,23.2000007629,0.0,0.4802585036418943,1.7345938555252418
1648220008162741031,94745,3,5,1.69377505779,0.114272229373,-0.678934574127,0.0,23.2000007629,0.566479952438127,0.03821813691404682,-0.2270684194404682,23.2000007629,0.0,0.8020347243217005,1.8283556122216498
1648220008162876992,94746,3,6,1.04486012459,0.799905598164,1.26937103271,0.0,23.2000007629,0.3494515466856187,0.26752695590769227,0.4245388069264214,23.2000007629,0.0,0.5619639126306765,1.8283556723503196
1648220008357755941,94747,5,0,0.0122964046896,0.0439508594573,0.010721036233,0.0,13.8000001907,0.004112509929632107,0.014699284099431437,0.00358563084715719,13.8000001907,0.0,0.015808049496330762,0.0468809154479203
1648220008357760551,94748,5,1,0.0334718860686,0.0146502861753,-0.0293738357723,0.0,13.8000001907,0.01119461072528428,0.0048997612626421405,-0.009824025341906354,13.8000001907,0.0,0.016572455430991152,0.04688091583987642
1648220008357771731,94749,5,2,1.81965517998,0.171408340335,0.0485693253577,0.0809188112617,13.8000001907,0.6085803277525084,0.05732720412541805,0.016243921524314378,13.8000001907,0.010934974494824324,0.8625696719613658,1.8283557565556403
1648220008462749935,94750,6,0,0.0122832721099,0.0439508594573,0.0107360808179,0.0,23.5,0.004108117762508361,0.014699284099431437,0.00359066248090301,23.5,0.0,0.015805765281601245,0.046880915649010785
1648220008462754679,94751,6,1,0.0334718860686,0.0146502861753,-0.0293738357723,0.0,23.5,0.01119461072528428,0.0048997612626421405,-0.009824025341906354,23.5,0.0,0.016572455430991152,0.04688091583987642
1648220008462758320,94752,6,2,1.57153594494,-0.410208016634,0.233096837997,0.0,23.5,0.525597306,-0.13719331659999998,0.07795880869464883,23.5,0.0,0.7558618010381415,1.640832099586505
1648220008462764779,94753,6,3,1.85529863834,0.234404578805,0.139405786991,0.0,23.5,0.6205012168361204,0.07839618020234114,0.0466240090270903,23.5,0.0,0.8810161640177382,1.875236656381692
1648220008657627531,94754,8,0,0.0122759928927,0.0439508594573,0.0107444021851,0.0,11.6000003815,0.004105683241705686,0.014699284099431437,0.003593445546856187,11.6000003815,0.0,0.015804500080617664,0.046880915379844484
1648220008657781502,94755,8,1,0.0333878919482,0.0146502861753,-0.0294692683965,0.0,11.6000003815,0.011166519046220735,0.0048997612626421405,-0.009855942607525084,11.6000003815,0.0,0.016534508025644712,0.04688091289200561
1648220008657785185,94756,8,2,1.61931681633,-0.474669247866,0.0296111293137,0.0,11.6000003815,0.5415775305451505,-0.15875225681137123,0.009903387730334447,11.6000003815,0.0,0.7821858616885569,1.6877128504274754
1648220008657792133,94757,8,3,1.8731546402,0.0586011447012,-0.0661066696048,0.161837622523,11.6000003815,0.626473123812709,0.019599045050568562,-0.02210925404842809,11.6000003815,0.021869948989594594,0.8861835432269107,1.8752366496070092
1648220008657797887,94758,8,4,1.82030308247,0.171408340335,-0.000613108335529,-0.0809188112617,11.6000003815,0.6087970175484949,0.05732720412541805,-0.0002050529550264214,11.6000003815,-0.010934974494824324,0.8628754403068395,1.8283556839652435
1648220008762682269,94759,9,0,0.0122832721099,0.0439508594573,0.0107360808179,0.0,22.6000003815,0.004108117762508361,0.014699284099431437,0.00359066248090301,22.6000003815,0.0,0.015805765281601245,0.046880915649010785
1648220008762686845,94760,9,1,0.0333648212254,0.0146502861753,-0.0294953901321,0.0,22.6000003815,0.01115880308541806,0.0048997612626421405,-0.009864678973946488,22.6000003815,0.0,0.0165240864506683,0.04688091530106756
1648220008762688593,94761,9,2,1.63395643234,-0.421928226948,0.0231897290796,0.0,22.6000003815,0.5464737231906354,-0.14111311938060198,0.007755762233979932,22.6000003815,0.0,0.7856080274137952,1.6877128947233677
1648220008762690209,94762,9,3,1.81313455105,0.228544458747,0.0565276667476,-0.0809188112617,22.6000003815,0.6063995154013377,0.07643627382842809,0.01890557416307692,22.6000003815,-0.010934974494824324,0.8609780766748529,1.8283557769053518
1648220008957694955,94763,11,0,0.0122537110001,0.0439508594573,0.0107698077336,0.0,15.6000003815,0.0040982311037123745,0.014699284099431437,0.0036019423858193976,15.6000003815,0.0,0.01580063129734597,0.04688091550863761
1648220008957699688,94764,11,1,0.0334489420056,0.0146502861753,-0.0293999575078,0.0,15.6000003815,0.011186937125618728,0.0048997612626421405,-0.009832761708294314,15.6000003815,0.0,0.016562088785415374,0.046880914109823243
1648220008957702452,94765,11,2,1.58676302433,-0.410208016634,-0.0790083408356,0.0,15.6000003815,0.5306899746923076,-0.13719331659999998,-0.02642419425939799,15.6000003815,0.0,0.7629454139042662,1.6408320542375086
1648220008957704963,94766,11,3,1.85849559307,0.234404578805,-0.0869557410479,0.0,15.6000003815,0.6215704324648829,0.07839618020234114,-0.029082187641438127,15.6000003815,0.0,0.8825222751293482,1.875236698906714
1648220008957847646,94767,11,4,1.64400732517,0.167013257742,0.665581583977,0.0809188112617,15.6000003815,0.5498352258093645,0.05585727683678929,0.22260253644715716,15.6000003815,0.010934974494824324,0.779588087683035,1.781474770633462
1648220009062671685,94768,12,0,0.0122964046896,0.0439508594573,0.010721036233,0.0,15.3000001907,0.004112509929632107,0.014699284099431437,0.00358563084715719,15.3000001907,0.0,0.015808049496330762,0.0468809154479203
1648220009062677018,94769,12,1,0.0334016978741,0.0146502861753,-0.0294536203146,0.0,15.3000001907,0.011171136412742476,0.0048997612626421405,-0.009850709135317725,15.3000001907,0.0,0.016540744781753033,0.0468809135526118
1648220009062681796,94770,12,2,1.60387575626,-0.474669247866,-0.225048243999,0.0,15.3000001907,0.5364132964080267,-0.15875225681137123,-0.07526697123712374,15.3000001907,0.0,0.7750359528237091,1.6877129638997546
1648220009062684438,94771,12,3,1.76894009113,0.167013257742,0.128879517317,0.0,15.3000001907,0.5916187595752508,0.05585727683678929,0.04310351749732441,15.3000001907,0.0,0.8385377443731072,1.781474783501712
1648220009062857320,94772,12,4,2.09837818146,-1.21890377998,0.232354879379,0.0,15.3000001907,0.7017987228963211,-0.407660127083612,0.07771066199966555,15.3000001907,0.0,1.072953714813291,2.437807664121216
1648220009257707728,94773,14,0,0.0122742131352,0.0439508594573,0.0107464361936,0.0,11.1999998093,0.004105088005083611,0.014699284099431437,0.0035941258172575248,11.1999998093,0.0,0.01580419083960835,0.04688091558392145
1648220009257710662,94774,14,1,0.0333878919482,0.0146502861753,-0.0294692683965,0.0,11.1999998093,0.011166519046220735,0.0048997612626421405,-0.009855942607525084,11.1999998093,0.0,0.016534508025644712,0.04688091289200561
1648220009257878173,94775,14,2,1.58917021751,-0.35893201828,0.195027843118,0.0,11.1999998093,0.5314950560234113,-0.120044153270903,0.06522670338394648,11.1999998093,0.0,0.7611731655078142,1.6408321162015918
1648220009257881046,94776,14,3,1.81978845596,0.171408340335,0.0432867482305,0.0,11.1999998093,0.6086249016588628,0.05732720412541805,0.014477173321237458,11.1999998093,0.0,0.8626325696212486,1.828355705587414
1648220009257883345,94777,14,4,2.14222383499,-1.14272224903,0.219017088413,0.0,11.1999998093,0.7164628210668895,-0.3821813541906354,0.07324986234548495,11.1999998093,0.0,1.0829129860857887,2.4378075360135285
1648220009362830130,94778,15,0,0.0122964046896,0.0439508594573,0.010721036233,0.0,11.8999996185,0.004112509929632107,0.014699284099431437,0.00358563084715719,11.8999996185,0.0,0.015808049496330762,0.0468809154479203
1648220009362841116,94779,15,1,0.0333648212254,0.0146502861753,-0.0294953901321,0.0,11.8999996185,0.01115880308541806,0.0048997612626421405,-0.009864678973946488,11.8999996185,0.0,0.0165240864506683,0.04688091530106756
1648220009362844412,94780,15,2,1.82151675224,0.114272229373,0.109101973474,0.0,11.8999996185,0.6092029271705686,0.03821813691404682,0.03648895433913043,11.8999996185,0.0,0.8623903054508202,1.8283557262504346
1648220009557733924,94781,17,0,0.0122964046896,0.0439508594573,0.010721036233,0.0,20.0,0.004112509929632107,0.014699284099431437,0.00358563084715719,20.0,0.0,0.015808049496330762,0.0468809154479203
1648220009557737380,94782,17,1,0.0333648212254,0.0146502861753,-0.0294953901321,0.0,20.0,0.01115880308541806,0.0048997612626421405,-0.009864678973946488,20.0,0.0,0.0165240864506683,0.04688091530106756
1648220009557739099,94783,17,2,1.80893445015,0.228544458747,0.135676667094,0.0,20.0,0.6049947993812709,0.07643627382842809,0.04537681173712375,20.0,0.0,0.8589993704965929,1.8283557018690806
