%time,field.header.seq,field.header.frame_id,field.point_id,field.x,field.y,field.z,field.velocity,field.intensity,normalized_x,normalized_y,normalized_z,normalized_intensity,normalized_velocity,normalized_range,range
1648295908969251902,69059,0,0,0.0126887271181,0.0439508594573,0.0102537022904,0.0,26.2999992371,0.004243721444180602,0.014699284099431437,0.0034293318696989963,26.2999992371,0.0,0.015877257207319986,0.046880915664832074
1648295908969257299,69060,0,1,0.0335404723883,0.0146502861753,-0.0292954929173,0.0,26.2999992371,0.011217549293745818,0.0048997612626421405,-0.009797823718160533,26.2999992371,0.0,0.016603447977637752,0.046880913795659694
1648295908969264648,69061,0,2,1.8473470211,-0.175803437829,0.270027190447,0.0,26.2999992371,0.6178418130769231,-0.05879713639765886,0.09031009713946489,26.2999992371,0.0,0.875736327453032,1.875236664717347
1648295908969273437,69062,0,3,2.24426960945,-1.2306240797,0.584109187126,0.0,26.2999992371,0.750591842625418,-0.4115799597658863,0.19535424318595318,26.2999992371,0.0,1.1384965049188904,2.6253314548687605
1648295909074372807,69063,1,0,0.0127004906535,0.0439508594573,0.0102391270921,0.0,15.3000001907,0.004247655736956521,0.014699284099431437,0.003424457221438127,15.3000001907,0.0,0.01587936118221376,0.046880915450566385
1648295909074379813,69064,1,1,0.0335404723883,0.0146502861753,-0.0292954929173,0.0,15.3000001907,0.011217549293745818,0.0048997612626421405,-0.009797823718160533,15.3000001907,0.0,0.016603447977637752,0.046880913795659694
1648295909074382338,69065,1,2,1.91541981697,-0.307655990124,0.336852222681,0.0,15.3000001907,0.6406086344381271,-0.10289497997458194,0.11265960624782609,15.3000001907,0.0,0.9117818938415774,1.9689984010724075
1648295909074385819,69066,1,3,2.24224829674,-1.2306240797,0.591820716858,0.0,15.3000001907,0.7499158183076923,-0.4115799597658863,0.19793335011973243,15.3000001907,0.0,1.1376051742046007,2.6253313715935405
1648295909074391812,69067,1,4,0.228727757931,-0.659262895584,0.0869805961847,-0.161837622523,15.3000001907,0.07649757790334448,-0.22048926273712371,0.02909050039622073,15.3000001907,-0.021869948989594594,0.24559982457753687,0.7032137490511602
1648295909269395303,69068,3,0,0.0127004906535,0.0439508594573,0.0102391270921,0.0,18.2999992371,0.004247655736956521,0.014699284099431437,0.003424457221438127,18.2999992371,0.0,0.01587936118221376,0.046880915450566385
1648295909269403872,69069,3,1,0.0335041433573,0.0146502861753,-0.0293370354921,0.0,18.2999992371,0.011205399116153847,0.0048997612626421405,-0.009811717555886288,18.2999992371,0.0,0.016587031052466603,0.046880914651800804
1648295909269406670,69070,3,2,1.81116342545,-0.351606875658,0.335517734289,0.0,18.2999992371,0.6057402760702341,-0.11759427279531771,0.11221328905986622,18.2999992371,0.0,0.8646796962468509,1.8752366513910135
1648295909269409341,69071,3,3,1.50754618645,0.234404578805,-1.09035372734,0.0,18.2999992371,0.5041960489799331,0.07839618020234114,-0.36466679844147154,18.2999992371,0.0,0.7173376280973055,1.8752365881586563
1648295909269582788,69072,3,4,2.2444832325,-1.2306240797,0.583287358284,0.0,18.2999992371,0.7506632884615384,-0.4115799597658863,0.19507938404147157,18.2999992371,0.0,1.1385907116118021,2.625331359818232
1648295909374450278,69073,4,0,0.0127100823447,0.0439508594573,0.0102272182703,0.0,15.0,0.004250863660434782,0.014699284099431437,0.003420474337892977,15.0,0.0,0.01588107794688408,0.04688091545386831
1648295909374474686,69074,4,1,0.033517640084,0.0146502861753,-0.0293216109276,0.0,15.0,0.011209913071571907,0.0048997612626421405,-0.009806558838662207,15.0,0.0,0.016593129981268932,0.04688091241868381
1648295909374485721,69075,4,2,1.89254319668,-0.0600661747158,0.330466717482,0.0,15.0,0.6329575908628762,-0.020089021644080267,0.11052398577993311,15.0,0.0,0.89536260389436,1.9221175687267598
1648295909374535526,69076,4,3,2.24254465103,-1.2306240797,0.590697348118,0.0,15.0,0.7500149334548494,-0.4115799597658863,0.19755764151103677,15.0,0.0,1.1377358498752919,2.625331501824936
1648295909374542325,69077,4,4,0.162470370531,-0.635822474957,-0.0102936169133,-0.161837622523,15.0,0.054337916565551835,-0.21264965717625414,-0.0034426812419063543,15.0,-0.021869948989594594,0.22610859127982766,0.6563328420169777
1648295909569426644,69078,6,0,0.0127100823447,0.0439508594573,0.0102272182703,0.0,14.6000003815,0.004250863660434782,0.014699284099431437,0.003420474337892977,14.6000003815,0.0,0.01588107794688408,0.04688091545386831
1648295909569429485,69079,6,1,0.0335404723883,0.0146502861753,-0.0292954929173,0.0,14.6000003815,0.011217549293745818,0.0048997612626421405,-0.009797823718160533,14.6000003815,0.0,0.016603447977637752,0.046880913795659694
1648295909569433631,69080,6,2,1.8536080122,-0.0586011447012,0.277876466513,0.0,14.6000003815,0.6199357900334448,-0.019599045050568562,0.0929352730812709,14.6000003815,0.0,0.8769406422875364,1.8752365417978814
1648295909569599644,69081,6,3,2.24675726891,-1.2306240797,0.574465632439,0.0,14.6000003815,0.7514238357558528,-0.4115799597658863,0.1921289740598662,14.6000003815,0.0,1.1395936228169086,2.625331334096886
1648295909674355400,69082,7,0,0.0127004906535,0.0439508594573,0.0102391270921,0.0,14.8000001907,0.004247655736956521,0.014699284099431437,0.003424457221438127,14.8000001907,0.0,0.01587936118221376,0.046880915450566385
1648295909674360771,69083,7,1,0.0335269682109,0.0146502861753,-0.0293109472841,0.0,14.8000001907,0.01121303284645485,0.0048997612626421405,-0.00980299240270903,14.8000001907,0.0,0.016597345319726262,0.046880914166899254
1648295909674363379,69084,7,2,1.82843673229,-0.0,0.416330873966,0.0,14.8000001907,0.6115173017692307,-0.0,0.13924109497190634,14.8000001907,0.0,0.8648160617878468,1.8752365932342048
1648295909674366031,69085,7,3,2.24506163597,-1.2306240797,0.581056952477,0.0,14.8000001907,0.7508567344381271,-0.4115799597658863,0.19433342892207356,14.8000001907,0.0,1.138845790519096,2.625331323254957
1648295909869451361,69086,9,0,0.0127100823447,0.0439508594573,0.0102272182703,0.0,14.5,0.004250863660434782,0.014699284099431437,0.003420474337892977,14.5,0.0,0.01588107794688408,0.04688091545386831
1648295909869454071,69087,9,1,0.0335404723883,0.0146502861753,-0.0292954929173,0.0,14.5,0.011217549293745818,0.0048997612626421405,-0.009797823718160533,14.5,0.0,0.016603447977637752,0.046880913795659694
1648295909869456787,69088,9,2,1.87942075729,0.120132349432,0.384554296732,0.0,14.5,0.6285688151471571,0.040178043288294316,0.12861347716789295,14.5,0.0,0.8898380672422809,1.9221176268500355
1648295909869638886,69089,9,3,2.23996591568,-1.2306240797,0.60040140152,0.0,14.5,0.749152480160535,-0.4115799597658863,0.20080314432107021,14.5,0.0,1.136598847589707,2.625331364207725
1648295909974402165,69090,10,0,0.0126887271181,0.0439508594573,0.0102537022904,0.0,14.6999998093,0.004243721444180602,0.014699284099431437,0.0034293318696989963,14.6999998093,0.0,0.015877257207319986,0.046880915664832074
1648295909974407430,69091,10,1,0.0335269682109,0.0146502861753,-0.0293109472841,0.0,14.6999998093,0.01121303284645485,0.0048997612626421405,-0.00980299240270903,14.6999998093,0.0,0.016597345319726262,0.046880914166899254
1648295909974412416,69092,10,2,1.87951242924,0.240264698863,0.322865009308,0.0,14.6999998093,0.6285994746622073,0.08035608657625418,0.10798160846421404,14.6999998093,0.0,0.8925982857596448,1.9221175592098496
1648295909974419602,69093,10,3,1.54562461376,-0.420463234186,1.06244575977,0.0,14.6999998093,0.5169313089498327,-0.14062315524615385,0.3553330300234114,14.6999998093,0.0,0.7444533753946977,1.9221175225298148
1648295909974423652,69094,10,4,2.24157738686,-1.2306240797,0.594356536865,0.0,14.6999998093,0.7496914337324414,-0.4115799597658863,0.19878145045652174,14.6999998093,0.0,1.1373093488160975,2.6253313123744464
1648295910169517099,69095,12,0,0.0127207012847,0.0439508594573,0.0102140065283,0.0,15.3000001907,0.004254415145384615,0.014699284099431437,0.003416055695083612,15.3000001907,0.0,0.01588297986822227,0.04688091528084813
1648295910169528142,69096,12,1,0.0335269682109,0.0146502861753,-0.0293109472841,0.0,15.3000001907,0.01121303284645485,0.0048997612626421405,-0.00980299240270903,15.3000001907,0.0,0.016597345319726262,0.046880914166899254
1648295910169534553,69097,12,2,1.96899473667,-0.0,0.00382160907611,0.0,15.3000001907,0.6585266677826087,-0.0,0.0012781301257892975,15.3000001907,0.0,0.9312973447625268,1.9689984453346054
1648295910169537982,69098,12,3,2.24431395531,-1.2306240797,0.583938598633,0.0,15.3000001907,0.7506066740167223,-0.4115799597658863,0.19529719017826086,15.3000001907,0.0,1.1385160611242076,2.6253314157473837
1648295910169543699,69099,12,4,0.150725767016,-0.590406537056,0.0115533182397,-0.0809188112617,15.3000001907,0.05040995552374581,-0.1974603802862876,0.003863986033344481,15.3000001907,-0.010934974494824324,0.20993553537840462,0.6094518972022052
1648295910274400714,69100,13,0,0.0127100823447,0.0439508594573,0.0102272182703,0.0,14.5,0.004250863660434782,0.014699284099431437,0.003420474337892977,14.5,0.0,0.01588107794688408,0.04688091545386831
1648295910274404872,69101,13,1,0.0335404723883,0.0146502861753,-0.0292954929173,0.0,14.5,0.011217549293745818,0.0048997612626421405,-0.009797823718160533,14.5,0.0,0.016603447977637752,0.046880913795659694
1648295910274428533,69102,13,2,1.81725502014,-0.234404578805,0.398937642574,0.0,14.5,0.60777759870903,-0.07839618020234114,0.13342396072709028,14.5,0.0,0.8630951164589842,1.8752366670506635
1648295910274432785,69103,13,3,2.2405090332,-1.2306240797,0.598370909691,0.0,14.5,0.7493341248160534,-0.4115799597658863,0.2001240500638796,14.5,0.0,1.1368383018303747,2.6253312360448358
1648295910274436272,69104,13,4,0.221106737852,-0.55231577158,0.132252514362,-0.161837622523,14.5,0.07394874175652173,-0.18472099383946486,0.044231610154515044,14.5,-0.021869948989594594,0.21227029556625465,0.6094519083690154
1648295910469524517,69105,15,0,0.0127100823447,0.0439508594573,0.0102272182703,0.0,16.1000003815,0.004250863660434782,0.014699284099431437,0.003420474337892977,16.1000003815,0.0,0.01588107794688408,0.04688091545386831
1648295910469543642,69106,15,1,0.0335269682109,0.0146502861753,-0.0293109472841,0.0,16.1000003815,0.01121303284645485,0.0048997612626421405,-0.00980299240270903,16.1000003815,0.0,0.016597345319726262,0.046880914166899254
1648295910469547958,69107,15,2,1.90730822086,-0.0600661747158,-0.230441465974,0.0,16.1000003815,0.6378957260401338,-0.020089021644080267,-0.07707072440602006,16.1000003815,0.0,0.9023444372251404,1.92211754685955
1648295910469551379,69108,15,3,2.24573373795,-1.2306240797,0.578453838825,0.0,16.1000003815,0.7510815177090301,-0.4115799597658863,0.19346282234949833,16.1000003815,0.0,1.139142201732992,2.625331310702657
