%time,field.header.seq,field.header.frame_id,field.point_id,field.x,field.y,field.z,field.velocity,field.intensity,normalized_x,normalized_y,normalized_z,normalized_intensity,normalized_velocity,normalized_range,range
1648218318334885745,29296,0,0,0.00497833499685,0.0454158857465,0.0105087459087,0.0,16.2000007629,0.0016649949822240802,0.015189259446989964,0.0035146307386956523,16.2000007629,0.0,0.015370687009032375,0.04688091549931189
1648218318334888497,29297,0,1,0.0335763841867,0.0146502861753,-0.0292543284595,0.0,16.2000007629,0.011229559928662208,0.0048997612626421405,-0.0097840563409699,16.2000007629,0.0,0.016619677879360972,0.04688091502613165
1648218318334893904,29298,0,2,0.482045024633,0.105482056737,-1.01116299629,0.0,16.2000007629,0.16121907178361203,0.035278279845150494,-0.33818160411036785,16.2000007629,0.0,0.23071136782215923,1.1251419799887779
1648218318334900864,29299,0,3,1.715919137,0.108412116766,-0.229530438781,0.0,16.2000007629,0.5738859989966555,0.03625823303210702,-0.07676603303712373,16.2000007629,0.0,0.8124068802954522,1.7345938700778083
1648218318334994213,29300,0,4,1.84392726421,0.0586011447012,0.336170107126,0.0,16.2000007629,0.6166980816755853,0.019599045050568562,0.11243147395518394,16.2000007629,0.0,0.8723629809039285,1.8752365692846256
1648218318334998525,29301,0,5,1.68726408482,0.171408340335,0.683113276958,0.161837622523,16.2000007629,0.5643023695050167,0.05732720412541805,0.22846597891571904,16.2000007629,0.021869948989594594,0.8001004541873414,1.8283557258411638
1648218318335003780,29302,0,6,1.64347720146,-0.167013257742,0.666889667511,-0.161837622523,16.2000007629,0.549657926909699,-0.05585727683678929,0.22304002257892974,16.2000007629,-0.021869948989594594,0.7793379938158781,1.7814748296322689
1648218318335072122,29303,0,7,1.01437568665,1.44744825363,0.22268435359,-0.161837622523,16.2000007629,0.33925608249163874,0.484096405896321,0.07447637243812709,16.2000007629,-0.021869948989594594,0.6815707661108147,1.7814748951183657
1648218318439957009,29304,1,0,0.00501889223233,0.0454158857465,0.0104894367978,0.0,33.5,0.0016785592750267558,0.015189259446989964,0.003508172842073578,33.5,0.0,0.015373637338884073,0.04688091553835019
1648218318439968165,29305,1,1,0.0334949493408,0.0146502861753,-0.0293475333601,0.0,33.5,0.011202324194247491,0.0048997612626421405,-0.009815228548528428,33.5,0.0,0.016582876564002216,0.046880915420703204
1648218318439977080,29306,1,2,0.482045024633,0.105482056737,-1.01116299629,0.0,33.5,0.16121907178361203,0.035278279845150494,-0.33818160411036785,33.5,0.0,0.23071136782215923,1.1251419799887779
1648218318439986644,29307,1,3,1.73092961311,0.054206058383,-0.098795093596,0.0,33.5,0.5789062251204014,0.01812911651605351,-0.033041837323076924,33.5,0.0,0.8188977346604143,1.7345939273574082
1648218318439989514,29308,1,4,2.07060289383,-1.19546329975,-0.00088441913249,0.0,33.5,0.6925093290401336,-0.39982050158862875,-0.00029579235200334446,33.5,0.0,1.0578254936925158,2.3909265206575316
1648218318439997915,29309,1,5,2.18732881546,0.67244809866,0.692774295807,0.0,33.5,0.7315480988160534,0.2248990296521739,0.2316970888986622,33.5,0.0,1.0587279231706577,2.390926602232695
1648218318440103738,29310,1,6,1.54549920559,-0.278355449438,0.841191589832,-0.0809188112617,33.5,0.5168893664180602,-0.09309546803946488,0.2813349798769231,33.5,-0.010934974494824324,0.7368961937760395,1.7814749062266468
1648218318634950725,29311,3,0,0.00502583524212,0.0454158857465,0.0104861119762,0.0,20.6000003815,0.0016808813518795983,0.015189259446989964,0.003507060861605351,20.6000003815,0.0,0.015374144749746799,0.04688091554564055
1648218318635092108,29312,3,1,0.0334424413741,0.0146502861753,-0.0294073522091,0.0,20.6000003815,0.011184763001371235,0.0048997612626421405,-0.009835234852541805,20.6000003815,0.0,0.01655915176645755,0.04688091438984909
1648218318635095700,29313,3,2,0.482045024633,0.105482056737,-1.01116299629,0.0,20.6000003815,0.16121907178361203,0.035278279845150494,-0.33818160411036785,20.6000003815,0.0,0.23071136782215923,1.1251419799887779
1648218318635097480,29314,3,3,1.7237496376,0.054206058383,-0.185915783048,0.0,20.6000003815,0.5765048955183947,0.01812911651605351,-0.06217919165484949,20.6000003815,0.0,0.8155025775428322,1.734593839571069
1648218318635211749,29315,3,4,1.06222748756,1.4855389595,0.0879277661443,0.0809188112617,20.6000003815,0.3552600292842809,0.4968357724080267,0.029407279646923076,20.6000003815,0.010934974494824324,0.7065869808865832,1.8283556895690452
1648218318635221181,29316,3,5,1.62846684456,-0.44536870718,0.568678617477,-0.161837622523,20.6000003815,0.5446377406555183,-0.14895274487625418,0.1901935175508361,20.6000003815,-0.021869948989594594,0.7845045935486075,1.7814749280138464
1648218318740028556,29317,4,0,0.00501889223233,0.0454158857465,0.0104894367978,0.0,39.0999984741,0.0016785592750267558,0.015189259446989964,0.003508172842073578,39.0999984741,0.0,0.015373637338884073,0.04688091553835019
1648218318740034031,29318,4,1,0.0334949493408,0.0146502861753,-0.0293475333601,0.0,39.0999984741,0.011202324194247491,0.0048997612626421405,-0.009815228548528428,39.0999984741,0.0,0.016582876564002216,0.046880915420703204
1648218318740036536,29319,4,2,0.482045024633,0.105482056737,-1.01116299629,0.0,39.0999984741,0.16121907178361203,0.035278279845150494,-0.33818160411036785,39.0999984741,0.0,0.23071136782215923,1.1251419799887779
1648218318740042014,29320,4,3,1.73369324207,0.054206058383,-0.0136205404997,0.0,39.0999984741,0.5798305157424749,0.01812911651605351,-0.004555364715618729,39.0999984741,0.0,0.8202045591424261,1.7345939217834567
1648218318740044078,29321,4,4,1.82406508923,0.0586011447012,0.431120663881,0.0809188112617,39.0999984741,0.6100552137892976,0.019599045050568562,0.14418751300367894,39.0999984741,0.010934974494824324,0.8629709440704858,1.8752366705920438
1648218318740202181,29322,4,5,1.47342824936,0.68563336134,0.455292135477,-0.647350490093,39.0999984741,0.4927853676789297,0.2293088165016722,0.15227161721638793,39.0999984741,-0.08747979595851352,0.7336602555149853,1.6877129023686666
1648218318935010082,29323,6,0,0.00494504999369,0.0454158857465,0.01052444987,0.0,26.6000003815,0.0016538628741438125,0.015189259446989964,0.003519882899665552,26.6000003815,0.0,0.015368283162439333,0.04688091554828444
1648218318935019126,29324,6,1,0.0334949493408,0.0146502861753,-0.0293475333601,0.0,26.6000003815,0.011202324194247491,0.0048997612626421405,-0.009815228548528428,26.6000003815,0.0,0.016582876564002216,0.046880915420703204
1648218318935092904,29325,6,2,0.465994954109,0.105482056737,-1.01865923405,0.0,26.6000003815,0.15585115522040133,0.035278279845150494,-0.34068870704013376,26.6000003815,0.0,0.2232122805669527,1.1251419451179703
1648218318935110893,29326,6,3,1.73330044746,0.054206058383,-0.0393375232816,0.0,26.6000003815,0.5796991463076923,0.01812911651605351,-0.01315636230153846,26.6000003815,0.0,0.8200188201043845,1.734593952101871
1648218318935112495,29327,6,4,1.8163318634,0.0586011447012,0.462619453669,0.0,26.6000003815,0.6074688506354515,0.019599045050568562,0.15472222530735785,26.6000003815,0.0,0.8593142216626042,1.8752365960260617
1648218318935177919,29328,6,5,2.07048821449,-1.19546329975,-0.0218297317624,0.0,26.6000003815,0.6924709747458194,-0.39982050158862875,-0.007300913632909698,26.6000003815,0.0,1.057775276333037,2.390926699959655
1648218318935180945,29329,6,6,2.06729197502,0.523015201092,1.08133649826,0.0,26.6000003815,0.691401998334448,0.1749214719371237,0.3616510027625418,26.6000003815,0.0,0.993313126836843,2.3909265218790385
