%time,field.header.seq,field.header.frame_id,field.point_id,field.x,field.y,field.z,field.velocity,field.intensity,normalized_x,normalized_y,normalized_z,normalized_intensity,normalized_velocity,normalized_range,range
1648125807588845909,39554,0,0,0.0125890737399,0.0439508594573,0.0103758089244,0.0,12.3999996185,0.004210392555150501,0.014699284099431437,0.003470170208829431,12.3999996185,0.0,0.01585950074790286,0.0468809154720728
1648125807588870289,39555,0,1,0.0328478105366,0.0146502861753,-0.0300700943917,0.0,12.3999996185,0.010985889811571906,0.0048997612626421405,-0.010056887756421403,12.3999996185,0.0,0.016290709325713453,0.04688091422735167
1648125807588874025,39556,0,2,1.24725723267,-0.079111546278,0.200752779841,0.0,12.3999996185,0.417142887180602,-0.026458711129765885,0.06714139794013378,12.3999996185,0.0,0.5905221757439642,1.2657847051596143
1648125807588981232,39557,0,3,2.42113256454,-0.902457654476,0.464813828468,0.0,12.3999996185,0.8097433326220735,-0.30182530250033446,0.155456129922408,12.3999996185,0.0,1.1842580135600613,2.625331333057494
1648125807588988262,39558,0,4,1.2388535738,-0.398487776518,0.920396447182,0.0809188112617,12.3999996185,0.41433229892976586,-0.1332735038521739,0.3078248987230769,12.3999996185,0.010934974494824324,0.6009195742375889,1.5939511615280246
1648125807588992877,39559,0,5,1.28509354591,0.199243888259,-0.921692252159,0.0809188112617,12.3999996185,0.42979717254515043,0.06663675192608695,-0.3082582783140468,12.3999996185,0.010934974494824324,0.6114668231088833,1.593951114820662
1648125807693794298,39560,1,0,0.0125994505361,0.0439508594573,0.0103632062674,0.0,16.2000007629,0.004213863055551839,0.014699284099431437,0.003465955273377926,16.2000007629,0.0,0.01586134410249293,0.04688091557326548
1648125807693799155,39561,1,1,0.0329244062304,0.0146502861753,-0.0299862083048,0.0,16.2000007629,0.011011507100468228,0.0048997612626421405,-0.010028832208963211,16.2000007629,0.0,0.016325263785869217,0.046880914017768956
1648125807693804623,39562,1,2,1.23677170277,-0.079111546278,0.257581532001,0.0,16.2000007629,0.41363602099331104,-0.026458711129765885,0.08614766956555182,16.2000007629,0.0,0.5855677408472961,1.2657847870610088
1648125807693808730,39563,1,3,1.25398111343,0.199243888259,0.963593959808,0.0,16.2000007629,0.4193916767324415,0.06663675192608695,0.32227222736053507,16.2000007629,0.0,0.5968410288612507,1.5939510906003889
1648125807693810559,39564,1,4,1.30405831337,-0.448298752308,0.799462556839,0.0,16.2000007629,0.4361399041371238,-0.14993269307959864,0.267378781551505,16.2000007629,0.0,0.6347565237282561,1.5939511397084511
1648125807693853916,39565,1,5,2.41836881638,-0.902457654476,0.478985995054,0.0,16.2000007629,0.8088190021337792,-0.30182530250033446,0.16019598496789297,16.2000007629,0.0,1.1829940277341993,2.625331433099333
1648125807888820296,39566,3,0,0.0125890737399,0.0439508594573,0.0103758089244,0.0,13.5,0.004210392555150501,0.014699284099431437,0.003470170208829431,13.5,0.0,0.01585950074790286,0.0468809154720728
1648125807888826310,39567,3,1,0.0329244062304,0.0146502861753,-0.0299862083048,0.0,13.5,0.011011507100468228,0.0048997612626421405,-0.010028832208963211,13.5,0.0,0.016325263785869217,0.046880914017768956
1648125807888831780,39568,3,2,2.41549825668,-0.902457654476,0.493258178234,0.0,13.5,0.8078589487224079,-0.30182530250033446,0.1649692903792642,13.5,0.0,1.1816812917581316,2.62533146031909
1648125807889020753,39569,3,3,1.35004365444,0.0424858294427,0.154738545418,0.0809188112617,13.5,0.4515196168695652,0.01420930750591973,0.051752021878929765,13.5,0.010934974494824324,0.6387032434987908,1.3595465906085098
1648125807889038977,39570,3,4,1.31828379631,-0.398487776518,0.802505791187,0.0809188112617,13.5,0.44089759073913043,-0.1332735038521739,0.2683965856812709,13.5,0.010934974494824324,0.6376074010456395,1.5939511349274287
1648125807889041674,39571,3,5,0.808214187622,0.149432912469,-1.36570119858,0.0809188112617,13.5,0.27030574836856186,0.04997756269866221,-0.4567562537056856,13.5,0.010934974494824324,0.38552321846482257,1.5939511072191976
1648125807993934727,39572,4,0,0.0125787733123,0.0439508594573,0.0103882942349,0.0,15.0,0.004206947596086956,0.014699284099431437,0.003474345897959866,15.0,0.0,0.01585767224999437,0.04688091554341088
1648125807993947107,39573,4,1,0.0327840410173,0.0146502861753,-0.030139606446,0.0,15.0,0.010964562213143812,0.0048997612626421405,-0.010080135935117055,15.0,0.0,0.016261946669531627,0.046880914103310314
1648125807993952598,39574,4,2,1.23961353302,-0.079111546278,0.243537887931,0.0,15.0,0.41458646589297654,-0.026458711129765885,0.08145079863913043,15.0,0.0,0.5869105032267737,1.2657847569230383
1648125807993960332,39575,4,3,1.40364420414,0.0879017189145,0.00972046609968,0.0,15.0,0.46944622212040127,0.02939856819882943,0.0032509920065819393,15.0,0.0,0.6645478062098885,1.4064274782103527
1648125807993969341,39576,4,4,1.87173604965,-1.31852579117,0.502638041973,0.0,15.0,0.625998678812709,-0.44097852547491634,0.1681063685528428,15.0,0.0,0.9890453739240409,2.3440458832493687
1648125807993971084,39577,4,5,2.41570329666,-0.902457654476,0.492252230644,0.0,15.0,0.8079275239665551,-0.30182530250033446,0.16463285305819397,15.0,0.0,1.1817750552431183,2.625331311318689
1648125808188758134,39578,6,0,0.0125787733123,0.0439508594573,0.0103882942349,0.0,12.8999996185,0.004206947596086956,0.014699284099431437,0.003474345897959866,12.8999996185,0.0,0.01585767224999437,0.04688091554341088
1648125808188833084,39579,6,1,0.0329244062304,0.0146502861753,-0.0299862083048,0.0,12.8999996185,0.011011507100468228,0.0048997612626421405,-0.010028832208963211,12.8999996185,0.0,0.016325263785869217,0.046880914017768956
1648125808188836654,39580,6,2,1.23707735538,-0.039555773139,0.265114814043,0.0,12.8999996185,0.4137382459464883,-0.013229355564882942,0.08866716188729097,12.8999996185,0.0,0.5852637765712275,1.2657847001001605
1648125808188841331,39581,6,3,2.41707468033,-0.902457654476,0.485473930836,0.0,12.8999996185,0.8083861807123744,-0.30182530250033446,0.16236586315585283,12.8999996185,0.0,1.1824021936561595,2.6253313630732507
1648125808188843478,39582,6,4,1.42223119736,-0.348676800728,0.629573643208,-0.0809188112617,12.8999996185,0.47566260781270897,-0.11661431462474915,0.2105597468923077,12.8999996185,-0.010934974494824324,0.6827215620718112,1.5939510853009784
1648125808293892655,39583,7,0,0.0125994505361,0.0439508594573,0.0103632062674,0.0,16.6000003815,0.004213863055551839,0.014699284099431437,0.003465955273377926,16.6000003815,0.0,0.01586134410249293,0.04688091557326548
1648125808293903816,39584,7,1,0.0328369177878,0.0146502861753,-0.0300819892436,0.0,16.6000003815,0.010982246751772574,0.0048997612626421405,-0.010060865967759198,16.6000003815,0.0,0.016285795892879384,0.046880914364728306
1648125808293916977,39585,7,2,1.24514377117,-0.039555773139,0.224194720387,0.0,16.6000003815,0.4164360438695652,-0.013229355564882942,0.07498151183511705,16.6000003815,0.0,0.5890780704763426,1.2657847142075458
1648125808293919729,39586,7,3,2.42302751541,-0.902457654476,0.454832524061,0.0,16.6000003815,0.8103770954548494,-0.30182530250033446,0.1521179010237458,16.6000003815,0.0,1.1851247136504641,2.6253313664183384
1648125808293927159,39587,7,4,1.88811540604,0.876087069511,0.563984751701,0.566431701183,16.6000003815,0.6314767244280937,0.2930057088665552,0.18862366277625417,16.6000003815,0.07654482448418919,0.9398819353606396,2.1565220008247548
1648125808293938181,39588,7,5,1.12672293186,0.0673913136125,-1.83753669262,0.566431701183,16.6000003815,0.376830411993311,0.02253890087374582,-0.6145607667625418,16.6000003815,0.07654482448418919,0.5333950888963017,2.1565220265637124
1648125808293948978,39589,7,6,1.34173047543,-0.483459472656,0.599543571472,-0.323675245047,16.6000003815,0.4487392894414715,-0.16169213132307692,0.20051624463946485,16.6000003815,-0.04373989797932432,0.6548879637836328,1.5470702067106819
1648125808293960344,39590,7,7,1.37426388264,0.096691891551,-0.703900396824,-0.323675245047,16.6000003815,0.45962002763879595,0.032338425267892976,-0.23541819291772573,16.6000003815,-0.04373989797932432,0.6508048197133932,1.5470702342393712
1648125808488831079,39591,9,0,0.0125994505361,0.0439508594573,0.0103632062674,0.0,37.2999992371,0.004213863055551839,0.014699284099431437,0.003465955273377926,37.2999992371,0.0,0.01586134410249293,0.04688091557326548
1648125808488838169,39592,9,1,0.0329244062304,0.0146502861753,-0.0299862083048,0.0,37.2999992371,0.011011507100468228,0.0048997612626421405,-0.010028832208963211,37.2999992371,0.0,0.016325263785869217,0.046880914017768956
1648125808488841281,39593,9,2,1.27992403507,-0.123062409461,0.264085888863,0.0,37.2999992371,0.4280682391538462,-0.041157996475250834,0.0883230397535117,37.2999992371,0.0,0.6067774018685976,1.3126657033947289
1648125808489047932,39594,9,3,1.8464410305,-1.39177727699,0.384918749332,0.0,37.2999992371,0.617538806187291,-0.4654773501638796,0.1287353676695652,37.2999992371,0.0,0.9896350427354702,2.344045842437155
1648125808593837527,39595,10,0,0.0127028552815,0.0439508594573,0.010236193426,0.0,11.8999996185,0.004248446582441471,0.014699284099431437,0.0034234760622073577,11.8999996185,0.0,0.015879784310988455,0.04688091546879769
1648125808593846529,39596,10,1,0.0329001024365,0.0146502861753,-0.0300128757954,0.0,11.8999996185,0.011003378741304349,0.0048997612626421405,-0.010037751102140467,11.8999996185,0.0,0.016314298877980183,0.04688091657444943
1648125808593850744,39597,10,2,1.283192873,-0.082041606307,0.264152377844,0.0,11.8999996185,0.429161495986622,-0.027438664316722407,0.08834527687090299,11.8999996185,0.0,0.6075459320696968,1.3126657050460586
1648125808593864387,39598,10,3,1.88985776901,-1.31852579117,0.429509937763,0.0,11.8999996185,0.6320594545183946,-0.44097852547491634,0.14364880861638796,11.8999996185,0.0,0.9967248206110915,2.344045954264785
1648125808593891604,39599,10,4,1.36991620064,-0.328166425228,0.515950083733,-0.0809188112617,11.8999996185,0.45816595339130434,-0.10975465726688963,0.17255855643244145,11.8999996185,-0.010934974494824324,0.6571743805761893,1.5001893508244042
1648125808593895955,39600,10,5,1.36447679996,0.234404578805,-0.577776312828,-0.0809188112617,11.8999996185,0.4563467558394649,0.07839618020234114,-0.19323622502608695,11.8999996185,-0.010934974494824324,0.6501159005905995,1.500189292009162
1648125808788857702,39601,12,0,0.0125787733123,0.0439508594573,0.0103882942349,0.0,13.6000003815,0.004206947596086956,0.014699284099431437,0.003474345897959866,13.6000003815,0.0,0.01585767224999437,0.04688091554341088
1648125808788890690,39602,12,1,0.0328722037375,0.0146502861753,-0.0300434287637,0.0,13.6000003815,0.010994048072742475,0.0048997612626421405,-0.01004796948618729,13.6000003815,0.0,0.01630171299227273,0.04688091589823531
1648125808789038310,39603,12,2,1.13003146648,0.109877154231,0.290849924088,0.0,13.6000003815,0.3779369453110368,0.0367482121173913,0.09727422210301002,13.6000003815,0.0,0.5357453689542262,1.1720229445701298
1648125808789045270,39604,12,3,1.24028468132,-0.079111546278,0.24009655416,0.0,13.6000003815,0.4148109302073578,-0.026458711129765885,0.0802998508896321,13.6000003815,0.0,0.5872276211433138,1.2657847695366917
1648125808789048876,39605,12,4,1.87987804413,-1.31852579117,0.471274554729,0.0,13.6000003815,0.628721753889632,-0.44097852547491634,0.15761690793612038,13.6000003815,0.0,0.9924939030332335,2.344045952774289
1648125808789051089,39606,12,5,2.38914442062,-0.984499275684,0.46380469203,0.0,13.6000003815,0.7990449567290969,-0.32926397180066885,0.15511862609698995,13.6000003815,0.0,1.177013359683891,2.6253313464686774
1648125808893936260,39607,13,0,0.0125787733123,0.0439508594573,0.0103882942349,0.0,13.0,0.004206947596086956,0.014699284099431437,0.003474345897959866,13.0,0.0,0.01585767224999437,0.04688091554341088
1648125808893946722,39608,13,1,0.0329244062304,0.0146502861753,-0.0299862083048,0.0,13.0,0.011011507100468228,0.0048997612626421405,-0.010028832208963211,13.0,0.0,0.016325263785869217,0.046880914017768956
1648125808893949945,39609,13,2,1.86390125751,-1.31852579117,0.530955135822,0.0,13.0,0.623378346993311,-0.44097852547491634,0.17757696850234114,13.0,0.0,0.9857297737870441,2.3440459713886996
1648125808893951842,39610,13,3,2.39217925072,-0.984499275684,0.447889208794,0.0,13.0,0.8000599500735786,-0.32926397180066885,0.14979572200468227,13.0,0.0,1.1783915353351049,2.6253314333149893
1648125808893954033,39611,13,4,1.14955365658,0.109877154231,0.20022790134,-0.0809188112617,13.0,0.3844661058795986,0.0367482121173913,0.06696585329096989,13.0,-0.010934974494824324,0.5449576169155453,1.1720229566238762
1648125808893962422,39612,13,5,1.35187113285,-0.227079421282,0.482684642076,-0.0809188112617,13.0,0.4521308136622073,-0.07594629474314381,0.16143299066086955,13.0,-0.010934974494824324,0.6439040184770644,1.4533083248570988
1648125809088875529,39613,15,0,0.0126674417406,0.0439508594573,0.0102799860761,0.0,14.8000001907,0.004236602588829431,0.014699284099431437,0.0034381224334782603,14.8000001907,0.0,0.015873454445304285,0.04688091553086012
1648125809088884154,39614,15,1,0.0329244062304,0.0146502861753,-0.0299862083048,0.0,14.8000001907,0.011011507100468228,0.0048997612626421405,-0.010028832208963211,14.8000001907,0.0,0.016325263785869217,0.046880914017768956
1648125809088887409,39615,15,2,1.38080358505,-0.0879017189145,0.25237506628,0.0,14.8000001907,0.4618072190802675,-0.02939856819882943,0.08440637668227424,14.8000001907,0.0,0.653755375504815,1.406427540527734
1648125809089072005,39616,15,3,1.85731112957,-1.31852579117,0.553566992283,0.0,14.8000001907,0.6211742908260869,-0.44097852547491634,0.18513946230200667,14.8000001907,0.0,0.98294305994631,2.344045927227176
1648125809089076143,39617,15,4,2.41907405853,-0.902457654476,0.475410759449,0.0,14.8000001907,0.8090548690735786,-0.30182530250033446,0.15900025399632106,14.8000001907,0.0,1.1833165576348323,2.6253313141344665
1648125809089195539,39618,15,5,1.13210713863,-0.109877154231,0.282662808895,-0.0809188112617,14.8000001907,0.3786311500434782,-0.0367482121173913,0.09453605648662207,14.8000001907,-0.010934974494824324,0.5367248146492937,1.1720229630392571
1648125809193918627,39619,16,0,0.0126674417406,0.0439508594573,0.0102799860761,0.0,21.7999992371,0.004236602588829431,0.014699284099431437,0.0034381224334782603,21.7999992371,0.0,0.015873454445304285,0.04688091553086012
1648125809193924622,39620,16,1,0.0329001024365,0.0146502861753,-0.0300128757954,0.0,21.7999992371,0.011003378741304349,0.0048997612626421405,-0.010037751102140467,21.7999992371,0.0,0.016314298877980183,0.04688091657444943
1648125809193929438,39621,16,2,1.23332238197,-0.158223092556,0.236838072538,0.0,21.7999992371,0.41248240199665553,-0.05291742225953177,0.07921005770501671,21.7999992371,0.0,0.5857334867432924,1.2657847042406754
1648125809193936092,39622,16,3,1.03701519966,0.276890397072,-0.670926332474,0.0,21.7999992371,0.3468278259732442,0.09260548397056856,-0.22439007775050165,21.7999992371,0.0,0.4991541419241927,1.2657847210025772
1648125809193940723,39623,16,4,1.36847543716,-0.131852582097,0.296526640654,0.0,21.7999992371,0.4576840926956522,-0.04409785354414715,0.09917278951638794,21.7999992371,0.0,0.6487634993589619,1.4064274507181114
1648125809193945685,39624,16,5,2.41866970062,-0.902457654476,0.477463781834,0.0,21.7999992371,0.8089196323143812,-0.30182530250033446,0.15968688355652172,21.7999992371,0.0,1.1831316310185802,2.625331331809909
1648125809193948805,39625,16,6,1.12819004059,-0.0732514336705,0.308964699507,-0.0809188112617,21.7999992371,0.3773210838093645,-0.02449880724765886,0.10333267542040134,21.7999992371,-0.010934974494824324,0.534174683161515,1.1720229203231056
1648125809388824216,39626,18,0,0.0126571767032,0.0439508594573,0.0102926222607,0.0,23.7999992371,0.004233169465953177,0.014699284099431437,0.0034423485821739124,23.7999992371,0.0,0.015871622490809013,0.046880915542817876
1648125809388832454,39627,18,1,0.0329244062304,0.0146502861753,-0.0299862083048,0.0,23.7999992371,0.011011507100468228,0.0048997612626421405,-0.010028832208963211,23.7999992371,0.0,0.016325263785869217,0.046880914017768956
1648125809388980493,39628,18,2,1.28204655647,-0.123062409461,0.25358119607,0.0,23.7999992371,0.42877811253177256,-0.041157996475250834,0.08480976457190635,23.7999992371,0.0,0.6077790060922437,1.3126656667176237
1648125809388985718,39629,18,3,1.25408947468,0.0879017189145,0.630532562733,0.0,23.7999992371,0.41942791795317724,0.02939856819882943,0.2108804557635451,23.7999992371,0.0,0.5938887374998919,1.406427543586205
1648125809388989081,39630,18,4,2.42006659508,-0.902457654476,0.470332920551,0.0,23.7999992371,0.80938682109699,-0.30182530250033446,0.1573019801173913,23.7999992371,0.0,1.1837704868598473,2.6253314455318706
1648125809388996156,39631,18,5,1.12770962715,-0.0366257168353,0.317123413086,0.161837622523,23.7999992371,0.3771604104180602,-0.012249403623846153,0.10606134216923076,23.7999992371,0.021869948989594594,0.5335260052355265,1.1720229116479786
1648125809493821592,39632,19,0,0.0126877604052,0.0439508594573,0.0102548981085,0.0,29.7999992371,0.004243398128829431,0.014699284099431437,0.003429731808862876,29.7999992371,0.0,0.015877084379548535,0.04688091558780411
1648125809493827530,39633,19,1,0.0328124724329,0.0146502861753,-0.0301086530089,0.0,29.7999992371,0.010974071047792642,0.0048997612626421405,-0.010069783615016722,29.7999992371,0.0,0.01627476977271537,0.04688091528744241
1648125809493830705,39634,19,2,1.39424538612,-0.0,0.184710651636,0.0,29.7999992371,0.466302804722408,-0.0,0.06177613767090301,29.7999992371,0.0,0.6594517506110423,1.4064274675733204
1648125809493856253,39635,19,3,1.87240803242,-1.24527442455,0.661763608456,0.0,29.7999992371,0.6262234222140468,-0.4164797406521739,0.22132562155719063,29.7999992371,0.0,0.9786556715375673,2.3440459265522033
1648125809493862152,39636,19,4,2.41806483269,-0.902457654476,0.480518192053,0.0,29.7999992371,0.808717335347826,-0.30182530250033446,0.16070842543578595,29.7999992371,0.0,1.1828550081111355,2.625331424050747
1648125809493869827,39637,19,5,1.1374874115,-0.0732514336705,0.272753238678,-0.242756426334,29.7999992371,0.38043057240802675,-0.02449880724765886,0.09122181895585284,29.7999992371,-0.03280492247756756,0.5385675745920429,1.172022914906143
1648125809493877428,39638,19,6,1.24747884274,-0.039555773139,0.210814937949,-0.0809188112617,29.7999992371,0.41721700426086955,-0.013229355564882942,0.07050666821036788,29.7999992371,-0.010934974494824324,0.5901822372263427,1.265784760666281
1648125809688909825,39639,21,0,0.0126674417406,0.0439508594573,0.0102799860761,0.0,31.7000007629,0.004236602588829431,0.014699284099431437,0.0034381224334782603,31.7000007629,0.0,0.015873454445304285,0.04688091553086012
1648125809688937399,39640,21,1,0.0329244062304,0.0146502861753,-0.0299862083048,0.0,31.7000007629,0.011011507100468228,0.0048997612626421405,-0.010028832208963211,31.7000007629,0.0,0.016325263785869217,0.046880914017768956
1648125809689055441,39641,21,2,1.14923191071,-0.0,0.230008408427,0.0,31.7000007629,0.38435849856521737,-0.0,0.07692588910602005,31.7000007629,0.0,0.5435650014842902,1.1720229744084707
1648125809689060514,39642,21,3,1.30409157276,-0.082041606307,0.125321924686,0.0,31.7000007629,0.4361510276789297,-0.027438664316722407,0.041913687185953175,31.7000007629,0.0,0.6174206978958988,1.312665700060791
1648125809689069831,39643,21,4,2.3898897171,-0.984499275684,0.459949731827,0.0,31.7000007629,0.7992942197658862,-0.32926397180066885,0.15382934174816051,31.7000007629,0.0,1.177351800707106,2.6253314913607326
1648125809793915532,39644,22,0,0.0125994505361,0.0439508594573,0.0103632062674,0.0,11.6999998093,0.004213863055551839,0.014699284099431437,0.003465955273377926,11.6999998093,0.0,0.01586134410249293,0.04688091557326548
1648125809793932649,39645,22,1,0.0328722037375,0.0146502861753,-0.0300434287637,0.0,11.6999998093,0.010994048072742475,0.0048997612626421405,-0.01004796948618729,11.6999998093,0.0,0.01630171299227273,0.04688091589823531
1648125809793937574,39646,22,2,1.23949348927,-0.079111546278,0.244148224592,0.0,11.6999998093,0.4145463174816053,-0.026458711129765885,0.08165492461270903,11.6999998093,0.0,0.5868537825299998,1.2657847772305693
1648125809793941455,39647,22,3,1.87718355656,-1.31852579117,0.481895089149,0.0,11.6999998093,0.6278205874782607,-0.44097852547491634,0.1611689261367893,11.6999998093,0.0,0.9913523289190016,2.344045913361265
1648125809793978278,39648,22,4,2.38885498047,-0.984499275684,0.465294033289,0.0,11.6999998093,0.7989481540033445,-0.32926397180066885,0.15561673354147157,11.6999998093,0.0,1.1768819264041126,2.625331498868855
1648125809988896283,39649,24,0,0.0126571767032,0.0439508594573,0.0102926222607,0.0,11.6999998093,0.004233169465953177,0.014699284099431437,0.0034423485821739124,11.6999998093,0.0,0.015871622490809013,0.046880915542817876
1648125809988900679,39650,24,1,0.0329129882157,0.0146502861753,-0.029998742044,0.0,11.6999998093,0.011007688366454847,0.0048997612626421405,-0.010033024094983276,11.6999998093,0.0,0.01632011233959066,0.046880915120413834
1648125809989035258,39651,24,2,2.38877534866,-0.984499275684,0.465702563524,0.0,11.6999998093,0.7989215212909698,-0.32926397180066885,0.1557533657270903,11.6999998093,0.0,1.1768457662283986,2.6253314777111196
1648125809989038377,39652,24,3,1.22585594654,-0.0,0.315417468548,-0.0809188112617,11.6999998093,0.4099852664013378,-0.0,0.10549079215652174,11.6999998093,-0.010934974494824324,0.5798067241179183,1.2657847293804378
1648125810093899535,39653,25,0,0.0125994505361,0.0439508594573,0.0103632062674,0.0,28.3999996185,0.004213863055551839,0.014699284099431437,0.003465955273377926,28.3999996185,0.0,0.01586134410249293,0.04688091557326548
1648125810094013512,39654,25,1,0.0328498929739,0.0146502861753,-0.030067820102,0.0,28.3999996185,0.01098658627889632,0.0048997612626421405,-0.010056127124414714,28.3999996185,0.0,0.01629164867526164,0.04688091465725798
1648125810094020552,39655,25,2,1.08185172081,-0.0703213736415,0.300992101431,0.0,28.3999996185,0.3618233179966555,-0.023518854060702338,0.10066625465919733,28.3999996185,0.0,0.5122356522036966,1.1251419850553241
1648125810094026087,39656,25,3,1.24286353588,-0.079111546278,0.22636821866,0.0,28.3999996185,0.4156734233712374,-0.026458711129765885,0.07570843433444815,28.3999996185,0.0,0.5884461344838424,1.265784727350561
1648125810094030274,39657,25,4,2.05895471573,-0.9713139534,0.730605483055,0.0,28.3999996185,0.6886136173010033,-0.3248541650167224,0.24434965988461535,28.3999996185,0.0,1.026600046947913,2.3909265336614536
1648125810094036589,39658,25,5,1.42095863819,-1.71847844124,-0.862692534924,0.0,28.3999996185,0.4752370027391304,-0.5747419535919732,-0.288525931412709,28.3999996185,0.0,0.8843238834067879,2.3909266016059623
1648125810094143631,39659,25,6,2.41793227196,-0.902457654476,0.481185048819,0.0,28.3999996185,0.8086730006555183,-0.30182530250033446,0.16093145445451504,28.3999996185,0.0,1.1827943850085771,2.6253314726172983
1648125810288901494,39660,27,0,0.0125890737399,0.0439508594573,0.0103758089244,0.0,12.8000001907,0.004210392555150501,0.014699284099431437,0.003470170208829431,12.8000001907,0.0,0.01585950074790286,0.0468809154720728
1648125810288987063,39661,27,1,0.0328369177878,0.0146502861753,-0.0300819892436,0.0,12.8000001907,0.010982246751772574,0.0048997612626421405,-0.010060865967759198,12.8000001907,0.0,0.016285795892879384,0.046880914364728306
1648125810288990445,39662,27,2,1.24348711967,-0.039555773139,0.233208090067,0.0,12.8000001907,0.41588197982274244,-0.013229355564882942,0.07799601674481604,12.8000001907,0.0,0.5882947034703185,1.2657846930842995
1648125810288993020,39663,27,3,2.41666507721,-0.902457654476,0.48750859499,0.0,12.8000001907,0.808249189702341,-0.30182530250033446,0.16304635283946486,12.8000001907,0.0,1.1822148783272861,2.6253313207513185
1648125810393958783,39664,28,0,0.0126674417406,0.0439508594573,0.0102799860761,0.0,13.5,0.004236602588829431,0.014699284099431437,0.0034381224334782603,13.5,0.0,0.015873454445304285,0.04688091553086012
1648125810393963330,39665,28,1,0.0328124724329,0.0146502861753,-0.0301086530089,0.0,13.5,0.010974071047792642,0.0048997612626421405,-0.010069783615016722,13.5,0.0,0.01627476977271537,0.04688091528744241
1648125810393968820,39666,28,2,1.24404740334,-0.118667319417,0.201183930039,0.0,13.5,0.4160693656655518,-0.039688066694648826,0.06728559533076924,13.5,0.0,0.5897478925173266,1.265784676854855
1648125810393978707,39667,28,3,1.36584949493,-0.0879017189145,0.323676913977,0.0,13.5,0.45680585114715716,-0.02939856819882943,0.10825314848729096,13.5,0.0,0.6466896064548266,1.4064274953335967
1648125810393990224,39668,28,4,2.41828417778,-0.902457654476,0.479412823915,0.0,13.5,0.8087906949096989,-0.30182530250033446,0.1603387370953177,13.5,0.0,1.1829553201936436,2.6253313768660838
1648125810588853777,39669,30,0,0.0126571767032,0.0439508594573,0.0102926222607,0.0,13.6999998093,0.004233169465953177,0.014699284099431437,0.0034423485821739124,13.6999998093,0.0,0.015871622490809013,0.046880915542817876
1648125810588863228,39670,30,1,0.0328369177878,0.0146502861753,-0.0300819892436,0.0,13.6999998093,0.010982246751772574,0.0048997612626421405,-0.010060865967759198,13.6999998093,0.0,0.016285795892879384,0.046880914364728306
1648125810588990266,39671,30,2,1.14487373829,-0.0366257168353,0.248113662004,0.0,13.6999998093,0.3829009158160535,-0.012249403623846153,0.08298115786086956,13.6999998093,0.0,0.54164219790807,1.1720229131859385
1648125810588994223,39672,30,3,1.34870016575,-0.0,-0.171390175819,0.0,13.6999998093,0.45107028954849493,-0.0,-0.05732112903645485,13.6999998093,0.0,0.6379097210630404,1.3595465161079796
1648125810589116787,39673,30,4,2.39107179642,-0.984499275684,0.453763991594,0.0,13.6999998093,0.7996895640200667,-0.32926397180066885,0.15176053230568562,13.6999998093,0.0,1.1778886028530713,2.6253313923245587
1648125810694113384,39674,31,0,0.0126674417406,0.0439508594573,0.0102799860761,0.0,12.8000001907,0.004236602588829431,0.014699284099431437,0.0034381224334782603,12.8000001907,0.0,0.015873454445304285,0.04688091553086012
1648125810694139493,39675,31,1,0.0328478105366,0.0146502861753,-0.0300700943917,0.0,12.8000001907,0.010985889811571906,0.0048997612626421405,-0.010056887756421403,12.8000001907,0.0,0.016290709325713453,0.04688091422735167
1648125810694156536,39676,31,2,1.13285827637,-0.0732514336705,0.291383266449,0.0,12.8000001907,0.3788823666789297,-0.02449880724765886,0.09745259747458193,12.8000001907,0.0,0.5363803567590929,1.1720229753896807
1648125810694162290,39677,31,3,1.30388224125,-0.0,0.151599705219,0.0,12.8000001907,0.4360810171404682,-0.0,0.05070224254816054,12.8000001907,0.0,0.6167116887335042,1.3126657494082836
1648125810694169020,39678,31,4,2.39177393913,-0.984499275684,0.45004928112,0.0,12.8000001907,0.7999243943578596,-0.32926397180066885,0.15051815422073578,12.8000001907,0.0,1.1782074675130558,2.6253315514731446
1648125810888972097,39679,33,0,0.0125787733123,0.0439508594573,0.0103882942349,0.0,12.0,0.004206947596086956,0.014699284099431437,0.003474345897959866,12.0,0.0,0.01585767224999437,0.04688091554341088
1648125810889030561,39680,33,1,0.0329244062304,0.0146502861753,-0.0299862083048,0.0,12.0,0.011011507100468228,0.0048997612626421405,-0.010028832208963211,12.0,0.0,0.016325263785869217,0.046880914017768956
1648125810889034545,39681,33,2,1.19841766357,-0.0380907431245,0.219250276685,0.0,12.0,0.4008085831337792,-0.01273937897140468,0.0733278517341137,12.0,0.0,0.566972073742607,1.2189038046108491
1648125810889059495,39682,33,3,1.28887844086,0.131852582097,0.547216117382,0.0,12.0,0.43106302369899663,0.04409785354414715,0.1830154238735786,12.0,0.0,0.6112080509026729,1.4064274662569634
1648125810889064030,39683,33,4,1.34454274178,-0.307656019926,-0.274938166142,0.0,12.0,0.44967984674916384,-0.10289498994180601,-0.0919525639270903,12.0,0.0,0.6442137130640944,1.4064275332456746
1648125810889065965,39684,33,5,2.38959574699,-0.984499275684,0.461474597454,0.0,12.0,0.7991959020033444,-0.32926397180066885,0.1543393302521739,12.0,0.0,1.1772183071477569,2.6253314956306655
1648125810993923724,39685,34,0,0.0126674417406,0.0439508594573,0.0102799860761,0.0,12.5,0.004236602588829431,0.014699284099431437,0.0034381224334782603,12.5,0.0,0.015873454445304285,0.04688091553086012
1648125810993931018,39686,34,1,0.0327840410173,0.0146502861753,-0.030139606446,0.0,12.5,0.010964562213143812,0.0048997612626421405,-0.010080135935117055,12.5,0.0,0.016261946669531627,0.046880914103310314
1648125810993935011,39687,34,2,1.24170231819,-0.039555773139,0.242532134056,0.0,12.5,0.41528505625083606,-0.013229355564882942,0.08111442610568562,12.5,0.0,0.5874507398405268,1.2657847930184665
1648125810993941785,39688,34,3,2.41893100739,-0.902457654476,0.476138293743,0.0,12.5,0.809007025882943,-0.30182530250033446,0.15924357650267557,12.5,0.0,1.1832511352563106,2.6253313526874313
1648125811188957351,39689,36,0,0.0126038333401,0.0439508594573,0.0103578744456,0.0,12.0,0.004215328876287625,0.014699284099431437,0.003464172055384615,12.0,0.0,0.01586212306427883,0.04688091535935669
1648125811189027691,39690,36,1,0.0328722037375,0.0146502861753,-0.0300434287637,0.0,12.0,0.010994048072742475,0.0048997612626421405,-0.01004796948618729,12.0,0.0,0.01630171299227273,0.04688091589823531
1648125811189051591,39691,36,2,1.17301869392,-0.0,0.33129093051,0.0,12.0,0.39231394445484946,-0.0,0.11079964231103678,12.0,0.0,0.5548157009561332,1.2189038259534524
1648125811189055276,39692,36,3,1.854855299,-1.31852579117,0.561740815639,0.0,12.0,0.6203529428093645,-0.44097852547491634,0.18787318248795987,12.0,0.0,0.9819050907468139,2.3440459010359893
1648125811189058838,39693,36,4,2.41948199272,-0.902457654476,0.4733312428,0.0,12.0,0.8091913019130434,-0.30182530250033446,0.15830476347826086,12.0,0.0,1.1835031218433143,2.6253314831901244
1648125811293965654,39694,37,0,0.0125890737399,0.0439508594573,0.0103758089244,0.0,12.8999996185,0.004210392555150501,0.014699284099431437,0.003470170208829431,12.8999996185,0.0,0.01585950074790286,0.0468809154720728
1648125811293970241,39695,37,1,0.0329244062304,0.0146502861753,-0.0299862083048,0.0,12.8999996185,0.011011507100468228,0.0048997612626421405,-0.010028832208963211,12.8999996185,0.0,0.016325263785869217,0.046880914017768956
1648125811293984820,39696,37,2,1.19461345673,-0.0380907431245,0.23911164701,0.0,12.8999996185,0.3995362731538461,-0.01273937897140468,0.07997045050501672,12.8999996185,0.0,0.5651732114209824,1.2189038499602876
1648125811293987995,39697,37,3,2.39132642746,-0.984499275684,0.452420413494,0.0,12.8999996185,0.79977472490301,-0.32926397180066885,0.15131117508160533,12.8999996185,0.0,1.1780042378163682,2.6253314337502247
1648125811489010927,39698,39,0,0.0125890737399,0.0439508594573,0.0103758089244,0.0,13.0,0.004210392555150501,0.014699284099431437,0.003470170208829431,13.0,0.0,0.01585950074790286,0.0468809154720728
1648125811489014173,39699,39,1,0.0327840410173,0.0146502861753,-0.030139606446,0.0,13.0,0.010964562213143812,0.0048997612626421405,-0.010080135935117055,13.0,0.0,0.016261946669531627,0.046880914103310314
1648125811489122905,39700,39,2,1.19417059422,-0.0,0.244301393628,0.0,13.0,0.39938815860200666,-0.0,0.08170615171505016,13.0,0.0,0.5648201505461745,1.2189038432248587
1648125811489134375,39701,39,3,1.35882461071,-0.0424858294427,-0.012544398196,0.0,13.0,0.45445639154180595,-0.01420930750591973,-0.00419545090167224,13.0,0.0,0.6428554487956031,1.3595465164166751
1648125811489138040,39702,39,4,2.38965415955,-0.984499275684,0.461171001196,0.0,13.0,0.7992154379765886,-0.32926397180066885,0.15423779304214047,13.0,0.0,1.1772448325332212,2.625331315933488
1648125811594121015,39703,40,0,0.0125994505361,0.0439508594573,0.0103632062674,0.0,12.3999996185,0.004213863055551839,0.014699284099431437,0.003465955273377926,12.3999996185,0.0,0.01586134410249293,0.04688091557326548
1648125811594123622,39704,40,1,0.0328369177878,0.0146502861753,-0.0300819892436,0.0,12.3999996185,0.010982246751772574,0.0048997612626421405,-0.010060865967759198,12.3999996185,0.0,0.016285795892879384,0.046880914364728306
1648125811594126592,39705,40,2,1.17357349396,-0.0380907431245,0.327109903097,0.0,12.3999996185,0.39249949630769226,-0.01273937897140468,0.10940130538361204,12.3999996185,0.0,0.5552242798907134,1.2189038268630497
1648125811594128680,39706,40,3,1.35922837257,-0.0,0.0294121801853,0.0,12.3999996185,0.4545914289531772,-0.0,0.009836849560301003,12.3999996185,0.0,0.6428893641641485,1.3595465586520175
1648125811594129728,39707,40,4,2.39046669006,-0.984499275684,0.456941276789,0.0,12.3999996185,0.7994871873110366,-0.32926397180066885,0.1528231694946488,12.3999996185,0.0,1.1776138112619845,2.625331436322335
1648125811789061645,39708,42,0,0.0125787733123,0.0439508594573,0.0103882942349,0.0,12.1999998093,0.004206947596086956,0.014699284099431437,0.003474345897959866,12.1999998093,0.0,0.01585767224999437,0.04688091554341088
1648125811789082023,39709,42,1,0.0329244062304,0.0146502861753,-0.0299862083048,0.0,12.1999998093,0.011011507100468228,0.0048997612626421405,-0.010028832208963211,12.1999998093,0.0,0.016325263785869217,0.046880914017768956
1648125811789106103,39710,42,2,1.10503613949,-0.0,0.390554726124,0.0,12.1999998093,0.3695773041772575,-0.0,0.1306203097404682,12.1999998093,0.0,0.5226612359127643,1.1720229791590075
1648125811789136323,39711,42,3,1.35822439194,0.0424858294427,0.042288698256,0.0,12.1999998093,0.45425564947826086,0.01420930750591973,0.01414337734314381,12.1999998093,0.0,0.6425716260352856,1.3595465709435643
1648125811789138953,39712,42,4,2.38946866989,-0.984499275684,0.462131112814,0.0,12.1999998093,0.7991534013010032,-0.32926397180066885,0.15455890060668895,12.1999998093,0.0,1.1771606010854578,2.6253313150227173
1648125811894101964,39713,43,0,0.0126674417406,0.0439508594573,0.0102799860761,0.0,12.3000001907,0.004236602588829431,0.014699284099431437,0.0034381224334782603,12.3000001907,0.0,0.015873454445304285,0.04688091553086012
1648125811894105970,39714,43,1,0.0327840410173,0.0146502861753,-0.030139606446,0.0,12.3000001907,0.010964562213143812,0.0048997612626421405,-0.010080135935117055,12.3000001907,0.0,0.016261946669531627,0.046880914103310314
1648125811894107686,39715,43,2,1.04984033108,-0.0,0.404697060585,0.0,12.3000001907,0.3511171675852842,-0.0,0.13535018748662206,12.3000001907,0.0,0.4965546603811358,1.125141960646879
1648125811894109510,39716,43,3,1.26467418671,-0.0,0.0530122034252,0.0,12.3000001907,0.42296795542140464,-0.0,0.01772983392147157,12.3000001907,0.0,0.5981670190061691,1.2657847732701617
1648125811894111143,39717,43,4,1.35497188568,-0.0,0.111436322331,0.0,12.3000001907,0.45316785474247484,-0.0,0.03726967302040134,12.3000001907,0.0,0.6408761262083286,1.359546565924784
1648125811894192928,39718,43,5,2.39175629616,-0.984499275684,0.450141787529,0.0,12.3000001907,0.7999184936989966,-0.32926397180066885,0.15054909281906353,12.3000001907,0.0,1.1781994552066704,2.625331337740653
1648125812088814513,39719,45,0,0.0126674417406,0.0439508594573,0.0102799860761,0.0,12.0,0.004236602588829431,0.014699284099431437,0.0034381224334782603,12.0,0.0,0.015873454445304285,0.04688091553086012
1648125812088820800,39720,45,1,0.0327840410173,0.0146502861753,-0.030139606446,0.0,12.0,0.010964562213143812,0.0048997612626421405,-0.010080135935117055,12.0,0.0,0.016261946669531627,0.046880914103310314
1648125812088937351,39721,45,2,1.01458072662,-0.0,0.486385077238,0.0,12.0,0.3393246577324414,-0.0,0.16267059439397993,12.0,0.0,0.47987753301282715,1.125141988456827
1648125812088939944,39722,45,3,1.25657892227,-0.0,0.152382537723,0.0,12.0,0.42026050912040125,-0.0,0.05096405943913043,12.0,0.0,0.5943381117278932,1.2657847469835208
1648125812088941841,39723,45,4,2.39146566391,-0.984499275684,0.45168414712,0.0,12.0,0.7998212922775919,-0.32926397180066885,0.1510649321471572,12.0,0.0,1.1780674693272648,2.6253314865445736
