%time,field.header.seq,field.header.frame_id,field.point_id,field.x,field.y,field.z,field.velocity,field.intensity,normalized_x,normalized_y,normalized_z,normalized_intensity,normalized_velocity,normalized_range,range
1648126069696306515,53610,0,0,0.0126056522131,0.0439508594573,0.0103556616232,0.0,13.1000003815,0.004215937195016722,0.014699284099431437,0.0034634319810033444,13.1000003815,0.0,0.015862446403390896,0.046880915545744056
1648126069696311548,53611,0,1,0.0328408256173,0.0146502861753,-0.0300777256489,0.0,13.1000003815,0.010983553718160535,0.0048997612626421405,-0.010059440016354514,13.1000003815,0.0,0.016287558595146318,0.04688091607951567
1648126069696317606,53612,0,2,1.23270761967,-0.039555773139,0.284742414951,0.0,13.1000003815,0.41227679587625415,-0.013229355564882942,0.09523157690668896,13.1000003815,0.0,0.5831975040109852,1.2657847280060022
1648126069696320224,53613,0,3,1.35520386696,-0.0,0.108578279614,0.0,13.1000003815,0.45324544045484944,-0.0,0.0363138058909699,13.1000003815,0.0,0.6409858489750151,1.3595465287467263
1648126069696382142,53614,0,4,1.85747754574,-1.39177727699,0.327542990446,0.0,13.1000003815,0.6212299484080267,-0.4654773501638796,0.10954615065083612,13.1000003815,0.0,0.9942446686372857,2.3440459108695593
1648126069696388301,53615,0,5,2.41354680061,-0.902457654476,0.502719819546,0.0,13.1000003815,0.8072062878294313,-0.30182530250033446,0.16813371891170567,13.1000003815,0.0,1.1807889292554192,2.6253314445649436
1648126069891259852,53616,2,0,0.0126825124025,0.0439508594573,0.0102613866329,0.0,13.0,0.004241642943979933,0.014699284099431437,0.0034319018839130432,13.0,0.0,0.015876146344885694,0.04688091534414363
1648126069891275325,53617,2,1,0.0327896587551,0.0146502861753,-0.0301334951073,0.0,13.0,0.010966441055217392,0.0048997612626421405,-0.010078092009130433,13.0,0.0,0.01626448029498648,0.04688091438608856
1648126069891316897,53618,2,2,1.18420696259,-0.0,0.28875669837,0.0,13.0,0.39605584033110364,-0.0,0.09657414661204013,13.0,0.0,0.5601075408533198,1.218903835870647
1648126069891319135,53619,2,3,1.26308941841,0.212429150939,-0.455901265144,0.0,13.0,0.4224379325785953,0.07104653877558528,-0.15247533951304346,13.0,0.0,0.6016271473550262,1.3595466106860319
1648126069891323738,53620,2,4,1.32496833801,-0.169943317771,0.252873778343,0.0,13.0,0.44313322341471567,-0.05683723002374581,0.08457317001438126,13.0,0.0,0.6292571637292697,1.3595466066882227
1648126069891342020,53621,2,5,1.84991085529,-1.31852579117,0.577815711498,0.0,13.0,0.6186992827056856,-0.44097852547491634,0.193249401838796,13.0,0.0,0.9798161382479323,2.344045953251385
1648126069891399743,53622,2,6,2.41211986542,-0.902457654476,0.509522199631,0.0,13.0,0.8067290519799329,-0.30182530250033446,0.17040876241839464,13.0,0.0,1.1801364496727915,2.6253313953085873
1648126069996417519,53623,3,0,0.0125951459631,0.0439508594573,0.0103684375063,0.0,13.0,0.0042124233990301,0.014699284099431437,0.0034677048516053507,13.0,0.0,0.015860579271299975,0.0468809155754149
1648126069996419711,53624,3,1,0.0328408256173,0.0146502861753,-0.0300777256489,0.0,13.0,0.010983553718160535,0.0048997612626421405,-0.010059440016354514,13.0,0.0,0.016287558595146318,0.04688091607951567
1648126069996426618,53625,3,2,1.35736203194,-0.0424858294427,0.0642653778195,0.0,13.0,0.45396723476254175,-0.01420930750591973,0.021493437397826082,13.0,0.0,0.6421638458335187,1.3595465311058694
1648126069996433615,53626,3,3,1.84888935089,-1.39177727699,0.3729814291,0.0,13.0,0.6183576424381271,-0.4654773501638796,0.12474295287625417,13.0,0.0,0.9906571109313577,2.3440458542941567
1648126069996445757,53627,3,4,2.40822076797,-0.902457654476,0.527643740177,0.0,13.0,0.8054250060100334,-0.30182530250033446,0.17646947832006687,13.0,0.0,1.178353679436672,2.6253314080230545
1648126069996448979,53628,3,5,1.22348022461,-0.0,0.324510663748,0.0809188112617,13.0,0.40919071057190637,-0.0,0.10853199456454848,13.0,0.010934974494824324,0.5786830524878738,1.2657847490382808
1648126070191253406,53629,5,0,0.0125987837091,0.0439508594573,0.010364016518,0.0,25.6000003815,0.0042136400364882936,0.014699284099431437,0.003466226260200669,25.6000003815,0.0,0.0158612256068058,0.046880915481349095
1648126070191296532,53630,5,1,0.0328408256173,0.0146502861753,-0.0300777256489,0.0,25.6000003815,0.010983553718160535,0.0048997612626421405,-0.010059440016354514,25.6000003815,0.0,0.016287558595146318,0.04688091607951567
1648126070191355255,53631,5,2,1.19918048382,-0.0,0.21838657558,0.0,25.6000003815,0.40106370696321064,-0.0,0.0730389884882943,25.6000003815,0.0,0.5671897337630012,1.2189038227720546
1648126070191357716,53632,5,3,1.35567331314,-0.0,0.102551087737,0.0,25.6000003815,0.45340244586622075,-0.0,0.03429802265451505,25.6000003815,0.0,0.6412078881571424,1.35954656321732
1648126070191359649,53633,5,4,1.89537703991,-1.17202293873,0.726952254772,0.0,25.6000003815,0.6339053645183946,-0.3919809159632107,0.24312784440535115,25.6000003815,0.0,0.9784278516118372,2.3440459622297074
1648126070191361587,53634,5,5,2.39417743683,-0.984499275684,0.437082409859,0.0,25.6000003815,0.8007282397424749,-0.32926397180066885,0.14618140797959864,25.6000003815,0.0,1.1792990252553066,2.625331494470049
1648126070191380895,53635,5,6,1.43583858013,-0.348676800728,0.597889840603,-0.161837622523,25.6000003815,0.4802135719498327,-0.11661431462474915,0.19996315739230766,25.6000003815,-0.021869948989594594,0.6890638923532667,1.5939511288154127
1648126070296404980,53636,6,0,0.0125987837091,0.0439508594573,0.010364016518,0.0,35.2999992371,0.0042136400364882936,0.014699284099431437,0.003466226260200669,35.2999992371,0.0,0.0158612256068058,0.046880915481349095
1648126070296412523,53637,6,1,0.0328408256173,0.0146502861753,-0.0300777256489,0.0,35.2999992371,0.010983553718160535,0.0048997612626421405,-0.010059440016354514,35.2999992371,0.0,0.016287558595146318,0.04688091607951567
1648126070296415292,53638,6,2,1.35533177853,-0.0,0.106970824301,0.0,35.2999992371,0.45328822024414717,-0.0,0.03577619541839464,35.2999992371,0.0,0.6410463487332354,1.3595466108761878
1648126070296423963,53639,6,3,1.90329992771,-1.31852579117,0.365363419056,0.0,35.2999992371,0.6365551597692307,-0.44097852547491634,0.12219512343010033,35.2999992371,0.0,1.002430547612997,2.3440459263388282
1648126070296504628,53640,6,4,2.42476797104,-0.902457654476,0.445460557938,0.0,35.2999992371,0.8109591876387959,-0.30182530250033446,0.14898346419331102,35.2999992371,0.0,1.185920790466619,2.6253313391231585
1648126070491259316,53641,8,0,0.0125951459631,0.0439508594573,0.0103684375063,0.0,12.3999996185,0.0042124233990301,0.014699284099431437,0.0034677048516053507,12.3999996185,0.0,0.015860579271299975,0.0468809155754149
1648126070491273245,53642,8,1,0.0328408256173,0.0146502861753,-0.0300777256489,0.0,12.3999996185,0.010983553718160535,0.0048997612626421405,-0.010059440016354514,12.3999996185,0.0,0.016287558595146318,0.04688091607951567
1648126070491322088,53643,8,2,1.89800024033,-1.24527442455,0.584326982498,0.0,12.3999996185,0.6347826890735786,-0.4164797406521739,0.19542708444749163,12.3999996185,0.0,0.9896229075100622,2.3440459311212933
1648126070491324577,53644,8,3,1.22655951977,0.039555773139,0.310158312321,0.0809188112617,12.3999996185,0.410220575173913,0.013229355564882942,0.10373187703043478,12.3999996185,0.010934974494824324,0.5802903208228568,1.265784773738746
1648126070596434502,53645,9,0,0.0126156788319,0.0439508594573,0.0103434445336,0.0,34.7000007629,0.004219290579230769,0.014699284099431437,0.0034593459978595315,34.7000007629,0.0,0.015864229543843877,0.04688091556534115
1648126070596447513,53646,9,1,0.0327896587551,0.0146502861753,-0.0301334951073,0.0,34.7000007629,0.010966441055217392,0.0048997612626421405,-0.010078092009130433,34.7000007629,0.0,0.01626448029498648,0.04688091438608856
1648126070596451093,53647,9,2,1.3018835783,0.0410208031535,0.16281196475,0.0,34.7000007629,0.435412567993311,0.013719332158361203,0.05445216212374582,34.7000007629,0.0,0.615919173924575,1.3126657204346908
1648126070596460861,53648,9,3,2.39566874504,-0.984499275684,0.428832739592,0.0,34.7000007629,0.8012270050301002,-0.32926397180066885,0.14342232093377927,34.7000007629,0.0,1.1799763515871664,2.625331422569316
1648126070596464414,53649,9,4,2.16782617569,-0.9713139534,0.271309375763,0.323675245047,34.7000007629,0.725025476819398,-0.3248541650167224,0.09073892165986622,34.7000007629,0.04373989797932432,1.075571528352765,2.3909265780138833
1648126070791320961,53650,11,0,0.0126156788319,0.0439508594573,0.0103434445336,0.0,21.7999992371,0.004219290579230769,0.014699284099431437,0.0034593459978595315,21.7999992371,0.0,0.015864229543843877,0.04688091556534115
1648126070791328581,53651,11,1,0.0328408256173,0.0146502861753,-0.0300777256489,0.0,21.7999992371,0.010983553718160535,0.0048997612626421405,-0.010059440016354514,21.7999992371,0.0,0.016287558595146318,0.04688091607951567
1648126070791333522,53652,11,2,0.107547201216,-0.399952799082,-0.447105109692,0.0,21.7999992371,0.035968963617391304,-0.13376347795384613,-0.14953348150234114,21.7999992371,0.0,0.14310905185112338,0.6094519022003433
1648126070791336857,53653,11,3,1.35523676872,-0.0,0.375993996859,0.0,21.7999992371,0.4532564443879598,-0.0,0.12575050062173912,21.7999992371,0.0,0.6410014108864593,1.406427454568714
1648126070791604830,53654,11,4,1.87049925327,-1.31852579117,0.507221460342,0.0,21.7999992371,0.6255850345384615,-0.44097852547491634,0.16963928439531772,21.7999992371,0.0,0.988521790759823,2.3440459313536444
1648126070791612227,53655,11,5,2.41656541824,-0.902457654476,0.488003432751,0.0,21.7999992371,0.8082158589431437,-0.30182530250033446,0.16321185041839464,21.7999992371,0.0,1.1821693036633227,2.625331519852788
1648126070791642344,53656,11,6,1.36035978794,-0.27249532938,0.432749837637,-0.161837622523,21.7999992371,0.4549698287424749,-0.09113556166555183,0.1447323871695652,21.7999992371,-0.021869948989594594,0.6498467363402,1.4533082533148038
1648126070791644596,53657,11,7,1.2136310339,0.039555773139,0.357415646315,-0.0809188112617,21.7999992371,0.40589666685618725,0.013229355564882942,0.11953700545652172,21.7999992371,-0.010934974494824324,0.5741769972565841,1.2657846933284413
1648126070896366659,53658,12,0,0.0126156788319,0.0439508594573,0.0103434445336,0.0,29.0,0.004219290579230769,0.014699284099431437,0.0034593459978595315,29.0,0.0,0.015864229543843877,0.04688091556534115
1648126070896371571,53659,12,1,0.0328408256173,0.0146502861753,-0.0300777256489,0.0,29.0,0.010983553718160535,0.0048997612626421405,-0.010059440016354514,29.0,0.0,0.016287558595146318,0.04688091607951567
1648126070896382288,53660,12,2,1.34762620926,-0.0424858294427,0.174543648958,0.0,29.0,0.4507111067759197,-0.01420930750591973,0.0583758023270903,29.0,0.0,0.6375601210569453,1.3595465902202415
1648126070896386892,53661,12,3,1.86427402496,-1.31852579117,0.529644548893,0.0,29.0,0.6235030183812709,-0.44097852547491634,0.1771386451147157,29.0,0.0,0.9858874620316166,2.3440459147152177
1648126070896388783,53662,12,4,2.4153239727,-0.902457654476,0.494111031294,0.0,29.0,0.8078006597658862,-0.30182530250033446,0.16525452551638795,29.0,0.0,1.1816015932055188,2.6253314881111782
1648126070896391823,53663,12,5,1.18529093266,-0.076181486249,0.273876398802,-0.0809188112617,29.0,0.3964183721270903,-0.02547875794280936,0.09159745779331102,29.0,-0.010934974494824324,0.5611989118183434,1.2189038090488813
1648126071091402207,53664,14,0,0.0125951459631,0.0439508594573,0.0103684375063,0.0,24.8999996185,0.0042124233990301,0.014699284099431437,0.0034677048516053507,24.8999996185,0.0,0.015860579271299975,0.0468809155754149
1648126071091434091,53665,14,1,0.0327896587551,0.0146502861753,-0.0301334951073,0.0,24.8999996185,0.010966441055217392,0.0048997612626421405,-0.010078092009130433,24.8999996185,0.0,0.01626448029498648,0.04688091438608856
1648126071091505153,53666,14,2,0.0556347407401,-0.399952799082,-0.456480175257,0.0,24.8999996185,0.01860693670237458,-0.13376347795384613,-0.1526689549354515,24.8999996185,0.0,0.1363271954571113,0.609451898244157
1648126071091508399,53667,14,3,2.4196202755,-0.902457654476,0.472623407841,0.0,24.8999996185,0.809237550334448,-0.30182530250033446,0.15806802937826087,24.8999996185,0.0,1.1835663644139331,2.6253314041035387
1648126071091512937,53668,14,4,1.23167002201,0.090831771493,0.766057312489,0.0809188112617,24.8999996185,0.41192977324749164,0.03037851889397993,0.25620645902642136,24.8999996185,0.010934974494824324,0.5833482069790321,1.4533083842903198
1648126071091521169,53669,14,5,1.2834738493,-0.0,0.275292575359,-0.0809188112617,24.8999996185,0.429255467993311,-0.0,0.09207109543779263,24.8999996185,-0.010934974494824324,0.6070589045589504,1.3126656557877752
1648126071195964816,53670,15,0,0.0126156788319,0.0439508594573,0.0103434445336,0.0,33.9000015259,0.004219290579230769,0.014699284099431437,0.0034593459978595315,33.9000015259,0.0,0.015864229543843877,0.04688091556534115
1648126071195968102,53671,15,1,0.0327896587551,0.0146502861753,-0.0301334951073,0.0,33.9000015259,0.010966441055217392,0.0048997612626421405,-0.010078092009130433,33.9000015259,0.0,0.01626448029498648,0.04688091438608856
1648126071195975672,53672,15,2,0.0979459658265,-0.399952799082,-0.449306100607,0.0,33.9000015259,0.03275784810250836,-0.13376347795384613,-0.15026959886521737,33.9000015259,0.0,0.14155854357446285,0.6094519060253074
1648126071195980294,53673,15,3,1.20365905762,0.039555773139,0.389680951834,0.0,33.9000015259,0.4025615577324414,0.013229355564882942,0.13032807753645484,33.9000015259,0.0,0.5694617031694068,1.2657847488422123
1648126071195987394,53674,15,4,1.30529868603,-0.0439508594573,0.521825671196,0.0,33.9000015259,0.4365547444916388,-0.014699284099431437,0.174523635851505,33.9000015259,0.0,0.6175566037452404,1.4064275199660436
1648126071196034276,53675,15,5,1.88674604893,-1.31852579117,0.442978948355,0.0,33.9000015259,0.6310187454615385,-0.44097852547491634,0.14815349443311035,33.9000015259,0.0,0.995405130676821,2.344045917600409
1648126071196036292,53676,15,6,2.39588403702,-0.984499275684,0.427628546953,0.0,33.9000015259,0.8012990090367893,-0.32926397180066885,0.14301958092073577,33.9000015259,0.0,1.1800741361849403,2.625331467993843
1648126071196240096,53677,15,7,1.22902607918,-0.118667319417,0.278610467911,0.242756426334,33.9000015259,0.41104551143143814,-0.039688066694648826,0.09318075849866221,33.9000015259,0.03280492247756756,0.5826593924187817,1.2657846692197559
1648126071296324317,53678,16,0,0.0127026932314,0.0439508594573,0.0102363945916,0.0,32.5,0.004248392385083612,0.014699284099431437,0.0034235433416722402,32.5,0.0,0.015879755311435713,0.04688091548382273
1648126071296329515,53679,16,1,0.0328408256173,0.0146502861753,-0.0300777256489,0.0,32.5,0.010983553718160535,0.0048997612626421405,-0.010059440016354514,32.5,0.0,0.016287558595146318,0.04688091607951567
1648126071296364780,53680,16,2,0.107547201216,-0.399952799082,-0.447105109692,0.0,32.5,0.035968963617391304,-0.13376347795384613,-0.14953348150234114,32.5,0.0,0.14310905185112338,0.6094519022003433
1648126071296393614,53681,16,3,1.36710572243,0.0879017189145,0.318329155445,0.0,32.5,0.4572259941237458,0.02939856819882943,0.10646460048327759,32.5,0.0,0.6472831646327877,1.406427466915839
1648126071296400490,53682,16,4,1.90254676342,-1.31852579117,0.369265526533,0.0,32.5,0.6363032653578594,-0.44097852547491634,0.1235001760979933,32.5,0.0,1.0021106480524893,2.344045963300653
1648126071296403428,53683,16,5,2.39628744125,-0.984499275684,0.425361990929,0.0,32.5,0.8014339268394649,-0.32926397180066885,0.14226153542775918,32.5,0.0,1.1802573623174741,2.6253314358842155
1648126071296406744,53684,16,6,1.26193463802,0.187523663044,0.789255261421,0.0809188112617,32.5,0.42205171840133776,0.0627169441618729,0.26396497037491634,32.5,0.010934974494824324,0.6001572469745305,1.5001893288904702
1648126071296409874,53685,16,7,1.48168718815,-0.187523663044,0.141442269087,0.0809188112617,32.5,0.4955475545652174,-0.0627169441618729,0.047305106718060194,32.5,0.010934974494824324,0.7036108105736706,1.5001893091252758
1648126071296484417,53686,16,8,1.22204744816,0.197778865695,0.263997226954,0.242756426334,32.5,0.4087115211237458,0.06614677782441471,0.08829338694113713,32.5,0.03280492247756756,0.581777974157775,1.2657847293712194
1648126071296494066,53687,16,9,1.21559870243,0.039555773139,0.350665301085,-0.0809188112617,32.5,0.4065547499765886,0.013229355564882942,0.11727936491137123,32.5,-0.010934974494824324,0.5751074206665352,1.265784743913102
1648126071491408671,53688,18,0,0.0126156788319,0.0439508594573,0.0103434445336,0.0,27.7000007629,0.004219290579230769,0.014699284099431437,0.0034593459978595315,27.7000007629,0.0,0.015864229543843877,0.04688091556534115
1648126071491412302,53689,18,1,0.0329282097518,0.0146502861753,-0.029982034117,0.0,27.7000007629,0.011012779181204012,0.0048997612626421405,-0.010027436159531772,27.7000007629,0.0,0.016326979849892922,0.04688091565093065
1648126071491414350,53690,18,2,0.0963126271963,-0.399952799082,-0.449659049511,0.0,27.7000007629,0.03221158100210702,-0.13376347795384613,-0.15038764197692306,27.7000007629,0.0,0.14130760749379237,0.609451904958969
1648126071491429978,53691,18,3,1.29543352127,-0.0,0.211998000741,0.0,27.7000007629,0.43325535828428097,-0.0,0.07090234138494983,27.7000007629,0.0,0.6127156036564446,1.31266566967685
1648126071491507985,53692,18,4,1.34371864796,-0.281285494566,0.604869186878,0.0,27.7000007629,0.4494042300869565,-0.09407541624280935,0.20229738691571902,27.7000007629,0.0,0.6424784105177062,1.5001893439040095
1648126071491510497,53693,18,5,1.25385499001,0.281285494566,-0.774140834808,0.0,27.7000007629,0.41934949498662205,0.09407541624280935,-0.2589099781966555,27.7000007629,0.0,0.6004649713616338,1.5001892872379283
1648126071491511887,53694,18,6,1.85734379292,-1.31852579117,0.553457260132,0.0,27.7000007629,0.6211852150234114,-0.44097852547491634,0.18510276258595318,27.7000007629,0.0,0.9829568671398533,2.344045896707602
1648126071491518418,53695,18,7,2.37341666222,-0.984499275684,0.538534462452,0.0,27.7000007629,0.7937848368628762,-0.32926397180066885,0.18011186035183946,27.7000007629,0.0,1.1698732827074894,2.6253313778596237
1648126071596343612,53696,19,0,0.0126156788319,0.0439508594573,0.0103434445336,0.0,12.1999998093,0.004219290579230769,0.014699284099431437,0.0034593459978595315,12.1999998093,0.0,0.015864229543843877,0.04688091556534115
1648126071596374175,53697,19,1,0.0328408256173,0.0146502861753,-0.0300777256489,0.0,12.1999998093,0.010983553718160535,0.0048997612626421405,-0.010059440016354514,12.1999998093,0.0,0.016287558595146318,0.04688091607951567
1648126071596398365,53698,19,2,1.36670553684,-0.187523663044,0.58950740099,0.0,12.1999998093,0.45709215278929766,-0.0627169441618729,0.19715966588294312,12.1999998093,0.0,0.6494612285333996,1.5001893628647476
1648126071596400405,53699,19,3,2.39049220085,-0.984499275684,0.456807523966,0.0,12.1999998093,0.7994957193478259,-0.32926397180066885,0.15277843610903008,12.1999998093,0.0,1.1776253961412972,2.6253313886248617
1648126071596519473,53700,19,4,1.24621021748,-0.0,0.221745356917,-0.0809188112617,12.1999998093,0.4167927148762542,-0.0,0.07416232672809364,12.1999998093,-0.010934974494824324,0.5894339100763011,1.2657847010711563
1648126071791474225,53701,21,0,0.0125850513577,0.0439508594573,0.0103806881234,0.0,37.0999984741,0.004209047276822742,0.014699284099431437,0.0034718020479598656,37.0999984741,0.0,0.0158587865548678,0.04688091563340654
1648126071791477597,53702,21,1,0.0328408256173,0.0146502861753,-0.0300777256489,0.0,37.0999984741,0.010983553718160535,0.0048997612626421405,-0.010059440016354514,37.0999984741,0.0,0.016287558595146318,0.04688091607951567
1648126071791478854,53703,21,2,0.0963126271963,-0.399952799082,-0.449659049511,0.0,37.0999984741,0.03221158100210702,-0.13376347795384613,-0.15038764197692306,37.0999984741,0.0,0.14130760749379237,0.609451904958969
1648126071791479925,53704,21,3,1.25126647949,-0.0,0.191162481904,0.0,37.0999984741,0.4184837724046822,-0.0,0.0639339404361204,37.0999984741,0.0,0.5918254265677572,1.265784696219304
1648126071791480993,53705,21,4,1.39532482624,-0.0879017189145,0.152905657887,0.0,37.0999984741,0.4666638214849498,-0.02939856819882943,0.05113901601571906,37.0999984741,0.0,0.6606167727041263,1.4064274681346587
1648126071791481983,53706,21,5,1.89225709438,-1.31852579117,0.41881275177,0.0,37.0999984741,0.6328619044749163,-0.44097852547491634,0.14007115443812707,37.0999984741,0.0,0.9977426723365437,2.3440459240930145
1648126071791483368,53707,21,6,2.38084983826,-0.984499275684,0.504658937454,0.0,37.0999984741,0.7962708489163879,-0.32926397180066885,0.168782253329097,37.0999984741,0.0,1.173247328057474,2.6253314875110894
1648126071791486917,53708,21,7,1.26894259453,-0.234404578805,0.765118956566,0.0809188112617,37.0999984741,0.42439551656521735,-0.07839618020234114,0.2558926276140468,37.0999984741,0.010934974494824324,0.6052842886046468,1.5001892655508244
1648126071791487945,53709,21,8,1.46800076962,0.281285494566,-0.128141030669,0.0809188112617,37.0999984741,0.4909701570635451,0.09407541624280935,-0.04285653199632107,37.0999984741,0.010934974494824324,0.7006807933683227,1.500189292322494
1648126071896448166,53710,22,0,0.0126825124025,0.0439508594573,0.0102613866329,0.0,14.0,0.004241642943979933,0.014699284099431437,0.0034319018839130432,14.0,0.0,0.015876146344885694,0.04688091534414363
1648126071896454985,53711,22,1,0.0328408256173,0.0146502861753,-0.0300777256489,0.0,14.0,0.010983553718160535,0.0048997612626421405,-0.010059440016354514,14.0,0.0,0.016287558595146318,0.04688091607951567
1648126071896458678,53712,22,2,1.24108815193,-0.0,0.248819604516,0.0,14.0,0.4150796494749164,-0.0,0.08321725903545149,14.0,0.0,0.5870112697524971,1.265784735431946
1648126071896462514,53713,22,3,1.40398657322,-0.0439508594573,0.070202767849,0.0,14.0,0.46956072682943145,-0.014699284099431437,0.023479186571571904,14.0,0.0,0.66422181634918,1.4064275325955242
1648126071896466134,53714,22,4,2.39062356949,-0.984499275684,0.456119447947,0.0,14.0,0.7995396553478261,-0.32926397180066885,0.15254831035016722,14.0,0.0,1.1776850530058505,2.6253313744399787
1648126071896546321,53715,22,5,1.37258124352,-0.328166425228,0.508817791939,-0.161837622523,14.0,0.45905727208026753,-0.10975465726688963,0.17017317456153846,14.0,-0.021869948989594594,0.6584172255426842,1.5001893274195472
1648126072091215913,53716,24,0,0.0125850513577,0.0439508594573,0.0103806881234,0.0,29.3999996185,0.004209047276822742,0.014699284099431437,0.0034718020479598656,29.3999996185,0.0,0.0158587865548678,0.04688091563340654
1648126072091222294,53717,24,1,0.0328022278845,0.0146502861753,-0.030119812116,0.0,29.3999996185,0.010970644777424748,0.0048997612626421405,-0.010073515757859532,29.3999996185,0.0,0.01627014917251106,0.04688091425204926
1648126072091227972,53718,24,2,1.22506272793,-0.0,0.318484187126,0.0,29.3999996185,0.40971997589632103,-0.0,0.1065164505438127,29.3999996185,0.0,0.5794315466877548,1.2657846834326136
1648126072091339291,53719,24,3,1.84904515743,-1.39177727699,0.372208505869,0.0,29.3999996185,0.6184097516488294,-0.4654773501638796,0.12448445012341136,29.3999996185,0.0,0.9907221635677284,2.344045894346411
1648126072091347442,53720,24,4,2.39098477364,-0.984499275684,0.45422244072,0.0,29.3999996185,0.7996604594113712,-0.32926397180066885,0.15191385977257524,29.3999996185,0.0,1.177849083634216,2.625331414746389
1648126072091354267,53721,24,5,1.27210581303,0.181663542986,0.67885941267,-0.161837622523,29.3999996185,0.42545344917391303,0.06075703778795986,0.22704328182943143,29.3999996185,-0.021869948989594594,0.6047418395222265,1.4533082758195526
1648126072091356610,53722,24,6,1.41688597202,-0.317911207676,0.058923240751,-0.161837622523,29.3999996185,0.4738749070301003,-0.10632481862073578,0.0197067694819398,29.3999996185,-0.021869948989594594,0.6785424246724039,1.4533084125448643
1648126072091359252,53723,24,7,1.45330691338,-0.234404578805,0.289000749588,-0.0809188112617,29.3999996185,0.4860558238729097,-0.07839618020234114,0.09665576909297657,29.3999996185,-0.010934974494824324,0.6918428209585353,1.5001892961574141
1648126072091361679,53724,24,8,0.692278027534,0.281285494566,1.30084490776,-0.0809188112617,29.3999996185,0.2315311128876254,0.09407541624280935,0.435065186541806,29.3999996185,-0.010934974494824324,0.34068093050715725,1.5001892783594768
1648126072196378103,53725,25,0,0.0125951459631,0.0439508594573,0.0103684375063,0.0,13.6000003815,0.0042124233990301,0.014699284099431437,0.0034677048516053507,13.6000003815,0.0,0.015860579271299975,0.0468809155754149
1648126072196381485,53726,25,1,0.0328408256173,0.0146502861753,-0.0300777256489,0.0,13.6000003815,0.010983553718160535,0.0048997612626421405,-0.010059440016354514,13.6000003815,0.0,0.016287558595146318,0.04688091607951567
1648126072196385749,53727,25,2,1.88119709492,-1.31852579117,0.465981215239,0.0,13.6000003815,0.629162908,-0.44097852547491634,0.15584656028060198,13.6000003815,0.0,0.9930528634146645,2.3440459178248916
1648126072196391525,53728,25,3,2.38747167587,-0.984499275684,0.472339779139,0.0,13.6000003815,0.7984855103244147,-0.32926397180066885,0.15797317028060198,13.6000003815,0.0,1.1762537921392788,2.6253313493463843
1648126072196476071,53729,25,4,1.22885859013,-0.0,0.303508996964,0.0809188112617,13.6000003815,0.4109894950267558,-0.0,0.10150802574046823,13.6000003815,0.010934974494824324,0.5812269178597078,1.2657847944158536
1648126072391209147,53730,27,0,0.0126825124025,0.0439508594573,0.0102613866329,0.0,36.0999984741,0.004241642943979933,0.014699284099431437,0.0034319018839130432,36.0999984741,0.0,0.015876146344885694,0.04688091534414363
1648126072391218403,53731,27,1,0.0328022278845,0.0146502861753,-0.030119812116,0.0,36.0999984741,0.010970644777424748,0.0048997612626421405,-0.010073515757859532,36.0999984741,0.0,0.01627014917251106,0.04688091425204926
1648126072391238948,53732,27,2,0.0963126271963,-0.399952799082,-0.449659049511,0.0,36.0999984741,0.03221158100210702,-0.13376347795384613,-0.15038764197692306,36.0999984741,0.0,0.14130760749379237,0.609451904958969
1648126072391243137,53733,27,3,1.24802017212,-0.0,0.211320951581,0.0,36.0999984741,0.41739805087625415,-0.0,0.07067590353879598,36.0999984741,0.0,0.5902899844572937,1.2657846951972258
1648126072391247398,53734,27,4,1.34547889233,0.175803437829,0.369889199734,0.0,36.0999984741,0.4499929405785953,0.05879713639765886,0.12370876245284279,36.0999984741,0.0,0.6390965470018652,1.4064275020554446
1648126072391257024,53735,27,5,0.488712668419,1.31852579117,0.0262296143919,0.0,36.0999984741,0.16344905298294313,0.44097852547491634,0.008772446284916387,36.0999984741,0.0,0.49788878855832186,1.4064275050370856
1648126072391286162,53736,27,6,1.8483645916,-1.31852579117,0.582743108273,0.0,36.0999984741,0.6181821376588629,-0.44097852547491634,0.1948973606264214,36.0999984741,0.0,0.9791630970226533,2.3440459585299913
1648126072391295038,53737,27,7,2.41005325317,-0.902457654476,0.519209265709,0.0,36.0999984741,0.8060378773143813,-0.30182530250033446,0.17364858384916385,36.0999984741,0.0,1.179191516489313,2.6253313624827825
1648126072391327067,53738,27,8,1.37265992165,-0.13624766469,0.457543730736,-0.161837622523,36.0999984741,0.45908358583612036,-0.04556778083277591,0.1530246591090301,36.0999984741,-0.021869948989594594,0.6508393812749232,1.4533082784369873
