%time,field.header.seq,field.header.frame_id,field.point_id,field.x,field.y,field.z,field.velocity,field.intensity,normalized_x,normalized_y,normalized_z,normalized_intensity,normalized_velocity,normalized_range,range
1648295902369168185,68868,0,0,0.0127100823447,0.0439508594573,0.0102272182703,0.0,14.8999996185,0.004250863660434782,0.014699284099431437,0.003420474337892977,14.8999996185,0.0,0.01588107794688408,0.04688091545386831
1648295902369173540,68869,0,1,0.0335269682109,0.0146502861753,-0.0293109472841,0.0,14.8999996185,0.01121303284645485,0.0048997612626421405,-0.00980299240270903,14.8999996185,0.0,0.016597345319726262,0.046880914166899254
1648295902369297490,68870,0,2,2.244109869,-1.2306240797,0.584722459316,0.0,14.8999996185,0.7505384177257524,-0.4115799597658863,0.195559350941806,14.8999996185,0.0,1.1384260609479389,2.6253314236700134
1648295902474278368,68871,1,0,0.0127217965201,0.0439508594573,0.010212643072,0.0,15.5,0.004254781444849498,0.014699284099431437,0.0034155996896321067,15.5,0.0,0.015883176109414296,0.046880915437416903
1648295902474291350,68872,1,1,0.0335269682109,0.0146502861753,-0.0293109472841,0.0,15.5,0.01121303284645485,0.0048997612626421405,-0.00980299240270903,15.5,0.0,0.016597345319726262,0.046880914166899254
1648295902474295259,68873,1,2,2.24479866028,-1.2306240797,0.582072734833,0.0,15.5,0.750768782702341,-0.4115799597658863,0.1946731554625418,15.5,0.0,1.138729815821821,2.625331468475614
1648295902474298294,68874,1,3,1.72053682804,-0.111342176795,0.448339909315,-0.566431701183,15.5,0.575430377270903,-0.037238186219063545,0.14994645796488293,15.5,-0.07654482448418919,0.8146329975425456,1.7814748752817076
1648295902669313285,68875,3,0,0.0127100823447,0.0439508594573,0.0102272182703,0.0,27.2000007629,0.004250863660434782,0.014699284099431437,0.003420474337892977,27.2000007629,0.0,0.01588107794688408,0.04688091545386831
1648295902669319410,68876,3,1,0.0335269682109,0.0146502861753,-0.0293109472841,0.0,27.2000007629,0.01121303284645485,0.0048997612626421405,-0.00980299240270903,27.2000007629,0.0,0.016597345319726262,0.046880914166899254
1648295902669325027,68877,3,2,1.92116129398,-0.0600661747158,-0.00820585060865,0.0,27.2000007629,0.6425288608628762,-0.020089021644080267,-0.002744431641688963,27.2000007629,0.0,0.9088950670314516,1.922117581943443
1648295902669330707,68878,3,3,2.24326395988,-1.2306240797,0.587958991528,0.0,27.2000007629,0.7502555049765887,-0.4115799597658863,0.19664180318662206,27.2000007629,0.0,1.138053034254661,2.6253313305090833
1648295902669507539,68879,3,4,1.96041536331,0.12306240201,0.136315628886,0.323675245047,27.2000007629,0.6556573121438127,0.04115799398327759,0.04559051133311036,27.2000007629,0.04373989797932432,0.9281524672186277,1.9689984007532704
1648295902669548479,68880,3,5,1.62113451958,-0.316446185112,0.346640259027,-0.404594063759,27.2000007629,0.5421854580535117,-0.10583484451906354,0.11593319699899665,27.2000007629,-0.05467487348094594,0.7740356297766705,1.6877128866676705
1648295902774278610,68881,4,0,0.0127100823447,0.0439508594573,0.0102272182703,0.0,19.6000003815,0.004250863660434782,0.014699284099431437,0.003420474337892977,19.6000003815,0.0,0.01588107794688408,0.04688091545386831
1648295902774283230,68882,4,1,0.033517640084,0.0146502861753,-0.0293216109276,0.0,19.6000003815,0.011209913071571907,0.0048997612626421405,-0.009806558838662207,19.6000003815,0.0,0.016593129981268932,0.04688091241868381
1648295902774287936,68883,4,2,0.327331095934,-0.75155967474,-0.348461747169,0.0,19.6000003815,0.10947528292107023,-0.25135775074916383,-0.11654239035752509,19.6000003815,0.0,0.2952124557043207,0.8907374362295098
1648295902774289626,68884,4,3,1.86215078831,-0.117202289402,0.187538430095,0.0,19.6000003815,0.6227929057892976,-0.03919809010100334,0.06272188297491639,19.6000003815,0.0,0.8816339928056995,1.875236677810863
1648295902774303634,68885,4,4,2.2425558567,-1.2306240797,0.590654611588,0.0,19.6000003815,0.7500186811705686,-0.4115799597658863,0.19754334835719065,19.6000003815,0.0,1.1377407909935227,2.6253314583395206
1648295902774480869,68886,4,5,1.99198198318,0.188988685608,0.245073929429,0.242756426334,19.6000003815,0.6662147100936454,0.06320691826354514,0.08196452489264214,19.6000003815,0.03280492247756756,0.9442876650717696,2.015879504208358
1648295902969294099,68887,6,0,0.0127100823447,0.0439508594573,0.0102272182703,0.0,16.6000003815,0.004250863660434782,0.014699284099431437,0.003420474337892977,16.6000003815,0.0,0.01588107794688408,0.04688091545386831
1648295902969359277,68888,6,1,0.0335404723883,0.0146502861753,-0.0292954929173,0.0,16.6000003815,0.011217549293745818,0.0048997612626421405,-0.009797823718160533,16.6000003815,0.0,0.016603447977637752,0.046880913795659694
1648295902969377012,68889,6,2,2.24640798569,-1.2306240797,0.575830459595,0.0,16.6000003815,0.7513070186254179,-0.4115799597658863,0.1925854379916388,16.6000003815,0.0,1.1394395709086624,2.6253314422957463
1648295903074287214,68890,7,0,0.0127100823447,0.0439508594573,0.0102272182703,0.0,15.5,0.004250863660434782,0.014699284099431437,0.003420474337892977,15.5,0.0,0.01588107794688408,0.04688091545386831
1648295903074393430,68891,7,1,0.0335404723883,0.0146502861753,-0.0292954929173,0.0,15.5,0.011217549293745818,0.0048997612626421405,-0.009797823718160533,15.5,0.0,0.016603447977637752,0.046880913795659694
1648295903074433078,68892,7,2,1.87063324451,-0.117202289402,-0.0592207163572,0.0,15.5,0.6256298476622073,-0.03919809010100334,-0.019806259651237456,15.5,0.0,0.8856420850655415,1.8752365731696201
1648295903074440555,68893,7,3,2.2455291748,-1.2306240797,0.579247236252,0.0,15.5,0.7510131019397993,-0.4115799597658863,0.19372817265953177,15.5,0.0,1.1390519838231121,2.6253312669301416
1648295903074445492,68894,7,4,1.6786532402,-0.158223092556,-0.0739175081253,0.242756426334,15.5,0.561422488361204,-0.05291742225953177,-0.02472157462384615,15.5,0.03280492247756756,0.7957327908625897,1.6877129631129213
1648295903269364790,68895,9,0,0.0127004906535,0.0439508594573,0.0102391270921,0.0,15.8999996185,0.004247655736956521,0.014699284099431437,0.003424457221438127,15.8999996185,0.0,0.01587936118221376,0.046880915450566385
1648295903269391906,68896,9,1,0.0335404723883,0.0146502861753,-0.0292954929173,0.0,15.8999996185,0.011217549293745818,0.0048997612626421405,-0.009797823718160533,15.8999996185,0.0,0.016603447977637752,0.046880913795659694
1648295903269513845,68897,9,2,1.91721212864,-0.0600661747158,0.123391337693,0.0,15.8999996185,0.6412080697792641,-0.020089021644080267,0.0412680059173913,15.8999996185,0.0,0.9070276436199262,1.9221175077936772
1648295903269529924,68898,9,3,2.24351525307,-1.2306240797,0.586999535561,0.0,15.8999996185,0.7503395495217391,-0.4115799597658863,0.19632091490334447,15.8999996185,0.0,1.1381638469191775,2.6253313640460796
1648295903374349966,68899,10,0,0.0127100823447,0.0439508594573,0.0102272182703,0.0,15.6999998093,0.004250863660434782,0.014699284099431437,0.003420474337892977,15.6999998093,0.0,0.01588107794688408,0.04688091545386831
1648295903374357529,68900,10,1,0.0335269682109,0.0146502861753,-0.0293109472841,0.0,15.6999998093,0.01121303284645485,0.0048997612626421405,-0.00980299240270903,15.6999998093,0.0,0.016597345319726262,0.046880914166899254
1648295903374365839,68901,10,2,1.92211008072,-0.0,0.00536751048639,0.0,15.6999998093,0.6428461808428093,-0.0,0.001795154008826087,15.6999998093,0.0,0.9091217874676483,1.9221175751171589
1648295903374369194,68902,10,3,2.24239659309,-1.2306240797,0.591258943081,0.0,15.6999998093,0.7499654157491639,-0.4115799597658863,0.1977454659133779,15.6999998093,0.0,1.1376705643201466,2.625331454123912
1648295903569358506,68903,12,0,0.0127004906535,0.0439508594573,0.0102391270921,0.0,15.3999996185,0.004247655736956521,0.014699284099431437,0.003424457221438127,15.3999996185,0.0,0.01587936118221376,0.046880915450566385
1648295903569368117,68904,12,1,0.0335404723883,0.0146502861753,-0.0292954929173,0.0,15.3999996185,0.011217549293745818,0.0048997612626421405,-0.009797823718160533,15.3999996185,0.0,0.016603447977637752,0.046880913795659694
1648295903569371347,68905,12,2,2.24245810509,-1.2306240797,0.591024935246,0.0,15.3999996185,0.7499859883244147,-0.4115799597658863,0.19766720242341135,15.3999996185,0.0,1.1376976877214733,2.6253313034175028
1648295903674371154,68906,13,0,0.0127004906535,0.0439508594573,0.0102391270921,0.0,15.3000001907,0.004247655736956521,0.014699284099431437,0.003424457221438127,15.3000001907,0.0,0.01587936118221376,0.046880915450566385
1648295903674374380,68907,13,1,0.0335269682109,0.0146502861753,-0.0293109472841,0.0,15.3000001907,0.01121303284645485,0.0048997612626421405,-0.00980299240270903,15.3000001907,0.0,0.016597345319726262,0.046880914166899254
1648295903674391282,68908,13,2,2.24442744255,-1.2306240797,0.583502292633,0.0,15.3000001907,0.7506446296153846,-0.4115799597658863,0.19515126843913042,15.3000001907,0.0,1.1385661084108047,2.6253314259188256
1648295903869298472,68909,15,0,0.0127217965201,0.0439508594573,0.010212643072,0.0,15.1000003815,0.004254781444849498,0.014699284099431437,0.0034155996896321067,15.1000003815,0.0,0.015883176109414296,0.046880915437416903
1648295903869304416,68910,15,1,0.0335404723883,0.0146502861753,-0.0292954929173,0.0,15.1000003815,0.011217549293745818,0.0048997612626421405,-0.009797823718160533,15.1000003815,0.0,0.016603447977637752,0.046880913795659694
1648295903869310672,68911,15,2,1.91299366951,-0.120132349432,0.14338517189,0.0,15.1000003815,0.6397972138829431,-0.040178043288294316,0.04795490698662207,15.1000003815,0.0,0.905701509851468,1.9221175480400028
1648295903869441876,68912,15,3,2.24501037598,-1.2306240797,0.581255018711,0.0,15.1000003815,0.7508395906287626,-0.4115799597658863,0.194399671809699,15.1000003815,0.0,1.1388231842529482,2.625331333483844
1648295903974378226,68913,16,0,0.0127100823447,0.0439508594573,0.0102272182703,0.0,15.1000003815,0.004250863660434782,0.014699284099431437,0.003420474337892977,15.1000003815,0.0,0.01588107794688408,0.04688091545386831
1648295903974384945,68914,16,1,0.0335404723883,0.0146502861753,-0.0292954929173,0.0,15.1000003815,0.011217549293745818,0.0048997612626421405,-0.009797823718160533,15.1000003815,0.0,0.016603447977637752,0.046880913795659694
1648295903974391241,68915,16,2,1.87096381187,-0.117202289402,0.0476462356746,0.0,15.1000003815,0.6257404053076923,-0.03919809010100334,0.015935195877792643,15.1000003815,0.0,0.885798283999713,1.8752365519427543
1648295903974398037,68916,16,3,2.2460744381,-1.2306240797,0.577129781246,0.0,15.1000003815,0.7511954642474916,-0.4115799597658863,0.1930199937277592,15.1000003815,0.0,1.1392924621417002,2.6253313679276293
