%time,field.header.seq,field.header.frame_id,field.point_id,field.x,field.y,field.z,field.velocity,field.intensity,normalized_x,normalized_y,normalized_z,normalized_intensity,normalized_velocity,normalized_range,range
1648219506955119802,76473,0,0,0.0122607154772,0.0439508594573,0.0107618328184,0.0,12.8999996185,0.00410057373819398,0.014699284099431437,0.003599275190100334,12.8999996185,0.0,0.015801846822461295,0.04688091548444185
1648219506955265775,76474,0,1,0.0334614515305,0.0146502861753,-0.0293857175857,0.0,12.8999996185,0.011191120913210702,0.0048997612626421405,-0.009827999192541806,12.8999996185,0.0,0.016567740794057963,0.04688091319047343
1648219506955269412,76475,0,2,0.766370594501,1.22622895241,0.1454090029,0.0,12.8999996185,0.2563112356190635,0.4101100175284281,0.0486317735451505,12.8999996185,0.0,0.5473400455715896,1.4533083327252736
1648219506955273812,76476,0,3,1.8651266098,-0.0,0.194461405277,0.0,12.8999996185,0.623788163812709,-0.0,0.06503725928996655,12.8999996185,0.0,0.8821696813117429,1.8752366540589873
1648219507060131363,76477,1,0,0.00567744718865,0.0454158857465,0.0101481107995,0.0,13.1000003815,0.001898811768779264,0.015189259446989964,0.0033940169897993307,13.1000003815,0.0,0.015424803882529047,0.046880915493599094
1648219507060144174,76478,1,1,0.0334614515305,0.0146502861753,-0.0293857175857,0.0,13.1000003815,0.011191120913210702,0.0048997612626421405,-0.009827999192541806,13.1000003815,0.0,0.016567740794057963,0.04688091319047343
1648219507060152266,76479,1,2,1.85010385513,0.175803437829,0.250442147255,0.0,13.1000003815,0.6187638311471572,0.05879713639765886,0.08375991546989967,13.1000003815,0.0,0.8770373200271355,1.8752366231068223
1648219507060154604,76480,1,3,0.776693105698,1.22622895241,0.0722187161446,-0.0809188112617,13.1000003815,0.25976358050100334,0.4101100175284281,0.02415341677076923,13.1000003815,-0.010934974494824324,0.5505855628206846,1.453308352390815
1648219507255179435,76481,3,0,0.0122741637751,0.0439508594573,0.0107464920729,0.0,14.0,0.004105071496688963,0.014699284099431437,0.003594144505986622,14.0,0.0,0.015804182263617888,0.04688091546979662
1648219507255187316,76482,3,1,0.0335122980177,0.0146502861753,-0.029327718541,0.0,14.0,0.011208126427324413,0.0048997612626421405,-0.009808601518729096,14.0,0.0,0.016590715971671156,0.04688091379511966
1648219507255190176,76483,3,2,0.78058797121,1.18081307411,0.32934486866,0.0,14.0,0.2610662111070234,0.39492076057190634,0.11014878550501672,14.0,0.0,0.5406232887087337,1.4533083428163223
1648219507360225485,76484,4,0,0.00567744718865,0.0454158857465,0.0101481107995,0.0,11.6000003815,0.001898811768779264,0.015189259446989964,0.0033940169897993307,11.6000003815,0.0,0.015424803882529047,0.046880915493599094
1648219507360228704,76485,4,1,0.0334614515305,0.0146502861753,-0.0293857175857,0.0,11.6000003815,0.011191120913210702,0.0048997612626421405,-0.009827999192541806,11.6000003815,0.0,0.016567740794057963,0.04688091319047343
1648219507360232603,76486,4,2,0.748042166233,1.22622895241,0.221134781837,0.0,11.6000003815,0.2501813264993311,0.4101100175284281,0.07395812101571905,11.6000003815,0.0,0.5416379037097546,1.4533083354640142
1648219507360234649,76487,4,3,0.967440664768,1.24527430534,0.232445001602,0.161837622523,11.6000003815,0.3235587507585284,0.41647970078260865,0.07774080321137122,11.6000003815,0.021869948989594594,0.6187373203135643,1.5939511329261393
1648219507360240667,76488,4,4,2.53827524185,-0.339886635542,0.913839578629,-0.242756426334,11.6000003815,0.8489214855685618,-0.11367446004749163,0.3056319660966555,11.6000003815,-0.03280492247756756,1.2059258933230337,2.71909302964749
1648219507360384376,76489,4,5,1.35472869873,-1.35954654217,-1.92608690262,-0.242756426334,11.6000003815,0.45308652131438126,-0.4546978401906354,-0.6441762216120401,11.6000003815,-0.03280492247756756,0.7857002720297118,2.7190931216001757
1648219507555235574,76490,6,0,0.00550643447787,0.0454158857465,0.0102419108152,0.0,12.3000001907,0.001841616882230769,0.015189259446989964,0.003425388232508361,12.3000001907,0.0,0.01541092820143578,0.04688091547681986
1648219507555251389,76491,6,1,0.0334385335445,0.0146502861753,-0.0294117927551,0.0,12.3000001907,0.011183456034949833,0.0048997612626421405,-0.009836719984983276,12.3000001907,0.0,0.01655738621287189,0.046880912573176205
1648219507555267205,76492,6,2,0.720740437508,1.02845013142,0.158223092556,-0.485512852669,12.3000001907,0.24105031354782608,0.3439632546555184,0.05291742225953177,12.3000001907,-0.06560984495527027,0.48427391822833854,1.2657847360807537
1648219507555387616,76493,6,3,0.974681913853,1.24527430534,0.199918240309,-0.161837622523,12.3000001907,0.32598057319498325,0.41647970078260865,0.06686228772876253,12.3000001907,-0.021869948989594594,0.6212745040358818,1.5939511383792206
1648219507555390477,76494,6,4,1.82473993301,0.114272229373,0.0122687863186,-0.0809188112617,12.3000001907,0.6102809140501672,0.03821813691404682,0.0041032730162541805,12.3000001907,-0.010934974494824324,0.863913313994521,1.8283556789216222
1648219507660224606,76495,7,0,0.0122607154772,0.0439508594573,0.0107618328184,0.0,12.8000001907,0.00410057373819398,0.014699284099431437,0.003599275190100334,12.8000001907,0.0,0.015801846822461295,0.04688091548444185
1648219507660232587,76496,7,1,0.0334246940911,0.0146502861753,-0.0294275209308,0.0,12.8000001907,0.01117882745521739,0.0048997612626421405,-0.009841980244414716,12.8000001907,0.0,0.01655113370672634,0.04688091347482975
1648219507660235366,76497,7,2,1.82407939434,0.114272229373,-0.0506039150059,0.0,12.8000001907,0.6100599981070234,0.03821813691404682,-0.01692438628959866,12.8000001907,0.0,0.8636011976426755,1.828355691728385
1648219507660237712,76498,7,3,0.784910261631,1.26578474045,0.179646447301,0.242756426334,12.8000001907,0.2625117931876254,0.42333937807692307,0.060082423846488285,12.8000001907,0.03280492247756756,0.5630640391249659,1.5001893127194281
1648219507660416490,76499,7,4,1.68653988838,-0.0,-0.0629126578569,0.485512852669,12.8000001907,0.5640601633377926,-0.0,-0.021041022694615386,12.8000001907,0.06560984495527027,0.7977015329866896,1.6877128895684368
1648219507855190416,76500,9,0,0.0122607154772,0.0439508594573,0.0107618328184,0.0,22.8999996185,0.00410057373819398,0.014699284099431437,0.003599275190100334,22.8999996185,0.0,0.015801846822461295,0.04688091548444185
1648219507855195997,76501,9,1,0.0334385335445,0.0146502861753,-0.0294117927551,0.0,22.8999996185,0.011183456034949833,0.0048997612626421405,-0.009836719984983276,22.8999996185,0.0,0.01655738621287189,0.046880912573176205
1648219507855201848,76502,9,2,1.82015812397,0.114272229373,0.129811063409,0.0,22.8999996185,0.608748536444816,0.03821813691404682,0.043415071374247494,22.8999996185,0.0,0.8617483317283484,1.8283557232779515
1648219507855209795,76503,9,3,1.05342626572,1.31852567196,-0.0125728314742,0.0809188112617,22.8999996185,0.3523164768294314,0.44097848560535113,-0.004204960359264214,22.8999996185,0.010934974494824324,0.6653689386030847,1.687712926127436
1648219507855219268,76504,9,4,0.268643170595,-0.835066318512,0.154622852802,-0.404594063759,22.8999996185,0.08984721424581939,-0.2792863941511705,0.051713328696321066,22.8999996185,-0.05467487348094594,0.3068320937800205,0.8907374113784311
1648219507855220364,76505,9,5,0.258825331926,-0.747164607048,0.0996219441295,-0.242756426334,22.8999996185,0.0865636561625418,-0.24988782844414714,0.033318375963043476,22.8999996185,-0.03280492247756756,0.2782632924785176,0.796975554345262
1648219507855221419,76506,9,6,0.281541377306,-0.791115403175,0.0834542512894,-0.161837622523,22.8999996185,0.09416099575451504,-0.2645870913628762,0.02791112083257525,22.8999996185,-0.021869948989594594,0.2962075541893397,0.843856469036279
1648219507855222461,76507,9,7,1.85436165333,0.420463234186,0.281228303909,-0.0809188112617,22.8999996185,0.6201878439230769,0.14062315524615385,0.09405628893277591,22.8999996185,-0.010934974494824324,0.8882796830341745,1.9221175384357885
1648219507960210601,76508,10,0,0.0122741637751,0.0439508594573,0.0107464920729,0.0,12.5,0.004105071496688963,0.014699284099431437,0.003594144505986622,12.5,0.0,0.015804182263617888,0.04688091546979662
1648219507960217113,76509,10,1,0.0333550162613,0.0146502861753,-0.029506476596,0.0,12.5,0.0111555238332107,0.0048997612626421405,-0.009868386821404682,12.5,0.0,0.016519657515140937,0.0468809146233312
1648219507960220075,76510,10,2,1.82428944111,0.114272229373,0.0423597246408,0.0,12.5,0.6101302478628762,0.03821813691404682,0.01416713198688963,12.5,0.0,0.8637004484794542,1.8283556693441667
1648219507960348686,76511,10,3,0.601808488369,1.22622895241,0.496280431747,0.0809188112617,12.5,0.20127374192943143,0.4101100175284281,0.16598007750735785,12.5,0.010934974494824324,0.4992118436673135,1.453308352462235
1648219507960352996,76512,10,4,0.983869075775,1.37126672268,0.0020066795405,0.0809188112617,12.5,0.32905320260033444,0.4586176330033444,0.0006711302811036789,12.5,0.010934974494824324,0.653362191731863,1.6877128931659788
1648219507960354195,76513,10,5,0.244594216347,-0.747164607048,0.130723968148,-0.0809188112617,12.5,0.0818040857347826,-0.24988782844414714,0.04372039068494983,12.5,-0.010934974494824324,0.2753683781597641,0.7969755558007753
1648219508155253698,76514,12,0,0.00573791889474,0.0454158857465,0.0101140420884,0.0,11.3999996185,0.0019190364196454846,0.015189259446989964,0.0033826227720401333,11.3999996185,0.0,0.015429808945927536,0.04688091550671427
1648219508155255910,76515,12,1,0.0334246940911,0.0146502861753,-0.0294275209308,0.0,11.3999996185,0.01117882745521739,0.0048997612626421405,-0.009841980244414716,11.3999996185,0.0,0.01655113370672634,0.04688091347482975
1648219508155257834,76516,12,2,0.737370073795,1.22622895241,0.25446626544,0.0,11.3999996185,0.24661206481438125,0.4101100175284281,0.08510577439464882,11.3999996185,0.0,0.5383542026409682,1.453308346395888
1648219508260222583,76517,13,0,0.00573791889474,0.0454158857465,0.0101140420884,0.0,11.3000001907,0.0019190364196454846,0.015189259446989964,0.0033826227720401333,11.3000001907,0.0,0.015429808945927536,0.04688091550671427
1648219508260224819,76518,13,1,0.0334614515305,0.0146502861753,-0.0293857175857,0.0,11.3000001907,0.011191120913210702,0.0048997612626421405,-0.009827999192541806,11.3000001907,0.0,0.016567740794057963,0.04688091319047343
1648219508260226768,76519,13,2,0.840057492256,1.18081307411,0.109950020909,0.0,11.3000001907,0.2809556830287625,0.39492076057190634,0.036772582243812704,11.3000001907,0.0,0.5602094240398049,1.4533083338997397
1648219508455111706,76520,15,0,0.00556838465855,0.0454158857465,0.0102083617821,0.0,13.3999996185,0.0018623360062040132,0.015189259446989964,0.003414167820100334,13.3999996185,0.0,0.015415907152937246,0.04688091547867806
1648219508455115307,76521,15,1,0.0334476083517,0.0146502861753,-0.0294014774263,0.0,13.3999996185,0.011186491087525082,0.0048997612626421405,-0.009833270042240803,13.3999996185,0.0,0.01656148622960647,0.04688091577940992
1648219508455118517,76522,15,2,0.754466772079,1.22622895241,0.19811013341,0.0,13.3999996185,0.252330024106689,0.4101100175284281,0.06625756970234113,13.3999996185,0.0,0.5436277298009476,1.4533083564266602
1648219508560344836,76523,16,0,0.00567744718865,0.0454158857465,0.0101481107995,0.0,11.8999996185,0.001898811768779264,0.015189259446989964,0.0033940169897993307,11.8999996185,0.0,0.015424803882529047,0.046880915493599094
1648219508560348265,76524,16,1,0.0334614515305,0.0146502861753,-0.0293857175857,0.0,11.8999996185,0.011191120913210702,0.0048997612626421405,-0.009827999192541806,11.8999996185,0.0,0.016567740794057963,0.04688091319047343
1648219508560350252,76525,16,2,0.176587298512,-0.77207005024,0.0888527259231,0.0,11.8999996185,0.05905929716120401,-0.25821740810702337,0.029716630743511704,11.8999996185,0.0,0.2713894452845576,0.7969755600878409
1648219508560367905,76526,16,3,0.774812996387,1.22622895241,0.0901803597808,0.0,11.8999996185,0.2591347814003344,0.4101100175284281,0.030160655445083607,11.8999996185,0.0,0.5499926329869935,1.453308336310269
1648219508755198985,76527,18,0,0.00567744718865,0.0454158857465,0.0101481107995,0.0,11.8000001907,0.001898811768779264,0.015189259446989964,0.0033940169897993307,11.8000001907,0.0,0.015424803882529047,0.046880915493599094
1648219508755322166,76528,18,1,0.0334385335445,0.0146502861753,-0.0294117927551,0.0,11.8000001907,0.011183456034949833,0.0048997612626421405,-0.009836719984983276,11.8000001907,0.0,0.01655738621287189,0.046880912573176205
1648219508755327854,76529,18,2,1.81987929344,0.171408340335,-0.0392814688385,0.0,11.8000001907,0.6086552820869565,0.05732720412541805,-0.013137614996153844,11.8000001907,0.0,0.8626754390601036,1.8283556808296857
1648219508860301572,76530,19,0,0.0122607154772,0.0439508594573,0.0107618328184,0.0,16.0,0.00410057373819398,0.014699284099431437,0.003599275190100334,16.0,0.0,0.015801846822461295,0.04688091548444185
1648219508860305151,76531,19,1,0.0334246940911,0.0146502861753,-0.0294275209308,0.0,16.0,0.01117882745521739,0.0048997612626421405,-0.009841980244414716,16.0,0.0,0.01655113370672634,0.04688091347482975
1648219508860312642,76532,19,2,0.664137601852,1.2716448307,0.232262313366,0.0,16.0,0.22211959928160532,0.42529927448160526,0.07767970346688963,16.0,0.0,0.5287283855105773,1.453308333372476
1648219509055099373,76533,21,0,0.00567744718865,0.0454158857465,0.0101481107995,0.0,14.3000001907,0.001898811768779264,0.015189259446989964,0.0033940169897993307,14.3000001907,0.0,0.015424803882529047,0.046880915493599094
1648219509055104344,76534,21,1,0.0334246940911,0.0146502861753,-0.0294275209308,0.0,14.3000001907,0.01117882745521739,0.0048997612626421405,-0.009841980244414716,14.3000001907,0.0,0.01655113370672634,0.04688091347482975
1648219509055107066,76535,21,2,1.85674607754,0.175803437829,-0.195191308856,0.0,14.3000001907,0.6209853102140468,0.05879713639765886,-0.0652813741993311,14.3000001907,0.0,0.8801719231217483,1.8752366496700061
1648219509055109177,76536,21,3,0.727238357067,1.22622895241,0.282120615244,0.0809188112617,14.3000001907,0.24322353079163878,0.4101100175284281,0.0943547208173913,14.3000001907,0.010934974494824324,0.5352621771979318,1.4533083338588852
1648219509055114075,76537,21,4,0.736184537411,-0.501039803028,-0.0201160609722,-0.566431701183,14.3000001907,0.246215564351505,-0.16757184047759197,-0.006727779589364547,14.3000001907,-0.07654482448418919,0.3864253226419145,0.8907374547252531
1648219509160200101,76538,22,0,0.0122607154772,0.0439508594573,0.0107618328184,0.0,18.8999996185,0.00410057373819398,0.014699284099431437,0.003599275190100334,18.8999996185,0.0,0.015801846822461295,0.04688091548444185
1648219509160205606,76539,22,1,0.0334246940911,0.0146502861753,-0.0294275209308,0.0,18.8999996185,0.01117882745521739,0.0048997612626421405,-0.009841980244414716,18.8999996185,0.0,0.01655113370672634,0.04688091347482975
1648219509160213028,76540,22,2,1.82366883755,0.114272229373,-0.0637041628361,0.0,18.8999996185,0.6099226881438127,0.03821813691404682,-0.02130574007896321,18.8999996185,0.0,0.8634072023178461,1.828355652442788
