%time,field.header.seq,field.header.frame_id,field.point_id,field.x,field.y,field.z,field.velocity,field.intensity,normalized_x,normalized_y,normalized_z,normalized_intensity,normalized_velocity,normalized_range,range
1648127530894770735,114924,0,0,0.0126620735973,0.0439508594573,0.010286597535,0.0,13.0,0.004234807223177257,0.014699284099431437,0.003440333623745819,13.0,0.0,0.015872496258331467,0.04688091555916807
1648127530894778792,114925,0,1,0.0329111367464,0.0146502861753,-0.0300007723272,0.0,13.0,0.011007069145953176,0.0048997612626421405,-0.010033703119464882,13.0,0.0,0.016319277030508346,0.04688091453018932
1648127530894784622,114926,0,2,0.15071259439,-0.399952799082,-0.434459537268,0.0,13.0,0.0504055499632107,-0.13376347795384613,-0.14530419306622072,13.0,0.0,0.1515721180445023,0.6094518989423332
1648127530894869417,114927,0,3,1.39947319031,-0.0,-0.139689520001,0.0,13.0,0.46805123421739125,-0.0,-0.046718903010367886,13.0,0.0,0.6619244033157008,1.4064275212020558
1648127530894883915,114928,0,4,1.84617769718,-1.31852579117,0.58963483572,0.0,13.0,0.6174507348428093,-0.44097852547491634,0.19720228619397992,13.0,0.0,0.9782396842522194,2.344045987398684
1648127530894893142,114929,0,5,2.42377138138,-0.902457654476,0.450852423906,0.0,13.0,0.8106258800602005,-0.30182530250033446,0.15078676384816053,13.0,0.0,1.1854649501677255,2.6253314905857037
1648127530894899966,114930,0,6,1.34230232239,-0.290075659752,0.712395370007,0.0809188112617,13.0,0.4489305426053511,-0.09701527082006689,0.23825932107257525,13.0,0.010934974494824324,0.6422532420627869,1.5470703204061398
1648127530894908100,114931,0,7,1.52542698383,0.241729736328,-0.0898099020123,0.0809188112617,13.0,0.5101762487725753,0.08084606566153846,-0.03003675652585284,13.0,0.010934974494824324,0.7260135645814498,1.5470703173810023
1648127530996082181,114932,1,0,0.0125934295356,0.0439508594573,0.0103705218062,0.0,23.1000003815,0.004211849343010033,0.014699284099431437,0.0034684019418729094,23.1000003815,0.0,0.01586027436119016,0.046880915488462134
1648127530996092477,114933,1,1,0.0328981243074,0.0146502861753,-0.0300150439143,0.0,23.1000003815,0.011002717159665552,0.0048997612626421405,-0.010038476225518393,23.1000003815,0.0,0.016313406456717926,0.04688091647078464
1648127530996098384,114934,1,2,0.156709715724,-0.399952799082,-0.432332575321,0.0,23.1000003815,0.052411276161872904,-0.13376347795384613,-0.14459283455551838,23.1000003815,0.0,0.15292662218247446,0.6094519112936735
1648127530996106508,114935,1,3,1.39562177658,-0.0,-0.174006834626,0.0,23.1000003815,0.46676313597993313,-0.0,-0.05819626576120401,23.1000003815,0.0,0.6601027573186187,1.4064275743033752
1648127530996127785,114936,1,4,1.49207019806,-0.241729736328,0.329726815224,0.0,23.1000003815,0.49902013313043475,-0.08084606566153846,0.11027652683076922,23.1000003815,0.0,0.71033673203065,1.5470703002907702
1648127530996148650,114937,1,5,1.83998417854,-1.39177727699,0.414686650038,0.0,23.1000003815,0.6153793239264214,-0.4654773501638796,0.1386911873036789,23.1000003815,0.0,0.9869410256686393,2.3440458151970827
1648127530996154307,114938,1,6,2.41986346245,-0.902457654476,0.471377462149,0.0,23.1000003815,0.8093188837625417,-0.30182530250033446,0.15765132513344482,23.1000003815,0.0,1.1836775846735932,2.6253315422713484
1648127531099753382,114939,2,0,0.0125831468031,0.0439508594573,0.0103829959407,0.0,13.1000003815,0.0042084103020401335,0.014699284099431437,0.003472573893210702,13.1000003815,0.0,0.015858448460566152,0.04688091546896556
1648127531099773023,114940,2,1,0.0328981243074,0.0146502861753,-0.0300150439143,0.0,13.1000003815,0.011002717159665552,0.0048997612626421405,-0.010038476225518393,13.1000003815,0.0,0.016313406456717926,0.04688091647078464
1648127531099776006,114941,2,2,0.15071259439,-0.399952799082,-0.434459537268,0.0,13.1000003815,0.0504055499632107,-0.13376347795384613,-0.14530419306622072,13.1000003815,0.0,0.1515721180445023,0.6094518989423332
1648127531099777125,114942,2,3,1.40297687054,-0.0,-0.0984594747424,0.0,13.1000003815,0.46922303362541806,-0.0,-0.032929590214849494,13.1000003815,0.0,0.663581577930913,1.4064275194395057
1648127531099778106,114943,2,4,1.82081854343,-1.39177727699,0.49206367135,0.0,13.1000003815,0.6089694125183945,-0.4654773501638796,0.16456978974916386,13.1000003815,0.0,0.978956921565798,2.344045821545877
1648127531099779216,114944,2,5,2.35419344902,-0.69881862402,0.378289848566,0.0,13.1000003815,0.7873556685685618,-0.23371860335117053,0.12651834400200668,13.1000003815,0.0,1.1377531732350894,2.4846886070922403
1648127531099802357,114945,2,6,1.38956129551,-1.63057684898,-1.25857675076,0.0,13.1000003815,0.4647362192341137,-0.5453434277525083,-0.4209286791839465,13.1000003815,0.0,0.8540251525153645,2.4846884899243555
1648127531099803967,114946,2,7,2.38911724091,-0.984499275684,0.463944643736,0.0,13.1000003815,0.7990358665250836,-0.32926397180066885,0.1551654326876254,13.1000003815,0.0,1.1770010174646979,2.625331340438204
1648127531099826563,114947,2,8,1.49140715599,0.298865824938,0.476512104273,0.161837622523,13.1000003815,0.49879837992976583,0.09995512539732442,0.15936859674682274,13.1000003815,0.021869948989594594,0.71245398078354,1.5939510255251677
1648127531099829006,114948,2,9,1.42917215824,-0.0,0.456108361483,-0.0809188112617,13.1000003815,0.47798399941137126,-0.0,0.15254460250267557,13.1000003815,-0.010934974494824324,0.6759714545648947,1.5001892864912372
