%time,field.header.seq,field.header.frame_id,field.point_id,field.x,field.y,field.z,field.velocity,field.intensity,normalized_x,normalized_y,normalized_z,normalized_intensity,normalized_velocity,normalized_range,range
1648217999629020484,15405,0,0,0.00455506239086,0.0454158857465,0.0106990169734,0.0,23.7999992371,0.0015234322377458193,0.015189259446989964,0.003578266546287625,23.7999992371,0.0,0.01534129375619867,0.04688091547443234
1648217999629022870,15406,0,1,0.0334379263222,0.0146502861753,-0.0294124856591,0.0,23.7999992371,0.011183252950568563,0.0048997612626421405,-0.009836951725451504,23.7999992371,0.0,0.01655711187205333,0.04688091418044048
1648217999629024688,15407,0,2,1.86535251141,0.175803437829,-0.077882617712,0.0,23.7999992371,0.6238637161906354,0.05879713639765886,-0.026047698231438127,23.7999992371,0.0,0.8842335528619938,1.8752366631222213
1648217999629027375,15408,0,3,1.71455109119,-0.0,0.48370167613,-0.161837622523,23.7999992371,0.5734284585919732,-0.0,0.16177313582943142,23.7999992371,-0.021869948989594594,0.8109503031914673,1.781474882166962
1648217999928994942,15409,3,0,0.00450001144782,0.0454158857465,0.0107222879305,0.0,28.0,0.0015050205511103678,0.015189259446989964,0.0035860494750836118,28.0,0.0,0.01533765876092251,0.04688091551616925
1648217999928999780,15410,3,1,0.0334379263222,0.0146502861753,-0.0294124856591,0.0,28.0,0.011183252950568563,0.0048997612626421405,-0.009836951725451504,28.0,0.0,0.01655711187205333,0.04688091418044048
1648217999929135109,15411,3,2,1.87153601646,0.117202289402,0.0113583579659,0.0,28.0,0.6259317780802675,0.03919809010100334,0.0037987819283946487,28.0,0.0,0.8860686609337995,1.8752366383589343
1648217999929153987,15412,3,3,1.63879215717,-0.0,-0.0817920789123,0.161837622523,28.0,0.5480910224648828,-0.0,-0.02735521033856187,28.0,0.021869948989594594,0.7751177573847741,1.6408320080296757
1648218000229113435,15413,6,0,0.00458371732384,0.0454158857465,0.0106867719442,0.0,18.2000007629,0.0015330158273712375,0.015189259446989964,0.0035741712187959867,18.2000007629,0.0,0.01534320297727679,0.04688091549054212
1648218000229117043,15414,6,1,0.0334379263222,0.0146502861753,-0.0294124856591,0.0,18.2000007629,0.011183252950568563,0.0048997612626421405,-0.009836951725451504,18.2000007629,0.0,0.01655711187205333,0.04688091418044048
1648218000229259778,15415,6,2,1.86255967617,0.175803437829,0.128362864256,0.0,18.2000007629,0.6229296575819397,0.05879713639765886,0.042930723831438124,18.2000007629,0.0,0.882915522481551,1.875236630659447
1648218000334071906,15416,7,0,0.0334379263222,0.0146502861753,-0.0294124856591,0.0,22.7999992371,0.011183252950568563,0.0048997612626421405,-0.009836951725451504,22.7999992371,0.0,0.01655711187205333,0.04688091418044048
1648218000334075288,15417,7,1,0.00462807761505,0.0454158857465,0.0106676360592,0.0,22.7999992371,0.001547852045167224,0.015189259446989964,0.0035677712572575247,22.7999992371,0.0,0.015346181754932742,0.046880915516248324
1648218000334078342,15418,7,2,1.78609716892,0.171408340335,0.351227223873,0.0,22.7999992371,0.5973569126822742,0.05732720412541805,0.1174672989541806,22.7999992371,0.0,0.8467331165080493,1.828355676215646
1648218000334082486,15419,7,3,1.15968298912,1.31413066387,-0.520653903484,0.0,22.7999992371,0.3878538425150501,0.43950858323411374,-0.17413174029565215,22.7999992371,0.0,0.7028719663237655,1.8283556886423473
1648218000334242713,15420,7,4,1.2215667963,1.53828001022,-0.13573461771,0.0,22.7999992371,0.408550767993311,0.51447491980602,-0.04539619321404682,22.7999992371,0.0,0.7736355105379142,1.968998403785531
1648218000529109829,15421,9,0,0.00458371732384,0.0454158857465,0.0106867719442,0.0,15.5,0.0015330158273712375,0.015189259446989964,0.0035741712187959867,15.5,0.0,0.01534320297727679,0.04688091549054212
1648218000529115211,15422,9,1,0.0334379263222,0.0146502861753,-0.0294124856591,0.0,15.5,0.011183252950568563,0.0048997612626421405,-0.009836951725451504,15.5,0.0,0.01655711187205333,0.04688091418044048
1648218000529118783,15423,9,2,1.86542630196,0.117202289402,-0.151526644826,0.0,15.5,0.6238883953043478,0.03919809010100334,-0.05067780763411371,15.5,0.0,0.8831817196129201,1.8752365154234427
