%time,field.header.seq,field.header.frame_id,field.point_id,field.x,field.y,field.z,field.velocity,field.intensity,normalized_x,normalized_y,normalized_z,normalized_intensity,normalized_velocity,normalized_range,range
1648126227092488793,59620,0,0,0.0125891612843,0.0439508594573,0.0103757027537,0.0,12.3000001907,0.004210421834214047,0.014699284099431437,0.0034701347002341135,12.3000001907,0.0,0.015859516294006278,0.04688091548285499
1648126227092517517,59621,0,1,0.0328872464597,0.0146502861753,-0.0300269592553,0.0,12.3000001907,0.010999079083511706,0.0048997612626421405,-0.010042461289397992,12.3000001907,0.0,0.0163084990664861,0.0468809145264753
1648126227092523550,59622,0,2,1.26265728474,-0.039555773139,0.0796419233084,0.0,12.3000001907,0.42229340626755846,-0.013229355564882942,0.026636094751973243,12.3000001907,0.0,0.5973595716172768,1.265784702800549
1648126227092534148,59623,0,3,2.43014383316,-0.902457654476,0.415134549141,0.0,12.3000001907,0.8127571348361203,-0.30182530250033446,0.1388409863347826,12.3000001907,0.0,1.188379919757759,2.625331514658368
1648126227197586363,59624,1,0,0.0125994505361,0.0439508594573,0.0103632062674,0.0,12.1999998093,0.004213863055551839,0.014699284099431437,0.003465955273377926,12.1999998093,0.0,0.01586134410249293,0.04688091557326548
1648126227197591635,59625,1,1,0.0328872464597,0.0146502861753,-0.0300269592553,0.0,12.1999998093,0.010999079083511706,0.0048997612626421405,-0.010042461289397992,12.1999998093,0.0,0.0163084990664861,0.0468809145264753
1648126227197598407,59626,1,2,1.23029613495,-0.039555773139,0.294987618923,0.0,12.1999998093,0.4114702792474916,-0.013229355564882942,0.09865806652943143,12.1999998093,0.0,0.5820572113260685,1.2657847108333207
1648126227197611734,59627,1,3,1.9257837534,-1.24527442455,0.484974056482,0.0,12.1999998093,0.6440748339130434,-0.4164797406521739,0.16219868109765884,12.1999998093,0.0,1.0015588638387316,2.344045923773323
1648126227197615023,59628,1,4,2.43164563179,-0.902457654476,0.406245559454,0.0,12.1999998093,0.813259408625418,-0.30182530250033446,0.13586808008494983,12.1999998093,0.0,1.1890669639111784,2.625331550738269
1648126227392509693,59629,3,0,0.0125787733123,0.0439508594573,0.0103882942349,0.0,12.5,0.004206947596086956,0.014699284099431437,0.003474345897959866,12.5,0.0,0.01585767224999437,0.04688091554341088
1648126227392704139,59630,3,1,0.0327995419502,0.0146502861753,-0.0301227364689,0.0,12.5,0.010969746471638795,0.0048997612626421405,-0.010074493802307691,12.5,0.0,0.016268937756809817,0.046880913915322876
1648126227392707522,59631,3,2,1.22528409958,0.039555773139,0.315158993006,0.0,12.5,0.4097940132374582,0.013229355564882942,0.10540434548695651,12.5,0.0,0.5796872280973475,1.265784726857119
1648126227392709296,59632,3,3,1.39243662357,-0.175803437829,0.0908387973905,0.0,12.5,0.4656978674147157,-0.05879713639765886,0.030380868692474916,12.5,0.0,0.6612156309992929,1.4064274906737528
1648126227392713278,59633,3,4,0.491480112076,0.307656019926,1.28134047985,0.0,12.5,0.16437461942341136,0.10289498994180601,0.42854196650501675,12.5,0.0,0.25421528273553307,1.4064275141169462
1648126227392716468,59634,3,5,1.91683387756,-1.24527442455,0.519221127033,0.0,12.5,0.6410815644013378,-0.4164797406521739,0.1736525508471572,12.5,0.0,0.9977106388147995,2.3440458795333887
1648126227392851869,59635,3,6,2.40601086617,-0.984499275684,0.366385102272,0.0,12.5,0.8046859084180601,-0.32926397180066885,0.12253682350234113,12.5,0.0,1.1846744639516584,2.6253314371936542
1648126227497659486,59636,4,0,0.0126097733155,0.0439508594573,0.0103506427258,0.0,12.6000003815,0.004217315490133779,0.014699284099431437,0.0034617534199999998,12.6000003815,0.0,0.01586317915559307,0.04688091546611253
1648126227497668129,59637,4,1,0.0327995419502,0.0146502861753,-0.0301227364689,0.0,12.6000003815,0.010969746471638795,0.0048997612626421405,-0.010074493802307691,12.6000003815,0.0,0.016268937756809817,0.046880913915322876
1648126227497672554,59638,4,2,1.2209405899,0.039555773139,0.331587851048,0.0,12.6000003815,0.4083413344147157,0.013229355564882942,0.11089894683879598,12.6000003815,0.0,0.5776333669654511,1.2657847708898282
1648126227497689512,59639,4,3,2.40425753593,-0.984499275684,0.377719402313,0.0,12.6000003815,0.8040995103444815,-0.32926397180066885,0.12632755930200668,12.6000003815,0.0,1.1838778687847922,2.6253314209414027
1648126227497700825,59640,4,4,1.29794108868,0.723724126816,0.982458651066,-0.404594063759,12.6000003815,0.4340940095919732,0.24204820294849494,0.32858148865083614,12.6000003815,-0.05467487348094594,0.6598958636617357,1.7814748615890794
1648126227497796070,59641,4,5,1.31471741199,-0.298865824938,0.85022187233,-0.0809188112617,12.6000003815,0.4397048200635451,-0.09995512539732442,0.2843551412474916,12.6000003815,-0.010934974494824324,0.629818771288554,1.59395103026846
1648126227497800829,59642,4,6,1.56071865559,0.298865824938,0.124565199018,-0.0809188112617,12.6000003815,0.5219794834749163,0.09995512539732442,0.04166060167826087,12.6000003815,-0.010934974494824324,0.744926969192736,1.5939510632478409
1648126227692513690,59643,6,0,0.012677649036,0.0439508594573,0.0102673945948,0.0,14.0,0.0042400164,0.014699284099431437,0.003433911235719063,14.0,0.0,0.01587527735758767,0.04688091534815267
1648126227692637160,59644,6,1,0.0328872464597,0.0146502861753,-0.0300269592553,0.0,14.0,0.010999079083511706,0.0048997612626421405,-0.010042461289397992,14.0,0.0,0.0163084990664861,0.0468809145264753
1648126227692641910,59645,6,2,1.24136066437,-0.0,0.247456565499,0.0,14.0,0.4151707907591973,-0.0,0.08276139314347826,14.0,0.0,0.5871401629928192,1.2657847569210527
1648126227692655633,59646,6,3,1.99612009525,-1.12074685097,0.689899206161,0.0,14.0,0.6675986940635451,-0.3748317227324415,0.23073552045518392,14.0,0.0,1.0158124103382826,2.3909265679400566
1648126227692683842,59647,6,4,2.42059922218,-0.902457654476,0.467583656311,0.0,14.0,0.809564957250836,-0.30182530250033446,0.15638249374949834,14.0,0.0,1.1840140849020817,2.62533138635676
1648126227692791669,59648,6,5,1.41650736332,-0.386767566204,0.487179905176,-0.242756426334,14.0,0.47374828204682273,-0.1293537010715719,0.16293642313578593,14.0,-0.03280492247756756,0.6823541964885578,1.5470703024150003
1648126227692795156,59649,6,6,1.28387820721,0.193383783102,0.841240644455,-0.242756426334,14.0,0.4293907047525083,0.06467685053578595,0.28135138610535115,14.0,-0.03280492247756756,0.6106847383478156,1.5470702506346208
1648126227797682338,59650,7,0,0.0126097733155,0.0439508594573,0.0103506427258,0.0,36.9000015259,0.004217315490133779,0.014699284099431437,0.0034617534199999998,36.9000015259,0.0,0.01586317915559307,0.04688091546611253
1648126227797686383,59651,7,1,0.0327995419502,0.0146502861753,-0.0301227364689,0.0,36.9000015259,0.010969746471638795,0.0048997612626421405,-0.010074493802307691,36.9000015259,0.0,0.016268937756809817,0.046880913915322876
1648126227797688282,59652,7,2,1.29753875732,0.0410208031535,0.194426581264,0.0,36.9000015259,0.43395945060869556,0.013719332158361203,0.06502561246287625,36.9000015259,0.0,0.6138646671865657,1.3126656956517508
1648126227797690098,59653,7,3,2.43010473251,-0.902457654476,0.41536283493,0.0,36.9000015259,0.8127440576956521,-0.30182530250033446,0.13891733609698995,36.9000015259,0.0,1.188362032323738,2.6253314293115273
1648126227992523562,59654,9,0,0.0126830143854,0.0439508594573,0.0102607663721,0.0,12.8000001907,0.004241810831237458,0.014699284099431437,0.003431694438829431,12.8000001907,0.0,0.015876236055558154,0.046880915386523954
1648126227992541032,59655,9,1,0.0327995419502,0.0146502861753,-0.0301227364689,0.0,12.8000001907,0.010969746471638795,0.0048997612626421405,-0.010074493802307691,12.8000001907,0.0,0.016268937756809817,0.046880913915322876
1648126227992626921,59656,9,2,2.37705039978,-0.984499275684,0.522261798382,0.0,12.8000001907,0.7950001337056856,-0.32926397180066885,0.17466949778662208,12.8000001907,0.0,1.1715225940245744,2.625331372030163
1648126227992655667,59657,9,3,1.25318551064,-0.0,0.178149059415,0.0809188112617,12.8000001907,0.41912558884280937,-0.0,0.05958162522240802,12.8000001907,0.010934974494824324,0.5927330920791106,1.2657847413555303
1648126228097335940,59658,10,0,0.0126303331926,0.0439508594573,0.0103255445138,0.0,32.5999984741,0.004224191703210702,0.014699284099431437,0.003453359369163879,32.5999984741,0.0,0.015866837874218862,0.04688091544645748
1648126228097356339,59659,10,1,0.0327995419502,0.0146502861753,-0.0301227364689,0.0,32.5999984741,0.010969746471638795,0.0048997612626421405,-0.010074493802307691,32.5999984741,0.0,0.016268937756809817,0.046880913915322876
1648126228097373695,59660,10,2,1.88133013248,-1.31852579117,0.465444087982,0.0,32.5999984741,0.629207402167224,-0.44097852547491634,0.15566691905752505,32.5999984741,0.0,0.9931092436454738,2.3440459740361503
1648126228097378474,59661,10,3,2.40003538132,-0.902457654476,0.563707232475,0.0,32.5999984741,0.8026874185016721,-0.30182530250033446,0.18853084698160533,32.5999984741,0.0,1.1746117217494365,2.6253315016688434
1648126228097391091,59662,10,4,1.23645067215,0.039555773139,0.268022328615,0.0809188112617,32.5999984741,0.4135286528929765,0.013229355564882942,0.08963957478762542,32.5999984741,0.010934974494824324,0.5849674430048409,1.265784694363547
1648126228097393934,59663,10,5,1.3952652216,-0.0439508594573,0.171293586493,0.0809188112617,32.5999984741,0.4666438868227425,-0.014699284099431437,0.05728882491404682,32.5999984741,0.010934974494824324,0.6600977981868359,1.406427463265407
1648126228197591157,59664,11,0,0.0126097733155,0.0439508594573,0.0103506427258,0.0,21.3999996185,0.004217315490133779,0.014699284099431437,0.0034617534199999998,21.3999996185,0.0,0.01586317915559307,0.04688091546611253
1648126228197597571,59665,11,1,0.0328239798546,0.0146502861753,-0.0300961062312,0.0,21.3999996185,0.010977919683812707,0.0048997612626421405,-0.010065587368294314,21.3999996185,0.0,0.01627996012278204,0.046880914547319234
1648126228197601685,59666,11,2,0.0882306620479,-0.399952799082,-0.45131444931,0.0,21.3999996185,0.02950858262471572,-0.13376347795384613,-0.15094128739464882,21.3999996185,0.0,0.14012202157886686,0.6094519040703097
1648126228197606525,59667,11,3,1.24510502815,-0.0,0.227869540453,0.0,21.3999996185,0.4164230863377926,-0.0,0.0762105486464883,21.3999996185,0.0,0.5889111763841686,1.2657847599772536
1648126228197609035,59668,11,4,1.39584386349,-0.0439508594573,0.166512534022,0.0,21.3999996185,0.46683741253846145,-0.014699284099431437,0.05568981070969899,21.3999996185,0.0,0.6603714170406281,1.4064274575235483
1648126228197621522,59669,11,5,1.90563297272,-1.24527442455,0.558933019638,0.0,21.3999996185,0.6373354423812709,-0.4164797406521739,0.18693412028026754,21.3999996185,0.0,0.9928989407811667,2.3440459764257295
1648126228197656230,59670,11,6,2.42368578911,-0.902457654476,0.451312363148,0.0,21.3999996185,0.810597253882943,-0.30182530250033446,0.15094058968160534,21.3999996185,0.0,1.185425800813596,2.625331497465857
1648126228197660971,59671,11,7,2.30722737312,-0.68563336134,0.38667050004,0.242756426334,21.3999996185,0.7716479508762542,-0.2293088165016722,0.1293212374715719,21.3999996185,0.03280492247756756,1.1151070143750514,2.4378074848227427
1648126228197666483,59672,11,8,1.10899972916,-0.105482056737,0.157916530967,-0.323675245047,21.3999996185,0.370902919451505,-0.035278279845150494,0.0528148933,21.3999996185,-0.04373989797932432,0.5257209415118747,1.1251419885165928
1648126228197682320,59673,11,9,1.4165148735,0.181663542986,0.269423812628,-0.161837622523,21.3999996185,0.47375079381270896,0.06075703778795986,0.09010829853779265,21.3999996185,-0.021869948989594594,0.6727340090385734,1.4533083707554826
1648126228197772955,59674,11,10,1.07461595535,-0.27249532938,0.939708411694,-0.161837622523,21.3999996185,0.35940332954849497,-0.09113556166555183,0.31428374973043477,21.3999996185,-0.021869948989594594,0.516378927901966,1.4533083138257925
1648126228392430058,59675,13,0,0.0126979034394,0.0439508594573,0.0102423354983,0.0,27.7000007629,0.0042467904479598665,0.014699284099431437,0.0034255302669899666,27.7000007629,0.0,0.015878898301002,0.046880915469425286
1648126228392435527,59676,13,1,0.0328872464597,0.0146502861753,-0.0300269592553,0.0,27.7000007629,0.010999079083511706,0.0048997612626421405,-0.010042461289397992,27.7000007629,0.0,0.0163084990664861,0.0468809145264753
1648126228392440488,59677,13,2,0.0882306620479,-0.399952799082,-0.45131444931,0.0,27.7000007629,0.02950858262471572,-0.13376347795384613,-0.15094128739464882,27.7000007629,0.0,0.14012202157886686,0.6094519040703097
1648126228392443507,59678,13,3,1.31351006031,-0.0849716588855,0.34035000205,0.0,27.7000007629,0.4393010235150502,-0.028418615011872907,0.11382943212374581,27.7000007629,0.0,0.6219151036933694,1.3595466101773668
1648126228392447306,59679,13,4,1.89207088947,-1.24527442455,0.603250026703,0.0,27.7000007629,0.6327996285852843,-0.4164797406521739,0.20175586177357857,27.7000007629,0.0,0.9870795886092719,2.3440459120792196
1648126228392615981,59680,13,5,2.40456581116,-0.902457654476,0.544057786465,0.0,27.7000007629,0.8042026124280935,-0.30182530250033446,0.18195912590802676,27.7000007629,0.0,1.1766827086779847,2.6253314901808245
1648126228392619996,59681,13,6,1.1391544342,-0.0,0.275617450476,0.161837622523,27.7000007629,0.38098810508361197,-0.0,0.09217974932307692,27.7000007629,0.021869948989594594,0.5387985453120699,1.1720229536849576
1648126228392624854,59682,13,7,1.11469495296,0.0366257168353,0.360210210085,0.323675245047,27.7000007629,0.3728076765752508,0.012249403623846153,0.1204716421688963,27.7000007629,0.04373989797932432,0.5273719515825748,1.1720228994084014
1648126228497596823,59683,14,0,0.0125891612843,0.0439508594573,0.0103757027537,0.0,29.8999996185,0.004210421834214047,0.014699284099431437,0.0034701347002341135,29.8999996185,0.0,0.015859516294006278,0.04688091548285499
1648126228497604811,59684,14,1,0.0328872464597,0.0146502861753,-0.0300269592553,0.0,29.8999996185,0.010999079083511706,0.0048997612626421405,-0.010042461289397992,29.8999996185,0.0,0.0163084990664861,0.0468809145264753
1648126228497667856,59685,14,2,1.25059866905,0.039555773139,0.191440194845,0.0,29.8999996185,0.41826042443143807,0.013229355564882942,0.06402682101839464,29.8999996185,0.0,0.5916574863379956,1.2657847520098142
1648126228497688798,59686,14,3,1.35248935223,-0.0,0.385760098696,0.0,29.8999996185,0.4523375759966555,-0.0,0.1290167554167224,29.8999996185,0.0,0.6397019347454408,1.406427496048578
1648126228497695503,59687,14,4,1.89825367928,-1.24527442455,0.583503305912,0.0,29.8999996185,0.634867451264214,-0.4164797406521739,0.19515160732842807,29.8999996185,0.0,0.9897316483386495,2.344045974666159
1648126228497702742,59688,14,5,2.39517188072,-0.902457654476,0.584026932716,0.0,29.8999996185,0.8010608296722408,-0.30182530250033446,0.19532673334983278,29.8999996185,0.0,1.1723887661095085,2.6253315246748863
1648126228692532709,59689,16,0,0.0126877604052,0.0439508594573,0.0102548981085,0.0,13.8000001907,0.004243398128829431,0.014699284099431437,0.003429731808862876,13.8000001907,0.0,0.015877084379548535,0.04688091558780411
1648126228692543658,59690,16,1,0.0329244062304,0.0146502861753,-0.0299862083048,0.0,13.8000001907,0.011011507100468228,0.0048997612626421405,-0.010028832208963211,13.8000001907,0.0,0.016325263785869217,0.046880914017768956
1648126228692629117,59691,16,2,1.34870862961,-0.0439508594573,0.396348029375,0.0,13.8000001907,0.45107312027090296,-0.014699284099431437,0.1325578693561873,13.8000001907,0.0,0.6380830577713945,1.406427533156602
1648126228692631338,59692,16,3,1.90451562405,-1.24527442455,0.562728404999,0.0,13.8000001907,0.6369617471739131,-0.4164797406521739,0.18820347993277592,13.8000001907,0.0,0.9924192204403288,2.3440459493110652
1648126228692633308,59693,16,4,2.38713479042,-0.984499275684,0.474040567875,0.0,13.8000001907,0.7983728396053512,-0.32926397180066885,0.15854199594481605,13.8000001907,0.0,1.1761008227039786,2.6253315583840284
1648126228692635373,59694,16,5,1.25411081314,-0.0,0.171513512731,-0.0809188112617,13.8000001907,0.4194350545618729,-0.0,0.057362378839799326,13.8000001907,-0.010934974494824324,0.5931707426960998,1.2657846644212432
1648126228797664758,59695,17,0,0.0125994505361,0.0439508594573,0.0103632062674,0.0,31.3999996185,0.004213863055551839,0.014699284099431437,0.003465955273377926,31.3999996185,0.0,0.01586134410249293,0.04688091557326548
1648126228797672742,59696,17,1,0.0328872464597,0.0146502861753,-0.0300269592553,0.0,31.3999996185,0.010999079083511706,0.0048997612626421405,-0.010042461289397992,31.3999996185,0.0,0.0163084990664861,0.0468809145264753
1648126228797678061,59697,17,2,1.24445557594,0.039555773139,0.227984234691,0.0,31.3999996185,0.41620587824080263,0.013229355564882942,0.07624890792341137,31.3999996185,0.0,0.588752649262029,1.2657847964580795
1648126228797683982,59698,17,3,1.87097918987,-1.24527442455,0.665792524815,0.0,31.3999996185,0.625745548451505,-0.4164797406521739,0.222673085222408,31.3999996185,0.0,0.97804414889485,2.3440459055795957
1648126228797704095,59699,17,4,2.39070558548,-0.984499275684,0.455689758062,0.0,31.3999996185,0.799567085444816,-0.32926397180066885,0.15240460135852843,31.3999996185,0.0,1.1777222980734412,2.6253314411460877
1648126228992485623,59700,19,0,0.0126097733155,0.0439508594573,0.0103506427258,0.0,13.1999998093,0.004217315490133779,0.014699284099431437,0.0034617534199999998,13.1999998093,0.0,0.01586317915559307,0.04688091546611253
1648126228992500070,59701,19,1,0.0327995419502,0.0146502861753,-0.0301227364689,0.0,13.1999998093,0.010969746471638795,0.0048997612626421405,-0.010074493802307691,13.1999998093,0.0,0.016268937756809817,0.046880913915322876
1648126228992502978,59702,19,2,1.22821962833,-0.0,0.306084245443,0.0,13.1999998093,0.4107757954280936,-0.0,0.10236931285719063,13.1999998093,0.0,0.5809247009890061,1.2657847450192683
1648126228992504684,59703,19,3,1.35139346123,-0.0,0.148668885231,0.0,13.1999998093,0.4519710572675585,-0.0,0.049722035194314375,13.1999998093,0.0,0.639183598987888,1.3595465142800478
1648126228992650934,59704,19,4,2.40057992935,-0.984499275684,0.400427818298,0.0,13.1999998093,0.8028695415886288,-0.32926397180066885,0.13392234725685617,13.1999998093,0.0,1.1822071581357565,2.625331456918777
1648126229097695590,59705,20,0,0.0126097733155,0.0439508594573,0.0103506427258,0.0,12.3000001907,0.004217315490133779,0.014699284099431437,0.0034617534199999998,12.3000001907,0.0,0.01586317915559307,0.04688091546611253
1648126229097727071,59706,20,1,0.0328872464597,0.0146502861753,-0.0300269592553,0.0,12.3000001907,0.010999079083511706,0.0048997612626421405,-0.010042461289397992,12.3000001907,0.0,0.0163084990664861,0.0468809145264753
1648126229097737972,59707,20,2,1.16765677929,-0.0,0.349719941616,0.0,12.3000001907,0.3905206619698996,-0.0,0.11696319117591973,12.3000001907,0.0,0.552279616544751,1.2189037664171007
1648126229097765408,59708,20,3,1.34944617748,-0.0,0.165414109826,0.0,12.3000001907,0.45131979179933107,-0.0,0.055322444757859524,12.3000001907,0.0,0.6382625705300156,1.3595465470681434
1648126229097809204,59709,20,4,1.87444210052,-1.31852579117,0.492450773716,0.0,12.3000001907,0.626903712548495,-0.44097852547491634,0.16469925542341135,12.3000001907,0.0,0.9901911883793975,2.3440459071263495
1648126229097824057,59710,20,5,2.40388679504,-0.984499275684,0.380071520805,0.0,12.3000001907,0.8039755167357859,-0.32926397180066885,0.1271142210050167,12.3000001907,0.0,1.1837094348475472,2.6253313901519233
1648126229292508826,59711,22,0,0.0125891612843,0.0439508594573,0.0103757027537,0.0,11.8999996185,0.004210421834214047,0.014699284099431437,0.0034701347002341135,11.8999996185,0.0,0.015859516294006278,0.04688091548285499
1648126229292552933,59712,22,1,0.0328239798546,0.0146502861753,-0.0300961062312,0.0,11.8999996185,0.010977919683812707,0.0048997612626421405,-0.010065587368294314,11.8999996185,0.0,0.01627996012278204,0.046880914547319234
1648126229292572367,59713,22,2,1.25032305717,-0.0,0.197239339352,0.0,11.8999996185,0.41816824654515045,-0.0,0.06596633423143812,11.8999996185,0.0,0.5913792056179279,1.2657847780246643
1648126229292585221,59714,22,3,1.4417848587,-0.0,0.182651787996,0.0,11.8999996185,0.4822022938795986,-0.0,0.06108755451371237,11.8999996185,0.0,0.6819370238119452,1.4533083824277333
1648126229292610724,59715,22,4,1.87398612499,-1.24527442455,0.657281517982,0.0,11.8999996185,0.6267512123712374,-0.4164797406521739,0.21982659464280935,11.8999996185,0.0,0.9793311691104976,2.3440459430169223
1648126229292676357,59716,22,5,2.43278574944,-0.902457654476,0.399361163378,0.0,11.8999996185,0.8136407188762541,-0.30182530250033446,0.13356560648093643,11.8999996185,0.0,1.1895885641919872,2.6253315332763774
1648126229397670502,59717,23,0,0.0126877604052,0.0439508594573,0.0102548981085,0.0,12.5,0.004243398128829431,0.014699284099431437,0.003429731808862876,12.5,0.0,0.015877084379548535,0.04688091558780411
1648126229397676135,59718,23,1,0.0328872464597,0.0146502861753,-0.0300269592553,0.0,12.5,0.010999079083511706,0.0048997612626421405,-0.010042461289397992,12.5,0.0,0.0163084990664861,0.0468809145264753
1648126229397679351,59719,23,2,1.24456727505,-0.0,0.230788469315,0.0,12.5,0.4162432358026756,-0.0,0.07718677903511705,12.5,0.0,0.5886568293182061,1.2657847446126624
1648126229397682471,59720,23,3,1.85629558563,-1.31852579117,0.556962788105,0.0,12.5,0.6208346440234114,-0.44097852547491634,0.1862751799682274,12.5,0.0,0.9825138016177601,2.344045884905753
1648126229397689224,59721,23,4,2.42987847328,-0.902457654476,0.416684389114,0.0,12.5,0.8126683857123745,-0.30182530250033446,0.13935932746287624,12.5,0.0,1.1882585255331148,2.6253314253943585
1648126229592568180,59722,25,0,0.0125891612843,0.0439508594573,0.0103757027537,0.0,12.3999996185,0.004210421834214047,0.014699284099431437,0.0034701347002341135,12.3999996185,0.0,0.015859516294006278,0.04688091548285499
1648126229592576586,59723,25,1,0.032911542803,0.0146502861753,-0.0300003252923,0.0,12.3999996185,0.01100720495083612,0.0048997612626421405,-0.010033553609464882,12.3999996185,0.0,0.01631946022668369,0.046880913518570676
1648126229592703520,59724,25,2,1.23851060867,-0.0,0.26134750247,0.0,12.3999996185,0.41421759487290966,-0.0,0.08740719146153846,12.3999996185,0.0,0.585792140442833,1.2657847545437733
1648126229592713346,59725,25,3,1.38255810738,0.219754293561,-0.135201171041,0.0,12.3999996185,0.4623940158461538,0.07349641925117056,-0.04521778295685618,12.3999996185,0.0,0.6580411654474286,1.4064274693248562
1648126229592727205,59726,25,4,0.900612294674,-0.263705164194,1.04756641388,0.0,12.3999996185,0.3012081253090301,-0.0881957070882943,0.3503566601605351,12.3999996185,0.0,0.43500707149788376,1.4064274991729775
1648126229592731378,59727,25,5,1.88347375393,-1.31852579117,0.456692129374,0.0,12.3999996185,0.6299243324180601,-0.44097852547491634,0.15273984259999998,12.3999996185,0.0,0.9940178011860294,2.344045934864716
1648126229592746041,59728,25,6,2.42290401459,-0.902457654476,0.455490469933,0.0,12.3999996185,0.8103357908327758,-0.30182530250033446,0.15233794981036788,12.3999996185,0.0,1.1850682263222565,2.6253314553096807
1648126229697637002,59729,26,0,0.0126097733155,0.0439508594573,0.0103506427258,0.0,12.6000003815,0.004217315490133779,0.014699284099431437,0.0034617534199999998,12.6000003815,0.0,0.01586317915559307,0.04688091546611253
1648126229697642725,59730,26,1,0.0327995419502,0.0146502861753,-0.0301227364689,0.0,12.6000003815,0.010969746471638795,0.0048997612626421405,-0.010074493802307691,12.6000003815,0.0,0.016268937756809817,0.046880913915322876
1648126229697645501,59731,26,2,1.23792386055,-0.0,0.26411280036,0.0,12.6000003815,0.4140213580434782,-0.0,0.0883320402541806,12.6000003815,0.0,0.585514619657214,1.2657847588879467
1648126229697650448,59732,26,3,2.41652989388,-0.902457654476,0.488178551197,0.0,12.6000003815,0.8082039778862875,-0.30182530250033446,0.1632704184605351,12.6000003815,0.0,1.1821530581831847,2.625331377938185
