%time,field.header.seq,field.header.frame_id,field.point_id,field.x,field.y,field.z,field.velocity,field.intensity,normalized_x,normalized_y,normalized_z,normalized_intensity,normalized_velocity,normalized_range,range
1648218697840731840,45708,0,0,0.00525635527447,0.0454158857465,0.0103724775836,0.0,13.5,0.0017579783526655518,0.015189259446989964,0.0034690560480267556,13.5,0.0,0.015391380000664505,0.046880915521487786
1648218697840743363,45709,0,1,0.0334431305528,0.0146502861753,-0.0294065698981,0.0,13.5,0.011184993495919733,0.0048997612626421405,-0.00983497321006689,13.5,0.0,0.01655946313859305,0.04688091529995604
1648218697840761786,45710,0,2,1.80932426453,-0.12306240201,0.766913294792,0.0,13.5,0.605125172083612,-0.04115799398327759,0.25649274073311035,13.5,0.0,0.8567653869334182,1.9689983876921324
1648218697945385302,45711,1,0,0.00525635527447,0.0454158857465,0.0103724775836,0.0,19.8999996185,0.0017579783526655518,0.015189259446989964,0.0034690560480267556,19.8999996185,0.0,0.015391380000664505,0.046880915521487786
1648218697945389158,45712,1,1,0.0334289707243,0.0146502861753,-0.0294226650149,0.0,19.8999996185,0.011180257767324413,0.0048997612626421405,-0.009840356192274247,19.8999996185,0.0,0.016553065816292893,0.04688091493649962
1648218697945392942,45713,1,2,1.63666570187,1.31852579117,0.182760968804,0.0,19.8999996185,0.5473798334013378,0.44097852547491634,0.06112406983411371,19.8999996185,0.0,0.8909048344009499,2.109641309174683
1648218697945396597,45714,1,3,2.05513763428,0.329631447792,0.344003915787,0.0,19.8999996185,0.687337001431438,0.11024463136856186,0.11505147685183946,19.8999996185,0.0,0.9782730630141624,2.1096412683876453
1648218697945399670,45715,1,4,1.87757349014,-0.0,0.593019902706,-0.161837622523,19.8999996185,0.6279510000468227,-0.0,0.19833441562073578,19.8999996185,-0.021869948989594594,0.8880568207719647,1.9689984296291185
1648218698140394989,45716,3,0,0.00543765118346,0.0454158857465,0.0102785946801,0.0,31.0,0.001818612435939799,0.015189259446989964,0.0034376570836454844,31.0,0.0,0.01540546347671123,0.046880915489460155
1648218698140397982,45717,3,1,0.0335255041718,0.0146502861753,-0.0293126236647,0.0,31.0,0.011212543201270903,0.0048997612626421405,-0.009803553065117055,31.0,0.0,0.0165966837202985,0.04688091531849496
1648218698140579879,45718,3,2,1.95854914188,0.061531201005,0.193013235927,0.0,31.0,0.655033157819398,0.020578996991638794,0.06455292171471572,31.0,0.0,0.9265853283982466,1.9689984609183966
1648218698140584605,45719,3,3,1.95730626583,0.527410328388,0.58427464962,0.0809188112617,31.0,0.6546174802107023,0.1763914141765886,0.195409581812709,31.0,0.010934974494824324,0.9424234832547602,2.109641282051593
1648218698140719140,45720,3,4,1.85428965092,-0.12306240201,0.650707662106,-0.566431701183,31.0,0.6201637628494983,-0.04115799398327759,0.21762798063745817,31.0,-0.07654482448418919,0.8780092060861463,1.9689984575466133
1648218698140722251,45721,3,5,1.8367651701,-0.120132349432,0.55353218317,-0.485512852669,31.0,0.6143027324749164,-0.040178043288294316,0.18512782045819395,31.0,-0.06560984495527027,0.8696838330190884,1.9221175690569714
1648218698245501120,45722,4,0,0.00525635527447,0.0454158857465,0.0103724775836,0.0,27.3999996185,0.0017579783526655518,0.015189259446989964,0.0034690560480267556,27.3999996185,0.0,0.015391380000664505,0.046880915521487786
1648218698245503725,45723,4,1,0.0335340574384,0.0146502861753,-0.0293028391898,0.0,27.3999996185,0.01121540382555184,0.0048997612626421405,-0.009800280665484948,27.3999996185,0.0,0.01660054897800956,0.046880915924108986
1648218698245545057,45724,4,2,1.91555714607,0.120132349432,-0.103658609092,0.0,27.3999996185,0.64065456390301,0.040178043288294316,-0.03466843113444816,27.3999996185,0.0,0.9069127938572639,1.9221176000647786
1648218698245550140,45725,4,3,1.92418622971,0.46148404479,0.731523394585,0.0,27.3999996185,0.6435405450535117,0.15434248989632104,0.24465665370735787,27.3999996185,0.0,0.9230982994475386,2.1096413550711612
1648218698245698342,45726,4,4,1.58993387222,1.38445210457,0.0773891508579,0.161837622523,27.3999996185,0.5317504589364548,0.463027459722408,0.02588265914979933,27.3999996185,0.021869948989594594,0.883125998720028,2.1096413032909864
1648218698245703141,45727,4,5,1.57756543159,1.41521763802,0.398789852858,0.404594063759,27.3999996185,0.5276138567190636,0.47331693579264206,0.13337453272842809,27.3999996185,0.05467487348094594,0.8836185179771106,2.156521968506965
1648218698440328628,45728,6,0,0.00525635527447,0.0454158857465,0.0103724775836,0.0,23.0,0.0017579783526655518,0.015189259446989964,0.0034690560480267556,23.0,0.0,0.015391380000664505,0.046880915521487786
1648218698440334364,45729,6,1,0.0334289707243,0.0146502861753,-0.0294226650149,0.0,23.0,0.011180257767324413,0.0048997612626421405,-0.009840356192274247,23.0,0.0,0.016553065816292893,0.04688091493649962
1648218698440338733,45730,6,2,1.62829625607,1.47674882412,0.481291949749,0.404594063759,23.0,0.5445806876488294,0.49389592779933106,0.16096720727391303,23.0,0.05467487348094594,0.9149149896120982,2.250283921634018
1648218698440342241,45731,6,3,1.70572054386,-0.334026515484,0.390635967255,-0.242756426334,23.0,0.5704750982809365,-0.11171455367357858,0.13064748068729096,23.0,-0.03280492247756756,0.814471495523186,1.7814748793361321
1648218698440348851,45732,6,4,1.96763181686,0.061531201005,0.0399186983705,-0.0809188112617,23.0,0.6580708417591973,0.020578996991638794,0.0133507352409699,23.0,-0.010934974494824324,0.9308802074727439,1.968998364117273
1648218698440355484,45733,6,5,2.02403068542,0.32230630517,0.233234912157,-0.0809188112617,23.0,0.6769333396053512,0.10779475089297658,0.07800498734347826,23.0,-0.010934974494824324,0.9633780155570223,2.0627603094210865
1648218698545376144,45734,7,0,0.00547904008999,0.0454158857465,0.0102565921843,0.0,17.6000003815,0.0018324548795953177,0.015189259446989964,0.0034302983893979935,17.6000003815,0.0,0.015408743761886603,0.046880915538008675
1648218698545380213,45735,7,1,0.0335255041718,0.0146502861753,-0.0293126236647,0.0,17.6000003815,0.011212543201270903,0.0048997612626421405,-0.009803553065117055,17.6000003815,0.0,0.0165966837202985,0.04688091531849496
1648218698545382875,45736,7,2,1.87976408005,0.061531201005,0.582800090313,0.0,17.6000003815,0.628683638812709,0.020578996991638794,0.19491641816488292,17.6000003815,0.0,0.8893310578961916,1.9689984841569028
1648218698545387772,45737,7,3,1.71770370007,1.40642750263,0.367741316557,0.323675245047,17.6000003815,0.5744828428327758,0.47037709118060195,0.12299040687525083,17.6000003815,0.04373989797932432,0.9387841505511157,2.2502839814768496
1648218698545390668,45738,7,4,1.73760819435,-0.334026515484,0.206873998046,-0.323675245047,17.6000003815,0.5811398643311037,-0.11171455367357858,0.0691886281090301,17.6000003815,-0.04373989797932432,0.8294137841463898,1.7814748949076398
1648218698545392318,45739,7,5,2.03701424599,0.329631447792,0.438750386238,-0.161837622523,17.6000003815,0.6812756675551839,0.11024463136856186,0.14673925961137121,17.6000003815,-0.021869948989594594,0.9697561286999495,2.10964116170586
1648218698740312158,45740,9,0,0.00525635527447,0.0454158857465,0.0103724775836,0.0,28.1000003815,0.0017579783526655518,0.015189259446989964,0.0034690560480267556,28.1000003815,0.0,0.015391380000664505,0.046880915521487786
1648218698740314771,45741,9,1,0.0335114225745,0.0146502861753,-0.0293287187815,0.0,28.1000003815,0.011207833636956521,0.0048997612626421405,-0.009808936047324414,28.1000003815,0.0,0.01659032037358762,0.046880913742686436
1648218698740316996,45742,9,2,1.92769789696,0.184593603015,0.356175124645,0.0,28.1000003815,0.6447150157056856,0.06173699097491638,0.11912211526588629,28.1000003815,0.0,0.9138524820819833,1.9689984001095449
1648218698740325248,45743,9,3,1.68002855778,-0.158223092556,0.0290599036962,-0.323675245047,28.1000003815,0.5618824607959866,-0.05291742225953177,0.009719031336521737,28.1000003815,-0.04373989797932432,0.7963818512993001,1.6877129435947227
1648218698740328589,45744,9,4,2.0211250782,0.386767566204,0.14298543334,-0.242756426334,28.1000003815,0.6759615646153845,0.1293537010715719,0.04782121516387959,28.1000003815,-0.03280492247756756,0.9646659803556207,2.062760423835921
1648218698845522141,45745,10,0,0.00525635527447,0.0454158857465,0.0103724775836,0.0,20.0,0.0017579783526655518,0.015189259446989964,0.0034690560480267556,20.0,0.0,0.015391380000664505,0.046880915521487786
1648218698845525237,45746,10,1,0.0334431305528,0.0146502861753,-0.0294065698981,0.0,20.0,0.011184993495919733,0.0048997612626421405,-0.00983497321006689,20.0,0.0,0.01655946313859305,0.04688091529995604
1648218698845533423,45747,10,2,2.09829235077,-1.21890377998,0.233128190041,0.0,20.0,0.701770016979933,-0.407660127083612,0.07796929432809364,20.0,0.0,1.0729161629306634,2.4378076148747296
1648218698845537153,45748,10,3,1.85302495956,0.307655990124,0.590424537659,-0.0809188112617,20.0,0.6197407891505016,0.10289497997458194,0.1974664005548495,20.0,-0.010934974494824324,0.8824651088727206,1.9689984366883997
1648218699040439945,45749,12,0,0.00521258730441,0.0454158857465,0.0103945415467,0.0,12.1999998093,0.0017433402355886286,0.015189259446989964,0.0034764352998996654,12.1999998093,0.0,0.015388049678306159,0.046880915504193287
1648218699040445972,45750,12,1,0.0335114225745,0.0146502861753,-0.0293287187815,0.0,12.1999998093,0.011207833636956521,0.0048997612626421405,-0.009808936047324414,12.1999998093,0.0,0.01659032037358762,0.046880913742686436
1648218699040449555,45751,12,2,0.745184242725,-0.158223092556,1.50600159168,-0.566431701183,12.1999998093,0.2492254992391304,-0.05291742225953177,0.5036794621003344,12.1999998093,-0.07654482448418919,0.3564084069162527,1.6877129189427655
1648218699040452695,45752,12,3,1.53949356079,0.632892370224,-0.278893470764,-0.566431701183,12.1999998093,0.5148807895618729,0.21166968903812708,-0.09327540828227425,12.1999998093,-0.07654482448418919,0.7582931571478227,1.687712873695172
1648218699040456690,45753,12,4,1.92464387417,0.12306240201,0.396933972836,-0.0809188112617,12.1999998093,0.6436936034013377,0.04115799398327759,0.13275383706889632,12.1999998093,-0.010934974494824324,0.911250180021011,1.9689984702787222
1648218699145521003,45754,13,0,0.00525120040402,0.0454158857465,0.0103750880808,0.0,18.0,0.0017562543157257522,0.015189259446989964,0.0034699291240133778,18.0,0.0,0.01539098635536347,0.04688091548281325
1648218699145525010,45755,13,1,0.0334289707243,0.0146502861753,-0.0294226650149,0.0,18.0,0.011180257767324413,0.0048997612626421405,-0.009840356192274247,18.0,0.0,0.016553065816292893,0.04688091493649962
1648218699145530958,45756,13,2,1.9190210104,0.12306240201,0.423283219337,-0.0809188112617,18.0,0.6418130469565217,0.04115799398327759,0.14156629409264215,18.0,-0.010934974494824324,0.9085933936343343,1.9689983943409917
1648218699340556210,45757,15,0,0.00525635527447,0.0454158857465,0.0103724775836,0.0,21.1000003815,0.0017579783526655518,0.015189259446989964,0.0034690560480267556,21.1000003815,0.0,0.015391380000664505,0.046880915521487786
1648218699340559173,45758,15,1,0.0334289707243,0.0146502861753,-0.0294226650149,0.0,21.1000003815,0.011180257767324413,0.0048997612626421405,-0.009840356192274247,21.1000003815,0.0,0.016553065816292893,0.04688091493649962
1648218699340561715,45759,15,2,1.99050307274,0.188988685608,0.256809234619,0.0,21.1000003815,0.6657200912173913,0.06320691826354514,0.08588937612675585,21.1000003815,0.0,0.9435897382959175,2.0158795075253924
1648218699340564374,45760,15,3,1.57277095318,1.51483952999,0.294342577457,-0.323675245047,21.1000003815,0.5260103522341137,0.5066352943110367,0.09844233359765885,21.1000003815,-0.04373989797932432,0.9000295010479066,2.2034030102754874
1648218699445483053,45761,16,0,0.00543765118346,0.0454158857465,0.0102785946801,0.0,26.3999996185,0.001818612435939799,0.015189259446989964,0.0034376570836454844,26.3999996185,0.0,0.01540546347671123,0.046880915489460155
1648218699445484930,45762,16,1,0.0334289707243,0.0146502861753,-0.0294226650149,0.0,26.3999996185,0.011180257767324413,0.0048997612626421405,-0.009840356192274247,26.3999996185,0.0,0.016553065816292893,0.04688091493649962
1648218699445487190,45763,16,2,1.98161423206,0.314981162548,0.194323793054,0.0,26.3999996185,0.6627472348026756,0.1053448704173913,0.06499123513511705,26.3999996185,0.0,0.9431677137182138,2.015879419511427
1648218699445658922,45764,16,3,1.5741109848,1.41521763802,0.412214457989,-0.242756426334,26.3999996185,0.5264585233444815,0.47331693579264206,0.13786436722040132,26.3999996185,-0.03280492247756756,0.8822392392725683,2.156521994973874
1648218699640393452,45765,18,0,0.00543765118346,0.0454158857465,0.0102785946801,0.0,26.8999996185,0.001818612435939799,0.015189259446989964,0.0034376570836454844,26.8999996185,0.0,0.01540546347671123,0.046880915489460155
1648218699640395406,45766,18,1,0.0334289707243,0.0146502861753,-0.0294226650149,0.0,26.8999996185,0.011180257767324413,0.0048997612626421405,-0.009840356192274247,26.8999996185,0.0,0.016553065816292893,0.04688091493649962
1648218699640559485,45767,18,2,1.9545712471,0.184593603015,0.150103181601,0.0,26.8999996185,0.6537027582274247,0.06173699097491638,0.050201732976923076,26.8999996185,0.0,0.9265344290866491,1.9689983553550399
1648218699640562768,45768,18,3,1.61277186871,1.41521763802,0.216131448746,-0.161837622523,26.8999996185,0.5393885848528427,0.47331693579264206,0.07228476546688963,26.8999996185,-0.021869948989594594,0.8977243522636782,2.156521937426628
1648218699640564065,45769,18,4,1.412145257,1.38445210457,0.73465949297,-0.0809188112617,26.8999996185,0.4722893836120401,0.463027459722408,0.24570551604347823,26.8999996185,-0.010934974494824324,0.8127170185262935,2.1096413030007817
1648218699745419605,45770,19,0,0.00525635527447,0.0454158857465,0.0103724775836,0.0,11.6999998093,0.0017579783526655518,0.015189259446989964,0.0034690560480267556,11.6999998093,0.0,0.015391380000664505,0.046880915521487786
1648218699745746324,45771,19,1,0.0334289707243,0.0146502861753,-0.0294226650149,0.0,11.6999998093,0.011180257767324413,0.0048997612626421405,-0.009840356192274247,11.6999998093,0.0,0.016553065816292893,0.04688091493649962
1648218699745749328,45772,19,2,1.91705811024,0.0600661747158,-0.125762522221,0.0,11.6999998093,0.6411565586086956,0.020089021644080267,-0.04206104422107024,11.6999998093,0.0,0.9069548136949865,1.9221175706437252
1648218699940600437,45773,21,0,0.00543765118346,0.0454158857465,0.0102785946801,0.0,15.6000003815,0.001818612435939799,0.015189259446989964,0.0034376570836454844,15.6000003815,0.0,0.01540546347671123,0.046880915489460155
1648218699940604956,45774,21,1,0.0334289707243,0.0146502861753,-0.0294226650149,0.0,15.6000003815,0.011180257767324413,0.0048997612626421405,-0.009840356192274247,15.6000003815,0.0,0.016553065816292893,0.04688091493649962
1648218699940608867,45775,21,2,1.93949341774,0.24612480402,0.233971074224,0.0809188112617,15.6000003815,0.6486600059331104,0.08231598796655518,0.07825119539264214,15.6000003815,0.010934974494824324,0.9210296023848503,1.968998374855653
1648218700045522514,45776,22,0,0.00525635527447,0.0454158857465,0.0103724775836,0.0,13.8000001907,0.0017579783526655518,0.015189259446989964,0.0034690560480267556,13.8000001907,0.0,0.015391380000664505,0.046880915521487786
1648218700045527864,45777,22,1,0.0335114225745,0.0146502861753,-0.0293287187815,0.0,13.8000001907,0.011207833636956521,0.0048997612626421405,-0.009808936047324414,13.8000001907,0.0,0.01659032037358762,0.046880913742686436
1648218700045529758,45778,22,2,2.0130469799,-0.0,0.106827400625,0.0,13.8000001907,0.6732598594983277,-0.0,0.03572822763377926,13.8000001907,0.0,0.9521332243039394,2.0158795194179646
1648218700045608410,45779,22,3,1.86979401112,0.184593603015,0.588855087757,0.0809188112617,13.8000001907,0.6253491675986621,0.06173699097491638,0.19694150092207358,13.8000001907,0.010934974494824324,0.8865295363874325,1.9689984145934658
