%time,field.header.seq,field.header.frame_id,field.point_id,field.x,field.y,field.z,field.velocity,field.intensity,normalized_x,normalized_y,normalized_z,normalized_intensity,normalized_velocity,normalized_range,range
1648296054371402494,73166,0,0,0.0127004906535,0.0439508594573,0.0102391270921,0.0,15.3999996185,0.004247655736956521,0.014699284099431437,0.003424457221438127,15.3999996185,0.0,0.01587936118221376,0.046880915450566385
1648296054371410695,73167,0,1,0.0335404723883,0.0146502861753,-0.0292954929173,0.0,15.3999996185,0.011217549293745818,0.0048997612626421405,-0.009797823718160533,15.3999996185,0.0,0.016603447977637752,0.046880913795659694
1648296054371419040,73168,0,2,2.00519514084,-0.0629962310195,0.197468623519,0.0,15.3999996185,0.670633826367893,-0.021068973585117053,0.06604301789933109,15.3999996185,0.0,0.9486534455667217,2.0158794446210067
1648296054371437868,73169,0,3,2.24355220795,-1.2306240797,0.586858570576,0.0,15.3999996185,0.7503519090133779,-0.4115799597658863,0.19627376942341135,15.3999996185,0.0,1.1381801430357716,2.6253314299709474
1648296054371475231,73170,0,4,1.82146835327,-0.234404578805,0.379235863686,-0.0809188112617,15.3999996185,0.6091867402240803,-0.07839618020234114,0.12683473701872908,15.3999996185,-0.010934974494824324,0.8650797246496996,1.8752366007612322
1648296054476550368,73171,1,0,0.0127334436402,0.0439508594573,0.0101981181651,0.0,17.6000003815,0.004258676802742474,0.014699284099431437,0.003410741861237458,17.6000003815,0.0,0.015885263902631005,0.0468809156062766
1648296054476559597,73172,1,1,0.0335404723883,0.0146502861753,-0.0292954929173,0.0,17.6000003815,0.011217549293745818,0.0048997612626421405,-0.009797823718160533,17.6000003815,0.0,0.016603447977637752,0.046880913795659694
1648296054476568708,73173,1,2,1.88041949272,-0.0,0.398194164038,0.0,17.6000003815,0.6289028403745819,-0.0,0.13317530569832775,17.6000003815,0.0,0.8894029262726953,1.9221175980868765
1648296054476576885,73174,1,3,2.24085116386,-1.2306240797,0.597089290619,0.0,17.6000003815,0.7494485497859531,-0.4115799597658863,0.19969541492274245,17.6000003815,0.0,1.1369891471924545,2.625331442900513
1648296054671490072,73175,3,0,0.0127334436402,0.0439508594573,0.0101981181651,0.0,14.8999996185,0.004258676802742474,0.014699284099431437,0.003410741861237458,14.8999996185,0.0,0.015885263902631005,0.0468809156062766
1648296054671500433,73176,3,1,0.0335041433573,0.0146502861753,-0.0293370354921,0.0,14.8999996185,0.011205399116153847,0.0048997612626421405,-0.009811717555886288,14.8999996185,0.0,0.016587031052466603,0.046880914651800804
1648296054671506995,73177,3,2,1.90348124504,-0.0600661747158,0.260167986155,0.0,14.8999996185,0.6366158010167223,-0.020089021644080267,0.08701270439966553,14.8999996185,0.0,0.9005347994380574,1.9221176281861538
1648296054671509937,73178,3,3,2.24265742302,-1.2306240797,0.590268850327,0.0,14.8999996185,0.7500526498394647,-0.4115799597658863,0.19741433121304347,14.8999996185,0.0,1.1377855766106784,2.6253314568317916
1648296054776431249,73179,4,0,0.0127004906535,0.0439508594573,0.0102391270921,0.0,14.8000001907,0.004247655736956521,0.014699284099431437,0.003424457221438127,14.8000001907,0.0,0.01587936118221376,0.046880915450566385
1648296054776444838,73180,4,1,0.0335404723883,0.0146502861753,-0.0292954929173,0.0,14.8000001907,0.011217549293745818,0.0048997612626421405,-0.009797823718160533,14.8000001907,0.0,0.016603447977637752,0.046880913795659694
1648296054776448411,73181,4,2,1.9175041914,-0.0600661747158,0.118766658008,0.0,14.8000001907,0.641305749632107,-0.020089021644080267,0.03972129030367893,14.8000001907,0.0,0.9071657499117863,1.9221175272172994
1648296054776451257,73182,4,3,2.24323892593,-1.2306240797,0.588054716587,0.0,14.8000001907,0.7502471324180602,-0.4115799597658863,0.19667381825652175,14.8000001907,0.0,1.1380419951319605,2.6253313798538405
1648296054971471422,73183,6,0,0.0127004906535,0.0439508594573,0.0102391270921,0.0,15.1000003815,0.004247655736956521,0.014699284099431437,0.003424457221438127,15.1000003815,0.0,0.01587936118221376,0.046880915450566385
1648296054971480501,73184,6,1,0.0335404723883,0.0146502861753,-0.0292954929173,0.0,15.1000003815,0.011217549293745818,0.0048997612626421405,-0.009797823718160533,15.1000003815,0.0,0.016603447977637752,0.046880913795659694
1648296054971491469,73185,6,2,1.91581046581,0.0600661747158,-0.14352183044,0.0,15.1000003815,0.6407392862240802,0.020089021644080267,-0.048000612187290966,15.1000003815,0.0,0.9063648463022514,1.9221176348145204
1648296054971498133,73186,6,3,1.29676890373,-0.600661754608,1.28535282612,0.0,15.1000003815,0.4337019744916388,-0.20089021893244144,0.4298838883344481,15.1000003815,0.0,0.6454081541308697,1.9221175876476804
1648296054971502614,73187,6,4,2.23894453049,-1.2306240797,0.604199588299,0.0,15.1000003815,0.7488108797625418,-0.4115799597658863,0.20207344090267557,15.1000003815,0.0,1.1361485512829703,2.625331479765791
1648296054971508537,73188,6,5,1.76482975483,-0.410208016634,0.483340293169,0.0809188112617,15.1000003815,0.5902440651605351,-0.13719331659999998,0.16165227196287624,15.1000003815,0.010934974494824324,0.8459303275295051,1.8752366569168843
1648296054971525997,73189,6,6,1.26131057739,0.234404578805,-1.36772167683,0.0809188112617,15.1000003815,0.42184300247157186,0.07839618020234114,-0.4574319989397993,15.1000003815,0.010934974494824324,0.6017050760453821,1.875236642259134
1648296055076505759,73190,7,0,0.0127217965201,0.0439508594573,0.010212643072,0.0,14.3999996185,0.004254781444849498,0.014699284099431437,0.0034155996896321067,14.3999996185,0.0,0.015883176109414296,0.046880915437416903
1648296055076520735,73191,7,1,0.0335269682109,0.0146502861753,-0.0293109472841,0.0,14.3999996185,0.01121303284645485,0.0048997612626421405,-0.00980299240270903,14.3999996185,0.0,0.016597345319726262,0.046880914166899254
1648296055076525610,73192,7,2,1.88495886326,-0.300330877304,0.226422294974,0.0,14.3999996185,0.6304210245016723,-0.10044510946622072,0.07572652005819397,14.3999996185,0.0,0.8971903679170643,1.9221174802040366
1648296055076527757,73193,7,3,2.24209833145,-1.2306240797,0.592388749123,0.0,14.3999996185,0.7498656626923076,-0.4115799597658863,0.19812332746588626,14.3999996185,0.0,1.1375390487586945,2.6253314045117917
1648296055271495079,73194,9,0,0.0127334436402,0.0439508594573,0.0101981181651,0.0,15.6000003815,0.004258676802742474,0.014699284099431437,0.003410741861237458,15.6000003815,0.0,0.015885263902631005,0.0468809156062766
1648296055271520221,73195,9,1,0.0335404723883,0.0146502861753,-0.0292954929173,0.0,15.6000003815,0.011217549293745818,0.0048997612626421405,-0.009797823718160533,15.6000003815,0.0,0.016603447977637752,0.046880913795659694
1648296055271527970,73196,9,2,1.81058216095,-0.293005734682,0.390451401472,0.0,15.6000003815,0.6055458732274247,-0.09799522899063544,0.1305857530006689,15.6000003815,0.0,0.8619597868058902,1.8752366301398762
1648296055271575761,73197,9,3,2.24036955833,-1.2306240797,0.598893046379,0.0,15.6000003815,0.749287477702341,-0.4115799597658863,0.20029867771872908,15.6000003815,0.0,1.1367768082451193,2.6253312675604104
1648296055376584690,73198,10,0,0.0127004906535,0.0439508594573,0.0102391270921,0.0,15.5,0.004247655736956521,0.014699284099431437,0.003424457221438127,15.5,0.0,0.01587936118221376,0.046880915450566385
1648296055376596424,73199,10,1,0.0335404723883,0.0146502861753,-0.0292954929173,0.0,15.5,0.011217549293745818,0.0048997612626421405,-0.009797823718160533,15.5,0.0,0.016603447977637752,0.046880913795659694
1648296055376601086,73200,10,2,1.77958917618,-0.410208016634,0.425798088312,0.0,15.5,0.5951803264816053,-0.13719331659999998,0.14240738739531772,15.5,0.0,0.8528195871233308,1.87523658904629
1648296055376604227,73201,10,3,2.24042105675,-1.2306240797,0.598700881004,0.0,15.5,0.7493047012541805,-0.4115799597658863,0.20023440836254178,15.5,0.0,1.1367995135133204,2.6253313851743028
1648296055571425473,73202,12,0,0.0128108067438,0.0439508594573,0.0101007642224,0.0,15.1000003815,0.004284550750434783,0.014699284099431437,0.0033781820141806015,15.1000003815,0.0,0.01589917303830298,0.046880915672999006
1648296055571457439,73203,12,1,0.033517640084,0.0146502861753,-0.0293216109276,0.0,15.1000003815,0.011209913071571907,0.0048997612626421405,-0.009806558838662207,15.1000003815,0.0,0.016593129981268932,0.04688091241868381
1648296055571466835,73204,12,2,2.24160385132,-1.2306240797,0.594256997108,0.0,15.1000003815,0.7497002847224079,-0.4115799597658863,0.19874815956789293,15.1000003815,0.0,1.1373210176140276,2.6253313753509184
1648296055571473254,73205,12,3,1.8089299202,-0.351606875658,0.347357720137,-0.0809188112617,15.1000003815,0.6049932843478261,-0.11759427279531771,0.11617315054749164,15.1000003815,-0.010934974494824324,0.8636331172472479,1.8752365815927154
1648296055571484430,73206,12,4,0.666393876076,0.293005734682,-1.72817218304,-0.0809188112617,15.1000003815,0.22287420604548494,0.09799522899063544,-0.5779840077056856,15.1000003815,-0.010934974494824324,0.3300740649395793,1.8752365858369375
1648296055676589038,73207,13,0,0.0127334436402,0.0439508594573,0.0101981181651,0.0,18.6000003815,0.004258676802742474,0.014699284099431437,0.003410741861237458,18.6000003815,0.0,0.015885263902631005,0.0468809156062766
1648296055676609411,73208,13,1,0.0335404723883,0.0146502861753,-0.0292954929173,0.0,18.6000003815,0.011217549293745818,0.0048997612626421405,-0.009797823718160533,18.6000003815,0.0,0.016603447977637752,0.046880913795659694
1648296055676618000,73209,13,2,1.84707176685,-0.0586011447012,0.318439692259,0.0,18.6000003815,0.617749754799331,-0.019599045050568562,0.1065015693173913,18.6000003815,0.0,0.873849896536105,1.875236530057123
1648296055676624654,73210,13,3,2.24153137207,-1.2306240797,0.594529926777,0.0,18.6000003815,0.7496760441705684,-0.4115799597658863,0.19883944039364548,18.6000003815,0.0,1.1372890598644447,2.625331284113484
1648296055871473900,73211,15,0,0.0127217965201,0.0439508594573,0.010212643072,0.0,15.3999996185,0.004254781444849498,0.014699284099431437,0.0034155996896321067,15.3999996185,0.0,0.015883176109414296,0.046880915437416903
1648296055871486821,73212,15,1,0.0335269682109,0.0146502861753,-0.0293109472841,0.0,15.3999996185,0.01121303284645485,0.0048997612626421405,-0.00980299240270903,15.3999996185,0.0,0.016597345319726262,0.046880914166899254
1648296055871491996,73213,15,2,1.46196472645,-1.68478298187,0.720219910145,0.0,15.3999996185,0.488951413528428,-0.5634725691872909,0.24087622412876253,15.3999996185,0.0,0.8919912027645912,2.344045920273761
1648296055871497026,73214,15,3,2.24192690849,-1.2306240797,0.593037366867,0.0,15.3999996185,0.7498083305986621,-0.4115799597658863,0.19834025647725753,15.3999996185,0.0,1.1374634625126179,2.625331447084262
1648296055871503705,73215,15,4,1.92030704021,-0.0600661747158,0.0578685365617,0.0809188112617,15.3999996185,0.6422431572608696,-0.020089021644080267,0.01935402560591973,15.3999996185,0.010934974494824324,0.908491119872636,1.9221175410335531
1648296055976498828,73216,16,0,0.0127100823447,0.0439508594573,0.0102272182703,0.0,12.6000003815,0.004250863660434782,0.014699284099431437,0.003420474337892977,12.6000003815,0.0,0.01588107794688408,0.04688091545386831
1648296055976507258,73217,16,1,0.0335041433573,0.0146502861753,-0.0293370354921,0.0,12.6000003815,0.011205399116153847,0.0048997612626421405,-0.009811717555886288,12.6000003815,0.0,0.016587031052466603,0.046880914651800804
1648296055976516121,73218,16,2,2.24465298653,-1.2306240797,0.582633674145,0.0,12.6000003815,0.7507200623846153,-0.4115799597658863,0.194860760583612,12.6000003815,0.0,1.1386655731225082,2.625331341702076
1648296055976521110,73219,16,3,1.94994211197,-0.24612480402,0.118757002056,-0.242756426334,12.6000003815,0.6521545524983278,-0.08231598796655518,0.03971806088829431,12.6000003815,-0.03280492247756756,0.9259519655810977,1.9689984471109254
1648296055976525016,73220,16,4,1.91511321068,-0.120132349432,0.111560054123,-0.0809188112617,12.6000003815,0.640506090528428,-0.040178043288294316,0.03731105489063545,12.6000003815,-0.010934974494824324,0.9067030269997436,1.9221175918182105
