%time,field.header.seq,field.header.frame_id,field.point_id,field.x,field.y,field.z,field.velocity,field.intensity,normalized_x,normalized_y,normalized_z,normalized_intensity,normalized_velocity,normalized_range,range
1648295964375069643,70616,0,0,0.0127100823447,0.0439508594573,0.0102272182703,0.0,15.1999998093,0.004250863660434782,0.014699284099431437,0.003420474337892977,15.1999998093,0.0,0.01588107794688408,0.04688091545386831
1648295964375078965,70617,0,1,0.0335404723883,0.0146502861753,-0.0292954929173,0.0,15.1999998093,0.011217549293745818,0.0048997612626421405,-0.009797823718160533,15.1999998093,0.0,0.016603447977637752,0.046880913795659694
1648295964375082144,70618,0,2,1.83241903782,-0.175803437829,0.357555359602,0.0,15.1999998093,0.6128491765284281,-0.05879713639765886,0.11958373230836121,15.1999998093,0.0,0.8686917345017793,1.8752365755012848
1648295964375090064,70619,0,3,2.24480581284,-1.2306240797,0.582044780254,0.0,15.1999998093,0.7507711748628763,-0.4115799597658863,0.1946638061050167,15.1999998093,0.0,1.1387329701430688,2.6253313865336416
1648295964570240479,70620,2,0,0.0127217965201,0.0439508594573,0.010212643072,0.0,15.0,0.004254781444849498,0.014699284099431437,0.0034155996896321067,15.0,0.0,0.015883176109414296,0.046880915437416903
1648295964570250200,70621,2,1,0.0335041433573,0.0146502861753,-0.0293370354921,0.0,15.0,0.011205399116153847,0.0048997612626421405,-0.009811717555886288,15.0,0.0,0.016587031052466603,0.046880914651800804
1648295964570255156,70622,2,2,1.92963945866,-0.12306240201,0.371889919043,0.0,15.0,0.6453643674448161,-0.04115799398327759,0.12437789934548495,15.0,0.0,0.9136105921034534,1.968998452790641
1648295964570258970,70623,2,3,2.24364376068,-1.2306240797,0.586508631706,0.0,15.0,0.7503825286555184,-0.4115799597658863,0.19615673301204012,15.0,0.0,1.13822051549943,2.625331469632246
1648295964570262183,70624,2,4,1.80322241783,0.117202289402,0.501163303852,-0.0809188112617,15.0,0.6030844206789298,0.03919809010100334,0.16761314510100334,15.0,-0.010934974494824324,0.8537904468889582,1.8752365509272673
1648295964675066740,70625,3,0,0.0127100823447,0.0439508594573,0.0102272182703,0.0,16.7000007629,0.004250863660434782,0.014699284099431437,0.003420474337892977,16.7000007629,0.0,0.01588107794688408,0.04688091545386831
1648295964675074978,70626,3,1,0.0334416292608,0.0146502861753,-0.0294082760811,0.0,16.7000007629,0.011184491391571906,0.0048997612626421405,-0.009835543839832775,16.7000007629,0.0,0.016558784852977005,0.04688091461028868
1648295964675083781,70627,3,2,2.24229478836,-1.2306240797,0.591645181179,0.0,16.7000007629,0.7499313673444816,-0.4115799597658863,0.1978746425347826,16.7000007629,0.0,1.1376256742598667,2.6253315150388574
1648295964675091675,70628,3,3,1.89669644833,-0.120132349432,0.287483781576,0.0809188112617,16.7000007629,0.6343466382374582,-0.040178043288294316,0.09614842193177257,16.7000007629,0.010934974494824324,0.8980008853274062,1.9221176142881906
1648295964675095958,70629,3,4,1.81575810909,-0.351606875658,0.309689134359,-0.323675245047,16.7000007629,0.6072769595618729,-0.11759427279531771,0.10357496132408026,16.7000007629,-0.04373989797932432,0.8668327544709445,1.8752365892537664
1648295964870233400,70630,5,0,0.0127217965201,0.0439508594573,0.010212643072,0.0,34.2000007629,0.004254781444849498,0.014699284099431437,0.0034155996896321067,34.2000007629,0.0,0.015883176109414296,0.046880915437416903
1648295964870248043,70631,5,1,0.0335269682109,0.0146502861753,-0.0293109472841,0.0,34.2000007629,0.01121303284645485,0.0048997612626421405,-0.00980299240270903,34.2000007629,0.0,0.016597345319726262,0.046880914166899254
1648295964870254524,70632,5,2,1.44181621075,-1.68478298187,0.75975227356,0.0,34.2000007629,0.48221277951505015,-0.5634725691872909,0.25409775035451504,34.2000007629,0.0,0.8846240250421571,2.3440459037228445
1648295964870271205,70633,5,3,2.24327945709,-1.2306240797,0.587900221348,0.0,34.2000007629,0.7502606879899665,-0.4115799597658863,0.19662214760802674,34.2000007629,0.0,1.1380598680066194,2.625331411155648
1648295964870307635,70634,5,4,1.95721888542,0.12306240201,0.176365584135,0.323675245047,34.2000007629,0.654588255993311,0.04115799398327759,0.05898514519565217,34.2000007629,0.04373989797932432,0.9266420831353692,1.9689984610203377
1648295964870320371,70635,5,5,1.68291652203,-0.325236350298,0.266137897968,-0.404594063759,34.2000007629,0.5628483351270902,-0.10877469909632106,0.08900933042408027,34.2000007629,-0.05467487348094594,0.8033856059665058,1.7345939249321556
1648295964975250811,70636,6,0,0.0127217965201,0.0439508594573,0.010212643072,0.0,22.2999992371,0.004254781444849498,0.014699284099431437,0.0034155996896321067,22.2999992371,0.0,0.015883176109414296,0.046880915437416903
1648295964975255500,70637,6,1,0.0335041433573,0.0146502861753,-0.0293370354921,0.0,22.2999992371,0.011205399116153847,0.0048997612626421405,-0.009811717555886288,22.2999992371,0.0,0.016587031052466603,0.046880914651800804
1648295964975265020,70638,6,2,2.24218821526,-1.2306240797,0.592048823833,0.0,22.2999992371,0.749895724167224,-0.4115799597658863,0.1980096400779264,22.2999992371,0.0,1.1375786819070843,2.6253314891629085
1648295964975281377,70639,6,3,1.63681924343,-0.316446185112,0.262791335583,-0.161837622523,22.2999992371,0.5474311850936454,-0.10583484451906354,0.087890078790301,22.2999992371,-0.021869948989594594,0.7813851925525851,1.6877128635500154
1648295965170301771,70640,8,0,0.0127207012847,0.0439508594573,0.0102140065283,0.0,22.7999992371,0.004254415145384615,0.014699284099431437,0.003416055695083612,22.7999992371,0.0,0.01588297986822227,0.04688091528084813
1648295965170311924,70641,8,1,0.0335041433573,0.0146502861753,-0.0293370354921,0.0,22.7999992371,0.011205399116153847,0.0048997612626421405,-0.009811717555886288,22.7999992371,0.0,0.016587031052466603,0.046880914651800804
1648295965170361664,70642,8,2,1.91512727737,-0.120132349432,0.111318983138,0.0,22.7999992371,0.6405107951070234,-0.040178043288294316,0.03723042914314381,22.7999992371,0.0,0.9067096737433314,1.922117630613059
1648295965170371434,70643,8,3,2.24400854111,-1.2306240797,0.585111260414,0.0,22.7999992371,0.750504528799331,-0.4115799597658863,0.19568938475384612,22.7999992371,0.0,1.1383813766824808,2.625331435300191
1648295965275022010,70644,9,0,0.0127419224009,0.0439508594573,0.0101875215769,0.0,15.6999998093,0.004261512508662207,0.014699284099431437,0.0034071978518060196,15.6999998093,0.0,0.01588678478354783,0.04688091540686569
1648295965275028902,70645,9,1,0.0334552153945,0.0146502861753,-0.0293928217143,0.0,15.6999998093,0.011189035248996655,0.0048997612626421405,-0.00983037515528428,15.6999998093,0.0,0.016564923182359397,0.0468809160580209
1648295965275035264,70646,9,2,1.92117011547,-0.0600661747158,0.00578314764425,0.0,15.6999998093,0.64253181119398,-0.020089021644080267,0.001934163091722408,15.6999998093,0.0,0.9088992384104241,1.9221175829580972
1648295965275060000,70647,9,3,2.24379301071,-1.2306240797,0.585936963558,0.0,15.6999998093,0.7504324450535117,-0.4115799597658863,0.19596553965150498,15.6999998093,0.0,1.138286331490839,2.625331374457725
1648295965470213761,70648,11,0,0.0127100823447,0.0439508594573,0.0102272182703,0.0,15.8000001907,0.004250863660434782,0.014699284099431437,0.003420474337892977,15.8000001907,0.0,0.01588107794688408,0.04688091545386831
1648295965470239640,70649,11,1,0.0335404723883,0.0146502861753,-0.0292954929173,0.0,15.8000001907,0.011217549293745818,0.0048997612626421405,-0.009797823718160533,15.8000001907,0.0,0.016603447977637752,0.046880913795659694
1648295965470242620,70650,11,2,1.46400856972,-1.68478298187,0.716056346893,0.0,15.8000001907,0.48963497315050164,-0.5634725691872909,0.23948372805785953,15.8000001907,0.0,0.8927408079004293,2.34404596374263
1648295965470248055,70651,11,3,2.24056625366,-1.2306240797,0.59815710783,0.0,15.8000001907,0.7493532620936454,-0.4115799597658863,0.20005254442474915,15.8000001907,0.0,1.1368635301132954,2.6253313482730194
1648295965575051761,70652,12,0,0.0127217965201,0.0439508594573,0.010212643072,0.0,15.8000001907,0.004254781444849498,0.014699284099431437,0.0034155996896321067,15.8000001907,0.0,0.015883176109414296,0.046880915437416903
1648295965575057708,70653,12,1,0.0335404723883,0.0146502861753,-0.0292954929173,0.0,15.8000001907,0.011217549293745818,0.0048997612626421405,-0.009797823718160533,15.8000001907,0.0,0.016603447977637752,0.046880913795659694
1648295965575065139,70654,12,2,2.24138450623,-1.2306240797,0.595083892345,0.0,15.8000001907,0.7496269251605351,-0.4115799597658863,0.19902471315886286,15.8000001907,0.0,1.1372243037906662,2.625331401791753
1648295965770313989,70655,14,0,0.0127100823447,0.0439508594573,0.0102272182703,0.0,15.8999996185,0.004250863660434782,0.014699284099431437,0.003420474337892977,15.8999996185,0.0,0.01588107794688408,0.04688091545386831
1648295965770343495,70656,14,1,0.0335404723883,0.0146502861753,-0.0292954929173,0.0,15.8999996185,0.011217549293745818,0.0048997612626421405,-0.009797823718160533,15.8999996185,0.0,0.016603447977637752,0.046880913795659694
1648295965770349188,70657,14,2,1.96167576313,-0.0,0.169655159116,0.0,15.8999996185,0.6560788505451505,-0.0,0.05674085589163879,15.8999996185,0.0,0.9278356084271027,1.9689983932614934
1648295965770386450,70658,14,3,2.242821455,-1.2306240797,0.589644789696,0.0,15.8999996185,0.7501075100334448,-0.4115799597658863,0.19720561528294311,15.8999996185,0.0,1.1378579069892854,2.6253313471943747
1648295965875169224,70659,15,0,0.0127419224009,0.0439508594573,0.0101875215769,0.0,15.1999998093,0.004261512508662207,0.014699284099431437,0.0034071978518060196,15.1999998093,0.0,0.01588678478354783,0.04688091540686569
1648295965875192967,70660,15,1,0.0335041433573,0.0146502861753,-0.0293370354921,0.0,15.1999998093,0.011205399116153847,0.0048997612626421405,-0.009811717555886288,15.1999998093,0.0,0.016587031052466603,0.046880914651800804
1648295965875198064,70661,15,2,1.84237396717,-0.117202289402,0.329292953014,0.0,15.1999998093,0.6161785843377926,-0.03919809010100334,0.11013142241270903,15.1999998093,0.0,0.8722892787720246,1.8752365345341038
1648295965875210440,70662,15,3,2.24227404594,-1.2306240797,0.591722607613,0.0,15.1999998093,0.7499244300802674,-0.4115799597658863,0.1979005376632107,15.1999998093,0.0,1.1376165280723185,2.6253312490034353
