%time,field.header.seq,field.header.frame_id,field.point_id,field.x,field.y,field.z,field.velocity,field.intensity,normalized_x,normalized_y,normalized_z,normalized_intensity,normalized_velocity,normalized_range,range
1648218516137353295,38092,0,0,0.00529174832627,0.0454158857465,0.010354465805,0.0,17.7999992371,0.0017698154937357859,0.015189259446989964,0.0034630320418060196,17.7999992371,0.0,0.015394092903179077,0.04688091552641263
1648218516137358271,38093,0,1,0.0335027687252,0.0146502861753,-0.0293386057019,0.0,17.7999992371,0.011204939372976588,0.0048997612626421405,-0.00981224270966555,17.7999992371,0.0,0.01658640989289275,0.04688091489939147
1648218516137381137,38094,0,2,1.72724246979,0.054206058383,-0.150037527084,0.0,17.7999992371,0.5776730668193979,0.01812911651605351,-0.0501797749444816,17.7999992371,0.0,0.8171542137948685,1.7345939310816125
1648218516137386124,38095,0,3,1.79077935219,-0.234404578805,0.504654705524,0.0809188112617,17.7999992371,0.598922860264214,-0.07839618020234114,0.16878083796789298,17.7999992371,0.010934974494824324,0.8506251502068655,1.8752366694906275
1648218516242476469,38096,1,0,0.00529174832627,0.0454158857465,0.010354465805,0.0,23.2000007629,0.0017698154937357859,0.015189259446989964,0.0034630320418060196,23.2000007629,0.0,0.015394092903179077,0.04688091552641263
1648218516242486529,38097,1,1,0.0334505960345,0.0146502861753,-0.0293980780989,0.0,23.2000007629,0.011187490312541805,0.0048997612626421405,-0.009832133143444815,23.2000007629,0.0,0.016562836092207215,0.04688091569061464
1648218516242490011,38098,1,2,1.72304332256,0.108412116766,-0.167882651091,0.0,23.2000007629,0.5762686697525083,0.03625823303210702,-0.05614804384314381,23.2000007629,0.0,0.8157731418349476,1.7345939187653205
1648218516242524039,38099,1,3,1.87922406197,0.180198520422,0.361360758543,0.0,23.2000007629,0.6285030307591973,0.06026706368628762,0.12085644098428092,23.2000007629,0.0,0.8908783521403807,1.9221176289873825
1648218516242546987,38100,1,4,2.07037353516,-1.19546329975,-0.030837809667,0.0,23.2000007629,0.6924326204548494,-0.39982050158862875,-0.0103136487180602,23.2000007629,0.0,1.057725059375319,2.3909266083769976
1648218516242548790,38101,1,5,1.83489787579,0.117202289402,0.36868083477,-0.0809188112617,23.2000007629,0.6136782193277592,0.03919809010100334,0.12330462701337792,23.2000007629,-0.010934974494824324,0.8687568152378116,1.875236558183108
1648218516437452811,38102,3,0,0.00529174832627,0.0454158857465,0.010354465805,0.0,19.8999996185,0.0017698154937357859,0.015189259446989964,0.0034630320418060196,19.8999996185,0.0,0.015394092903179077,0.04688091552641263
1648218516437458232,38103,3,1,0.0334505960345,0.0146502861753,-0.0293980780989,0.0,19.8999996185,0.011187490312541805,0.0048997612626421405,-0.009832133143444815,19.8999996185,0.0,0.016562836092207215,0.04688091569061464
1648218516437459993,38104,3,2,1.72901678085,0.108412116766,-0.0869700983167,0.0,19.8999996185,0.5782664818896321,0.03625823303210702,-0.02908698940357859,19.8999996185,0.0,0.8185956924004885,1.734593904498629
1648218516437651969,38105,3,3,1.91698372364,-0.120132349432,0.0726476237178,-0.0809188112617,19.8999996185,0.6411316801471572,-0.040178043288294316,0.02429686411966555,19.8999996185,-0.010934974494824324,0.9075868761386479,1.9221175966398558
1648218516437656337,38106,3,4,1.50679063797,0.480529397726,1.09234130383,-0.0809188112617,19.8999996185,0.503943357180602,0.16071217315250835,0.3653315397424749,19.8999996185,-0.010934974494824324,0.730579370836813,1.9221175959878147
1648218516542526035,38107,4,0,0.00529174832627,0.0454158857465,0.010354465805,0.0,15.8000001907,0.0017698154937357859,0.015189259446989964,0.0034630320418060196,15.8000001907,0.0,0.015394092903179077,0.04688091552641263
1648218516542537727,38108,4,1,0.0334505960345,0.0146502861753,-0.0293980780989,0.0,15.8000001907,0.011187490312541805,0.0048997612626421405,-0.009832133143444815,15.8000001907,0.0,0.016562836092207215,0.04688091569061464
1648218516542550295,38109,4,2,1.72824370861,0.054206058383,-0.138026967645,0.0,15.8000001907,0.5780079293010033,0.01812911651605351,-0.046162865433110364,15.8000001907,0.0,0.817627664365217,1.7345939170055742
1648218516542559301,38110,4,3,2.07013726234,-1.19546329975,-0.0439199730754,0.0,15.8000001907,0.692353599444816,-0.39982050158862875,-0.014688954205819397,15.8000001907,0.0,1.0576215990698035,2.390926546344043
1648218516542625136,38111,4,4,1.78960883617,-0.175803437829,0.531888961792,-0.0809188112617,15.8000001907,0.5985313833344481,-0.05879713639765886,0.17788928488026753,15.8000001907,-0.010934974494824324,0.848490858478193,1.8752366525125326
1648218516542636097,38112,4,5,1.78047275543,0.46880915761,-0.355875045061,-0.0809188112617,15.8000001907,0.5954758379364548,0.15679236040468228,-0.11902175420100333,15.8000001907,-0.010934974494824324,0.8566018861837263,1.875236600214667
1648218516737400233,38113,6,0,0.00529174832627,0.0454158857465,0.010354465805,0.0,20.7000007629,0.0017698154937357859,0.015189259446989964,0.0034630320418060196,20.7000007629,0.0,0.015394092903179077,0.04688091552641263
1648218516737404756,38114,6,1,0.0335027687252,0.0146502861753,-0.0293386057019,0.0,20.7000007629,0.011204939372976588,0.0048997612626421405,-0.00981224270966555,20.7000007629,0.0,0.01658640989289275,0.04688091489939147
1648218516737473019,38115,6,2,1.73302769661,-0.0,-0.0736952126026,0.0,20.7000007629,0.5796079252876254,-0.0,-0.024647228295183943,20.7000007629,0.0,0.8196893888006914,1.734593895290164
1648218516737476980,38116,6,3,1.72152447701,-0.514225006104,0.338837087154,-0.242756426334,20.7000007629,0.5757606946521738,-0.17198160739264212,0.11332344051973244,20.7000007629,-0.03280492247756756,0.832212970515399,1.828355669304586
1648218516842558894,38117,7,0,0.00503156892955,0.0454158857465,0.0104833617806,0.0,37.2000007629,0.0016827989730936453,0.015189259446989964,0.003506141063745819,37.2000007629,0.0,0.01537456429677485,0.04688091550145858
1648218516842569581,38118,7,1,0.0335027687252,0.0146502861753,-0.0293386057019,0.0,37.2000007629,0.011204939372976588,0.0048997612626421405,-0.00981224270966555,37.2000007629,0.0,0.01658640989289275,0.04688091489939147
1648218516842576600,38119,7,2,1.59940469265,-0.650472700596,0.166149616241,-0.404594063759,37.2000007629,0.5349179574080267,-0.21754939819264213,0.05556843352541806,37.2000007629,-0.05467487348094594,0.7871481327991141,1.7345938429697387
1648218516842579150,38120,7,3,1.75111985207,-0.0,0.525798141956,-0.0809188112617,37.2000007629,0.5856588134013377,-0.0,0.17585222138996656,37.2000007629,-0.010934974494824324,0.8282466368355056,1.8283556608050964
1648218517037505813,38121,9,0,0.00525369495153,0.0454158857465,0.0103738252074,0.0,21.2999992371,0.0017570886125518395,0.015189259446989964,0.003469506758327759,21.2999992371,0.0,0.015391176801424008,0.04688091550104969
1648218517037513878,38122,9,1,0.0335253626108,0.0146502861753,-0.0293127838522,0.0,21.2999992371,0.011212495856454847,0.0048997612626421405,-0.009803606639531772,21.2999992371,0.0,0.01659661974900078,0.04688091424417414
1648218517037527850,38123,9,2,1.73370707035,0.054206058383,0.0117255551741,0.0,21.2999992371,0.5798351405852842,0.01812911651605351,0.003921590359230769,21.2999992371,0.0,0.8202110980599843,1.734593898061198
1648218517037656757,38124,9,3,1.83699393272,-0.0,0.376783460379,0.0,21.2999992371,0.6143792417123746,-0.0,0.1260145352438127,21.2999992371,0.0,0.868863456070138,1.8752366476968354
1648218517142628159,38125,10,0,0.00529174832627,0.0454158857465,0.010354465805,0.0,14.8000001907,0.0017698154937357859,0.015189259446989964,0.0034630320418060196,14.8000001907,0.0,0.015394092903179077,0.04688091552641263
1648218517142630423,38126,10,1,0.0334505960345,0.0146502861753,-0.0293980780989,0.0,14.8000001907,0.011187490312541805,0.0048997612626421405,-0.009832133143444815,14.8000001907,0.0,0.016562836092207215,0.04688091569061464
1648218517142632193,38127,10,2,1.73299634457,0.054206058383,0.0510032847524,0.0,14.8000001907,0.5795974396555184,0.01812911651605351,0.017057954766688962,14.8000001907,0.0,0.8198750203391473,1.7345938896796385
1648218517142638081,38128,10,3,1.57041835785,0.580151319504,-0.213507443666,-0.647350490093,14.8000001907,0.5252235310535116,0.19403054164013378,-0.07140717179464882,14.8000001907,-0.08747979595851352,0.7677026548305026,1.6877128904808758
1648218517142642635,38129,10,4,1.8518614769,0.293005734682,0.0356197506189,-0.485512852669,14.8000001907,0.6193516645150501,0.09799522899063544,0.011912960073210702,14.8000001907,-0.06560984495527027,0.8813603312947852,1.8752365335650167
1648218517337447024,38130,12,0,0.00529174832627,0.0454158857465,0.010354465805,0.0,24.3999996185,0.0017698154937357859,0.015189259446989964,0.0034630320418060196,24.3999996185,0.0,0.015394092903179077,0.04688091552641263
1648218517337449569,38131,12,1,0.0335027687252,0.0146502861753,-0.0293386057019,0.0,24.3999996185,0.011204939372976588,0.0048997612626421405,-0.00981224270966555,24.3999996185,0.0,0.01658640989289275,0.04688091489939147
1648218517337452546,38132,12,2,1.74859070778,0.0556710883975,0.336130768061,0.0,24.3999996185,0.5848129457458193,0.018619093109531772,0.11241831707725752,24.3999996185,0.0,0.8272599553054811,1.7814748459226701
1648218517442470354,38133,13,0,0.0052226819098,0.0454158857465,0.0103894732893,0.0,17.3999996185,0.001746716357792642,0.015189259446989964,0.003474740230535117,17.3999996185,0.0,0.015388815374067449,0.04688091551686221
1648218517442477934,38134,13,1,0.0335027687252,0.0146502861753,-0.0293386057019,0.0,17.3999996185,0.011204939372976588,0.0048997612626421405,-0.00981224270966555,17.3999996185,0.0,0.01658640989289275,0.04688091489939147
1648218517442493831,38135,13,2,1.75142049789,0.0556710883975,0.321060299873,0.0,17.3999996185,0.5857593638428094,0.018619093109531772,0.10737802671337791,17.3999996185,0.0,0.8285980541174875,1.781474879605985
1648218517637427536,38136,15,0,0.00529174832627,0.0454158857465,0.010354465805,0.0,19.5,0.0017698154937357859,0.015189259446989964,0.0034630320418060196,19.5,0.0,0.015394092903179077,0.04688091552641263
1648218517637429990,38137,15,1,0.0335027687252,0.0146502861753,-0.0293386057019,0.0,19.5,0.011204939372976588,0.0048997612626421405,-0.00981224270966555,19.5,0.0,0.01658640989289275,0.04688091489939147
1648218517637432213,38138,15,2,1.62076210976,0.0512760020792,-0.250661075115,0.242756426334,19.5,0.5420609062742474,0.017149164574983278,-0.08383313548996656,19.5,0.03280492247756756,0.7667816808370794,1.6408321118873557
1648218517637504493,38139,15,3,1.68931245804,0.0556710883975,0.562829375267,-0.0809188112617,19.5,0.5649874441605351,0.018619093109531772,0.18823724925317725,19.5,-0.010934974494824324,0.799229813474403,1.781474882403889
1648218517742461091,38140,16,0,0.00529174832627,0.0454158857465,0.010354465805,0.0,16.0,0.0017698154937357859,0.015189259446989964,0.0034630320418060196,16.0,0.0,0.015394092903179077,0.04688091552641263
1648218517742478607,38141,16,1,0.0334885679185,0.0146502861753,-0.0293548125774,0.0,16.0,0.011200189939297658,0.0048997612626421405,-0.009817663069364548,16.0,0.0,0.01657999305740438,0.04688091389578978
1648218517742494550,38142,16,2,1.77220189571,-0.0556710883975,0.172782555223,0.0,16.0,0.5927096641170568,-0.018619093109531772,0.05778680776688963,16.0,0.0,0.8384248102863668,1.7814748498451696
1648218517742502129,38143,16,3,2.07001614571,-1.19546329975,-0.049298312515,0.0,16.0,0.6923130922107023,-0.39982050158862875,-0.01648772993812709,16.0,0.0,1.057568564577858,2.3909265292279622
