%time,field.header.seq,field.header.frame_id,field.point_id,field.x,field.y,field.z,field.velocity,field.intensity,normalized_x,normalized_y,normalized_z,normalized_intensity,normalized_velocity,normalized_range,range
1648219477254474802,75703,0,0,0.0122741637751,0.0439508594573,0.0107464920729,0.0,13.8000001907,0.004105071496688963,0.014699284099431437,0.003594144505986622,13.8000001907,0.0,0.015804182263617888,0.04688091546979662
1648219477254478465,75704,0,1,0.0334246940911,0.0146502861753,-0.0294275209308,0.0,13.8000001907,0.01117882745521739,0.0048997612626421405,-0.009841980244414716,13.8000001907,0.0,0.01655113370672634,0.04688091347482975
1648219477254483577,75705,0,2,1.93248546124,0.061531201005,0.372382670641,0.0,13.8000001907,0.6463162077725751,0.020578996991638794,0.12454269921103678,13.8000001907,0.0,0.9142607811648856,1.9689984763820454
1648219477359748734,75706,1,0,0.0122741637751,0.0439508594573,0.0107464920729,0.0,13.3999996185,0.004105071496688963,0.014699284099431437,0.003594144505986622,13.3999996185,0.0,0.015804182263617888,0.04688091546979662
1648219477359751310,75707,1,1,0.0334476083517,0.0146502861753,-0.0294014774263,0.0,13.3999996185,0.011186491087525082,0.0048997612626421405,-0.009833270042240803,13.3999996185,0.0,0.01656148622960647,0.04688091577940992
1648219477359754075,75708,1,2,1.81865918636,-0.0,0.622105002403,0.0,13.3999996185,0.6082472195183946,-0.0,0.20806187371337792,13.3999996185,0.0,0.8601914671186387,1.9221175484726354
1648219477359755666,75709,1,3,1.93128252029,0.36918720603,0.103939890862,0.0809188112617,13.3999996185,0.6459138863846153,0.12347398194983276,0.03476250530501672,13.3999996185,0.010934974494824324,0.9217674985957701,1.9689984426571638
1648219477359759623,75710,1,4,1.89620220661,0.314981162548,0.607432126999,0.242756426334,13.3999996185,0.6341813400033444,0.1053448704173913,0.20315455752474915,13.3999996185,0.03280492247756756,0.9030334909293962,2.0158793937195876
1648219477359831520,75711,1,5,1.95235061646,0.12306240201,0.223914071918,-0.0809188112617,13.3999996185,0.6529600723946488,0.04115799398327759,0.07488764947090301,13.3999996185,-0.010934974494824324,0.9243417618781364,1.968998424576087
1648219477554632705,75712,3,0,0.00567744718865,0.0454158857465,0.0101481107995,0.0,12.5,0.001898811768779264,0.015189259446989964,0.0033940169897993307,12.5,0.0,0.015424803882529047,0.046880915493599094
1648219477554638345,75713,3,1,0.0335725359619,0.0146502861753,-0.0292587447912,0.0,12.5,0.01122827289695652,0.0048997612626421405,-0.009785533374983278,12.5,0.0,0.01661793864857929,0.046880915122124354
1648219477554647512,75714,3,2,1.8615270853,0.117202289402,0.193630740047,-0.0809188112617,12.5,0.622584309464883,0.03919809010100334,0.06475944483177258,12.5,-0.010934974494824324,0.8813392848678065,1.8752366062547237
1648219477659745759,75715,4,0,0.00567744718865,0.0454158857465,0.0101481107995,0.0,14.3999996185,0.001898811768779264,0.015189259446989964,0.0033940169897993307,14.3999996185,0.0,0.015424803882529047,0.046880915493599094
1648219477659747556,75716,4,1,0.0334246940911,0.0146502861753,-0.0294275209308,0.0,14.3999996185,0.01117882745521739,0.0048997612626421405,-0.009841980244414716,14.3999996185,0.0,0.01655113370672634,0.04688091347482975
1648219477659749188,75717,4,2,2.04824066162,0.606521844864,0.295682132244,0.242756426334,14.3999996185,0.68503032161204,0.20285011533913042,0.098890345232107,14.3999996185,0.03280492247756756,0.9897884886928563,2.1565218476841648
1648219477659752449,75718,4,3,1.77823257446,-0.0571361146867,0.42131793499,-0.566431701183,14.3999996185,0.5947266135317726,-0.0191090684570903,0.14090900835785952,14.3999996185,-0.07654482448418919,0.8412874931812778,1.8283556620133756
1648219477659964368,75719,4,4,1.83638262749,0.117202289402,0.361212730408,-0.0809188112617,14.3999996185,0.6141747918026755,0.03919809010100334,0.12080693324682273,14.3999996185,-0.010934974494824324,0.8694583601526218,1.8752365631559524
1648219477854526211,75720,6,0,0.00573791889474,0.0454158857465,0.0101140420884,0.0,15.3000001907,0.0019190364196454846,0.015189259446989964,0.0033826227720401333,15.3000001907,0.0,0.015429808945927536,0.04688091550671427
1648219477854530502,75721,6,1,0.0334476083517,0.0146502861753,-0.0294014774263,0.0,15.3000001907,0.011186491087525082,0.0048997612626421405,-0.009833270042240803,15.3000001907,0.0,0.01656148622960647,0.04688091577940992
1648219477854539192,75722,6,2,0.805123567581,1.26578474045,-0.0115313772112,0.0809188112617,15.3000001907,0.26927209618093645,0.42333937807692307,-0.003856647896722408,15.3000001907,0.010934974494824324,0.5694129894847034,1.5001893016852301
1648219477959640619,75723,7,0,0.00567744718865,0.0454158857465,0.0101481107995,0.0,18.7000007629,0.001898811768779264,0.015189259446989964,0.0033940169897993307,18.7000007629,0.0,0.015424803882529047,0.046880915493599094
1648219477959644899,75724,7,1,0.0334614515305,0.0146502861753,-0.0293857175857,0.0,18.7000007629,0.011191120913210702,0.0048997612626421405,-0.009827999192541806,18.7000007629,0.0,0.016567740794057963,0.04688091319047343
1648219477959648107,75725,7,2,1.8623508215,0.175803437829,0.131358131766,0.0,18.7000007629,0.6228598065217391,0.05879713639765886,0.043932485540468226,18.7000007629,0.0,0.8828169574771213,1.8752366223693675
1648219477959656478,75726,7,3,0.487658262253,1.23208904266,0.30415931344,-0.485512852669,18.7000007629,0.16309640878026754,0.4120699139331103,0.1017255228896321,18.7000007629,-0.06560984495527027,0.47223139569800016,1.3595465706399112
1648219478154579612,75727,9,0,0.0122741637751,0.0439508594573,0.0107464920729,0.0,23.1000003815,0.004105071496688963,0.014699284099431437,0.003594144505986622,23.1000003815,0.0,0.015804182263617888,0.04688091546979662
1648219478154588596,75728,9,1,0.0334614515305,0.0146502861753,-0.0293857175857,0.0,23.1000003815,0.011191120913210702,0.0048997612626421405,-0.009827999192541806,23.1000003815,0.0,0.016567740794057963,0.04688091319047343
1648219478154594565,75729,9,2,0.726016819477,1.31266570091,0.0193960703909,0.0,23.1000003815,0.2428149897916388,0.4390186290668896,0.006486980063846154,23.1000003815,0.0,0.5573648672124917,1.5001892787430688
1648219478154719915,75730,9,3,1.85074687004,0.175803437829,0.245644822717,0.0,23.1000003815,0.6189788863010033,0.05879713639765886,0.08215545910267558,23.1000003815,0.0,0.8773407699528306,1.8752365729803315
1648219478154723873,75731,9,4,1.05658710003,1.2306240797,0.248028174043,-0.485512852669,23.1000003815,0.3533736120501672,0.4115799597658863,0.08295256656956522,23.1000003815,-0.06560984495527027,0.6474132240444681,1.6408320756879367
1648219478259646016,75732,10,0,0.0122741637751,0.0439508594573,0.0107464920729,0.0,25.7999992371,0.004105071496688963,0.014699284099431437,0.003594144505986622,25.7999992371,0.0,0.015804182263617888,0.04688091546979662
1648219478259648932,75733,10,1,0.0334246940911,0.0146502861753,-0.0294275209308,0.0,25.7999992371,0.01117882745521739,0.0048997612626421405,-0.009841980244414716,25.7999992371,0.0,0.01655113370672634,0.04688091347482975
1648219478259652833,75734,10,2,1.83598077297,0.175803437829,0.338792234659,-0.0809188112617,25.7999992371,0.6140403922976588,0.05879713639765886,0.11330843968528427,25.7999992371,-0.010934974494824324,0.8703725122007763,1.8752366319302887
1648219478454613835,75735,12,0,0.0122519116849,0.0439508594573,0.0107718538493,0.0,17.0,0.004097629326053512,0.014699284099431437,0.0036026267054515048,17.0,0.0,0.015800319149411678,0.046880915331514214
1648219478454628897,75736,12,1,0.0334476083517,0.0146502861753,-0.0294014774263,0.0,17.0,0.011186491087525082,0.0048997612626421405,-0.009833270042240803,17.0,0.0,0.01656148622960647,0.04688091577940992
1648219478454642777,75737,12,2,1.14019918442,1.17934799194,0.0376022197306,0.242756426334,17.0,0.38133751987290965,0.39443076653511705,0.012575993220936455,17.0,0.03280492247756756,0.6681408816373411,1.6408320429506524
1648219478454729305,75738,12,3,1.96703052521,0.440973609686,0.0101369898766,-0.242756426334,17.0,0.6578697408729096,0.14748281260401339,0.003390297617591973,17.0,-0.03280492247756756,0.9419853353030339,2.015879354056484
1648219478454753290,75739,12,4,0.724904060364,1.31266570091,0.0446184538305,-0.0809188112617,17.0,0.24244282955317725,0.4390186290668896,0.01492255980953177,17.0,-0.010934974494824324,0.5570407596139381,1.5001893032214233
1648219478454757635,75740,12,5,1.87298810482,0.0586011447012,0.0706684291363,-0.0809188112617,17.0,0.626417426361204,0.019599045050568562,0.023634926132541804,17.0,-0.010934974494824324,0.886104794403508,1.8752366682192676
1648219478559686555,75741,13,0,0.0122607154772,0.0439508594573,0.0107618328184,0.0,13.5,0.00410057373819398,0.014699284099431437,0.003599275190100334,13.5,0.0,0.015801846822461295,0.04688091548444185
1648219478559694625,75742,13,1,0.0334756672382,0.0146502861753,-0.0293695218861,0.0,13.5,0.011195875330501672,0.0048997612626421405,-0.009822582570602006,13.5,0.0,0.016574163908419644,0.04688091293777234
1648219478754540790,75743,15,0,0.012184693478,0.0439508594573,0.0108478311449,0.0,26.7000007629,0.004075148320401338,0.014699284099431437,0.003628037172207358,26.7000007629,0.0,0.015788686478055657,0.04688091554925538
1648219478754555896,75744,15,1,0.0334246940911,0.0146502861753,-0.0294275209308,0.0,26.7000007629,0.01117882745521739,0.0048997612626421405,-0.009841980244414716,26.7000007629,0.0,0.01655113370672634,0.04688091347482975
1648219478754562006,75745,15,2,1.81755888462,0.171408340335,-0.0999171063304,0.0,26.7000007629,0.607879225625418,0.05732720412541805,-0.03341709241819398,26.7000007629,0.0,0.8615803585428077,1.8283556946980908
1648219478754630969,75746,15,3,0.683522284031,1.2716448307,0.166798710823,-0.242756426334,26.7000007629,0.22860277057892975,0.42529927448160526,0.055785522014381264,26.7000007629,-0.03280492247756756,0.5342264747345505,1.4533083286574813
1648219478859751139,75747,16,0,0.0122829983011,0.0439508594573,0.0107363937423,0.0,17.0,0.004108026187658863,0.014699284099431437,0.003590767137892976,17.0,0.0,0.0158057176791432,0.04688091557222257
1648219478859753628,75748,16,1,0.0334385335445,0.0146502861753,-0.0294117927551,0.0,17.0,0.011183456034949833,0.0048997612626421405,-0.009836719984983276,17.0,0.0,0.01655738621287189,0.046880912573176205
1648219478859755475,75749,16,2,1.80732631683,0.171408340335,-0.216969057918,0.0,17.0,0.6044569621505016,0.05732720412541805,-0.07256490231371238,17.0,0.0,0.856751332953304,1.8283557659100478
1648219479054634874,75750,18,0,0.0122607154772,0.0439508594573,0.0107618328184,0.0,15.8000001907,0.00410057373819398,0.014699284099431437,0.003599275190100334,15.8000001907,0.0,0.015801846822461295,0.04688091548444185
1648219479054640026,75751,18,1,0.0334476083517,0.0146502861753,-0.0294014774263,0.0,15.8000001907,0.011186491087525082,0.0048997612626421405,-0.009833270042240803,15.8000001907,0.0,0.01656148622960647,0.04688091577940992
1648219479054641895,75752,18,2,1.81455945969,0.171408340335,0.144491508603,0.0,15.8000001907,0.6068760734749163,0.05732720412541805,0.04832491926521739,15.8000001907,0.0,0.8601648362061202,1.8283557224854345
1648219479159831141,75753,19,0,0.0122741637751,0.0439508594573,0.0107464920729,0.0,18.2000007629,0.004105071496688963,0.014699284099431437,0.003594144505986622,18.2000007629,0.0,0.015804182263617888,0.04688091546979662
1648219479159835476,75754,19,1,0.0334246940911,0.0146502861753,-0.0294275209308,0.0,18.2000007629,0.01117882745521739,0.0048997612626421405,-0.009841980244414716,18.2000007629,0.0,0.01655113370672634,0.04688091347482975
1648219479159840753,75755,19,2,1.79436576366,0.175803437829,0.51561319828,0.0809188112617,18.2000007629,0.6001223289832776,0.05879713639765886,0.17244588571237457,18.2000007629,0.010934974494824324,0.8507354011308048,1.8752366018153976
1648219479354641175,75756,21,0,0.0122607154772,0.0439508594573,0.0107618328184,0.0,15.1999998093,0.00410057373819398,0.014699284099431437,0.003599275190100334,15.1999998093,0.0,0.015801846822461295,0.04688091548444185
1648219479354671082,75757,21,1,0.0334385335445,0.0146502861753,-0.0294117927551,0.0,15.1999998093,0.011183456034949833,0.0048997612626421405,-0.009836719984983276,15.1999998093,0.0,0.01655738621287189,0.046880912573176205
1648219479354754437,75758,21,2,0.703484654427,1.2716448307,0.0115701844916,0.0,15.1999998093,0.23527914863779265,0.42529927448160526,0.003869626920267558,15.1999998093,0.0,0.5399926188773592,1.4533083305443055
1648219479354757255,75759,21,3,1.73120093346,0.108412116766,-0.00248890579678,-0.161837622523,15.1999998093,0.5789969677123745,0.03625823303210702,-0.0008324099654782608,15.1999998093,-0.021869948989594594,0.8196277427606141,1.7345939160871415
