%time,field.header.seq,field.header.frame_id,field.point_id,field.x,field.y,field.z,field.velocity,field.intensity,normalized_x,normalized_y,normalized_z,normalized_intensity,normalized_velocity,normalized_range,range
1648295849268477285,67339,0,0,0.0126898419112,0.0439508594573,0.0102523220703,0.0,16.1000003815,0.004244094284682274,0.014699284099431437,0.0034288702576254176,16.1000003815,0.0,0.015877456522703608,0.046880915547797754
1648295849268490957,67340,0,1,0.0335269682109,0.0146502861753,-0.0293109472841,0.0,16.1000003815,0.01121303284645485,0.0048997612626421405,-0.00980299240270903,16.1000003815,0.0,0.016597345319726262,0.046880914166899254
1648295849268519771,67341,0,2,1.95627319813,-0.12306240201,0.186562404037,0.0,16.1000003815,0.654271972618729,-0.04115799398327759,0.06239545285518394,16.1000003815,0.0,0.9261952325387631,1.96899840302381
1648295849268523440,67342,0,3,2.24086332321,-1.2306240797,0.597043156624,0.0,16.1000003815,0.7494526164581939,-0.4115799597658863,0.19967998549297658,16.1000003815,0.0,1.1369945083037798,2.625331329511913
1648295849268621990,67343,0,4,1.81681156158,0.0586011447012,0.460732012987,-0.0809188112617,16.1000003815,0.6076292848093645,0.019599045050568562,0.1540909742431438,16.1000003815,-0.010934974494824324,0.8595410508421187,1.875236607002461
1648295849373434386,67344,1,0,0.0127100823447,0.0439508594573,0.0102272182703,0.0,19.7999992371,0.004250863660434782,0.014699284099431437,0.003420474337892977,19.7999992371,0.0,0.01588107794688408,0.04688091545386831
1648295849373465763,67345,1,1,0.0335269682109,0.0146502861753,-0.0293109472841,0.0,19.7999992371,0.01121303284645485,0.0048997612626421405,-0.00980299240270903,19.7999992371,0.0,0.016597345319726262,0.046880914166899254
1648295849373467939,67346,1,2,1.85519444942,-0.117202289402,0.247041359544,0.0,19.7999992371,0.6204663710434781,-0.03919809010100334,0.08262252827558528,19.7999992371,0.0,0.8783470415839587,1.875236586440547
1648295849373470240,67347,1,3,2.24012923241,-1.2306240797,0.59979134798,0.0,19.7999992371,0.7492071011404682,-0.4115799597658863,0.2005991130367893,19.7999992371,0.0,1.1366708512491626,2.625331267582618
1648295849568507971,67348,3,0,0.0127004906535,0.0439508594573,0.0102391270921,0.0,15.5,0.004247655736956521,0.014699284099431437,0.003424457221438127,15.5,0.0,0.01587936118221376,0.046880915450566385
1648295849568550049,67349,3,1,0.0335269682109,0.0146502861753,-0.0293109472841,0.0,15.5,0.01121303284645485,0.0048997612626421405,-0.00980299240270903,15.5,0.0,0.016597345319726262,0.046880914166899254
1648295849568684269,67350,3,2,1.91734874249,-0.0600661747158,0.121250525117,0.0,15.5,0.6412537600301003,-0.020089021644080267,0.040552015089297656,15.5,0.0,0.9070922435431246,1.9221175394637346
1648295849568689024,67351,3,3,2.24013805389,-1.2306240797,0.599758803844,0.0,15.5,0.7492100514682274,-0.4115799597658863,0.20058822871036788,15.5,0.0,1.1366747405141615,2.6253313598119257
1648295849568788402,67352,3,4,1.72874474525,-0.34281668067,0.486624151468,-0.323675245047,15.5,0.578175500083612,-0.1146544082508361,0.16275055233043476,15.5,-0.04373989797932432,0.8256630372768414,1.828355746447347
1648295849568791883,67353,3,5,1.75227069855,-0.285680562258,0.43682795763,-0.161837622523,15.5,0.5860437118896321,-0.09554533854782607,0.14609630689966555,15.5,-0.021869948989594594,0.8342801545098475,1.828355722832991
1648295849673418261,67354,4,0,0.0127207012847,0.0439508594573,0.0102140065283,0.0,23.3999996185,0.004254415145384615,0.014699284099431437,0.003416055695083612,23.3999996185,0.0,0.01588297986822227,0.04688091528084813
1648295849673420360,67355,4,1,0.0335041433573,0.0146502861753,-0.0293370354921,0.0,23.3999996185,0.011205399116153847,0.0048997612626421405,-0.009811717555886288,23.3999996185,0.0,0.016587031052466603,0.046880914651800804
1648295849673422212,67356,4,2,1.85492527485,-0.175803437829,0.211795642972,0.0,23.3999996185,0.6203763461036789,-0.05879713639765886,0.07083466320133779,23.3999996185,0.0,0.8793126434087412,1.8752365233249289
1648295849673427321,67357,4,3,2.24067044258,-1.2306240797,0.597766876221,0.0,23.3999996185,0.7493881078862875,-0.4115799597658863,0.19992203218093643,23.3999996185,0.0,1.136909466828238,2.6253313878625186
1648295849673551536,67358,4,4,1.73564469814,0.114272229373,0.563350439072,-0.404594063759,23.3999996185,0.5804831766354515,0.03821813691404682,0.18841151808428092,23.3999996185,-0.05467487348094594,0.8218163193212644,1.828355648606141
1648295849868517630,67359,6,0,0.0127004906535,0.0439508594573,0.0102391270921,0.0,30.3999996185,0.004247655736956521,0.014699284099431437,0.003424457221438127,30.3999996185,0.0,0.01587936118221376,0.046880915450566385
1648295849868521255,67360,6,1,0.0335772000253,0.0146502861753,-0.0292533896863,0.0,30.3999996185,0.01122983278438127,0.0048997612626421405,-0.00978374237,30.3999996185,0.0,0.016620046605266104,0.04688091354374097
1648295849868672193,67361,6,2,2.23910927773,-1.2306240797,0.603587806225,0.0,30.3999996185,0.748865979173913,-0.4115799597658863,0.2018688315133779,30.3999996185,0.0,1.1362211812887029,2.6253312596656335
1648295849973390934,67362,7,0,0.0127004906535,0.0439508594573,0.0102391270921,0.0,15.3000001907,0.004247655736956521,0.014699284099431437,0.003424457221438127,15.3000001907,0.0,0.01587936118221376,0.046880915450566385
1648295849973392924,67363,7,1,0.0335269682109,0.0146502861753,-0.0293109472841,0.0,15.3000001907,0.01121303284645485,0.0048997612626421405,-0.00980299240270903,15.3000001907,0.0,0.016597345319726262,0.046880914166899254
1648295849973394668,67364,7,2,2.23837018013,-1.2306240797,0.60632365942,0.0,15.3000001907,0.748618789341137,-0.4115799597658863,0.20278383258193977,15.3000001907,0.0,1.1358953502810318,2.6253314207553187
1648295849973400819,67365,7,3,1.96635603905,-0.061531201005,0.0813185870647,-0.0809188112617,15.3000001907,0.6576441602173912,-0.020578996991638794,0.027196851861103676,15.3000001907,-0.010934974494824324,0.9302769362148335,1.968998444287786
1648295850168286608,67366,9,0,0.0127004906535,0.0439508594573,0.0102391270921,0.0,14.8000001907,0.004247655736956521,0.014699284099431437,0.003424457221438127,14.8000001907,0.0,0.01587936118221376,0.046880915450566385
1648295850168293262,67367,9,1,0.0335269682109,0.0146502861753,-0.0293109472841,0.0,14.8000001907,0.01121303284645485,0.0048997612626421405,-0.00980299240270903,14.8000001907,0.0,0.016597345319726262,0.046880914166899254
1648295850168298950,67368,9,2,2.23942494392,-1.2306240797,0.602415859699,0.0,14.8000001907,0.7489715531505017,-0.4115799597658863,0.2014768761535117,14.8000001907,0.0,1.136360346957882,2.6253313263292033
1648295850168320023,67369,9,3,1.91679334641,-0.0600661747158,0.129735857248,-0.0809188112617,14.8000001907,0.6410680088327758,-0.020089021644080267,0.04338991881204013,14.8000001907,-0.010934974494824324,0.9068296161287721,1.9221176006796536
1648295850273362519,67370,10,0,0.0127004906535,0.0439508594573,0.0102391270921,0.0,19.2999992371,0.004247655736956521,0.014699284099431437,0.003424457221438127,19.2999992371,0.0,0.01587936118221376,0.046880915450566385
1648295850273365213,67371,10,1,0.0335041433573,0.0146502861753,-0.0293370354921,0.0,19.2999992371,0.011205399116153847,0.0048997612626421405,-0.009811717555886288,19.2999992371,0.0,0.016587031052466603,0.046880914651800804
1648295850273367089,67372,10,2,2.24066019058,-1.2306240797,0.597804903984,0.0,19.2999992371,0.7493846791237457,-0.4115799597658863,0.19993475049632106,19.2999992371,0.0,1.1369049467267205,2.625331296887079
1648295850468304818,67373,12,0,0.0127004906535,0.0439508594573,0.0102391270921,0.0,16.0,0.004247655736956521,0.014699284099431437,0.003424457221438127,16.0,0.0,0.01587936118221376,0.046880915450566385
1648295850468325696,67374,12,1,0.0335269682109,0.0146502861753,-0.0293109472841,0.0,16.0,0.01121303284645485,0.0048997612626421405,-0.00980299240270903,16.0,0.0,0.016597345319726262,0.046880914166899254
1648295850468328634,67375,12,2,1.91370105743,-0.0,0.179678276181,0.0,16.0,0.6400337984715718,-0.0,0.06009306895685618,16.0,0.0,0.9051444781756652,1.9221175874904417
1648295850468488166,67376,12,3,2.24033784866,-1.2306240797,0.599012196064,0.0,16.0,0.7492768724615384,-0.4115799597658863,0.2003385271117057,16.0,0.0,1.1367628277228181,2.6253313910265508
1648295850573325879,67377,13,0,0.0127217965201,0.0439508594573,0.010212643072,0.0,16.2999992371,0.004254781444849498,0.014699284099431437,0.0034155996896321067,16.2999992371,0.0,0.015883176109414296,0.046880915437416903
1648295850573333540,67378,13,1,0.0335269682109,0.0146502861753,-0.0293109472841,0.0,16.2999992371,0.01121303284645485,0.0048997612626421405,-0.00980299240270903,16.2999992371,0.0,0.016597345319726262,0.046880914166899254
1648295850573343045,67379,13,2,1.90295410156,-0.120132349432,0.242631539702,0.0,16.2999992371,0.6364394988494982,-0.040178043288294316,0.08114767214113712,16.2999992371,0.0,0.9009576829985285,1.922117623373305
1648295850573345665,67380,13,3,2.24158167839,-1.2306240797,0.594340741634,0.0,16.2999992371,0.7496928690267559,-0.4115799597658863,0.19877616777056853,16.2999992371,0.0,1.1373112410505868,2.6253314007182516
1648295850768491183,67381,15,0,0.0127217965201,0.0439508594573,0.010212643072,0.0,15.8000001907,0.004254781444849498,0.014699284099431437,0.0034155996896321067,15.8000001907,0.0,0.015883176109414296,0.046880915437416903
1648295850768509818,67382,15,1,0.0335269682109,0.0146502861753,-0.0293109472841,0.0,15.8000001907,0.01121303284645485,0.0048997612626421405,-0.00980299240270903,15.8000001907,0.0,0.016597345319726262,0.046880914166899254
1648295850768514115,67383,15,2,2.241938591,-1.2306240797,0.59299248457,0.0,15.8000001907,0.7498122377926421,-0.4115799597658863,0.19832524567558527,15.8000001907,0.0,1.1374686137068168,2.6253312854017183
