%time,field.header.seq,field.header.frame_id,field.point_id,field.x,field.y,field.z,field.velocity,field.intensity,normalized_x,normalized_y,normalized_z,normalized_intensity,normalized_velocity,normalized_range,range
1648125689492544324,35420,0,0,0.0126200383529,0.0439508594573,0.0103381248191,0.0,12.0,0.004220748613010033,0.014699284099431437,0.0034575668291304345,12.0,0.0,0.015865005223580926,0.04688091551835667
1648125689492549449,35421,0,1,0.0328744277358,0.0146502861753,-0.0300409924239,0.0,12.0,0.010994791884882943,0.0048997612626421405,-0.010047154656822743,12.0,0.0,0.01630271626492543,0.04688091413131083
1648125689492573101,35422,0,2,1.18376517296,-0.076181486249,0.280397564173,0.0,12.0,0.39590808460200666,-0.02547875794280936,0.09377844955618728,12.0,0.0,0.560478001363807,1.2189037687833593
1648125689492582078,35423,0,3,1.31145191193,0.0410208031535,0.0387618280947,0.0,12.0,0.43861267957525085,0.013719332158361203,0.012963822105250836,12.0,0.0,0.6204437004622053,1.3126657239805777
1648125689492606904,35424,0,4,2.39025187492,-0.984499275684,0.458063691854,0.0,12.0,0.7994153427826087,-0.32926397180066885,0.15319855914849498,12.0,0.0,1.1775162604730447,2.625331444822884
1648125689492651270,35425,0,5,1.37060308456,-0.108412116766,1.05759644508,0.242756426334,12.0,0.4583956804548494,-0.03625823303210702,0.3537111856454849,12.0,0.03280492247756756,0.6492825726769043,1.7345939706781308
1648125689687488064,35426,2,0,0.0127079915255,0.0439508594573,0.0102298166603,0.0,15.1000003815,0.004250164389799331,0.014699284099431437,0.0034213433646488292,15.1000003815,0.0,0.015880703627876018,0.0468809155686071
1648125689687491041,35427,2,1,0.0328744277358,0.0146502861753,-0.0300409924239,0.0,15.1000003815,0.010994791884882943,0.0048997612626421405,-0.010047154656822743,15.1000003815,0.0,0.01630271626492543,0.04688091413131083
1648125689687493618,35428,2,2,1.17259299755,-0.0380907431245,0.33060747385,0.0,15.1000003815,0.3921715710869565,-0.01273937897140468,0.1105710614882943,15.1000003815,0.0,0.5547606457871724,1.2189038290121783
1648125689687599409,35429,2,3,2.38480520248,-0.984499275684,0.485623061657,0.0,15.1000003815,0.7975937132040133,-0.32926397180066885,0.16241573968461537,15.1000003815,0.0,1.1750430740237072,2.625331300162155
1648125689792538423,35430,3,0,0.0126200383529,0.0439508594573,0.0103381248191,0.0,12.3000001907,0.004220748613010033,0.014699284099431437,0.0034575668291304345,12.3000001907,0.0,0.015865005223580926,0.04688091551835667
1648125689792544277,35431,3,1,0.032850060612,0.0146502861753,-0.0300676375628,0.0,12.3000001907,0.010986642345150502,0.0048997612626421405,-0.01005606607451505,12.3000001907,0.0,0.01629172429399039,0.046880915049070465
1648125689792547044,35432,3,2,1.30420768261,-0.082041606307,0.12410800159,0.0,12.3000001907,0.4361898604046822,-0.027438664316722407,0.04150769283946488,12.3000001907,0.0,0.6174755614104886,1.312665723100532
1648125689792553599,35433,3,3,1.96293866634,-1.04603040218,0.877053022385,0.0,12.3000001907,0.6565012262006689,-0.34984294387290965,0.2933287700284281,12.3000001907,0.0,0.9921581554286732,2.3909265597613354
1648125689792564006,35434,3,4,1.33960604668,-0.224149376154,-1.96767437458,0.0,12.3000001907,0.4480287781538461,-0.07496634653979932,-0.6580850751103678,12.3000001907,0.0,0.6380278404753054,2.390926545820812
1648125689792572010,35435,3,5,2.38766527176,-0.984499275684,0.471361249685,0.0,12.3000001907,0.7985502581137123,-0.32926397180066885,0.15764590290468225,12.3000001907,0.0,1.1763416989093367,2.6253315412525864
1648125689792580448,35436,3,6,1.22713637352,-0.386767566204,0.859053909779,0.0809188112617,12.3000001907,0.4104135028494983,-0.1293537010715719,0.28730899992608694,12.3000001907,0.010934974494824324,0.5946518869248663,1.5470702793957904
1648125689792753745,35437,3,7,0.388425201178,0.145037829876,-1.49047517776,0.0809188112617,12.3000001907,0.12990809403946488,0.048507635410033445,-0.4984866815250836,12.3000001907,0.010934974494824324,0.1900137271015061,1.5470702519678972
1648125689987575272,35438,5,0,0.0126158669591,0.0439508594573,0.0103432154283,0.0,14.3999996185,0.004219353498026756,0.014699284099431437,0.003459269374013378,14.3999996185,0.0,0.015864263012142076,0.0468809156433753
1648125689987582692,35439,5,1,0.032850060612,0.0146502861753,-0.0300676375628,0.0,14.3999996185,0.010986642345150502,0.0048997612626421405,-0.01005606607451505,14.3999996185,0.0,0.01629172429399039,0.046880915049070465
1648125689987741285,35440,5,2,1.31003749371,-0.0410208031535,0.0721830576658,0.0,14.3999996185,0.43813963000334444,-0.013719332158361203,0.024141490858127085,14.3999996185,0.0,0.6197748710893388,1.3126657362144105
1648125689987744805,35441,5,3,2.38502120972,-0.984499275684,0.48456171155,0.0,14.3999996185,0.7976659564280936,-0.32926397180066885,0.16206077309364547,14.3999996185,0.0,1.1751411486347683,2.6253314165904538
1648125690092711876,35442,6,0,0.0126303331926,0.0439508594573,0.0103255445138,0.0,12.3000001907,0.004224191703210702,0.014699284099431437,0.003453359369163879,12.3000001907,0.0,0.015866837874218862,0.04688091544645748
1648125690092714717,35443,6,1,0.032850060612,0.0146502861753,-0.0300676375628,0.0,12.3000001907,0.010986642345150502,0.0048997612626421405,-0.01005606607451505,12.3000001907,0.0,0.01629172429399039,0.046880915049070465
1648125690092717430,35444,6,2,1.18276751041,-0.0380907431245,0.292124152184,0.0,12.3000001907,0.39557441819732436,-0.01273937897140468,0.09770038534581939,12.3000001907,0.0,0.5595717402093143,1.2189037733481947
1648125690092719861,35445,6,3,2.39032435417,-0.984499275684,0.45768520236,0.0,12.3000001907,0.7994395833344481,-0.32926397180066885,0.1530719740334448,12.3000001907,0.0,1.1775491743149682,2.6253314241100805
1648125690287598555,35446,8,0,0.0127079915255,0.0439508594573,0.0102298166603,0.0,11.8000001907,0.004250164389799331,0.014699284099431437,0.0034213433646488292,11.8000001907,0.0,0.015880703627876018,0.0468809155686071
1648125690287692946,35447,8,1,0.0328744277358,0.0146502861753,-0.0300409924239,0.0,11.8000001907,0.010994791884882943,0.0048997612626421405,-0.010047154656822743,11.8000001907,0.0,0.01630271626492543,0.04688091413131083
1648125690287698361,35448,8,2,1.24510061741,-0.039555773139,0.224434792995,0.0,11.8000001907,0.4164216111739131,-0.013229355564882942,0.07506180367725752,11.8000001907,0.0,0.5890576647103554,1.2657848091086004
1648125690287702079,35449,8,3,2.38470673561,-0.984499275684,0.486106932163,0.0,11.8000001907,0.7975607811404681,-0.32926397180066885,0.16257756928528427,11.8000001907,0.0,1.1749983669574775,2.625331405400649
1648125690287706736,35450,8,4,1.3429158926,-0.483459472656,0.596883714199,-0.0809188112617,11.8000001907,0.4491357500334448,-0.16169213132307692,0.19962666026722406,11.8000001907,-0.010934974494824324,0.6554313001741747,1.5470702390565418
1648125690392719404,35451,9,0,0.0126200383529,0.0439508594573,0.0103381248191,0.0,11.5,0.004220748613010033,0.014699284099431437,0.0034575668291304345,11.5,0.0,0.015865005223580926,0.04688091551835667
1648125690392729071,35452,9,1,0.032850060612,0.0146502861753,-0.0300676375628,0.0,11.5,0.010986642345150502,0.0048997612626421405,-0.01005606607451505,11.5,0.0,0.01629172429399039,0.046880915049070465
1648125690392734564,35453,9,2,1.17982316017,-0.076181486249,0.296547442675,0.0,11.5,0.3945896856755853,-0.02547875794280936,0.09917974671404682,11.5,0.0,0.5586154376576274,1.2189038903366067
1648125690392737484,35454,9,3,1.35696685314,-0.0424858294427,0.0721292570233,0.0,11.5,0.45383506793979933,-0.01420930750591973,0.024123497332207356,11.5,0.0,0.6419769794966501,1.359546511136284
1648125690392740755,35455,9,4,2.38436293602,-0.984499275684,0.487790256739,0.0,11.5,0.7974457979999999,-0.32926397180066885,0.16314055409331102,11.5,0.0,1.174842272231326,2.6253313636677817
1648125690392897701,35456,9,5,1.16759049892,-0.846786499023,0.67850202322,-0.242756426334,11.5,0.3904984946220736,-0.283206186964214,0.22692375358528424,11.5,-0.03280492247756756,0.6206318497620152,1.5939510480593555
1648125690587565064,35457,11,0,0.0126260910183,0.0439508594573,0.0103307310492,0.0,24.1000003815,0.004222772915819397,0.014699284099431437,0.0034550939963879593,24.1000003815,0.0,0.015866082542107033,0.04688091536487569
1648125690587612513,35458,11,1,0.0328889451921,0.0146502861753,-0.0300250984728,0.0,24.1000003815,0.010999647221438126,0.0048997612626421405,-0.010041838954113712,24.1000003815,0.0,0.016309265416415034,0.04688091444467014
1648125690587644907,35459,11,2,1.17939352989,-0.076181486249,0.29825130105,0.0,24.1000003815,0.3944459966187291,-0.02547875794280936,0.0997495990133779,24.1000003815,0.0,0.558412442199664,1.2189038336848066
1648125690587649949,35460,11,3,2.38220858574,-0.984499275684,0.498205035925,0.0,24.1000003815,0.7967252795117056,-0.32926397180066885,0.16662375783444813,24.1000003815,0.0,1.1738641766200903,2.6253313748204667
1648125690587655043,35461,11,4,1.30084097385,0.597731649876,0.700863540173,-0.404594063759,24.1000003815,0.43506387085284276,0.19991025079464883,0.23440252179698995,24.1000003815,-0.05467487348094594,0.646935276372913,1.5939510865940434
1648125690587661576,35462,11,5,1.35577356815,0.290075659752,0.686411201954,-0.161837622523,24.1000003815,0.45343597596989965,0.09701527082006689,0.22956896386421402,24.1000003815,-0.021869948989594594,0.6485524893020161,1.5470701970636873
1648125690587664861,35463,11,6,1.07603490353,-0.773535132408,0.798259794712,-0.161837622523,24.1000003815,0.3598778941571906,-0.2587074021431438,0.26697651997056854,24.1000003815,-0.021869948989594594,0.5709235652254009,1.5470702681319692
1648125690692666896,35464,12,0,0.0126200383529,0.0439508594573,0.0103381248191,0.0,30.6000003815,0.004220748613010033,0.014699284099431437,0.0034575668291304345,30.6000003815,0.0,0.015865005223580926,0.04688091551835667
1648125690692679912,35465,12,1,0.0329259596765,0.0146502861753,-0.0299845039845,0.0,30.6000003815,0.011012026647658862,0.0048997612626421405,-0.010028262202173913,30.6000003815,0.0,0.016325964663945168,0.046880914931698874
1648125690692688903,35466,12,2,1.17618906498,-0.0380907431245,0.317576438189,0.0,30.6000003815,0.39337426922408025,-0.01273937897140468,0.10621285558160534,30.6000003815,0.0,0.5564610706525079,1.2189037760968315
1648125690692715779,35467,12,3,2.38967967033,-0.984499275684,0.461038649082,0.0,30.6000003815,0.7992239700100334,-0.32926397180066885,0.1541935281210702,30.6000003815,0.0,1.1772564171000086,2.6253312908199176
1648125690692792414,35468,12,4,1.26244854927,0.580151319504,0.680495798588,-0.485512852669,30.6000003815,0.42222359507357854,0.19403054164013378,0.2275905680896321,30.6000003815,-0.06560984495527027,0.6278482137928547,1.5470702715042002
1648125690692811645,35469,12,5,1.24627530575,-0.609451889992,0.57090651989,-0.161837622523,30.6000003815,0.4168144835284281,-0.20383006354247488,0.1909386354147157,30.6000003815,-0.021869948989594594,0.6237109283649517,1.5001893208492012
1648125690692815993,35470,12,6,0.158384621143,-0.046880915761,-1.49106824398,-0.161837622523,30.6000003815,0.052971445198327756,-0.015679236040468225,-0.4986850314314381,30.6000003815,-0.021869948989594594,0.07653617743009902,1.5001893269460365
1648125690887673862,35471,14,0,0.0126200383529,0.0439508594573,0.0103381248191,0.0,35.5999984741,0.004220748613010033,0.014699284099431437,0.0034575668291304345,35.5999984741,0.0,0.015865005223580926,0.04688091551835667
1648125690887675077,35472,14,1,0.0329016707838,0.0146502861753,-0.030011150986,0.0,35.5999984741,0.01100390327217391,0.0048997612626421405,-0.010037174242809364,35.5999984741,0.0,0.016315006432043106,0.04688091305518946
1648125690887676385,35473,14,2,1.35687589645,0.0424858294427,0.0738211795688,0.0,35.5999984741,0.45380464764214046,0.01420930750591973,0.02468935771531772,35.5999984741,0.0,0.6419339692390583,1.3595465459569065
1648125690887677483,35474,14,3,2.38555335999,-0.984499275684,0.481935203075,0.0,35.5999984741,0.7978439331070233,-0.32926397180066885,0.16118234216555183,35.5999984741,0.0,1.1753827658755764,2.6253314451978897
1648125690887682251,35475,14,4,1.17893588543,-0.076181486249,0.300054848194,0.0809188112617,35.5999984741,0.394292938270903,-0.02547875794280936,0.1003527920381271,35.5999984741,0.010934974494824324,0.5581962105271878,1.2189037503947757
1648125690887683272,35476,14,5,1.24394309521,-0.615312039852,0.228111669421,-0.647350490093,35.5999984741,0.4160344800033444,-0.20578997988361203,0.07629152823444815,35.5999984741,-0.08747979595851352,0.6233128371241874,1.406427482749644
1648125690887684246,35477,14,6,1.24012124538,0.39555773139,0.532608568668,-0.647350490093,35.5999984741,0.4147562693578595,0.13229355564882941,0.17812995607625418,35.5999984741,-0.08747979595851352,0.6012878768190063,1.4064275699529718
1648125690887685870,35478,14,7,1.25732088089,-0.54499065876,0.483977675438,-0.566431701183,35.5999984741,0.4205086558160535,-0.18227112333110365,0.161865443290301,35.5999984741,-0.07654482448418919,0.6219950334470773,1.4533082969487356
1648125690887686930,35479,14,8,1.39840865135,0.363327085972,0.156689941883,-0.566431701183,35.5999984741,0.4676952011204013,0.12151407557591971,0.05240466283712374,35.5999984741,-0.07654482448418919,0.6724903515034067,1.4533083174119417
1648125690992630394,35480,15,0,0.0126303331926,0.0439508594573,0.0103255445138,0.0,30.5,0.004224191703210702,0.014699284099431437,0.003453359369163879,30.5,0.0,0.015866837874218862,0.04688091544645748
1648125690992635201,35481,15,1,0.0329259596765,0.0146502861753,-0.0299845039845,0.0,30.5,0.011012026647658862,0.0048997612626421405,-0.010028262202173913,30.5,0.0,0.016325964663945168,0.046880914931698874
1648125690992638081,35482,15,2,2.27835202217,-0.931758165359,0.338549882174,0.0,30.5,0.7619906428662206,-0.311624804467893,0.11322738534247491,30.5,0.0,1.1217706977769588,2.4846885596306283
1648125690992640813,35483,15,3,1.02869164944,-1.78586983681,-1.38785421848,0.0,30.5,0.34404402991304345,-0.5972808818762542,-0.4641652904615384,30.5,0.0,0.7703746107527754,2.4846884946423557
1648125690992643469,35484,15,4,2.40983867645,-0.902457654476,0.520204901695,0.0,30.5,0.8059661125250837,-0.30182530250033446,0.17398157247324414,30.5,0.0,1.1790934069474777,2.6253314846670537
1648125690992648131,35485,15,5,1.23668479919,-0.039555773139,0.26694008708,0.0809188112617,30.5,0.4136069562508361,-0.013229355564882942,0.08927762109698996,30.5,0.010934974494824324,0.585078152358148,1.2657847217542615
1648125691187753313,35486,17,0,0.0126303331926,0.0439508594573,0.0103255445138,0.0,32.4000015259,0.004224191703210702,0.014699284099431437,0.003453359369163879,32.4000015259,0.0,0.015866837874218862,0.04688091544645748
1648125691187761620,35487,17,1,0.0329132191837,0.0146502861753,-0.0299984868616,0.0,32.4000015259,0.011007765613277591,0.0048997612626421405,-0.010032938749698996,32.4000015259,0.0,0.01632021654343476,0.046880913984670265
1648125691187769960,35488,17,2,2.29437708855,-0.931758165359,0.203316062689,0.0,32.4000015259,0.7673501968394648,-0.311624804467893,0.06799868317357859,32.4000015259,0.0,1.1290538817695033,2.4846884964767115
1648125691187882213,35489,17,3,2.42070865631,-0.902457654476,0.467017143965,0.0,32.4000015259,0.8096015572943143,-0.30182530250033446,0.1561930247374582,32.4000015259,0.0,1.1840641352461345,2.6253314513816566
1648125691187886461,35490,17,4,1.35225665569,-0.0424858294427,0.134029328823,0.0809188112617,32.4000015259,0.4522597510668896,-0.01420930750591973,0.0448258624826087,32.4000015259,0.010934974494824324,0.6397496926845434,1.3595466044038655
1648125691187996823,35491,17,5,1.12018251419,-0.293005734682,0.181594729424,-0.404594063759,32.4000015259,0.3746429813344481,-0.09799522899063544,0.060734023218729095,32.4000015259,-0.05467487348094594,0.5388114622307643,1.1720229824573167
1648125691188000075,35492,17,6,0.567533433437,0.146502867341,1.01492881775,-0.404594063759,32.4000015259,0.18981051285518394,0.04899761449531772,0.3394410761705685,32.4000015259,-0.05467487348094594,0.27286778447982396,1.1720229491385128
1648125691292566093,35493,18,0,0.0126303331926,0.0439508594573,0.0103255445138,0.0,34.4000015259,0.004224191703210702,0.014699284099431437,0.003453359369163879,34.4000015259,0.0,0.015866837874218862,0.04688091544645748
1648125691292569459,35494,18,1,0.032850060612,0.0146502861753,-0.0300676375628,0.0,34.4000015259,0.010986642345150502,0.0048997612626421405,-0.01005606607451505,34.4000015259,0.0,0.01629172429399039,0.046880915049070465
1648125691292579914,35495,18,2,1.35539233685,-0.0,-0.10619956255,0.0,34.4000015259,0.45330847386287626,-0.0,-0.035518248344481605,34.4000015259,0.0,0.6410749916755293,1.3595465177321133
1648125691292585883,35496,18,3,1.85843491554,-1.31852579117,0.549782514572,0.0,34.4000015259,0.6215501389765886,-0.44097852547491634,0.18387375069297657,34.4000015259,0.0,0.9834181259533834,2.3440459489113588
1648125691292588582,35497,18,4,2.4194829464,-0.902457654476,0.473325967789,0.0,34.4000015259,0.8091916208695652,-0.30182530250033446,0.1583029992605351,34.4000015259,0.0,1.1835035580007551,2.6253314110462593
1648125691292596674,35498,18,5,1.11707341671,-0.0380907431245,0.486233025789,0.0809188112617,34.4000015259,0.37360314940133776,-0.01273937897140468,0.1626197410665552,34.4000015259,0.010934974494824324,0.5285082007516758,1.2189038019465919
1648125691292676147,35499,18,6,1.14674901962,-0.146502867341,0.192720934749,0.161837622523,34.4000015259,0.38352810020735784,-0.04899761449531772,0.06445516212341137,34.4000015259,0.021869948989594594,0.5445992779315467,1.172022936136104
1648125691292684256,35500,18,7,1.12940073013,0.183128580451,0.254077970982,-0.323675245047,34.4000015259,0.37772599669899665,0.061247016873244145,0.08497591002742474,34.4000015259,-0.04373989797932432,0.537684902373474,1.172022909987047
1648125691292749305,35501,18,8,1.36189544201,-0.317911207676,0.39532071352,-0.161837622523,34.4000015259,0.45548342542140463,-0.10632481862073578,0.13221428545819397,34.4000015259,-0.021869948989594594,0.6528669609667539,1.4533083628299908
1648125691292753228,35502,18,9,0.398453503847,0.181663542986,-1.3857626915,-0.161837622523,34.4000015259,0.13326204142040132,0.06075703778795986,-0.4634657831103679,34.4000015259,-0.021869948989594594,0.19801252740125586,1.4533083206021709
1648125691487605524,35503,20,0,0.0126200383529,0.0439508594573,0.0103381248191,0.0,23.7000007629,0.004220748613010033,0.014699284099431437,0.0034575668291304345,23.7000007629,0.0,0.015865005223580926,0.04688091551835667
1648125691487630659,35504,20,1,0.0328744277358,0.0146502861753,-0.0300409924239,0.0,23.7000007629,0.010994791884882943,0.0048997612626421405,-0.010047154656822743,23.7000007629,0.0,0.01630271626492543,0.04688091413131083
1648125691487633990,35505,20,2,1.24866235256,-0.079111546278,0.191819727421,0.0,23.7000007629,0.4176128269431438,-0.026458711129765885,0.064153754990301,23.7000007629,0.0,0.5911861042425952,1.2657847823714097
1648125691487662306,35506,20,3,2.42279171944,-0.902457654476,0.456087648869,0.0,23.7000007629,0.8102982339264214,-0.30182530250033446,0.1525376752070234,23.7000007629,0.0,1.1850168644529806,2.6253314985655063
1648125691487802612,35507,20,4,1.09358537197,-0.0351606868207,0.262257695198,0.242756426334,23.7000007629,0.3657476160434782,-0.011759427030334446,0.0877116037451505,23.7000007629,0.03280492247756756,0.5173788954016746,1.1251419192150978
1648125691487807319,35508,20,5,1.41301381588,-0.093761831522,0.495145082474,-0.161837622523,23.7000007629,0.47257987153177256,-0.03135847208093645,0.16560036203143813,23.7000007629,-0.021869948989594594,0.6690641402176806,1.5001893139255136
1648125691592631378,35509,21,0,0.0126303331926,0.0439508594573,0.0103255445138,0.0,20.1000003815,0.004224191703210702,0.014699284099431437,0.003453359369163879,20.1000003815,0.0,0.015866837874218862,0.04688091544645748
1648125691592640053,35510,21,1,0.0328144170344,0.0146502861753,-0.0301065333188,0.0,20.1000003815,0.010974721416187291,0.0048997612626421405,-0.010069074688561873,20.1000003815,0.0,0.016275646861391668,0.046880915080677786
1648125691592666303,35511,21,2,1.22948849201,-0.039555773139,0.298335939646,0.0,20.1000003815,0.41120016455183944,-0.013229355564882942,0.0997779062361204,20.1000003815,0.0,0.5816753102062883,1.265784714735531
1648125691592760996,35512,21,3,1.35850095749,-0.0424858294427,0.032203219831,0.0,20.1000003815,0.45434814631772574,-0.01420930750591973,0.010770307635785953,20.1000003815,0.0,0.6427024043400684,1.3595465952192167
1648125691592781578,35513,21,4,2.42269444466,-0.902457654476,0.456603288651,0.0,20.1000003815,0.8102657005551839,-0.30182530250033446,0.15271012998361203,20.1000003815,0.0,1.184972372767308,2.6253313607077597
1648125691592797924,35514,21,5,1.12415552139,-0.109877154231,0.312792688608,0.242756426334,20.1000003815,0.3759717462842809,-0.0367482121173913,0.10461293933377927,20.1000003815,0.03280492247756756,0.5329727376723206,1.1720229909605644
1648125691787647097,35515,23,0,0.0126405349001,0.0439508594573,0.0103130536154,0.0,33.7000007629,0.004227603645518395,0.014699284099431437,0.003449181811170568,33.7000007629,0.0,0.01586865521091812,0.046880915567745665
1648125691787689378,35516,23,1,0.0328744277358,0.0146502861753,-0.0300409924239,0.0,33.7000007629,0.010994791884882943,0.0048997612626421405,-0.010047154656822743,33.7000007629,0.0,0.01630271626492543,0.04688091413131083
1648125691787723842,35517,23,2,1.30037069321,-0.0410208031535,0.174483790994,0.0,33.7000007629,0.43490658635785956,-0.013719332158361203,0.058355782941137115,33.7000007629,0.0,0.6152037855782132,1.3126656997767756
1648125691787726955,35518,23,3,2.38969373703,-0.984499275684,0.460966348648,0.0,33.7000007629,0.7992286745919732,-0.32926397180066885,0.15416934737391302,33.7000007629,0.0,1.177262804859661,2.625331399120613
1648125691787752303,35519,23,4,1.09924840927,-0.109877154231,0.391430348158,0.0809188112617,33.7000007629,0.36764160845150495,-0.0367482121173913,0.13091315991906352,33.7000007629,0.010934974494824324,0.5212208127305011,1.1720229399476876
1648125691892980339,35520,24,0,0.0126097733155,0.0439508594573,0.0103506427258,0.0,22.5,0.004217315490133779,0.014699284099431437,0.0034617534199999998,22.5,0.0,0.01586317915559307,0.04688091546611253
1648125691892994023,35521,24,1,0.0328889451921,0.0146502861753,-0.0300250984728,0.0,22.5,0.010999647221438126,0.0048997612626421405,-0.010041838954113712,22.5,0.0,0.016309265416415034,0.04688091444467014
1648125691893014380,35522,24,2,1.22386395931,-0.079111546278,0.313224285841,0.0,22.5,0.40931904993645485,-0.026458711129765885,0.10475728623444815,22.5,0.0,0.5794689229599914,1.2657847687869568
1648125691893019988,35523,24,3,1.85919225216,-1.31852579117,0.547215938568,0.0,22.5,0.6218034288160534,-0.44097852547491634,0.1830153640695652,22.5,0.0,0.9837383128174042,2.344045941506929
1648125691893057292,35524,24,4,2.38929653168,-0.984499275684,0.463020503521,0.0,22.5,0.799095829993311,-0.32926397180066885,0.15485635569264214,22.5,0.0,1.177082433031497,2.625331355619941
1648125691893060694,35525,24,5,1.11788022518,-0.0366257168353,0.350200176239,-0.242756426334,22.5,0.3738729850100334,-0.012249403623846153,0.11712380476220735,22.5,-0.03280492247756756,0.5288781199196704,1.172022953879323
1648125692087571452,35526,26,0,0.0126303331926,0.0439508594573,0.0103255445138,0.0,30.5,0.004224191703210702,0.014699284099431437,0.003453359369163879,30.5,0.0,0.015866837874218862,0.04688091544645748
1648125692087576052,35527,26,1,0.032850060612,0.0146502861753,-0.0300676375628,0.0,30.5,0.010986642345150502,0.0048997612626421405,-0.01005606607451505,30.5,0.0,0.01629172429399039,0.046880915049070465
1648125692087659548,35528,26,2,1.18748223782,-0.114272229373,0.250108748674,0.0,30.5,0.3971512501070234,-0.03821813691404682,0.0836484109277592,30.5,0.0,0.5629554661892215,1.2189038492461761
1648125692087676337,35529,26,3,1.17815196514,-0.212429150939,0.644359171391,0.0,30.5,0.39403075757190636,-0.07104653877558528,0.21550473959565214,30.5,0.0,0.5617544717199603,1.359546593128608
1648125692087679518,35530,26,4,1.84828770161,-1.31852579117,0.582986950874,0.0,30.5,0.6181564219431437,-0.44097852547491634,0.19497891333578593,30.5,0.0,0.9791306265811172,2.3440459626024004
1648125692087809735,35531,26,5,2.38791775703,-0.984499275684,0.470079809427,0.0,30.5,0.798634701347826,-0.32926397180066885,0.15721732756755852,30.5,0.0,1.176456346627368,2.625331420105361
1648125692087817516,35532,26,6,1.12386071682,-0.0366257168353,0.330504775047,0.0809188112617,30.5,0.3758731494381271,-0.012249403623846153,0.1105367140625418,30.5,0.010934974494824324,0.5317060248165457,1.1720229350459537
1648125692192675953,35533,27,0,0.0126157794148,0.0439508594573,0.0103433215991,0.0,24.7000007629,0.004219324218996655,0.014699284099431437,0.0034593048826421402,24.7000007629,0.0,0.01586424743773941,0.0468809155091988
1648125692192685756,35534,27,1,0.032850060612,0.0146502861753,-0.0300676375628,0.0,24.7000007629,0.010986642345150502,0.0048997612626421405,-0.01005606607451505,24.7000007629,0.0,0.01629172429399039,0.046880915049070465
1648125692192692156,35535,27,2,1.23055326939,-0.079111546278,0.285816192627,0.0,24.7000007629,0.41155627738795986,-0.026458711129765885,0.09559069987525082,24.7000007629,0.0,0.5826295583898221,1.2657846900356746
1648125692192697892,35536,27,3,1.87951791286,-1.31852579117,0.472708821297,0.0,24.7000007629,0.6286013086488293,-0.44097852547491634,0.158096595751505,24.7000007629,0.0,0.9923413074139729,2.3440459629610686
1648125692192871293,35537,27,4,2.41459417343,-0.902457654476,0.497664839029,0.0,24.7000007629,0.8075565797424747,-0.30182530250033446,0.16644308997625418,24.7000007629,0.0,1.1812678664046299,2.6253314328842725
1648125692387698238,35538,29,0,0.0126405349001,0.0439508594573,0.0103130536154,0.0,13.6000003815,0.004227603645518395,0.014699284099431437,0.003449181811170568,13.6000003815,0.0,0.01586865521091812,0.046880915567745665
1648125692387702407,35539,29,1,0.0328616462648,0.0146502861753,-0.030054975301,0.0,13.6000003815,0.01099051714541806,0.0048997612626421405,-0.010051831204347826,13.6000003815,0.0,0.016296950471739954,0.046880915313107424
1648125692387704521,35540,29,2,1.10594284534,-0.109877154231,0.372095823288,0.0,13.6000003815,0.3698805502809364,-0.0367482121173913,0.12444676364147156,13.6000003815,0.0,0.5243793226721296,1.1720229809560103
1648125692387882385,35541,29,3,1.23788416386,-0.079111546278,0.252180546522,0.0,13.6000003815,0.4140080815585284,-0.026458711129765885,0.08434131990702341,13.6000003815,0.0,0.5860933770195622,1.2657846846656038
1648125692387887279,35542,29,4,2.41641283035,-0.902457654476,0.488758027554,0.0,13.6000003815,0.8081648262040133,-0.30182530250033446,0.16346422326220736,13.6000003815,0.0,1.182099524513966,2.625331444656255
1648125692492717064,35543,30,0,0.0126260910183,0.0439508594573,0.0103307310492,0.0,13.1999998093,0.004222772915819397,0.014699284099431437,0.0034550939963879593,13.1999998093,0.0,0.015866082542107033,0.04688091536487569
1648125692492750240,35544,30,1,0.032850060612,0.0146502861753,-0.0300676375628,0.0,13.1999998093,0.010986642345150502,0.0048997612626421405,-0.01005606607451505,13.1999998093,0.0,0.01629172429399039,0.046880915049070465
1648125692492767752,35545,30,2,1.10512590408,-0.0366257168353,0.388578295708,0.0,13.1999998093,0.36960732577926425,-0.012249403623846153,0.12995929622341137,13.1999998093,0.0,0.5228472037111208,1.1720229515234208
1648125692492770528,35546,30,3,1.38674402237,0.131852582097,-0.193891882896,0.0,13.1999998093,0.4637939874147157,0.04409785354414715,-0.06484678357725752,13.1999998093,0.0,0.6573844736615583,1.4064274418673468
1648125692492822403,35547,30,4,0.199548482895,-0.219754293561,-1.37474608421,0.0,13.1999998093,0.06673862304180601,-0.07349641925117056,-0.45978129906688964,13.1999998093,0.0,0.11962362330984795,1.4064275106150756
1648125692492869569,35548,30,5,2.38537979126,-0.984499275684,0.482793867588,0.0,13.1999998093,0.7977858833645485,-0.32926397180066885,0.16146952093244146,13.1999998093,0.0,1.1753039583518203,2.6253315011545686
1648125692687658514,35549,32,0,0.0126200383529,0.0439508594573,0.0103381248191,0.0,12.8000001907,0.004220748613010033,0.014699284099431437,0.0034575668291304345,12.8000001907,0.0,0.015865005223580926,0.04688091551835667
1648125692687666207,35550,32,1,0.0328744277358,0.0146502861753,-0.0300409924239,0.0,12.8000001907,0.010994791884882943,0.0048997612626421405,-0.010047154656822743,12.8000001907,0.0,0.01630271626492543,0.04688091413131083
1648125692687674657,35551,32,2,1.11080014706,-0.0732514336705,0.366599172354,0.0,12.8000001907,0.37150506590635446,-0.02449880724765886,0.12260841884749164,12.8000001907,0.0,0.5259583819512029,1.1720229060960965
1648125692687789368,35552,32,3,1.34758520126,-0.0849716588855,0.158621519804,0.0,12.8000001907,0.45069739172575246,-0.028418615011872907,0.053050675519732436,12.8000001907,0.0,0.6380155918909708,1.3595465582368407
1648125692687792873,35553,32,4,2.38520860672,-0.984499275684,0.483638346195,0.0,12.8000001907,0.7977286310100334,-0.32926397180066885,0.16175195524916386,12.8000001907,0.0,1.1752262337917054,2.6253314021859637
1648125692792670460,35554,33,0,0.0126200383529,0.0439508594573,0.0103381248191,0.0,12.5,0.004220748613010033,0.014699284099431437,0.0034575668291304345,12.5,0.0,0.015865005223580926,0.04688091551835667
1648125692792677535,35555,33,1,0.0328744277358,0.0146502861753,-0.0300409924239,0.0,12.5,0.010994791884882943,0.0048997612626421405,-0.010047154656822743,12.5,0.0,0.01630271626492543,0.04688091413131083
1648125692792679380,35556,33,2,1.24592971802,-0.039555773139,0.219785124063,0.0,12.5,0.41669890234782603,-0.013229355564882942,0.07350673045585283,12.5,0.0,0.5894497148056212,1.265784745599902
1648125692792680969,35557,33,3,1.90306568146,-1.24527442455,0.567612349987,0.0,12.5,0.636476816541806,-0.4164797406521739,0.18983690635016723,12.5,0.0,0.9917967787627088,2.344045895507789
1648125692792682654,35558,33,4,2.3844730854,-0.984499275684,0.487251490355,0.0,12.5,0.797482637257525,-0.32926397180066885,0.16296036466722405,12.5,0.0,1.174892282969118,2.625331356928585
1648125692987640692,35559,35,0,0.0126405349001,0.0439508594573,0.0103130536154,0.0,12.3999996185,0.004227603645518395,0.014699284099431437,0.003449181811170568,12.3999996185,0.0,0.01586865521091812,0.046880915567745665
1648125692987650442,35560,35,1,0.032850060612,0.0146502861753,-0.0300676375628,0.0,12.3999996185,0.010986642345150502,0.0048997612626421405,-0.01005606607451505,12.3999996185,0.0,0.01629172429399039,0.046880915049070465
1648125692987763992,35561,35,2,1.24379205704,-0.039555773139,0.231576442719,0.0,12.3999996185,0.4159839655652174,-0.013229355564882942,0.07745031529063544,12.3999996185,0.0,0.5884388966268206,1.2657847325540015
1648125692987769920,35562,35,3,1.95939135551,-1.04603040218,0.884949624538,0.0,12.3999996185,0.6553148346187291,-0.34984294387290965,0.29596977409297653,12.3999996185,0.0,0.9905882849703039,2.3909265827921433
1648125692987772870,35563,35,4,2.39372110367,-0.984499275684,0.439574658871,0.0,12.3999996185,0.8005756199565216,-0.32926397180066885,0.14701493607725752,12.3999996185,0.0,1.1790917732150834,2.625331488916971
1648125693092618875,35564,36,0,0.0126097733155,0.0439508594573,0.0103506427258,0.0,12.1999998093,0.004217315490133779,0.014699284099431437,0.0034617534199999998,12.1999998093,0.0,0.01586317915559307,0.04688091546611253
1648125693092621980,35565,36,1,0.0329016707838,0.0146502861753,-0.030011150986,0.0,12.1999998093,0.01100390327217391,0.0048997612626421405,-0.010037174242809364,12.1999998093,0.0,0.016315006432043106,0.04688091305518946
1648125693092634672,35566,36,2,1.24294364452,-0.039555773139,0.236087858677,0.0,12.1999998093,0.4157002155585284,-0.013229355564882942,0.07895915005919732,12.1999998093,0.0,0.5880377150145014,1.2657847524978232
1648125693092639680,35567,36,3,2.39582443237,-0.984499275684,0.427962422371,0.0,12.1999998093,0.8012790743712374,-0.32926397180066885,0.14313124494013377,12.1999998093,0.0,1.1800470639666902,2.6253314780280617
1648125693287692220,35568,38,0,0.0126200383529,0.0439508594573,0.0103381248191,0.0,12.5,0.004220748613010033,0.014699284099431437,0.0034575668291304345,12.5,0.0,0.015865005223580926,0.04688091551835667
1648125693287751931,35569,38,1,0.0328744277358,0.0146502861753,-0.0300409924239,0.0,12.5,0.010994791884882943,0.0048997612626421405,-0.010047154656822743,12.5,0.0,0.01630271626492543,0.04688091413131083
1648125693287754625,35570,38,2,1.16996884346,-0.076181486249,0.333310335875,0.0,12.5,0.39129392757859527,-0.02547875794280936,0.11147502872073577,12.5,0.0,0.5539594232667897,1.218903808147034
1648125693287757397,35571,38,3,1.25361227989,-0.212429150939,-0.481349080801,0.0,12.5,0.4192683210334448,-0.07104653877558528,-0.16098631464916385,12.5,0.0,0.5971762392429878,1.3595465531005682
1648125693287760397,35572,38,4,2.38967442513,-0.984499275684,0.461066961288,0.0,12.5,0.7992222157625417,-0.32926397180066885,0.15420299708628762,12.5,0.0,1.177254035228899,2.6253314885427455
1648125693392692748,35573,39,0,0.0126200383529,0.0439508594573,0.0103381248191,0.0,12.5,0.004220748613010033,0.014699284099431437,0.0034575668291304345,12.5,0.0,0.015865005223580926,0.04688091551835667
1648125693392703892,35574,39,1,0.0328744277358,0.0146502861753,-0.0300409924239,0.0,12.5,0.010994791884882943,0.0048997612626421405,-0.010047154656822743,12.5,0.0,0.01630271626492543,0.04688091413131083
1648125693392706202,35575,39,2,1.23812329769,-0.039555773139,0.260186374187,0.0,12.5,0.4140880594280936,-0.013229355564882942,0.08701885424314382,12.5,0.0,0.585758361246778,1.2657847008018237
1648125693392707956,35576,39,3,2.39411640167,-0.984499275684,0.437416166067,0.0,12.5,0.8007078266454848,-0.32926397180066885,0.14629303212943143,12.5,0.0,1.1792713048440646,2.6253314211551237
1648125693587639815,35577,41,0,0.0126055367291,0.0439508594573,0.0103558013216,0.0,12.3000001907,0.004215898571605351,0.014699284099431437,0.003463478702876254,12.3000001907,0.0,0.015862425872732264,0.046880915352374236
1648125693587650604,35578,41,1,0.032850060612,0.0146502861753,-0.0300676375628,0.0,12.3000001907,0.010986642345150502,0.0048997612626421405,-0.01005606607451505,12.3000001907,0.0,0.01629172429399039,0.046880915049070465
1648125693587654226,35579,41,2,1.11686086655,-0.0366257168353,0.353437632322,0.0,12.3000001907,0.3735320623913043,-0.012249403623846153,0.11820656599397993,12.3000001907,0.0,0.5283961119820456,1.1720229512709628
1648125693587759968,35580,41,3,1.30904901028,-0.082041606307,-0.0524524562061,0.0,12.3000001907,0.4378090335384615,-0.027438664316722407,-0.01754262749367893,12.3000001907,0.0,0.6197631644388437,1.3126657596823852
1648125693587775952,35581,41,4,2.38467645645,-0.984499275684,0.486255675554,0.0,12.3000001907,0.7975506543311036,-0.32926397180066885,0.16262731623879598,12.3000001907,0.0,1.1749846192924802,2.6253314472229454
1648125693692591221,35582,42,0,0.0126200383529,0.0439508594573,0.0103381248191,0.0,12.6999998093,0.004220748613010033,0.014699284099431437,0.0034575668291304345,12.6999998093,0.0,0.015865005223580926,0.04688091551835667
1648125693692593944,35583,42,1,0.032850060612,0.0146502861753,-0.0300676375628,0.0,12.6999998093,0.010986642345150502,0.0048997612626421405,-0.01005606607451505,12.6999998093,0.0,0.01629172429399039,0.046880915049070465
1648125693692606319,35584,42,2,1.2433398962,-0.039555773139,0.233991935849,0.0,12.6999998093,0.4158327412040133,-0.013229355564882942,0.07825817252474916,12.6999998093,0.0,0.5882250871589463,1.265784730004914
1648125693692608074,35585,42,3,2.38575267792,-0.984499275684,0.480946958065,0.0,12.6999998093,0.7979105946220735,-0.32926397180066885,0.1608518254397993,12.6999998093,0.0,1.1754732651771598,2.6253313391830653
1648125693887622158,35586,44,0,0.0126200383529,0.0439508594573,0.0103381248191,0.0,11.6999998093,0.004220748613010033,0.014699284099431437,0.0034575668291304345,11.6999998093,0.0,0.015865005223580926,0.04688091551835667
1648125693887662952,35587,44,1,0.0328744277358,0.0146502861753,-0.0300409924239,0.0,11.6999998093,0.010994791884882943,0.0048997612626421405,-0.010047154656822743,11.6999998093,0.0,0.01630271626492543,0.04688091413131083
1648125693887729333,35588,44,2,1.1667393446,-0.076181486249,0.344444572926,0.0,11.6999998093,0.39021382762541806,-0.02547875794280936,0.11519885382140467,11.6999998093,0.0,0.5524335522453965,1.2189037619528946
1648125693887741762,35589,44,3,2.27343153954,-0.83799636364,0.268657714128,0.0,11.6999998093,0.7603449965016723,-0.28026634235451503,0.08985207830367892,11.6999998093,0.0,1.1112147632510263,2.4378075883485066
1648125693887746363,35590,44,4,2.38466358185,-0.984499275684,0.486318826675,0.0,11.6999998093,0.797546348444816,-0.32926397180066885,0.16264843701505016,11.6999998093,0.0,1.1749787738343496,2.6253314502368155
1648125693992668270,35591,45,0,0.0125952418894,0.0439508594573,0.0103683201596,0.0,12.1000003815,0.004212455481404682,0.014699284099431437,0.003467665605217391,12.1000003815,0.0,0.015860596312920604,0.04688091539443103
1648125693992671637,35592,45,1,0.0327621363103,0.0146502861753,-0.030163416639,0.0,12.1000003815,0.0109572362241806,0.0048997612626421405,-0.010088099210367893,12.1000003815,0.0,0.016252067923063808,0.04688091470919446
1648125693992673730,35593,45,2,1.17270505428,-0.076181486249,0.323551863432,0.0,12.1000003815,0.39220904825418057,-0.02547875794280936,0.10821132556254179,12.1000003815,0.0,0.5552522329277106,1.2189038401413312
1648125693992675952,35594,45,3,2.25970840454,-0.83799636364,0.366587102413,0.0,12.1000003815,0.7557553192441471,-0.28026634235451503,0.12260438207792641,12.1000003815,0.0,1.1049350332885748,2.4378076385716194
1648125693992677740,35595,45,4,1.12422430515,-0.076181486249,-2.16176366806,0.0,12.1000003815,0.3759947508862876,-0.02547875794280936,-0.7229978822943143,12.1000003815,0.0,0.5323469474829279,2.4378076346753312
1648125693992679899,35596,45,5,2.38691782951,-0.984499275684,0.475130736828,0.0,12.1000003815,0.7983002774280936,-0.32926397180066885,0.15890660094581938,12.1000003815,0.0,1.1760023082500706,2.6253313630347255
