%time,field.header.seq,field.header.frame_id,field.point_id,field.x,field.y,field.z,field.velocity,field.intensity,normalized_x,normalized_y,normalized_z,normalized_intensity,normalized_velocity,normalized_range,range
1648294691364933884,21568,0,0,0.00631579104811,0.0454158857465,0.00976362358779,0.0,14.3000001907,0.0021123046983645482,0.015189259446989964,0.003265425949093645,14.3000001907,0.0,0.015480221730499849,0.04688091552291377
1648294691364937378,21569,0,1,0.033514522016,0.0146502861753,-0.0293251797557,0.0,14.3000001907,0.011208870239464881,0.0048997612626421405,-0.009807752426655518,14.3000001907,0.0,0.016591720963215706,0.0468809155060271
1648294691364939673,21570,0,2,2.24203562737,-1.2306240797,0.592626035213,0.0,14.3000001907,0.7498446914280936,-0.4115799597658863,0.19820268736220734,14.3000001907,0.0,1.1375114002974538,2.6253314071838894
1648294691364941475,21571,0,3,1.69761002064,0.0586011447012,0.794479906559,0.161837622523,14.3000001907,0.5677625487090301,0.019599045050568562,0.2657123433307692,14.3000001907,0.021869948989594594,0.8031766592724429,1.875236571279376
1648294691560077919,21572,2,0,0.0125984027982,0.0439508594573,0.0103644803166,0.0,24.2000007629,0.004213512641538461,0.014699284099431437,0.0034663813767892974,24.2000007629,0.0,0.01586115792105377,0.04688091565161904
1648294691560079900,21573,2,1,0.033514522016,0.0146502861753,-0.0293251797557,0.0,24.2000007629,0.011208870239464881,0.0048997612626421405,-0.009807752426655518,24.2000007629,0.0,0.016591720963215706,0.0468809155060271
1648294691560213829,21574,2,2,1.91754436493,-0.120132349432,0.0559287555516,0.0,24.2000007629,0.6413191855953176,-0.040178043288294316,0.018705269415250834,24.2000007629,0.0,0.9078517889984901,1.9221176339007973
1648294691560219482,21575,2,3,2.24003744125,-1.2306240797,0.600134670734,0.0,24.2000007629,0.7491764017558529,-0.4115799597658863,0.2007139367003344,24.2000007629,0.0,1.1366303819521026,2.625331405128946
1648294691665170309,21576,3,0,0.0126699265093,0.0439508594573,0.0102769229561,0.0,14.8000001907,0.004237433615150501,0.014699284099431437,0.0034370979786287623,14.8000001907,0.0,0.015873898082116214,0.04688091541589194
1648294691665172970,21577,3,1,0.0335372425616,0.0146502861753,-0.0292991939932,0.0,14.8000001907,0.011216469084147156,0.0048997612626421405,-0.00979906153618729,14.8000001907,0.0,0.016601988370738802,0.04688091607791967
1648294691665179426,21578,3,2,2.23929476738,-1.2306240797,0.602899849415,0.0,14.8000001907,0.7489280158461539,-0.4115799597658863,0.20163874562374579,14.8000001907,0.0,1.136302956574259,2.6253313903539017
1648294691665183720,21579,3,3,1.95538663864,0.061531201005,0.22278226912,0.0809188112617,14.8000001907,0.6539754644280936,0.020578996991638794,0.0745091201070234,14.8000001907,0.010934974494824324,0.925089893613082,1.968998459802143
1648294691860035636,21580,5,0,0.0126799661666,0.0439508594573,0.0102645335719,0.0,16.2999992371,0.004240791360066889,0.014699284099431437,0.00343295437187291,16.2999992371,0.0,0.015875691347309377,0.04688091550375397
1648294691860175238,21581,5,1,0.033514522016,0.0146502861753,-0.0293251797557,0.0,16.2999992371,0.011208870239464881,0.0048997612626421405,-0.009807752426655518,16.2999992371,0.0,0.016591720963215706,0.0468809155060271
1648294691860179229,21582,5,2,1.49308824539,-1.68478298187,0.653257369995,0.0,16.2999992371,0.49936061718729097,-0.5634725691872909,0.21848072575083607,16.2999992371,0.0,0.9034508222487103,2.3440459457897456
1648294691860180968,21583,5,3,2.24117302895,-1.2306240797,0.595879495144,0.0,16.2999992371,0.7495561969732442,-0.4115799597658863,0.19929080105150498,16.2999992371,0.0,1.137131060222556,2.6253313207980926
1648294691860181955,21584,5,4,1.69174957275,-0.44536870718,0.336574941874,-0.404594063759,16.2999992371,0.5658025326923076,-0.14895274487625418,0.11256687019197324,16.2999992371,-0.05467487348094594,0.8139115014596059,1.7814748366823705
1648294691965020083,21585,6,0,0.0125762345269,0.0439508594573,0.0103913675994,0.0,19.5,0.004206098503979933,0.014699284099431437,0.003475373779063545,19.5,0.0,0.01585722177073154,0.04688091554669969
1648294691965039348,21586,6,1,0.0335651524365,0.0146502861753,-0.0292672142386,0.0,19.5,0.011225803490468226,0.0048997612626421405,-0.009788365966086955,19.5,0.0,0.01661460166372055,0.046880914799007266
1648294691965053729,21587,6,2,2.238270998,-1.2306240797,0.606689870358,0.0,19.5,0.7485856180602006,-0.4115799597658863,0.20290631115652175,19.5,0.0,1.1358516269363854,2.625331461895887
1648294692160072034,21588,8,0,0.00631579104811,0.0454158857465,0.00976362358779,0.0,14.8000001907,0.0021123046983645482,0.015189259446989964,0.003265425949093645,14.8000001907,0.0,0.015480221730499849,0.04688091552291377
1648294692160223053,21589,8,1,0.0335994325578,0.0146502861753,-0.0292278509587,0.0,14.8000001907,0.011237268413979932,0.0048997612626421405,-0.009775200989531772,14.8000001907,0.0,0.01663009510635915,0.0468809132258355
1648294692160283315,21590,8,2,1.48850774765,-1.68478298187,0.663628160954,0.0,14.8000001907,0.49782867814381265,-0.5634725691872909,0.22194921771036788,14.8000001907,0.0,0.9017583499981344,2.3440459353058833
1648294692160349176,21591,8,3,1.93713891506,-0.879017233849,-0.984567344189,0.0,14.8000001907,0.6478725468428094,-0.29398569693946486,-0.3292867371869565,14.8000001907,0.0,0.9622397122911521,2.344045931479749
1648294692160356033,21592,8,4,2.2377614975,-1.2306240797,0.608565986156,0.0,14.8000001907,0.748415216555184,-0.4115799597658863,0.2035337746341137,14.8000001907,0.0,1.1356270232887091,2.6253313514177483
1648294692265052099,21593,9,0,0.0126799661666,0.0439508594573,0.0102645335719,0.0,14.6000003815,0.004240791360066889,0.014699284099431437,0.00343295437187291,14.6000003815,0.0,0.015875691347309377,0.04688091550375397
1648294692265065622,21594,9,1,0.0336220227182,0.0146502861753,-0.0292018633336,0.0,14.6000003815,0.011244823651571905,0.0048997612626421405,-0.009766509476120401,14.6000003815,0.0,0.016640305836756436,0.04688091422781338
1648294692265079368,21595,9,2,2.24029660225,-1.2306240797,0.599166333675,0.0,14.6000003815,0.7492630776755852,-0.4115799597658863,0.2003900781521739,14.6000003815,0.0,1.1367446425722307,2.625331367084907
1648294692460048205,21596,11,0,0.00645879795775,0.0454158857465,0.00966961681843,0.0,15.3999996185,0.002160133096237458,0.015189259446989964,0.003233985558003344,15.3999996185,0.0,0.015493416425530385,0.04688091550528254
1648294692460065141,21597,11,1,0.033514522016,0.0146502861753,-0.0293251797557,0.0,15.3999996185,0.011208870239464881,0.0048997612626421405,-0.009807752426655518,15.3999996185,0.0,0.016591720963215706,0.0468809155060271
1648294692460067941,21598,11,2,1.95369696617,-0.12306240201,0.211845487356,0.0,15.3999996185,0.6534103565785953,-0.04115799398327759,0.0708513335638796,15.3999996185,0.0,0.9249779287296868,1.9689984004369925
1648294692460184523,21599,11,3,2.23781037331,-1.2306240797,0.608386099339,0.0,15.3999996185,0.748431562979933,-0.4115799597658863,0.20347361181906354,15.3999996185,0.0,1.1356485689728402,2.6253313197195203
1648294692460186415,21600,11,4,1.82287335396,-0.114272229373,-0.08342204988,0.242756426334,15.3999996185,0.6096566401204013,-0.03821813691404682,-0.02790035113043478,15.3999996185,0.03280492247756756,0.8630313225341093,1.8283557217865007
1648294692565060375,21601,12,0,0.00645879795775,0.0454158857465,0.00966961681843,0.0,19.5,0.002160133096237458,0.015189259446989964,0.003233985558003344,19.5,0.0,0.015493416425530385,0.04688091550528254
1648294692565065186,21602,12,1,0.0335372425616,0.0146502861753,-0.0292991939932,0.0,19.5,0.011216469084147156,0.0048997612626421405,-0.00979906153618729,19.5,0.0,0.016601988370738802,0.04688091607791967
1648294692565074797,21603,12,2,2.23752450943,-1.2306240797,0.609436750412,0.0,19.5,0.7483359563311036,-0.4115799597658863,0.20382500013779262,19.5,0.0,1.1355225538741462,2.625331352151605
1648294692760123939,21604,14,0,0.0126678450033,0.0439508594573,0.0102794887498,0.0,15.3999996185,0.004236737459297658,0.014699284099431437,0.0034379561036120398,15.3999996185,0.0,0.015873526439762208,0.046880915445629195
1648294692760137025,21605,14,1,0.0335372425616,0.0146502861753,-0.0292991939932,0.0,15.3999996185,0.011216469084147156,0.0048997612626421405,-0.00979906153618729,15.3999996185,0.0,0.016601988370738802,0.04688091607791967
1648294692760144209,21606,14,2,2.19782567024,-1.31266570091,0.582096278667,0.0,15.3999996185,0.7350587525886286,-0.4390186290668896,0.19468102965451503,15.3999996185,0.0,1.1284325838002343,2.6253314070321516
1648294692865119603,21607,15,0,0.0126699265093,0.0439508594573,0.0102769229561,0.0,15.1999998093,0.004237433615150501,0.014699284099431437,0.0034370979786287623,15.1999998093,0.0,0.015873898082116214,0.04688091541589194
1648294692865140496,21608,15,1,0.033514522016,0.0146502861753,-0.0293251797557,0.0,15.1999998093,0.011208870239464881,0.0048997612626421405,-0.009807752426655518,15.1999998093,0.0,0.016591720963215706,0.0468809155060271
1648294692865155781,21609,15,2,1.91263473034,-0.120132349432,0.148096829653,0.0,15.1999998093,0.6396771673377926,-0.040178043288294316,0.049530712258528425,15.1999998093,0.0,0.9055319055610799,1.9221175989091006
1648294692865175589,21610,15,3,2.19783139229,-1.31266570091,0.582074999809,0.0,15.1999998093,0.7350606663177257,-0.4390186290668896,0.19467391297959866,15.1999998093,0.0,1.128435076999421,2.625331479391429
