%time,field.header.seq,field.header.frame_id,field.point_id,field.x,field.y,field.z,field.velocity,field.intensity,normalized_x,normalized_y,normalized_z,normalized_intensity,normalized_velocity,normalized_range,range
1648126984302193994,88048,0,0,0.0126979034394,0.0439508594573,0.0102423354983,0.0,13.1999998093,0.0042467904479598665,0.014699284099431437,0.0034255302669899666,13.1999998093,0.0,0.015878898301002,0.046880915469425286
1648126984302201077,88049,0,1,0.0327995419502,0.0146502861753,-0.0301227364689,0.0,13.1999998093,0.010969746471638795,0.0048997612626421405,-0.010074493802307691,13.1999998093,0.0,0.016268937756809817,0.046880913915322876
1648126984302206545,88050,0,2,1.11660468578,-0.0703213736415,-0.119136817753,0.0,13.1999998093,0.37344638320401335,-0.023518854060702338,-0.03984508954949832,13.1999998093,0.0,0.5286563522295427,1.1251420804685033
1648126984302213982,88051,0,3,1.22185516357,-0.0,0.330576807261,0.0,13.1999998093,0.408647211896321,-0.0,0.11056080510401338,13.1999998093,0.0,0.5779144292897291,1.2657847629994396
1648126984302337512,88052,0,4,2.10224223137,-0.9713139534,0.594690680504,0.0,13.1999998093,0.7030910472809364,-0.3248541650167224,0.1988932041819398,13.1999998093,0.0,1.0460421932512665,2.390926640636087
1648126984302350152,88053,0,5,1.22077071667,-0.149432912469,-2.05034589767,0.0,13.1999998093,0.408284520625418,-0.04997756269866221,-0.6857344139364548,13.1999998093,0.0,0.579560399214744,2.390926522940459
1648126984302355179,88054,0,6,2.42407894135,-0.902457654476,0.449195772409,0.0,13.1999998093,0.8107287429264213,-0.30182530250033446,0.15023269980234114,13.1999998093,0.0,1.1856056268606054,2.6253314788744255
1648126984302360891,88055,0,7,1.16792917252,-0.328166425228,0.501337707043,0.0809188112617,13.1999998093,0.3906117633846154,-0.10975465726688963,0.16767147392742474,13.1999998093,0.010934974494824324,0.5632061648993643,1.3126657042725347
1648126984302402494,88056,0,8,0.896575510502,0.123062409461,-0.950841367245,0.0809188112617,13.1999998093,0.2998580302682274,0.041157996475250834,-0.3180071462357859,13.1999998093,0.010934974494824324,0.42605593213396187,1.3126657260394246
1648126984407221961,88057,1,0,0.0125994505361,0.0439508594573,0.0103632062674,0.0,21.3999996185,0.004213863055551839,0.014699284099431437,0.003465955273377926,21.3999996185,0.0,0.01586134410249293,0.04688091557326548
1648126984407229907,88058,1,1,0.0327995419502,0.0146502861753,-0.0301227364689,0.0,21.3999996185,0.010969746471638795,0.0048997612626421405,-0.010074493802307691,21.3999996185,0.0,0.016268937756809817,0.046880913915322876
1648126984407234606,88059,1,2,1.11560153961,-0.0703213736415,-0.128190308809,0.0,21.3999996185,0.37311088281270904,-0.023518854060702338,-0.04287301297959866,21.3999996185,0.0,0.5281823532104104,1.1251420559394163
1648126984407248854,88060,1,3,1.22810554504,-0.0,0.306541860104,0.0,21.3999996185,0.4107376404816053,-0.0,0.10252236123879598,21.3999996185,0.0,0.5808707417462107,1.2657847928277601
1648126984407254424,88061,1,4,1.22774350643,-0.079111546278,0.297654479742,0.0,21.3999996185,0.41061655733444813,-0.026458711129765885,0.09954999322474915,21.3999996185,0.0,0.5813019677491524,1.265784714572746
1648126984407258226,88062,1,5,2.11338734627,-0.9713139534,0.553780853748,0.0,21.3999996185,0.706818510458194,-0.3248541650167224,0.18521098787558526,21.3999996185,0.0,1.0510542526346545,2.3909266206685547
1648126984407265920,88063,1,6,1.25557124615,-1.71847844124,-1.08945047855,0.0,21.3999996185,0.41992349369565213,-0.5747419535919732,-0.3643647085451505,21.3999996185,0.0,0.8264380160265152,2.39092652592633
1648126984407287227,88064,1,7,2.42521309853,-0.902457654476,0.443030953407,0.0,21.3999996185,0.81110805970903,-0.30182530250033446,0.14817088742709028,21.3999996185,0.0,1.186124395786257,2.625331372813825
1648126984407364242,88065,1,8,1.12889742851,-0.410208046436,0.52953851223,0.242756426334,21.3999996185,0.37755766839799326,-0.13719332656722408,0.1771031813478261,21.3999996185,0.03280492247756756,0.5512908440985023,1.3126656396021388
1648126984602490757,88066,3,0,0.0126097733155,0.0439508594573,0.0103506427258,0.0,34.7000007629,0.004217315490133779,0.014699284099431437,0.0034617534199999998,34.7000007629,0.0,0.01586317915559307,0.04688091546611253
1648126984602499048,88067,3,1,0.0327995419502,0.0146502861753,-0.0301227364689,0.0,34.7000007629,0.010969746471638795,0.0048997612626421405,-0.010074493802307691,34.7000007629,0.0,0.016268937756809817,0.046880913915322876
1648126984602607514,88068,3,2,1.11902058125,-0.0703213736415,-0.0937669426203,0.0,34.7000007629,0.374254375,-0.023518854060702338,-0.0313601814783612,34.7000007629,0.0,0.5297978962865083,1.1251419449919524
1648126984602619319,88069,3,3,2.11010742188,-0.9713139534,0.566149890423,0.0,34.7000007629,0.7057215457792642,-0.3248541650167224,0.18934778943913042,34.7000007629,0.0,1.0495789769630774,2.3909265623118943
1648126984602623574,88070,3,4,0.499006003141,-1.79319500923,-1.50065803528,0.0,34.7000007629,0.16689163984648828,-0.5997307723177256,-0.5018923194916388,34.7000007629,0.0,0.6445018527251225,2.390926571676463
1648126984602664579,88071,3,5,2.38916063309,-0.984499275684,0.463721185923,0.0,34.7000007629,0.7990503789598662,-0.32926397180066885,0.15509069763311034,34.7000007629,0.0,1.1770207217197848,2.625331349144935
1648126984602669045,88072,3,6,1.16093277931,-0.451228827238,0.414389669895,0.0809188112617,34.7000007629,0.38827183254515046,-0.15091265125016723,0.13859186284113711,34.7000007629,0.010934974494824324,0.5694599724329124,1.312665673780917
1648126984602678862,88073,3,7,1.12320387363,0.123062409461,0.668101787567,0.0809188112617,34.7000007629,0.37565346944147154,0.041157996475250834,0.22344541390200667,34.7000007629,0.010934974494824324,0.5328461681204867,1.312665721693838
1648126984707542415,88074,4,0,0.0126097733155,0.0439508594573,0.0103506427258,0.0,21.7999992371,0.004217315490133779,0.014699284099431437,0.0034617534199999998,21.7999992371,0.0,0.01586317915559307,0.04688091546611253
1648126984707545470,88075,4,1,0.0327465347946,0.0146502861753,-0.0301803536713,0.0,21.7999992371,0.010952018325953175,0.0048997612626421405,-0.01009376376966555,21.7999992371,0.0,0.016245032202335485,0.04688091481399319
1648126984707549239,88076,4,2,1.1202173233,-0.0703213736415,-0.0781838297844,0.0,21.7999992371,0.37465462317725745,-0.023518854060702338,-0.026148438054983274,21.7999992371,0.0,0.5303633752744568,1.1251420613646972
1648126984707623262,88077,4,3,1.28052818775,0.0410208031535,0.285755097866,0.0,21.7999992371,0.42827029690635454,0.013719332158361203,0.09557026684481605,21.7999992371,0.0,0.605821025138106,1.312665655020373
1648126984707627816,88078,4,4,1.18754553795,-0.492249637842,0.265550792217,0.0,21.7999992371,0.3971724207190635,-0.16463198590033443,0.08881297398561873,21.7999992371,0.0,0.5853166274258484,1.312665735786385
1648126984707634304,88079,4,5,2.06805634499,-1.04603040218,0.587786853313,0.0,21.7999992371,0.6916576404648829,-0.34984294387290965,0.1965842318772575,21.7999992371,0.0,1.0388313956579105,2.390926605579069
1648126984707643920,88080,4,6,1.44689500332,-0.224149376154,-1.89018034935,0.0,21.7999992371,0.4839113723478261,-0.07496634653979932,-0.6321673409197324,21.7999992371,0.0,0.6884478089794738,2.390926566528445
1648126984707645310,88081,4,7,1.10097694397,-0.152362972498,0.500361561775,-0.0809188112617,21.7999992371,0.3682197137023411,-0.05095751588561872,0.1673450039381271,21.7999992371,-0.010934974494824324,0.5232286149889942,1.2189037693943947
1648126984707648820,88082,4,8,1.07182848454,0.304725944996,-0.49401652813,-0.0809188112617,21.7999992371,0.3584710650635451,0.10191503177123744,-0.1652229191070234,21.7999992371,-0.010934974494824324,0.5170973628597588,1.2189038238887582
1648126984902534936,88083,6,0,0.0126097733155,0.0439508594573,0.0103506427258,0.0,26.2000007629,0.004217315490133779,0.014699284099431437,0.0034617534199999998,26.2000007629,0.0,0.01586317915559307,0.04688091546611253
1648126984902536981,88084,6,1,0.0327995419502,0.0146502861753,-0.0301227364689,0.0,26.2000007629,0.010969746471638795,0.0048997612626421405,-0.010074493802307691,26.2000007629,0.0,0.016268937756809817,0.046880913915322876
1648126984902538915,88085,6,2,1.83744370937,-1.39177727699,0.425802469254,0.0,26.2000007629,0.6145296686856186,-0.4654773501638796,0.14240885259331104,26.2000007629,0.0,0.9858816312850642,2.344045886212957
1648126985202423386,88086,9,0,0.0125952418894,0.0439508594573,0.0103683201596,0.0,13.3999996185,0.004212455481404682,0.014699284099431437,0.003467665605217391,13.3999996185,0.0,0.015860596312920604,0.04688091539443103
1648126985202432738,88087,9,1,0.0327465347946,0.0146502861753,-0.0301803536713,0.0,13.3999996185,0.010952018325953175,0.0048997612626421405,-0.01009376376966555,13.3999996185,0.0,0.016245032202335485,0.04688091481399319
1648126985202435371,88088,9,2,1.8595662117,-1.31852579117,0.545943558216,0.0,13.3999996185,0.6219284988963211,-0.44097852547491634,0.1825898188013378,13.3999996185,0.0,0.9838964251428571,2.3440458882953443
1648126985202439386,88089,9,3,2.4305870533,-0.902457654476,0.412530571222,0.0,13.3999996185,0.8129053689966554,-0.30182530250033446,0.13797009070969898,13.3999996185,0.0,1.1885826816492808,2.6253313531789946
1648126985202442407,88090,9,4,1.16858673096,-0.0366257168353,0.0818616747856,-0.0809188112617,13.3999996185,0.3908316825953177,-0.012249403623846153,0.02737848655036789,13.3999996185,-0.010934974494824324,0.5528551854959074,1.1720229198732346
1648126985502402387,88091,12,0,0.012677649036,0.0439508594573,0.0102673945948,0.0,26.6000003815,0.0042400164,0.014699284099431437,0.003433911235719063,26.6000003815,0.0,0.01587527735758767,0.04688091534815267
1648126985502407489,88092,12,1,0.0328124724329,0.0146502861753,-0.0301086530089,0.0,26.6000003815,0.010974071047792642,0.0048997612626421405,-0.010069783615016722,26.6000003815,0.0,0.01627476977271537,0.04688091528744241
1648126985502410661,88093,12,2,1.14004135132,-0.0,0.271925419569,0.0,26.6000003815,0.3812847328829431,-0.0,0.09094495637759197,26.6000003815,0.0,0.5392180403688609,1.172022916383169
1648126985502426906,88094,12,3,1.25760614872,-0.082041606307,0.367133945227,0.0,26.6000003815,0.42060406311705684,-0.027438664316722407,0.12278727265117055,26.6000003815,0.0,0.595456493894088,1.3126657549436282
1648126985502429889,88095,12,4,2.04242706299,-1.12074685097,0.537538707256,0.0,26.6000003815,0.6830859742441471,-0.3748317227324415,0.17977883185819396,26.6000003815,0.0,1.0362006160897228,2.3909265303207414
1648126985502441583,88096,12,5,2.42391705513,-0.902457654476,0.450068086386,0.0,26.6000003815,0.8106746003779264,-0.30182530250033446,0.15052444360735784,26.6000003815,0.0,1.1855315806106725,2.6253314058715653
1648126985502463124,88097,12,6,0.977230191231,-0.0,-0.119414642453,0.242756426334,26.6000003815,0.3268328398765886,-0.0,-0.03993800750936455,26.6000003815,0.03280492247756756,0.46221143478238574,0.9844992145682772
