%time,field.header.seq,field.header.frame_id,field.point_id,field.x,field.y,field.z,field.velocity,field.intensity,normalized_x,normalized_y,normalized_z,normalized_intensity,normalized_velocity,normalized_range,range
1648125714287714187,36294,0,0,0.0126674417406,0.0439508594573,0.0102799860761,0.0,12.3000001907,0.004236602588829431,0.014699284099431437,0.0034381224334782603,12.3000001907,0.0,0.015873454445304285,0.04688091553086012
1648125714287761941,36295,0,1,0.0328872464597,0.0146502861753,-0.0300269592553,0.0,12.3000001907,0.010999079083511706,0.0048997612626421405,-0.010042461289397992,12.3000001907,0.0,0.0163084990664861,0.0468809145264753
1648125714287766225,36296,0,2,1.17706799507,-0.076181486249,0.307301044464,0.0,12.3000001907,0.3936682257759197,-0.02547875794280936,0.102776269051505,12.3000001907,0.0,0.5573136559222546,1.2189038583062577
1648125714287784472,36297,0,3,1.35884606838,-0.0424858294427,0.00996743887663,0.0,12.3000001907,0.4544635680200669,-0.01420930750591973,0.0033335915975351168,12.3000001907,0.0,0.6428655953890033,1.359546627774486
1648125714287799673,36298,0,4,2.38634204865,-0.984499275684,0.47801399231,0.0,12.3000001907,0.7981077085785953,-0.32926397180066885,0.1598709004381271,12.3000001907,0.0,1.1757408694568303,2.6253313264846296
1648125714392774075,36299,1,0,0.0126097733155,0.0439508594573,0.0103506427258,0.0,12.8000001907,0.004217315490133779,0.014699284099431437,0.0034617534199999998,12.8000001907,0.0,0.01586317915559307,0.04688091546611253
1648125714392784059,36300,1,1,0.0328872464597,0.0146502861753,-0.0300269592553,0.0,12.8000001907,0.010999079083511706,0.0048997612626421405,-0.010042461289397992,12.8000001907,0.0,0.0163084990664861,0.0468809145264753
1648125714392790529,36301,1,2,1.16800963879,-0.0,0.0969081670046,0.0,12.8000001907,0.390638675180602,-0.0,0.03241075819551839,12.8000001907,0.0,0.5524465124278656,1.1720229132310247
1648125714392796117,36302,1,3,1.30524218082,-0.0,0.139406040311,0.0,12.8000001907,0.4365358464280936,-0.0,0.04662409374949833,12.8000001907,0.0,0.6173549144806286,1.3126656827490166
1648125714392800952,36303,1,4,2.39357542992,-0.984499275684,0.440366625786,0.0,12.8000001907,0.8005268996387959,-0.32926397180066885,0.14727980795518394,12.8000001907,0.0,1.1790256134692567,2.625331393871101
1648125714392831061,36304,1,5,1.32609367371,0.145037829876,0.783496022224,0.0809188112617,12.8000001907,0.4435095898695652,0.048507635410033445,0.262038803419398,12.8000001907,0.010934974494824324,0.6290902187330626,1.547070270023199
1648125714392874697,36305,1,6,1.21597099304,-0.386767566204,0.874786734581,0.0809188112617,12.8000001907,0.4066792618862876,-0.1293537010715719,0.2925708142411371,12.8000001907,0.010934974494824324,0.5894984512936952,1.5470702754499999
1648125714587774081,36306,3,0,0.0126097733155,0.0439508594573,0.0103506427258,0.0,13.5,0.004217315490133779,0.014699284099431437,0.0034617534199999998,13.5,0.0,0.01586317915559307,0.04688091546611253
1648125714587782712,36307,3,1,0.032850060612,0.0146502861753,-0.0300676375628,0.0,13.5,0.010986642345150502,0.0048997612626421405,-0.01005606607451505,13.5,0.0,0.01629172429399039,0.046880915049070465
1648125714587784452,36308,3,2,1.1810747385,-0.0380907431245,0.298894554377,0.0,13.5,0.39500827374581937,-0.01273937897140468,0.09996473390535117,13.5,0.0,0.5587712988619596,1.2189037686670943
1648125714587786988,36309,3,3,2.38415837288,-0.984499275684,0.488789796829,0.0,13.5,0.7973773822341137,-0.32926397180066885,0.1634748484377926,13.5,0.0,1.1747493956257256,2.6253314907417433
1648125714692842296,36310,4,0,0.0126097733155,0.0439508594573,0.0103506427258,0.0,11.6000003815,0.004217315490133779,0.014699284099431437,0.0034617534199999998,11.6000003815,0.0,0.01586317915559307,0.04688091546611253
1648125714692851206,36311,4,1,0.0329259596765,0.0146502861753,-0.0299845039845,0.0,11.6000003815,0.011012026647658862,0.0048997612626421405,-0.010028262202173913,11.6000003815,0.0,0.016325964663945168,0.046880914931698874
1648125714692855699,36312,4,2,1.03878641129,-0.0,0.637690603733,0.0,11.6000003815,0.347420204444816,-0.0,0.2132744494090301,11.6000003815,0.0,0.4913263649682923,1.218903816701759
1648125714692873957,36313,4,3,1.35438799858,0.0849716588855,0.0823394656181,0.0,11.6000003815,0.45297257477591973,0.028418615011872907,0.02753828281541806,11.6000003815,0.0,0.6412300091834797,1.359546549813417
1648125714887793107,36314,6,0,0.0126097733155,0.0439508594573,0.0103506427258,0.0,18.3999996185,0.004217315490133779,0.014699284099431437,0.0034617534199999998,18.3999996185,0.0,0.01586317915559307,0.04688091546611253
1648125714887799983,36315,6,1,0.032850060612,0.0146502861753,-0.0300676375628,0.0,18.3999996185,0.010986642345150502,0.0048997612626421405,-0.01005606607451505,18.3999996185,0.0,0.01629172429399039,0.046880915049070465
1648125714887807036,36316,6,2,1.1943334341,-0.076181486249,0.231280103326,0.0,18.3999996185,0.39944262010033443,-0.02547875794280936,0.0773512051257525,18.3999996185,0.0,0.5654714675485832,1.2189037931070241
1648125714887965359,36317,6,3,1.34633612633,-0.0849716588855,0.168895706534,0.0,18.3999996185,0.45027964091304346,-0.028418615011872907,0.05648685837257524,18.3999996185,0.0,0.6374253899247753,1.3595465816075014
1648125714887981215,36318,6,4,2.3857524395,-0.984499275684,0.480948626995,0.0,18.3999996185,0.7979105148829431,-0.32926397180066885,0.16085238361036788,18.3999996185,0.0,1.175473156923406,2.6253314282602296
1648125714887986963,36319,6,5,1.38380849361,-0.448298752308,0.651753365993,-0.0809188112617,18.3999996185,0.46281220522073574,-0.14993269307959864,0.21797771437892977,18.3999996185,-0.010934974494824324,0.6714686046693933,1.5939511185702315
1648125714992864589,36320,7,0,0.0126097733155,0.0439508594573,0.0103506427258,0.0,12.3999996185,0.004217315490133779,0.014699284099431437,0.0034617534199999998,12.3999996185,0.0,0.01586317915559307,0.04688091546611253
1648125714992870496,36321,7,1,0.0328872464597,0.0146502861753,-0.0300269592553,0.0,12.3999996185,0.010999079083511706,0.0048997612626421405,-0.010042461289397992,12.3999996185,0.0,0.0163084990664861,0.0468809145264753
1648125714992872662,36322,7,2,1.24268972874,-0.039555773139,0.237420886755,0.0,12.3999996185,0.4156152938929766,-0.013229355564882942,0.07940497884782609,12.3999996185,0.0,0.5879176480461805,1.2657847757703715
1648125714992874609,36323,7,3,2.38521170616,-0.984499275684,0.48362287879,0.0,12.3999996185,0.79772966761204,-0.32926397180066885,0.16174678220401337,12.3999996185,0.0,1.1752276410563118,2.6253313687826427
1648125714992880562,36324,7,4,1.45864236355,0.249054864049,0.592464387417,-0.0809188112617,12.3999996185,0.487840255367893,0.0832959411535117,0.19814862455418059,12.3999996185,-0.010934974494824324,0.6949204582738022,1.593951040780926
1648125714992887681,36325,7,5,1.40866029263,-0.498109728098,0.555196225643,-0.0809188112617,12.3999996185,0.4711238436889632,-0.1665918823070234,0.18568435640234113,12.3999996185,-0.010934974494824324,0.6867810476673933,1.5939510564087385
1648125715187773324,36326,9,0,0.0126097733155,0.0439508594573,0.0103506427258,0.0,16.2000007629,0.004217315490133779,0.014699284099431437,0.0034617534199999998,16.2000007629,0.0,0.01586317915559307,0.04688091546611253
1648125715187778144,36327,9,1,0.0327866487205,0.0146502861753,-0.0301367696375,0.0,16.2000007629,0.010965434354682274,0.0048997612626421405,-0.010079187169732442,16.2000007629,0.0,0.016263122750707536,0.04688091406450383
1648125715187878885,36328,9,2,1.24301970005,-0.079111546278,0.225508958101,0.0,16.2000007629,0.41572565219063545,-0.026458711129765885,0.07542105622107023,16.2000007629,0.0,0.5885199224948182,1.265784697984095
1648125715187882467,36329,9,3,2.42190551758,-0.902457654476,0.460769563913,0.0,16.2000007629,0.8100018453444815,-0.30182530250033446,0.1541035330812709,16.2000007629,0.0,1.184611536391719,2.6253313591307568
1648125715187885964,36330,9,4,1.3512159586,-0.53180539608,0.533689796925,-0.242756426334,16.2000007629,0.4519116918394649,-0.17786133648160535,0.1784915708779264,16.2000007629,-0.03280492247756756,0.663387525853055,1.547070245792663
1648125715292809557,36331,10,0,0.0126200383529,0.0439508594573,0.0103381248191,0.0,32.7999992371,0.004220748613010033,0.014699284099431437,0.0034575668291304345,32.7999992371,0.0,0.015865005223580926,0.04688091551835667
1648125715292814579,36332,10,1,0.0329259596765,0.0146502861753,-0.0299845039845,0.0,32.7999992371,0.011012026647658862,0.0048997612626421405,-0.010028262202173913,32.7999992371,0.0,0.016325964663945168,0.046880914931698874
1648125715292818201,36333,10,2,1.24981045723,-0.079111546278,0.184190675616,0.0,32.7999992371,0.41799680843812703,-0.026458711129765885,0.061602232647491637,32.7999992371,0.0,0.5917285924506005,1.2657847450257236
1648125715292824596,36334,10,3,2.41403651237,-0.902457654476,0.500362694263,0.0,32.7999992371,0.8073700710267558,-0.30182530250033446,0.1673453826966555,32.7999992371,0.0,1.1810128603909933,2.6253313937459333
1648125715487815451,36335,12,0,0.0126097733155,0.0439508594573,0.0103506427258,0.0,12.8999996185,0.004217315490133779,0.014699284099431437,0.0034617534199999998,12.8999996185,0.0,0.01586317915559307,0.04688091546611253
1648125715487828615,36336,12,1,0.0328744277358,0.0146502861753,-0.0300409924239,0.0,12.8999996185,0.010994791884882943,0.0048997612626421405,-0.010047154656822743,12.8999996185,0.0,0.01630271626492543,0.04688091413131083
1648125715487831947,36337,12,2,1.87611889839,-1.31852579117,0.486023694277,0.0,12.8999996185,0.6274645145117056,-0.44097852547491634,0.16254973052742475,12.8999996185,0.0,0.9909013542592684,2.3440459496936583
1648125715487838561,36338,12,3,1.22698152065,-0.039555773139,0.308484524488,0.0809188112617,12.8999996185,0.41036171259197324,-0.013229355564882942,0.10317208176856187,12.8999996185,0.010934974494824324,0.5804898674150106,1.2657847419896473
1648125715487860304,36339,12,4,1.39177656174,-0.281285494566,0.484153270721,-0.161837622523,12.8999996185,0.46547711094983274,-0.09407541624280935,0.16192417080969898,12.8999996185,-0.021869948989594594,0.6649722291777783,1.5001892936599357
1648125715592785346,36340,13,0,0.0125994505361,0.0439508594573,0.0103632062674,0.0,27.2000007629,0.004213863055551839,0.014699284099431437,0.003465955273377926,27.2000007629,0.0,0.01586134410249293,0.04688091557326548
1648125715592792860,36341,13,1,0.032850060612,0.0146502861753,-0.0300676375628,0.0,27.2000007629,0.010986642345150502,0.0048997612626421405,-0.01005606607451505,27.2000007629,0.0,0.01629172429399039,0.046880915049070465
1648125715592812069,36342,13,2,1.86767697334,-1.31852579117,0.51751691103,0.0,27.2000007629,0.6246411282073578,-0.44097852547491634,0.1730825789397993,27.2000007629,0.0,0.9873272699699696,2.3440459235959885
1648125715592819110,36343,13,3,2.41932535172,-0.902457654476,0.47413161397,0.0,27.2000007629,0.809138913618729,-0.30182530250033446,0.1585724461438127,27.2000007629,0.0,1.1834314835653192,2.625331552959211
1648125715592823908,36344,13,4,1.28555345535,-0.082041606307,0.252413958311,0.0809188112617,27.2000007629,0.42995098841137125,-0.027438664316722407,0.08441938405050166,27.2000007629,0.010934974494824324,0.6086613057943769,1.3126657297568123
1648125715593029481,36345,13,5,1.14616048336,0.183128580451,0.162535458803,-0.647350490093,27.2000007629,0.38333126533779266,0.061247016873244145,0.05435968521839464,27.2000007629,-0.08747979595851352,0.5455611011122566,1.1720229118760133
1648125715787791955,36346,15,0,0.0126097733155,0.0439508594573,0.0103506427258,0.0,34.0,0.004217315490133779,0.014699284099431437,0.0034617534199999998,34.0,0.0,0.01586317915559307,0.04688091546611253
1648125715787796375,36347,15,1,0.0328744277358,0.0146502861753,-0.0300409924239,0.0,34.0,0.010994791884882943,0.0048997612626421405,-0.010047154656822743,34.0,0.0,0.01630271626492543,0.04688091413131083
1648125715787798322,36348,15,2,1.34528720379,-0.0849716588855,0.177057102323,0.0,34.0,0.44992883069899664,-0.028418615011872907,0.059216422181605353,34.0,0.0,0.6369297630567485,1.3595466380297103
1648125715787887469,36349,15,3,2.41974878311,-0.902457654476,0.471965104342,0.0,34.0,0.8092805294682275,-0.30182530250033446,0.1578478609839465,34.0,0.0,1.1836251365961132,2.6253314174026117
1648125715787891712,36350,15,4,1.14369535446,-0.0366257168353,0.25349009037,0.161837622523,34.0,0.3825068075117056,-0.012249403623846153,0.08477929443812708,34.0,0.021869948989594594,0.541084987293802,1.172022923352131
1648125715787897030,36351,15,5,1.22594332695,-0.0,0.315077871084,-0.161837622523,34.0,0.4100144906187291,-0.0,0.10537721440936454,34.0,-0.021869948989594594,0.5798480534025028,1.2657847786018208
1648125715787898326,36352,15,6,1.36884486675,-0.090831771493,0.479706764221,-0.161837622523,34.0,0.45780764774247484,-0.03037851889397993,0.16043704488996655,34.0,-0.021869948989594594,0.6481500899276246,1.4533083841978494
1648125715892887404,36353,16,0,0.0126303331926,0.0439508594573,0.0103255445138,0.0,22.8999996185,0.004224191703210702,0.014699284099431437,0.003453359369163879,22.8999996185,0.0,0.015866837874218862,0.04688091544645748
1648125715892895462,36354,16,1,0.032850060612,0.0146502861753,-0.0300676375628,0.0,22.8999996185,0.010986642345150502,0.0048997612626421405,-0.01005606607451505,22.8999996185,0.0,0.01629172429399039,0.046880915049070465
1648125715892916152,36355,16,2,1.30188524723,-0.0410208031535,0.162798851728,0.0,22.8999996185,0.43541312616387956,-0.013719332158361203,0.054447776497658855,22.8999996185,0.0,0.615919963101113,1.312665749294325
1648125715892921574,36356,16,3,2.42297410965,-0.902457654476,0.455117344856,0.0,22.8999996185,0.8103592339966555,-0.30182530250033446,0.1522131588147157,22.8999996185,0.0,1.1851002866748075,2.625331436551452
1648125715892925201,36357,16,4,1.13990223408,-0.0366257168353,0.270035743713,0.0809188112617,22.8999996185,0.3812382053779264,-0.012249403623846153,0.09031295776354514,22.8999996185,0.010934974494824324,0.5392913742761921,1.1720229730158482
1648125715893104514,36358,16,5,1.14502608776,-0.109877154231,0.224677175283,-0.0809188112617,22.8999996185,0.3829518688160535,-0.0367482121173913,0.07514286798762541,22.8999996185,-0.010934974494824324,0.5428210559228892,1.172022851213244
1648125716087787219,36359,18,0,0.0126200383529,0.0439508594573,0.0103381248191,0.0,18.8999996185,0.004220748613010033,0.014699284099431437,0.0034575668291304345,18.8999996185,0.0,0.015865005223580926,0.04688091551835667
1648125716087794082,36360,18,1,0.0328744277358,0.0146502861753,-0.0300409924239,0.0,18.8999996185,0.010994791884882943,0.0048997612626421405,-0.010047154656822743,18.8999996185,0.0,0.01630271626492543,0.04688091413131083
1648125716087796718,36361,18,2,1.09027552605,-0.0,0.430043011904,0.0,18.8999996185,0.3646406441638796,-0.0,0.14382709428227425,18.8999996185,0.0,0.5156797443690203,1.1720229156424666
1648125716087805058,36362,18,3,2.41685175896,-0.902457654476,0.48658233881,0.0,18.8999996185,0.808311625070234,-0.30182530250033446,0.1627365681638796,18.8999996185,0.0,1.182300249376944,2.6253313343942284
1648125716087957954,36363,18,4,1.29620659351,-0.082041606307,0.190286576748,-0.0809188112617,18.8999996185,0.4335139108729097,-0.027438664316722407,0.06364099556789297,18.8999996185,-0.010934974494824324,0.613694958542219,1.3126657379221505
1648125716192860299,36364,19,0,0.0126097733155,0.0439508594573,0.0103506427258,0.0,30.5,0.004217315490133779,0.014699284099431437,0.0034617534199999998,30.5,0.0,0.01586317915559307,0.04688091546611253
1648125716192864251,36365,19,1,0.0327866487205,0.0146502861753,-0.0301367696375,0.0,30.5,0.010965434354682274,0.0048997612626421405,-0.010079187169732442,30.5,0.0,0.016263122750707536,0.04688091406450383
1648125716192867179,36366,19,2,1.32541835308,-0.131852582097,0.451574355364,0.0,30.5,0.4432837301270902,-0.04409785354414715,0.15102821249632106,30.5,0.0,0.628446936087666,1.406427499912227
1648125716192869912,36367,19,3,2.42327070236,-0.902457654476,0.453535854816,0.0,30.5,0.8104584288829431,-0.30182530250033446,0.15168423237993311,30.5,0.0,1.1852359440736833,2.6253315003333064
1648125716192871941,36368,19,4,1.29809200764,-0.082041606307,0.176967531443,-0.0809188112617,30.5,0.4341444841605351,-0.027438664316722407,0.05918646536555184,30.5,-0.010934974494824324,0.6145858333491914,1.3126656819804912
1648125716387966671,36369,21,0,0.0126097733155,0.0439508594573,0.0103506427258,0.0,28.7999992371,0.004217315490133779,0.014699284099431437,0.0034617534199999998,28.7999992371,0.0,0.01586317915559307,0.04688091546611253
1648125716387974869,36370,21,1,0.0328872464597,0.0146502861753,-0.0300269592553,0.0,28.7999992371,0.010999079083511706,0.0048997612626421405,-0.010042461289397992,28.7999992371,0.0,0.0163084990664861,0.0468809145264753
1648125716387997577,36371,21,2,1.23747491837,-0.039555773139,0.263252854347,0.0,28.7999992371,0.4138712101571906,-0.013229355564882942,0.08804443289197325,28.7999992371,0.0,0.5854517683316166,1.265784696583627
1648125716388135295,36372,21,3,2.42194342613,-0.902457654476,0.460571229458,0.0,28.7999992371,0.8100145237892976,-0.30182530250033446,0.1540372004876254,28.7999992371,0.0,1.1846288746812748,2.625331528569506
1648125716492899507,36373,22,0,0.0126097733155,0.0439508594573,0.0103506427258,0.0,13.1000003815,0.004217315490133779,0.014699284099431437,0.0034617534199999998,13.1000003815,0.0,0.01586317915559307,0.04688091546611253
1648125716492902699,36374,22,1,0.0328872464597,0.0146502861753,-0.0300269592553,0.0,13.1000003815,0.010999079083511706,0.0048997612626421405,-0.010042461289397992,13.1000003815,0.0,0.0163084990664861,0.0468809145264753
1648125716492905396,36375,22,2,1.04912793636,-0.0351606868207,0.405016958714,0.0,13.1000003815,0.3508789084816053,-0.011759427030334446,0.13545717682742475,13.1000003815,0.0,0.49635702972615114,1.1251419633071347
1648125716492907355,36376,22,3,1.23640179634,-0.039555773139,0.268248081207,0.0,13.1000003815,0.4135123064682274,-0.013229355564882942,0.08971507732675585,13.1000003815,0.0,0.5849443315820818,1.2657847740641535
1648125716492910898,36377,22,4,2.39070129395,-0.984499275684,0.455711364746,0.0,13.1000003815,0.7995656501505015,-0.32926397180066885,0.1524118276742475,13.1000003815,0.0,1.177720349203129,2.625331283605021
1648125716687747731,36378,24,0,0.0126097733155,0.0439508594573,0.0103506427258,0.0,13.6000003815,0.004217315490133779,0.014699284099431437,0.0034617534199999998,13.6000003815,0.0,0.01586317915559307,0.04688091546611253
1648125716687752778,36379,24,1,0.0328744277358,0.0146502861753,-0.0300409924239,0.0,13.6000003815,0.010994791884882943,0.0048997612626421405,-0.010047154656822743,13.6000003815,0.0,0.01630271626492543,0.04688091413131083
1648125716687851434,36380,24,2,1.239839077,-0.039555773139,0.2518838346,0.0,13.6000003815,0.4146618986622074,-0.013229355564882942,0.08424208515050167,13.6000003815,0.0,0.5865696857603158,1.2657847613941464
1648125716687854005,36381,24,3,1.24582350254,-0.131852582097,0.639200389385,0.0,13.6000003815,0.4166633787759197,-0.04409785354414715,0.2137793944431438,13.6000003815,0.0,0.5908987756910079,1.4064275454770554
1648125716687914441,36382,24,4,1.87630069256,-1.31852579117,0.485321193933,0.0,13.6000003815,0.6275253152374581,-0.44097852547491634,0.16231478057959864,13.6000003815,0.0,0.990978356200464,2.3440459065816444
1648125716687918473,36383,24,5,2.42118287086,-0.902457654476,0.464552223682,0.0,13.6000003815,0.8097601574782608,-0.30182530250033446,0.15536863668294312,13.6000003815,0.0,1.1842810217629318,2.62533142303902
1648125716792938136,36384,25,0,0.0126097733155,0.0439508594573,0.0103506427258,0.0,12.8999996185,0.004217315490133779,0.014699284099431437,0.0034617534199999998,12.8999996185,0.0,0.01586317915559307,0.04688091546611253
1648125716792942997,36385,25,1,0.0328744277358,0.0146502861753,-0.0300409924239,0.0,12.8999996185,0.010994791884882943,0.0048997612626421405,-0.010047154656822743,12.8999996185,0.0,0.01630271626492543,0.04688091413131083
1648125716792947020,36386,25,2,1.23828685284,-0.039555773139,0.259406864643,0.0,12.8999996185,0.4141427601471571,-0.013229355564882942,0.08675814871003344,12.8999996185,0.0,0.5858357000160314,1.2657847014911057
1648125716792964529,36387,25,3,2.42234253883,-0.902457654476,0.45846670866,0.0,12.8999996185,0.8101480062976588,-0.30182530250033446,0.15333334737792642,12.8999996185,0.0,1.1848114185158587,2.6253313917479497
1648125716987846815,36388,27,0,0.0126097733155,0.0439508594573,0.0103506427258,0.0,13.0,0.004217315490133779,0.014699284099431437,0.0034617534199999998,13.0,0.0,0.01586317915559307,0.04688091546611253
1648125716987851858,36389,27,1,0.0327866487205,0.0146502861753,-0.0301367696375,0.0,13.0,0.010965434354682274,0.0048997612626421405,-0.010079187169732442,13.0,0.0,0.016263122750707536,0.04688091406450383
1648125716987856696,36390,27,2,1.23835277557,-0.039555773139,0.259092181921,0.0,13.0,0.4141648078829431,-0.013229355564882942,0.08665290365250834,13.0,0.0,0.5858668722722701,1.2657847426332534
1648125716987858702,36391,27,3,2.42207694054,-0.902457654476,0.459867626429,0.0,13.0,0.8100591774381269,-0.30182530250033446,0.15380188174882942,13.0,0.0,1.1846899405046403,2.6253313615342675
1648125717092867751,36392,28,0,0.0125952418894,0.0439508594573,0.0103683201596,0.0,13.3000001907,0.004212455481404682,0.014699284099431437,0.003467665605217391,13.3000001907,0.0,0.015860596312920604,0.04688091539443103
1648125717092891841,36393,28,1,0.0328872464597,0.0146502861753,-0.0300269592553,0.0,13.3000001907,0.010999079083511706,0.0048997612626421405,-0.010042461289397992,13.3000001907,0.0,0.0163084990664861,0.0468809145264753
1648125717092912977,36394,28,2,1.2404936552,-0.039555773139,0.248640283942,0.0,13.3000001907,0.41488082113712377,-0.013229355564882942,0.0831572855993311,13.3000001907,0.0,0.5868792101816951,1.2657847994737648
1648125717092917975,36395,28,3,1.86394536495,-1.31852579117,0.530800044537,0.0,13.3000001907,0.6233930986454849,-0.44097852547491634,0.17752509850735784,13.3000001907,0.0,0.9857484318058385,2.3440459195117196
1648125717092919689,36396,28,4,2.42505478859,-0.902457654476,0.443896651268,0.0,13.3000001907,0.8110551132408026,-0.30182530250033446,0.14846041848428093,13.3000001907,0.0,1.1860519831177387,2.625331366283608
1648125717287876189,36397,30,0,0.0126097733155,0.0439508594573,0.0103506427258,0.0,13.3999996185,0.004217315490133779,0.014699284099431437,0.0034617534199999998,13.3999996185,0.0,0.01586317915559307,0.04688091546611253
1648125717287965627,36398,30,1,0.0328744277358,0.0146502861753,-0.0300409924239,0.0,13.3999996185,0.010994791884882943,0.0048997612626421405,-0.010047154656822743,13.3999996185,0.0,0.01630271626492543,0.04688091413131083
1648125717288006692,36399,30,2,1.11379253864,0.0351606868207,0.155481278896,0.0,13.3999996185,0.3725058657658863,0.011759427030334446,0.05200042772441471,13.3999996185,0.0,0.5269340795432259,1.1251420004226023
1648125717288203235,36400,30,3,1.24046385288,-0.039555773139,0.248788550496,0.0,13.3999996185,0.41487085380602007,-0.013229355564882942,0.08320687307558527,13.3999996185,0.0,0.5868651178287343,1.2657847259105393
1648125717288207167,36401,30,4,1.33474731445,-0.0879017189145,0.434466421604,0.0,13.3999996185,0.44640378409698994,-0.02939856819882943,0.14530649551973243,13.3999996185,0.0,0.631994424599114,1.4064274517802173
1648125717288263750,36402,30,5,2.42182064056,-0.902457654476,0.461215555668,0.0,13.3999996185,0.8099734583812709,-0.30182530250033446,0.15425269420334448,13.3999996185,0.0,1.1845727161274866,2.6253313737421635
1648125717392876938,36403,31,0,0.0125891612843,0.0439508594573,0.0103757027537,0.0,13.5,0.004210421834214047,0.014699284099431437,0.0034701347002341135,13.5,0.0,0.015859516294006278,0.04688091548285499
1648125717392885073,36404,31,1,0.0328744277358,0.0146502861753,-0.0300409924239,0.0,13.5,0.010994791884882943,0.0048997612626421405,-0.010047154656822743,13.5,0.0,0.01630271626492543,0.04688091413131083
1648125717392895022,36405,31,2,1.01683926582,-0.0703213736415,0.476484507322,0.0,13.5,0.34008002201337795,-0.023518854060702338,0.1593593669973244,13.5,0.0,0.48152048683474297,1.125142068283856
1648125717392898081,36406,31,3,1.24262440205,-0.039555773139,0.237762704492,0.0,13.5,0.41559344550167215,-0.013229355564882942,0.07951929916120401,13.5,0.0,0.5878867575788426,1.2657848029606351
1648125717392901939,36407,31,4,1.29589056969,-0.0879017189145,0.539424836636,0.0,13.5,0.4334082172876254,-0.02939856819882943,0.18040964435986623,13.5,0.0,0.6136364081742676,1.406427472420591
1648125717392905083,36408,31,5,2.41843771935,-0.902457654476,0.478637903929,0.0,13.5,0.8088420466053511,-0.30182530250033446,0.16007956653143812,13.5,0.0,1.1830255390070343,2.62533141975917
1648125717587830378,36409,33,0,0.0126097733155,0.0439508594573,0.0103506427258,0.0,13.8000001907,0.004217315490133779,0.014699284099431437,0.0034617534199999998,13.8000001907,0.0,0.01586317915559307,0.04688091546611253
1648125717587833048,36410,33,1,0.0329387336969,0.0146502861753,-0.0299704708159,0.0,13.8000001907,0.01101629889528428,0.0048997612626421405,-0.010023568834749162,13.8000001907,0.0,0.016331728112216778,0.0468809149174821
1648125717587835621,36411,33,2,1.24897181988,-0.039555773139,0.2017814219,0.0,13.8000001907,0.4177163277190635,-0.013229355564882942,0.06748542538461538,13.8000001907,0.0,0.5908882100151112,1.265784740098793
1648125717587944846,36412,33,3,2.41975522041,-0.902457654476,0.471931904554,0.0,13.8000001907,0.8092826824113711,-0.30182530250033446,0.15783675737591973,13.8000001907,0.0,1.183628080661872,2.6253313823896094
1648125717692988573,36413,34,0,0.0126200383529,0.0439508594573,0.0103381248191,0.0,12.6999998093,0.004220748613010033,0.014699284099431437,0.0034575668291304345,12.6999998093,0.0,0.015865005223580926,0.04688091551835667
1648125717692993872,36414,34,1,0.0328872464597,0.0146502861753,-0.0300269592553,0.0,12.6999998093,0.010999079083511706,0.0048997612626421405,-0.010042461289397992,12.6999998093,0.0,0.0163084990664861,0.0468809145264753
1648125717692996770,36415,34,2,1.24469923973,-0.039555773139,0.226649865508,0.0,12.6999998093,0.4162873711471572,-0.013229355564882942,0.07580263060468227,12.6999998093,0.0,0.5888678685425824,1.2657847439860612
1648125717692999280,36416,34,3,2.42052745819,-0.902457654476,0.467955321074,0.0,12.6999998093,0.8095409559163879,-0.30182530250033446,0.15650679634581938,12.6999998093,0.0,1.1839812632983076,2.6253314412651854
1648125717887768359,36417,36,0,0.0126097733155,0.0439508594573,0.0103506427258,0.0,12.6999998093,0.004217315490133779,0.014699284099431437,0.0034617534199999998,12.6999998093,0.0,0.01586317915559307,0.04688091546611253
1648125717887771008,36418,36,1,0.0328744277358,0.0146502861753,-0.0300409924239,0.0,12.6999998093,0.010994791884882943,0.0048997612626421405,-0.010047154656822743,12.6999998093,0.0,0.01630271626492543,0.04688091413131083
1648125717887780804,36419,36,2,1.00424325466,-0.0,0.507385373116,0.0,12.6999998093,0.3358673092508361,-0.0,0.16969410472107022,12.6999998093,0.0,0.4749881039002909,1.125141960546389
1648125717887895397,36420,36,3,1.2490183115,-0.039555773139,0.201493352652,0.0,12.6999998093,0.4177318767558528,-0.013229355564882942,0.06738908115451504,12.6999998093,0.0,0.59091019416202,1.2657847260944013
1648125717887902561,36421,36,4,2.41886115074,-0.902457654476,0.476493895054,0.0,12.6999998093,0.8089836624548495,-0.30182530250033446,0.1593625067070234,12.6999998093,0.0,1.1832191874150548,2.625331506058862
1648125717992858345,36422,37,0,0.0126097733155,0.0439508594573,0.0103506427258,0.0,12.6999998093,0.004217315490133779,0.014699284099431437,0.0034617534199999998,12.6999998093,0.0,0.01586317915559307,0.04688091546611253
1648125717992864115,36423,37,1,0.0328872464597,0.0146502861753,-0.0300269592553,0.0,12.6999998093,0.010999079083511706,0.0048997612626421405,-0.010042461289397992,12.6999998093,0.0,0.0163084990664861,0.0468809145264753
1648125717992866386,36424,37,2,0.973002612591,-0.0,0.564987063408,0.0,12.6999998093,0.32541893397692306,-0.0,0.18895888408294312,12.6999998093,0.0,0.4602118698831594,1.1251419758978451
1648125717992872038,36425,37,3,1.24407637119,-0.079111546278,0.219605207443,0.0,12.6999998093,0.41607905390969896,-0.026458711129765885,0.07344655767324414,12.6999998093,0.0,0.5890192030820631,1.2657847768257675
1648125717992905619,36426,37,4,2.41828846931,-0.902457654476,0.479391872883,0.0,12.6999998093,0.8087921302040134,-0.30182530250033446,0.160331730061204,12.6999998093,0.0,1.1829572828252548,2.625331504154532
1648125718187895267,36427,39,0,0.0126097733155,0.0439508594573,0.0103506427258,0.0,12.6000003815,0.004217315490133779,0.014699284099431437,0.0034617534199999998,12.6000003815,0.0,0.01586317915559307,0.04688091546611253
1648125718187921445,36428,39,1,0.0327866487205,0.0146502861753,-0.0301367696375,0.0,12.6000003815,0.010965434354682274,0.0048997612626421405,-0.010079187169732442,12.6000003815,0.0,0.016263122750707536,0.04688091406450383
1648125718187946817,36429,39,2,1.24322664738,-0.039555773139,0.234592735767,0.0,12.6000003815,0.41579486534448157,-0.013229355564882942,0.07845910895217391,12.6000003815,0.0,0.5881715361544906,1.2657847003416436
1648125718187949957,36430,39,3,2.41977763176,-0.902457654476,0.47181776166,0.0,12.6000003815,0.8092901778461539,-0.30182530250033446,0.15779858249498327,12.6000003815,0.0,1.1836383303804998,2.6253315229711864
1648125718292945911,36431,40,0,0.0126200383529,0.0439508594573,0.0103381248191,0.0,12.6000003815,0.004220748613010033,0.014699284099431437,0.0034575668291304345,12.6000003815,0.0,0.015865005223580926,0.04688091551835667
1648125718292947934,36432,40,1,0.0327866487205,0.0146502861753,-0.0301367696375,0.0,12.6000003815,0.010965434354682274,0.0048997612626421405,-0.010079187169732442,12.6000003815,0.0,0.016263122750707536,0.04688091406450383
1648125718292949620,36433,40,2,1.24340605736,-0.039555773139,0.233640447259,0.0,12.6000003815,0.4158548686822742,-0.013229355564882942,0.07814061781237457,12.6000003815,0.0,0.5882563722240203,1.2657847926340202
1648125718292955679,36434,40,3,2.4211127758,-0.902457654476,0.464917242527,0.0,12.6000003815,0.8097367143143813,-0.30182530250033446,0.15549071656421404,12.6000003815,0.0,1.1842489629493953,2.625331395017249
1648125718487862951,36435,42,0,0.0127079915255,0.0439508594573,0.0102298166603,0.0,12.3999996185,0.004250164389799331,0.014699284099431437,0.0034213433646488292,12.3999996185,0.0,0.015880703627876018,0.0468809155686071
1648125718487866577,36436,42,1,0.0328744277358,0.0146502861753,-0.0300409924239,0.0,12.3999996185,0.010994791884882943,0.0048997612626421405,-0.010047154656822743,12.3999996185,0.0,0.01630271626492543,0.04688091413131083
1648125718487869538,36437,42,2,1.24541556835,-0.039555773139,0.222680464387,0.0,12.3999996185,0.4165269459364548,-0.013229355564882942,0.0744750717013378,12.3999996185,0.0,0.5892065929968561,1.2657848104226828
1648125718487873517,36438,42,3,2.42017197609,-0.902457654476,0.469790369272,0.0,12.3999996185,0.8094220655819396,-0.30182530250033446,0.15712052484013378,12.3999996185,0.0,1.1838186827936472,2.625331446319573
1648125718592951979,36439,43,0,0.0126097733155,0.0439508594573,0.0103506427258,0.0,13.0,0.004217315490133779,0.014699284099431437,0.0034617534199999998,13.0,0.0,0.01586317915559307,0.04688091546611253
1648125718592959062,36440,43,1,0.0328744277358,0.0146502861753,-0.0300409924239,0.0,13.0,0.010994791884882943,0.0048997612626421405,-0.010047154656822743,13.0,0.0,0.01630271626492543,0.04688091413131083
1648125718592962184,36441,43,2,1.24874746799,-0.079111546278,0.191264539957,0.0,13.0,0.4176412936421404,-0.026458711129765885,0.06396807356421404,13.0,0.0,0.5912263218978072,1.2657847367585433
1648125718592965414,36442,43,3,2.4191608429,-0.902457654476,0.47496882081,0.0,13.0,0.8090838939464883,-0.30182530250033446,0.15885244843143811,13.0,0.0,1.18335624733917,2.6253312900821877
1648125718788054645,36443,45,0,0.0126097733155,0.0439508594573,0.0103506427258,0.0,13.0,0.004217315490133779,0.014699284099431437,0.0034617534199999998,13.0,0.0,0.01586317915559307,0.04688091546611253
1648125718788058819,36444,45,1,0.032850060612,0.0146502861753,-0.0300676375628,0.0,13.0,0.010986642345150502,0.0048997612626421405,-0.01005606607451505,13.0,0.0,0.01629172429399039,0.046880915049070465
1648125718788063013,36445,45,2,1.23767185211,-0.079111546278,0.253220647573,0.0,13.0,0.41393707428428095,-0.026458711129765885,0.084689179790301,13.0,0.0,0.5859930599663353,1.2657847157463957
1648125718788173925,36446,45,3,2.41537833214,-0.902457654476,0.493844658136,0.0,13.0,0.8078188401806019,-0.30182530250033446,0.1651654375036789,13.0,0.0,1.1816264512657475,2.6253313794382596
1648125718893111817,36447,46,0,0.0126097733155,0.0439508594573,0.0103506427258,0.0,12.6999998093,0.004217315490133779,0.014699284099431437,0.0034617534199999998,12.6999998093,0.0,0.01586317915559307,0.04688091546611253
1648125718893118857,36448,46,1,0.0328872464597,0.0146502861753,-0.0300269592553,0.0,12.6999998093,0.010999079083511706,0.0048997612626421405,-0.010042461289397992,12.6999998093,0.0,0.0163084990664861,0.0468809145264753
1648125718893123438,36449,46,2,1.23569405079,-0.079111546278,0.262702524662,0.0,12.6999998093,0.413275602270903,-0.026458711129765885,0.08786037614113712,12.6999998093,0.0,0.5850585528469809,1.2657847527822745
1648125718893130993,36450,46,3,2.41716909409,-0.902457654476,0.485003978014,0.0,12.6999998093,0.8084177572207357,-0.30182530250033446,0.16220868829899665,12.6999998093,0.0,1.182445370242967,2.62533142788403
