%time,field.header.seq,field.header.frame_id,field.point_id,field.x,field.y,field.z,field.velocity,field.intensity,normalized_x,normalized_y,normalized_z,normalized_intensity,normalized_velocity,normalized_range,range
1648218705340601927,45921,0,0,0.00521258730441,0.0454158857465,0.0103945415467,0.0,11.8999996185,0.0017433402355886286,0.015189259446989964,0.0034764352998996654,11.8999996185,0.0,0.015388049678306159,0.046880915504193287
1648218705340606378,45922,0,1,0.0335255041718,0.0146502861753,-0.0293126236647,0.0,11.8999996185,0.011212543201270903,0.0048997612626421405,-0.009803553065117055,11.8999996185,0.0,0.0165966837202985,0.04688091531849496
1648218705340608108,45923,0,2,2.01683139801,0.128922522068,0.413219004869,0.0,11.8999996185,0.674525551173913,0.04311790035719063,0.1382003360765886,11.8999996185,0.0,0.9548971628945992,2.06276025041212
1648218705340612505,45924,0,3,1.96774172783,0.193383783102,0.587856352329,0.323675245047,11.8999996185,0.6581076012809364,0.06467685053578595,0.19660747569531772,11.8999996185,0.04373989797932432,0.932949261601468,2.0627602589694694
1648218705340614412,45925,0,4,1.86602699757,-0.0,0.628409147263,-0.242756426334,11.8999996185,0.6240892968461538,-0.0,0.21017028336555182,11.8999996185,-0.03280492247756756,0.8825955477317191,1.9689984286494286
1648218705340616037,45926,0,5,1.87690210342,-0.0,0.414456605911,-0.0809188112617,11.8999996185,0.627726455993311,-0.0,0.13861424946856185,11.8999996185,-0.010934974494824324,0.8877392675261383,1.922117526064857
1648218705445600800,45927,1,0,0.00521258730441,0.0454158857465,0.0103945415467,0.0,18.7999992371,0.0017433402355886286,0.015189259446989964,0.0034764352998996654,18.7999992371,0.0,0.015388049678306159,0.046880915504193287
1648218705445610452,45928,1,1,0.0334289707243,0.0146502861753,-0.0294226650149,0.0,18.7999992371,0.011180257767324413,0.0048997612626421405,-0.009840356192274247,18.7999992371,0.0,0.016553065816292893,0.04688091493649962
1648218705445613060,45929,1,2,2.05049300194,0.064461261034,0.215183585882,0.0,18.7999992371,0.6857836126889632,0.021558950178595316,0.07196775447558529,18.7999992371,0.0,0.9700840763553717,2.0627604758701485
1648218705445647569,45930,1,3,1.84012210369,-0.0600661747158,0.55215805769,-0.404594063759,18.7999992371,0.6154254527391304,-0.020089021644080267,0.18466824671906354,18.7999992371,-0.05467487348094594,0.8705748356970489,1.9221175360798033
1648218705640795633,45931,3,0,0.00525120040402,0.0454158857465,0.0103750880808,0.0,24.7999992371,0.0017562543157257522,0.015189259446989964,0.0034699291240133778,24.7999992371,0.0,0.01539098635536347,0.04688091548281325
1648218705640796664,45932,3,1,0.0334289707243,0.0146502861753,-0.0294226650149,0.0,24.7999992371,0.011180257767324413,0.0048997612626421405,-0.009840356192274247,24.7999992371,0.0,0.016553065816292893,0.04688091493649962
1648218705640799165,45933,3,2,1.91718304157,0.120132349432,-0.0671824067831,0.0,24.7999992371,0.6411983416622073,0.040178043288294316,-0.022469032368929765,24.7999992371,0.0,0.9076810573451479,1.9221176009924101
1648218705640800221,45934,3,3,1.76438009739,1.12074697018,0.28543934226,0.0,24.7999992371,0.5900936780568561,0.3748317626020066,0.0954646629632107,24.7999992371,0.0,0.91483328974227,2.109641324335352
1648218705640801161,45935,3,4,1.97122812271,-0.0,0.751562416553,0.0,24.7999992371,0.6592736196354514,-0.0,0.25135866774347826,24.7999992371,0.0,0.9323536942032566,2.1096412912478213
1648218705640802163,45936,3,5,1.72981595993,-0.228544458747,0.546249866486,-0.485512852669,24.7999992371,0.5785337658628762,-0.07643627382842809,0.182692263038796,24.7999992371,-0.06560984495527027,0.8217330104381453,1.828355748066683
1648218705640803798,45937,3,6,2.00669693947,0.527410328388,0.381565481424,-0.161837622523,24.7999992371,0.6711361001571905,0.1763914141765886,0.12761387338595317,24.7999992371,-0.021869948989594594,0.9653814069390511,2.1096413150066367
1648218705640804757,45938,3,7,2.03346800804,0.193383783102,0.287385195494,-0.0809188112617,24.7999992371,0.6800896347959865,0.06467685053578595,0.0961154499979933,24.7999992371,-0.010934974494824324,0.9639641682703278,2.062760208525977
1648218705745562097,45939,4,0,0.00529456837103,0.0454158857465,0.0103530241176,0.0,16.2000007629,0.0017707586525183944,0.015189259446989964,0.003462549872107023,16.2000007629,0.0,0.015394309824052243,0.04688091552811506
1648218705745564731,45940,4,1,0.0334289707243,0.0146502861753,-0.0294226650149,0.0,16.2000007629,0.011180257767324413,0.0048997612626421405,-0.009840356192274247,16.2000007629,0.0,0.016553065816292893,0.04688091493649962
1648218705745570379,45941,4,2,1.90651702881,0.180198520422,-0.165097534657,0.0,16.2000007629,0.6376311133143812,0.06026706368628762,-0.05521656677491638,16.2000007629,0.0,0.9037582598784043,1.9221175520385343
1648218705745607403,45942,4,3,1.11886465549,-1.56172049046,-0.0608844123781,0.0,16.2000007629,0.3742022259163879,-0.5223145453043477,-0.020362679725117055,16.2000007629,0.0,0.743550331852556,1.9221175612584172
1648218705745622094,45943,4,4,2.02668333054,0.395557761192,0.432058781385,0.0,16.2000007629,0.6778205118862876,0.1322935656160535,0.14450126467725752,16.2000007629,0.0,0.9676687863990379,2.109641214827731
1648218705745749282,45944,4,5,1.69173574448,1.25259947777,-0.140040054917,0.0,16.2000007629,0.5657979078528428,0.41892959122742474,-0.04683613876822742,16.2000007629,0.0,0.9031924199567251,2.109641319713409
1648218705745753361,45945,4,6,1.73179781437,-0.34281668067,0.475644260645,-0.485512852669,16.2000007629,0.5791965934347826,-0.1146544082508361,0.159078348041806,16.2000007629,-0.06560984495527027,0.8270931150869671,1.8283556571648838
1648218705745801617,45946,4,7,1.96002757549,-0.0,0.471234232187,-0.0809188112617,16.2000007629,0.6555276172207357,-0.0,0.15760342213612039,16.2000007629,-0.010934974494824324,0.9270560467836833,2.015879410645905
1648218705940595661,45947,6,0,0.00521258730441,0.0454158857465,0.0103945415467,0.0,16.1000003815,0.0017433402355886286,0.015189259446989964,0.0034764352998996654,16.1000003815,0.0,0.015388049678306159,0.046880915504193287
1648218705940761946,45948,6,1,0.0334289707243,0.0146502861753,-0.0294226650149,0.0,16.1000003815,0.011180257767324413,0.0048997612626421405,-0.009840356192274247,16.1000003815,0.0,0.016553065816292893,0.04688091493649962
1648218705940766236,45949,6,2,1.91197133064,0.180198520422,-0.0801889300346,0.0,16.1000003815,0.639455294528428,0.06026706368628762,-0.026819040145351167,16.1000003815,0.0,0.9063323156360718,1.9221176187870668
1648218705940853107,45950,6,3,1.82976806164,0.755954742432,0.379804164171,-0.404594063759,16.1000003815,0.6119625624214047,0.2528276730541806,0.12702480407056854,16.1000003815,-0.05467487348094594,0.901619757920563,2.015879444591086
1648218705940858425,45951,6,4,1.74787354469,-0.334026515484,0.0837664976716,-0.161837622523,16.1000003815,0.5845730918695652,-0.11171455367357858,0.02801555106073578,16.1000003815,-0.021869948989594594,0.8342251140899398,1.7814748012267068
1648218705940861630,45952,6,5,2.09771895409,0.131852582097,0.181042477489,-0.161837622523,16.1000003815,0.7015782455150501,0.04409785354414715,0.06054932357491638,16.1000003815,-0.021869948989594594,0.9931609586804915,2.1096412710243997
1648218705940864098,45953,6,6,2.03637194633,0.128922522068,0.302568584681,-0.0809188112617,16.1000003815,0.6810608516153845,0.04311790035719063,0.10119350658227425,16.1000003815,-0.010934974494824324,0.964130136722921,2.0627601578787753
1648218706045558143,45954,7,0,0.00543765118346,0.0454158857465,0.0102785946801,0.0,13.8999996185,0.001818612435939799,0.015189259446989964,0.0034376570836454844,13.8999996185,0.0,0.01540546347671123,0.046880915489460155
1648218706045601726,45955,7,1,0.0334517285228,0.0146502861753,-0.0293967872858,0.0,13.8999996185,0.011187869071170567,0.0048997612626421405,-0.009831701433377926,13.8999996185,0.0,0.016563347763607406,0.046880914335237424
1648218706045608921,45956,7,2,1.95125496387,0.12306240201,0.233269259334,0.0,13.8999996185,0.6525936334013378,0.04115799398327759,0.07801647469364548,13.8999996185,0.0,0.9238240531511652,1.968998434779982
1648218706045613832,45957,7,3,2.1115128994,-1.12074685097,-0.0443776808679,0.0,13.8999996185,0.7061916051505016,-0.3748317227324415,-0.01484203373508361,13.8999996185,0.0,1.0667295752610657,2.3909265164055085
1648218706045724829,45958,7,4,2.10814976692,1.04603040218,0.4219648242,0.0,13.8999996185,0.7050668116789297,0.34984294387290965,0.14112535926421402,13.8999996185,0.0,1.056706441373311,2.3909264637189995
1648218706240600812,45959,9,0,0.00525120040402,0.0454158857465,0.0103750880808,0.0,11.3000001907,0.0017562543157257522,0.015189259446989964,0.0034699291240133778,11.3000001907,0.0,0.01539098635536347,0.04688091548281325
1648218706240623370,45960,9,1,0.0334289707243,0.0146502861753,-0.0294226650149,0.0,11.3000001907,0.011180257767324413,0.0048997612626421405,-0.009840356192274247,11.3000001907,0.0,0.016553065816292893,0.04688091493649962
1648218706240714693,45961,9,2,1.68529081345,-0.0,-0.0903868898749,0.404594063759,11.3000001907,0.5636424125250835,-0.0,-0.0302297290551505,11.3000001907,0.05467487348094594,0.7971107441216639,1.6877129245698808
1648218706240729960,45962,9,3,1.9472476244,-0.0,0.521532773972,-0.0809188112617,11.3000001907,0.6512533860869565,-0.0,0.17442567691371239,11.3000001907,-0.010934974494824324,0.9210113711455754,2.015879397448759
1648218706240730927,45963,9,4,1.43993389606,0.755954742432,-1.19117283821,-0.0809188112617,11.3000001907,0.48158324282943143,0.2528276730541806,-0.39838556461872904,11.3000001907,-0.010934974494824324,0.7264755135654704,2.0158794428529774
1648218706345669793,45964,10,0,0.00521258730441,0.0454158857465,0.0103945415467,0.0,18.0,0.0017433402355886286,0.015189259446989964,0.0034764352998996654,18.0,0.0,0.015388049678306159,0.046880915504193287
1648218706345674417,45965,10,1,0.0334517285228,0.0146502861753,-0.0293967872858,0.0,18.0,0.011187869071170567,0.0048997612626421405,-0.009831701433377926,18.0,0.0,0.016563347763607406,0.046880914335237424
1648218706345678640,45966,10,2,1.94731807709,0.184593603015,0.225460529327,-0.0809188112617,18.0,0.6512769488595317,0.06173699097491638,0.07540485930668896,18.0,-0.010934974494824324,0.923111469047048,1.9689984616347382
1648218706540598580,45967,12,0,0.00543765118346,0.0454158857465,0.0102785946801,0.0,21.3999996185,0.001818612435939799,0.015189259446989964,0.0034376570836454844,21.3999996185,0.0,0.01540546347671123,0.046880915489460155
1648218706540604016,45968,12,1,0.0334658920765,0.0146502861753,-0.0293806623667,0.0,21.3999996185,0.011192606045652172,0.0048997612626421405,-0.009826308483846153,21.3999996185,0.0,0.016569747150069238,0.046880914438608735
1648218706540608975,45969,12,2,1.91736137867,0.120132349432,0.0618834458292,0.0,21.3999996185,0.6412579861772575,0.040178043288294316,0.0206968046251505,21.3999996185,0.0,0.9077653247589377,1.9221175819036334
1648218706540613163,45970,12,3,0.0604286268353,0.961058795452,1.66350543499,0.0,21.3999996185,0.020210243088729096,0.3214243463050167,0.5563563327725752,21.3999996185,0.0,0.32269260643686637,1.9221175717156633
1648218706540614996,45971,12,4,1.94470322132,0.125992462039,0.515776276588,-0.0809188112617,21.3999996185,0.6504024151571905,0.04213794717023411,0.17250042695250833,21.3999996185,-0.010934974494824324,0.920772615728951,2.0158794326531573
1648218706645607825,45972,13,0,0.00521258730441,0.0454158857465,0.0103945415467,0.0,16.7000007629,0.0017433402355886286,0.015189259446989964,0.0034764352998996654,16.7000007629,0.0,0.015388049678306159,0.046880915504193287
1648218706645622046,45973,13,1,0.0334289707243,0.0146502861753,-0.0294226650149,0.0,16.7000007629,0.011180257767324413,0.0048997612626421405,-0.009840356192274247,16.7000007629,0.0,0.016553065816292893,0.04688091493649962
1648218706645627118,45974,13,2,1.9488440752,-0.0,0.281000643969,0.0,16.7000007629,0.6517873161204013,-0.0,0.09398014848461538,16.7000007629,0.0,0.9217664622402314,1.9689983726131255
1648218706840564244,45975,15,0,0.00521258730441,0.0454158857465,0.0103945415467,0.0,19.1000003815,0.0017433402355886286,0.015189259446989964,0.0034764352998996654,19.1000003815,0.0,0.015388049678306159,0.046880915504193287
1648218706840570703,45976,15,1,0.0334289707243,0.0146502861753,-0.0294226650149,0.0,19.1000003815,0.011180257767324413,0.0048997612626421405,-0.009840356192274247,19.1000003815,0.0,0.016553065816292893,0.04688091493649962
1648218706840731367,45977,15,2,1.95978009701,-0.12306240201,-0.145163923502,0.0,19.1000003815,0.6554448484983277,-0.04115799398327759,-0.04854980719130434,19.1000003815,0.0,0.9278522939103612,1.9689984632069908
1648218706840735645,45978,15,3,1.11816704273,0.553780794144,1.52314937115,0.0,19.1000003815,0.3739689106120401,0.18521096794113712,0.5094145054013377,19.1000003815,0.0,0.560364698080103,1.9689984028040635
1648218706945717176,45979,16,0,0.00521258730441,0.0454158857465,0.0103945415467,0.0,13.5,0.0017433402355886286,0.015189259446989964,0.0034764352998996654,13.5,0.0,0.015388049678306159,0.046880915504193287
1648218706945727382,45980,16,1,0.0335114225745,0.0146502861753,-0.0293287187815,0.0,13.5,0.011207833636956521,0.0048997612626421405,-0.009808936047324414,13.5,0.0,0.01659032037358762,0.046880913742686436
1648218706945733867,45981,16,2,1.87144553661,0.180198520422,0.399695158005,0.0,13.5,0.6259015172608695,0.06026706368628762,0.1336773103695652,13.5,0.0,0.8872077195247369,1.9221176141413436
1648218707140628577,45982,18,0,0.00539573840797,0.0454158857465,0.0103006586432,0.0,16.7000007629,0.0018045947852742474,0.015189259446989964,0.003445036335518394,16.7000007629,0.0,0.015402166316010612,0.04688091551569908
1648218707140630628,45983,18,1,0.0334517285228,0.0146502861753,-0.0293967872858,0.0,16.7000007629,0.011187869071170567,0.0048997612626421405,-0.009831701433377926,16.7000007629,0.0,0.016563347763607406,0.046880914335237424
1648218707140632537,45984,18,2,1.96523594856,-0.061531201005,0.104959979653,0.0,16.7000007629,0.6572695480133779,-0.020578996991638794,0.03510367212474916,16.7000007629,0.0,0.9297472842706248,1.9689984813448684
1648218707245722228,45985,19,0,0.00539573840797,0.0454158857465,0.0103006586432,0.0,14.8000001907,0.0018045947852742474,0.015189259446989964,0.003445036335518394,14.8000001907,0.0,0.015402166316010612,0.04688091551569908
1648218707245724052,45986,19,1,0.0334517285228,0.0146502861753,-0.0293967872858,0.0,14.8000001907,0.011187869071170567,0.0048997612626421405,-0.009831701433377926,14.8000001907,0.0,0.016563347763607406,0.046880914335237424
1648218707245728193,45987,19,2,1.96733248234,-0.0,-0.0809786990285,0.0,14.8000001907,0.6579707298795986,-0.0,-0.027083176932608692,14.8000001907,0.0,0.9305111298402525,1.9689983864306275
1648218707245729879,45988,19,3,1.73001265526,1.64376199245,0.147080346942,0.242756426334,14.8000001907,0.5785995502541805,0.5497531747324415,0.04919075148561873,14.8000001907,0.03280492247756756,0.9857907649380158,2.3909265784711016
1648218707440689399,45989,21,0,0.00535855535418,0.0454158857465,0.0103200506419,0.0,25.2000007629,0.0017921589813311035,0.015189259446989964,0.0034515219538127084,25.2000007629,0.0,0.015399262001041003,0.04688091550806504
1648218707440699123,45990,21,1,0.0334289707243,0.0146502861753,-0.0294226650149,0.0,25.2000007629,0.011180257767324413,0.0048997612626421405,-0.009840356192274247,25.2000007629,0.0,0.016553065816292893,0.04688091493649962
1648218707440701196,45991,21,2,1.92254722118,-0.0,0.425166845322,0.0,25.2000007629,0.6429923816655518,-0.0,0.14219626933846152,25.2000007629,0.0,0.9093285466540009,1.9689983910679056
