%time,field.header.seq,field.header.frame_id,field.point_id,field.x,field.y,field.z,field.velocity,field.intensity,normalized_x,normalized_y,normalized_z,normalized_intensity,normalized_velocity,normalized_range,range
1648127546499179003,115710,0,0,0.0126824676991,0.0439508594573,0.0102614425123,0.0,13.1999998093,0.004241627993010033,0.014699284099431437,0.003431920572675585,13.1999998093,0.0,0.015876138355972163,0.04688091548175322
1648127546499185057,115711,0,1,0.0329111367464,0.0146502861753,-0.0300007723272,0.0,13.1999998093,0.011007069145953176,0.0048997612626421405,-0.010033703119464882,13.1999998093,0.0,0.016319277030508346,0.04688091453018932
1648127546499191366,115712,0,2,0.156573817134,-0.399952799082,-0.432381808758,0.0,13.1999998093,0.05236582512842809,-0.13376347795384613,-0.14460930058795984,13.1999998093,0.0,0.15289547840623444,0.609451909710912
1648127546499260831,115713,0,3,1.40517961979,-0.0,-0.059234213084,0.0,13.1999998093,0.4699597390602006,-0.0,-0.019810773606688963,13.1999998093,0.0,0.6646234367482565,1.406427550879479
1648127546499266348,115714,0,4,1.857416749,-1.31852579117,0.55321252346,0.0,13.1999998093,0.6212096150501671,-0.44097852547491634,0.1850209108561873,13.1999998093,0.0,0.9829877067347206,2.3440459333296317
1648127546499277231,115715,0,5,2.44769692421,-0.632892370224,0.130657076836,0.0,13.1999998093,0.8186277338494984,-0.21166968903812708,0.04369801900869565,13.1999998093,0.0,1.1769055996606643,2.531569524386438
1648127546499300002,115716,0,6,2.42835068703,-0.902457654476,0.4254976511,0.0,13.1999998093,0.8121574204113712,-0.30182530250033446,0.142306906722408,13.1999998093,0.0,1.1875596255716694,2.625331432107766
1648127546499303746,115717,0,7,1.47547590733,-0.241729736328,0.397446900606,0.0809188112617,13.1999998093,0.49347020312040124,-0.08084606566153846,0.1329253848180602,13.1999998093,0.010934974494824324,0.7025395142398255,1.5470702819645288
1648127546499306068,115718,0,8,0.818493843079,0.290075659752,1.28037118912,0.0809188112617,13.1999998093,0.2737437602270903,0.09701527082006689,0.42821778900334445,13.1999998093,0.010934974494824324,0.39910306350468466,1.5470702768353322
1648127546694130928,115719,2,0,0.0125934295356,0.0439508594573,0.0103705218062,0.0,22.6000003815,0.004211849343010033,0.014699284099431437,0.0034684019418729094,22.6000003815,0.0,0.01586027436119016,0.046880915488462134
1648127546694136494,115720,2,1,0.0329111367464,0.0146502861753,-0.0300007723272,0.0,22.6000003815,0.011007069145953176,0.0048997612626421405,-0.010033703119464882,22.6000003815,0.0,0.016319277030508346,0.04688091453018932
1648127546694143999,115721,2,2,0.14476314187,-0.399952799082,-0.436477959156,0.0,22.6000003815,0.048415766511705684,-0.13376347795384613,-0.14597925055384614,22.6000003815,0.0,0.15026922814781837,0.6094518993050946
1648127546694146919,115722,2,3,1.40632915497,-0.0,0.016629319638,0.0,22.6000003815,0.47034419898662205,-0.0,0.005561645363879598,22.6000003815,0.0,0.6651671451903907,1.4064274692959666
1648127546694170522,115723,2,4,1.52372598648,0.145037829876,0.225054726005,0.0,22.6000003815,0.5096073533377926,0.048507635410033445,0.07526913913210702,22.6000003815,0.0,0.722324234568502,1.5470702904738276
1648127546694255488,115724,2,5,2.40449523926,-0.902457654476,0.544369518757,0.0,22.6000003815,0.8041790097859531,-0.30182530250033446,0.18206338419966556,22.6000003815,0.0,1.1766504463051253,2.62533147368062
1648127546694266884,115725,2,6,1.46083629131,0.298865824938,0.563308775425,0.161837622523,22.6000003815,0.48857401047157184,0.09995512539732442,0.1883975837541806,22.6000003815,0.021869948989594594,0.6981404976863511,1.5939511372043496
