%time,field.header.seq,field.header.frame_id,field.point_id,field.x,field.y,field.z,field.velocity,field.intensity,normalized_x,normalized_y,normalized_z,normalized_intensity,normalized_velocity,normalized_range,range
1648219995157551480,94373,0,0,0.0122742131352,0.0439508594573,0.0107464361936,0.0,17.8999996185,0.004105088005083611,0.014699284099431437,0.0035941258172575248,17.8999996185,0.0,0.01580419083960835,0.04688091558392145
1648219995157561410,94374,0,1,0.0335131697357,0.0146502861753,-0.0293267238885,0.0,17.8999996185,0.011208417971806021,0.0048997612626421405,-0.0098082688590301,17.8999996185,0.0,0.01659110988729497,0.04688091471787151
1648219995157566302,94375,0,2,1.81988680363,0.114272229373,0.133559674025,0.0,17.8999996185,0.6086577938561872,0.03821813691404682,0.044668787299331096,17.8999996185,0.0,0.8616201286140793,1.828355629235778
1648219995157572716,94376,0,3,1.61661696434,-0.474669247866,-0.0980487689376,-0.0809188112617,17.8999996185,0.5406745700133778,-0.15875225681137123,-0.03279223041391304,17.8999996185,-0.010934974494824324,0.780935503329824,1.687712909635916
1648219995262550452,94377,1,0,0.0122832721099,0.0439508594573,0.0107360808179,0.0,14.3999996185,0.004108117762508361,0.014699284099431437,0.00359066248090301,14.3999996185,0.0,0.015805765281601245,0.046880915649010785
1648219995262555929,94378,1,1,0.0333878919482,0.0146502861753,-0.0294692683965,0.0,14.3999996185,0.011166519046220735,0.0048997612626421405,-0.009855942607525084,14.3999996185,0.0,0.016534508025644712,0.04688091289200561
1648219995457607242,94379,3,0,0.0122832721099,0.0439508594573,0.0107360808179,0.0,26.7000007629,0.004108117762508361,0.014699284099431437,0.00359066248090301,26.7000007629,0.0,0.015805765281601245,0.046880915649010785
1648219995457618423,94380,3,1,0.0334718860686,0.0146502861753,-0.0293738357723,0.0,26.7000007629,0.01119461072528428,0.0048997612626421405,-0.009824025341906354,26.7000007629,0.0,0.016572455430991152,0.04688091583987642
1648219995457623191,94381,3,2,2.11092615128,-1.12074685097,-0.0666882246733,0.0,26.7000007629,0.7059953683210702,-0.3748317227324415,-0.022303754071337792,26.7000007629,0.0,1.066469756040075,2.390926606867522
1648219995562612959,94382,4,0,0.0122742131352,0.0439508594573,0.0107464361936,0.0,12.3999996185,0.004105088005083611,0.014699284099431437,0.0035941258172575248,12.3999996185,0.0,0.01580419083960835,0.04688091558392145
1648219995562615895,94383,4,1,0.0334718860686,0.0146502861753,-0.0293738357723,0.0,12.3999996185,0.01119461072528428,0.0048997612626421405,-0.009824025341906354,12.3999996185,0.0,0.016572455430991152,0.04688091583987642
1648219995562617506,94384,4,2,1.91644191742,0.120132349432,-0.0857603177428,0.0,12.3999996185,0.6409504740535117,0.040178043288294316,-0.028682380515986622,12.3999996185,0.0,0.9073308633245751,1.9221176437262744
1648219995562619793,94385,4,3,1.6638481617,-0.487854540348,0.0492260791361,0.323675245047,12.3999996185,0.556470957090301,-0.16316205362809363,0.016463571617424747,12.3999996185,0.04373989797932432,0.8037049881107671,1.7345938903955995
1648219995757625742,94386,6,0,0.0122742131352,0.0439508594573,0.0107464361936,0.0,26.6000003815,0.004105088005083611,0.014699284099431437,0.0035941258172575248,26.6000003815,0.0,0.01580419083960835,0.04688091558392145
1648219995757628809,94387,6,1,0.0334718860686,0.0146502861753,-0.0293738357723,0.0,26.6000003815,0.01119461072528428,0.0048997612626421405,-0.009824025341906354,26.6000003815,0.0,0.016572455430991152,0.04688091583987642
1648219995757633375,94388,6,2,1.87155687809,0.117202289402,-0.00712144933641,0.0,26.6000003815,0.6259387552140467,0.03919809010100334,-0.0023817556309063542,26.6000003815,0.0,0.8860785184312884,1.8752365823030726
1648219995862701434,94389,7,0,0.0122964046896,0.0439508594573,0.010721036233,0.0,20.1000003815,0.004112509929632107,0.014699284099431437,0.00358563084715719,20.1000003815,0.0,0.015808049496330762,0.0468809154479203
1648219995862708502,94390,7,1,0.0334489420056,0.0146502861753,-0.0293999575078,0.0,20.1000003815,0.011186937125618728,0.0048997612626421405,-0.009832761708294314,20.1000003815,0.0,0.016562088785415374,0.046880914109823243
1648219995862712485,94391,7,2,1.77311682701,0.171408340335,0.411777496338,0.0,20.1000003815,0.5930156612073578,0.05732720412541805,0.1377182262,20.1000003815,0.0,0.8406078498367934,1.8283557662153176
1648219996057671793,94392,9,0,0.0122832721099,0.0439508594573,0.0107360808179,0.0,13.6000003815,0.004108117762508361,0.014699284099431437,0.00359066248090301,13.6000003815,0.0,0.015805765281601245,0.046880915649010785
1648219996057685763,94393,9,1,0.0334626622498,0.0146502861753,-0.0293843410909,0.0,13.6000003815,0.01119152583605351,0.0048997612626421405,-0.00982753882638796,13.6000003815,0.0,0.016568287826718698,0.046880914573083264
1648219996057860269,94394,9,2,1.60863947868,0.111342176795,0.757320582867,0.0,13.6000003815,0.5380065146086956,0.037238186219063545,0.2532844758752508,13.6000003815,0.0,0.7617668291778521,1.7814748154086613
1648219996057873782,94395,9,3,1.68443763256,-0.556710898876,-0.162467449903,0.0,13.6000003815,0.5633570677458193,-0.18619093607892975,-0.05433693976688963,13.6000003815,0.0,0.8181744534243802,1.7814749044512654
1648219996162663775,94396,10,0,0.0122964046896,0.0439508594573,0.010721036233,0.0,13.6999998093,0.004112509929632107,0.014699284099431437,0.00358563084715719,13.6999998093,0.0,0.015808049496330762,0.0468809154479203
1648219996162667390,94397,10,1,0.0334489420056,0.0146502861753,-0.0293999575078,0.0,13.6999998093,0.011186937125618728,0.0048997612626421405,-0.009832761708294314,13.6999998093,0.0,0.016562088785415374,0.046880914109823243
1648219996162669622,94398,10,2,1.86915099621,0.117202289402,0.0951332077384,0.0,13.6999998093,0.625134112444816,0.03919809010100334,0.031817126333913044,13.6999998093,0.0,0.8849416971484064,1.8752365585409492
1648219996162671293,94399,10,3,1.81438791752,0.171408340335,0.146629586816,-0.0809188112617,13.6999998093,0.6068187015117056,0.05732720412541805,0.049039995590635446,13.6999998093,-0.010934974494824324,0.8600838804102436,1.828355701199521
1648219996357678137,94400,12,0,0.0122609948739,0.0439508594573,0.0107615143061,0.0,20.7000007629,0.004100667181906354,0.014699284099431437,0.003599168664247491,20.7000007629,0.0,0.01580189532016098,0.046880915440011765
1648219996357688428,94401,12,1,0.0334718860686,0.0146502861753,-0.0293738357723,0.0,20.7000007629,0.01119461072528428,0.0048997612626421405,-0.009824025341906354,20.7000007629,0.0,0.016572455430991152,0.04688091583987642
1648219996357697522,94402,12,2,1.86637699604,0.175803437829,-0.0473523698747,0.0,20.7000007629,0.6242063531906354,0.05879713639765886,-0.015836913001571903,20.7000007629,0.0,0.8847170428875379,1.8752365682847965
1648219996357812615,94403,12,3,1.72525501251,0.162618175149,0.0765932500362,-0.323675245047,20.7000007629,0.5770083653879597,0.05438734954816053,0.025616471584013378,20.7000007629,-0.04373989797932432,0.8178235086167701,1.734593916463095
1648219996462659556,94404,13,0,0.0122609948739,0.0439508594573,0.0107615143061,0.0,25.6000003815,0.004100667181906354,0.014699284099431437,0.003599168664247491,25.6000003815,0.0,0.01580189532016098,0.046880915440011765
1648219996462666107,94405,13,1,0.0334489420056,0.0146502861753,-0.0293999575078,0.0,25.6000003815,0.011186937125618728,0.0048997612626421405,-0.009832761708294314,25.6000003815,0.0,0.016562088785415374,0.046880914109823243
1648219996462668335,94406,13,2,1.86051118374,0.234404578805,-0.00805259682238,0.0,25.6000003815,0.6222445430568561,0.07839618020234114,-0.0026931761947759196,25.6000003815,0.0,0.8834718466359803,1.8752365759290077
1648219996657573731,94407,15,0,0.0122609948739,0.0439508594573,0.0107615143061,0.0,17.7000007629,0.004100667181906354,0.014699284099431437,0.003599168664247491,17.7000007629,0.0,0.01580189532016098,0.046880915440011765
1648219996657576288,94408,15,1,0.033485610038,0.0146502861753,-0.0293581876904,0.0,17.7000007629,0.01119920068160535,0.0048997612626421405,-0.009818791869698995,17.7000007629,0.0,0.016578656527132345,0.0468809145505924
1648219996657684598,94409,15,2,1.65586984158,-0.487854540348,0.170026451349,0.0,17.7000007629,0.5538026226020066,-0.16316205362809363,0.056865033895986614,17.7000007629,0.0,0.800010340774329,1.7345938945328576
1648219996657686345,94410,15,3,1.86661350727,0.175803437829,-0.0368739888072,0.0,17.7000007629,0.6242854539364548,0.05879713639765886,-0.012332437728160534,17.7000007629,0.0,0.8848286609518567,1.8752366584849656
1648219996762626606,94411,16,0,0.0122964046896,0.0439508594573,0.010721036233,0.0,19.2999992371,0.004112509929632107,0.014699284099431437,0.00358563084715719,19.2999992371,0.0,0.015808049496330762,0.0468809154479203
1648219996762638330,94412,16,1,0.0334626622498,0.0146502861753,-0.0293843410909,0.0,19.2999992371,0.01119152583605351,0.0048997612626421405,-0.00982753882638796,19.2999992371,0.0,0.016568287826718698,0.046880914573083264
1648219996762655303,94413,16,2,2.11148524284,-1.12074685097,-0.0456768199801,0.0,19.2999992371,0.706182355464883,-0.3748317227324415,-0.015276528421438127,19.2999992371,0.0,1.0667173283988738,2.3909265581723247
