%time,field.header.seq,field.header.frame_id,field.point_id,field.x,field.y,field.z,field.velocity,field.intensity,normalized_x,normalized_y,normalized_z,normalized_intensity,normalized_velocity,normalized_range,range
1648127773691294739,128773,0,0,0.0125890737399,0.0439508594573,0.0103758089244,0.0,13.0,0.004210392555150501,0.014699284099431437,0.003470170208829431,13.0,0.0,0.01585950074790286,0.0468809154720728
1648127773691399971,128774,0,1,0.0328981243074,0.0146502861753,-0.0300150439143,0.0,13.0,0.011002717159665552,0.0048997612626421405,-0.010038476225518393,13.0,0.0,0.016313406456717926,0.04688091647078464
1648127773691407065,128775,0,2,1.35830140114,0.0424858294427,-0.0397385545075,0.0,13.0,0.45428140506354514,0.01420930750591973,-0.013290486457357859,13.0,0.0,0.6426080410271998,1.3595465768985875
1648127773691411027,128776,0,3,1.50874722004,-0.0483459457755,0.338778704405,0.0,13.0,0.5045977324548495,-0.016169212633946488,0.1133039145167224,13.0,0.0,0.7137921172402742,1.5470703006035913
1648127773691416617,128777,0,4,2.42113995552,-0.902457654476,0.464776068926,0.0,13.0,0.8097458045217392,-0.30182530250033446,0.15544350131304346,13.0,0.0,1.18426139391206,2.625331464136294
1648127773886098824,128778,2,0,0.0125890737399,0.0439508594573,0.0103758089244,0.0,12.8999996185,0.004210392555150501,0.014699284099431437,0.003470170208829431,12.8999996185,0.0,0.01585950074790286,0.0468809154720728
1648127773886112546,128779,2,1,0.0328737124801,0.0146502861753,-0.0300417765975,0.0,12.8999996185,0.010994552668929765,0.0048997612626421405,-0.010047416922240803,12.8999996185,0.0,0.016302393603720582,0.04688091507614338
1648127773886126568,128780,2,2,1.35885238647,0.0424858294427,-0.00905599724501,0.0,12.8999996185,0.45446568109364543,0.01420930750591973,-0.003028761620404682,12.8999996185,0.0,0.6428685829962605,1.3595465659567347
1648127773886131587,128781,2,3,1.86395847797,-1.31852579117,0.530754029751,0.0,12.8999996185,0.623397484270903,-0.44097852547491634,0.17750970894682272,12.8999996185,0.0,0.9857539788002952,2.344045927381466
1648127773886167640,128782,2,4,2.41085338593,-0.902457654476,0.515481054783,0.0,12.8999996185,0.806305480244147,-0.30182530250033446,0.17240169056287624,12.8999996185,0.0,1.1795573611202246,2.625331328501731
1648127773886172190,128783,2,5,1.36068308353,-0.27249532938,0.431732267141,0.0809188112617,12.8999996185,0.45507795435785947,-0.09113556166555183,0.1443920625889632,12.8999996185,0.010934974494824324,0.6499981382166903,1.4533082635247525
1648127773886182769,128784,2,6,1.37907004356,0.140642747283,0.573544442654,0.161837622523,12.8999996185,0.46122743931772575,0.047037708121404675,0.1918208838307692,12.8999996185,0.021869948989594594,0.6539679254707277,1.5001892530968144
1648127773886263059,128785,2,7,1.44571852684,-0.046880915761,0.397829204798,-0.0809188112617,12.8999996185,0.4835179019531772,-0.015679236040468225,0.13305324575183947,12.8999996185,-0.010934974494824324,0.6839773106333406,1.5001893064880907
1648127773991108738,128786,3,0,0.0126038333401,0.0439508594573,0.0103578744456,0.0,15.0,0.004215328876287625,0.014699284099431437,0.003464172055384615,15.0,0.0,0.01586212306427883,0.04688091535935669
1648127773991113577,128787,3,1,0.0328981243074,0.0146502861753,-0.0300150439143,0.0,15.0,0.011002717159665552,0.0048997612626421405,-0.010038476225518393,15.0,0.0,0.016313406456717926,0.04688091647078464
1648127773991118379,128788,3,2,1.35887753963,0.0424858294427,0.00370557443239,0.0,15.0,0.45447409352173906,0.01420930750591973,0.001239322552638796,15.0,0.0,0.6428804770597802,1.3595465952648296
1648127773991120105,128789,3,3,1.86823141575,-1.31852579117,0.515511989594,0.0,15.0,0.624826560451505,-0.44097852547491634,0.1724120366535117,15.0,0.0,0.9875619075386352,2.3440459671667893
1648127773991126508,128790,3,4,2.42969608307,-0.902457654476,0.417745947838,0.0,15.0,0.8126073856421404,-0.30182530250033446,0.13971436382541805,15.0,0.0,1.1881750879519932,2.6253313221654695
1648127773991138644,128791,3,5,1.3920686245,-0.234404578805,0.507707953453,0.0809188112617,15.0,0.46557479080267555,-0.07839618020234114,0.16980199112140468,15.0,0.010934974494824324,0.6630729467654581,1.5001892973493396
1648127773991195202,128792,3,6,0.557942032814,0.281285494566,-1.36387205124,0.0809188112617,15.0,0.1866026865598662,0.09407541624280935,-0.45614449874247487,15.0,0.010934974494824324,0.28016300470257877,1.5001892592561323
1648127773991232841,128793,3,7,1.4180495739,0.290075659752,0.546276330948,0.242756426334,15.0,0.4742640715384615,0.09701527082006689,0.18270111402943143,15.0,0.03280492247756756,0.6776907715741515,1.547070235048344
1648127774186044489,128794,5,0,0.0126038333401,0.0439508594573,0.0103578744456,0.0,39.2999992371,0.004215328876287625,0.014699284099431437,0.003464172055384615,39.2999992371,0.0,0.01586212306427883,0.04688091535935669
1648127774186049678,128795,5,1,0.0329502373934,0.0146502861753,-0.0299578215927,0.0,39.2999992371,0.011020146285418059,0.0048997612626421405,-0.010019338325317725,39.2999992371,0.0,0.016336918581388457,0.046880914068303366
1648127774186071591,128796,5,2,1.31187415123,0.0410208031535,-0.0198655314744,0.0,39.2999992371,0.4387538967324415,0.013719332158361203,-0.006643990459665552,39.2999992371,0.0,0.6206433628668523,1.3126656597540562
1648127774186073671,128797,5,3,1.41410696507,0.338421612978,0.528392791748,0.0,39.2999992371,0.4729454732675585,0.11318448594581938,0.17671999724013376,39.2999992371,0.0,0.6783550465850233,1.5470703407283597
1648127774186076360,128798,5,4,1.51819849014,-0.290075659752,-0.0659991502762,0.0,39.2999992371,0.5077586923545151,-0.09701527082006689,-0.02207329440675585,39.2999992371,0.0,0.7246031618033593,1.5470702736725035
1648127774186081557,128799,5,5,1.86222100258,-1.31852579117,0.536818385124,0.0,39.2999992371,0.6228163888227424,-0.44097852547491634,0.17953792144615385,39.2999992371,0.0,0.9850190700196795,2.3440459259659723
1648127774186236199,128800,5,6,2.38914299011,-0.984499275684,0.463812023401,0.0,39.2999992371,0.7990444782976588,-0.32926397180066885,0.1551210780605351,39.2999992371,0.0,1.1770127100936112,2.625331339862723
1648127774291049886,128801,6,0,0.0125934295356,0.0439508594573,0.0103705218062,0.0,12.1000003815,0.004211849343010033,0.014699284099431437,0.0034684019418729094,12.1000003815,0.0,0.01586027436119016,0.046880915488462134
1648127774291060044,128802,6,1,0.0328981243074,0.0146502861753,-0.0300150439143,0.0,12.1000003815,0.011002717159665552,0.0048997612626421405,-0.010038476225518393,12.1000003815,0.0,0.016313406456717926,0.04688091647078464
1648127774291065526,128803,6,2,1.31038296223,0.0410208031535,-0.0656114816666,0.0,12.1000003815,0.43825517131438124,0.013719332158361203,-0.021943639353377925,12.1000003815,0.0,0.6199382311508678,1.3126656392701512
1648127774291071581,128804,6,3,1.47758936882,0.290075659752,0.354982107878,0.0,12.1000003815,0.49417704642809357,0.09701527082006689,0.11872311300267557,12.1000003815,0.0,0.7055734328934723,1.5470703048484744
1648127774291082710,128805,6,4,1.50116491318,-0.241729736328,0.285477042198,0.0,12.1000003815,0.5020618438729096,-0.08084606566153846,0.0954772716381271,12.1000003815,0.0,0.7146105768032555,1.5470702969193224
1648127774291195846,128806,6,5,1.86054110527,-1.31852579117,0.542612195015,0.0,12.1000003815,0.6222545502575251,-0.44097852547491634,0.18147565050668896,12.1000003815,0.0,0.9843086459858112,2.3440459595662335
1648127774291228654,128807,6,6,2.41466140747,-0.902457654476,0.497338980436,0.0,12.1000003815,0.8075790660434783,-0.30182530250033446,0.16633410716923075,12.1000003815,0.0,1.1812986112972164,2.625331520457644
1648127774291371525,128808,6,7,1.22130298615,-0.656332850456,0.572899758816,-0.242756426334,12.1000003815,0.408462537173913,-0.21950931453377925,0.1916052705070234,12.1000003815,-0.03280492247756756,0.6179543896730487,1.5001892974615023
1648127774291384485,128809,6,8,1.4014518261,-0.0,0.38475689292,-0.0809188112617,12.1000003815,0.4687129853177257,-0.0,0.128681235090301,12.1000003815,-0.010934974494824324,0.6628602606967091,1.4533083250048755
1648127774486041584,128810,8,0,0.0125890737399,0.0439508594573,0.0103758089244,0.0,16.3999996185,0.004210392555150501,0.014699284099431437,0.003470170208829431,16.3999996185,0.0,0.01585950074790286,0.0468809154720728
1648127774486124318,128811,8,1,0.0328981243074,0.0146502861753,-0.0300150439143,0.0,16.3999996185,0.011002717159665552,0.0048997612626421405,-0.010038476225518393,16.3999996185,0.0,0.016313406456717926,0.04688091647078464
1648127774486127682,128812,8,2,1.31256258488,-0.0,-0.0164502449334,0.0,16.3999996185,0.43898414210033443,-0.0,-0.005501754158327758,16.3999996185,0.0,0.620817327425011,1.3126656656533817
1648127774486130980,128813,8,3,1.82678759098,-1.39177727699,0.469418793917,0.0,16.3999996185,0.6109657494916387,-0.4654773501638796,0.15699625214615381,16.3999996185,0.0,0.9814415202238729,2.344045839011409
1648127774486133487,128814,8,4,1.37125766277,0.769140005112,0.469473987818,-0.323675245047,16.3999996185,0.4586146029331103,0.2572374599036789,0.15701471164481604,16.3999996185,-0.04373989797932432,0.6977290439881987,1.6408320299186219
1648127774486138892,128815,8,5,1.363743186,-0.408742964268,0.291956663132,-0.161837622523,16.3999996185,0.4561014,-0.13670333253110367,0.09764436894046823,16.3999996185,-0.021869948989594594,0.6593517841706577,1.4533082884739887
1648127774486148527,128816,8,6,1.43877828121,0.290075659752,0.489080458879,-0.0809188112617,16.3999996185,0.48119674956856184,0.09701527082006689,0.16357205982575249,16.3999996185,-0.010934974494824324,0.6873955094143323,1.5470703041941738
1648127774591147101,128817,9,0,0.0125890737399,0.0439508594573,0.0103758089244,0.0,18.2000007629,0.004210392555150501,0.014699284099431437,0.003470170208829431,18.2000007629,0.0,0.01585950074790286,0.0468809154720728
1648127774591153142,128818,9,1,0.0328981243074,0.0146502861753,-0.0300150439143,0.0,18.2000007629,0.011002717159665552,0.0048997612626421405,-0.010038476225518393,18.2000007629,0.0,0.016313406456717926,0.04688091647078464
1648127774591155116,128819,9,2,1.35951471329,-0.0,0.00931126903743,0.0,18.2000007629,0.45468719508026756,-0.0,0.0031141368018160536,18.2000007629,0.0,0.6430247979198956,1.3595465991951428
1648127774591163165,128820,9,3,2.05586338043,-1.12074685097,0.483613967896,0.0,18.2000007629,0.687579725896321,-0.3748317227324415,0.16174380197190633,18.2000007629,0.0,1.0421279092769227,2.3909266431441076
1648127774591171803,128821,9,4,1.43463015556,0.43511351943,0.382019817829,-0.242756426334,18.2000007629,0.47980941657525084,0.1455229161973244,0.12776582536086956,18.2000007629,-0.03280492247756756,0.6939820398303825,1.5470703278283677
1648127774591174606,128822,9,5,1.38514661789,-0.317911207676,0.303984075785,-0.161837622523,18.2000007629,0.46325973842474916,-0.10632481862073578,0.10166691497826086,18.2000007629,-0.021869948989594594,0.6637199240232784,1.4533082974197111
1648127774786135263,128823,11,0,0.0125934295356,0.0439508594573,0.0103705218062,0.0,36.7999992371,0.004211849343010033,0.014699284099431437,0.0034684019418729094,36.7999992371,0.0,0.01586027436119016,0.046880915488462134
1648127774786166716,128824,11,1,0.0328737124801,0.0146502861753,-0.0300417765975,0.0,36.7999992371,0.010994552668929765,0.0048997612626421405,-0.010047416922240803,36.7999992371,0.0,0.016302393603720582,0.04688091507614338
1648127774786190639,128825,11,2,1.36069464684,-0.0439508594573,0.353010982275,0.0,36.7999992371,0.4550818216856187,-0.014699284099431437,0.11806387367056856,36.7999992371,0.0,0.6437507264542995,1.4064275145178398
1648127774786251403,128826,11,3,1.87469291687,-1.24527442455,0.655262827873,0.0,36.7999992371,0.6269875976153846,-0.4164797406521739,0.21915144744916387,36.7999992371,0.0,0.9796337425286682,2.344045925017896
1648127774786255270,128827,11,4,2.43173289299,-0.902457654476,0.405722409487,0.0,36.7999992371,0.8132885929732441,-0.30182530250033446,0.13569311354080266,36.7999992371,0.0,1.1891068850823363,2.6253314751725685
1648127774786264944,128828,11,5,1.40327239037,0.281285494566,0.449747681618,-0.242756426334,36.7999992371,0.46932186968896317,0.09407541624280935,0.15041728482207356,36.7999992371,-0.03280492247756756,0.6703552928693456,1.5001892907725807
1648127774891178042,128829,12,0,0.0126038333401,0.0439508594573,0.0103578744456,0.0,33.0999984741,0.004215328876287625,0.014699284099431437,0.003464172055384615,33.0999984741,0.0,0.01586212306427883,0.04688091535935669
1648127774891183357,128830,12,1,0.0328981243074,0.0146502861753,-0.0300150439143,0.0,33.0999984741,0.011002717159665552,0.0048997612626421405,-0.010038476225518393,33.0999984741,0.0,0.016313406456717926,0.04688091647078464
1648127774891190226,128831,12,2,1.30899906158,0.0410208031535,-0.0890495628119,0.0,33.0999984741,0.4377923282876254,0.013719332158361203,-0.02978246247889632,33.0999984741,0.0,0.6192838327373574,1.3126656368419451
1648127774891197753,128832,12,3,1.38219809532,-0.0,0.583177864552,0.0,33.0999984741,0.46227361047491633,-0.0,0.19504276406421406,33.0999984741,0.0,0.653753609460804,1.5001893201891776
1648127774891204395,128833,12,4,1.8565980196,-1.31852579117,0.555953860283,0.0,33.0999984741,0.6209357925083612,-0.44097852547491634,0.1859377459140468,33.0999984741,0.0,0.9826416319116571,2.344045896122063
1648127774891342725,128834,12,5,2.39849209785,-0.984499275684,0.412749022245,0.0,33.0999984741,0.8021712701839465,-0.32926397180066885,0.13804315125250835,33.0999984741,0.0,1.1812587593508053,2.6253313929169817
1648127774891351310,128835,12,6,1.42751061916,0.27249532938,-0.00803513359278,-0.161837622523,33.0999984741,0.477428300722408,0.09113556166555183,-0.0026873356497591973,33.0999984741,-0.021869948989594594,0.6813084875894823,1.4533082383721407
