%time,field.header.seq,field.header.frame_id,field.point_id,field.x,field.y,field.z,field.velocity,field.intensity,normalized_x,normalized_y,normalized_z,normalized_intensity,normalized_velocity,normalized_range,range
1648294444758707385,11093,0,0,0.0126454373822,0.0439508594573,0.0103070409968,0.0,14.0,0.004229243271638795,0.014699284099431437,0.003447170901939799,14.0,0.0,0.015869528989141485,0.046880915389230546
1648294444758879019,11094,0,1,0.033601410687,0.0146502861753,-0.0292255785316,0.0,14.0,0.011237929995652172,0.0048997612626421405,-0.009774440980468226,14.0,0.0,0.01663098919503125,0.04688091430082548
1648294444758888860,11095,0,2,0.405261039734,-0.5845464468,-0.536173582077,0.0,14.0,0.1355388092755853,-0.19550048387959865,-0.17932226825317726,14.0,0.0,0.2737918494711707,0.8907374298355658
1648294444758892929,11096,0,3,1.611358881,-1.61153149605,0.548670947552,0.0,14.0,0.5389160137123745,-0.5389737444983277,0.18350198914782606,14.0,0.0,0.9334632488372646,2.3440458644886477
1648294444758895543,11097,0,4,2.23763656616,-1.2306240797,0.609025001526,0.0,14.0,0.7483734334983277,-0.4115799597658863,0.20368729148026757,14.0,0.0,1.1355719506984314,2.625331308661353
1648294444758899439,11098,0,5,1.11380767822,-1.06361079216,-0.146939069033,-0.242756426334,14.0,0.3725109291705685,-0.3557226729632107,-0.04914350134882943,14.0,-0.03280492247756756,0.6356629647565855,1.5470703123224019
1648294444759203190,11099,0,6,0.780981183052,-1.02552008629,0.247927799821,-0.161837622523,14.0,0.26119772008428094,-0.342983306451505,0.08291899659565216,14.0,-0.021869948989594594,0.504069485744634,1.3126657036693052
1648294444759207165,11100,0,7,0.775288522243,-0.988894343376,0.152403131127,-0.0809188112617,14.0,0.25929382014816055,-0.3307338941056856,0.05097094686521739,14.0,-0.010934974494824324,0.4938132025820736,1.2657847484703306
1648294444863915719,11101,1,0,0.0126433884725,0.0439508594573,0.0103095555678,0.0,15.1999998093,0.004228558017558528,0.014699284099431437,0.003448011895585284,15.1999998093,0.0,0.015869163772912386,0.04688091568119631
1648294444863940545,11102,1,1,0.0335509069264,0.0146502861753,-0.0292835440487,0.0,15.1999998093,0.011221039105819395,0.0048997612626421405,-0.009793827441036788,15.1999998093,0.0,0.016608163584802046,0.0468809150151135
1648294444863944459,11103,1,2,0.392793118954,-0.612381994724,-0.513921201229,0.0,15.1999998093,0.1313689361050167,-0.20481003168026754,-0.17188000041103677,15.1999998093,0.0,0.27651897552175353,0.8907374151973266
1648294444863951172,11104,1,3,2.23774218559,-1.2306240797,0.608637392521,0.0,15.1999998093,0.748408757722408,-0.4115799597658863,0.20355765636153844,15.1999998093,0.0,1.1356185101309701,2.6253314438907225
1648294444863992999,11105,1,4,1.08935809135,-1.03138017654,-0.0110368942842,-0.404594063759,15.1999998093,0.3643338098160535,-0.34494320285618724,-0.0036912689913712374,15.1999998093,-0.05467487348094594,0.6200516616757391,1.5001892989835772
1648294444863996999,11106,1,5,0.831822931767,-0.949338555336,0.09506791085,-0.323675245047,15.1999998093,0.2782016494204013,-0.3175045335571906,0.031795287909698995,15.1999998093,-0.04373989797932432,0.5055704147889124,1.2657847329361633
1648294445058698702,11107,3,0,0.0126228211448,0.0439508594573,0.010334726423,0.0,27.5,0.00422167931264214,0.014699284099431437,0.00345643024180602,27.5,0.0,0.0158655004797636,0.04688091542330633
1648294445058706752,11108,3,1,0.0335735455155,0.0146502861753,-0.0292575843632,0.0,27.5,0.011228610540301002,0.0048997612626421405,-0.009785145271973245,27.5,0.0,0.016618394921363674,0.046880913880483405
1648294445058709066,11109,3,2,0.415338426828,-0.556710898876,-0.557655930519,0.0,27.5,0.13890917285217388,-0.18619093607892975,-0.18650700017357857,27.5,0.0,0.27066322484389777,0.8907374307675037
1648294445058711632,11110,3,3,2.2347612381,-1.2306240797,0.619492709637,0.0,27.5,0.7474117853177257,-0.4115799597658863,0.20718819720301002,27.5,0.0,1.1343045521131212,2.6253313379733823
1648294445058822069,11111,3,4,0.289749294519,-1.18081307411,0.0863266587257,0.566431701183,27.5,0.09690611856822742,-0.39492076057190634,0.028871792215953176,27.5,0.07654482448418919,0.4180239212803637,1.218903795083972
1648294445163826949,11112,4,0,0.00639544753358,0.0454158857465,0.00971163250506,0.0,30.5,0.002138945663404682,0.015189259446989964,0.0032480376271103676,30.5,0.0,0.015487536267914572,0.04688091544762382
1648294445163836605,11113,4,1,0.0335509069264,0.0146502861753,-0.0292835440487,0.0,30.5,0.011221039105819395,0.0048997612626421405,-0.009793827441036788,30.5,0.0,0.016608163584802046,0.0468809150151135
1648294445163838372,11114,4,2,0.40882012248,-0.612381994724,-0.50126594305,0.0,30.5,0.13672913795317723,-0.20481003168026754,-0.16764747259197324,30.5,0.0,0.2816680021012506,0.8907374167893214
1648294445163845523,11115,4,3,2.23333644867,-1.2306240797,0.624609708786,0.0,30.5,0.7469352671137123,-0.4115799597658863,0.2088995681558528,30.5,0.0,1.1336766072374227,2.6253313327664247
1648294445163847565,11116,4,4,0.262320101261,-0.668053030968,-0.866508960724,0.485512852669,30.5,0.0877324753381271,-0.22342910734715715,-0.28980232800133776,30.5,0.06560984495527027,0.25556709582389053,1.125141976252819
1648294445358807816,11117,6,0,0.00636331317946,0.0454158857465,0.00973271857947,0.0,28.8999996185,0.002128198387779264,0.015189259446989964,0.0032550898259096983,28.8999996185,0.0,0.015484574882878329,0.046880915559598356
1648294445358811824,11118,6,1,0.0335509069264,0.0146502861753,-0.0292835440487,0.0,28.8999996185,0.011221039105819395,0.0048997612626421405,-0.009793827441036788,28.8999996185,0.0,0.016608163584802046,0.0468809150151135
1648294445358955444,11119,6,2,0.394543945789,-0.612381994724,-0.512578308582,0.0,28.8999996185,0.13195449691939798,-0.20481003168026754,-0.17143087243545152,28.8999996185,0.0,0.27707603214889415,0.8907374220552781
1648294445358958760,11120,6,3,1.52721703053,-1.68478298187,0.568916380405,0.0,28.8999996185,0.5107749265986622,-0.5634725691872909,0.19027303692474917,28.8999996185,0.0,0.9161241114119112,2.3440459471249206
1648294445358963334,11121,6,4,2.20127892494,-1.31266570091,0.568897724152,0.0,28.8999996185,0.736213687270903,-0.4390186290668896,0.19026679737525082,28.8999996185,0.0,1.129937406814116,2.6253313635188738
1648294445358966553,11122,6,5,1.06920337677,-1.39177715778,0.305635422468,0.161837622523,28.8999996185,0.35759310259866217,-0.46547731029431433,0.10221920483879599,28.8999996185,0.021869948989594594,0.6873243633475421,1.7814748185932179
1648294445359041767,11123,6,6,0.668934106827,-0.586011469364,0.297061949968,-0.647350490093,28.8999996185,0.22372378154749165,-0.19599045798127088,0.09935182273177257,28.8999996185,-0.08747979595851352,0.3721786136783357,0.9376183038003157
1648294445359044183,11124,6,7,0.890599966049,-0.515690088272,0.0681207031012,-0.485512852669,28.8999996185,0.29785952041772573,-0.17247160142876253,0.02278284384655518,28.8999996185,-0.06560984495527027,0.4551780323196157,1.0313801417806459
1648294445463827966,11125,7,0,0.00639544753358,0.0454158857465,0.00971163250506,0.0,27.1000003815,0.002138945663404682,0.015189259446989964,0.0032480376271103676,27.1000003815,0.0,0.015487536267914572,0.04688091544762382
1648294445463831816,11126,7,1,0.0335735455155,0.0146502861753,-0.0292575843632,0.0,27.1000003815,0.011228610540301002,0.0048997612626421405,-0.009785145271973245,27.1000003815,0.0,0.016618394921363674,0.046880913880483405
1648294445463833764,11127,7,2,1.58907568455,-1.61153149605,0.610209703445,0.0,27.1000003815,0.5314634396488294,-0.5389737444983277,0.20408351285785953,27.1000003815,0.0,0.9248780852767992,2.3440458989037816
1648294445463841405,11128,7,3,1.16601347923,-1.33610606194,0.169958814979,0.242756426334,27.1000003815,0.38997106328762543,-0.4468582146956522,0.05684241303645485,27.1000003815,0.03280492247756756,0.7098148522286273,1.7814749061628488
1648294445463845982,11129,7,4,0.77218413353,-0.498109728098,0.186404153705,-0.485512852669,27.1000003815,0.2582555630535117,-0.1665918823070234,0.06234252632274247,27.1000003815,-0.06560984495527027,0.40142835842372904,0.9376183369686291
1648294445658880892,11130,9,0,0.0126454373822,0.0439508594573,0.0103070409968,0.0,43.2000007629,0.004229243271638795,0.014699284099431437,0.003447170901939799,43.2000007629,0.0,0.015869528989141485,0.046880915389230546
1648294445658882993,11131,9,1,0.033601410687,0.0146502861753,-0.0292255785316,0.0,43.2000007629,0.011237929995652172,0.0048997612626421405,-0.009774440980468226,43.2000007629,0.0,0.01663098919503125,0.04688091430082548
1648294445658893165,11132,9,2,0.726769268513,-0.263705134392,0.338171243668,0.0,43.2000007629,0.24306664498762542,-0.08819569712107023,0.11310075039063544,43.2000007629,0.0,0.3548820491399251,0.8438564792685932
1648294445659059034,11133,9,3,1.50407838821,-1.68478298187,0.627539515495,0.0,43.2000007629,0.5030362502374581,-0.5634725691872909,0.20987943662040132,43.2000007629,0.0,0.9075198479000068,2.3440459332928736
1648294445659064889,11134,9,4,2.13645267487,-1.39470732212,0.618648529053,0.0,43.2000007629,0.714532667180602,-0.4664572983678929,0.20690586255953178,43.2000007629,0.0,1.112967329321541,2.625331321725652
1648294445659069191,11135,9,5,2.0254778862,-1.27017974854,0.0247415043414,0.242756426334,43.2000007629,0.6774173532441471,-0.42480928044816046,0.008274750615852842,43.2000007629,0.03280492247756756,1.0479749356294237,2.3909264738011986
1648294445659074288,11136,9,6,0.962839245796,-0.64461261034,-1.47442448139,0.404594063759,43.2000007629,0.32201981464749163,-0.21558950178595315,-0.4931185556488294,43.2000007629,0.05467487348094594,0.5038574752164795,1.8752366202633013
1648294445659199889,11137,9,7,0.808418989182,-0.250519901514,0.277689874172,-0.0809188112617,43.2000007629,0.27037424387357856,-0.08378592023879598,0.0928728676160535,43.2000007629,-0.010934974494824324,0.3914390679667533,0.8907374188515333
1648294445763940025,11138,10,0,0.00624768529087,0.0454158857465,0.00980734359473,0.0,26.2000007629,0.0020895268531337793,0.015189259446989964,0.0032800480249933106,26.2000007629,0.0,0.015474037853382295,0.04688091549893182
1648294445763948816,11139,10,1,0.0335509069264,0.0146502861753,-0.0292835440487,0.0,26.2000007629,0.011221039105819395,0.0048997612626421405,-0.009793827441036788,26.2000007629,0.0,0.016608163584802046,0.0468809150151135
1648294445763953987,11140,10,2,0.823796510696,-0.139177724719,0.308872252703,0.0,26.2000007629,0.27551722765752507,-0.04654773401973244,0.10330175675685618,26.2000007629,0.0,0.3924107248974584,0.8907374464917754
1648294445763960532,11141,10,3,1.50944757462,-1.68478298187,0.614512443542,0.0,26.2000007629,0.5048319647558528,-0.5634725691872909,0.20552255636856184,26.2000007629,0.0,0.9095119358782685,2.3440459082093357
1648294445763965824,11142,10,4,2.19530177116,-1.31266570091,0.591543257236,0.0,26.2000007629,0.7342146391839465,-0.4390186290668896,0.19784055425953176,26.2000007629,0.0,1.1273329718640348,2.625331318897703
1648294445764127679,11143,10,5,0.764144062996,-0.174338400364,-0.144430026412,-0.323675245047,26.2000007629,0.2555665762528428,-0.058307157312374576,-0.04830435665953177,26.2000007629,-0.04373989797932432,0.3660987221898626,0.7969755701292758
1648294445764132206,11144,10,6,0.482030928135,0.149432912469,0.616835474968,-0.323675245047,26.2000007629,0.16121435723578595,0.04997756269866221,0.20629948995585282,26.2000007629,-0.04373989797932432,0.23340500151280805,0.7969755417744357
1648294445764173671,11145,10,7,0.719020903111,-0.164083212614,0.136848926544,-0.161837622523,26.2000007629,0.24047521843177255,-0.054877328633444813,0.04576887175384615,26.2000007629,-0.021869948989594594,0.3444824851245133,0.7500946530062284
1648294445860520746,11146,11,0,0.00639544753358,0.0454158857465,0.00971163250506,0.0,36.5999984741,0.002138945663404682,0.015189259446989964,0.0032480376271103676,36.5999984741,0.0,0.015487536267914572,0.04688091544762382
1648294445860653324,11147,11,1,0.0335029289126,0.0146502861753,-0.0293384213001,0.0,36.5999984741,0.011204992947357858,0.0048997612626421405,-0.009812181036822742,36.5999984741,0.0,0.01658648227719088,0.04688091397491176
1648294445860660495,11148,11,2,0.775307893753,-0.0527410283685,0.328952521086,0.0,36.5999984741,0.2593002989140468,-0.017639139922575247,0.110017565580602,36.5999984741,0.0,0.367129989637235,0.843856449473437
1648294445860665528,11149,11,3,1.49528098106,-1.68478298187,0.648222565651,0.0,36.5999984741,0.5000939735986621,-0.5634725691872909,0.21679684469933108,36.5999984741,0.0,0.9042617436815101,2.3440459472752853
1648294445860669075,11150,11,4,2.19567370415,-1.31266570091,0.590161621571,0.0,36.5999984741,0.7343390314882942,-0.4390186290668896,0.19737846875284282,36.5999984741,0.0,1.1274950035375337,2.625331407083044
1648294445860679605,11151,11,5,0.866206228733,0.0293005723506,0.357709795237,0.161837622523,36.5999984741,0.2897010798438127,0.009799522525284281,0.119635383022408,36.5999984741,0.021869948989594594,0.4098163759137327,0.9376182868547389
1648294445860707819,11152,11,6,1.49941563606,-0.046880915761,-0.0110758580267,0.161837622523,36.5999984741,0.5014768013578594,-0.015679236040468225,-0.0037043003433779266,36.5999984741,0.021869948989594594,0.7093685946269632,1.5001892362481581
1648294445860740222,11153,11,7,0.684306263924,1.84593605995,-0.0346375890076,0.566431701183,36.5999984741,0.2288649712120401,0.6173699197157191,-0.01158447792896321,36.5999984741,0.07654482448418919,0.6970681228298776,1.96899841616026
1648294445960610414,11154,12,0,0.0126249212772,0.0439508594573,0.0103321615607,0.0,24.7000007629,0.004222381698060201,0.014699284099431437,0.0034555724283277587,24.7000007629,0.0,0.015865874304431676,0.04688091559267204
1648294445960613449,11155,12,1,0.0335509069264,0.0146502861753,-0.0292835440487,0.0,24.7000007629,0.011221039105819395,0.0048997612626421405,-0.009793827441036788,24.7000007629,0.0,0.016608163584802046,0.0468809150151135
1648294445960617789,11156,12,2,1.4931024313,-1.68478298187,0.653224945068,0.0,24.7000007629,0.49936536163879597,-0.5634725691872909,0.21846988129364547,24.7000007629,0.0,0.9034560670203158,2.34404594562731
1648294445960623645,11157,12,3,2.19583177567,-1.31266570091,0.589573562145,0.0,24.7000007629,0.7343918982173913,-0.4390186290668896,0.19718179335953176,24.7000007629,0.0,1.127563868258671,2.6253314866065867
1648294445961037470,11158,12,4,0.788821697235,0.0747164562345,0.0857195779681,0.0809188112617,24.7000007629,0.26381996563043475,0.024988781349331104,0.028668755173277587,24.7000007629,0.010934974494824324,0.3739336675452108,0.7969755735955633
1648294445961064693,11159,12,5,0.929366648197,0.153827995062,0.286100208759,0.161837622523,24.7000007629,0.3108249659521739,0.05144748998729097,0.09568568854816052,24.7000007629,0.021869948989594594,0.4425733421076472,0.9844992373271116
1648294445961083395,11160,12,6,1.87693095207,0.0849716588855,-1.96554756165,0.404594063759,24.7000007629,0.6277361043712374,0.028418615011872907,-0.6573737664381271,24.7000007629,0.05467487348094594,0.88820766217228,2.7190930838719756
1648294445961252707,11161,12,7,1.12144458294,-1.35954654217,-2.07061886787,0.404594063759,24.7000007629,0.37506507790635446,-0.4546978401906354,-0.692514671528428,24.7000007629,0.05467487348094594,0.6986399295802009,2.71909309309393
1648294445961294516,11162,12,8,0.893551230431,-0.310586065054,-2.29755949974,0.566431701183,24.7000007629,0.2988465653615385,-0.10387493814515049,-0.7684145484080268,24.7000007629,0.07654482448418919,0.4352109167190495,2.484688543873457
1648294445961305097,11163,12,9,2.39430403709,0.621172130108,0.234799802303,0.566431701183,24.7000007629,0.8007705809665551,0.20774987629030098,0.07852836197424748,24.7000007629,0.07654482448418919,1.1513587875990976,2.4846886292672385
1648294445961307699,11164,12,10,1.42155456543,-1.48260903358,0.189823150635,-0.647350490093,24.7000007629,0.47543630950836113,-0.49585586407357857,0.06348600355685619,24.7000007629,-0.08747979595851352,0.8354354593468101,2.0627602278173036
1648294446060579457,11165,13,0,0.0126433884725,0.0439508594573,0.0103095555678,0.0,27.7999992371,0.004228558017558528,0.014699284099431437,0.003448011895585284,27.7999992371,0.0,0.015869163772912386,0.04688091568119631
1648294446060586901,11166,13,1,0.0335646085441,0.0146502861753,-0.0292678363621,0.0,27.7999992371,0.011225621586655517,0.0048997612626421405,-0.009788574034147157,27.7999992371,0.0,0.01661435585403362,0.04688091378221547
1648294446060594481,11167,13,2,1.51238584518,-1.68478298187,0.607244968414,0.0,27.7999992371,0.5058146639397993,-0.5634725691872909,0.20309196268026755,27.7999992371,0.0,0.910603253200641,2.3440458810278675
1648294446060677901,11168,13,3,2.19577407837,-1.31266570091,0.589788377285,0.0,27.7999992371,0.7343726014615384,-0.4390186290668896,0.19725363788795985,27.7999992371,0.0,1.1275387320276613,2.6253314791788935
1648294446060680214,11169,13,4,0.813759565353,0.167013257742,0.321426719427,0.0809188112617,27.7999992371,0.2721603897501672,0.05585727683678929,0.10750057505919733,27.7999992371,0.010934974494824324,0.3889249167558535,0.8907374441588848
1648294446060683066,11170,13,5,1.06493699551,0.168478280306,-0.0130798891187,0.242756426334,27.7999992371,0.35616621923411373,0.05634725093846154,-0.004374544855752508,27.7999992371,0.03280492247756756,0.5068370193024258,1.0782610160995763
1648294446061001479,11171,13,6,0.771105706692,0.199243888259,0.0294606890529,0.323675245047,27.7999992371,0.25789488518127085,0.06663675192608695,0.009853073261839464,27.7999992371,0.04373989797932432,0.37075598486414296,0.7969755768535227
1648294446061012952,11172,13,7,1.43344974518,0.2593100667,-2.35129594803,0.566431701183,27.7999992371,0.47941463049498323,0.08672577481605351,-0.7863866046923077,27.7999992371,0.07654482448418919,0.6835189360088917,2.7659740631233083
1648294446061015226,11173,13,8,1.76704454422,-0.9508035779,-1.90371704102,0.566431701183,27.7999992371,0.5909847973979933,-0.3179945076588629,-0.6366946625484949,27.7999992371,0.07654482448418919,0.8942295949096613,2.765974048554153
1648294446061017860,11174,13,9,2.08744573593,-1.42400789261,0.153674557805,-0.485512852669,27.7999992371,0.6981423865986621,-0.47625682027090294,0.05139617317892976,27.7999992371,-0.06560984495527027,1.0961870929662978,2.531569483222705
1648294446160454554,11175,14,0,0.0126249212772,0.0439508594573,0.0103321615607,0.0,14.6000003815,0.004222381698060201,0.014699284099431437,0.0034555724283277587,14.6000003815,0.0,0.015865874304431676,0.04688091559267204
1648294446160464179,11176,14,1,0.0334891453385,0.0146502861753,-0.0293541569263,0.0,14.6000003815,0.011200383056354513,0.0048997612626421405,-0.0098174437880602,14.6000003815,0.0,0.016580253968170543,0.04688091583336666
1648294446160477265,11177,14,2,1.50902998447,-1.68478298187,0.615537405014,0.0,14.6000003815,0.5046923024983277,-0.5634725691872909,0.20586535284749163,14.6000003815,0.0,0.9093569027772613,2.344045965206243
1648294446160479939,11178,14,3,2.23986983299,-1.2306240797,0.600759744644,0.0,14.6000003815,0.7491203454816053,-0.4115799597658863,0.20092299151973242,14.6000003815,0.0,1.1365564866340114,2.625331362906566
1648294446160491501,11179,14,4,0.763127565384,0.34281668067,0.110484033823,0.323675245047,14.6000003815,0.25522661049632106,0.1146544082508361,0.036951181880602,14.6000003815,0.04373989797932432,0.3787174127792792,0.8438564328867262
1648294446160496692,11180,14,5,0.861533045769,0.483459472656,0.296264737844,0.404594063759,14.6000003815,0.28813814239765884,0.16169213132307692,0.09908519660334447,14.6000003815,0.05467487348094594,0.43839653687106855,1.0313801653816121
1648294446160601164,11181,14,6,1.49210250378,-0.527410328388,-2.32542943954,0.485512852669,14.6000003815,0.4990309377190635,-0.1763914141765886,-0.7777355985083612,14.6000003815,0.06560984495527027,0.727446001155242,2.8128550646196118
1648294446160626571,11182,14,7,2.22054409981,-1.67013263702,0.438171356916,0.485512852669,14.6000003815,0.7426568895685619,-0.5585727883010033,0.14654560431973243,14.6000003815,0.06560984495527027,1.1895722218838416,2.8128550020329866
1648294446160631352,11183,14,8,1.3446007967,0.410208046436,-2.21723771095,-0.647350490093,14.6000003815,0.44969926311036784,0.13719332656722408,-0.741551073896321,14.6000003815,-0.08747979595851352,0.6506003868263504,2.6253314096901956
1648294446160747944,11184,14,9,2.06012201309,1.55879056454,0.467369019985,-0.647350490093,14.6000003815,0.6890040177558527,0.5213346369698996,0.15631070902508362,14.6000003815,-0.08747979595851352,1.1050985823318895,2.625331318854568
1648294446260411617,11185,15,0,0.0127159571275,0.0439508594573,0.0102199139073,0.0,15.6000003815,0.004252828470735786,0.014699284099431437,0.0034180314071237455,15.6000003815,0.0,0.015882129990615227,0.04688091565846788
1648294446260431245,11186,15,1,0.0335735455155,0.0146502861753,-0.0292575843632,0.0,15.6000003815,0.011228610540301002,0.0048997612626421405,-0.009785145271973245,15.6000003815,0.0,0.016618394921363674,0.046880913880483405
1648294446260489331,11187,15,2,1.52318584919,-1.68478298187,0.579622507095,0.0,15.6000003815,0.5094267054147157,-0.5634725691872909,0.19385368130267555,15.6000003815,0.0,0.9146214914410821,2.3440458779432034
1648294446260507001,11188,15,3,2.24117302895,-1.2306240797,0.595879554749,0.0,15.6000003815,0.7495561969732442,-0.4115799597658863,0.19929082098628761,15.6000003815,0.0,1.137131060222556,2.6253313343268228
1648294446260512560,11189,15,4,0.846120297909,0.547920703888,0.218193396926,0.0809188112617,15.6000003815,0.28298337722709027,0.18325107153444814,0.07297438024280936,15.6000003815,0.010934974494824324,0.4401592198196271,1.03138015045125
1648294446260521343,11190,15,5,0.770173370838,0.44536870718,0.0435060970485,0.242756426334,15.6000003815,0.25758306716989965,0.14895274487625418,0.01455053412993311,15.6000003815,0.03280492247756756,0.3935543078044967,0.8907373838363053
1648294446260554516,11191,15,6,0.798000454903,0.410208016634,0.272126436234,0.404594063759,15.6000003815,0.26688978424849497,0.13719331659999998,0.09101218603143812,15.6000003815,0.05467487348094594,0.40159970118530247,0.9376183339896955
1648294446260559670,11192,15,7,2.02889370918,-1.67013263702,0.484731793404,0.485512852669,15.6000003815,0.6785597689565217,-0.5585727883010033,0.16211765665685618,15.6000003815,0.06560984495527027,1.1103559248831043,2.672212121057424
1648294446260562853,11193,15,8,2.20825481415,1.25259947777,0.833859920502,0.485512852669,15.6000003815,0.7385467605852842,0.41892959122742474,0.2788829165558528,15.6000003815,0.06560984495527027,1.125346452230606,2.6722120318092144
1648294446260569028,11194,15,9,1.95002651215,0.843856453896,0.740999817848,-0.647350490093,15.6000003815,0.6521827799832776,0.28222623876120395,0.24782602603612036,15.6000003815,-0.08747979595851352,0.9645394791602512,2.250283947176577
1648294446360519424,11195,16,0,0.00627435324714,0.0454158857465,0.0097903041169,0.0,21.2999992371,0.0020984459020535117,0.015189259446989964,0.0032743492029765884,21.2999992371,0.0,0.015476451562152877,0.046880915536179825
1648294446360525571,11196,16,1,0.0335735455155,0.0146502861753,-0.0292575843632,0.0,21.2999992371,0.011228610540301002,0.0048997612626421405,-0.009785145271973245,21.2999992371,0.0,0.016618394921363674,0.046880913880483405
1648294446360545207,11197,16,2,1.51487898827,-1.68478298187,0.600998520851,0.0,21.2999992371,0.5066484910602006,-0.5634725691872909,0.20100284978294314,21.2999992371,0.0,0.9115298805928869,2.3440459183142717
1648294446360550666,11198,16,3,2.23936390877,-1.2306240797,0.602642595768,0.0,21.2999992371,0.7489511400568561,-0.4115799597658863,0.2015527076147157,21.2999992371,0.0,1.1363334385935395,2.6253313009357733
1648294446360556154,11199,16,4,0.799055814743,0.612381994724,0.22414983809,0.242756426334,21.2999992371,0.2672427474056856,0.20481003168026754,0.07496650103344481,21.2999992371,0.03280492247756756,0.4298657013053616,1.0313801687314517
1648294446360558839,11200,16,5,0.750649034977,0.473204255104,0.0775688141584,0.404594063759,21.2999992371,0.25105318895551837,0.15826229267692307,0.025942747210167223,21.2999992371,0.05467487348094594,0.3887188709759619,0.8907374257829146
1648294446360633828,11201,16,6,2.20194673538,-1.52948987484,0.453385174274,0.404594063759,21.2999992371,0.736437035244147,-0.5115350751973244,0.15163383754983276,21.2999992371,0.05467487348094594,1.160322001392506,2.7190930140287923
1648294446360722125,11202,16,7,2.47382616997,1.01965987682,0.483678728342,0.404594063759,21.2999992371,0.8273666120301003,0.34102337017391304,0.16176546098394648,21.2999992371,0.05467487348094594,1.218756727328759,2.7190931017299778
1648294446360729596,11203,16,8,0.130565717816,0.386767566204,1.04847884178,-0.647350490093,21.2999992371,0.043667464152508356,0.1293537010715719,0.350661819993311,21.2999992371,-0.08747979595851352,0.1433390206187233,1.1251419637523536
1648294446360754577,11204,16,9,0.812648296356,0.773535132408,0.0847977399826,-0.647350490093,21.2999992371,0.27178872787826086,0.2587074021431438,0.028360448154715716,21.2999992371,-0.08747979595851352,0.46332250660530294,1.1251419960813516
1648294446463870170,11205,17,0,0.0126249212772,0.0439508594573,0.0103321615607,0.0,18.3999996185,0.004222381698060201,0.014699284099431437,0.0034555724283277587,18.3999996185,0.0,0.015865874304431676,0.04688091559267204
1648294446463874831,11206,17,1,0.0334891453385,0.0146502861753,-0.0293541569263,0.0,18.3999996185,0.011200383056354513,0.0048997612626421405,-0.0098174437880602,18.3999996185,0.0,0.016580253968170543,0.04688091583336666
1648294446463881182,11207,17,2,0.424399852753,-0.5845464468,-0.521155834198,0.0,18.3999996185,0.14193975008461537,-0.19550048387959865,-0.17429961009966555,18.3999996185,0.0,0.28020389809087837,0.8907374399910933
1648294446463994376,11208,17,3,1.50711500645,-1.68478298187,0.620211184025,0.0,18.3999996185,0.5040518416220736,-0.5634725691872909,0.2074284896404682,18.3999996185,0.0,0.9086461656286975,2.34404591496311
1648294446464000781,11209,17,4,2.23973035812,-1.2306240797,0.601279318333,0.0,18.3999996185,0.749073698367893,-0.4115799597658863,0.20109676198428092,18.3999996185,0.0,1.136494995349295,2.6253313164773724
1648294446464017513,11210,17,5,0.738580465317,0.580151319504,0.426225692034,0.566431701183,18.3999996185,0.24701687803244143,0.19403054164013378,0.14255039867357858,18.3999996185,0.07654482448418919,0.39960296189461836,1.0313801422462867
1648294446464021564,11211,17,6,0.232385203242,0.410208016634,-0.810465693474,-0.566431701183,18.3999996185,0.07772080375986622,0.13719331659999998,-0.2710587603591973,18.3999996185,-0.07654482448418919,0.17579264146677784,0.9376183338090811
1648294446464058107,11212,17,7,0.540443778038,0.761814892292,0.0817723199725,-0.566431701183,18.3999996185,0.1807504274374582,0.2547875893953177,0.027348601997491635,18.3999996185,-0.07654482448418919,0.36091293929080004,0.9376183230139775
1648294446464060487,11213,17,8,0.852262556553,-1.53828012943,-1.54980444908,-0.566431701183,18.3999996185,0.285037644332107,-0.5144749596755852,-0.5183292471839465,18.3999996185,-0.07654482448418919,0.6535880977389265,2.3440458724798017
1648294446464067313,11214,17,9,0.564096868038,2.27079439163,0.140850514174,-0.566431701183,18.3999996185,0.18866115987892973,0.7594630072341136,0.04710719537591972,18.3999996185,-0.07654482448418919,0.8049659159559549,2.344045928076415
