%time,field.header.seq,field.header.frame_id,field.point_id,field.x,field.y,field.z,field.velocity,field.intensity,normalized_x,normalized_y,normalized_z,normalized_intensity,normalized_velocity,normalized_range,range
1648125558185691542,30089,0,0,0.00653523253277,0.0454158857465,0.00961812306195,0.0,13.8000001907,0.0021856964992541805,0.015189259446989964,0.003216763565869565,13.8000001907,0.0,0.015500585179975556,0.04688091545214674
1648125558185697453,30090,0,1,0.032754637301,0.0146502861753,-0.0301715619862,0.0,13.8000001907,0.010954728194314381,0.0048997612626421405,-0.010090823406755852,13.8000001907,0.0,0.016248686102374597,0.046880916185857074
1648125558185704043,30091,0,2,2.42110395432,-0.902457654476,0.464963644743,0.0,13.8000001907,0.809733763986622,-0.30182530250033446,0.1555062357,13.8000001907,0.0,1.1842449283443452,2.6253314774860255
1648125558185708057,30092,0,3,0.754718184471,-0.879017233849,0.17710737884,-0.0809188112617,13.8000001907,0.2524141085187291,-0.29398569693946486,0.05923323707023411,13.8000001907,-0.010934974494824324,0.4624428119925667,1.172022977169955
1648125558290801679,30093,1,0,0.00639936653897,0.0454158857465,0.00970905087888,0.0,33.5999984741,0.0021402563675484948,0.015189259446989964,0.0032471742069832775,33.5999984741,0.0,0.01548789841087672,0.046880915511622746
1648125558290818285,30094,1,1,0.0328173004091,0.0146502861753,-0.0301033910364,0.0,33.5999984741,0.010975685755551837,0.0048997612626421405,-0.010068023757993311,33.5999984741,0.0,0.016276947380886118,0.04688091555259676
1648125558290829363,30095,1,2,2.42064976692,-0.902457654476,0.467322736979,0.0,33.5999984741,0.8095818618461538,-0.30182530250033446,0.15629522975886287,33.5999984741,0.0,1.1840372018184175,2.6253315319611956
1648125558290836853,30096,1,3,0.39316830039,-1.08998131752,0.877191245556,-0.161837622523,33.5999984741,0.13149441484615385,-0.3645422466622073,0.29337499851371235,33.5999984741,-0.021869948989594594,0.40923417730316025,1.4533083176856463
1648125558290870907,30097,1,4,0.749845981598,-0.879017233849,0.196716800332,-0.0809188112617,33.5999984741,0.2507846092301003,-0.29398569693946486,0.0657915720173913,33.5999984741,-0.010934974494824324,0.46066628969175843,1.1720229490308949
1648125558485770063,30098,3,0,0.00656197406352,0.0454158857465,0.00959989894181,0.0,28.6000003815,0.002194640155023411,0.015189259446989964,0.0032106685424113713,28.6000003815,0.0,0.015503112376811833,0.04688091553545446
1648125558485782336,30099,3,1,0.032754637301,0.0146502861753,-0.0301715619862,0.0,28.6000003815,0.010954728194314381,0.0048997612626421405,-0.010090823406755852,28.6000003815,0.0,0.016248686102374597,0.046880916185857074
1648125558485787413,30100,3,2,0.520947933197,-1.53828001022,0.233747243881,0.0,28.6000003815,0.17423007799230766,-0.51447491980602,0.07817633574615383,28.6000003815,0.0,0.5704355206890801,1.640832079454395
1648125558485792114,30101,3,3,2.02771997452,-1.19546329975,0.419223815203,0.0,28.6000003815,0.6781672155585284,-0.39982050158862875,0.14020863384715718,28.6000003815,0.0,1.0390755400871479,2.39092647384856
1648125558485796259,30102,3,4,2.42112064362,-0.902457654476,0.464876145124,0.0,28.6000003815,0.8097393456923077,-0.30182530250033446,0.15547697161337792,28.6000003815,0.0,1.1842525613879125,2.6253313732537835
1648125558485805155,30103,3,5,0.783238768578,-0.988894343376,0.104096457362,-0.242756426334,28.6000003815,0.26195276541070234,-0.3307338941056856,0.034814868682943145,28.6000003815,-0.03280492247756756,0.4966119323203378,1.2657847618769753
1648125558485880424,30104,3,6,0.763338625431,-0.842391490936,0.285181641579,-0.161837622523,28.6000003815,0.2552971991408026,-0.2817362845939799,0.0953784754444816,28.6000003815,-0.021869948989594594,0.4579614108580518,1.17202297322619
1648125558485890401,30105,3,7,1.170129776,-0.93761831522,0.0472872331738,-0.161837622523,28.6000003815,0.3913477511705685,-0.31358472080936456,0.015815128151772575,28.6000003815,-0.021869948989594594,0.6361143779365545,1.5001892814371907
1648125558485894468,30106,3,8,0.990006506443,-0.861436843872,0.0300817769021,-0.0809188112617,28.6000003815,0.3311058549976589,-0.28810596785016723,0.010060794950535116,28.6000003815,-0.010934974494824324,0.5497883439455069,1.3126656970002737
1648125558590864874,30107,4,0,0.00653523253277,0.0454158857465,0.00961812306195,0.0,14.8999996185,0.0021856964992541805,0.015189259446989964,0.003216763565869565,14.8999996185,0.0,0.015500585179975556,0.04688091545214674
1648125558590871107,30108,4,1,0.0327790863812,0.0146502861753,-0.0301449969411,0.0,14.8999996185,0.010962905144214047,0.0048997612626421405,-0.010081938776287625,14.8999996185,0.0,0.016259712138686776,0.046880915408973045
1648125558591033910,30109,4,2,0.314080327749,-1.58955609798,0.258833646774,0.0,14.8999996185,0.10504358787591973,-0.5316241130367892,0.08656643704816053,14.8999996185,0.0,0.5519895907259891,1.640832074773848
1648125558591043568,30110,4,3,2.01904296875,-1.19546329975,0.459197610617,0.0,14.8999996185,0.6752652069397993,-0.39982050158862875,0.15357779619297657,14.8999996185,0.0,1.0352886712881013,2.390926484922599
1648125558591059911,30111,4,4,2.42145299911,-0.902457654476,0.463142484426,0.0,14.8999996185,0.8098505013745819,-0.30182530250033446,0.1548971519819398,14.8999996185,0.0,1.1844045687106841,2.6253314849560283
1648125558591067243,30112,4,5,0.736988902092,-1.02845013142,-0.036724563688,-0.404594063759,14.8999996185,0.24648458263946485,-0.3439632546555184,-0.012282462771906354,14.8999996185,-0.05467487348094594,0.48971422228797823,1.2657847400733906
1648125558591211376,30113,4,6,0.722467839718,-0.808695793152,0.299993038177,-0.242756426334,14.8999996185,0.24162804003946486,-0.2704668204521739,0.1003321197916388,14.8999996185,-0.03280492247756756,0.4357987155007859,1.1251419858147695
1648125558591219375,30114,4,7,0.847465574741,-0.876087069511,-0.000160706942552,-0.242756426334,14.8999996185,0.2834333025889632,-0.2930057088665552,-5.374814132173913e-05,14.8999996185,-0.03280492247756756,0.4965090326080343,1.2189038024233851
1648125558591229514,30115,4,8,1.2008253336,-0.817485928535,-0.0429003275931,-0.242756426334,14.8999996185,0.4016138239464883,-0.2734066650618729,-0.01434793564986622,14.8999996185,-0.03280492247756756,0.6303479449241483,1.4533083510652094
1648125558591344698,30116,4,9,0.767549991608,-0.892202436924,0.680594325066,-0.161837622523,14.8999996185,0.2567056828120401,-0.2983954638541806,0.2276235200889632,14.8999996185,-0.021869948989594594,0.46993134394796765,1.3595465469716765
1648125558785917403,30117,6,0,0.00650562345982,0.0454158857465,0.00963817536831,0.0,17.7999992371,0.002175793799270903,0.015189259446989964,0.0032234700228461533,17.7999992371,0.0,0.015497798548886397,0.04688091551122268
1648125558785935183,30118,6,1,0.032754637301,0.0146502861753,-0.0301715619862,0.0,17.7999992371,0.010954728194314381,0.0048997612626421405,-0.010090823406755852,17.7999992371,0.0,0.016248686102374597,0.046880916185857074
1648125558785938402,30119,6,2,0.299055069685,-1.58955609798,0.276056826115,0.0,17.7999992371,0.10001841795484949,-0.5316241130367892,0.0923266976973244,17.7999992371,0.0,0.5501195919275506,1.6408320738498474
1648125558785940752,30120,6,3,2.41865110397,-0.902457654476,0.477559059858,0.0,17.7999992371,0.8089134126989965,-0.30182530250033446,0.15971874911638795,17.7999992371,0.0,1.1831231261868278,2.6253315288759396
1648125558785947936,30121,6,4,1.30503976345,-1.25699448586,0.244378164411,0.0809188112617,17.7999992371,0.43646814831103675,-0.4203994935986622,0.08173182756220734,17.7999992371,0.010934974494824324,0.7468230199974704,1.8283557118101956
1648125558785950195,30122,6,5,1.30909025669,-0.43511351943,-0.700275361538,0.242756426334,17.7999992371,0.4378228283244147,-0.1455229161973244,-0.23420580653444814,17.7999992371,0.03280492247756756,0.6360460495455917,1.5470703464705888
1648125558786109470,30123,6,6,0.914533615112,-0.732514321804,-0.0262464936823,-0.242756426334,17.7999992371,0.30586408532173914,-0.24498806749297658,-0.008778091532541806,17.7999992371,-0.03280492247756756,0.49711651611403085,1.1720229704440153
1648125558786112802,30124,6,7,0.799282610416,-0.673913121223,0.263884872198,-0.161837622523,17.7999992371,0.2673185988013378,-0.22538900375351167,0.08825581009966554,17.7999992371,-0.021869948989594594,0.4401348310952244,1.0782610129485792
1648125558786117899,30125,6,8,1.17220520973,-0.747164607048,0.213818430901,-0.161837622523,17.7999992371,0.3920418761638796,-0.24988782844414714,0.07151118090334448,17.7999992371,-0.021869948989594594,0.6081427399358812,1.406427504401244
1648125558890833303,30126,7,0,0.00650562345982,0.0454158857465,0.00963817536831,0.0,16.6000003815,0.002175793799270903,0.015189259446989964,0.0032234700228461533,16.6000003815,0.0,0.015497798548886397,0.04688091551122268
1648125558890837396,30127,7,1,0.0328296348453,0.0146502861753,-0.0300899371505,0.0,16.6000003815,0.010979810985050166,0.0048997612626421405,-0.010063524130602006,16.6000003815,0.0,0.016282510831126296,0.04688091431291589
1648125558890842708,30128,7,2,2.38753724098,-0.984499275684,0.472008734941,0.0,16.6000003815,0.7985074384548494,-0.32926397180066885,0.15786245315752506,16.6000003815,0.0,1.1762835634579791,2.6253314355999535
1648125558890854757,30129,7,3,1.41192376614,-1.17202293873,0.386453151703,0.242756426334,16.6000003815,0.47221530640133774,-0.3919809159632107,0.1292485457200669,16.6000003815,0.03280492247756756,0.7743536851328185,1.875236659401007
1648125558890857365,30130,7,4,0.838189125061,-0.640217483044,0.224069908261,-0.0809188112617,16.6000003815,0.2803308110571906,-0.21411955954648826,0.07493976864916388,16.6000003815,-0.010934974494824324,0.4505750914512993,1.078260988236991
1648125559085916116,30131,9,0,0.00653523253277,0.0454158857465,0.00961812306195,0.0,29.6000003815,0.0021856964992541805,0.015189259446989964,0.003216763565869565,29.6000003815,0.0,0.015500585179975556,0.04688091545214674
1648125559085930415,30132,9,1,0.0327790863812,0.0146502861753,-0.0301449969411,0.0,29.6000003815,0.010962905144214047,0.0048997612626421405,-0.010081938776287625,29.6000003815,0.0,0.016259712138686776,0.046880915408973045
1648125559085937229,30133,9,2,1.32812154293,-0.439508587122,0.144787982106,0.0809188112617,29.6000003815,0.44418780699999993,-0.14699283850234113,0.04842407428294314,29.6000003815,0.010934974494824324,0.6451453404822154,1.4064274566116335
1648125559085962207,30134,9,3,1.17522192001,-1.2804350853,0.3911421597,0.242756426334,29.6000003815,0.39305080936789294,-0.42823915896321063,0.130816775819398,29.6000003815,0.03280492247756756,0.7016884313988863,1.7814748827962714
1648125559085972891,30135,9,4,0.902080059052,-0.5391305089,0.241322547197,-0.161837622523,29.6000003815,0.30169901640535113,-0.18031120698996655,0.08070988200568562,29.6000003815,-0.021869948989594594,0.46320268173456336,1.0782609657924564
1648125559190854665,30136,10,0,0.0126418694854,0.0439508594573,0.0103114163503,0.0,46.4000015259,0.004228049995117057,0.014699284099431437,0.0034486342308695647,46.4000015259,0.0,0.01586889304766456,0.04688091528831811
1648125559190869602,30137,10,1,0.0327790863812,0.0146502861753,-0.0301449969411,0.0,46.4000015259,0.010962905144214047,0.0048997612626421405,-0.010081938776287625,46.4000015259,0.0,0.016259712138686776,0.046880915408973045
1648125559190873232,30138,10,2,1.70376098156,-1.50751447678,0.318692922592,0.0,46.4000015259,0.5698197262742475,-0.5041854437391304,0.10658626173645484,46.4000015259,0.0,0.9505745644508591,2.2971648958874944
1648125559190996041,30139,10,3,1.21735775471,-1.2804350853,0.228426799178,0.161837622523,46.4000015259,0.40714306177591975,-0.42823915896321063,0.07639692280200668,46.4000015259,0.021869948989594594,0.7175790707469518,1.7814748702135816
1648125559191002427,30140,10,4,0.86655831337,-0.515690088272,0.216530516744,-0.161837622523,46.4000015259,0.28981883390301,-0.17247160142876253,0.07241823302474916,46.4000015259,-0.021869948989594594,0.44467557417650333,1.0313801638067632
1648125559191010414,30141,10,5,0.926724016666,-0.574291229248,0.731070101261,-0.161837622523,46.4000015259,0.3099411426976588,-0.1920706452334448,0.2445050505889632,46.4000015259,-0.021869948989594594,0.4785584150695219,1.3126657274472098
1648125559191195001,30142,10,6,0.834737837315,-0.527410328388,0.53944003582,-0.0809188112617,46.4000015259,0.2791765342190635,-0.1763914141765886,0.18041472769899664,46.4000015259,-0.010934974494824324,0.43242687880421204,1.1251419749441154
1648125559191198889,30143,10,7,0.942258894444,-0.105482056737,-0.605777263641,-0.0809188112617,46.4000015259,0.3151367539946488,-0.035278279845150494,-0.2026010915187291,46.4000015259,-0.010934974494824324,0.44706476540362733,1.1251419384222927
1648125559385906115,30144,12,0,0.0126454373822,0.0439508594573,0.0103070409968,0.0,20.7999992371,0.004229243271638795,0.014699284099431437,0.003447170901939799,20.7999992371,0.0,0.015869528989141485,0.046880915389230546
1648125559385912238,30145,12,1,0.0327790863812,0.0146502861753,-0.0301449969411,0.0,20.7999992371,0.010962905144214047,0.0048997612626421405,-0.010081938776287625,20.7999992371,0.0,0.016259712138686776,0.046880915408973045
1648125559385918814,30146,12,2,0.275204360485,-1.58955609798,0.299839735031,0.0,20.7999992371,0.0920415921354515,-0.5316241130367892,0.10028084783645483,20.7999992371,0.0,0.5473276047558815,1.6408320740888818
1648125559385928396,30147,12,3,1.76686918736,-1.46502864361,0.47583141923,0.0,20.7999992371,0.590926149618729,-0.489976134986622,0.1591409428862876,20.7999992371,0.0,0.9687435375076633,2.3440459021457705
1648125559385945972,30148,12,4,0.108181573451,-0.68563336134,-1.69147515297,0.161837622523,20.7999992371,0.0361811282444816,-0.2293088165016722,-0.5657107535016722,20.7999992371,0.021869948989594594,0.2349482526163683,1.828355696283304
1648125559385982962,30149,12,5,0.797516047955,-0.389697611332,0.0742772072554,-0.404594063759,20.7999992371,0.26672777523578595,-0.13033364927491636,0.02484187533625418,20.7999992371,-0.05467487348094594,0.39909180935942645,0.8907374352418843
1648125559386090713,30150,12,6,0.990504026413,-0.435113489628,0.65710657835,-0.323675245047,20.7999992371,0.3312722496364548,-0.14552290623010034,0.21976808640468226,20.7999992371,-0.04373989797932432,0.4905706095925946,1.265784748884053
1648125559386093608,30151,12,7,0.885430693626,-0.399952799082,0.159025087953,-0.242756426334,20.7999992371,0.29613066676454847,-0.13376347795384613,0.05318564814481605,20.7999992371,-0.03280492247756756,0.43963554409435684,0.9844992297137695
1648125559386096166,30152,12,8,1.38820004463,-0.219754293561,0.0514492988586,-0.161837622523,20.7999992371,0.4642809513812709,-0.07349641925117056,0.017207123364080267,20.7999992371,-0.021869948989594594,0.6606930658586784,1.4064275110371915
1648125559490821661,30153,13,0,0.00657510245219,0.0454158857465,0.00959091167897,0.0,20.6000003815,0.002199030920464883,0.015189259446989964,0.0032076627688862876,20.6000003815,0.0,0.015504356695016248,0.04688091549052492
1648125559490833587,30154,13,1,0.0327914953232,0.0146502861753,-0.0301314946264,0.0,20.6000003815,0.010967055292040133,0.0048997612626421405,-0.010077422951973244,20.6000003815,0.0,0.01626530860414949,0.046880913162719064
1648125559490867081,30155,13,2,1.76990842819,-1.46502864361,0.464398741722,0.0,20.6000003815,0.5919426181237457,-0.489976134986622,0.15531730492374582,20.6000003815,0.0,0.9699838860304937,2.344045853239379
1648125559491025572,30156,13,3,0.958611547947,1.59981119633,0.631365895271,-0.485512852669,20.6000003815,0.32060586887859527,0.5350539118160534,0.21115916229799328,20.6000003815,-0.06560984495527027,0.7013265536598904,1.9689984401902203
1648125559491030565,30157,13,4,0.805300176144,-0.361862063408,0.118155233562,-0.404594063759,20.6000003815,0.26933116258996653,-0.12102410147424747,0.039516800522408024,20.6000003815,-0.05467487348094594,0.39965658185719266,0.8907374393442455
1648125559491078625,30158,13,5,0.746026337147,-0.354536950588,0.61765140295,-0.323675245047,20.6000003815,0.24950713616956519,-0.11857423096588628,0.20657237556856184,20.6000003815,-0.04373989797932432,0.37224651811430987,1.031380143601432
1648125559491086482,30159,13,6,0.880097746849,-0.34281668067,0.770474612713,-0.323675245047,20.6000003815,0.2943470725247491,-0.1146544082508361,0.25768381696086956,20.6000003815,-0.04373989797932432,0.43177080904008464,1.2189037900464215
1648125559491107420,30160,13,7,0.934740841389,-0.307655990124,-0.029085913673,-0.242756426334,20.6000003815,0.31262235497959867,-0.10289497997458194,-0.00972773032541806,20.6000003815,-0.03280492247756756,0.45393044684174916,0.9844991819163629
1648125559685924406,30161,15,0,0.00637155398726,0.0454158857465,0.00972732529044,0.0,39.2999992371,0.0021309545107892976,0.015189259446989964,0.0032532860503143813,39.2999992371,0.0,0.015485332957417492,0.04688091547375908
1648125559685928985,30162,15,1,0.0328668281436,0.0146502861753,-0.0300493054092,0.0,39.2999992371,0.010992250215250835,0.0048997612626421405,-0.010049934919464881,39.2999992371,0.0,0.016299288021881585,0.046880913310370774
1648125559685932019,30163,15,2,0.287308722734,-1.58955609798,0.288262039423,0.0,39.2999992371,0.09608987382408025,-0.5316241130367892,0.09640870883712374,39.2999992371,0.0,0.5487173455115194,1.6408320737225832
1648125559685935116,30164,15,3,1.87032341957,-1.31852579117,0.507869243622,0.0,39.2999992371,0.6255262272809364,-0.44097852547491634,0.16985593432173912,39.2999992371,0.0,0.9884473592269216,2.3440458878592105
1648125559686110818,30165,15,4,1.04771995544,-0.480529397726,1.53815162182,0.242756426334,39.2999992371,0.3504080118528428,-0.16071217315250835,0.5144319805418059,39.2999992371,0.03280492247756756,0.5209606051715675,1.922117587145387
1648125559686117171,30166,15,5,2.23333668709,-0.821880996227,-0.230757683516,0.242756426334,39.2999992371,0.7469353468528428,-0.2748765873668896,-0.0771764827812709,39.2999992371,0.03280492247756756,1.0915044493902992,2.3909266484697715
1648125559686119394,30167,15,6,0.781777560711,-0.124527432024,0.0921237021685,-0.323675245047,39.2999992371,0.26146406712742476,-0.04164797057658863,0.030810602731939796,39.2999992371,-0.04373989797932432,0.3721041121121579,0.7969755405650564
1648125559686122856,30168,15,7,0.841460168362,-0.139177724719,0.256880402565,-0.242756426334,39.2999992371,0.2814248054722408,-0.04654773401973244,0.08591317811538461,39.2999992371,-0.03280492247756756,0.4007075414969737,0.8907374446040313
1648125559686124616,30169,15,8,0.994738161564,-0.146502867341,0.602221548557,-0.161837622523,39.2999992371,0.33268834834916383,-0.04899761449531772,0.20141188914949834,39.2999992371,-0.021869948989594594,0.4730368278272009,1.1720229919917322
1648125559790963004,30170,16,0,0.00653523253277,0.0454158857465,0.00961812306195,0.0,11.8000001907,0.0021856964992541805,0.015189259446989964,0.003216763565869565,11.8000001907,0.0,0.015500585179975556,0.04688091545214674
1648125559790968702,30171,16,1,0.0327790863812,0.0146502861753,-0.0301449969411,0.0,11.8000001907,0.010962905144214047,0.0048997612626421405,-0.010081938776287625,11.8000001907,0.0,0.016259712138686776,0.046880915408973045
1648125559790972501,30172,16,2,0.282999545336,-1.58955609798,0.292493700981,0.0,11.8000001907,0.09464867736989967,-0.5316241130367892,0.09782398026120402,11.8000001907,0.0,0.5482161451634707,1.6408320744059548
1648125559791176615,30173,16,3,1.84331989288,-1.39177727699,0.399598449469,0.0,11.8000001907,0.616494947451505,-0.4654773501638796,0.13364496637759196,11.8000001907,0.0,0.9883325371463062,2.344045890559923
1648125559791183259,30174,16,4,2.38871145248,-0.984499275684,0.466030240059,0.0,11.8000001907,0.7989001513311036,-0.32926397180066885,0.15586295654147156,11.8000001907,0.0,1.1768167515461665,2.625331486056738
1648125559791185078,30175,16,5,0.72651040554,1.74191904068,0.36391839385,0.242756426334,11.8000001907,0.2429800687424749,0.5825816189565217,0.12171183740802675,11.8000001907,0.03280492247756756,0.6763726564241029,1.9221175591060478
1648125559791186648,30176,16,6,0.733880281448,-0.0703213736415,0.138262733817,-0.242756426334,11.8000001907,0.24544491018327758,-0.023518854060702338,0.04624171699565217,11.8000001907,-0.03280492247756756,0.3479073790049343,0.7500946251317722
1648125559791314389,30177,16,7,0.865252256393,-0.083506628871,0.194366514683,-0.0809188112617,11.8000001907,0.28938202554949827,-0.027928638418394644,0.06500552330535117,11.8000001907,-0.010934974494824324,0.41019985649213286,0.8907374283640457
1648125559985991057,30178,18,0,0.0064396969974,0.0454158857465,0.00968234799802,0.0,15.6999998093,0.0021537448151839464,0.015189259446989964,0.0032382434775986625,15.6999998093,0.0,0.01549163761536647,0.046880915502069985
1648125559986022433,30179,18,1,0.032754637301,0.0146502861753,-0.0301715619862,0.0,15.6999998093,0.010954728194314381,0.0048997612626421405,-0.010090823406755852,15.6999998093,0.0,0.016248686102374597,0.046880916185857074
1648125559986026734,30180,18,2,0.816014885902,0.0263705141842,0.213349416852,0.0,15.6999998093,0.2729146775591973,0.008819569961270902,0.07135432001739131,15.6999998093,0.0,0.38606039329201197,0.8438564283710125
1648125559986029796,30181,18,3,0.281896829605,-1.58955609798,0.293556600809,0.0,15.6999998093,0.09427987612207357,-0.5316241130367892,0.0981794651535117,15.6999998093,0.0,0.5480890325899068,1.6408320721650003
1648125559986190163,30182,18,4,1.86919033527,-1.31852579117,0.512023746967,0.0,15.6999998093,0.6251472693210701,-0.44097852547491634,0.17124540032341137,15.6999998093,0.0,0.9879677507941302,2.344045880290182
1648125559986195894,30183,18,5,2.41418719292,-0.902457654476,0.49963542819,0.0,15.6999998093,0.8074204658595318,-0.30182530250033446,0.16710214989632105,15.6999998093,0.0,1.181081762879719,2.6253314422533163
1648125559986309279,30184,18,6,0.698782622814,0.164083212614,0.217764854431,0.242756426334,15.6999998093,0.23370656281404684,0.054877328633444813,0.07283105499364548,15.6999998093,0.03280492247756756,0.3350358730086304,0.7500946516499759
1648125559986314931,30185,18,7,0.389757335186,-1.29215526581,-1.43365931511,0.242756426334,15.6999998093,0.13035362380802673,-0.4321589517759197,-0.47948472077257526,15.6999998093,0.03280492247756756,0.4698356032484456,1.968998487326356
1648125560090476792,30186,19,0,0.00653523253277,0.0454158857465,0.00961812306195,0.0,27.7000007629,0.0021856964992541805,0.015189259446989964,0.003216763565869565,27.7000007629,0.0,0.015500585179975556,0.04688091545214674
1648125560090583931,30187,19,1,0.0327790863812,0.0146502861753,-0.0301449969411,0.0,27.7000007629,0.010962905144214047,0.0048997612626421405,-0.010081938776287625,27.7000007629,0.0,0.016259712138686776,0.046880915408973045
1648125560090596935,30188,19,2,0.294937610626,-1.58955609798,0.280451625586,0.0,27.7000007629,0.09864134134648829,-0.5316241130367892,0.09379653029632107,27.7000007629,0.0,0.5496220756187125,1.6408320746136722
1648125560090602022,30189,19,3,1.83995902538,-1.39177727699,0.414798438549,0.0,27.7000007629,0.6153709114983277,-0.4654773501638796,0.13872857476555184,27.7000007629,0.0,0.9869305350186264,2.344045850329235
1648125560090603554,30190,19,4,2.41921210289,-0.902457654476,0.474707633257,0.0,27.7000007629,0.8091010377558527,-0.30182530250033446,0.1587650947347826,27.7000007629,0.0,1.1833796904732707,2.625331284612333
1648125560090740161,30191,19,5,0.870690107346,0.0556710883975,0.179478704929,0.0809188112617,27.7000007629,0.2912007047979933,0.018619093109531772,0.0600263227187291,27.7000007629,0.010934974494824324,0.4122406719113454,0.8907374128420465
1648125560090745289,30192,19,6,0.705816507339,0.174338400364,0.326495319605,0.161837622523,27.7000007629,0.2360590325548495,0.058307157312374576,0.10919575906521739,27.7000007629,0.021869948989594594,0.33889151405031226,0.7969755414049255
1648125560090746570,30193,19,7,1.29572629929,-1.29508531094,-1.60833859444,0.242756426334,27.7000007629,0.433353277354515,-0.4331388999799331,-0.5379058844280936,27.7000007629,0.03280492247756756,0.7504661435825236,2.437807547705427
1648125560090749643,30194,19,8,1.76954114437,-0.076181486249,-1.67506015301,0.242756426334,27.7000007629,0.5918197807257525,-0.02547875794280936,-0.5602207869598662,27.7000007629,0.03280492247756756,0.8373472832838617,2.4378076209305934
1648125560090752971,30195,19,9,0.644664049149,-1.19692838192,-1.48846912384,0.323675245047,27.7000007629,0.21560670540100332,-0.40031049562541804,-0.49781576048160536,27.7000007629,0.04373989797932432,0.5032106872231729,2.0158793665137384
1648125560190157313,30196,20,0,0.0126657225192,0.0439508594573,0.0102821039036,0.0,26.3999996185,0.004236027598394649,0.014699284099431437,0.003438830736989966,26.3999996185,0.0,0.015873147534894275,0.046880915463044584
1648125560190168486,30197,20,1,0.0327790863812,0.0146502861753,-0.0301449969411,0.0,26.3999996185,0.010962905144214047,0.0048997612626421405,-0.010081938776287625,26.3999996185,0.0,0.016259712138686776,0.046880915408973045
1648125560190177147,30198,20,2,0.283751279116,-1.58955609798,0.291764497757,0.0,26.3999996185,0.09490009334983278,-0.5316241130367892,0.09758009958428092,26.3999996185,0.0,0.5483030667411652,1.6408320752522985
1648125560190179400,30199,20,3,1.87183618546,-1.31852579117,0.502265155315,0.0,26.3999996185,0.6260321690501672,-0.44097852547491634,0.16798165729598663,26.3999996185,0.0,0.9890877682497877,2.3440459153825293
1648125560190195334,30200,20,4,2.4179494381,-0.902457654476,0.481098622084,0.0,26.3999996185,0.8086787418394649,-0.30182530250033446,0.16090254919197322,26.3999996185,0.0,1.182802235471145,2.6253314433613046
1648125560190311633,30201,20,5,0.688827455044,0.224149376154,0.332330852747,0.161837622523,26.3999996185,0.23037707526555182,0.07496634653979932,0.111147442390301,26.3999996185,0.021869948989594594,0.33431593849133895,0.7969755337149124
1648125560190315987,30202,20,6,2.63888907433,-0.339886635542,0.560544013977,0.161837622523,26.3999996185,0.8825715967658863,-0.11367446004749163,0.1874729143735786,26.3999996185,0.021869948989594594,1.25331046820126,2.719093242837353
1648125560190321520,30203,20,7,1.34308052063,-1.27457487583,-1.99124610424,0.161837622523,26.3999996185,0.4491908095752508,-0.4262792226856187,-0.6659685967357859,26.3999996185,0.021869948989594594,0.765022053608387,2.719093129453971
1648125560190324153,30204,20,8,0.48254442215,-1.1646977663,2.14109945297,0.242756426334,26.3999996185,0.16138609436454848,-0.38953102551839464,0.7160867735685618,26.3999996185,0.03280492247756756,0.45147022354735433,2.4846884862454526
1648125560190326371,30205,20,9,1.58672606945,-0.0776465162635,-1.91048371792,0.242756426334,26.3999996185,0.5306776152006689,-0.025968734536287622,-0.6389577651906354,26.3999996185,0.03280492247756756,0.7509406352858757,2.484688438697603
1648125560190329467,30206,20,10,2.02255582809,0.32230630517,0.245696261525,0.404594063759,26.3999996185,0.6764400762842808,0.10779475089297658,0.08217266271739129,26.3999996185,0.05467487348094594,0.962684819620132,2.0627603072147096
1648125560290149962,30207,21,0,0.0126657225192,0.0439508594573,0.0102821039036,0.0,28.5,0.004236027598394649,0.014699284099431437,0.003438830736989966,28.5,0.0,0.015873147534894275,0.046880915463044584
1648125560290158200,30208,21,1,0.0327790863812,0.0146502861753,-0.0301449969411,0.0,28.5,0.010962905144214047,0.0048997612626421405,-0.010081938776287625,28.5,0.0,0.016259712138686776,0.046880915408973045
1648125560290171876,30209,21,2,0.277933448553,-1.58955609798,0.297311782837,0.0,28.5,0.09295433061973243,-0.5316241130367892,0.09943537887525082,28.5,0.0,0.5476360221206032,1.6408320714392688
1648125560290180295,30210,21,3,1.87156569958,-1.31852579117,0.503272354603,0.0,28.5,0.6259417055451505,-0.44097852547491634,0.1683185132451505,28.5,0.0,0.9889732541436979,2.3440459664290922
1648125560290204990,30211,21,4,2.42022323608,-0.902457654476,0.469526201487,0.0,28.5,0.8094392093913043,-0.30182530250033446,0.15703217441036788,28.5,0.0,1.1838421265647958,2.6253314427833074
1648125560290214224,30212,21,5,0.701865136623,0.273960351944,0.259809732437,0.161837622523,28.5,0.23473750388729095,0.09162553576722407,0.08689288710267558,28.5,0.021869948989594594,0.34438151847493603,0.7969755589182697
1648125560290349577,30213,21,6,0.840519011021,0.194848805666,0.22130279243,0.323675245047,28.5,0.2811100371307692,0.06516682463745818,0.07401431184949832,28.5,0.04373989797932432,0.4028553350579512,0.8907374421761456
1648125560290354650,30214,21,7,1.01285934448,0.316446185112,0.690064311028,0.323675245047,28.5,0.33874894464214045,0.10583484451906354,0.2307907394742475,28.5,0.04373989797932432,0.49061462402450073,1.2657847341183024
1648125560290360112,30215,21,8,1.06513297558,0.476134330034,-0.11146979779,0.404594063759,28.5,0.3562317644080268,0.15924225084749163,-0.03728086882608696,28.5,0.05467487348094594,0.5283561624524571,1.1720228972695776
1648125560290363072,30216,21,9,0.548971056938,0.0776465162635,2.42204022408,0.404594063759,28.5,0.1836023601799331,0.025968734536287622,0.8100468976856187,28.5,0.05467487348094594,0.26094832534565143,2.484688521707495
1648125560290482050,30217,21,10,1.88375043869,-1.1646977663,-1.12633919716,0.404594063759,28.5,0.6300168691270902,-0.38953102551839464,-0.37670207262876254,28.5,0.05467487348094594,0.9724078005707351,2.4846884289882323
1648125560290486323,30218,21,11,0.950518608093,-1.80491530895,0.306227385998,0.566431701183,28.5,0.31789920003110367,-0.603650605,0.10241718595250834,28.5,0.07654482448418919,0.7526711471005764,2.062760312966171
1648125560390155771,30219,22,0,0.00653523253277,0.0454158857465,0.00961812306195,0.0,27.0,0.0021856964992541805,0.015189259446989964,0.003216763565869565,27.0,0.0,0.015500585179975556,0.04688091545214674
1648125560390161317,30220,22,1,0.0327914953232,0.0146502861753,-0.0301314946264,0.0,27.0,0.010967055292040133,0.0048997612626421405,-0.010077422951973244,27.0,0.0,0.01626530860414949,0.046880913162719064
1648125560390169302,30221,22,2,0.492392152548,-1.53828001022,0.289092570543,0.0,27.0,0.16467964968160534,-0.51447491980602,0.09668647844247492,27.0,0.0,0.5647328723812022,1.6408320864964994
1648125560390176016,30222,22,3,1.8695486784,-1.31852579117,0.510714054108,0.0,27.0,0.625267116521739,-0.44097852547491634,0.17080737595585282,27.0,0.0,0.9881194229124591,2.34404593981242
1648125560390181231,30223,22,4,2.42088961601,-0.902457654476,0.466078162193,0.0,27.0,0.8096620789331104,-0.30182530250033446,0.15587898401103678,27.0,0.0,1.1841468985535497,2.6253314465607143
1648125560390190017,30224,22,5,0.759285449982,0.316446185112,0.18825802207,0.161837622523,27.0,0.2539416220675585,0.10583484451906354,0.06296254918729097,27.0,0.021869948989594594,0.37439779533402673,0.8438564246955846
1648125560390199970,30225,22,6,1.90902256966,0.5186201334,-1.93320417404,0.323675245047,27.0,0.6384690868428093,0.17345154963210702,-0.6465565799464882,27.0,0.04373989797932432,0.9194405852351532,2.765974040508114
1648125560390206034,30226,22,7,1.58992612362,-0.7779302001,-2.12545800209,0.323675245047,27.0,0.5317478674314381,-0.26017732444816055,-0.7108555190936454,27.0,0.04373989797932432,0.7957410566212905,2.765974004477511
1648125560390215437,30227,22,8,0.926041722298,0.307655990124,0.130511298776,0.404594063759,27.0,0.30971295060133774,0.10289497997458194,0.04364926380468227,27.0,0.05467487348094594,0.4499239940749359,0.984499202033208
1648125560390219482,30228,22,9,0.868752062321,0.39555773139,0.831273138523,0.485512852669,27.0,0.2905525292043478,0.13229355564882941,0.2780177720812709,27.0,0.06560984495527027,0.43167479578995194,1.2657847745486879
1648125560390290627,30229,22,10,1.32787334919,-0.886342346668,-2.024736166,0.485512852669,27.0,0.4441047990602007,-0.2964355674474916,-0.6771692862876253,27.0,0.06560984495527027,0.6945013972228701,2.5784504899055913
1648125560390306026,30230,22,11,2.39243412018,0.886342346668,0.372911632061,0.485512852669,27.0,0.800145190695652,0.2964355674474916,0.12471960938494982,27.0,0.06560984495527027,1.1697601027709394,2.5784504765895324
1648125560390308873,30231,22,12,0.319307744503,-0.304725944996,-1.13618266582,0.566431701183,27.0,0.10679188779364547,-0.10191503177123744,-0.3799942026153846,27.0,0.07654482448418919,0.18219683942921036,1.2189037646029075
1648125560390338958,30232,22,13,1.02813780308,0.495179653168,-0.428317844868,0.566431701183,27.0,0.34385879701672234,0.16561192413645484,-0.14325011534046822,27.0,0.07654482448418919,0.5137169006249978,1.2189037727672014
1648125560390381640,30233,22,14,1.3379625082,0.0673913136125,-1.68994140625,-0.647350490093,27.0,0.44747909973244143,0.02253890087374582,-0.5651977947324415,27.0,-0.08747979595851352,0.6332322571121193,2.1565220191450587
1648125560390385886,30234,22,15,0.742647945881,0.395557701588,0.0640456527472,-0.161837622523,27.0,0.2483772394250836,0.13229354568160534,0.021419950751571906,27.0,-0.021869948989594594,0.37534529217490076,0.8438564525099426
1648125560490240427,30235,23,0,0.0126355709508,0.0439508594573,0.0103191342205,0.0,36.2999992371,0.00422594346180602,0.014699284099431437,0.003451215458361204,36.2999992371,0.0,0.015867770773506908,0.04688091542780209
1648125560490371460,30236,23,1,0.0327790863812,0.0146502861753,-0.0301449969411,0.0,36.2999992371,0.010962905144214047,0.0048997612626421405,-0.010081938776287625,36.2999992371,0.0,0.016259712138686776,0.046880915408973045
1648125560490374957,30237,23,2,0.486214011908,-1.53828001022,0.299366772175,0.0,36.2999992371,0.1626133819090301,-0.51447491980602,0.10012266627926421,36.2999992371,0.0,0.563534086867152,1.6408320814454458
1648125560490381424,30238,23,3,1.87150299549,-1.31852579117,0.503505468369,0.0,36.2999992371,0.6259207342775919,-0.44097852547491634,0.1683964777153846,36.2999992371,0.0,0.9889467079308323,2.344045963880829
1648125560490390244,30239,23,4,2.38889575005,-0.984499275684,0.4650849998,0.0,36.2999992371,0.7989617893143812,-0.32926397180066885,0.15554682267558528,36.2999992371,0.0,1.1769004395847709,2.6253315572453393
1648125560490395767,30240,23,5,0.73487085104,0.36918720603,0.189101591706,0.161837622523,36.2999992371,0.245776204361204,0.12347398194983276,0.06324467950033444,36.2999992371,0.021869948989594594,0.3688600133911892,0.8438564882669531
1648125560490401268,30241,23,6,0.942008078098,0.41899818182,-0.0283971931785,0.242756426334,36.2999992371,0.31505286892909695,0.14013317117725752,-0.009497389022909699,36.2999992371,0.03280492247756756,0.46706950885826837,1.0313801899158093
1648125560490447173,30242,23,7,1.62805485725,0.6914935112,-2.12647271156,0.242756426334,36.2999992371,0.544499952257525,0.23126873284280935,-0.7111948868093645,36.2999992371,0.03280492247756756,0.8040184219329882,2.7659739852819225
1648125560490454388,30243,23,8,1.74192106724,-0.6050568223,-2.06160855293,0.242756426334,36.2999992371,0.582582296735786,-0.20236014123745819,-0.689501188270903,36.2999992371,0.03280492247756756,0.8483831043234717,2.7659740758402713
1648125560490457384,30244,23,9,0.936772227287,0.41899818182,0.103166498244,0.485512852669,36.2999992371,0.31330174825652174,0.14013317117725752,0.03450384556655518,36.2999992371,0.06560984495527027,0.4647077324355389,1.0313801474454711
1648125560490470961,30245,23,10,1.04310107231,0.553780794144,-0.455497503281,0.566431701183,36.2999992371,0.3488632348862876,0.18521096794113712,-0.1523403021006689,36.2999992371,0.07654482448418919,0.5269859732064441,1.2657847330854703
1648125560490474334,30246,23,11,1.01059675217,-0.712003946304,0.271947950125,0.566431701183,36.2999992371,0.33799222480602,-0.23812841013511704,0.090952491680602,36.2999992371,0.07654482448418919,0.5340249317888864,1.2657847773718134
1648125560490495736,30247,23,12,1.43108010292,-1.58369588852,0.546719014645,0.566431701183,36.2999992371,0.47862210799999994,-0.5296641767625418,0.18284916877759194,36.2999992371,0.07654482448418919,0.859477972189089,2.203402961163271
1648125560590826684,30248,24,0,0.0126454373822,0.0439508594573,0.0103070409968,0.0,22.7999992371,0.004229243271638795,0.014699284099431437,0.003447170901939799,22.7999992371,0.0,0.015869528989141485,0.046880915389230546
1648125560590834680,30249,24,1,0.0328296348453,0.0146502861753,-0.0300899371505,0.0,22.7999992371,0.010979810985050166,0.0048997612626421405,-0.010063524130602006,22.7999992371,0.0,0.016282510831126296,0.04688091431291589
1648125560590844396,30250,24,2,0.288407474756,-1.58955609798,0.287162750959,0.0,22.7999992371,0.09645734941672239,-0.5316241130367892,0.09604105383244146,22.7999992371,0.0,0.548846279093839,1.64083207722755
1648125560590847126,30251,24,3,1.8388916254,-1.39177727699,0.419505178928,0.0,22.7999992371,0.6150139215384615,-0.4654773501638796,0.14030273542742475,22.7999992371,0.0,0.9864853830076858,2.34404586001626
1648125560590852887,30252,24,4,2.39167380333,-0.984499275684,0.450580596924,0.0,22.7999992371,0.7998909041237456,-0.32926397180066885,0.1506958518140468,22.7999992371,0.0,1.178161992310802,2.6253314609172103
1648125560590856609,30253,24,5,0.913057804108,0.451228827238,0.162674531341,0.242756426334,22.7999992371,0.3053705030461538,0.15091265125016723,0.05440619777290969,22.7999992371,0.03280492247756756,0.45746794048181855,1.0313801487909866
1648125560590999397,30254,24,6,1.52707588673,-0.5186201334,-2.24715042114,0.242756426334,22.7999992371,0.5107277213143813,-0.17345154963210702,-0.7515553247959866,22.7999992371,0.03280492247756756,0.7428129311662122,2.76597408191576
1648125560591032261,30255,24,7,0.721427559853,0.421928226948,0.116672702134,0.323675245047,22.7999992371,0.2412801203521739,0.14111311938060198,0.03902097061337792,22.7999992371,0.04373989797932432,0.3692493810633175,0.8438564286857012
1648125560591054348,30256,24,8,1.48957538605,-1.51483952999,0.584303915501,0.323675245047,22.7999992371,0.49818574784280933,-0.5066352943110367,0.1954193697327759,22.7999992371,0.04373989797932432,0.8677887992760849,2.2034029813032685
1648125560591063493,30257,24,9,2.35619044304,1.06654083729,0.450801938772,0.323675245047,22.7999992371,0.7880235595451505,0.35670262116722407,0.15076987918795984,22.7999992371,0.04373989797932432,1.1701277796651042,2.6253314361201863
1648125560591074648,30258,24,10,1.93554091454,-1.55879056454,0.846296608448,0.323675245047,22.7999992371,0.6473380985083611,-0.5213346369698996,0.2830423439625418,22.7999992371,0.04373989797932432,1.0535098629179407,2.6253313325041203
1648125560591140339,30259,24,11,1.58569765091,-1.54707026482,0.394859731197,0.404594063759,22.7999992371,0.5303336625117057,-0.5174148042876254,0.13206011076822743,22.7999992371,0.05467487348094594,0.911167200288817,2.2502839046912912
1648125560785998873,30260,26,0,0.0126454373822,0.0439508594573,0.0103070409968,0.0,23.1000003815,0.004229243271638795,0.014699284099431437,0.003447170901939799,23.1000003815,0.0,0.015869528989141485,0.046880915389230546
1648125560786009880,30261,26,1,0.0327914953232,0.0146502861753,-0.0301314946264,0.0,23.1000003815,0.010967055292040133,0.0048997612626421405,-0.010077422951973244,23.1000003815,0.0,0.01626530860414949,0.046880913162719064
1648125560786028976,30262,26,2,0.48849272728,-1.53828001022,0.295633882284,0.0,23.1000003815,0.16337549407357857,-0.51447491980602,0.09887420812173912,23.1000003815,0.0,0.5639747753552303,1.640832083670418
1648125560786035538,30263,26,3,1.87087523937,-1.31852579117,0.505833089352,0.0,23.1000003815,0.6257107823979933,-0.44097852547491634,0.1691749462715719,23.1000003815,0.0,0.9886809527589016,2.3440459759892973
1648125560786039899,30264,26,4,2.42030787468,-0.902457654476,0.469089984894,0.0,23.1000003815,0.8094675166153846,-0.30182530250033446,0.15688628257324413,23.1000003815,0.0,1.1838808361234565,2.6253314915050625
1648125560786043021,30265,26,5,0.905867159367,0.5391305089,0.226693212986,0.161837622523,23.1000003815,0.30296560513946486,0.18031120698996655,0.07581712808896321,23.1000003815,0.021869948989594594,0.46485314580114745,1.0782610207460561
1648125560786148757,30266,26,6,0.770372629166,0.46880915761,0.25665563345,0.404594063759,23.1000003815,0.25764970875117055,0.15679236040468228,0.08583800449832775,23.1000003815,0.05467487348094594,0.3966744119809063,0.9376183275772472
1648125560891011546,30267,27,0,0.0126355709508,0.0439508594573,0.0103191342205,0.0,42.0,0.00422594346180602,0.014699284099431437,0.003451215458361204,42.0,0.0,0.015867770773506908,0.04688091542780209
1648125560891024066,30268,27,1,0.0327914953232,0.0146502861753,-0.0301314946264,0.0,42.0,0.010967055292040133,0.0048997612626421405,-0.010077422951973244,42.0,0.0,0.01626530860414949,0.046880913162719064
1648125560891051454,30269,27,2,1.87696969509,-1.31852579117,0.482727766037,0.0,42.0,0.6277490619030099,-0.44097852547491634,0.161447413390301,42.0,0.0,0.9912617360567537,2.3440459881089777
1648125560891097093,30270,27,3,2.39054560661,-0.984499275684,0.456527590752,0.0,42.0,0.79951358080602,-0.32926397180066885,0.1526848129605351,42.0,0.0,1.1776496486275025,2.62533132427557
1648125560891107302,30271,27,4,0.767133355141,0.553780794144,0.272161662579,0.0809188112617,42.0,0.2565663395120401,0.18521096794113712,0.09102396741772574,42.0,0.010934974494824324,0.40737657736657834,0.9844992245352012
1648125560891114840,30272,27,5,0.941459000111,0.597731649876,0.149386510253,0.0809188112617,42.0,0.3148692308063545,0.19991025079464883,0.04996204356287626,42.0,0.010934974494824324,0.4881079525985518,1.1251419926387332
1648125560891121208,30273,27,6,1.72748851776,-1.36394166946,0.65758138895,0.242756426334,42.0,0.5777553571103679,-0.4561677824280936,0.21992688593645482,42.0,0.03280492247756756,0.9357839232776026,2.297164935257237
1648125560891300299,30274,27,7,2.13919186592,-1.52948987484,0.691365718842,0.242756426334,42.0,0.7154487845886287,-0.5115350751973244,0.23122599292374582,42.0,0.03280492247756756,1.1337557320233598,2.719093171196288
1648125560891305132,30275,27,8,2.16887569427,1.52948987484,0.59169793129,0.242756426334,42.0,0.7253764863779264,0.5115350751973244,0.19789228471237458,42.0,0.03280492247756756,1.1463028514040714,2.7190931385897983
1648125561086091028,30276,29,0,0.00654837302864,0.0454158857465,0.00960918143392,0.0,12.3000001907,0.0021900913139264212,0.015189259446989964,0.0032137730548227423,12.3000001907,0.0,0.015501825778747669,0.04688091546985142
1648125561086099623,30277,29,1,0.032754637301,0.0146502861753,-0.0301715619862,0.0,12.3000001907,0.010954728194314381,0.0048997612626421405,-0.010090823406755852,12.3000001907,0.0,0.016248686102374597,0.046880916185857074
1648125561086119784,30278,29,2,0.277875721455,-1.58955609798,0.297365754843,0.0,12.3000001907,0.09293502389799331,-0.5316241130367892,0.09945342971337791,12.3000001907,0.0,0.5476294686154078,1.6408320746965204
1648125561086223669,30279,29,3,1.82822740078,-1.39177727699,0.463779836893,0.0,12.3000001907,0.6114472912307691,-0.4654773501638796,0.15511031334214045,12.3000001907,0.0,0.9820411108616975,2.344045894349552
1648125561086227772,30280,29,4,2.39174079895,-0.984499275684,0.45022508502,0.0,12.3000001907,0.7999133106856187,-0.32926397180066885,0.1505769515117057,12.3000001907,0.0,1.1781924173707816,2.6253315029469273
1648125561086229974,30281,29,5,1.03794324398,0.779395282269,-0.19572417438,-0.161837622523,12.3000001907,0.3471382086889632,0.2606673184846154,-0.06545959009364548,12.3000001907,-0.021869948989594594,0.5558392958306603,1.3126656604724727
1648125561086231114,30282,29,6,0.725737988949,0.646077632904,0.158514246345,-0.0809188112617,12.3000001907,0.24272173543444814,0.2160794758876254,0.053014798108695645,12.3000001907,-0.010934974494824324,0.40560821195396346,0.9844992141372678
1648125561086237169,30283,29,7,0.802413105965,0.707608819008,0.134423613548,-0.0809188112617,12.3000001907,0.2683655872792642,0.23665846789565215,0.04495773028361204,12.3000001907,-0.010934974494824324,0.44726659533012986,1.078260980116408
1648125561191002277,30284,30,0,0.0126355709508,0.0439508594573,0.0103191342205,0.0,19.1000003815,0.00422594346180602,0.014699284099431437,0.003451215458361204,19.1000003815,0.0,0.015867770773506908,0.04688091542780209
1648125561191010249,30285,30,1,0.0328052677214,0.0146502861753,-0.0301165021956,0.0,19.1000003815,0.01097166144528428,0.0048997612626421405,-0.010072408761070234,19.1000003815,0.0,0.01627152021695464,0.04688091487789562
1648125561191016707,30286,30,2,0.615745306015,0.73837441206,0.211895391345,0.0,19.1000003815,0.2059348849548495,0.24694796389966553,0.070868023861204,19.1000003815,0.0,0.3818398231679413,0.9844992184545945
1648125561191024177,30287,30,3,1.82805871964,-1.39177727699,0.46444439888,0.0,19.1000003815,0.6113908761337792,-0.4654773501638796,0.15533257487625418,19.1000003815,0.0,0.981970860237129,2.344045919099824
1648125561191148259,30288,30,4,2.42094373703,-0.902457654476,0.46579644084,0.0,19.1000003815,0.8096801796086955,-0.30182530250033446,0.15578476282274245,19.1000003815,0.0,1.184171651295435,2.6253313543791603
1648125561191156176,30289,30,5,0.896575450897,0.723724126816,0.397620797157,-0.242756426334,19.1000003815,0.2998580103334448,0.24204820294849494,0.13298354419966554,19.1000003815,-0.03280492247756756,0.4882796179166814,1.2189037899762674
1648125561191160164,30290,30,6,0.972891688347,0.861436843872,-0.185740619898,-0.161837622523,19.1000003815,0.3253818355675585,0.28810596785016723,-0.06212060866153846,19.1000003815,-0.021869948989594594,0.5429104222111683,1.3126657042502947
1648125561191162908,30291,30,7,0.792997121811,0.640217483044,0.352028250694,-0.0809188112617,19.1000003815,0.2652164286993311,0.21411955954648826,0.11773520090100334,19.1000003815,-0.010934974494824324,0.4318873624967937,1.0782609842159745
1648125561386133368,30292,32,0,0.0126355709508,0.0439508594573,0.0103191342205,0.0,19.3999996185,0.00422594346180602,0.014699284099431437,0.003451215458361204,19.3999996185,0.0,0.015867770773506908,0.04688091542780209
1648125561386144087,30293,32,1,0.0327914953232,0.0146502861753,-0.0301314946264,0.0,19.3999996185,0.010967055292040133,0.0048997612626421405,-0.010077422951973244,19.3999996185,0.0,0.01626530860414949,0.046880913162719064
1648125561386164136,30294,32,2,0.643432378769,0.808695793152,0.307656675577,0.0,19.3999996185,0.2151947755080267,0.2704668204521739,0.10289520922307692,19.3999996185,0.0,0.40714847878557586,1.078260980438951
1648125561386173448,30295,32,3,1.82502734661,-1.39177727699,0.476216763258,0.0,19.3999996185,0.610377039,-0.4654773501638796,0.15926982048762542,19.3999996185,0.0,0.9807086330773284,2.344045906169067
1648125561386197937,30296,32,4,2.39229083061,-0.984499275684,0.447292596102,0.0,19.3999996185,0.8000972677625418,-0.32926397180066885,0.14959618598729096,19.3999996185,0.0,1.1784422085482684,2.62533139023832
1648125561386201783,30297,32,5,0.836274325848,0.949338555336,-0.0401575341821,0.161837622523,19.3999996185,0.2796904099826087,0.3175045335571906,-0.013430613438829432,19.3999996185,0.021869948989594594,0.507210587135017,1.2657847638013173
1648125561386343752,30298,32,6,0.461670875549,0.830671191216,0.257068276405,0.242756426334,19.3999996185,0.15440497509999998,0.2778164519117057,0.08597601217558529,19.3999996185,0.03280492247756756,0.35336068488737155,0.9844992249769555
1648125561491029485,30299,33,0,0.0126454373822,0.0439508594573,0.0103070409968,0.0,31.0,0.004229243271638795,0.014699284099431437,0.003447170901939799,31.0,0.0,0.015869528989141485,0.046880915389230546
1648125561491038109,30300,33,1,0.0327790863812,0.0146502861753,-0.0301449969411,0.0,31.0,0.010962905144214047,0.0048997612626421405,-0.010081938776287625,31.0,0.0,0.016259712138686776,0.046880915408973045
1648125561491041024,30301,33,2,1.83864581585,-1.39177727699,0.420580983162,0.0,31.0,0.614931710986622,-0.4654773501638796,0.14066253617458194,31.0,0.0,0.9863828779279655,2.3440458161661275
1648125561491135087,30302,33,3,2.3928103447,-0.984499275684,0.44450506568,0.0,31.0,0.8002710182943144,-0.32926397180066885,0.14866390156521736,31.0,0.0,1.178678144605044,2.6253313929751485
1648125561491140871,30303,33,4,0.590023100376,0.808695793152,0.400662690401,0.0809188112617,31.0,0.19733214059397994,0.2704668204521739,0.13400089979966553,31.0,0.010934974494824324,0.3886286767446697,1.0782609778334824
1648125561685943780,30304,35,0,0.0126355709508,0.0439508594573,0.0103191342205,0.0,27.1000003815,0.00422594346180602,0.014699284099431437,0.003451215458361204,27.1000003815,0.0,0.015867770773506908,0.04688091542780209
1648125561685954526,30305,35,1,0.0327914953232,0.0146502861753,-0.0301314946264,0.0,27.1000003815,0.010967055292040133,0.0048997612626421405,-0.010077422951973244,27.1000003815,0.0,0.01626530860414949,0.046880913162719064
1648125561685984655,30306,35,2,0.285095900297,0.87022703886,0.474521100521,0.0,27.1000003815,0.09534979943043477,0.2910458323946488,0.1587027092043478,27.1000003815,0.0,0.32076602852724645,1.0313801657821726
1648125561685993656,30307,35,3,0.284955859184,-1.58955609798,0.290588140488,0.0,27.1000003815,0.09530296293779264,-0.5316241130367892,0.09718666905953177,27.1000003815,0.0,0.548442801987224,1.640832074802589
1648125561685998774,30308,35,4,1.83882522583,-1.39177727699,0.419796347618,0.0,27.1000003815,0.6149917143244147,-0.4654773501638796,0.14040011626020066,27.1000003815,0.0,0.9864576934116089,2.3440458983065717
1648125561686005085,30309,35,5,2.39229607582,-0.984499275684,0.447264373302,0.0,27.1000003815,0.8000990220133779,-0.32926397180066885,0.1495867469237458,27.1000003815,0.0,1.1784445906276118,2.6253313615296876
1648125561686009629,30310,35,6,0.609547972679,0.876087069511,0.153523698449,0.242756426334,27.1000003815,0.2038621982204013,0.2930057088665552,0.051345718544816045,27.1000003815,0.03280492247756756,0.411061962670959,1.0782610121612068
1648125561791076901,30311,36,0,0.00650825537741,0.0454158857465,0.00963639840484,0.0,31.7000007629,0.0021766740392675584,0.015189259446989964,0.003222875720682274,31.7000007629,0.0,0.015498045757269418,0.04688091552448108
1648125561791086045,30312,36,1,0.0327914953232,0.0146502861753,-0.0301314946264,0.0,31.7000007629,0.010967055292040133,0.0048997612626421405,-0.010077422951973244,31.7000007629,0.0,0.01626530860414949,0.046880913162719064
1648125561791177091,30313,36,2,0.278872907162,-1.58955609798,0.296430766582,0.0,31.7000007629,0.09326853082341137,-0.5316241130367892,0.09914072460936454,31.7000007629,0.0,0.5477428550388111,1.6408320713439206
1648125561791190021,30314,36,3,1.86830735207,-1.31852579117,0.515236318111,0.0,31.7000007629,0.6248519572140467,-0.44097852547491634,0.17231983883311036,31.7000007629,0.0,0.987594044533725,2.344045879943451
1648125561791195571,30315,36,4,2.42160129547,-0.902457654476,0.462365418673,0.0,31.7000007629,0.809900098819398,-0.30182530250033446,0.1546372637702341,31.7000007629,0.0,1.1844723945135909,2.6253312996132436
1648125561791344550,30316,36,5,0.642317712307,0.914177834988,0.132858261466,0.323675245047,31.7000007629,0.21482197736020064,0.30574509531371236,0.04443420115919732,31.7000007629,0.04373989797932432,0.4310185926642657,1.1251419800035962
1648125561791354251,30317,36,6,0.48759239912,0.830671191216,0.203660845757,-0.0809188112617,31.7000007629,0.16307438097658863,0.2778164519117057,0.06811399523645484,31.7000007629,-0.010934974494824324,0.36106576743663227,0.9844992207667116
1648125561985957146,30318,38,0,0.0126355709508,0.0439508594573,0.0103191342205,0.0,20.3999996185,0.00422594346180602,0.014699284099431437,0.003451215458361204,20.3999996185,0.0,0.015867770773506908,0.04688091542780209
1648125561985968595,30319,38,1,0.0327914953232,0.0146502861753,-0.0301314946264,0.0,20.3999996185,0.010967055292040133,0.0048997612626421405,-0.010077422951973244,20.3999996185,0.0,0.01626530860414949,0.046880913162719064
1648125561985980899,30320,38,2,0.289141774178,-1.58955609798,0.286423355341,0.0,20.3999996185,0.09670293450769231,-0.5316241130367892,0.09579376432809364,20.3999996185,0.0,0.5489327032040913,1.6408320732741062
1648125561985984805,30321,38,3,1.84079086781,-1.39177727699,0.411091476679,0.0,20.3999996185,0.6156491196688962,-0.4654773501638796,0.1374887881869565,20.3999996185,0.0,0.9872774891659187,2.344045906111165
1648125561985999821,30322,38,4,2.42206478119,-0.902457654476,0.459931969643,0.0,20.3999996185,0.8100551107658862,-0.30182530250033446,0.15382340121839463,20.3999996185,0.0,1.1846843791429356,2.625331415098478
1648125561986183613,30323,38,5,0.650159657001,0.73837441206,0.0365282818675,0.485512852669,20.3999996185,0.21744470133812707,0.24694796389966553,0.012216816678093644,20.3999996185,0.06560984495527027,0.39439535133447634,0.9844991962174475
1648125561986188040,30324,38,6,0.530756592751,1.02845001221,0.382510721684,0.485512852669,20.3999996185,0.17751056613745816,0.34396321478595315,0.1279300072521739,20.3999996185,0.06560984495527027,0.4258294204335459,1.21890378642722
1648125561986189756,30325,38,7,0.358016639948,-1.14272224903,0.22745642066,-0.647350490093,20.3999996185,0.11973800667157189,-0.3821813541906354,0.0760723814916388,20.3999996185,-0.08747979595851352,0.41801551164322925,1.2189038010471933
1648125562091250019,30326,39,0,0.0126454373822,0.0439508594573,0.0103070409968,0.0,27.1000003815,0.004229243271638795,0.014699284099431437,0.003447170901939799,27.1000003815,0.0,0.015869528989141485,0.046880915389230546
1648125562091262936,30327,39,1,0.032842002809,0.0146502861753,-0.0300764385611,0.0,27.1000003815,0.010983947427759197,0.0048997612626421405,-0.010059009552207357,27.1000003815,0.0,0.016288089594008386,0.04688091498727572
1648125562091266762,30328,39,2,0.484819144011,-1.53828001022,0.301620513201,0.0,27.1000003815,0.16214687090668894,-0.51447491980602,0.10087642581973243,27.1000003815,0.0,0.5632651760929941,1.6408320834947239
1648125562091268383,30329,39,3,1.83824145794,-1.39177727699,0.422345340252,0.0,27.1000003815,0.6147964742274247,-0.4654773501638796,0.14125262215785953,27.1000003815,0.0,0.9862142632108561,2.344045910998258
1648125562091274308,30330,39,4,2.392100811,-0.984499275684,0.448308110237,0.0,27.1000003815,0.8000337160535117,-0.32926397180066885,0.14993582282173912,27.1000003815,0.0,1.1783559126048182,2.625331460123359
1648125562091433825,30331,39,5,0.632547557354,1.02845013142,-0.379980117083,0.323675245047,27.1000003815,0.21155436700802674,0.3439632546555184,-0.12708365119832776,27.1000003815,0.04373989797932432,0.45587412840997105,1.265784726764681
1648125562091437408,30332,39,6,0.691579222679,1.02845013142,0.257331460714,0.485512852669,27.1000003815,0.23129739888929762,0.3439632546555184,0.08606403368361203,27.1000003815,0.06560984495527027,0.4746658761899013,1.265784726852203
1648125562091438561,30333,39,7,2.27700829506,1.60860145092,0.636965155602,0.566431701183,27.1000003815,0.76154123580602,0.5379937962943143,0.2130318246160535,27.1000003815,0.07654482448418919,1.2038801570410107,2.859736004096367
1648125562091447512,30334,39,8,0.253521680832,0.861436843872,-0.957467794418,-0.647350490093,27.1000003815,0.08478985981003344,0.28810596785016723,-0.3202233426147157,27.1000003815,-0.08747979595851352,0.3120635982681925,1.3126657061033113
1648125562091463761,30335,39,9,0.152604907751,-1.27164494991,0.287614434958,-0.647350490093,27.1000003815,0.05103843068595317,-0.4252993143511705,0.09619211871505015,27.1000003815,-0.08747979595851352,0.43138074783344865,1.3126656846651805
1648125562285931286,30336,41,0,0.00650562345982,0.0454158857465,0.00963817536831,0.0,26.3999996185,0.002175793799270903,0.015189259446989964,0.0032234700228461533,26.3999996185,0.0,0.015497798548886397,0.04688091551122268
1648125562285952481,30337,41,1,0.0327914953232,0.0146502861753,-0.0301314946264,0.0,26.3999996185,0.010967055292040133,0.0048997612626421405,-0.010077422951973244,26.3999996185,0.0,0.01626530860414949,0.046880913162719064
1648125562285957252,30338,41,2,1.87003386021,-1.31852579117,0.508934617043,0.0,26.3999996185,0.6254293846856187,-0.44097852547491634,0.17021224650267558,26.3999996185,0.0,0.9883247899281362,2.3440459348607257
1648125562285963859,30339,41,3,2.39203214645,-0.984499275684,0.448673784733,0.0,26.3999996185,0.8000107513210702,-0.32926397180066885,0.15005812198428092,26.3999996185,0.0,1.1783247292595358,2.6253313654811556
1648125562285968376,30340,41,4,0.775054693222,1.10463154316,0.165669351816,0.242756426334,26.3999996185,0.25921561646220737,0.3694419876789297,0.055407809971906356,26.3999996185,0.03280492247756756,0.520454468609813,1.3595466000695324
1648125562286072860,30341,41,5,0.506861329079,1.53828001022,0.262899428606,-0.242756426334,26.3999996185,0.16951883915685614,0.51447491980602,0.08792623030301003,26.3999996185,-0.03280492247756756,0.5675893909928081,1.640832077428868
1648125562391030190,30342,42,0,0.0126251038164,0.0439508594573,0.0103319380432,0.0,21.7000007629,0.004222442747959866,0.014699284099431437,0.0034554976733110363,21.7000007629,0.0,0.01586590679902651,0.04688091548955436
1648125562391038958,30343,42,1,0.0327914953232,0.0146502861753,-0.0301314946264,0.0,21.7000007629,0.010967055292040133,0.0048997612626421405,-0.010077422951973244,21.7000007629,0.0,0.01626530860414949,0.046880913162719064
1648125562391063817,30344,42,2,0.833373844624,1.06214570999,0.160316318274,0.0,21.7000007629,0.2787203493725752,0.3552326789264214,0.05361749775050167,21.7000007629,0.0,0.5306225800755022,1.3595465406003866
1648125562391152656,30345,42,3,1.83841967583,-1.39177727699,0.421568512917,0.0,21.7000007629,0.6148560788729096,-0.4654773501638796,0.14099281368461536,21.7000007629,0.0,0.986288577937272,2.3440458409143012
1648125562391155272,30346,42,4,2.39164233208,-0.984499275684,0.450747132301,0.0,21.7000007629,0.7998803786220735,-0.32926397180066885,0.15075154926454848,21.7000007629,0.0,1.1781477001357408,2.625331378263886
1648125562391158226,30347,42,5,0.551707446575,1.08998131752,0.787187814713,0.485512852669,21.7000007629,0.1845175406605351,0.3645422466622073,0.2632735166264214,21.7000007629,0.06560984495527027,0.4483129434048877,1.4533083068576915
1648125562586302771,30348,44,0,0.0126251038164,0.0439508594573,0.0103319380432,0.0,29.1000003815,0.004222442747959866,0.014699284099431437,0.0034554976733110363,29.1000003815,0.0,0.01586590679902651,0.04688091548955436
1648125562586336839,30349,44,1,0.0327790863812,0.0146502861753,-0.0301449969411,0.0,29.1000003815,0.010962905144214047,0.0048997612626421405,-0.010081938776287625,29.1000003815,0.0,0.016259712138686776,0.046880915408973045
1648125562586340674,30350,44,2,1.87014985085,-1.31852579117,0.508507966995,0.0,29.1000003815,0.625468177541806,-0.44097852547491634,0.17006955417892974,29.1000003815,0.0,0.9883738878405113,2.3440458782012223
1648125562586344661,30351,44,3,2.39241027832,-0.984499275684,0.446653068066,0.0,29.1000003815,0.8001372168294313,-0.32926397180066885,0.14938229701204014,29.1000003815,0.0,1.1784964550803911,2.625331355628518
1648125562586514187,30352,44,4,0.874027907848,1.08998131752,0.400151252747,0.0809188112617,29.1000003815,0.29231702603612036,0.3645422466622073,0.13382985041705683,29.1000003815,0.010934974494824324,0.5511710596745201,1.453308322867099
1648125562586517547,30353,44,5,0.652332782745,1.40203237534,0.0468353182077,-0.161837622523,29.1000003815,0.21817149924581936,0.4689071489431437,0.01566398602264214,29.1000003815,-0.021869948989594594,0.5613123199220953,1.5470702595476957
1648125562586519388,30354,44,6,0.481686651707,1.10756158829,0.378809034824,-0.0809188112617,29.1000003815,0.16109921461772572,0.37042193588294314,0.1266919848909699,29.1000003815,-0.010934974494824324,0.43487736717856834,1.2657847317583109
1648125562691157636,30355,45,0,0.00653523253277,0.0454158857465,0.00961812306195,0.0,20.6000003815,0.0021856964992541805,0.015189259446989964,0.003216763565869565,20.6000003815,0.0,0.015500585179975556,0.04688091545214674
1648125562691162802,30356,45,1,0.032754637301,0.0146502861753,-0.0301715619862,0.0,20.6000003815,0.010954728194314381,0.0048997612626421405,-0.010090823406755852,20.6000003815,0.0,0.016248686102374597,0.046880916185857074
1648125562691165723,30357,45,2,0.792242348194,1.10463154316,-0.0225411001593,0.0,20.6000003815,0.264963996051505,0.3694419876789297,-0.007538829484715719,20.6000003815,0.0,0.526212144165566,1.3595465735355952
1648125562691260590,30358,45,3,1.87295150757,-1.31852579117,0.49808999896,0.0,20.6000003815,0.6264051864782608,-0.44097852547491634,0.16658528393311037,20.6000003815,0.0,0.9895599907149444,2.344045916519807
1648125562691275648,30359,45,4,2.39242720604,-0.984499275684,0.446562707424,0.0,20.6000003815,0.8001428782742473,-0.32926397180066885,0.14935207606153844,20.6000003815,0.0,1.1785041427300735,2.6253314098765768
1648125562691278766,30360,45,5,0.761512756348,1.03138017654,0.779051482677,0.161837622523,20.6000003815,0.2546865405846154,0.34494320285618724,0.2605523353434782,20.6000003815,0.021869948989594594,0.4987146289278094,1.5001893078213968
1648125562691280769,30361,45,6,0.553969621658,1.40203237534,0.347633838654,-0.242756426334,20.6000003815,0.18527412095585283,0.4689071489431437,0.11626549787759197,20.6000003815,-0.03280492247756756,0.5371470135092585,1.547070266341754
1648125562691281903,30362,45,7,0.563616156578,1.10756158829,0.240531012416,-0.161837622523,20.6000003815,0.1885003868153846,0.37042193588294314,0.0804451546541806,20.6000003815,-0.021869948989594594,0.45637397191597867,1.2657847414726922
