%time,field.header.seq,field.header.frame_id,field.point_id,field.x,field.y,field.z,field.velocity,field.intensity,normalized_x,normalized_y,normalized_z,normalized_intensity,normalized_velocity,normalized_range,range
1648294474464144509,12426,0,0,0.0126454373822,0.0439508594573,0.0103070409968,0.0,23.1000003815,0.004229243271638795,0.014699284099431437,0.003447170901939799,23.1000003815,0.0,0.015869528989141485,0.046880915389230546
1648294474464148201,12427,0,1,0.0335509069264,0.0146502861753,-0.0292835440487,0.0,23.1000003815,0.011221039105819395,0.0048997612626421405,-0.009793827441036788,23.1000003815,0.0,0.016608163584802046,0.0468809150151135
1648294474464150619,12428,0,2,2.23555517197,-1.2306240797,0.616621732712,0.0,23.1000003815,0.7476773150401338,-0.4115799597658863,0.20622800425150503,23.1000003815,0.0,1.1346544840312118,2.6253313912175047
1648294474464154013,12429,0,3,1.09648144245,-0.879017174244,-0.0556370429695,0.0809188112617,23.1000003815,0.3667162014882943,-0.29398567700468226,-0.01860770667876254,23.1000003815,0.010934974494824324,0.5961452198515962,1.4064274694428893
1648294474464160301,12430,0,4,0.785173356533,-0.988894343376,0.0883278101683,-0.242756426334,23.1000003815,0.2625997847936455,-0.3307338941056856,0.029541073634882942,23.1000003815,-0.03280492247756756,0.4972948850105425,1.2657847464002223
1648294474464208087,12431,0,5,0.79246288538,-0.914177834988,0.148350536823,-0.0809188112617,23.1000003815,0.2650377543076923,-0.30574509531371236,0.049615564154849495,23.1000003815,-0.010934974494824324,0.48370454383365097,1.2189037781809582
1648294474659159129,12432,2,0,0.012665912509,0.0439508594573,0.0102818692103,0.0,16.6000003815,0.004236091140133779,0.014699284099431437,0.0034387522442474914,16.6000003815,0.0,0.015873181449565732,0.04688091531933537
1648294474659165659,12433,2,1,0.0335509069264,0.0146502861753,-0.0292835440487,0.0,16.6000003815,0.011221039105819395,0.0048997612626421405,-0.009793827441036788,16.6000003815,0.0,0.016608163584802046,0.0468809150151135
1648294474659174355,12434,2,2,2.23550748825,-1.2306240797,0.616795063019,0.0,16.6000003815,0.7476613673076923,-0.4115799597658863,0.20628597425384615,16.6000003815,0.0,1.1346334666356817,2.6253315038912532
1648294474659179435,12435,2,3,0.8004322052,-0.914177834988,0.096507281065,-0.242756426334,16.6000003815,0.2677030786622073,-0.30574509531371236,0.03227668263043478,16.6000003815,-0.03280492247756756,0.48663121556147526,1.218903804409208
1648294474659346238,12436,2,4,1.17292582989,-1.21304368973,0.033835105598,-0.242756426334,16.6000003815,0.3922828862508361,-0.4057002306789298,0.011316088828762541,16.6000003815,-0.03280492247756756,0.6872877147625365,1.687712893233842
1648294474764167936,12437,3,0,0.012665912509,0.0439508594573,0.0102818692103,0.0,12.8000001907,0.004236091140133779,0.014699284099431437,0.0034387522442474914,12.8000001907,0.0,0.015873181449565732,0.04688091531933537
1648294474764175757,12438,3,1,0.033601410687,0.0146502861753,-0.0292255785316,0.0,12.8000001907,0.011237929995652172,0.0048997612626421405,-0.009774440980468226,12.8000001907,0.0,0.01663098919503125,0.04688091430082548
1648294474764179552,12439,3,2,2.23667645454,-1.2306240797,0.612541913986,0.0,12.8000001907,0.7480523259331103,-0.4115799597658863,0.20486351638327757,12.8000001907,0.0,1.1351487250350771,2.625331366555607
1648294474764184139,12440,3,3,0.755958557129,-0.808695793152,0.201202064753,-0.566431701183,12.8000001907,0.25282894887257523,-0.2704668204521739,0.06729166045250835,12.8000001907,-0.07654482448418919,0.4483271748863,1.1251419896258303
1648294474764278960,12441,3,4,0.909751296043,-0.79111546278,-0.385616272688,-0.404594063759,12.8000001907,0.30426464750602006,-0.26458711129765883,-0.12896865307290967,12.8000001907,-0.05467487348094594,0.5051339336342046,1.2657847391493222
1648294474959255937,12442,5,0,0.0126433884725,0.0439508594573,0.0103095555678,0.0,23.1000003815,0.004228558017558528,0.014699284099431437,0.003448011895585284,23.1000003815,0.0,0.015869163772912386,0.04688091568119631
1648294474959261247,12443,5,1,0.0335735455155,0.0146502861753,-0.0292575843632,0.0,23.1000003815,0.011228610540301002,0.0048997612626421405,-0.009785145271973245,23.1000003815,0.0,0.016618394921363674,0.046880913880483405
1648294474959262955,12444,5,2,1.51128053665,-1.68478298187,0.609990656376,0.0,23.1000003815,0.505444995535117,-0.5634725691872909,0.20401025296856187,23.1000003815,0.0,0.9101926297490632,2.344045894883866
1648294474959268540,12445,5,3,2.2029569149,-1.31266570091,0.562365114689,0.0,23.1000003815,0.7367748879264214,-0.4390186290668896,0.18808197815685615,23.1000003815,0.0,1.1306687523876093,2.6253313949805346
1648294474959269687,12446,5,4,0.572227478027,-0.50543487072,-0.761405348778,0.485512852669,23.1000003815,0.19138042743377925,-0.16904176278260868,-0.2546506183204013,23.1000003815,0.06560984495527027,0.3191050823382853,1.0782610075007961
1648294474959273503,12447,5,5,0.495353937149,-0.909782707691,0.299276977777,0.485512852669,23.1000003815,0.16567021309331104,-0.304275153073913,0.10009263470802676,23.1000003815,0.06560984495527027,0.3840268321236413,1.078261010929134
1648294474959274438,12448,5,6,0.790114879608,-0.553780794144,0.195662930608,-0.647350490093,23.1000003815,0.264252468096321,-0.18521096794113712,0.06543910722675585,23.1000003815,-0.08747979595851352,0.41708732471232834,0.9844991992657153
1648294474959275442,12449,5,7,0.896975815296,-0.695888638496,-0.291223526001,-0.566431701183,23.1000003815,0.2999919114702341,-0.23273867508227425,-0.09739917257558528,23.1000003815,-0.07654482448418919,0.4838983206978321,1.1720229317339297
1648294474959276338,12450,5,8,0.431888699532,-0.256380021572,1.05895197392,-0.566431701183,23.1000003815,0.14444438111438127,-0.08574582661270903,0.3541645397725752,23.1000003815,-0.07654482448418919,0.2215416557953154,1.1720229721783468
1648294475064067513,12451,6,0,0.0126433884725,0.0439508594573,0.0103095555678,0.0,17.2999992371,0.004228558017558528,0.014699284099431437,0.003448011895585284,17.2999992371,0.0,0.015869163772912386,0.04688091568119631
1648294475064074958,12452,6,1,0.0335509069264,0.0146502861753,-0.0292835440487,0.0,17.2999992371,0.011221039105819395,0.0048997612626421405,-0.009793827441036788,17.2999992371,0.0,0.016608163584802046,0.0468809150151135
1648294475064077817,12453,6,2,1.46231389046,-1.68478298187,0.719510674477,0.0,17.2999992371,0.4890681907892976,-0.5634725691872909,0.24063902156421405,17.2999992371,0.0,0.8921192334606176,2.3440459084491874
1648294475064080299,12454,6,3,1.18210434914,-1.37126672268,0.255228072405,0.161837622523,17.2999992371,0.3953526251304348,-0.4586176330033444,0.08536055933277592,17.2999992371,0.021869948989594594,0.7231441970289484,1.8283556781788446
1648294475064086582,12455,6,4,0.76327162981,-0.498109728098,0.220071002841,-0.485512852669,17.2999992371,0.2552747925785953,-0.1665918823070234,0.07360234208729097,17.2999992371,-0.06560984495527027,0.39759689976493384,0.9376183276739638
1648294475259268242,12456,8,0,0.0125736109912,0.0439508594573,0.0103945415467,0.0,33.7000007629,0.004205221067290969,0.014699284099431437,0.0034764352998996654,33.7000007629,0.0,0.015856756335561616,0.0468809154599122
1648294475259356948,12457,8,1,0.0335509069264,0.0146502861753,-0.0292835440487,0.0,33.7000007629,0.011221039105819395,0.0048997612626421405,-0.009793827441036788,33.7000007629,0.0,0.016608163584802046,0.0468809150151135
1648294475259407616,12458,8,2,1.49598515034,-1.68478298187,0.646595716476,0.0,33.7000007629,0.5003294817190634,-0.5634725691872909,0.21625274798528427,33.7000007629,0.0,0.9045222588643465,2.3440459224600683
1648294475259410433,12459,8,3,2.19916701317,-1.31266570091,0.577008426189,0.0,33.7000007629,0.735507362264214,-0.4390186290668896,0.19297940675217387,33.7000007629,0.0,1.1290170576911116,2.6253315063156704
1648294475259412767,12460,8,4,0.883547306061,-0.430718421936,-0.0553586259484,-0.485512852669,33.7000007629,0.2955007712578595,-0.14405298392508362,-0.01851459061819398,33.7000007629,-0.06560984495527027,0.44203243524169133,0.9844992526709115
1648294475259414016,12461,8,5,0.717269539833,-0.323771327734,0.125962555408,-0.404594063759,33.7000007629,0.23988947820501672,-0.10828472499464883,0.04212794495250836,33.7000007629,-0.05467487348094594,0.35611726323518367,0.7969755521970511
1648294475259415162,12462,8,6,0.749704122543,-0.263705134392,0.283719986677,-0.242756426334,33.7000007629,0.2507371647301003,-0.08819569712107023,0.09488962765117055,33.7000007629,-0.03280492247756756,0.3653994150849868,0.8438564451982751
1648294475364105620,12463,9,0,0.012665912509,0.0439508594573,0.0102818692103,0.0,40.7999992371,0.004236091140133779,0.014699284099431437,0.0034387522442474914,40.7999992371,0.0,0.015873181449565732,0.04688091531933537
1648294475364114908,12464,9,1,0.0335509069264,0.0146502861753,-0.0292835440487,0.0,40.7999992371,0.011221039105819395,0.0048997612626421405,-0.009793827441036788,40.7999992371,0.0,0.016608163584802046,0.0468809150151135
1648294475364162319,12465,9,2,0.799849033356,-0.131852567196,0.234414458275,0.0,40.7999992371,0.2675080379117057,-0.04409784856053511,0.0783994843729097,40.7999992371,0.0,0.38087494134218,0.8438564533645904
1648294475364211442,12466,9,3,1.48829579353,-1.68478298187,0.664103209972,0.0,40.7999992371,0.49775779047826085,-0.5634725691872909,0.222108096980602,40.7999992371,0.0,0.9016800830616848,2.344045890876067
1648294475364378369,12467,9,4,2.19573664665,-1.31266570091,0.589927315712,0.0,40.7999992371,0.7343600824916388,-0.4390186290668896,0.19730010558929764,40.7999992371,0.0,1.1275224246914224,2.6253313889127394
1648294475364381812,12468,9,5,0.646809875965,-1.75803434849,0.0863985940814,-0.647350490093,40.7999992371,0.21632437323244144,-0.5879713540100334,0.028895850863344476,40.7999992371,-0.08747979595851352,0.6627992019044752,1.8752366525790178
1648294475364383674,12469,9,6,0.9929702878,-0.0586011447012,1.58968174458,-0.647350490093,40.7999992371,0.33209708622073575,-0.019599045050568562,0.5316661353110368,40.7999992371,-0.08747979595851352,0.47006496563719763,1.875236554588465
1648294475364385384,12470,9,7,0.7126288414,-0.210964113474,-0.101470537484,-0.0809188112617,40.7999992371,0.23833740515050167,-0.07055655969030099,-0.03393663461003345,40.7999992371,-0.010934974494824324,0.3443655986057257,0.7500946558576918
1648294475364404483,12471,9,8,0.460970789194,0.046880915761,0.589872956276,-0.0809188112617,40.7999992371,0.1541708325063545,0.015679236040468225,0.19728192517591972,40.7999992371,-0.010934974494824324,0.21859352605742363,0.7500946562258106
1648294475460697818,12472,10,0,0.012665912509,0.0439508594573,0.0102818692103,0.0,18.1000003815,0.004236091140133779,0.014699284099431437,0.0034387522442474914,18.1000003815,0.0,0.015873181449565732,0.04688091531933537
1648294475460954548,12473,10,1,0.0335509069264,0.0146502861753,-0.0292835440487,0.0,18.1000003815,0.011221039105819395,0.0048997612626421405,-0.009793827441036788,18.1000003815,0.0,0.016608163584802046,0.0468809150151135
1648294475460958471,12474,10,2,1.48827564716,-1.68478298187,0.664148509502,0.0,18.1000003815,0.4977510525618729,-0.5634725691872909,0.2221232473250836,18.1000003815,0.0,0.9016726439675494,2.3440459339786868
1648294475460961358,12475,10,3,2.19585180283,-1.31266570091,0.589498341084,0.0,18.1000003815,0.734398596264214,-0.4390186290668896,0.1971566358140468,18.1000003815,0.0,1.127572593253963,2.6253313460357894
1648294475461043123,12476,10,4,0.791410207748,-0.0498109720647,0.0797422602773,0.161837622523,18.1000003815,0.2646856882100334,-0.016659187981505015,0.026669652266655516,18.1000003815,0.021869948989594594,0.3746926148600225,0.7969755817714212
1648294475461053656,12477,10,5,1.67383480072,-0.380907416344,-1.73092246056,0.485512852669,18.1000003815,0.5598109701404681,-0.12739378473043478,-0.5789038329632107,18.1000003815,0.06560984495527027,0.8018764374684971,2.4378076143121525
1648294475461055506,12478,10,6,1.1379493475,-1.59981119633,0.150433912873,-0.647350490093,18.1000003815,0.38058506605351167,-0.5350539118160534,0.05031234544247491,18.1000003815,-0.08747979595851352,0.7589286353508957,1.9689984620412435
1648294475461139406,12479,10,7,0.764278054237,-0.307655990124,-1.78834605217,-0.647350490093,18.1000003815,0.25561138937692307,-0.10289497997458194,-0.5981090475484949,18.1000003815,-0.08747979595851352,0.3758480300099651,1.9689984141079184
1648294475560680629,12480,11,0,0.012665912509,0.0439508594573,0.0102818692103,0.0,28.3999996185,0.004236091140133779,0.014699284099431437,0.0034387522442474914,28.3999996185,0.0,0.015873181449565732,0.04688091531933537
1648294475560685003,12481,11,1,0.0335509069264,0.0146502861753,-0.0292835440487,0.0,28.3999996185,0.011221039105819395,0.0048997612626421405,-0.009793827441036788,28.3999996185,0.0,0.016608163584802046,0.0468809150151135
1648294475560698822,12482,11,2,0.890274345875,-0.0278355441988,-0.00706533994526,0.0,28.3999996185,0.2977506173494983,-0.009309546554782609,-0.0023629899482474916,28.3999996185,0.0,0.42118585911812184,0.8907374178019831
1648294475560706294,12483,11,3,1.48534548283,-1.68478298187,0.67067605257,0.0,28.3999996185,0.4967710644916387,-0.5634725691872909,0.22430637209698995,28.3999996185,0.0,0.9005910932597757,2.344045918247578
1648294475560854236,12484,11,4,2.24023723602,-1.2306240797,0.599388599396,0.0,28.3999996185,0.7492432227491639,-0.4115799597658863,0.20046441451371236,28.3999996185,0.0,1.1367184686420797,2.6253314442702087
1648294475560859894,12485,11,5,0.794841468334,0.0498109720647,0.0302648358047,0.0809188112617,28.3999996185,0.2658332670013378,0.016659187981505015,0.010122018663779264,28.3999996185,0.010934974494824324,0.37631393839906097,0.796975566129643
1648294475560862793,12486,11,6,0.833682239056,-0.0,0.313667088747,0.242756426334,28.3999996185,0.27882349132307693,-0.0,0.10490538085183945,28.3999996185,0.03280492247756756,0.3943159629373124,0.8907374014155035
1648294475560865429,12487,11,7,0.800059735775,0.105482056737,0.246721878648,0.323675245047,28.3999996185,0.26757850694816054,0.035278279845150494,0.08251567847759196,28.3999996185,0.04373989797932432,0.38005403798676624,0.8438564632124523
1648294475560868588,12488,11,8,0.407072514296,-1.95288312435,0.290360748768,0.566431701183,28.3999996185,0.13614465361070233,-0.6531381686789297,0.09711061831705685,28.3999996185,0.07654482448418919,0.6809259877540453,2.0158794343143143
1648294475560977171,12489,11,9,1.20985209942,-1.48260903358,0.770135343075,-0.647350490093,28.3999996185,0.4046328091705685,-0.49585586407357857,0.257570348854515,28.3999996185,-0.08747979595851352,0.7571845603620603,2.0627603097735934
1648294475660722108,12490,12,0,0.012665912509,0.0439508594573,0.0102818692103,0.0,23.2000007629,0.004236091140133779,0.014699284099431437,0.0034387522442474914,23.2000007629,0.0,0.015873181449565732,0.04688091531933537
1648294475660725554,12491,12,1,0.0335509069264,0.0146502861753,-0.0292835440487,0.0,23.2000007629,0.011221039105819395,0.0048997612626421405,-0.009793827441036788,23.2000007629,0.0,0.016608163584802046,0.0468809150151135
1648294475660731386,12492,12,2,1.49448609352,-1.68478298187,0.650052845478,0.0,23.2000007629,0.4998281249230769,-0.5634725691872909,0.21740897842073578,23.2000007629,0.0,0.9039677235138234,2.344045878739894
1648294475660830717,12493,12,3,2.240275383,-1.2306240797,0.599245727062,0.0,23.2000007629,0.7492559809364548,-0.4115799597658863,0.20041663112441468,23.2000007629,0.0,1.1367352872234535,2.6253313807242193
1648294475660845738,12494,12,4,0.784592568874,0.124527432024,0.063854880631,0.323675245047,23.2000007629,0.2624055414294314,0.04164797057658863,0.021356147368227423,23.2000007629,0.04373989797932432,0.3734272215558133,0.7969755493358586
1648294475660853273,12495,12,5,0.88657784462,0.117202289402,0.281729370356,0.323675245047,23.2000007629,0.2965143293043478,0.03919809010100334,0.09422386968428093,23.2000007629,0.04373989797932432,0.4211626588779931,0.9376183068462898
1648294475660860177,12496,12,6,1.0366191864,0.0864366889,-2.56292057037,0.404594063759,23.2000007629,0.3466953800668896,0.02890859160535117,-0.8571640703578596,23.2000007629,0.05467487348094594,0.49115280696342867,2.765974057872973
1648294475661016165,12497,12,7,1.28546190262,-1.18667316437,-1.82981932163,0.566431701183,23.2000007629,0.42992036876923073,-0.3968806569799331,-0.6119797062307692,23.2000007629,0.07654482448418919,0.7260697644511621,2.5315695234249076
1648294475661022811,12498,12,8,1.14499998093,-2.13601183891,0.731623053551,0.566431701183,23.2000007629,0.3829431374347826,-0.7143852304046823,0.24468998446521736,23.2000007629,0.07654482448418919,0.8964581141565626,2.531569439059626
1648294475661039286,12499,12,9,1.56469285488,-1.41521763802,0.446634560823,-0.647350490093,23.2000007629,0.5233086471170568,-0.47331693579264206,0.14937610729866221,23.2000007629,-0.08747979595851352,0.8784832394548598,2.156521997104826
1648294475764109181,12500,13,0,0.0126454373822,0.0439508594573,0.0103070409968,0.0,20.0,0.004229243271638795,0.014699284099431437,0.003447170901939799,20.0,0.0,0.015869528989141485,0.046880915389230546
1648294475764111816,12501,13,1,0.0335509069264,0.0146502861753,-0.0292835440487,0.0,20.0,0.011221039105819395,0.0048997612626421405,-0.009793827441036788,20.0,0.0,0.016608163584802046,0.0468809150151135
1648294475764114140,12502,13,2,1.50761806965,-1.68478298187,0.618987262249,0.0,20.0,0.5042200901839464,-0.5634725691872909,0.20701915125384615,20.0,0.0,0.9088328421204531,2.344045897750399
1648294475764124472,12503,13,3,2.19501447678,-1.31266570091,0.59260892868,0.0,20.0,0.7341185541070233,-0.4390186290668896,0.19819696611371238,20.0,0.0,1.1272078156383338,2.6253314339280243
1648294475764287213,12504,13,4,0.846123635769,0.293005734682,0.278119713068,0.323675245047,20.0,0.2829844935682274,0.09799522899063544,0.09301662644414714,20.0,0.04373989797932432,0.4120236790586912,0.9376183351239014
1648294475764289139,12505,13,5,0.809724092484,0.237334623933,0.0106269940734,0.485512852669,20.0,0.2708107332722408,0.07937612840568561,0.0035541786198662207,20.0,0.06560984495527027,0.39112335173391705,0.8438564822702329
1648294475764300929,12506,13,6,1.34736311436,-0.879017174244,-2.30739998817,0.485512852669,20.0,0.4506231151705685,-0.29398567700468226,-0.7717056816622072,20.0,0.06560984495527027,0.7018190380261541,2.8128550015883684
1648294475764306224,12507,13,7,2.24758982658,-1.31266570091,0.34294834733,-0.566431701183,20.0,0.7517022831371237,-0.4390186290668896,0.11469844392307692,20.0,-0.07654482448418919,1.1501521645481958,2.6253313771460993
1648294475764438032,12508,13,8,1.60795164108,0.656332850456,-1.96877717972,-0.566431701183,20.0,0.5377764685886287,0.21950931453377925,-0.6584539062608695,20.0,-0.07654482448418919,0.7915752645847408,2.625331383659175
1648294475764448044,12509,13,9,1.93638062477,0.943478405476,0.104238063097,-0.485512852669,20.0,0.6476189380501671,0.3155446172160535,0.03486222846053511,20.0,-0.06560984495527027,0.9687047967758177,2.1565219682123353
1648294475959139082,12510,15,0,0.00636331317946,0.0454158857465,0.00973271857947,0.0,20.6000003815,0.002128198387779264,0.015189259446989964,0.0032550898259096983,20.6000003815,0.0,0.015484574882878329,0.046880915559598356
1648294475959290041,12511,15,1,0.0335735455155,0.0146502861753,-0.0292575843632,0.0,20.6000003815,0.011228610540301002,0.0048997612626421405,-0.009785145271973245,20.6000003815,0.0,0.016618394921363674,0.046880913880483405
1648294475959295410,12512,15,2,1.52097761631,-1.68478298187,0.585392832756,0.0,20.6000003815,0.5086881659899665,-0.5634725691872909,0.1957835561056856,20.6000003815,0.0,0.913799013275347,2.3440459410935
1648294475959298439,12513,15,3,2.24064230919,-1.2306240797,0.597872436047,0.0,20.6000003815,0.7493786987257525,-0.4115799597658863,0.19995733647056854,20.6000003815,0.0,1.1368970628375696,2.6253314139465407
1648294475959300712,12514,15,4,0.835073113441,0.49224960804,0.171993911266,0.566431701183,20.6000003815,0.27928866670267555,0.16463197593311035,0.05752304724615384,20.6000003815,0.07654482448418919,0.42791121298320356,0.9844992061551678
1648294475959342498,12515,15,5,2.53605508804,1.0372402668,0.378378540277,0.566431701183,20.6000003815,0.8481789592107023,0.34690309926421403,0.12654800678160535,20.6000003815,0.07654482448418919,1.2486620255195628,2.7659741684236785
1648294475959344281,12516,15,6,2.39485502243,-1.3829870224,0.0512678921223,0.566431701183,20.6000003815,0.8009548569999999,-0.4625374656856187,0.017146452214816053,20.6000003815,0.07654482448418919,1.2235188078107566,2.7659739838522843
1648294475959407467,12517,15,7,2.17261838913,0.879017233849,0.0401119664311,-0.566431701183,20.6000003815,0.7266282237892977,0.29398569693946486,0.013415373388327758,20.6000003815,-0.07654482448418919,1.0688333552146294,2.3440458468298684
1648294476064105691,12518,16,0,0.00625035958365,0.0454158857465,0.00980563927442,0.0,22.7999992371,0.0020904212654347825,0.015189259446989964,0.0032794780182006686,22.7999992371,0.0,0.015474279455985594,0.046880915462948404
1648294476064108544,12519,16,1,0.0335509069264,0.0146502861753,-0.0292835440487,0.0,22.7999992371,0.011221039105819395,0.0048997612626421405,-0.009793827441036788,22.7999992371,0.0,0.016608163584802046,0.0468809150151135
1648294476064114556,12520,16,2,1.51001107693,-1.68478298187,0.613126456738,0.0,22.7999992371,0.5050204270668895,-0.5634725691872909,0.20505901563143814,22.7999992371,0.0,0.9097211659273259,2.3440459040731607
1648294476064121324,12521,16,3,2.24099993706,-1.2306240797,0.596530199051,0.0,22.7999992371,0.74949830670903,-0.4115799597658863,0.19950842777625416,22.7999992371,0.0,1.1370547422179351,2.625331335626081
1648294476064129317,12522,16,4,0.825766324997,0.580151319504,0.212789729238,0.566431701183,22.7999992371,0.27617602842709027,0.19403054164013378,0.07116713352441471,22.7999992371,0.07654482448418919,0.4361126556804854,1.0313801655502517
1648294476064270151,12523,16,5,0.564989328384,0.404347896576,-0.824582695961,-0.566431701183,22.7999992371,0.18895964159999998,0.13523341022608695,-0.2757801658732441,22.7999992371,-0.07654482448418919,0.29949886067993314,1.0782610004686017
1648294476064279378,12524,16,6,0.649947464466,0.808695793152,0.293642878532,-0.566431701183,22.7999992371,0.21737373393511705,0.2704668204521739,0.09820832057926421,22.7999992371,-0.07654482448418919,0.4094569347016834,1.0782609760814326
1648294476064282958,12525,16,7,0.614498317242,0.386767566204,-0.859503984451,-0.485512852669,22.7999992371,0.2055178318535117,0.1293537010715719,-0.2874595265722408,22.7999992371,-0.06560984495527027,0.3181313225704916,1.1251419605755355
1648294476064284127,12526,16,8,0.731289625168,0.808695793152,0.277796715498,-0.485512852669,22.7999992371,0.24457846995585283,0.2704668204521739,0.09290860050100334,22.7999992371,-0.06560984495527027,0.43907807608374216,1.1251419541024916
