%time,field.header.seq,field.header.frame_id,field.point_id,field.x,field.y,field.z,field.velocity,field.intensity,normalized_x,normalized_y,normalized_z,normalized_intensity,normalized_velocity,normalized_range,range
1648127696288391350,124380,0,0,0.0125890737399,0.0439508594573,0.0103758089244,0.0,13.1000003815,0.004210392555150501,0.014699284099431437,0.003470170208829431,13.1000003815,0.0,0.01585950074790286,0.0468809154720728
1648127696288401163,124381,0,1,0.0329129882157,0.0146502861753,-0.029998742044,0.0,13.1000003815,0.011007688366454847,0.0048997612626421405,-0.010033024094983276,13.1000003815,0.0,0.01632011233959066,0.046880915120413834
1648127696288452573,124382,0,2,0.665702700615,-0.398487776518,0.182256668806,-0.647350490093,13.1000003815,0.2226430436839465,-0.1332735038521739,0.06095540762742475,13.1000003815,-0.08747979595851352,0.3419088718222135,0.7969755874332813
1648127696288462514,124383,0,3,1.27383220196,1.41521763802,0.50146317482,-0.647350490093,13.1000003815,0.4260308367759197,0.47331693579264206,0.16771343639464883,13.1000003815,-0.08747979595851352,0.7661810944392433,1.9689984147819224
1648127696288468179,124384,0,4,0.848146915436,-0.380907446146,0.121179416776,-0.566431701183,13.1000003815,0.28366117573110367,-0.12739379469765885,0.0405282330354515,13.1000003815,-0.07654482448418919,0.42089963668524755,0.9376183251959406
1648127696393475676,124385,1,0,0.0126200793311,0.0439508594573,0.0103380745277,0.0,35.9000015259,0.004220762318093645,0.014699284099431437,0.0034575500092642137,35.9000015259,0.0,0.015865012515831067,0.0468809154592663
1648127696393482741,124386,1,1,0.0329129882157,0.0146502861753,-0.029998742044,0.0,35.9000015259,0.011007688366454847,0.0048997612626421405,-0.010033024094983276,35.9000015259,0.0,0.01632011233959066,0.046880915120413834
1648127696393487101,124387,1,2,0.409610927105,-0.68563336134,-1.64469158649,0.0809188112617,35.9000015259,0.13699362110535118,-0.2293088165016722,-0.5500640757491638,35.9000015259,0.010934974494824324,0.3001949995794577,1.8283557182499246
1648127696393503454,124388,1,3,0.64286005497,-0.328166425228,0.20415623486,-0.566431701183,35.9000015259,0.2150033628662207,-0.10975465726688963,0.06827967721070234,35.9000015259,-0.07654482448418919,0.32326301501925636,0.7500946747945672
1648127696393510027,124389,1,4,0.899464190006,-0.263705164194,0.0234922561795,-0.485512852669,35.9000015259,0.30082414381471567,-0.0881957070882943,0.007856941866053511,35.9000015259,-0.06560984495527027,0.43447533158111257,0.9376183279064767
1648127696393582358,124390,1,5,0.8547706604,-0.250519901514,-0.0044800681062,-0.404594063759,35.9000015259,0.2858764750501672,-0.08378592023879598,-0.0014983505371906356,35.9000015259,-0.05467487348094594,0.4128810947530531,0.8907374326621019
1648127696588681802,124391,3,0,0.0126347495243,0.0439508594573,0.0103201400489,0.0,36.5,0.00422566873722408,0.014699284099431437,0.0034515518558193977,36.5,0.0,0.01586762444694554,0.04688091544761093
1648127696588713313,124392,3,1,0.032885145396,0.0146502861753,-0.0300292614847,0.0,36.5,0.010998376386622074,0.0048997612626421405,-0.010043231265785952,36.5,0.0,0.016307551217595504,0.04688091528597467
1648127696588718020,124393,3,2,1.8150267601,-1.39177727699,0.513015449047,0.0,36.5,0.6070323612374582,-0.4654773501638796,0.1715770732598662,36.5,0.0,0.9765478681020376,2.344045856971595
1648127696588724026,124394,3,3,0.610460877419,-0.205104023218,0.126659691334,-0.323675245047,36.5,0.2041675175314381,-0.06859666328361204,0.042361100780602005,36.5,-0.04373989797932432,0.2967730658997636,0.6563328580897115
1648127696588727777,124395,3,4,0.179791301489,-0.225614413619,-0.990211188793,-0.242756426334,36.5,0.0601308700632107,-0.07545632562508361,-0.3311743106331103,36.5,-0.03280492247756756,0.11368861044957893,1.0313801307639197
1648127696588734274,124396,3,5,0.854986965656,-0.547920703888,0.180347472429,-0.242756426334,36.5,0.2859488179451505,-0.18325107153444814,0.06031688041103679,36.5,-0.03280492247756756,0.4439756842294193,1.0313801530000004
1648127696588741177,124397,3,6,0.80966168642,-0.237334623933,-0.0146268522367,-0.161837622523,36.5,0.27078986167892977,-0.07937612840568561,-0.004891923824983277,36.5,-0.021869948989594594,0.3910944491256092,0.8438564540135077
1648127696588757740,124398,3,7,0.595038414001,-0.146502867341,0.999051570892,-0.161837622523,36.5,0.19900950301036788,-0.04899761449531772,0.33413096016454846,36.5,-0.021869948989594594,0.2856752190917144,1.172022971437733
1648127696693613171,124399,4,0,0.0125994505361,0.0439508594573,0.0103632062674,0.0,14.6000003815,0.004213863055551839,0.014699284099431437,0.003465955273377926,14.6000003815,0.0,0.01586134410249293,0.04688091557326548
1648127696693631313,124400,4,1,0.0328607447445,0.0146502861753,-0.0300559606403,0.0,14.6000003815,0.010990215633612039,0.0048997612626421405,-0.010052160749264214,14.6000003815,0.0,0.016296543798531928,0.04688091509551231
1648127696693637114,124401,4,2,0.194683015347,-1.58955609798,0.357407093048,0.0,14.6000003815,0.0651113763702341,-0.5316241130367892,0.11953414483210702,14.6000003815,0.0,0.5395397855837931,1.6408320740560338
1648127696693643803,124402,4,3,1.8669770956,-1.31852579117,0.520036041737,0.0,14.6000003815,0.6244070553846154,-0.44097852547491634,0.173925097570903,14.6000003815,0.0,0.9870311046558785,2.3440459087187206
1648127696693650511,124403,4,4,0.839409947395,-0.079111546278,-0.0350148230791,-0.161837622523,14.6000003815,0.2807391128411371,-0.026458711129765885,-0.011710643170267557,14.6000003815,-0.021869948989594594,0.39790572043174477,0.843856465505499
1648127696693656723,124404,4,5,0.598410964012,-0.114272229373,0.016666021198,-0.0809188112617,14.6000003815,0.20013744615785953,-0.03821813691404682,0.005573920133110368,14.6000003815,-0.010934974494824324,0.2856057084484851,0.6094518689102684
1648127696790319229,124405,5,0,0.0125890737399,0.0439508594573,0.0103758089244,0.0,19.6000003815,0.004210392555150501,0.014699284099431437,0.003470170208829431,19.6000003815,0.0,0.01585950074790286,0.0468809154720728
1648127696790325227,124406,5,1,0.0327725186944,0.0146502861753,-0.0301521364599,0.0,19.6000003815,0.010960708593444817,0.0048997612626421405,-0.01008432657521739,19.6000003815,0.0,0.01625675017251968,0.04688091509014532
1648127696790420780,124407,5,2,1.8571164608,0.117202289402,0.232152119279,0.323675245047,19.6000003815,0.6211091842140467,0.03919809010100334,0.07764284925719063,19.6000003815,0.04373989797932432,0.8792552119252087,1.8752366602914734
1648127696790509242,124408,5,3,0.630900740623,-0.586011469364,-1.66585326195,0.323675245047,19.6000003815,0.2110035921816053,-0.19599045798127088,-0.5571415591806019,19.6000003815,0.04373989797932432,0.35701161248171004,1.875236592298225
1648127696790606153,124409,5,4,0.755361378193,-0.124527432024,0.221567556262,-0.0809188112617,19.6000003815,0.2526292234759197,-0.04164797057658863,0.07410286162608695,19.6000003815,-0.010934974494824324,0.3596909820404742,0.7969755799144883
1648127696893545387,124410,6,0,0.0126141794026,0.0439508594573,0.0103452727199,0.0,22.2000007629,0.004218789097859532,0.014699284099431437,0.003459957431404682,22.2000007629,0.0,0.015863962806948167,0.0468809154847196
1648127696893549945,124411,6,1,0.0328607447445,0.0146502861753,-0.0300559606403,0.0,22.2000007629,0.010990215633612039,0.0048997612626421405,-0.010052160749264214,22.2000007629,0.0,0.016296543798531928,0.04688091509551231
1648127696893633787,124412,6,2,0.757098913193,-0.0498109720647,0.243905842304,0.0,22.2000007629,0.2532103388605351,-0.016659187981505015,0.08157386030234114,22.2000007629,0.0,0.35848079440318303,0.7969755060264249
1648127696893641871,124413,6,3,1.83375489712,-1.39177727699,0.441418349743,0.0,22.2000007629,0.6132959522140468,-0.4654773501638796,0.1476315550979933,22.2000007629,0.0,0.9843439508219958,2.3440458977902106
1648127696893656620,124414,6,4,2.42789244652,-0.902457654476,0.428104311228,0.0,22.2000007629,0.8120041627157191,-0.30182530250033446,0.14317869940735786,22.2000007629,0.0,1.1873500047436436,2.6253313793277973
1648127696893667812,124415,6,5,0.609154224396,0.0190453715622,-2.54205383499e-06,0.0809188112617,22.2000007629,0.20373050983143812,0.006369689485685618,-8.501852290936454e-07,22.2000007629,0.010934974494824324,0.28818885165200175,0.6094518810241679
1648127696893673437,124416,6,6,0.991031467915,-1.34489619732,1.71045041084,0.161837622523,22.2000007629,0.3314486514765886,-0.4497980593043478,0.5720569935919733,22.2000007629,0.021869948989594594,0.6496419870091955,2.3909265484130375
1648127696893679946,124417,6,7,1.8813816309,-0.0,-1.47544324398,0.161837622523,22.2000007629,0.6292246257190635,-0.0,-0.4934592789230769,22.2000007629,0.021869948989594594,0.8898579994710342,2.39092651649819
1648127696893689970,124418,6,8,0.32879781723,-1.81663548946,-0.328998357058,0.242756426334,22.2000007629,0.10996582516053512,-0.607570397812709,-0.11003289533712374,22.2000007629,0.03280492247756756,0.6271576785025982,1.8752366317688147
1648127696893694268,124419,6,9,0.936001121998,-0.276890397072,0.128344342113,-0.161837622523,22.2000007629,0.31304385351103675,-0.09260548397056856,0.042924529134782605,22.2000007629,-0.021869948989594594,0.45229269738024963,0.9844991937653497
1648127696990377574,124420,7,0,0.0125994505361,0.0439508594573,0.0103632062674,0.0,11.6999998093,0.004213863055551839,0.014699284099431437,0.003465955273377926,11.6999998093,0.0,0.01586134410249293,0.04688091557326548
1648127696990398241,124421,7,1,0.0329129882157,0.0146502861753,-0.029998742044,0.0,11.6999998093,0.011007688366454847,0.0048997612626421405,-0.010033024094983276,11.6999998093,0.0,0.01632011233959066,0.046880915120413834
1648127696990402655,124422,7,2,1.83178675175,-1.39177727699,0.449515938759,0.0,11.6999998093,0.6126377096153846,-0.4654773501638796,0.15033977884916386,11.6999998093,0.0,0.9835238126253759,2.344045919309368
1648127696990466435,124423,7,3,2.42412447929,-0.902457654476,0.448949217796,0.0,11.6999998093,0.8107439730066889,-0.30182530250033446,0.15015024006555183,11.6999998093,0.0,1.185626455829474,2.6253313523010724
1648127696990519794,124424,7,4,0.650441527367,0.082041606307,0.0311095789075,0.0809188112617,11.6999998093,0.21753897236354514,0.027438664316722407,0.010404541440635452,11.6999998093,0.010934974494824324,0.30886775372877673,0.6563328512186104
1648127696990527084,124425,7,5,0.776476144791,0.0527410283685,0.326185286045,0.0809188112617,11.6999998093,0.25969101832474917,0.017639139922575247,0.10909206891137124,11.6999998093,0.010934974494824324,0.36768191314545046,0.8438564216352918
1648127696990530182,124426,7,6,0.863346993923,0.194848805666,0.100394651294,0.323675245047,11.6999998093,0.2887448140210702,0.06516682463745818,0.033576806452842806,11.6999998093,0.04373989797932432,0.41351402670460174,0.8907374332505573
1648127696990532050,124427,7,7,0.364533156157,1.86205136776,0.307272255421,0.485512852669,11.6999998093,0.12191744353076922,0.6227596547692307,0.1027666406090301,11.6999998093,0.06560984495527027,0.6461867483030336,1.9221175710830434
1648127696990534404,124428,7,8,1.22444593906,-0.237334638834,0.21590590477,-0.161837622523,11.6999998093,0.409513691993311,-0.07937613338929765,0.07220933269899665,11.6999998093,-0.021869948989594594,0.5845541022110959,1.2657847163659162
1648127697090225774,124429,8,0,0.0125994505361,0.0439508594573,0.0103632062674,0.0,22.1000003815,0.004213863055551839,0.014699284099431437,0.003465955273377926,22.1000003815,0.0,0.01586134410249293,0.04688091557326548
1648127697090377430,124430,8,1,0.0329129882157,0.0146502861753,-0.029998742044,0.0,22.1000003815,0.011007688366454847,0.0048997612626421405,-0.010033024094983276,22.1000003815,0.0,0.01632011233959066,0.046880915120413834
1648127697090384284,124431,8,2,2.42320513725,-0.902457654476,0.453885227442,0.0,22.1000003815,0.8104365007525083,-0.30182530250033446,0.15180107941204013,22.1000003815,0.0,1.1852059554074807,2.6253313609918254
1648127697090403201,124432,8,3,0.644528985023,0.102552011609,0.0695577859879,0.161837622523,22.1000003815,0.21556153345250836,0.03429833164180602,0.023263473574548492,22.1000003815,0.021869948989594594,0.3067734098030745,0.6563328524547355
1648127697090514251,124433,8,4,0.763895630836,0.079111546278,0.349712044001,0.161837622523,22.1000003815,0.255483488573913,0.026458711129765885,0.11696054983311036,22.1000003815,0.021869948989594594,0.36227570890475375,0.843856436418058
1648127697090526818,124434,8,5,0.318821847439,-1.14272224903,2.1296582222,0.161837622523,22.1000003815,0.10662938041438126,-0.3821813541906354,0.7122602749832775,22.1000003815,0.021869948989594594,0.4108554940926281,2.4378075502829715
1648127697090529892,124435,8,6,2.39756155014,0.304725944996,-0.318977147341,0.161837622523,22.1000003815,0.8018600502140467,0.10191503177123744,-0.10668132018093646,22.1000003815,0.021869948989594594,1.1385718044811577,2.4378075618861357
1648127697090538836,124436,8,7,0.732087135315,0.128922522068,0.714963257313,0.242756426334,22.1000003815,0.24484519575752509,0.04311790035719063,0.23911814625852842,22.1000003815,0.03280492247756756,0.34893766363391354,1.0313801673959568
1648127697090581402,124437,8,8,0.217772141099,-1.88988697529,0.666837632656,0.404594063759,22.1000003815,0.07283349200635451,-0.6320692225050167,0.2230226196173913,22.1000003815,0.05467487348094594,0.6404068528316791,2.015879439137144
1648127697090584047,124438,8,9,1.00889801979,-1.13393211365,-1.32668483257,0.404594063759,22.1000003815,0.33742408688628756,-0.37924150958193975,-0.4437073018628762,22.1000003815,0.05467487348094594,0.609536013219956,2.0158794353021783
1648127697190193065,124439,9,0,0.0126141794026,0.0439508594573,0.0103452727199,0.0,23.8999996185,0.004218789097859532,0.014699284099431437,0.003459957431404682,23.8999996185,0.0,0.015863962806948167,0.0468809154847196
1648127697190202686,124440,9,1,0.0328607447445,0.0146502861753,-0.0300559606403,0.0,23.8999996185,0.010990215633612039,0.0048997612626421405,-0.010052160749264214,23.8999996185,0.0,0.016296543798531928,0.04688091509551231
1648127697190210281,124441,9,2,2.42741084099,-0.902457654476,0.430827081203,0.0,23.8999996185,0.8118430906321069,-0.30182530250033446,0.14408932481705686,23.8999996185,0.0,1.187129698408561,2.6253314424994034
1648127697190218948,124442,9,3,0.778744101524,0.263705134392,0.190028831363,0.0809188112617,23.8999996185,0.26044953228227424,0.08819569712107023,0.0635547930979933,23.8999996185,0.010934974494824324,0.3787431830710387,0.8438564630980273
1648127697190226515,124443,9,4,0.620122015476,0.164083212614,0.138918101788,0.161837622523,23.8999996185,0.20739866738327759,0.054877328633444813,0.046460903608026745,23.8999996185,0.021869948989594594,0.2983956026195123,0.6563328833329385
1648127697190229467,124444,9,5,0.238235473633,0.134782627225,1.04294025898,0.161837622523,23.8999996185,0.07967741593076923,0.04507780174749164,0.3488094511638796,23.8999996185,0.021869948989594594,0.12136304803850205,1.0782610450628747
1648127697190285503,124445,9,6,0.914145946503,0.155293032527,-2.30518937111,0.161837622523,23.8999996185,0.30573443026856184,0.051937469072575244,-0.7709663448528428,23.8999996185,0.021869948989594594,0.4354820138615933,2.484688466214188
1648127697190365715,124446,9,7,1.10367155075,-1.24234426022,1.84720516205,0.161837622523,23.8999996185,0.3691209199832775,-0.41549975258193983,0.6177943685785953,23.8999996185,0.021869948989594594,0.6671885427180652,2.4846885244514363
1648127697190374455,124447,9,8,2.57565569878,-0.339886635542,0.802460074425,0.161837622523,23.8999996185,0.8614233106287624,-0.11367446004749163,0.26838129579431436,23.8999996185,0.021869948989594594,1.2235285542464154,2.7190931162290353
1648127697190381348,124448,9,9,1.75457525253,-1.1896032095,-1.70287322998,0.161837622523,23.8999996185,0.5868144657290969,-0.39786060518394645,-0.5695228193913043,23.8999996185,0.021869948989594594,0.9203235819727683,2.719093111724189
1648127697190384315,124449,9,10,0.846036851406,-1.82689070702,0.102282844484,0.242756426334,23.8999996185,0.28295546869765886,-0.6110002364615384,0.03420830919197324,23.8999996185,0.03280492247756756,0.7303758508383745,2.0158794084986216
1648127697190408809,124450,9,11,1.98011946678,0.377977371216,-0.00547330081463,0.242756426334,23.8999996185,0.6622473133043477,0.1264138365270903,-0.0018305353895083612,23.8999996185,0.03280492247756756,0.9450520969889182,2.0158794489984455
1648127697190420529,124451,9,12,1.25819432735,-0.0,0.138411998749,0.323675245047,23.8999996185,0.4208007783779264,-0.0,0.046291638377591975,23.8999996185,0.04373989797932432,0.5951021678392185,1.2657846763069192
1648127697190558324,124452,9,13,0.974129080772,0.0307656005025,0.13915720582,-0.161837622523,23.8999996185,0.3257956791879598,0.010289498495819397,0.04654087151170568,23.8999996185,-0.021869948989594594,0.4608595479475103,0.9844992209807029
1648127697290140785,124453,10,0,0.0125994505361,0.0439508594573,0.0103632062674,0.0,23.7999992371,0.004213863055551839,0.014699284099431437,0.003465955273377926,23.7999992371,0.0,0.01586134410249293,0.04688091557326548
1648127697290147360,124454,10,1,0.0329129882157,0.0146502861753,-0.029998742044,0.0,23.7999992371,0.011007688366454847,0.0048997612626421405,-0.010033024094983276,23.7999992371,0.0,0.01632011233959066,0.046880915120413834
1648127697290154150,124455,10,2,0.784481346607,0.290075659752,0.111977107823,0.0,23.7999992371,0.26236834334682274,0.09701527082006689,0.03745053773344481,23.7999992371,0.0,0.38351826286815005,0.843856471345272
1648127697290194081,124456,10,3,2.42319154739,-0.902457654476,0.453957527876,0.0,23.7999992371,0.8104319556488294,-0.30182530250033446,0.1518252601591973,23.7999992371,0.0,1.185199739581051,2.625331318249176
1648127697290205588,124457,10,4,1.43974578381,-1.01965987682,-2.06903195381,0.161837622523,23.7999992371,0.4815203290334448,-0.34102337017391304,-0.6919839310401338,23.7999992371,0.021869948989594594,0.7615908307941527,2.7190931231353725
1648127697290212480,124458,10,5,2.62497663498,0.254914969206,-0.661803722382,0.161837622523,23.7999992371,0.8779186070167223,0.0852558425438127,-0.22133903758595316,23.7999992371,0.021869948989594594,1.2444881356526545,2.7190932574435345
1648127697290220188,124459,10,6,0.788479506969,-1.76389443874,0.575105428696,0.242756426334,23.7999992371,0.26370552072541803,-0.5899312504147156,0.1923429527411371,23.7999992371,0.03280492247756756,0.6979255573039275,2.0158794056301055
1648127697290230058,124460,10,7,1.5847979784,0.70467877388,0.0256719011813,-0.485512852669,23.7999992371,0.5300327686956521,0.2356785196923077,0.008585920127525083,23.7999992371,-0.06560984495527027,0.7857568557936448,1.7345938582872964
1648127697290358859,124461,10,8,1.49045228958,0.666588008404,0.162918150425,-0.323675245047,23.7999992371,0.4984790266153846,0.22293913324548495,0.054487675727424745,23.7999992371,-0.04373989797932432,0.7393676602902582,1.6408320828775191
1648127697290362573,124462,10,9,1.38015496731,0.46880915761,0.354905545712,-0.161837622523,23.7999992371,0.46159029007023405,0.15679236040468228,0.11869750692709029,23.7999992371,-0.021869948989594594,0.6713531381140014,1.5001892235403498
1648127697290499602,124463,10,10,0.963688194752,0.153827995062,0.129925772548,-0.0809188112617,23.7999992371,0.322303744064214,0.05144748998729097,0.04345343563478261,23.7999992371,-0.010934974494824324,0.4587006116211457,0.9844992103304898
1648127697390141445,124464,11,0,0.0125994505361,0.0439508594573,0.0103632062674,0.0,12.1999998093,0.004213863055551839,0.014699284099431437,0.003465955273377926,12.1999998093,0.0,0.01586134410249293,0.04688091557326548
1648127697390147089,124465,11,1,0.032885145396,0.0146502861753,-0.0300292614847,0.0,12.1999998093,0.010998376386622074,0.0048997612626421405,-0.010043231265785952,12.1999998093,0.0,0.016307551217595504,0.04688091528597467
1648127697390155090,124466,11,2,0.614496529102,0.225614413619,0.0475917570293,0.0,12.1999998093,0.20551723381337791,0.07545632562508361,0.01591697559508361,12.1999998093,0.0,0.300280408727316,0.6563328601008686
1648127697390160259,124467,11,3,0.701188981533,0.316446185112,0.346827834845,0.0,12.1999998093,0.234511365061204,0.10583484451906354,0.11599593138628762,12.1999998093,0.0,0.34812666516673635,0.8438564587170585
1648127697390181704,124468,11,4,2.4229414463,-0.902457654476,0.455291092396,0.0,12.1999998093,0.810348309799331,-0.30182530250033446,0.1522712683598662,12.1999998093,0.0,1.185085346976615,2.6253314170092508
1648127697390291891,124469,11,5,0.72314709425,0.323771327734,-0.0860257521272,0.161837622523,12.1999998093,0.2418552154682274,0.10828472499464883,-0.02877115455759197,12.1999998093,0.021869948989594594,0.3587665984529944,0.7969755470614553
1648127697390294836,124470,11,6,1.83034956455,0.509829938412,-1.94508647919,0.161837622523,12.1999998093,0.612157045,0.1705116850876254,-0.6505305950468226,12.1999998093,0.021869948989594594,0.8823529510562571,2.719093140382894
1648127697390297300,124471,11,7,1.46953046322,-0.934688270092,-2.08813452721,0.161837622523,12.1999998093,0.49148176027424745,-0.31260477260602004,-0.6983727515752507,12.1999998093,0.021869948989594594,0.7621222902005997,2.7190931849250206
1648127697390300032,124472,11,8,0.75374007225,0.36918720603,0.087580986321,0.242756426334,12.1999998093,0.2520869806856187,0.12347398194983276,0.029291299772909698,12.1999998093,0.03280492247756756,0.37728174602136616,0.843856456262931
1648127697390301964,124473,11,9,0.980459988117,-1.67599272728,0.696223139763,0.242756426334,12.1999998093,0.32791303950401335,-0.5605326847090301,0.23285054841571903,12.1999998093,0.03280492247756756,0.727496263619707,2.062760303703581
1648127697390365004,124474,11,10,2.01309084892,0.32230630517,0.313948243856,0.242756426334,12.1999998093,0.6732745314113713,0.10779475089297658,0.10499941266086955,12.1999998093,0.03280492247756756,0.9582363474709578,2.062760194539843
1648127697390371944,124475,11,11,0.92278856039,0.553780794144,-0.666332542896,0.323675245047,12.1999998093,0.3086249365852843,0.18521096794113712,-0.22285369327625415,12.1999998093,0.04373989797932432,0.47413268776813355,1.2657847182169872
1648127697390383977,124476,11,12,0.959052860737,0.215359210968,0.0554690621793,-0.161837622523,12.1999998093,0.3207534651294314,0.07202649196254181,0.018551525812474913,12.1999998093,-0.021869948989594594,0.45929662129119225,0.9844992617039559
1648127697490195252,124477,12,0,0.0125994505361,0.0439508594573,0.0103632062674,0.0,20.2999992371,0.004213863055551839,0.014699284099431437,0.003465955273377926,20.2999992371,0.0,0.01586134410249293,0.04688091557326548
1648127697490200183,124478,12,1,0.0329129882157,0.0146502861753,-0.029998742044,0.0,20.2999992371,0.011007688366454847,0.0048997612626421405,-0.010033024094983276,20.2999992371,0.0,0.01632011233959066,0.046880915120413834
1648127697490203303,124479,12,2,0.571568131447,0.307656019926,0.097110427916,0.0,20.2999992371,0.19115991018294315,0.10289498994180601,0.03247840398528428,20.2999992371,0.0,0.2892604388391647,0.656332835299706
1648127697490210852,124480,12,3,2.4233648777,-0.902457654476,0.453031659126,0.0,20.2999992371,0.8104899256521739,-0.30182530250033446,0.15151560505886288,20.2999992371,0.0,1.1852790187954696,2.6253313758005326
1648127697490242244,124481,12,4,0.721473455429,0.421928226948,0.116388626397,0.0809188112617,20.2999992371,0.24129547004314378,0.14111311938060198,0.03892596200568561,20.2999992371,0.010934974494824324,0.36926944117812865,0.8438564379909207
1648127697490315360,124482,12,5,1.1763304472,0.509829938412,-2.39787149429,0.161837622523,20.2999992371,0.3934215542474916,0.1705116850876254,-0.8019637104648829,20.2999992371,0.021869948989594594,0.5819237694444569,2.7190931558590434
1648127697490324936,124483,12,6,1.70163953304,-0.679773271084,-2.00892972946,0.161837622523,20.2999992371,0.5691102117190635,-0.22734892009498325,-0.6718828526622074,20.2999992371,0.021869948989594594,0.8363374902718338,2.7190931316144837
1648127697490332496,124484,12,7,0.913748979568,0.615312039852,0.71382433176,-0.647350490093,20.2999992371,0.30560166540735784,0.20578997988361203,0.23873723470234112,20.2999992371,-0.08747979595851352,0.47867971715960433,1.312665715504523
1648127697490336685,124485,12,8,1.28099417686,0.821881055832,0.277473896742,-0.485512852669,20.2999992371,0.42842614610702334,0.27487660730167224,0.09280063436187291,20.2999992371,-0.06560984495527027,0.6653232857625763,1.5470702357869672
1648127697490338533,124486,12,9,0.944566190243,0.276890397072,0.019107831642,-0.161837622523,20.2999992371,0.3159084248304348,0.09260548397056856,0.006390579144481605,20.2999992371,-0.021869948989594594,0.45625874393716137,0.9844992071966967
