%time,field.header.seq,field.header.frame_id,field.point_id,field.x,field.y,field.z,field.velocity,field.intensity,normalized_x,normalized_y,normalized_z,normalized_intensity,normalized_velocity,normalized_range,range
1648294399658730724,8693,0,0,0.00618360564113,0.0454158857465,0.00984787195921,0.0,34.9000015259,0.0020680955321505014,0.015189259446989964,0.0032936026619431436,34.9000015259,0.0,0.015468278534089552,0.046880915509289606
1648294399658749944,8694,0,1,0.0335646085441,0.0146502861753,-0.0292678363621,0.0,34.9000015259,0.011225621586655517,0.0048997612626421405,-0.009788574034147157,34.9000015259,0.0,0.01661435585403362,0.04688091378221547
1648294399658756019,8695,0,2,0.39359280467,-0.5845464468,-0.544796586037,0.0,34.9000015259,0.13163638952173912,-0.19550048387959865,-0.18220621606588627,34.9000015259,0.0,0.26995688042684757,0.8907374273668264
1648294399658771886,8696,0,3,2.34436559677,-1.06654083729,0.508729755878,0.0,34.9000015259,0.7840687614615384,-0.35670262116722407,0.17014373106287622,34.9000015259,0.0,1.1648023031172412,2.6253314787740045
1648294399658784680,8697,0,4,0.884151220322,-0.769140064716,-0.0183829963207,0.0809188112617,34.9000015259,0.29570274927157186,-0.2572374798381271,-0.006148159304581939,34.9000015259,0.010934974494824324,0.49096980852900013,1.1720229324129887
1648294399763799220,8698,1,0,0.0126104149967,0.0439508594573,0.0103498604149,0.0,17.6000003815,0.004217530099230769,0.014699284099431437,0.003461491777558528,17.6000003815,0.0,0.01586329326815945,0.04688091534976943
1648294399763802639,8699,1,1,0.0335872508585,0.0146502861753,-0.0292418505996,0.0,17.6000003815,0.011233194267056856,0.0048997612626421405,-0.00977988314367893,17.6000003815,0.0,0.01662458923744483,0.046880914365435775
1648294399763858393,8700,1,2,0.411292374134,-0.556710898876,-0.56064671278,0.0,17.6000003815,0.13755597797123745,-0.18619093607892975,-0.18750726179933108,17.6000003815,0.0,0.2692774755325726,0.8907374352182161
1648294399763861782,8701,1,3,2.31944680214,-1.1485824585,0.439647644758,0.0,17.6000003815,0.7757347164347825,-0.38414129046822737,0.1470393460729097,17.6000003815,0.0,1.16236536063619,2.6253314425939887
1648294399958670199,8702,3,0,0.0126330824569,0.0439508594573,0.0103221805766,0.0,16.1000003815,0.0042251111895986624,0.014699284099431437,0.003452234306555184,16.1000003815,0.0,0.015867327505435232,0.046880915426792916
1648294399958683012,8703,3,1,0.0335646085441,0.0146502861753,-0.0292678363621,0.0,16.1000003815,0.011225621586655517,0.0048997612626421405,-0.009788574034147157,16.1000003815,0.0,0.01661435585403362,0.04688091378221547
1648294399958688201,8704,3,2,0.403101235628,-0.556710898876,-0.566564679146,0.0,16.1000003815,0.13481646676521739,-0.18619093607892975,-0.18948651476454847,16.1000003815,0.0,0.2664920713643504,0.8907374286218998
1648294399958693068,8705,3,3,0.915398418903,-0.622637212276,0.384716033936,0.0,16.1000003815,0.30615331735886286,-0.20823987032642138,0.12866756987826086,16.1000003815,0.0,0.480440996432692,1.1720229478164608
1648294399958699836,8706,3,4,2.36508560181,-0.984499275684,0.574018001556,0.0,16.1000003815,0.7909985290334448,-0.32926397180066885,0.19197926473444815,16.1000003815,0.0,1.166092667412028,2.625331482655407
1648294400063894940,8707,4,0,0.0125401765108,0.0439508594573,0.010434852913,0.0,14.6000003815,0.004194038966822742,0.014699284099431437,0.003489917362207358,14.6000003815,0.0,0.015850832115263003,0.046880915405666954
1648294400063912957,8708,4,1,0.0335646085441,0.0146502861753,-0.0292678363621,0.0,14.6000003815,0.011225621586655517,0.0048997612626421405,-0.009788574034147157,14.6000003815,0.0,0.01661435585403362,0.04688091378221547
1648294400063927112,8709,4,2,0.431152701378,-0.556710898876,-0.545521318913,0.0,14.6000003815,0.14419822788561873,-0.18619093607892975,-0.1824486016431438,14.6000003815,0.0,0.27614004151635413,0.8907374395530087
1648294400064049812,8710,4,3,1.68728029728,-1.46502864361,0.708044886589,0.0,14.6000003815,0.5643077917324415,-0.489976134986622,0.2368043098959866,14.6000003815,0.0,0.9364631228597939,2.344045923102163
1648294400064053602,8711,4,4,2.38052749634,-0.984499275684,0.506177067757,0.0,14.6000003815,0.7961630422541806,-0.32926397180066885,0.16928998921638794,14.6000003815,0.0,1.1731009943004975,2.6253314473750136
1648294400064058123,8712,4,5,1.02820932865,-0.647542655468,0.0959190353751,-0.0809188112617,14.6000003815,0.3438827186120401,-0.21656944998929767,0.03207994494150502,14.6000003815,-0.010934974494824324,0.5323654524747845,1.2189037597450927
1648294400258792659,8713,6,0,0.0126330824569,0.0439508594573,0.0103221805766,0.0,19.2000007629,0.0042251111895986624,0.014699284099431437,0.003452234306555184,19.2000007629,0.0,0.015867327505435232,0.046880915426792916
1648294400258799485,8714,6,1,0.033480156213,0.0146502861753,-0.0293644089252,0.0,19.2000007629,0.01119737665986622,0.0048997612626421405,-0.009820872550234113,19.2000007629,0.0,0.016576192221276938,0.04688091569702361
1648294400258806225,8715,6,2,0.470909774303,-0.556710898876,-0.511595666409,0.0,19.2000007629,0.15749490779364547,-0.18619093607892975,-0.1711022295682274,19.2000007629,0.0,0.29030390393483496,0.8907374283984564
1648294400258827031,8716,6,3,1.70347082615,-1.46502864361,0.668153584003,0.0,19.2000007629,0.5697226843311036,-0.489976134986622,0.22346273712474912,19.2000007629,0.0,0.9429976070697661,2.3440458600372933
1648294400258895376,8717,6,4,0.171445831656,-0.732514321804,2.22004055977,0.0,19.2000007629,0.05733974302876254,-0.24498806749297658,0.7424884815284281,19.2000007629,0.0,0.25805977112900086,2.3440458595906537
1648294400258910468,8718,6,5,2.36029839516,-1.06654083729,0.42877432704,0.0,19.2000007629,0.7893974565752508,-0.35670262116722407,0.14340278496321068,19.2000007629,0.0,1.1719784336081096,2.625331463897603
1648294400258912784,8719,6,6,1.34753203392,-1.28922522068,0.196387961507,0.161837622523,19.2000007629,0.45067961000668894,-0.4311790035719063,0.06568159247725752,19.2000007629,0.021869948989594594,0.769506046027466,1.8752366473335684
1648294400259089770,8720,6,7,0.947922229767,-0.597731649876,0.100522458553,-0.242756426334,19.2000007629,0.3170308460759197,-0.19991025079464883,0.03361955135551839,19.2000007629,-0.03280492247756756,0.49089838368037675,1.1251419659862776
1648294400363859824,8721,7,0,0.0126330824569,0.0439508594573,0.0103221805766,0.0,40.0999984741,0.0042251111895986624,0.014699284099431437,0.003452234306555184,40.0999984741,0.0,0.015867327505435232,0.046880915426792916
1648294400363866231,8722,7,1,0.0335029289126,0.0146502861753,-0.0293384213001,0.0,40.0999984741,0.011204992947357858,0.0048997612626421405,-0.009812181036822742,40.0999984741,0.0,0.01658648227719088,0.04688091397491176
1648294400363869476,8723,7,2,0.460253179073,-0.5845464468,-0.489781200886,0.0,40.0999984741,0.15393082912140468,-0.19550048387959865,-0.16380642170100335,40.0999984741,0.0,0.292591591651509,0.8907374259873897
1648294400364027393,8724,7,3,1.68233680725,-1.43572807312,0.620801389217,0.0,40.0999984741,0.5626544505852843,-0.480176613083612,0.20762588268127088,40.0999984741,0.0,0.929370561874705,2.2971649043607534
1648294400364031591,8725,7,4,1.41165244579,-1.2306240797,0.0965086743236,0.161837622523,40.0999984741,0.4721245638093645,-0.4115799597658863,0.0322771486032107,40.0999984741,0.021869948989594594,0.7843476721360585,1.8752365657329904
1648294400364033430,8726,7,5,0.993527233601,-0.527410328388,0.026200035587,-0.323675245047,40.0999984741,0.332283355719398,-0.1763914141765886,0.008762553708026755,40.0999984741,-0.04373989797932432,0.5019346451197654,1.1251419733802281
1648294400460528739,8727,8,0,0.0126330824569,0.0439508594573,0.0103221805766,0.0,40.5999984741,0.0042251111895986624,0.014699284099431437,0.003452234306555184,40.5999984741,0.0,0.015867327505435232,0.046880915426792916
1648294400460535445,8728,8,1,0.0335646085441,0.0146502861753,-0.0292678363621,0.0,40.5999984741,0.011225621586655517,0.0048997612626421405,-0.009788574034147157,40.5999984741,0.0,0.01661435585403362,0.04688091378221547
1648294400460538554,8729,8,2,0.440317332745,-0.5845464468,-0.507778763771,0.0,40.5999984741,0.1472633219882943,-0.19550048387959865,-0.16982567350200667,40.5999984741,0.0,0.2856456042077548,0.8907374332085641
1648294400460650555,8730,8,3,1.83429324627,-1.44744825363,0.695102870464,0.0,40.5999984741,0.6134760020969899,-0.484096405896321,0.23247587640936454,40.5999984741,0.0,0.9935063867432095,2.437807654589583
1648294400460654526,8731,8,4,1.42372584343,-1.11342179775,-0.499809354544,0.242756426334,40.5999984741,0.47616248944147155,-0.37238187215719065,-0.16716031924548494,40.5999984741,0.03280492247756756,0.7694996370457191,1.8752367231485727
1648294400460657207,8732,8,5,0.972428560257,-0.438043534756,0.158579275012,-0.323675245047,40.5999984741,0.32522694322976586,-0.1465028544334448,0.05303654682675585,40.5999984741,-0.04373989797932432,0.48270924536650617,1.0782610210929282
1648294400563807019,8733,9,0,0.00627159653232,0.0454158857465,0.00979206990451,0.0,39.5999984741,0.0020975239238528428,0.015189259446989964,0.003274939767394649,39.5999984741,0.0,0.01547620159374528,0.04688091545840546
1648294400564013807,8734,9,1,0.0335646085441,0.0146502861753,-0.0292678363621,0.0,39.5999984741,0.011225621586655517,0.0048997612626421405,-0.009788574034147157,39.5999984741,0.0,0.01661435585403362,0.04688091378221547
1648294400564015977,8735,9,2,0.441975772381,-0.5845464468,-0.506335914135,0.0,39.5999984741,0.14781798407391303,-0.19550048387959865,-0.16934311509531771,39.5999984741,0.0,0.286218014856697,0.8907374415512199
1648294400564017148,8736,9,3,1.69771361351,-1.43572807312,0.577425420284,0.0,39.5999984741,0.5677971951538461,-0.480176613083612,0.19311886966020067,39.5999984741,0.0,0.9356050926548009,2.297164933005944
1648294400564018263,8737,9,4,1.82862234116,-1.44744825363,0.709887325764,0.0,39.5999984741,0.6115793783143813,-0.484096405896321,0.23742051028896322,39.5999984741,0.0,0.991164972222357,2.437807648032629
1648294400564021565,8738,9,5,2.28560161591,0.152362972498,-0.834096074104,0.0,39.5999984741,0.7644152561571906,0.05095751588561872,-0.2789618976936455,39.5999984741,0.0,1.0822467538029208,2.437807515550507
1648294400564022615,8739,9,6,0.644368827343,-1.47674882412,-1.13179349899,0.242756426334,39.5999984741,0.2155079690110368,-0.49389592779933106,-0.37852625384280936,39.5999984741,0.03280492247756756,0.5803624358203122,1.9689984254811437
1648294400564023525,8740,9,7,0.991722166538,-0.615311980247,-1.58582246304,0.242756426334,39.5999984741,0.3316796543605351,-0.2057899599488294,-0.5303754056989967,39.5999984741,0.03280492247756756,0.5122228946944766,1.968998367932427
1648294400564024421,8741,9,8,0.476534485817,-0.820416033268,-1.61751198769,0.323675245047,39.5999984741,0.15937608221304345,-0.27438663319999995,-0.5409739089264214,39.5999984741,0.04373989797932432,0.3550908273132226,1.875236682164928
1648294400564026272,8742,9,9,0.955889463425,-0.386767566204,-0.0207653921098,-0.485512852669,39.5999984741,0.3196954727173913,-0.1293537010715719,-0.006944947193913043,39.5999984741,-0.06560984495527027,0.47025819560418736,1.0313801520602255
1648294400564027237,8743,9,10,0.995268404484,-0.303260922432,0.283055305481,-0.242756426334,39.5999984741,0.33286568711839465,-0.10142505766956521,0.09466732624782608,39.5999984741,-0.03280492247756756,0.4815456091014398,1.0782609563548968
1648294400660525861,8744,10,0,0.0126330824569,0.0439508594573,0.0103221805766,0.0,35.7000007629,0.0042251111895986624,0.014699284099431437,0.003452234306555184,35.7000007629,0.0,0.015867327505435232,0.046880915426792916
1648294400660529880,8745,10,1,0.033480156213,0.0146502861753,-0.0293644089252,0.0,35.7000007629,0.01119737665986622,0.0048997612626421405,-0.009820872550234113,35.7000007629,0.0,0.016576192221276938,0.04688091569702361
1648294400660531449,8746,10,2,0.453436970711,-0.5845464468,-0.496098309755,0.0,35.7000007629,0.1516511607729097,-0.19550048387959865,-0.16591916714214047,35.7000007629,0.0,0.29020094473433233,0.8907374292213399
1648294400660533072,8747,10,3,1.70590794086,-1.43572807312,0.552747428417,0.0,35.7000007629,0.5705377728628762,-0.480176613083612,0.18486536067458192,35.7000007629,0.0,0.938933586724381,2.2971649314439047
1648294400660534678,8748,10,4,2.38295125961,-0.984499275684,0.494641125202,0.0,35.7000007629,0.7969736654214046,-0.32926397180066885,0.16543181444882943,35.7000007629,0.0,1.1742013498018171,2.6253314785451964
1648294400660536378,8749,10,5,0.830558538437,-0.424858301878,0.988956451416,0.161837622523,35.7000007629,0.27777877539699,-0.14209307755117057,0.33075466602541803,35.7000007629,0.021869948989594594,0.4177469794146521,1.3595465881103856
1648294400660537664,8750,10,6,2.11056852341,-1.12074685097,0.0771830007434,0.242756426334,35.7000007629,0.7058757603377926,-0.3748317227324415,0.0258137126232107,35.7000007629,0.03280492247756756,1.0663113984345678,2.3909266428671527
1648294400660538948,8751,10,7,0.943600594997,-0.276890397072,0.0467796288431,-0.323675245047,35.7000007629,0.3155854832765886,-0.09260548397056856,0.015645360817090302,35.7000007629,-0.04373989797932432,0.4558115511604101,0.9844992171373629
1648294400660542731,8752,10,8,0.956782877445,-0.225614413619,0.312105208635,-0.161837622523,35.7000007629,0.3199942733929766,-0.07545632562508361,0.10438301292140469,35.7000007629,-0.021869948989594594,0.45878788899167416,1.0313801430421647
1648294400760233358,8753,11,0,0.0126536311582,0.0439508594573,0.0102969808504,0.0,43.5999984741,0.004231983664949833,0.014699284099431437,0.003443806304481605,43.5999984741,0.0,0.01587099002950359,0.046880915553736906
1648294400760260349,8754,11,1,0.0335646085441,0.0146502861753,-0.0292678363621,0.0,43.5999984741,0.011225621586655517,0.0048997612626421405,-0.009788574034147157,43.5999984741,0.0,0.01661435585403362,0.04688091378221547
1648294400760265097,8755,11,2,0.461363375187,-0.5845464468,-0.488735586405,0.0,43.5999984741,0.1543021321695652,-0.19550048387959865,-0.163456717861204,43.5999984741,0.0,0.29298248272090455,0.8907374393439882
1648294400760277850,8756,11,3,1.70933449268,-1.43572807312,0.542058229446,0.0,43.5999984741,0.5716837768160535,-0.480176613083612,0.18129037774113713,43.5999984741,0.0,0.9403266778634877,2.297164911781606
1648294400760358181,8757,11,4,2.31173181534,-1.1485824585,0.478559553623,0.0,43.5999984741,0.7731544532909699,-0.38414129046822737,0.16005336241571905,43.5999984741,0.0,1.1589219768085823,2.6253313879190414
1648294400760364488,8758,11,5,2.36914896965,-0.984499275684,0.557009756565,0.0,43.5999984741,0.7923575149331102,-0.32926397180066885,0.18629088848327757,43.5999984741,0.0,1.1679364820348321,2.62533150918595
1648294400760434993,8759,11,6,1.32318329811,-0.169943317771,-0.262053757906,0.242756426334,43.5999984741,0.4425362201036789,-0.05683723002374581,-0.08764339729297659,43.5999984741,0.03280492247756756,0.6284163292945812,1.3595465948929182
1648294400760439379,8760,11,7,1.23520028591,0.339886635542,0.455109089613,0.242756426334,43.5999984741,0.41311046351505015,0.11367446004749163,0.15221039786387958,43.5999984741,0.03280492247756756,0.5951826551558168,1.359546598973562
1648294400760441534,8761,11,8,2.19142127037,-0.821880996227,-0.488583266735,0.323675245047,43.5999984741,0.7329168128327758,-0.2748765873668896,-0.1634057748277592,43.5999984741,0.04373989797932432,1.0723298220922401,2.3909264239458716
1648294400760444945,8762,11,9,0.911824941635,-0.205104008317,0.0750716775656,-0.242756426334,43.5999984741,0.3049581744598662,-0.06859665829999999,0.025107584470100332,43.5999984741,-0.03280492247756756,0.4366972382208472,0.9376183312989804
1648294400760447096,8763,11,10,0.971681952477,-0.161153152585,0.305955737829,-0.0809188112617,43.5999984741,0.32497724163110364,-0.05389737544648829,0.10232633372207357,43.5999984741,-0.010934974494824324,0.4627367958530434,1.031380176689511
1648294400860367538,8764,12,0,0.00636061094701,0.0454158857465,0.00973448436707,0.0,28.7999992371,0.002127294631107023,0.015189259446989964,0.0032556803903244142,28.7999992371,0.0,0.015484326509184937,0.046880915473688174
1648294400860381829,8765,12,1,0.0335646085441,0.0146502861753,-0.0292678363621,0.0,28.7999992371,0.011225621586655517,0.0048997612626421405,-0.009788574034147157,28.7999992371,0.0,0.01661435585403362,0.04688091378221547
1648294400860389678,8766,12,2,1.70636546612,-1.43572807312,0.55133330822,0.0,28.7999992371,0.5706907913444816,-0.480176613083612,0.18439241077591972,28.7999992371,0.0,0.9391195549040762,2.2971649093316313
1648294400860399566,8767,12,3,1.9063565731,-1.47528386116,0.602510511875,0.0,28.7999992371,0.6375774491973244,-0.49340597363210703,0.20150853239966554,28.7999992371,0.0,1.0278421387867793,2.4846884657277677
1648294400860411373,8768,12,4,2.37071490288,-0.984499275684,0.550306260586,0.0,28.7999992371,0.7928812384214047,-0.32926397180066885,0.18404891658394645,28.7999992371,0.0,1.1686471150896118,2.6253313990808467
1648294400860473144,8769,12,5,0.935478210449,-0.0586011447012,0.0239683780819,0.0809188112617,28.7999992371,0.31286896670535114,-0.019599045050568562,0.008016179960501671,28.7999992371,0.010934974494824324,0.4428973958169572,0.9376182909548167
1648294400860475798,8770,12,6,0.976500034332,-0.0,0.331952780485,0.0809188112617,28.7999992371,0.32658864024481604,-0.0,0.11102099681772575,28.7999992371,0.010934974494824324,0.46186608435120646,1.0313801265886986
1648294400860482663,8771,12,7,1.6632130146,-0.076181486249,-1.78068101406,0.323675245047,28.7999992371,0.5562585333110367,-0.02547875794280936,-0.5955454896521739,28.7999992371,0.04373989797932432,0.7870808591682303,2.4378076266628743
1648294400860494295,8772,12,8,1.33328258991,-1.51190948486,0.0160268582404,-0.647350490093,28.7999992371,0.4459139096688963,-0.5056553461070235,0.0053601532576588624,28.7999992371,-0.08747979595851352,0.8083104346221289,2.0158793652279408
1648294400860498971,8773,12,9,0.757751762867,-0.0629962310195,-1.86697971821,-0.647350490093,28.7999992371,0.25342868323311035,-0.021068973585117053,-0.6244079325117057,28.7999992371,-0.08747979595851352,0.3590210253153243,2.015879343477233
1648294400960185729,8774,13,0,0.0062143644318,0.0454158857465,0.00982849113643,0.0,25.2999992371,0.002078382753110368,0.015189259446989964,0.003287120781414715,25.2999992371,0.0,0.015471035915051943,0.046880915535527305
1648294400960199886,8775,13,1,0.0335646085441,0.0146502861753,-0.0292678363621,0.0,25.2999992371,0.011225621586655517,0.0048997612626421405,-0.009788574034147157,25.2999992371,0.0,0.01661435585403362,0.04688091378221547
1648294400960384070,8776,13,2,1.71017730236,-1.43572807312,0.539393186569,0.0,25.2999992371,0.5719656529632107,-0.480176613083612,0.18039905905317727,25.2999992371,0.0,0.9406694403942931,2.297164886369556
1648294400960389991,8777,13,3,2.36944079399,-0.984499275684,0.555766999722,0.0,25.2999992371,0.7924551150468226,-0.32926397180066885,0.18587525074314382,25.2999992371,0.0,1.1680689114318972,2.6253314948833175
1648294400960393656,8778,13,4,0.931381523609,0.0586011447012,-0.0906775146723,0.161837622523,25.2999992371,0.3114988373274247,0.019599045050568562,-0.03032692798404682,25.2999992371,0.021869948989594594,0.44096164672176313,0.9376182849900371
1648294400960397405,8779,13,5,0.960951983929,0.064461261034,0.369000047445,0.242756426334,25.2999992371,0.3213886233876254,0.021558950178595316,0.12341138710535116,25.2999992371,0.03280492247756756,0.45502316734292664,1.0313801455358673
1648294400960409729,8780,13,6,2.67419862747,-0.339886635542,0.355817526579,0.242756426334,25.2999992371,0.8943808118628762,-0.11367446004749163,0.11900251725050166,25.2999992371,0.03280492247756756,1.2699432885464152,2.719093109182414
1648294400960412953,8781,13,7,0.224387422204,-1.27457487583,-2.39135456085,0.242756426334,25.2999992371,0.07504596060334447,-0.4262792226856187,-0.7997841340635451,25.2999992371,0.03280492247756756,0.43929234923819555,2.7190931328364814
1648294400960415148,8782,13,8,2.30636119843,-0.388232588768,-0.838838756084,0.404594063759,25.2999992371,0.7713582603444815,-0.12984367517324413,-0.28054807895785955,25.2999992371,0.05467487348094594,1.0985656610261514,2.4846885075022023
1648294400960420339,8783,13,9,0.491198718548,-1.99829912186,-0.143194079399,0.566431701183,25.2999992371,0.16428050787558526,-0.6683274655050166,-0.04789099645451505,25.2999992371,0.07654482448418919,0.7075576101520495,2.06276031227687
1648294400960551557,8784,13,10,1.35674762726,-0.0,-0.640159010887,-0.161837622523,25.2999992371,0.45376174824749166,-0.0,-0.2141000036411371,25.2999992371,-0.021869948989594594,0.6417160184577287,1.5001892158309438
1648294401063775646,8785,14,0,0.0125401765108,0.0439508594573,0.010434852913,0.0,14.1999998093,0.004194038966822742,0.014699284099431437,0.003489917362207358,14.1999998093,0.0,0.015850832115263003,0.046880915405666954
1648294401063778641,8786,14,1,0.0335029289126,0.0146502861753,-0.0293384213001,0.0,14.1999998093,0.011204992947357858,0.0048997612626421405,-0.009812181036822742,14.1999998093,0.0,0.01658648227719088,0.04688091397491176
1648294401063781357,8787,14,2,1.72369372845,-1.43572807312,0.494501471519,0.0,14.1999998093,0.57648619680602,-0.480176613083612,0.16538510753143812,14.1999998093,0.0,0.9461724208452639,2.2971649646416745
1648294401063785518,8788,14,3,1.77790057659,-1.52362966537,0.67862200737,0.0,14.1999998093,0.5946155774548495,-0.5095751389197325,0.22696388206354515,14.1999998093,0.0,0.9832609989768702,2.437807549073848
1648294401063791031,8789,14,4,2.370221138,-0.984499275684,0.552429139614,0.0,14.1999998093,0.7927160996655517,-0.32926397180066885,0.18475890956989965,14.1999998093,0.0,1.168423036602703,2.6253314116772
1648294401063872651,8790,14,5,1.01721417904,0.134782627225,0.33129426837,0.161837622523,14.1999998093,0.3402054110501672,0.04507780174749164,0.1108007586521739,14.1999998093,0.021869948989594594,0.4832302263166209,1.0782610699160515
1648294401063875284,8791,14,6,0.885929763317,-1.01965987682,-2.35984945297,0.242756426334,14.1999998093,0.29629757970468223,-0.34102337017391304,-0.7892473086856187,14.1999998093,0.03280492247756756,0.5402605394459962,2.7190930934063844
1648294401063879638,8792,14,7,2.05292272568,0.254914969206,-1.76465117931,0.242756426334,14.1999998093,0.6865962293244146,0.0852558425438127,-0.5901843409063544,14.1999998093,0.03280492247756756,0.9747293588134419,2.7190930737617034
1648294401063881849,8793,14,8,1.211160779,0.079111546278,2.22163796425,0.404594063759,14.1999998093,0.40507049464882944,0.026458711129765885,0.7430227305183946,14.1999998093,0.05467487348094594,0.5734668906438655,2.53156953559235
1648294401063894933,8794,14,9,2.2634100914,0.949338555336,0.620141148567,0.404594063759,14.1999998093,0.7569933416053511,0.3175045335571906,0.20740506641036788,14.1999998093,0.05467487348094594,1.1166409303348328,2.531569469448705
1648294401258653496,8795,16,0,0.00624768529087,0.0454158857465,0.00980734359473,0.0,14.6999998093,0.0020895268531337793,0.015189259446989964,0.0032800480249933106,14.6999998093,0.0,0.015474037853382295,0.04688091549893182
1648294401258665253,8796,16,1,0.033480156213,0.0146502861753,-0.0293644089252,0.0,14.6999998093,0.01119737665986622,0.0048997612626421405,-0.009820872550234113,14.6999998093,0.0,0.016576192221276938,0.04688091569702361
1648294401258692905,8797,16,2,0.457239538431,-0.5845464468,-0.492595821619,0.0,14.6999998093,0.1529229225521739,-0.19550048387959865,-0.16474776642775918,14.6999998093,0.0,0.29153263913488925,0.8907374402412851
1648294401258699836,8798,16,3,1.72532391548,-1.43572807312,0.488783091307,0.0,14.6999998093,0.5770314098595317,-0.480176613083612,0.16347260578829428,14.6999998093,0.0,0.9468368791304057,2.297164909974844
1648294401258760585,8799,16,4,1.83087444305,-1.44744825363,0.704058527946,0.0,14.6999998093,0.6123325896488293,-0.484096405896321,0.23547107958060198,14.6999998093,0.0,0.9920946179139462,2.4378076388270817
1648294401258764366,8800,16,5,2.36992454529,-0.984499275684,0.553700268269,0.0,14.6999998093,0.7926169047792642,-0.32926397180066885,0.18518403621036789,14.6999998093,0.0,1.1682884398168434,2.6253314383657345
1648294401258769398,8801,16,6,1.03729975224,0.316446185112,0.299692302942,0.161837622523,14.6999998093,0.34692299406020066,0.10583484451906354,0.10023153944548495,14.6999998093,0.021869948989594594,0.5019084995591949,1.125141964603482
1648294401258780183,8802,16,7,0.912925422192,0.338421612978,0.145865365863,0.242756426334,14.6999998093,0.30532622815785954,0.11318448594581938,0.0487844032986622,14.6999998093,0.03280492247756756,0.4463842952670154,0.98449922273886
1648294401258786690,8803,16,8,1.53187060356,-1.58369588852,-0.0162650737911,0.566431701183,14.6999998093,0.5123313055384615,-0.5296641767625418,-0.005439824010401337,14.6999998093,0.07654482448418919,0.8975025757149837,2.203402996728438
1648294401363913106,8804,17,0,0.00624768529087,0.0454158857465,0.00980734359473,0.0,26.7000007629,0.0020895268531337793,0.015189259446989964,0.0032800480249933106,26.7000007629,0.0,0.015474037853382295,0.04688091549893182
1648294401363922660,8805,17,1,0.033480156213,0.0146502861753,-0.0293644089252,0.0,26.7000007629,0.01119737665986622,0.0048997612626421405,-0.009820872550234113,26.7000007629,0.0,0.016576192221276938,0.04688091569702361
1648294401363925049,8806,17,2,0.443113327026,-0.5845464468,-0.505340695381,0.0,26.7000007629,0.14819843713244146,-0.19550048387959865,-0.16901026601371236,26.7000007629,0.0,0.28661122227532126,0.8907374402497679
1648294401363927234,8807,17,3,1.71475148201,-1.43572807312,0.524670243263,0.0,26.7000007629,0.5734954789331104,-0.480176613083612,0.17547499774682274,26.7000007629,0.0,0.9425304814518648,2.2971649068288533
1648294401363933368,8808,17,4,1.83445894718,-1.44744825363,0.694665312767,0.0,26.7000007629,0.6135314204615384,-0.484096405896321,0.23232953604247492,26.7000007629,0.0,0.9935748275740693,2.4378076159916646
1648294401364056997,8809,17,5,2.37023258209,-0.984499275684,0.552380383015,0.0,26.7000007629,0.7927199271204013,-0.32926397180066885,0.18474260301505016,26.7000007629,0.0,1.168428230073846,2.6253314847011504
1648294401364060381,8810,17,6,0.926316201687,0.41899818182,0.173562139273,0.161837622523,26.7000007629,0.30980474972809363,0.14013317117725752,0.05804753821839464,26.7000007629,0.021869948989594594,0.4599948603760351,1.0313801423652273
1648294401364062337,8811,17,7,0.957277953625,0.421928226948,0.414173811674,0.161837622523,26.7000007629,0.3201598507107023,0.14111311938060198,0.1385196694561873,26.7000007629,0.021869948989594594,0.4742547548264776,1.1251419712500823
1648294401364064724,8812,17,8,0.968802273273,0.471739202738,0.0391276888549,0.323675245047,26.7000007629,0.3240141382183946,0.15777230860802674,0.013086183563511704,26.7000007629,0.04373989797932432,0.484626067080924,1.078260959199554
1648294401364066408,8813,17,9,1.15750873089,0.380907416344,0.0284554604441,0.404594063759,26.7000007629,0.38712666584949834,0.12739378473043478,0.00951687640270903,26.7000007629,0.05467487348094594,0.5621061173937201,1.2189038662427507
1648294401364067994,8814,17,10,2.09649157524,-1.69943320751,0.331838846207,0.566431701183,26.7000007629,0.7011677509163879,-0.5683723102040134,0.11098289170802675,26.7000007629,0.07654482448418919,1.142943355051745,2.7190930788945082
1648294401364096958,8815,17,11,2.39754867554,1.27457487583,0.143829092383,0.566431701183,26.7000007629,0.8018557443277591,0.4262792226856187,0.048103375378929766,26.7000007629,0.07654482448418919,1.2114698696691983,2.71909315278024
