%time,field.header.seq,field.header.frame_id,field.point_id,field.x,field.y,field.z,field.velocity,field.intensity,normalized_x,normalized_y,normalized_z,normalized_intensity,normalized_velocity,normalized_range,range
1648126806301469056,80718,0,0,0.0126303331926,0.0439508594573,0.0103255445138,0.0,24.2000007629,0.004224191703210702,0.014699284099431437,0.003453359369163879,24.2000007629,0.0,0.015866837874218862,0.04688091544645748
1648126806301631587,80719,0,1,0.0328872464597,0.0146502861753,-0.0300269592553,0.0,24.2000007629,0.010999079083511706,0.0048997612626421405,-0.010042461289397992,24.2000007629,0.0,0.0163084990664861,0.0468809145264753
1648126806301642826,80720,0,2,0.255827605724,-1.58955609798,0.316533625126,0.0,24.2000007629,0.08556107214849497,-0.5316241130367892,0.105864088670903,24.2000007629,0.0,0.545220681647856,1.640832071941332
1648126806301646093,80721,0,3,1.87477457523,-1.31852579117,0.491183459759,0.0,24.2000007629,0.6270149081036789,-0.44097852547491634,0.16427540460167223,24.2000007629,0.0,0.9903319897380681,2.344045895679119
1648126806301650192,80722,0,4,1.01863574982,-0.421928226948,0.224281340837,-0.242756426334,24.2000007629,0.3406808527826087,-0.14111311938060198,0.07501048188528427,24.2000007629,-0.03280492247756756,0.5020356554734883,1.125141919650352
1648126806301657947,80723,0,5,1.18796765804,-0.435113489628,0.0402507260442,-0.242756426334,24.2000007629,0.397313598006689,-0.14552290623010034,0.013461781285685617,24.2000007629,-0.03280492247756756,0.5804249361973487,1.2657847472427464
1648126806301726571,80724,0,6,1.19246566296,-0.515690088272,0.750104784966,-0.242756426334,24.2000007629,0.3988179474782608,-0.17247160142876253,0.2508711655404682,24.2000007629,-0.03280492247756756,0.5897948488762407,1.5001892590301746
1648126806406428380,80725,1,0,0.0126506788656,0.0439508594573,0.0103006083518,0.0,22.7999992371,0.004230996276120401,0.014699284099431437,0.0034450195156521734,22.7999992371,0.0,0.015870463509705293,0.046880915682322666
1648126806406461058,80726,1,1,0.0328744277358,0.0146502861753,-0.0300409924239,0.0,22.7999992371,0.010994791884882943,0.0048997612626421405,-0.010047154656822743,22.7999992371,0.0,0.01630271626492543,0.04688091413131083
1648126806406480508,80727,1,2,0.266437768936,-1.58955609798,0.307656019926,0.0,22.7999992371,0.08910962171772575,-0.5316241130367892,0.10289498994180601,22.7999992371,0.0,0.5463563369519066,1.6408320754841745
1648126806406489302,80728,1,3,1.85575270653,-1.31852579117,0.558769106865,0.0,22.7999992371,0.6206530791070234,-0.44097852547491634,0.1868792999548495,22.7999992371,0.0,0.9822843524866358,2.344045922024695
1648126806406493660,80729,1,4,1.02318489552,-0.386767566204,0.263529896736,-0.323675245047,22.7999992371,0.3422023061939799,-0.1293537010715719,0.08813708920936456,22.7999992371,-0.04373989797932432,0.5009363399773172,1.125141985333996
1648126806406496777,80730,1,5,1.18428814411,-0.435113489628,0.101728670299,-0.323675245047,22.7999992371,0.39608299134113706,-0.14552290623010034,0.034022966655183944,22.7999992371,-0.04373989797932432,0.578740346180514,1.2657846892329543
1648126806406614061,80731,1,6,1.11432659626,-0.408742964268,0.838636040688,-0.323675245047,22.7999992371,0.372684480354515,-0.13670333253110367,0.28048028116655516,22.7999992371,-0.04373989797932432,0.5444954039469381,1.4533082889434827
1648126806601326496,80732,3,0,0.0126200383529,0.0439508594573,0.0103381248191,0.0,21.7999992371,0.004220748613010033,0.014699284099431437,0.0034575668291304345,21.7999992371,0.0,0.015865005223580926,0.04688091551835667
1648126806601348131,80733,3,1,0.0329016707838,0.0146502861753,-0.030011150986,0.0,21.7999992371,0.01100390327217391,0.0048997612626421405,-0.010037174242809364,21.7999992371,0.0,0.016315006432043106,0.04688091305518946
1648126806601352644,80734,3,2,0.248120367527,-1.58955609798,0.322610586882,0.0,21.7999992371,0.08298340051070234,-0.5316241130367892,0.10789651735183946,21.7999992371,0.0,0.5444232609677806,1.6408320743377385
1648126806601356604,80735,3,3,2.04315710068,-1.04603040218,0.669222652912,0.0,21.7999992371,0.6833301340066888,-0.34984294387290965,0.22382028525484948,21.7999992371,0.0,1.0277500812263953,2.390926493958886
1648126806601360174,80736,3,4,1.1255646944,-0.297400802374,0.702156603336,-0.485512852669,21.7999992371,0.37644304160535114,-0.09946515129565217,0.23483498439331105,21.7999992371,-0.06560984495527027,0.541582905443334,1.359546620804455
1648126806601369960,80737,3,5,1.22662055492,-0.290075659752,0.897042095661,-0.485512852669,21.7999992371,0.4102409882675585,-0.09701527082006689,0.3000140788163879,21.7999992371,-0.06560984495527027,0.588223851677044,1.547070261985759
1648126806601389603,80738,3,6,1.06790268421,-0.316446185112,0.159342780709,-0.404594063759,21.7999992371,0.35715808836454843,-0.10583484451906354,0.05329189990267558,21.7999992371,-0.05467487348094594,0.5160666763925099,1.1251419700548626
1648126806706441882,80739,4,0,0.0126200383529,0.0439508594573,0.0103381248191,0.0,36.0,0.004220748613010033,0.014699284099431437,0.0034575668291304345,36.0,0.0,0.015865005223580926,0.04688091551835667
1648126806706450197,80740,4,1,0.032850060612,0.0146502861753,-0.0300676375628,0.0,36.0,0.010986642345150502,0.0048997612626421405,-0.01005606607451505,36.0,0.0,0.01629172429399039,0.046880915049070465
1648126806706467728,80741,4,2,0.257061332464,-1.58955609798,0.315532535315,0.0,36.0,0.08597368978729096,-0.5316241130367892,0.1055292760250836,36.0,0.0,0.545350482014489,1.6408320749290228
1648126806706473601,80742,4,3,1.88543570042,-1.31852579117,0.448523372412,0.0,36.0,0.630580501812709,-0.44097852547491634,0.15000781686020068,36.0,0.0,0.9948495355895619,2.344045916358842
1648126806706505262,80743,4,4,0.96357023716,-0.354536950588,0.0978823900223,-0.485512852669,36.0,0.3222642933645485,-0.11857423096588628,0.032736585291739125,36.0,-0.06560984495527027,0.4709229212988627,1.031380149871663
1648126806706512211,80744,4,5,1.29147100449,-0.187523663044,0.739936053753,-0.485512852669,36.0,0.43193010183612035,-0.0627169441618729,0.24747025209130433,36.0,-0.06560984495527027,0.6140526368556087,1.500189269153533
1648126806706536699,80745,4,6,1.08650553226,-0.24612480402,0.157711625099,-0.323675245047,36.0,0.36337977667558524,-0.08231598796655518,0.05274636290936455,36.0,-0.04373989797932432,0.5204475440123687,1.1251420565763404
1648126806901523067,80746,6,0,0.0126405349001,0.0439508594573,0.0103130536154,0.0,33.5,0.004227603645518395,0.014699284099431437,0.003449181811170568,33.5,0.0,0.01586865521091812,0.046880915567745665
1648126806901530898,80747,6,1,0.032850060612,0.0146502861753,-0.0300676375628,0.0,33.5,0.010986642345150502,0.0048997612626421405,-0.01005606607451505,33.5,0.0,0.01629172429399039,0.046880915049070465
1648126806901541222,80748,6,2,2.39347958565,-0.984499275684,0.440886706114,0.0,33.5,0.8004948446989967,-0.32926397180066885,0.14745374786421403,33.5,0.0,1.1789820846413628,2.6253313006882903
1648126806901572692,80749,6,3,2.149974823,-0.9713139534,0.388183891773,0.161837622523,33.5,0.7190551247491638,-0.3248541650167224,0.1298273885528428,33.5,0.021869948989594594,1.067525537579679,2.390926445843839
1648126806901577149,80750,6,4,1.00599586964,-0.224149376154,-2.15737318993,0.161837622523,33.5,0.33645346810702337,-0.07496634653979932,-0.7215294949598662,33.5,0.021869948989594594,0.4816864389994936,2.3909265386439023
1648126806901607992,80751,6,5,0.912057518959,-0.175803437829,0.127954423428,-0.242756426334,33.5,0.3050359595180602,-0.05879713639765886,0.04279412154782609,33.5,-0.03280492247756756,0.43537452434286067,0.9376183131300997
1648126806901613703,80752,6,6,1.00788974762,-0.164083212614,0.824818909168,-0.161837622523,33.5,0.33708687211371235,-0.054877328633444813,0.2758591669458194,33.5,-0.021869948989594594,0.4798610631221871,1.3126657140873024
1648126806901617756,80753,6,7,1.27316367626,-0.0454158857465,0.69935464859,-0.161837622523,33.5,0.42580724958528426,-0.015189259446989964,0.23389787578260868,33.5,-0.021869948989594594,0.602373921415359,1.4533083890662917
1648126806901621160,80754,6,8,1.06613683701,-0.134782627225,0.0885028541088,-0.0809188112617,33.5,0.3565675040167224,-0.04507780174749164,0.029599616758795987,33.5,-0.010934974494824324,0.5062734222253987,1.0782610384395626
1648126807006376641,80755,7,0,0.0126405349001,0.0439508594573,0.0103130536154,0.0,19.7999992371,0.004227603645518395,0.014699284099431437,0.003449181811170568,19.7999992371,0.0,0.01586865521091812,0.046880915567745665
1648126807006383737,80756,7,1,0.032850060612,0.0146502861753,-0.0300676375628,0.0,19.7999992371,0.010986642345150502,0.0048997612626421405,-0.01005606607451505,19.7999992371,0.0,0.01629172429399039,0.046880915049070465
1648126807006390846,80757,7,2,0.844057619572,-0.0,0.2845697999,0.0,19.7999992371,0.282293518251505,-0.0,0.09517384612040132,19.7999992371,0.0,0.39922332208129524,0.8907374675922626
1648126807006393973,80758,7,3,1.86118733883,-1.31852579117,0.540391504765,0.0,19.7999992371,0.6224706818829431,-0.44097852547491634,0.18073294473745818,19.7999992371,0.0,0.9845819211917634,2.3440459787776673
1648126807006396805,80759,7,4,2.42448925972,-0.902457654476,0.446975290775,0.0,19.7999992371,0.8108659731505017,-0.30182530250033446,0.14949006380434782,19.7999992371,0.0,1.185793306633175,2.625331388450485
1648126807006398906,80760,7,5,0.275865077972,-1.51190948486,-1.30452978611,0.242756426334,19.7999992371,0.09226256788361203,-0.5056553461070235,-0.4362975873277592,19.7999992371,0.03280492247756756,0.5222184331403574,2.0158794097123796
1648126807006404512,80761,7,6,0.750112831593,-0.440973609686,1.81841766834,0.242756426334,19.7999992371,0.2508738567200669,-0.14748281260401339,0.6081664442608695,19.7999992371,0.03280492247756756,0.3842220243359194,2.0158794113465843
1648126807006419993,80762,7,7,0.679778635502,1.84593605995,-0.0858827605844,0.404594063759,19.7999992371,0.2273507142147157,0.6173699197157191,-0.028723331299130433,19.7999992371,0.05467487348094594,0.6960763695728193,1.9689984203331117
1648126807006556718,80763,7,8,0.933019816875,-0.0879017189145,0.029587559402,-0.161837622523,19.7999992371,0.3120467614966555,-0.02939856819882943,0.009895504816722406,19.7999992371,-0.021869948989594594,0.44227891486396054,0.9376183202886712
1648126807006560367,80764,7,9,0.987452507019,-0.101086974144,0.421148091555,-0.0809188112617,19.7999992371,0.3302516745882943,-0.03380835255652174,0.1408522045334448,19.7999992371,-0.010934974494824324,0.4682684506128203,1.0782609818499957
1648126807201461582,80765,9,0,0.0126200383529,0.0439508594573,0.0103381248191,0.0,21.1000003815,0.004220748613010033,0.014699284099431437,0.0034575668291304345,21.1000003815,0.0,0.015865005223580926,0.04688091551835667
1648126807201476603,80766,9,1,0.0328628644347,0.0146502861753,-0.0300536397845,0.0,21.1000003815,0.010990924560100333,0.0048997612626421405,-0.010051384543311037,21.1000003815,0.0,0.01629749998627157,0.04688091304750941
1648126807201688545,80767,9,2,1.90267777443,-1.24527442455,0.568911671638,0.0,21.1000003815,0.6363470817491639,-0.4164797406521739,0.19027146208628762,21.1000003815,0.0,0.9916302694427274,2.344045988429872
1648126807201701142,80768,9,3,2.42108893394,-0.902457654476,0.465041697025,0.0,21.1000003815,0.8097287404481606,-0.30182530250033446,0.15553234014214046,21.1000003815,0.0,1.1842380586034835,2.625331450339355
1648126807201704215,80769,9,4,1.07443475723,0.0336956568062,0.084269694984,0.0809188112617,21.1000003815,0.3593427281705685,0.011269450436856187,0.028183844476254178,21.1000003815,0.010934974494824324,0.5083122987802704,1.0782610195700235
1648126807201709156,80770,9,5,0.92943495512,0.117202289402,0.0392729006708,0.161837622523,21.1000003815,0.31084781107692305,0.03919809010100334,0.013134749388227424,21.1000003815,0.021869948989594594,0.4413493101503561,0.9376182982253947
1648126807201873254,80771,9,6,0.956155598164,-0.0,0.899365186691,0.242756426334,21.1000003815,0.3197844809913043,-0.0,0.30079103233812704,21.1000003815,0.03280492247756756,0.45224355005434375,1.3126657102751234
1648126807201886294,80772,9,7,0.13956721127,1.99829912186,0.49224153161,0.485512852669,21.1000003815,0.046677997080267555,0.6683274655050166,0.16462927478595316,21.1000003815,0.06560984495527027,0.6715796840071996,2.062760313834327
1648126807301869385,80773,10,0,0.0126405349001,0.0439508594573,0.0103130536154,0.0,29.2999992371,0.004227603645518395,0.014699284099431437,0.003449181811170568,29.2999992371,0.0,0.01586865521091812,0.046880915567745665
1648126807301881301,80774,10,1,0.032850060612,0.0146502861753,-0.0300676375628,0.0,29.2999992371,0.010986642345150502,0.0048997612626421405,-0.01005606607451505,29.2999992371,0.0,0.01629172429399039,0.046880915049070465
1648126807301887309,80775,10,2,1.90307581425,-1.24527442455,0.567578315735,0.0,29.2999992371,0.6364802054347826,-0.4164797406521739,0.1898255236571906,29.2999992371,0.0,0.991801128348979,2.3440458808893254
1648126807301900184,80776,10,3,2.42257905006,-0.902457654476,0.457215845585,0.0,29.2999992371,0.8102271070434782,-0.30182530250033446,0.15291499852341137,29.2999992371,0.0,1.1849195935613126,2.6253314840922357
1648126807301905811,80777,10,4,1.05029273033,0.168478280306,0.176485404372,0.161837622523,29.2999992371,0.3512684716822742,0.05634725093846154,0.0590252188535117,29.2999992371,0.021869948989594594,0.49995408897650123,1.0782610297489479
1648126807301918108,80778,10,5,0.91618168354,0.175803437829,0.093980871141,0.242756426334,29.2999992371,0.3064152787759197,0.05879713639765886,0.031431729478595315,29.2999992371,0.03280492247756756,0.4373073854661204,0.9376183286109039
1648126807302102753,80779,10,6,0.94555580616,0.127457484603,0.96852761507,0.323675245047,29.2999992371,0.3162394000535117,0.04262792127190635,0.3239222792876254,29.2999992371,0.04373989797932432,0.4492570043576103,1.3595465913669136
1648126807302115125,80780,10,7,1.04175019264,-1.78000986576,0.443743020296,0.485512852669,29.2999992371,0.34841143566555177,-0.5953210253377926,0.1484090368882943,29.2999992371,0.06560984495527027,0.772779515912723,2.109641309353281
1648126807302125981,80781,10,8,2.07653903961,0.263705164194,0.262737900019,0.485512852669,29.2999992371,0.694494662076923,0.0881957070882943,0.08787220736421404,29.2999992371,0.06560984495527027,0.9861156899955924,2.1096412018998394
