%time,field.header.seq,field.header.frame_id,field.point_id,field.x,field.y,field.z,field.velocity,field.intensity,normalized_x,normalized_y,normalized_z,normalized_intensity,normalized_velocity,normalized_range,range
1648295744166156211,63365,0,0,0.0127004906535,0.0439508594573,0.0102391270921,0.0,25.2000007629,0.004247655736956521,0.014699284099431437,0.003424457221438127,25.2000007629,0.0,0.01587936118221376,0.046880915450566385
1648295744166174340,63366,0,1,0.0334051251411,0.0146502861753,-0.0294497366995,0.0,25.2000007629,0.011172282655886287,0.0048997612626421405,-0.009849410267391303,25.2000007629,0.0,0.016542293067072764,0.04688091575876707
1648295744166188474,63367,0,2,1.87403583527,-0.0586011447012,-0.032679181546,0.0,25.2000007629,0.6267678378829431,-0.019599045050568562,-0.010929492155852842,25.2000007629,0.0,0.8866002299660275,1.875236607722592
1648295744166190557,63368,0,3,2.24771308899,-1.2306240797,0.570715069771,0.0,25.2000007629,0.7517435080234113,-0.4115799597658863,0.19087460527458192,25.2000007629,0.0,1.1400152047194712,2.6253314927487073
1648295744166203146,63369,0,4,0.384759902954,-0.632892370224,0.118528716266,-0.242756426334,25.2000007629,0.12868224179063542,-0.21166968903812708,0.03964171112575251,25.2000007629,-0.03280492247756756,0.27914565366851857,0.7500946552193197
1648295744166261810,63370,0,5,2.02311491966,0.329631447792,0.498934626579,-0.242756426334,25.2000007629,0.676627063431438,0.11024463136856186,0.16686776808662207,25.2000007629,-0.03280492247756756,0.9632249190512527,2.109641351302127
1648295744166268675,63371,0,6,0.55390816927,-0.695888578892,0.0483524501324,-0.161837622523,25.2000007629,0.18525356831772574,-0.23273865514782605,0.016171388004147157,25.2000007629,-0.021869948989594594,0.3504355158212695,0.8907374100430364
1648295744271146663,63372,1,0,0.0126683982089,0.0439508594573,0.0102788070217,0.0,34.0,0.004236922477892977,0.014699284099431437,0.00343772810090301,34.0,0.0,0.015873625206711522,0.0468809154561208
1648295744271149485,63373,1,1,0.0335134975612,0.0146502861753,-0.0293263476342,0.0,34.0,0.01120852761244147,0.0048997612626421405,-0.009808143021471571,34.0,0.0,0.016591258026702325,0.04688091370019032
1648295744271153232,63374,1,2,1.87378191948,-0.0586011447012,0.0449414588511,0.0,34.0,0.6266829162140468,-0.019599045050568562,0.01503058824451505,34.0,0.0,0.8864801619415847,1.8752366545729928
1648295744271292658,63375,1,3,2.20659780502,-1.31266570091,0.547904849052,0.0,34.0,0.7379925769297658,-0.4390186290668896,0.18324576891371236,34.0,0.0,1.1322559091807134,2.6253313770035427
1648295744271295902,63376,1,4,0.747502684593,-1.47674882412,0.329890161753,0.161837622523,34.0,0.2500008978571906,-0.49389592779933106,0.11033115777692307,34.0,0.021869948989594594,0.6073994446454203,1.6877129115566325
1648295744271296915,63377,1,5,0.435623288155,-0.586011469364,0.171653360128,-0.161837622523,34.0,0.145693407409699,-0.19599045798127088,0.057409150544481605,34.0,-0.021869948989594594,0.284368418684293,0.7500946389972144
1648295744271298034,63378,1,6,0.58847039938,-0.668053030968,0.0286520998925,-0.161837622523,34.0,0.19681284260200668,-0.22342910734715715,0.00958264210451505,34.0,-0.021869948989594594,0.356918976850646,0.8907374506330348
1648295744466194503,63379,3,0,0.0127004906535,0.0439508594573,0.0102391270921,0.0,33.2999992371,0.004247655736956521,0.014699284099431437,0.003424457221438127,33.2999992371,0.0,0.01587936118221376,0.046880915450566385
1648295744466342323,63380,3,1,0.03342808038,0.0146502861753,-0.0294236782938,0.0,33.2999992371,0.011179959993311037,0.0048997612626421405,-0.00984069508153846,33.2999992371,0.0,0.016552663572215777,0.046880916023974664
1648295744466346984,63381,3,2,1.87153148651,-0.117202289402,0.0120713748038,0.0,33.2999992371,0.6259302630468226,-0.03919809010100334,0.00403724909826087,33.2999992371,0.0,0.8860665204505221,1.8752365716701063
1648295744466348763,63382,3,3,0.614881336689,-1.24673938751,1.03748631477,0.161837622523,33.2999992371,0.20564593200301004,-0.41696969481939794,0.34698538955518393,33.2999992371,0.021869948989594594,0.5083740995532278,1.7345939040341103
1648295744466351441,63383,3,4,0.445888787508,-0.47173923254,0.0970468148589,-0.161837622523,33.2999992371,0.14912668478528426,-0.15777231857525081,0.03245712871535117,33.2999992371,-0.021869948989594594,0.2633811700534218,0.6563328413366499
1648295744466353958,63384,3,5,0.64508241415,-0.612381994724,0.0476454757154,-0.161837622523,33.2999992371,0.21574662680602005,-0.20481003168026754,0.01593494171083612,33.2999992371,-0.021869948989594594,0.36747838444352665,0.8907374023043403
1648295744571327117,63385,4,0,0.0127217965201,0.0439508594573,0.010212643072,0.0,29.2000007629,0.004254781444849498,0.014699284099431437,0.0034155996896321067,29.2000007629,0.0,0.015883176109414296,0.046880915437416903
1648295744571346377,63386,4,1,0.0335134975612,0.0146502861753,-0.0293263476342,0.0,29.2000007629,0.01120852761244147,0.0048997612626421405,-0.009808143021471571,29.2000007629,0.0,0.016591258026702325,0.04688091370019032
1648295744571369446,63387,4,2,0.465440630913,-0.451228827238,0.102617576718,0.0,29.2000007629,0.15566576284715716,-0.15091265125016723,0.03432025977190635,29.2000007629,0.0,0.266905016350254,0.6563328442846258
1648295744571477378,63388,4,3,1.01089096069,-1.30094540119,0.542638301849,0.161837622523,29.2000007629,0.33809062230434783,-0.43509879638461535,0.18148438188929764,29.2000007629,0.021869948989594594,0.6464684836831749,1.7345938423491902
1648295744571481452,63389,4,4,0.678989887238,-0.501039743423,0.0050613633357,-0.323675245047,29.2000007629,0.22708691880869564,-0.16757182054280934,0.001692763657424749,29.2000007629,-0.04373989797932432,0.362239219892167,0.8438564503869563
1648295744571483067,63390,4,5,1.18867754936,-0.0,-1.56971347332,-0.242756426334,29.2000007629,0.39755101985284275,-0.0,-0.5249877837190635,29.2000007629,-0.03280492247756756,0.5622220440111458,1.9689984013896085
1648295744571526788,63391,4,6,0.786454498768,-0.922968029976,1.55131363869,-0.242756426334,29.2000007629,0.2630282604575251,-0.30868495985819394,0.5188339928729097,29.2000007629,-0.03280492247756756,0.48337783983264904,1.9689983922227596
1648295744766179406,63392,6,0,0.0127004906535,0.0439508594573,0.0102391270921,0.0,17.8999996185,0.004247655736956521,0.014699284099431437,0.003424457221438127,17.8999996185,0.0,0.01587936118221376,0.046880915450566385
1648295744766184540,63393,6,1,0.03342808038,0.0146502861753,-0.0294236782938,0.0,17.8999996185,0.011179959993311037,0.0048997612626421405,-0.00984069508153846,17.8999996185,0.0,0.016552663572215777,0.046880916023974664
1648295744766291389,63394,6,2,0.474884241819,-0.451228827238,0.0406239666045,0.0809188112617,17.8999996185,0.15882416114347825,-0.15091265125016723,0.01358661090451505,17.8999996185,0.010934974494824324,0.27060091765035404,0.656332845682182
1648295744766304510,63395,6,3,1.0203204155,-1.44744825363,0.193629816175,0.242756426334,17.8999996185,0.34124428612040136,-0.484096405896321,0.0647591358444816,17.8999996185,0.03280492247756756,0.6835529648983906,1.7814748673317269
1648295744766334915,63396,6,4,0.6290127635,-0.375047326088,0.162248060107,-0.323675245047,17.8999996185,0.2103721617056856,-0.1254338883237458,0.05426356525317725,17.8999996185,-0.04373989797932432,0.32287234812145216,0.7500946516674747
1648295744766360726,63397,6,5,0.496924906969,-0.389697641134,0.178813263774,-0.161837622523,17.8999996185,0.1661956210598662,-0.13033365924214046,0.05980376714849498,17.8999996185,-0.021869948989594594,0.268754221641997,0.6563328408460629
1648295744871238149,63398,7,0,0.0126802325249,0.0439508594573,0.0102642038837,0.0,37.0,0.004240880443110368,0.014699284099431437,0.0034328441082608695,37.0,0.0,0.015875738940323687,0.0468809153631521
1648295744871243294,63399,7,1,0.03342808038,0.0146502861753,-0.0294236782938,0.0,37.0,0.011179959993311037,0.0048997612626421405,-0.00984069508153846,37.0,0.0,0.016552663572215777,0.046880916023974664
1648295744871246385,63400,7,2,1.87156009674,-0.117202289402,-0.00623916741461,0.0,37.0,0.6259398316856186,-0.03919809010100334,-0.0020866780650869565,37.0,0.0,0.8860800393016466,1.8752366516150796
1648295744871256053,63401,7,3,0.68466848135,-0.304725944996,-0.0318298749626,-0.404594063759,37.0,0.2289861141638796,-0.10191503177123744,-0.010645443131304347,37.0,-0.05467487348094594,0.3394936739626807,0.7500946419272406
1648295744871424676,63402,7,4,0.473704099655,-0.34281668067,0.17179274559,-0.323675245047,37.0,0.1584294647675585,-0.1146544082508361,0.057455767755852837,37.0,-0.04373989797932432,0.2516851683044106,0.6094518832630689
1648295744969530311,63403,8,0,0.0127892559394,0.0439508594573,0.0101280361414,0.0,40.4000015259,0.00427734312354515,0.014699284099431437,0.0033873030573244142,40.4000015259,0.0,0.01589529117156637,0.04688091541982003
1648295744969569475,63404,8,1,0.03342808038,0.0146502861753,-0.0294236782938,0.0,40.4000015259,0.011179959993311037,0.0048997612626421405,-0.00984069508153846,40.4000015259,0.0,0.016552663572215777,0.046880916023974664
1648295744969712591,63405,8,2,1.76028287411,-0.988894343376,0.611619591713,0.485512852669,40.4000015259,0.5887233692675585,-0.3307338941056856,0.20455504739565214,40.4000015259,0.06560984495527027,0.8958656817591591,2.1096412833022558
1648295744969717696,63406,8,3,0.459094107151,-0.281285494566,0.163086429238,-0.404594063759,40.4000015259,0.15354317964916386,-0.09407541624280935,0.05454395626688963,40.4000015259,-0.05467487348094594,0.23664572671994027,0.5625709840327834
1648295744969725949,63407,8,4,0.665891170502,-0.197778865695,0.109462432563,-0.323675245047,40.4000015259,0.22270607709096987,-0.06614677782441471,0.03660950921839465,40.4000015259,-0.04373989797932432,0.3218250918791922,0.7032137333775086
1648295745071237881,63408,9,0,0.0128108067438,0.0439508594573,0.0101007642224,0.0,43.2000007629,0.004284550750434783,0.014699284099431437,0.0033781820141806015,43.2000007629,0.0,0.01589917303830298,0.046880915672999006
1648295745071244642,63409,9,1,0.03342808038,0.0146502861753,-0.0294236782938,0.0,43.2000007629,0.011179959993311037,0.0048997612626421405,-0.00984069508153846,43.2000007629,0.0,0.016552663572215777,0.046880916023974664
1648295745071246508,63410,9,2,1.47835195065,-1.68478298187,0.685954272747,0.0,43.2000007629,0.4944320905183946,-0.5634725691872909,0.22941614473143812,43.2000007629,0.0,0.898013095948665,2.3440459573756858
1648295745071248386,63411,9,3,2.11144757271,-1.12074685097,-0.0473895035684,0.242756426334,43.2000007629,0.7061697567591972,-0.3748317227324415,-0.015849332297123746,43.2000007629,0.03280492247756756,1.0667006473651628,2.3909266239913305
1648295745071265626,63412,9,4,0.33187431097,-0.586011469364,1.75013208389,0.404594063759,43.2000007629,0.1109947528327759,-0.19599045798127088,0.5853284561505017,43.2000007629,0.05467487348094594,0.25110143355330794,1.8752366014903614
1648295745071267322,63413,9,5,0.955987215042,-1.01086974144,-1.64767038822,-0.647350490093,43.2000007629,0.3197281655658863,-0.33808352556521737,-0.5510603305083611,43.2000007629,-0.08747979595851352,0.5645818540927973,2.1565219446367285
1648295745071272623,63414,9,6,2.09522747993,-0.202173948288,0.468758046627,-0.647350490093,43.2000007629,0.7007449765652174,-0.06761670511304348,0.15677526643043477,43.2000007629,-0.08747979595851352,0.9933071343613306,2.156521876610052
1648295745071295741,63415,9,7,1.76877987385,-0.314981162548,0.914316356182,-0.566431701183,43.2000007629,0.5915651752006689,-0.1053448704173913,0.3057914234722408,43.2000007629,-0.07654482448418919,0.8432059385130379,2.0158794046467268
1648295745071317747,63416,9,8,0.439365148544,-0.225614413619,0.148299202323,-0.404594063759,43.2000007629,0.14694486573377924,-0.07545632562508361,0.049598395425752506,43.2000007629,-0.05467487348094594,0.2210865084257189,0.5156900724246827
1648295745071547073,63417,9,9,0.637709677219,-0.102552011609,0.116543009877,-0.161837622523,43.2000007629,0.21328082850133775,-0.03429833164180602,0.038977595276588624,43.2000007629,-0.021869948989594594,0.30356844230888924,0.6563328581253601
1648295745266365160,63418,11,0,0.0127004906535,0.0439508594573,0.0102391270921,0.0,37.2000007629,0.004247655736956521,0.014699284099431437,0.003424457221438127,37.2000007629,0.0,0.01587936118221376,0.046880915450566385
1648295745266372358,63419,11,1,0.0335637778044,0.0146502861753,-0.0292687918991,0.0,37.2000007629,0.01122534374729097,0.0048997612626421405,-0.00978889361173913,37.2000007629,0.0,0.01661398040568778,0.04688091557077509
1648295745266381945,63420,11,2,1.40061950684,-1.68478298187,0.833260178566,0.0,37.2000007629,0.46843461767224076,-0.5634725691872909,0.27868233396856185,37.2000007629,0.0,0.8696915075439124,2.344045909133039
1648295745266386802,63421,11,3,1.99739313126,-0.879017233849,-0.85574555397,0.0,37.2000007629,0.6680244586153845,-0.29398569693946486,-0.2862025264113712,37.2000007629,0.0,0.9894144453270015,2.3440458765449956
1648295745266393982,63422,11,4,2.24103999138,-1.2306240797,0.596379578114,0.0,37.2000007629,0.7495117028026755,-0.4115799597658863,0.19945805288093643,37.2000007629,0.0,1.1370724025132353,2.625331306653196
1648295745266412116,63423,11,5,0.69748789072,0.0439508594573,0.0780291333795,0.161837622523,37.2000007629,0.2332735420468227,0.014699284099431437,0.026096700126923077,37.2000007629,0.021869948989594594,0.3302259223488933,0.7032137522859075
1648295745266417351,63424,11,6,0.49866181612,-0.0,0.131425485015,0.242756426334,37.2000007629,0.16677652713043475,-0.0,0.04395501171070234,37.2000007629,0.03280492247756756,0.23585762655334527,0.5156900861637003
1648295745266420464,63425,11,7,0.679275870323,0.131852582097,0.125334590673,0.323675245047,37.2000007629,0.22718256532541803,0.04409785354414715,0.04191792330200669,37.2000007629,0.04373989797932432,0.32429686502165994,0.7032137449082488
1648295745369551006,63426,12,0,0.0126802325249,0.0439508594573,0.0102642038837,0.0,27.2999992371,0.004240880443110368,0.014699284099431437,0.0034328441082608695,27.2999992371,0.0,0.015875738940323687,0.0468809153631521
1648295745369557974,63427,12,1,0.03342808038,0.0146502861753,-0.0294236782938,0.0,27.2999992371,0.011179959993311037,0.0048997612626421405,-0.00984069508153846,27.2999992371,0.0,0.016552663572215777,0.046880916023974664
1648295745369562195,63428,12,2,2.24203228951,-1.2306240797,0.592638373375,0.0,27.2999992371,0.7498435750869564,-0.4115799597658863,0.19820681383779265,27.2999992371,0.0,1.1375099285189842,2.6253313418194453
1648295745369567530,63429,12,3,0.842064499855,-0.0527410283685,0.0154761048034,0.161837622523,27.2999992371,0.28162692302842807,-0.017639139922575247,0.005175954783745819,27.2999992371,0.021869948989594594,0.39867102579210406,0.8438564734653068
1648295745369572111,63430,12,4,0.675800323486,0.0439508594573,0.18939858675,0.323675245047,27.2999992371,0.22602017507892977,0.014699284099431437,0.06334400894648828,27.2999992371,0.04373989797932432,0.319978605594899,0.7032137512404851
1648295745369577941,63431,12,5,0.735077440739,0.140642747283,0.0502268671989,0.404594063759,27.2999992371,0.24584529790602005,0.047037708121404675,0.01679828334411371,27.2999992371,0.05467487348094594,0.3508452179955058,0.7500946369861098
1648295745369621762,63432,12,6,0.675900042057,0.131852582097,0.142420485616,0.485512852669,27.2999992371,0.2260535257715719,0.04409785354414715,0.04763226943678929,27.2999992371,0.06560984495527027,0.32271506583163806,0.7032137406090682
1648295745369626563,63433,12,7,0.736335813999,0.131852567196,0.39053568244,0.485512852669,27.2999992371,0.24626615852809364,0.04409784856053511,0.1306139406153846,27.2999992371,0.06560984495527027,0.3510536453592758,0.8438564153412725
1648295745369629141,63434,12,8,0.401445537806,0.0879017189145,-0.384188622236,-0.566431701183,27.2999992371,0.1342627216742475,0.02939856819882943,-0.12849117800535115,27.2999992371,-0.07654482448418919,0.19213857674838264,0.5625709994907916
1648295745369632754,63435,12,9,0.42307600379,0.316446185112,0.193273454905,-0.566431701183,27.2999992371,0.1414969912341137,0.10583484451906354,0.06463995147324414,27.2999992371,-0.07654482448418919,0.22637095964586104,0.5625709923429836
1648295745369718623,63436,12,10,0.426234990358,0.290075659752,0.0107749160379,-0.404594063759,27.2999992371,0.14255350848093645,0.09701527082006689,0.003603650848795986,27.2999992371,-0.05467487348094594,0.22372967691555756,0.5156900757253975
1648295745469359328,63437,13,0,0.0127892559394,0.0439508594573,0.0101280361414,0.0,25.1000003815,0.00427734312354515,0.014699284099431437,0.0033873030573244142,25.1000003815,0.0,0.01589529117156637,0.04688091541982003
1648295745469366482,63438,13,1,0.03342808038,0.0146502861753,-0.0294236782938,0.0,25.1000003815,0.011179959993311037,0.0048997612626421405,-0.00984069508153846,25.1000003815,0.0,0.016552663572215777,0.046880916023974664
1648295745469372384,63439,13,2,0.474926263094,-0.0,1.01999485493,0.0,25.1000003815,0.15883821508160534,-0.0,0.34113540298662204,25.1000003815,0.0,0.22463115799154096,1.125141973023895
1648295745469385221,63440,13,3,1.87431585789,-0.0586011447012,-0.00427781138569,0.0,25.1000003815,0.6268614909331104,-0.019599045050568562,-0.0014307061490602007,25.1000003815,0.0,0.886732643019675,1.8752366061296024
1648295745469491341,63441,13,4,2.24203753471,-1.2306240797,0.592618584633,0.0,25.1000003815,0.7498453293344481,-0.4115799597658863,0.1982001955294314,25.1000003815,0.0,1.1375122413100716,2.6253313542176704
1648295745469498592,63442,13,5,0.666470646858,0.128922522068,0.776492714882,0.242756426334,25.1000003815,0.22289988189230767,0.04311790035719063,0.259696560161204,25.1000003815,0.03280492247756756,0.318163272591954,1.031380180187943
1648295745469501311,63443,13,6,2.04625248909,-0.0,-1.79061961174,0.242756426334,25.1000003815,0.6843653809665552,-0.0,-0.5988694353645484,25.1000003815,0.03280492247756756,0.9678388033815324,2.719093202347968
1648295745469837960,63444,13,7,0.738689959049,0.117202289402,0.0569453574717,0.404594063759,25.1000003815,0.247053498009699,0.03919809010100334,0.01904527005742475,25.1000003815,0.05467487348094594,0.3515783725220069,0.7500946646780413
1648295745469895064,63445,13,8,0.165862336755,-1.95288312435,0.471706569195,0.566431701183,25.1000003815,0.055472353429765885,-0.6531381686789297,0.15776139437959866,25.1000003815,0.07654482448418919,0.6578326773392607,2.015879435766575
1648295745469928168,63446,13,9,0.50103533268,0.0703213736415,-0.553769350052,-0.647350490093,25.1000003815,0.16757034537792642,0.023518854060702338,-0.18520714048561873,25.1000003815,-0.08747979595851352,0.23814444733498136,0.7500946561878709
1648295745469934253,63447,13,10,0.635918438435,0.351606875658,0.186070710421,-0.647350490093,25.1000003815,0.2126817519849498,0.11759427279531771,0.062231006829765886,25.1000003815,-0.08747979595851352,0.32294808909333245,0.7500946371146542
1648295745469964576,63448,13,11,0.486019790173,0.395557701588,0.565165996552,-0.566431701183,25.1000003815,0.1625484248070234,0.13229354568160534,0.1890187279438127,25.1000003815,-0.07654482448418919,0.26522737989035006,0.8438564661030947
1648295745470075560,63449,13,12,0.71475893259,0.105482056737,-0.435989558697,-0.566431701183,25.1000003815,0.2390498102307692,0.035278279845150494,-0.1458159059187291,25.1000003815,-0.07654482448418919,0.33990319294111715,0.8438564399845916
1648295745470137428,63450,13,13,0.109180957079,0.228544458747,-0.554327130318,-0.323675245047,25.1000003815,0.03651537026053511,0.07643627382842809,-0.1853936890695652,25.1000003815,-0.04373989797932432,0.0922455879015489,0.6094519000046145
1648295745470148734,63451,13,14,0.40150603652,0.457088917494,0.0359755419195,-0.323675245047,25.1000003815,0.13428295535785953,0.15287254765685618,0.012031953819230768,25.1000003815,-0.04373989797932432,0.24379056590930576,0.6094518975885119
1648295745569464440,63452,14,0,0.0127004906535,0.0439508594573,0.0102391270921,0.0,41.2000007629,0.004247655736956521,0.014699284099431437,0.003424457221438127,41.2000007629,0.0,0.01587936118221376,0.046880915450566385
1648295745569475747,63453,14,1,0.0334906764328,0.0146502861753,-0.0293524079025,0.0,41.2000007629,0.011200895128026755,0.0048997612626421405,-0.009816858830267557,41.2000007629,0.0,0.01658094580441645,0.04688091448147568
1648295745569479271,63454,14,2,0.472863078117,1.27457487583,-0.0150401499122,0.0,41.2000007629,0.158148186661204,0.4262792226856187,-0.005030150472307692,41.2000007629,0.0,0.4813893160238492,1.359546546041262
1648295745569485596,63455,14,3,1.87146484852,-0.117202289402,0.0198812745512,0.0,41.2000007629,0.6259079760936455,-0.03919809010100334,0.006649255702742474,41.2000007629,0.0,0.8860350327965894,1.8752366039955697
1648295745569585689,63456,14,4,2.24189543724,-1.2306240797,0.593156397343,0.0,41.2000007629,0.74979780509699,-0.4115799597658863,0.19838006600100333,41.2000007629,0.0,1.1374495858443205,2.6253314626469417
1648295745569590462,63457,14,5,1.21009373665,0.386767566204,-0.88289886713,0.404594063759,41.2000007629,0.40471362429765884,0.1293537010715719,-0.2952839020501672,41.2000007629,0.05467487348094594,0.5867866864246382,1.54707026709402
1648295745569633061,63458,14,6,1.94295442104,-0.0,-1.96863925457,0.404594063759,41.2000007629,0.6498175321204013,-0.0,-0.6584077774481605,41.2000007629,0.05467487348094594,0.9189807669924858,2.7659740412507143
1648295745569642785,63459,14,7,0.707235693932,0.168478280306,0.7962911129,0.485512852669,41.2000007629,0.23653367690033444,0.05634725093846154,0.2663180979598662,41.2000007629,0.06560984495527027,0.33922171702929865,1.0782610046690297
1648295745569648464,63460,14,8,1.31109976768,0.0410208031535,0.0492553152144,0.566431701183,41.2000007629,0.4384949055785953,0.013719332158361203,0.016473349570033442,41.2000007629,0.07654482448418919,0.6202771836136114,1.312665758363026
1648295745569656511,63461,14,9,1.83363509178,-1.66134250164,0.535319924355,-0.647350490093,41.2000007629,0.6132558835384615,-0.5556329436923076,0.17903676399832774,41.2000007629,-0.08747979595851352,1.0299968570365918,2.531569469513714
1648295745569704868,63462,14,10,0.540185689926,0.0996219441295,-0.577446937561,-0.485512852669,41.2000007629,0.1806641103431438,0.033318375963043476,-0.19312606607391303,41.2000007629,-0.06560984495527027,0.2576609316698478,0.7969755812140967
1648295745569716811,63463,14,11,0.654169619083,0.398487776518,0.220090016723,-0.485512852669,41.2000007629,0.21878582578026753,0.1332735038521739,0.0736087012451505,41.2000007629,-0.06560984495527027,0.3368921221307239,0.7969755416740135
1648295745569722032,63464,14,12,0.60656529665,0.527410328388,0.482747346163,-0.485512852669,41.2000007629,0.2028646477090301,0.1763914141765886,0.16145396192742476,41.2000007629,-0.06560984495527027,0.3367819199057969,0.9376183199030722
1648295745569775765,63465,14,13,0.768306076527,0.175803437829,-0.507865190506,-0.485512852669,41.2000007629,0.256958554022408,0.05879713639765886,-0.1698545787645485,41.2000007629,-0.06560984495527027,0.3681202252242309,0.9376183273104803
1648295745569779591,63466,14,14,1.16545844078,-1.41814780235,0.941033244133,-0.404594063759,41.2000007629,0.3897854316989966,-0.47429692386287625,0.3147268375026756,41.2000007629,-0.05467487348094594,0.7272021297516484,2.062760318858922
1648295745569782039,63467,14,15,0.399927079678,0.57136118412,-0.0900794416666,-0.323675245047,41.2000007629,0.1337548761464883,0.19109069703010034,-0.030126903567424746,41.2000007629,-0.04373989797932432,0.2688798770406116,0.7032137495738748
1648295745669351739,63468,15,0,0.0126802325249,0.0439508594573,0.0102642038837,0.0,37.7999992371,0.004240880443110368,0.014699284099431437,0.0034328441082608695,37.7999992371,0.0,0.015875738940323687,0.0468809153631521
1648295745669359742,63469,15,1,0.033492513001,0.0146502861753,-0.029350310564,0.0,37.7999992371,0.011201509364882942,0.0048997612626421405,-0.009816157379264213,37.7999992371,0.0,0.01658177567493931,0.04688091341200158
1648295745669371286,63470,15,2,0.47309550643,1.27457487583,0.00252003548667,0.0,37.7999992371,0.15822592188294313,0.4262792226856187,0.000842821233,37.7999992371,0.0,0.48144040171642194,1.3595465504645923
1648295745669373286,63471,15,3,2.24288845062,-1.2306240797,0.589390397072,0.0,37.7999992371,0.7501299165953177,-0.4115799597658863,0.19712053413779262,37.7999992371,0.0,1.1378874491018367,2.625331458620558
1648295745669378762,63472,15,4,1.25712192059,0.164083212614,0.340312451124,0.404594063759,37.7999992371,0.42044211390969893,0.054877328633444813,0.11381687328561872,37.7999992371,0.05467487348094594,0.597121983765173,1.3126657564969257
1648295745669390571,63473,15,5,1.13216328621,0.0864366889,-2.52217125893,0.404594063759,37.7999992371,0.37864992849832774,0.02890859160535117,-0.8435355381036788,37.7999992371,0.05467487348094594,0.5362716134312745,2.7659741262713147
1648295745669402500,63474,15,6,1.66209387779,-1.0372402668,-1.95248281956,0.404594063759,37.7999992371,0.5558842400635451,-0.34690309926421403,-0.6530042874782608,37.7999992371,0.05467487348094594,0.8592766358869344,2.765974076222571
1648295745669405671,63475,15,7,0.268964767456,0.210964113474,-1.07195925713,0.485512852669,37.7999992371,0.08995477172441471,0.07055655969030099,-0.35851480171571903,37.7999992371,0.06560984495527027,0.1454714749609494,1.125142014260081
1648295745669414681,63476,15,8,1.02053880692,0.235869601369,0.255954891443,0.566431701183,37.7999992371,0.341317326729097,0.07888615430401337,0.08560364262307692,37.7999992371,0.07654482448418919,0.4890992336856304,1.0782610220782658
1648295745669418303,63477,15,9,1.25219810009,-1.12807202339,-1.95137393475,0.566431701183,37.7999992371,0.41879535120066885,-0.377281613173913,-0.6526334229933111,37.7999992371,0.07654482448418919,0.7022253968731786,2.5784504658895258
1648295745669431692,63478,15,10,1.29452157021,-2.0949909687,0.763959050179,0.566431701183,37.7999992371,0.43295035792976583,-0.7006658758193979,0.25550469905652173,37.7999992371,0.07654482448418919,0.930497014718902,2.578450442615473
1648295745669504545,63479,15,11,2.31734418869,-1.1485824585,-0.450598537922,-0.566431701183,37.7999992371,0.7750315012341137,-0.38414129046822737,-0.15070185214782608,37.7999992371,-0.07654482448418919,1.1614267892781718,2.625331368647901
1648295745669512952,63480,15,12,0.331629514694,0.194848805666,-0.803410828114,-0.485512852669,37.7999992371,0.11091288116856186,0.06516682463745818,-0.2686992736167224,37.7999992371,-0.06560984495527027,0.16985302308629152,0.8907374196790364
1648295745669527646,63481,15,13,0.715445935726,0.528875350952,0.0429088138044,-0.485512852669,37.7999992371,0.23927957716588627,0.17688138827826086,0.014350773847625418,37.7999992371,-0.06560984495527027,0.381833023213833,0.8907374417265469
1648295745669561105,63482,15,14,1.04113674164,-0.0673913136125,-1.88734734058,-0.485512852669,37.7999992371,0.3482062681070234,-0.02253890087374582,-0.631219846347826,37.7999992371,-0.06560984495527027,0.4929535600344489,2.1565220351152394
1648295745669630477,63483,15,15,0.41123983264,0.395557701588,-0.621698975563,-0.323675245047,37.7999992371,0.1375384055652174,0.13229354568160534,-0.20792607878361202,37.7999992371,-0.04373989797932432,0.23523436874711878,0.8438564519226243
1648295745669634309,63484,15,16,0.471856802702,0.68563336134,0.139110639691,-0.323675245047,37.7999992371,0.15781163969966552,0.2293088165016722,0.04652529755551839,37.7999992371,-0.04373989797932432,0.31998681312640315,0.8438564561071867
