%time,field.header.seq,field.header.frame_id,field.point_id,field.x,field.y,field.z,field.velocity,field.intensity,normalized_x,normalized_y,normalized_z,normalized_intensity,normalized_velocity,normalized_range,range
1648294592359471837,18110,0,0,0.00631333654746,0.0454158857465,0.00976521056145,0.0,12.6999998093,0.0021114837951371236,0.015189259446989964,0.0032659567095150496,12.6999998093,0.0,0.015479997744903816,0.04688091545405326
1648294592359476196,18111,0,1,0.0335598774254,0.0146502861753,-0.0292732641101,0.0,12.6999998093,0.01122403927270903,0.0048997612626421405,-0.009790389334481604,12.6999998093,0.0,0.016612217661152825,0.046880915621238965
1648294592359479602,18112,0,2,1.57206106186,-1.61153149605,0.65279519558,0.0,12.6999998093,0.5257729303879598,-0.5389737444983277,0.21832615236789296,12.6999998093,0.0,0.9183501760853718,2.3440459279523242
1648294592359499624,18113,0,3,0.866868913174,-0.547920703888,0.109846226871,-0.647350490093,12.6999998093,0.2899227134361204,-0.18325107153444814,0.036737868518729094,12.6999998093,-0.08747979595851352,0.4491005619578415,1.031380145210479
1648294592464544222,18114,1,0,0.0126474238932,0.0439508594573,0.0103046037257,0.0,35.0,0.004229907656588629,0.014699284099431437,0.003446355761103679,35.0,0.0,0.01586988313133818,0.04688091547861809
1648294592464548978,18115,1,1,0.0335372425616,0.0146502861753,-0.0292991939932,0.0,35.0,0.011216469084147156,0.0048997612626421405,-0.00979906153618729,35.0,0.0,0.016601988370738802,0.04688091607791967
1648294592464557797,18116,1,2,1.37254476547,-1.7580344677,0.721101224422,0.0,35.0,0.4590450720635451,-0.5879713938795986,0.2411709780675585,35.0,0.0,0.8758739158077312,2.344045925041407
1648294592464559833,18117,1,3,0.671100795269,-0.879017174244,-1.51441895962,0.161837622523,35.0,0.22444842651137123,-0.29398567700468226,-0.5064946353244146,35.0,0.021869948989594594,0.43264508619740755,1.8752365864826535
1648294592464561531,18118,1,4,0.80849725008,-0.46880915761,0.0753543078899,-0.566431701183,35.0,0.2704004180869565,-0.15679236040468228,0.02520210966217391,35.0,-0.07654482448418919,0.41329966910762644,0.9376183132615775
1648294592464654216,18119,1,5,0.836250185966,-0.351606875658,0.237036406994,-0.242756426334,35.0,0.27968233644347823,-0.11759427279531771,0.07927639029899665,35.0,-0.03280492247756756,0.41264128687181256,0.9376182734880837
1648294592659440655,18120,3,0,0.0126902572811,0.0439508594573,0.0102518079802,0.0,36.5,0.004244233204381271,0.014699284099431437,0.0034286983211371234,36.5,0.0,0.015877530791094153,0.04688091556015881
1648294592659447450,18121,3,1,0.0335877910256,0.0146502861753,-0.0292412284762,0.0,36.5,0.011233374924949833,0.0048997612626421405,-0.009779675075652174,36.5,0.0,0.016624833377807784,0.04688091332082697
1648294592659450184,18122,3,2,1.50223505497,-1.68478298187,0.631939470768,0.0,36.5,0.5024197508260869,-0.5634725691872909,0.21135099356789294,36.5,0.0,0.9068365609451468,2.3440459362167005
1648294592659452766,18123,3,3,2.23579120636,-1.2306240797,0.615765154362,0.0,36.5,0.7477562563076923,-0.4115799597658863,0.20594152319799328,36.5,0.0,1.1347585209970794,2.6253313446688273
1648294592659457149,18124,3,4,2.07060265541,-1.19546329975,-0.00132449099328,0.323675245047,36.5,0.6925092493010033,-0.39982050158862875,-0.000442973576347826,36.5,0.04373989797932432,1.05782538928949,2.3909265174648286
1648294592659459786,18125,3,5,0.69352132082,-0.660727918148,-1.66643416882,0.485512852669,36.5,0.23194693004013375,-0.22097923683879597,-0.5573358424147157,36.5,0.06560984495527027,0.3955130589802846,1.9221175935053796
1648294592659596778,18126,3,6,0.9613956213,-0.32230630517,-0.188632056117,-0.242756426334,36.5,0.321536997090301,-0.10779475089297658,-0.06308764418628762,36.5,-0.03280492247756756,0.4673240731181899,1.0313801179012891
1648294592659599262,18127,3,7,0.833259165287,-0.167013257742,0.266831219196,-0.0809188112617,36.5,0.27868199507926417,-0.05585727683678929,0.08924121043344481,36.5,-0.010934974494824324,0.3980544487106503,0.8907374272668728
1648294592761144196,18128,4,0,0.00631333654746,0.0454158857465,0.00976521056145,0.0,31.2000007629,0.0021114837951371236,0.015189259446989964,0.0032659567095150496,31.2000007629,0.0,0.015479997744903816,0.04688091545405326
1648294592761232927,18129,4,1,0.0335877910256,0.0146502861753,-0.0292412284762,0.0,31.2000007629,0.011233374924949833,0.0048997612626421405,-0.009779675075652174,31.2000007629,0.0,0.016624833377807784,0.04688091332082697
1648294592761272164,18130,4,2,0.832440495491,-0.131852567196,0.0418497845531,0.0,31.2000007629,0.27840819247190635,-0.04409784856053511,0.013996583462575249,31.2000007629,0.0,0.3961904384492589,0.8438564347545251
1648294592761277520,18131,4,3,1.58836066723,-1.61153149605,0.612068533897,0.0,31.2000007629,0.5312243034214046,-0.5389737444983277,0.20470519528327757,31.2000007629,0.0,0.9246032761945319,2.3440459172446486
1648294592761281618,18132,4,4,2.23598408699,-1.2306240797,0.615064024925,0.0,31.2000007629,0.7478207648795986,-0.4115799597658863,0.20570703174749164,31.2000007629,0.0,1.1348435381369117,2.6253312586351685
1648294592761301994,18133,4,5,0.835544586182,-0.0556710883975,0.30361020565,0.161837622523,31.2000007629,0.2794463498936455,-0.018619093109531772,0.1015418747993311,31.2000007629,0.021869948989594594,0.3956351798892319,0.8907374374956109
1648294592761311184,18134,4,6,1.00362586975,-0.032230630517,0.23545986414,0.242756426334,31.2000007629,0.33566082600334446,-0.010779475089297658,0.07874911844147156,31.2000007629,0.03280492247756756,0.47481846774287934,1.031380166376974
1648294592761428190,18135,4,7,0.937278628349,-0.0307656005025,0.299667984247,0.323675245047,31.2000007629,0.31347111316020065,-0.010289498495819397,0.10022340610267556,31.2000007629,0.04373989797932432,0.4434344949945664,0.9844991874637188
1648294592761431736,18136,4,8,1.87189078331,-0.68563336134,-1.40315270424,0.485512852669,31.2000007629,0.6260504292006689,-0.2293088165016722,-0.4692818408829431,31.2000007629,0.06560984495527027,0.914582316213298,2.437807564644785
1648294592761434248,18137,4,9,0.928079426289,1.72287368774,-0.21755386889,0.566431701183,31.2000007629,0.3103944569528428,0.5762119356989966,-0.07276049126755853,31.2000007629,0.07654482448418919,0.7243684370926753,1.9689984386171446
1648294592861166341,18138,5,0,0.00631333654746,0.0454158857465,0.00976521056145,0.0,23.1000003815,0.0021114837951371236,0.015189259446989964,0.0032659567095150496,23.1000003815,0.0,0.015479997744903816,0.04688091545405326
1648294592861175312,18139,5,1,0.0335372425616,0.0146502861753,-0.0292991939932,0.0,23.1000003815,0.011216469084147156,0.0048997612626421405,-0.00979906153618729,23.1000003815,0.0,0.016601988370738802,0.04688091607791967
1648294592861181326,18140,5,2,0.88297611475,-0.0556710883975,-0.103281624615,0.0,23.1000003815,0.29530973737458194,-0.018619093109531772,-0.03454234936956521,23.1000003815,0.0,0.4180458738041921,0.8907374379049537
1648294592861186896,18141,5,3,1.49120104313,-1.68478298187,0.657553911209,0.0,23.1000003815,0.4987294458628762,-0.5634725691872909,0.21991769605652173,23.1000003815,0.0,0.9027532645013862,2.3440459451932725
1648294592861189335,18142,5,4,2.23651456833,-1.2306240797,0.613133192062,0.0,23.1000003815,0.7479981833879599,-0.4115799597658863,0.2050612682481605,23.1000003815,0.0,1.135077366519245,2.6253314745185867
1648294592861197885,18143,5,5,0.837493121624,0.0278355441988,0.302065581083,0.161837622523,23.1000003815,0.28009803398795985,0.009309546554782609,0.1010252779541806,23.1000003815,0.021869948989594594,0.39622781949895475,0.8907374257116212
1648294592861338038,18144,5,6,1.00715494156,0.064461261034,0.212670326233,0.161837622523,23.1000003815,0.3368411175785953,0.021558950178595316,0.07112719940903009,23.1000003815,0.021869948989594594,0.476852875964901,1.0313801424028248
1648294592861424730,18145,5,7,1.37409615517,0.0849716588855,-2.34480428696,0.242756426334,23.1000003815,0.4595639314949832,0.028418615011872907,-0.7842154805886288,23.1000003815,0.03280492247756756,0.6505425673554684,2.7190931522499784
1648294592861433053,18146,5,8,2.57380270958,-0.76474493742,0.42915341258,0.242756426334,23.1000003815,0.8608035817993309,-0.2557675375986622,0.14352956942474915,23.1000003815,0.03280492247756756,1.2439383610800006,2.7190932052211685
1648294592861476112,18147,5,9,2.07673931122,-0.155293032527,-1.35525465012,0.404594063759,23.1000003815,0.6945616425484948,-0.051937469072575244,-0.4532624247892976,23.1000003815,0.05467487348094594,0.9836306478007845,2.4846885638626492
1648294592861586103,18148,5,10,0.233727261424,1.99829912186,0.455139875412,0.566431701183,23.1000003815,0.07816965265016722,0.6683274655050166,0.15222069411772574,23.1000003815,0.07654482448418919,0.6774087321102783,2.0627603155357774
1648294592961117138,18149,6,0,0.0125969899818,0.0439508594573,0.0103661967441,0.0,22.0,0.004213040127692308,0.014699284099431437,0.003466955432809364,22.0,0.0,0.015860906886773187,0.04688091550486504
1648294592961123105,18150,6,1,0.0335651524365,0.0146502861753,-0.0292672142386,0.0,22.0,0.011225803490468226,0.0048997612626421405,-0.009788365966086955,22.0,0.0,0.01661460166372055,0.046880914799007266
1648294592961127536,18151,6,2,0.842053592205,0.0527410283685,-0.0160574708134,0.0,22.0,0.2816232749849498,0.017639139922575247,-0.0053703915763879595,22.0,0.0,0.39866587173183704,0.843856451410804
1648294592961251334,18152,6,3,1.48483705521,-1.68478298187,0.671801030636,0.0,22.0,0.49660102180936455,-0.5634725691872909,0.22468261894180602,22.0,0.0,0.9004035128489539,2.3440459469231967
1648294592961253413,18153,6,4,2.2367811203,-1.2306240797,0.612159967422,0.0,22.0,0.7480873312040133,-0.4115799597658863,0.20473577505752505,22.0,0.0,1.135194861465103,2.625331451718449
1648294592961254521,18154,6,5,0.877955675125,0.146502867341,0.294718325138,0.242756426334,22.0,0.29363066057692305,0.04899761449531772,0.09856800171839464,22.0,0.03280492247756756,0.4181371735303047,0.937618338555447
1648294592961258567,18155,6,6,1.02367937565,0.101086974144,0.323277890682,0.242756426334,22.0,0.3423676841638796,0.03380835255652174,0.10811969588026756,22.0,0.03280492247756756,0.48535993553450835,1.07826093088666
1648294592961381485,18156,6,7,0.988512337208,-1.1896032095,-2.23632621765,0.323675245047,22.0,0.33060613284548496,-0.39786060518394645,-0.7479351898494982,22.0,0.04373989797932432,0.6139168439678366,2.71909311878315
1648294592961384659,18157,6,8,1.79164421558,-0.0,-2.04535531998,0.323675245047,22.0,0.5992121122341137,-0.0,-0.6840653244080267,22.0,0.04373989797932432,0.8474138958597128,2.7190931172344506
1648294592961385830,18158,6,9,2.37438249588,0.870226979256,0.117712676525,0.404594063759,22.0,0.7941078581538461,0.29104581246020067,0.039368788135451506,22.0,0.05467487348094594,1.1601388906997283,2.5315693761738074
1648294592961386933,18159,6,10,0.630010724068,-1.34489631653,-2.05016684532,0.404594063759,22.0,0.21070592778193978,-0.44979809917391306,-0.6856745302073579,22.0,0.05467487348094594,0.5395482425375523,2.5315694160551887
1648294592961387897,18160,6,11,0.0141927413642,-2.08913064003,0.534713923931,0.566431701183,22.0,0.004746736242207357,-0.6987058996755853,0.17883408827123745,22.0,0.07654482448418919,0.6987381464120699,2.156522025267833
1648294593061134974,18161,7,0,0.00631333654746,0.0454158857465,0.00976521056145,0.0,25.0,0.0021114837951371236,0.015189259446989964,0.0032659567095150496,25.0,0.0,0.015479997744903816,0.04688091545405326
1648294593061215204,18162,7,1,0.0335651524365,0.0146502861753,-0.0292672142386,0.0,25.0,0.011225803490468226,0.0048997612626421405,-0.009788365966086955,25.0,0.0,0.01661460166372055,0.046880914799007266
1648294593061217563,18163,7,2,0.395042926073,-0.606521844864,-0.433781087399,0.0,25.0,0.13212137995752507,-0.20285011533913042,-0.1450772867555184,25.0,0.0,0.2757902960164841,0.8438564412994705
1648294593061223267,18164,7,3,1.49509751797,-1.68478298187,0.648645579815,0.0,25.0,0.5000326147056855,-0.5634725691872909,0.2169383210083612,25.0,0.0,0.9041938773102455,2.3440459407725696
1648294593061254097,18165,7,4,2.23697090149,-1.2306240797,0.611465454102,0.0,25.0,0.7481508031739129,-0.4115799597658863,0.20450349635518394,25.0,0.0,1.1352785173077269,2.6253313012285933
1648294593061263510,18166,7,5,0.911227941513,0.215359210968,0.304175466299,0.242756426334,25.0,0.30475850886722405,0.07202649196254181,0.10173092518361203,25.0,0.03280492247756756,0.43697060884958594,0.9844991952464933
1648294593061268855,18167,7,6,0.892535746098,0.263705164194,0.11387552321,0.485512852669,25.0,0.29850693849431437,0.0881957070882943,0.038085459267558526,25.0,0.06560984495527027,0.43126704883088507,0.9376183159855876
1648294593061271651,18168,7,7,1.75944948196,0.4321834445,-2.09001612663,0.485512852669,25.0,0.5884446427959865,0.14454295802675585,-0.6990020490401337,25.0,0.06560984495527027,0.8446459980285924,2.7659740452221646
1648294593061364441,18169,7,8,1.25872087479,-0.9508035779,-2.2720489502,0.485512852669,25.0,0.4209768812006689,-0.3179945076588629,-0.7598825920401336,25.0,0.06560984495527027,0.6749544991420435,2.765973990565433
1648294593061426786,18170,7,9,1.00047767162,-1.04749548435,-2.13312077522,0.566431701183,25.0,0.3346079169297658,-0.35033293790969894,-0.7134183194715719,25.0,0.07654482448418919,0.5887767688424834,2.5784504266747095
1648294593061435000,18171,7,10,2.46805238724,0.64461261034,0.376296073198,0.566431701183,25.0,0.8254355810167224,0.21558950178595315,0.12585152949765885,25.0,0.07654482448418919,1.1870832448051585,2.5784504529415817
1648294593061443640,18172,7,11,1.76057052612,-1.30827057362,0.209294974804,-0.647350490093,25.0,0.5888195739531772,-0.4375486868294314,0.06999831933244147,25.0,-0.08747979595851352,0.9406730753492214,2.2034030175436956
1648294593164434073,18173,8,0,0.0126678450033,0.0439508594573,0.0102794887498,0.0,25.1000003815,0.004236737459297658,0.014699284099431437,0.0034379561036120398,25.1000003815,0.0,0.015873526439762208,0.046880915445629195
1648294593164442140,18174,8,1,0.033601410687,0.0146502861753,-0.0292255785316,0.0,25.1000003815,0.011237929995652172,0.0048997612626421405,-0.009774440980468226,25.1000003815,0.0,0.01663098919503125,0.04688091430082548
1648294593164445499,18175,8,2,1.50594246387,-1.68478298187,0.623052954674,0.0,25.1000003815,0.5036596869130434,-0.5634725691872909,0.20837891460668895,25.1000003815,0.0,0.9082111520286548,2.344045943409305
1648294593164448208,18176,8,3,2.19361186028,-1.31266570091,0.597779870033,0.0,25.1000003815,0.7336494515986621,-0.4390186290668896,0.19992637793745818,25.1000003815,0.0,1.126596818888553,2.6253314093506925
1648294593164453110,18177,8,4,0.9310323596,0.290075659752,0.335827171803,0.242756426334,25.1000003815,0.3113820600668896,0.09701527082006689,0.11231677986722406,25.1000003815,0.03280492247756756,0.45092076624978256,1.0313801589734521
1648294593164584370,18178,8,5,0.91781771183,0.451228827238,0.133222326636,0.485512852669,25.1000003815,0.30696244542809364,0.15091265125016723,0.044555962085618725,25.1000003815,0.06560984495527027,0.45959385778505063,1.0313801408761694
1648294593164600352,18179,8,6,0.939998805523,0.128922522068,-0.404383808374,0.485512852669,25.1000003815,0.31438087141237453,0.04311790035719063,-0.13524542086086955,25.1000003815,0.06560984495527027,0.44668760666848656,1.0313801605402833
1648294593164608668,18180,8,7,0.835102260113,0.306190997362,-0.0475864224136,0.566431701183,25.1000003815,0.2792984147535117,0.10240501584013377,-0.015915191442675582,25.1000003815,0.07654482448418919,0.4080465613589549,0.8907374356731071
1648294593164613247,18181,8,8,1.49004042149,-0.79111546278,-2.25079298019,0.566431701183,25.1000003815,0.498341278090301,-0.26458711129765883,-0.7527735719698996,25.1000003815,0.07654482448418919,0.7527910721854963,2.8128549860944294
1648294593164623904,18182,8,9,2.40109753609,-1.16909277439,0.0931134149432,-0.647350490093,25.1000003815,0.8030426542107023,-0.39100092788963203,0.031141610348896318,25.1000003815,-0.08747979595851352,1.201098136945559,2.6722120800922147
1648294593164638271,18183,8,10,1.54914414883,0.656332850456,-2.01537704468,-0.566431701183,25.1000003815,0.5181084109799331,0.21950931453377925,-0.6740391453779264,25.1000003815,-0.07654482448418919,0.7648901818061153,2.6253314146341626
1648294593359745590,18184,10,0,0.0127105498686,0.0439508594573,0.010226637125,0.0,20.2000007629,0.004251020022943143,0.014699284099431437,0.0034202799749163877,20.2000007629,0.0,0.015881161654826288,0.046880915433510174
1648294593359762668,18185,10,1,0.0335372425616,0.0146502861753,-0.0292991939932,0.0,20.2000007629,0.011216469084147156,0.0048997612626421405,-0.00979906153618729,20.2000007629,0.0,0.016601988370738802,0.04688091607791967
1648294593359764112,18186,10,2,0.432381331921,-0.668053030968,-0.400205820799,0.0,20.2000007629,0.14460914111070233,-0.22342910734715715,-0.13384810060167224,20.2000007629,0.0,0.30289300651467266,0.8907374289770869
1648294593359765325,18187,10,3,1.50104796886,-1.68478298187,0.63475394249,0.0,20.2000007629,0.5020227320602006,-0.5634725691872909,0.21229228845819395,20.2000007629,0.0,0.9063967030152429,2.3440459185613447
1648294593359766551,18188,10,4,2.24106574059,-1.2306240797,0.596282601357,0.0,20.2000007629,0.7495203145785952,-0.4115799597658863,0.1994256191829431,20.2000007629,0.0,1.1370837555839417,2.625331259072795
1648294593359767878,18189,10,5,0.874142467976,0.668053030968,0.23563657701,0.404594063759,20.2000007629,0.2923553404602007,0.22342910734715715,0.07880821973578594,20.2000007629,0.05467487348094594,0.4699615475771897,1.1251419923412749
1648294593359768936,18190,10,6,0.885487794876,0.515690088272,0.11713296175,0.485512852669,20.2000007629,0.29614976417257527,0.17247160142876253,0.03917490359531772,20.2000007629,0.06560984495527027,0.45294129745293243,1.0313801591773382
1648294593359770003,18191,10,7,1.03472316265,0.549385726452,-0.0340737849474,0.566431701183,20.2000007629,0.3460612584113712,0.1837410456361204,-0.01139591469812709,20.2000007629,0.07654482448418919,0.5227595632774006,1.1720229189628724
1648294593359771085,18192,10,8,2.17286252975,0.9713139534,-0.227480366826,-0.647350490093,20.2000007629,0.7267098761705686,0.3248541650167224,-0.07608039024280937,20.2000007629,-0.08747979595851352,1.0778426215252384,2.3909265330729843
1648294593464442780,18193,11,0,0.00628323899582,0.0454158857465,0.00978460349143,0.0,24.0,0.002101417724354515,0.015189259446989964,0.0032724426392742472,24.0,0.0,0.01547725800820147,0.0468809154763667
1648294593464464765,18194,11,1,0.0335372425616,0.0146502861753,-0.0292991939932,0.0,24.0,0.011216469084147156,0.0048997612626421405,-0.00979906153618729,24.0,0.0,0.016601988370738802,0.04688091607791967
1648294593464468054,18195,11,2,1.51311588287,-1.68478298187,0.605423629284,0.0,24.0,0.5060588237023411,-0.5634725691872909,0.2024828191585284,24.0,0.0,0.9108745261124173,2.3440458915916382
1648294593464493934,18196,11,3,2.24005746841,-1.2306240797,0.600059747696,0.0,24.0,0.7491830998026755,-0.4115799597658863,0.20068887882809364,24.0,0.0,1.136639211597409,2.6253313672985885
1648294593464540563,18197,11,4,0.872036576271,0.668053030968,0.243314430118,0.485512852669,24.0,0.29165102885317723,0.22342910734715715,0.08137606358461538,24.0,0.06560984495527027,0.469085505288941,1.1251420152334666
1648294593464549475,18198,11,5,0.255818724632,0.457088917494,-0.995776593685,-0.647350490093,24.0,0.08555810188361204,0.15287254765685618,-0.3330356500618729,24.0,-0.08747979595851352,0.19496254364095386,1.1251420012154383
1648294593464556911,18199,11,6,0.692599475384,0.879017174244,0.116530001163,-0.647350490093,24.0,0.2316386205297659,0.29398567700468226,0.038973244536120395,24.0,-0.08747979595851352,0.4401596066494143,1.1251419764141535
1648294593464573098,18200,11,7,0.837148547173,0.949338555336,-0.0122323166579,-0.566431701183,24.0,0.2799827916966555,0.3175045335571906,-0.004091075805317725,24.0,-0.07654482448418919,0.5075331083997129,1.265784741672978
1648294593659475783,18201,13,0,0.00631333654746,0.0454158857465,0.00976521056145,0.0,25.2999992371,0.0021114837951371236,0.015189259446989964,0.0032659567095150496,25.2999992371,0.0,0.015479997744903816,0.04688091545405326
1648294593659484306,18202,13,1,0.0335651524365,0.0146502861753,-0.0292672142386,0.0,25.2999992371,0.011225803490468226,0.0048997612626421405,-0.009788365966086955,25.2999992371,0.0,0.01661460166372055,0.046880914799007266
1648294593659486648,18203,13,2,1.51716351509,-1.68478298187,0.595208108425,0.0,25.2999992371,0.5074125468528428,-0.5634725691872909,0.19906625699832775,25.2999992371,0.0,0.9123794833477477,2.3440459722142566
1648294593659488531,18204,13,3,2.23849630356,-1.2306240797,0.605857074261,0.0,25.2999992371,0.7486609710903009,-0.4115799597658863,0.20262778403377923,25.2999992371,0.0,1.1359509507670802,2.6253312402478577
1648294593659495618,18205,13,4,0.889197766781,0.870226979256,0.232901990414,0.485512852669,25.2999992371,0.29739055745183945,0.29104581246020067,0.07789364227892977,25.2999992371,0.06560984495527027,0.5114586515776715,1.2657847372330508
1648294593659669875,18206,13,5,0.800197482109,0.83799636364,0.378381460905,0.566431701183,25.2999992371,0.26762457595618727,0.28026634235451503,0.12654898358026756,25.2999992371,0.07654482448418919,0.47095121824689695,1.21890378857564
1648294593659674759,18207,13,6,0.602249026299,1.10756158829,-0.113200753927,-0.161837622523,25.2999992371,0.2014210790297659,0.37042193588294314,-0.03785978392207358,25.2999992371,-0.021869948989594594,0.4672829043933639,1.2657847258610773
1648294593764446403,18208,14,0,0.0126902572811,0.0439508594573,0.0102518079802,0.0,28.0,0.004244233204381271,0.014699284099431437,0.0034286983211371234,28.0,0.0,0.015877530791094153,0.04688091556015881
1648294593764452707,18209,14,1,0.0335372425616,0.0146502861753,-0.0292991939932,0.0,28.0,0.011216469084147156,0.0048997612626421405,-0.00979906153618729,28.0,0.0,0.016601988370738802,0.04688091607791967
1648294593764461646,18210,14,2,0.293651342392,-0.632892370224,-0.47466814518,0.0,28.0,0.09821115130167224,-0.21166968903812708,-0.15875188802006687,28.0,0.0,0.25316974095949407,0.8438564517884531
1648294593764477416,18211,14,3,1.50933885574,-1.68478298187,0.614779531956,0.0,28.0,0.5047956039264214,-0.5634725691872909,0.2056118835973244,28.0,0.0,0.9094715716906204,2.3440459360595605
1648294593764479300,18212,14,4,2.23879718781,-1.2306240797,0.604744434357,0.0,28.0,0.7487616012742474,-0.4115799597658863,0.20225566366454847,28.0,0.0,1.1360835947968084,2.6253312752049416
1648294593959511579,18213,16,0,0.00631333654746,0.0454158857465,0.00976521056145,0.0,14.8999996185,0.0021114837951371236,0.015189259446989964,0.0032659567095150496,14.8999996185,0.0,0.015479997744903816,0.04688091545405326
1648294593959518428,18214,16,1,0.0335877910256,0.0146502861753,-0.0292412284762,0.0,14.8999996185,0.011233374924949833,0.0048997612626421405,-0.009779675075652174,14.8999996185,0.0,0.016624833377807784,0.04688091332082697
1648294593959527027,18215,16,2,0.30519092083,-0.668053030968,-0.503961145878,0.0,14.8999996185,0.10207054208361203,-0.22342910734715715,-0.16854887822006687,14.8999996185,0.0,0.2660025509885804,0.8907374399323639
1648294593959528910,18216,16,3,1.5110155344,-1.68478298187,0.610646784306,0.0,14.8999996185,0.5053563660200668,-0.5634725691872909,0.20422969374782604,14.8999996185,0.0,0.9100941981907927,2.344045890416855
1648294593959685096,18217,16,4,2.23727703094,-1.2306240797,0.610345065594,0.0,14.8999996185,0.7482531876053511,-0.4115799597658863,0.20412878447959865,14.8999996185,0.0,1.1354134616094818,2.6253314529415364
1648294593959689773,18218,16,5,0.938609719276,1.08998131752,0.20750311017,0.323675245047,14.8999996185,0.3139162940722408,0.3645422466622073,0.06939903350167224,14.8999996185,0.04373989797932432,0.5744370539664277,1.4533083012190597
