%time,field.header.seq,field.header.frame_id,field.point_id,field.x,field.y,field.z,field.velocity,field.intensity,normalized_x,normalized_y,normalized_z,normalized_intensity,normalized_velocity,normalized_range,range
1648219768762509227,87201,0,0,0.012225298211,0.0439508594573,0.0108020491898,0.0,36.5,0.004088728498662207,0.014699284099431437,0.0036127254815384612,36.5,0.0,0.015795706837851316,0.04688091541429279
1648219768762512367,87202,0,1,0.0334108844399,0.0146502861753,-0.0294432006776,0.0,36.5,0.011174208842775918,0.0048997612626421405,-0.009847224306889632,36.5,0.0,0.01654489489101794,0.04688091456249508
1648219768762528094,87203,0,2,1.19004511833,-0.817485928535,-0.166176393628,0.0,36.5,0.3980084007792642,-0.2734066650618729,-0.05557738917324414,36.5,0.0,0.6257576037748083,1.453308370860432
1648219768762535341,87204,0,3,1.17991983891,-0.796975553036,0.472426712513,0.161837622523,36.5,0.3946220197023411,-0.2665470077043478,0.1580022449876254,36.5,0.021869948989594594,0.6184661544369678,1.5001892737539084
1648219768762621992,87205,0,4,1.13324892521,-0.514225065708,0.231366127729,0.242756426334,36.5,0.3790130184648829,-0.17198162732709027,0.07737997582909699,36.5,0.03280492247756756,0.562920435292411,1.265784669583389
1648219768762816144,87206,0,5,1.0661791563,-0.835066318512,0.379426538944,-0.161837622523,36.5,0.35658165762541805,-0.2792863941511705,0.12689850800802677,36.5,-0.021869948989594594,0.576456283743828,1.4064274770128702
1648219768958219610,87207,2,0,0.0122046079487,0.0439508594573,0.0108254207298,0.0,26.7000007629,0.0040818086784949826,0.014699284099431437,0.0036205420501003345,26.7000007629,0.0,0.0157921270641884,0.046880915479478334
1648219768958256483,87208,2,1,0.0333878919482,0.0146502861753,-0.0294692683965,0.0,26.7000007629,0.011166519046220735,0.0048997612626421405,-0.009855942607525084,26.7000007629,0.0,0.016534508025644712,0.04688091289200561
1648219768958274118,87209,2,2,1.33536410332,-0.254914969206,-0.0137146264315,0.0,26.7000007629,0.446610068,-0.0852558425438127,-0.004586831582441471,26.7000007629,0.0,0.6373301062760057,1.3595466233046514
1648219768958304565,87210,2,3,2.06828188896,-1.19546329975,0.0980192646384,0.0,26.7000007629,0.6917330732307692,-0.39982050158862875,0.03278236275531772,26.7000007629,0.0,1.056809217736651,2.3909266507965814
1648219768958347301,87211,2,4,1.20228254795,-0.492249637842,0.187878370285,0.161837622523,26.7000007629,0.4021011866053511,-0.16463198590033443,0.06283557534615385,26.7000007629,0.021869948989594594,0.5920088000362417,1.3126657278536953
1648219768958363020,87212,2,5,1.16893815994,-0.862901806831,-0.0330009460449,-0.161837622523,26.7000007629,0.3909492173712374,-0.28859592201705686,-0.01103710570063545,26.7000007629,-0.021869948989594594,0.6236747448239677,1.4533082991698547
1648219769062828290,87213,3,0,0.0122700566426,0.0439508594573,0.0107511812821,0.0,30.8999996185,0.004103697873779264,0.014699284099431437,0.0035957128033779263,30.8999996185,0.0,0.015803468781072045,0.04688091547750029
1648219769062837040,87214,3,1,0.0333878919482,0.0146502861753,-0.0294692683965,0.0,30.8999996185,0.011166519046220735,0.0048997612626421405,-0.009855942607525084,30.8999996185,0.0,0.016534508025644712,0.04688091289200561
1648219769062907965,87215,3,2,1.30293428898,-0.38237246871,0.0672340914607,0.0,30.8999996185,0.4357639762474916,-0.1278837687993311,0.022486318214280935,30.8999996185,0.0,0.6293923611805037,1.3595465748850768
1648219769062963689,87216,3,3,2.10625958443,-1.12074685097,0.155326530337,0.0,30.8999996185,0.7044346436220735,-0.3748317227324415,0.0519486723535117,30.8999996185,0.0,1.0644036615102774,2.3909264463778346
1648219769063206466,87217,3,4,1.17755758762,-0.492249637842,0.306821972132,0.161837622523,30.8999996185,0.3938319691036789,-0.16463198590033443,0.10261604419130435,30.8999996185,0.021869948989594594,0.5807847540678476,1.3126657231374574
1648219769258010330,87218,5,0,0.0122477002442,0.0439508594573,0.01077664271,0.0,33.0,0.004096220817458194,0.014699284099431437,0.0036042283311036784,33.0,0.0,0.015799588697385562,0.04688091548174064
1648219769258149041,87219,5,1,0.0333878919482,0.0146502861753,-0.0294692683965,0.0,33.0,0.011166519046220735,0.0048997612626421405,-0.009855942607525084,33.0,0.0,0.016534508025644712,0.04688091289200561
1648219769258177922,87220,5,2,1.30688345432,-0.339886635542,0.157795593143,0.0,33.0,0.4370847673311037,-0.11367446004749163,0.05277444586722408,33.0,0.0,0.6284966750372343,1.3595465190315434
1648219769258231930,87221,5,3,2.11197400093,-1.14272224903,0.420306175947,0.0,33.0,0.7063458197090301,-0.3821813541906354,0.1405706274070234,33.0,0.0,1.0695379476820033,2.437807539690458
1648219769258251740,87222,5,4,0.329745143652,-0.533270418644,-1.04528331757,0.404594063759,33.0,0.11028265673979931,-0.1783513105832776,-0.3495930827993311,33.0,0.05467487348094594,0.23692555527411888,1.218903775182016
1648219769362959379,87223,6,0,0.0122477002442,0.0439508594573,0.01077664271,0.0,35.0999984741,0.004096220817458194,0.014699284099431437,0.0036042283311036784,35.0999984741,0.0,0.015799588697385562,0.04688091548174064
1648219769362970251,87224,6,1,0.0333878919482,0.0146502861753,-0.0294692683965,0.0,35.0999984741,0.011166519046220735,0.0048997612626421405,-0.009855942607525084,35.0999984741,0.0,0.016534508025644712,0.04688091289200561
1648219769362999110,87225,6,2,1.76572442055,-1.46502864361,0.480062007904,0.0,35.0999984741,0.5905432844648829,-0.489976134986622,0.16055585548628762,35.0999984741,0.0,0.9682764866036827,2.3440459012905888
1648219769557907958,87226,8,0,0.0122477002442,0.0439508594573,0.01077664271,0.0,12.1000003815,0.004096220817458194,0.014699284099431437,0.0036042283311036784,12.1000003815,0.0,0.015799588697385562,0.04688091548174064
1648219769557946506,87227,8,1,0.0333878919482,0.0146502861753,-0.0294692683965,0.0,12.1000003815,0.011166519046220735,0.0048997612626421405,-0.009855942607525084,12.1000003815,0.0,0.016534508025644712,0.04688091289200561
1648219769557964368,87228,8,2,1.23749041557,-0.467344135046,0.313964664936,0.0,12.1000003815,0.413876393167224,-0.15630238630301002,0.10500490466086956,12.1000003815,0.0,0.6058199184627694,1.3595465714781085
1648219769557977320,87229,8,3,2.14256763458,-1.14272224903,0.215628057718,0.0,12.1000003815,0.7165778042073578,-0.3821813541906354,0.07211640726354515,12.1000003815,0.0,1.0830651349093758,2.4378075532029095
1648219769557999732,87230,8,4,1.89819526672,-1.24527442455,0.58369332552,0.242756426334,12.1000003815,0.6348479152909698,-0.4164797406521739,0.19521515903678927,12.1000003815,0.03280492247756756,0.9897065855455762,2.3440459810535166
1648219769558167836,87231,8,5,0.983098983765,-0.512760043144,-2.06522274017,0.242756426334,12.1000003815,0.32879564674414713,-0.17149165322541807,-0.6907099465451504,12.1000003815,0.03280492247756756,0.4956032099994824,2.344045955232127
1648219769558181348,87232,8,6,0.884952843189,-0.293005734682,0.100668936968,-0.485512852669,12.1000003815,0.2959708505648829,-0.09799522899063544,0.03366854079197324,12.1000003815,-0.06560984495527027,0.42988434918373986,0.9376183285831717
1648219769662907787,87233,9,0,0.0122609948739,0.0439508594573,0.0107615143061,0.0,36.4000015259,0.004100667181906354,0.014699284099431437,0.003599168664247491,36.4000015259,0.0,0.01580189532016098,0.046880915440011765
1648219769662924749,87234,9,1,0.0333878919482,0.0146502861753,-0.0294692683965,0.0,36.4000015259,0.011166519046220735,0.0048997612626421405,-0.009855942607525084,36.4000015259,0.0,0.016534508025644712,0.04688091289200561
1648219769662950866,87235,9,2,2.07053089142,-1.19546329975,0.017298778519,0.0,36.4000015259,0.6924852479665551,-0.39982050158862875,0.005785544655183946,36.4000015259,0.0,1.0577939642450156,2.3909265821249943
1648219769662960339,87236,9,3,1.19148564339,-0.228544458747,0.117710113525,0.161837622523,36.4000015259,0.39849018173578593,-0.07643627382842809,0.039367930944816054,36.4000015259,0.021869948989594594,0.568710254731189,1.2189037200921613
1648219769662984637,87237,9,4,1.00385510921,-0.225614413619,-0.0715403854847,-0.647350490093,36.4000015259,0.33573749471906356,-0.07545632562508361,-0.023926550329331102,36.4000015259,-0.08747979595851352,0.4807629226524287,1.031380129086733
1648219769663040908,87238,9,5,0.966167747974,-0.184593603015,-0.0410345196724,-0.566431701183,36.4000015259,0.32313302607826083,-0.06173699097491638,-0.013723919622876253,36.4000015259,-0.07654482448418919,0.461130525057304,0.9844992368224339
1648219769663053438,87239,9,6,0.912044405937,-0.146502867341,0.160748168826,-0.323675245047,36.4000015259,0.3050315738919732,-0.04899761449531772,0.05376192937324414,36.4000015259,-0.04373989797932432,0.4341535308715805,0.9376182924415575
1648219769663201094,87240,9,7,1.24116384983,-0.509829938412,0.218981012702,-0.0809188112617,36.4000015259,0.41510496649832773,-0.1705116850876254,0.073237796890301,36.4000015259,-0.010934974494824324,0.6113088427092946,1.359546598006116
1648219769857935712,87241,11,0,0.012225298211,0.0439508594573,0.0108020491898,0.0,13.1999998093,0.004088728498662207,0.014699284099431437,0.0036127254815384612,13.1999998093,0.0,0.015795706837851316,0.04688091541429279
1648219769857977764,87242,11,1,0.0333878919482,0.0146502861753,-0.0294692683965,0.0,13.1999998093,0.011166519046220735,0.0048997612626421405,-0.009855942607525084,13.1999998093,0.0,0.016534508025644712,0.04688091289200561
1648219769858035819,87243,11,2,1.26476299763,-0.467344135046,0.174158126116,0.0,13.1999998093,0.4229976580702341,-0.15630238630301002,0.05824686492173913,13.1999998093,0.0,0.6182915763859481,1.359546627971308
1648219769858051074,87244,11,3,2.1464509964,-1.14272224903,0.172743111849,0.0,13.1999998093,0.7178765874247491,-0.3821813541906354,0.05777361600301002,13.1999998093,0.0,1.0847839310370497,2.437807662853247
1648219769858198992,87245,11,4,0.985040664673,0.290075659752,-0.0964160487056,0.0809188112617,13.1999998093,0.32944503835217387,0.09701527082006689,-0.032246170135652175,13.1999998093,0.010934974494824324,0.47589917982911206,1.0313801694273477
1648219769858216959,87246,11,5,0.813597202301,0.105482056737,0.197552204132,-0.323675245047,13.1999998093,0.2721060877260869,0.035278279845150494,0.06607097128160534,13.1999998093,-0.04373989797932432,0.386429816375531,0.8438564719446626
1648219769858238454,87247,11,6,0.926094770432,0.146502867341,-0.00367219978943,-0.242756426334,13.1999998093,0.3097306924521739,0.04899761449531772,-0.0012281604646923075,13.1999998093,-0.03280492247756756,0.44075726870924997,0.9376183120075711
1648219769858256305,87248,11,7,0.885370790958,0.083506628871,0.0505801513791,-0.161837622523,13.1999998093,0.29611063242742475,0.027928638418394644,0.016916438588327757,13.1999998093,-0.021869948989594594,0.41969396245007423,0.8907374171216376
1648219769962870921,87249,12,0,0.0122477002442,0.0439508594573,0.01077664271,0.0,36.2000007629,0.004096220817458194,0.014699284099431437,0.0036042283311036784,36.2000007629,0.0,0.015799588697385562,0.04688091548174064
1648219769962905444,87250,12,1,0.0333878919482,0.0146502861753,-0.0294692683965,0.0,36.2000007629,0.011166519046220735,0.0048997612626421405,-0.009855942607525084,36.2000007629,0.0,0.016534508025644712,0.04688091289200561
1648219769962915804,87251,12,2,1.57887768745,-1.61153149605,0.636130988598,0.0,36.2000007629,0.5280527382775919,-0.5389737444983277,0.2127528389959866,36.2000007629,0.0,0.9209625866795429,2.344045893181974
1648219769962952262,87252,12,3,2.14616847038,-1.14272224903,0.176216796041,0.0,36.2000007629,0.7177820971170569,-0.3821813541906354,0.05893538329130434,36.2000007629,0.0,1.0846588705092988,2.437807539755419
1648219769962995700,87253,12,4,0.788582623005,0.290075659752,0.0780210793018,0.404594063759,36.2000007629,0.2637400076939799,0.09701527082006689,0.026094006455451502,36.2000007629,0.05467487348094594,0.38539531145193257,0.8438564632100781
1648219769963029800,87254,12,5,1.28639805317,-0.424858301878,0.114203743637,-0.0809188112617,36.2000007629,0.4302334625986622,-0.14209307755117057,0.03819523198561873,36.2000007629,-0.010934974494824324,0.624813658115147,1.3595466240386644
1648219770157910827,87255,14,0,0.0122477002442,0.0439508594573,0.01077664271,0.0,17.7999992371,0.004096220817458194,0.014699284099431437,0.0036042283311036784,17.7999992371,0.0,0.015799588697385562,0.04688091548174064
1648219770157961271,87256,14,1,0.0333878919482,0.0146502861753,-0.0294692683965,0.0,17.7999992371,0.011166519046220735,0.0048997612626421405,-0.009855942607525084,17.7999992371,0.0,0.016534508025644712,0.04688091289200561
1648219770158170424,87257,14,2,0.627137601376,0.399952799082,-0.644961118698,0.0,17.7999992371,0.2097450171826087,0.13376347795384613,-0.21570605976521737,17.7999992371,0.0,0.3253899391502059,0.9844991910536773
1648219770158199549,87258,14,3,0.527323365211,0.769140005112,0.315582722425,0.0,17.7999992371,0.17636232950200667,0.2572374599036789,0.10554606101170569,17.7999992371,0.0,0.3582993906113232,0.9844992298901587
1648219770158229486,87259,14,4,2.1343562603,-1.14272224903,0.285684108734,0.0,17.7999992371,0.7138315251839464,-0.3821813541906354,0.09554652466020067,17.7999992371,0.0,1.0794320173979768,2.437807661464112
1648219770158258803,87260,14,5,1.19885790348,-0.39555773139,-0.092112660408,0.161837622523,17.7999992371,0.4009558205618729,-0.13229355564882941,-0.0308069098354515,17.7999992371,0.021869948989594594,0.5822651672143024,1.265784710685946
1648219770158284324,87261,14,6,0.671558976173,0.5845464468,0.0269657894969,0.566431701183,17.7999992371,0.22460166427190634,0.19550048387959865,0.009018658694615385,17.7999992371,0.07654482448418919,0.37297755211886074,0.8907374252540556
1648219770158300484,87262,14,7,1.28804576397,-0.424858301878,0.0938098952174,-0.0809188112617,17.7999992371,0.430784536444816,-0.14209307755117057,0.03137454689545151,17.7999992371,-0.010934974494824324,0.6255725987988229,1.359546528514717
1648219770262861898,87263,15,0,0.0122477002442,0.0439508594573,0.01077664271,0.0,20.3999996185,0.004096220817458194,0.014699284099431437,0.0036042283311036784,20.3999996185,0.0,0.015799588697385562,0.04688091548174064
1648219770262877610,87264,15,1,0.0334718860686,0.0146502861753,-0.0293738357723,0.0,20.3999996185,0.01119461072528428,0.0048997612626421405,-0.009824025341906354,20.3999996185,0.0,0.016572455430991152,0.04688091583987642
1648219770262918019,87265,15,2,1.69200778008,-1.53828012943,0.515126287937,0.0,20.3999996185,0.5658888896588629,-0.5144749596755852,0.1722830394438127,20.3999996185,0.0,0.951391063134333,2.344045899075822
1648219770262939920,87266,15,3,2.14577150345,-1.14272224903,0.180985242128,0.0,20.3999996185,0.7176493322575249,-0.3821813541906354,0.060530181313712364,20.3999996185,0.0,1.0844831560104247,2.4378074454957233
1648219770263009507,87267,15,4,0.460275858641,0.562570989132,-0.858839035034,0.0809188112617,20.3999996185,0.153938414261204,0.1881508324856187,-0.28723713546287627,20.3999996185,0.010934974494824324,0.28774086698892715,1.1251419785781698
1648219770263106023,87268,15,5,0.394010365009,1.01965987682,0.266447126865,0.0809188112617,20.3999996185,0.1317760418090301,0.34102337017391304,0.08911275145986622,20.3999996185,0.010934974494824324,0.38862165327537296,1.1251419926150281
1648219770263164458,87269,15,6,0.368411004543,1.01086974144,-0.0711510702968,-0.161837622523,20.3999996185,0.123214382790301,0.33808352556521737,-0.02379634458086956,20.3999996185,-0.021869948989594594,0.3803472604231515,1.0782609968053816
1648219770263178893,87270,15,7,1.17875957489,-0.492249637842,0.302171289921,-0.0809188112617,20.3999996185,0.394233971535117,-0.16463198590033443,0.10106063208060201,20.3999996185,-0.010934974494824324,0.5813299746324723,1.3126657342229036
