%time,field.header.seq,field.header.frame_id,field.point_id,field.x,field.y,field.z,field.velocity,field.intensity,normalized_x,normalized_y,normalized_z,normalized_intensity,normalized_velocity,normalized_range,range
1648126854901583641,83503,0,0,0.0126193286851,0.0439508594573,0.0103389909491,0.0,37.0,0.004220511265919732,0.014699284099431437,0.0034578565047157185,37.0,0.0,0.015864878938312406,0.04688091549173817
1648126854901590732,83504,0,1,0.0328022278845,0.0146502861753,-0.030119812116,0.0,37.0,0.010970644777424748,0.0048997612626421405,-0.010073515757859532,37.0,0.0,0.01627014917251106,0.04688091425204926
1648126854901596144,83505,0,2,0.973413050175,-0.404347896576,0.227192908525,0.0,37.0,0.32555620407190633,-0.13523341022608695,0.07598425034280935,37.0,0.0,0.4798559776232808,1.0782610098675003
1648126854901610543,83506,0,3,1.80567646027,-1.46502864361,0.296267837286,0.0,37.0,0.6039051706588628,-0.489976134986622,0.09908623320602006,37.0,0.0,0.9846215126399834,2.3440458692570583
1648126854901614763,83507,0,4,1.11127626896,-0.256380021572,0.270133554935,0.242756426334,37.0,0.37166430399999995,-0.08574582661270903,0.09034567054682274,37.0,0.03280492247756756,0.532560847713297,1.1720229515315552
1648126854901632100,83508,0,5,1.09140121937,-0.304725944996,0.449123620987,0.323675245047,37.0,0.3650171302240802,-0.10191503177123744,0.15020856889197323,37.0,0.04373989797932432,0.5261764764933706,1.2189038313683744
1648126854901643128,83509,0,6,0.668351709843,-0.609451889992,-1.19684684277,0.404594063759,37.0,0.22352899994749162,-0.20383006354247488,-0.40028322500668895,37.0,0.05467487348094594,0.3761344472908334,1.5001893144911411
1648126855106884932,83510,2,0,0.0126767531037,0.0439508594573,0.0102685010061,0.0,29.2000007629,0.004239716757090301,0.014699284099431437,0.0034342812729431437,29.2000007629,0.0,0.01587511730339346,0.04688091540488284
1648126855106892211,83511,2,1,0.0328266397119,0.0146502861753,-0.0300932060927,0.0,29.2000007629,0.01097880926819398,0.0048997612626421405,-0.010064617422307692,29.2000007629,0.0,0.016281159858119832,0.0468809152292358
1648126855106897891,83512,2,2,1.68286573887,-1.61153149605,0.255891025066,0.0,29.2000007629,0.562831350792642,-0.5389737444983277,0.08558228263076921,29.2000007629,0.0,0.961275692051291,2.3440458772244517
1648126855106899271,83513,2,3,1.08867990971,-0.879017233849,1.88059985638,0.0,29.2000007629,0.36410699321404677,-0.29398569693946486,0.6289631626688963,29.2000007629,0.0,0.5929379352172794,2.344045874769988
1648126855106901580,83514,2,4,1.08916580677,-0.281285494566,-0.0232540145516,0.0809188112617,29.2000007629,0.3642695005919732,-0.09407541624280935,-0.007777262391839465,29.2000007629,0.010934974494824324,0.5236742518630346,1.1251419613910727
1648126855106905000,83515,2,5,1.07832193375,-0.190453708172,0.535420894623,0.0809188112617,29.2000007629,0.3606427872073579,-0.06369689236521739,0.1790705333187291,29.2000007629,0.010934974494824324,0.5139880679805411,1.2189037460610657
1648126855107041973,83516,2,6,1.11231851578,-0.140642747283,0.0944009646773,0.323675245047,29.2000007629,0.37201288153177253,-0.047037708121404675,0.03157222898906354,29.2000007629,0.04373989797932432,0.5282042351557394,1.1251419488412724
1648126855107045830,83517,2,7,1.15717446804,-0.703213751316,0.380100011826,-0.404594063759,29.2000007629,0.3870148722541806,-0.23518854559063543,0.12712374977458193,29.2000007629,-0.05467487348094594,0.5957135844253325,1.4064275127121566
1648126855107049825,83518,2,8,0.978395342827,-0.370652228594,0.260780066252,-0.0809188112617,29.2000007629,0.3272225226846154,-0.12396395605150501,0.08721741346220735,29.2000007629,-0.010934974494824324,0.47907851246336103,1.0782609908466776
1648126855107053181,83519,2,9,1.09039247036,-0.329631447792,0.275726437569,-0.0809188112617,29.2000007629,0.36467975597324415,-0.11024463136856186,0.09221619985585283,29.2000007629,-0.010934974494824324,0.5273865068230319,1.1720229089764949
1648126855301804578,83520,4,0,0.0126522984356,0.0439508594573,0.0102986181155,0.0,22.7000007629,0.004231537938327759,0.014699284099431437,0.003444353884782608,22.7000007629,0.0,0.015870752335123,0.04688091549690265
1648126855301812502,83521,4,1,0.0328022278845,0.0146502861753,-0.030119812116,0.0,22.7000007629,0.010970644777424748,0.0048997612626421405,-0.010073515757859532,22.7000007629,0.0,0.01627014917251106,0.04688091425204926
1648126855301825167,83522,4,2,2.0116994381,-1.12074685097,0.643056154251,0.0,22.7000007629,0.6728091766220735,-0.3748317227324415,0.21506894791003345,22.7000007629,0.0,1.0226647528199624,2.390926462844709
1648126855301828410,83523,4,3,1.15039420128,-0.076181486249,0.395621031523,0.0809188112617,22.7000007629,0.38474722450836113,-0.02547875794280936,0.1323147262618729,22.7000007629,0.010934974494824324,0.5447109514596551,1.2189037852796578
1648126855301831300,83524,4,4,1.09675455093,-0.574291229248,0.436360180378,-0.404594063759,22.7000007629,0.36680754211705685,-0.1920706452334448,0.14593985965819398,22.7000007629,-0.05467487348094594,0.5531606264624269,1.3126656725900794
1648126855301857387,83525,4,5,0.968024492264,-0.290075659752,0.206227272749,-0.242756426334,22.7000007629,0.3237540107906354,-0.09701527082006689,0.06897233202307691,22.7000007629,-0.03280492247756756,0.4680227363903774,1.0313801404084837
1648126855301861856,83526,4,6,1.14309930801,-0.146502867341,-0.213304504752,-0.0809188112617,22.7000007629,0.3823074608729097,-0.04899761449531772,-0.07133929924816053,22.7000007629,-0.010934974494824324,0.5428800562780093,1.1720230073934435
1648126855406818527,83527,5,0,0.012629323639,0.0439508594573,0.0103267794475,0.0,19.1000003815,0.0042238540598662205,0.014699284099431437,0.003453772390468227,19.1000003815,0.0,0.015866658100365513,0.04688091548136884
1648126855406826104,83528,5,1,0.0328022278845,0.0146502861753,-0.030119812116,0.0,19.1000003815,0.010970644777424748,0.0048997612626421405,-0.010073515757859532,19.1000003815,0.0,0.01627014917251106,0.04688091425204926
1648126855406835942,83529,5,2,2.08404755592,-1.12074685097,0.342347681522,0.242756426334,19.1000003815,0.6970058715451504,-0.3748317227324415,0.11449755234849499,19.1000003815,0.03280492247756756,1.0545772566784282,2.3909265263363455
1648126855406838772,83530,5,3,0.322768300772,-0.373582273722,-2.33939886093,0.242756426334,19.1000003815,0.1079492644722408,-0.12494390425484948,-0.7824076457959865,19.1000003815,0.03280492247756756,0.1972740900641556,2.3909266240817857
1648126855406845687,83531,5,4,1.37209248543,-1.19985842705,0.143479779363,0.323675245047,19.1000003815,0.4588938078361204,-0.40129044382943135,0.047986548281939795,19.1000003815,0.04373989797932432,0.7630210180915663,1.8283556767277065
1648126855407002557,83532,5,5,1.07520294189,-0.514225065708,0.426288843155,-0.485512852669,19.1000003815,0.3595996461170568,-0.17198162732709027,0.14257151944983276,19.1000003815,-0.06560984495527027,0.5368440100374587,1.2657847219214395
1648126855407006906,83533,5,6,0.961375832558,-0.225614413619,0.297657012939,-0.242756426334,19.1000003815,0.32153037878193974,-0.07545632562508361,0.09955084044782607,19.1000003815,-0.03280492247756756,0.46093082565191273,1.0313801687113249
1648126855407012744,83534,5,7,0.959744751453,-0.622637212276,0.254658073187,-0.161837622523,19.1000003815,0.3209848667066889,-0.20823987032642138,0.08516992414280936,19.1000003815,-0.021869948989594594,0.4994260835228638,1.1720229606503982
1648126855407138107,83535,5,8,1.15077364445,0.0732514336705,-0.209742978215,-0.161837622523,19.1000003815,0.3848741285785953,0.02449880724765886,-0.07014815324916387,19.1000003815,-0.021869948989594594,0.5448452819423365,1.172022981944474
1648126855601865523,83536,7,0,0.0125987837091,0.0439508594573,0.010364016518,0.0,23.7000007629,0.0042136400364882936,0.014699284099431437,0.003466226260200669,23.7000007629,0.0,0.0158612256068058,0.046880915481349095
1648126855601870345,83537,7,1,0.0328022278845,0.0146502861753,-0.030119812116,0.0,23.7000007629,0.010970644777424748,0.0048997612626421405,-0.010073515757859532,23.7000007629,0.0,0.01627014917251106,0.04688091425204926
1648126855602016918,83538,7,2,1.92477250099,-1.17202293873,0.645108044147,0.0,23.7000007629,0.6437366224046822,-0.3919809159632107,0.21575519871137122,23.7000007629,0.0,0.9911824839701994,2.344045933444943
1648126855602120681,83539,7,3,1.22252607346,0.123062409461,0.461927384138,0.242756426334,23.7000007629,0.4088715964749164,0.041157996475250834,0.1544907639257525,23.7000007629,0.03280492247756756,0.5796947002360384,1.3126657095881067
1648126855602127396,83540,7,4,2.03591132164,-1.0987714529,0.377249628305,0.242756426334,23.7000007629,0.680906796535117,-0.3674820912709029,0.12617044424916385,23.7000007629,0.03280492247756756,1.030684829877818,2.344045839429376
1648126855602129945,83541,7,5,1.05891740322,-0.34281668067,0.496887594461,-0.161837622523,23.7000007629,0.3541529776655518,-0.1146544082508361,0.16618314196020065,23.7000007629,-0.021869948989594594,0.5138037529155496,1.2189038620486128
1648126855602136616,83542,7,6,0.950816273689,-0.061531201005,0.247792243958,-0.0809188112617,23.7000007629,0.3179987537421404,-0.020578996991638794,0.08287366018662207,23.7000007629,-0.010934974494824324,0.4501887491711569,0.9844991981584821
1648126855802511106,83543,9,0,0.0125987837091,0.0439508594573,0.010364016518,0.0,28.2999992371,0.0042136400364882936,0.014699284099431437,0.003466226260200669,28.2999992371,0.0,0.0158612256068058,0.046880915481349095
1648126855802515574,83544,9,1,0.0328022278845,0.0146502861753,-0.030119812116,0.0,28.2999992371,0.010970644777424748,0.0048997612626421405,-0.010073515757859532,28.2999992371,0.0,0.01627014917251106,0.04688091425204926
1648126855802517973,83545,9,2,0.47629109025,-1.53828001022,0.314914822578,0.0,28.2999992371,0.1592946790133779,-0.51447491980602,0.10532268313645485,28.2999992371,0.0,0.5616351419145359,1.6408320870745154
1648126855802519884,83546,9,3,1.90182137489,-1.24527442455,0.571767747402,0.0,28.2999992371,0.6360606604983277,-0.4164797406521739,0.19122667137190633,28.2999992371,0.0,0.9912626806456701,2.344045923482725
1648126855802521029,83547,9,4,2.42226004601,-0.902457654476,0.458902716637,0.0,28.2999992371,0.8101204167257524,-0.30182530250033446,0.1534791694438127,28.2999992371,0.0,1.1847736882718285,2.625331455636699
1648126855802523890,83548,9,5,1.15447223186,0.356001973152,0.377713501453,0.161837622523,28.2999992371,0.38611111433444817,0.11906420506755852,0.1263255857702341,28.2999992371,0.021869948989594594,0.5588737515338758,1.265784747974083
1648126855802524981,83549,9,6,1.15037679672,0.435113489628,0.299199879169,0.323675245047,28.2999992371,0.38474140358528425,0.14552290623010034,0.10006684922040132,28.2999992371,0.04373989797932432,0.5632306911942954,1.2657847727725153
1648126855802525973,83550,9,7,0.955853998661,0.0307656005025,0.233742073178,-0.0809188112617,28.2999992371,0.3196836115923077,0.010289498495819397,0.07817460641404682,28.2999992371,-0.010934974494824324,0.45221797489783433,0.9844992360098873
1648126855902290455,83551,10,0,0.0125987837091,0.0439508594573,0.010364016518,0.0,28.5,0.0042136400364882936,0.014699284099431437,0.003466226260200669,28.5,0.0,0.0158612256068058,0.046880915481349095
1648126855902295912,83552,10,1,0.0328022278845,0.0146502861753,-0.030119812116,0.0,28.5,0.010970644777424748,0.0048997612626421405,-0.010073515757859532,28.5,0.0,0.01627014917251106,0.04688091425204926
1648126855902297804,83553,10,2,1.98311078548,-1.12074685097,0.726448893547,0.0,28.5,0.6632477543411371,-0.3748317227324415,0.24295949616956522,28.5,0.0,1.010096028921851,2.390926574862126
1648126855902300065,83554,10,3,1.07421123981,-0.298865824938,-2.11501288414,0.0,28.5,0.359267973180602,-0.09995512539732442,-0.7073621686086956,28.5,0.0,0.5178204130775363,2.390926613078747
1648126855902307412,83555,10,4,2.38823246956,-0.984499275684,0.46847859025,0.0,28.5,0.798739956374582,-0.32926397180066885,0.1566818027591973,28.5,0.0,1.1765992516334904,2.625331472786933
1648126855902309475,83556,10,5,0.443315893412,-0.0586011447012,-0.82411468029,0.404594063759,28.5,0.1482661850876254,-0.019599045050568562,-0.2756236388929766,28.5,0.05467487348094594,0.21059403089301984,0.9376183028191482
1648126855902333372,83557,10,6,2.02039051056,0.26956525445,0.704233288765,-0.404594063759,28.5,0.6757158898193979,0.09015560349498328,0.23552952801505014,28.5,-0.05467487348094594,0.9598499676253502,2.1565221460890123
1648126855902457574,83558,10,7,1.02028226852,-0.0,0.150894597173,-0.323675245047,28.5,0.34123152793311035,-0.0,0.05046642045919732,28.5,-0.04373989797932432,0.48257425471229826,1.0313801854371254
1648126855902466707,83559,10,8,1.00503695011,-0.420463234186,1.58355534077,-0.161837622523,28.5,0.33613275923411373,-0.14062315524615385,0.529617170826087,28.5,-0.021869948989594594,0.49572707758610607,1.9221176133810733
1648126855902475530,83560,10,9,0.92663705349,0.061531201005,0.326797127724,-0.0809188112617,28.5,0.3099120580234114,0.020578996991638794,0.10929669823545149,28.5,-0.010934974494824324,0.438764700646935,0.984499202786068
1648126856002148298,83561,11,0,0.0126156788319,0.0439508594573,0.0103434445336,0.0,31.2999992371,0.004219290579230769,0.014699284099431437,0.0034593459978595315,31.2999992371,0.0,0.015864229543843877,0.04688091556534115
1648126856002170799,83562,11,1,0.0327777341008,0.0146502861753,-0.0301464665681,0.0,31.2999992371,0.01096245287652174,0.0048997612626421405,-0.010082430290334447,31.2999992371,0.0,0.01625910226829292,0.046880914926465594
1648126856002179477,83563,11,2,0.259025752544,-1.58955609798,0.313921928406,0.0,31.2999992371,0.08663068646956522,-0.5316241130367892,0.1049906115070234,31.2999992371,0.0,0.5455583829788788,1.6408320774047938
1648126856002211670,83564,11,3,1.86644864082,-1.31852579117,0.521929502487,0.0,31.2999992371,0.6242303146555184,-0.44097852547491634,0.17455836203578592,31.2999992371,0.0,0.9868074946005864,2.344045903212142
1648126856002221386,83565,11,4,2.41983866692,-0.902457654476,0.47150400281,0.0,31.2999992371,0.8093105909431437,-0.30182530250033446,0.15769364642474915,31.2999992371,0.0,1.1836662445363977,2.6253314108335615
1648126856002231243,83566,11,5,1.23479890823,0.410208046436,0.173471167684,0.0809188112617,31.2999992371,0.41297622348829427,0.13719332656722408,0.05801711293779264,31.2999992371,0.010934974494824324,0.5999339390198626,1.3126656966434713
1648126856002251390,83567,11,6,0.846908390522,-0.111342176795,0.252511829138,-0.647350490093,31.2999992371,0.2832469533518394,-0.037238186219063545,0.08445211676856187,31.2999992371,-0.08747979595851352,0.4022988387742175,0.8907374058187025
1648126856002255594,83568,11,7,2.08315515518,0.263705164194,0.203741759062,-0.647350490093,31.2999992371,0.6967074097591973,0.0881957070882943,0.06814105654247492,31.2999992371,-0.08747979595851352,0.9892324865144413,2.109641324623992
1648126856002379083,83569,11,8,0.949584007263,-0.128922522068,0.381332159042,-0.566431701183,31.2999992371,0.31758662450267555,-0.04311790035719063,0.1275358391444816,31.2999992371,-0.07654482448418919,0.45120026757219406,1.0313801525459292
1648126856002407978,83570,11,9,0.70651704073,0.290075659752,-0.693134069443,-0.566431701183,31.2999992371,0.23629332465886285,0.09701527082006689,-0.23181741452943144,31.2999992371,-0.07654482448418919,0.3479670003448149,1.0313801701821923
1648126856002417396,83571,11,10,1.00706911087,-0.0673913136125,0.379363834858,-0.485512852669,31.2999992371,0.3368124116622074,-0.02253890087374582,0.12687753674180602,31.2999992371,-0.06560984495527027,0.476857634259976,1.078260962113105
1648126856002421324,83572,11,11,0.494576364756,-0.0,1.16516315937,-0.404594063759,31.2999992371,0.16541015543678927,-0.0,0.3896866753745819,31.2999992371,-0.05467487348094594,0.23392528517294914,1.2657847244015628
1648126856002437869,83573,11,12,0.86424100399,0.0586011447012,0.358861416578,-0.242756426334,31.2999992371,0.28904381404347823,0.019599045050568562,0.12002054066153846,31.2999992371,-0.03280492247756756,0.4092392642947349,0.9376183250375939
1648126856002594715,83574,11,13,0.997430086136,0.228544458747,0.662289261818,-0.242756426334,31.2999992371,0.33358865757056855,0.07643627382842809,0.2215014253571906,31.2999992371,-0.03280492247756756,0.47791765909646244,1.21890377498499
