%time,field.header.seq,field.header.frame_id,field.point_id,field.x,field.y,field.z,field.velocity,field.intensity,normalized_x,normalized_y,normalized_z,normalized_intensity,normalized_velocity,normalized_range,range
1648127740092173897,126891,0,0,0.0125994505361,0.0439508594573,0.0103632062674,0.0,18.1000003815,0.004213863055551839,0.014699284099431437,0.003465955273377926,18.1000003815,0.0,0.01586134410249293,0.04688091557326548
1648127740092207353,126892,0,1,0.032785564661,0.0146502861753,-0.0301379524171,0.0,18.1000003815,0.010965071792976589,0.0048997612626421405,-0.010079582748193979,18.1000003815,0.0,0.01626263383591816,0.04688091627788627
1648127740092210414,126893,0,2,0.807285606861,-0.73837441206,0.262750178576,0.0,18.1000003815,0.2699951862411371,-0.24694796389966553,0.08787631390501673,18.1000003815,0.0,0.45472859824401096,1.1251419820500894
1648127740092212523,126894,0,3,2.39021658897,-0.984499275684,0.458247870207,0.0,18.1000003815,0.7994035414615384,-0.32926397180066885,0.1532601572598662,18.1000003815,0.0,1.1775002366574925,2.6253314603224776
1648127740092220923,126895,0,4,0.738529980183,-0.741304457188,0.260169059038,0.0809188112617,18.1000003815,0.24699999337224077,-0.24792791210301002,0.08701306322341136,18.1000003815,0.010934974494824324,0.4283529421534674,1.078260993060871
1648127740092225672,126896,0,5,0.846861243248,-0.876087069511,0.0319995731115,0.242756426334,18.1000003815,0.2832311850327759,-0.2930057088665552,0.010702198365050167,18.1000003815,0.03280492247756756,0.49627830274809875,1.2189038072625904
1648127740287180327,126897,2,0,0.0125831468031,0.0439508594573,0.0103829959407,0.0,22.3999996185,0.0042084103020401335,0.014699284099431437,0.003472573893210702,22.3999996185,0.0,0.015858448460566152,0.04688091546896556
1648127740287184754,126898,2,1,0.032885145396,0.0146502861753,-0.0300292614847,0.0,22.3999996185,0.010998376386622074,0.0048997612626421405,-0.010043231265785952,22.3999996185,0.0,0.016307551217595504,0.04688091528597467
1648127740287257264,126899,2,2,2.39113259315,-0.984499275684,0.453443169594,0.0,22.3999996185,0.7997098973745819,-0.32926397180066885,0.1516532339779264,22.3999996185,0.0,1.1779162122339943,2.6253313333554713
1648127740287260948,126900,2,3,0.791747272015,-0.738374471664,0.742314338684,-0.242756426334,22.3999996185,0.2647984187341137,-0.2469479838341137,0.24826566511170567,22.3999996185,-0.03280492247756756,0.4485752019984026,1.3126656773772025
1648127740287265759,126901,2,4,0.792467594147,-0.703213751316,0.378721535206,-0.161837622523,22.3999996185,0.2650393291461538,-0.23518854559063543,0.12666272080468227,22.3999996185,-0.021869948989594594,0.4424989762310472,1.1251419772819093
1648127740392124620,126902,3,0,0.0125994505361,0.0439508594573,0.0103632062674,0.0,38.5999984741,0.004213863055551839,0.014699284099431437,0.003465955273377926,38.5999984741,0.0,0.01586134410249293,0.04688091557326548
1648127740392129687,126903,3,1,0.0327970646322,0.0146502861753,-0.0301254354417,0.0,38.5999984741,0.010968917937190636,0.0048997612626421405,-0.010075396468795985,38.5999984741,0.0,0.016267820439645055,0.04688091503009433
1648127740392133888,126904,3,2,2.38117456436,-0.984499275684,0.503124654293,0.0,38.5999984741,0.7963794529632107,-0.32926397180066885,0.16826911514816054,38.5999984741,0.0,1.1733947457398628,2.6253315119304093
1648127740392137867,126905,3,3,0.738760948181,-0.676843225956,0.244664058089,-0.323675245047,38.5999984741,0.24707724019431437,-0.22636897189163876,0.08182744417692307,38.5999984741,-0.04373989797932432,0.41633788763377677,1.0313801396189441
1648127740392147541,126906,3,4,0.666756093502,-0.779395282269,0.819188952446,-0.242756426334,38.5999984741,0.22299534899732443,-0.2606673184846154,0.27397623827625417,38.5999984741,-0.03280492247756756,0.40914704236354554,1.3126656977520197
1648127740392155784,126907,3,5,0.862763822079,-0.668053030968,0.274386882782,-0.161837622523,38.5999984741,0.2885497732705686,-0.22342910734715715,0.09176818822140469,38.5999984741,-0.021869948989594594,0.46523382220012827,1.1251419582953606
1648127740392167211,126908,3,6,1.47080087662,0.206569030881,-1.62759292126,-0.161837622523,38.5999984741,0.4919066476989966,0.06908663240167225,-0.5443454586153845,38.5999984741,-0.021869948989594594,0.6990831587712104,2.203402981871663
1648127740587120684,126909,5,0,0.0125890737399,0.0439508594573,0.0103758089244,0.0,20.0,0.004210392555150501,0.014699284099431437,0.003470170208829431,20.0,0.0,0.01585950074790286,0.0468809154720728
1648127740587123775,126910,5,1,0.0328981243074,0.0146502861753,-0.0300150439143,0.0,20.0,0.011002717159665552,0.0048997612626421405,-0.010038476225518393,20.0,0.0,0.016313406456717926,0.04688091647078464
1648127740587128408,126911,5,2,2.41410112381,-0.902457654476,0.500050961971,0.0,20.0,0.8073916802040133,-0.30182530250033446,0.1672411244050167,20.0,0.0,1.1810424055700701,2.625331411207193
1648127740587131566,126912,5,3,1.14160239697,-1.33610606194,0.291919827461,0.242756426334,20.0,0.38180682172909697,-0.4468582146956522,0.09763204931806019,20.0,0.03280492247756756,0.7008817034840719,1.781474846071458
1648127740587284594,126913,5,4,0.728399217129,-0.556710898876,0.196559548378,-0.404594063759,20.0,0.24361177830401337,-0.18619093607892975,0.06573897939063544,20.0,-0.05467487348094594,0.39161264246042365,0.9376183128011245
1648127740587291007,126914,5,5,0.953221917152,-0.597731649876,0.00542008737102,-0.242756426334,20.0,0.31880331677324414,-0.19991025079464883,0.0018127382511772573,20.0,-0.03280492247756756,0.4931888258507306,1.1251420025710217
1648127740587294822,126915,5,6,0.94008654356,-0.632892370224,0.56382226944,-0.0809188112617,20.0,0.31441021523745816,-0.21166968903812708,0.18856932088294315,20.0,-0.010934974494824324,0.4924546924833054,1.2657847420421897
1648127740688956089,126916,6,0,0.0126038333401,0.0439508594573,0.0103578744456,0.0,16.3999996185,0.004215328876287625,0.014699284099431437,0.003464172055384615,16.3999996185,0.0,0.01586212306427883,0.04688091535935669
1648127740688964019,126917,6,1,0.0328981243074,0.0146502861753,-0.0300150439143,0.0,16.3999996185,0.011002717159665552,0.0048997612626421405,-0.010038476225518393,16.3999996185,0.0,0.016313406456717926,0.04688091647078464
1648127740688969930,126918,6,2,1.23828220367,-1.2804350853,0.0282122865319,0.161837622523,16.3999996185,0.41414120524080267,-0.42823915896321063,0.009435547335083611,16.3999996185,0.021869948989594594,0.7255443839119199,1.7814748824231028
1648127740688980241,126919,6,3,0.77157998085,-0.498109728098,0.188889235258,-0.404594063759,16.3999996185,0.25805350530100335,-0.1665918823070234,0.06317365727692308,16.3999996185,-0.05467487348094594,0.40116839163481843,0.9376183185447594
1648127740688984515,126920,6,4,0.933801412582,-0.5391305089,-0.000121340563055,-0.242756426334,16.3999996185,0.31230816474314377,-0.18031120698996655,-4.058212811204013e-05,16.3999996185,-0.03280492247756756,0.47705860320996185,1.0782610066632494
1648127740688997147,126921,6,5,1.20735704899,-0.467344135046,-0.415024578571,-0.242756426334,16.3999996185,0.4037983441438127,-0.15630238630301002,-0.1388042068799331,16.3999996185,-0.03280492247756756,0.592061349380776,1.3595466101336031
1648127740689040061,126922,6,6,1.05440938473,-0.0,0.858246862888,-0.242756426334,16.3999996185,0.35264527917391303,-0.0,0.28703908457792643,16.3999996185,-0.03280492247756756,0.49871573651459417,1.3595465524445238
1648127740792012495,126923,7,0,0.0125994505361,0.0439508594573,0.0103632062674,0.0,12.1999998093,0.004213863055551839,0.014699284099431437,0.003465955273377926,12.1999998093,0.0,0.01586134410249293,0.04688091557326548
1648127740792020041,126924,7,1,0.0328737124801,0.0146502861753,-0.0300417765975,0.0,12.1999998093,0.010994552668929765,0.0048997612626421405,-0.010047416922240803,12.1999998093,0.0,0.016302393603720582,0.04688091507614338
1648127740792023080,126925,7,2,1.34405303001,-1.1690928936,-0.0198963657022,0.0809188112617,12.1999998093,0.44951606354849494,-0.3910009677591973,-0.006654302910434781,12.1999998093,0.010934974494824324,0.7463317891962649,1.7814748403256326
1648127740792026096,126926,7,3,0.968899607658,-0.471739202738,0.0366392023861,-0.404594063759,12.1999998093,0.3240466915244147,-0.15777230860802674,0.012253913841505017,12.1999998093,-0.05467487348094594,0.4846695966731818,1.0782609870857796
1648127740792028197,126927,7,4,0.900651633739,-0.483459472656,0.137253686786,-0.323675245047,12.1999998093,0.3012212821869565,-0.16169213132307692,0.0459042430722408,12.1999998093,-0.04373989797932432,0.455645549760455,1.0313801440758381
1648127740792033446,126928,7,5,0.750879406929,-0.417533159256,0.235073015094,-0.242756426334,12.1999998093,0.25113023643110366,-0.13964319707558526,0.07861973748963211,12.1999998093,-0.03280492247756756,0.3816189379333458,0.8907374165564883
1648127740792040009,126929,7,6,1.16544425488,-0.474669277668,-0.136527270079,-0.242756426334,12.1999998093,0.3897806872508361,-0.1587522667785953,-0.045661294340802676,12.1999998093,-0.03280492247756756,0.5736377345632089,1.265784709131013
1648127740792141812,126930,7,7,0.879825472832,0.314981162548,-1.78618693352,-0.242756426334,12.1999998093,0.294256010980602,0.1053448704173913,-0.5973869342876253,12.1999998093,-0.03280492247756756,0.42926768073043803,2.015879400381313
1648127740792150791,126931,7,8,0.81291526556,-0.41899818182,0.476816892624,-0.161837622523,12.1999998093,0.2718780152374582,-0.14013317117725752,0.15947053265016722,12.1999998093,-0.021869948989594594,0.4092341823493165,1.0313801696952285
1648127740792166319,126932,7,9,1.0932892561,-0.457088917494,0.285508036613,-0.161837622523,12.1999998093,0.36564858063545147,-0.15287254765685618,0.0954876376632107,12.1999998093,-0.021869948989594594,0.5392288798539432,1.2189038169478912
1648127740987055123,126933,9,0,0.0126926898956,0.0439508594573,0.010248796083,0.0,15.3000001907,0.004245046787826087,0.014699284099431437,0.003427690997658863,15.3000001907,0.0,0.015877965785876448,0.04688091557309988
1648127740987058338,126934,9,1,0.032885145396,0.0146502861753,-0.0300292614847,0.0,15.3000001907,0.010998376386622074,0.0048997612626421405,-0.010043231265785952,15.3000001907,0.0,0.016307551217595504,0.04688091528597467
1648127740987067582,126935,9,2,1.78217959404,-1.46502864361,0.414823025465,0.0,15.3000001907,0.5960466869698996,-0.489976134986622,0.13873679781438125,15.3000001907,0.0,0.9749973943308851,2.3440458985408696
1648127740987071602,126936,9,3,0.747173190117,-0.34281668067,0.190532624722,-0.242756426334,15.3000001907,0.24989069903578595,-0.1146544082508361,0.06372328586020067,15.3000001907,-0.03280492247756756,0.3715324430793856,0.8438564650808014
1648127740987221315,126937,9,4,0.936581194401,-0.276890397072,0.805207073689,-0.242756426334,15.3000001907,0.3132378576591973,-0.09260548397056856,0.2693000246451505,15.3000001907,-0.03280492247756756,0.4525612517696034,1.2657847594338842
1648127740987226136,126938,9,5,2.01086449623,-0.0629962310195,0.127378374338,-0.161837622523,15.3000001907,0.6725299318494983,-0.021068973585117053,0.04260146298929766,15.3000001907,-0.021869948989594594,0.9513342841057039,2.015879410473252
1648127741092026128,126939,10,0,0.0126877604052,0.0439508594573,0.0102548981085,0.0,14.6000003815,0.004243398128829431,0.014699284099431437,0.003429731808862876,14.6000003815,0.0,0.015877084379548535,0.04688091558780411
1648127741092030731,126940,10,1,0.0328981243074,0.0146502861753,-0.0300150439143,0.0,14.6000003815,0.011002717159665552,0.0048997612626421405,-0.010038476225518393,14.6000003815,0.0,0.016313406456717926,0.04688091647078464
1648127741092039179,126941,10,2,1.76074278355,-1.46502864361,0.498023360968,0.0,14.6000003815,0.5888771851337792,-0.489976134986622,0.1665629969792642,14.6000003815,0.0,0.9662449436859138,2.344045934808237
1648127741092046272,126942,10,3,0.879400730133,-0.263705164194,0.19037348032,-0.404594063759,14.6000003815,0.29411395656622075,-0.0881957070882943,0.0636700603076923,14.6000003815,-0.05467487348094594,0.4251876311028788,0.9376183230879116
1648127741092060929,126943,10,4,0.745159685612,-0.316446185112,0.23810197413,-0.323675245047,14.6000003815,0.2492172861578595,-0.10583484451906354,0.07963276726755852,14.6000003815,-0.04373989797932432,0.3679939208114058,0.8438564423039715
1648127741092068003,126944,10,5,1.16684055328,-0.0,-0.785188794136,-0.242756426334,14.6000003815,0.39024767668227417,-0.0,-0.26260494787157185,14.6000003815,-0.03280492247756756,0.5518935570486628,1.4064275022963402
