%time,field.header.seq,field.header.frame_id,field.point_id,field.x,field.y,field.z,field.velocity,field.intensity,normalized_x,normalized_y,normalized_z,normalized_intensity,normalized_velocity,normalized_range,range
1648219783562326451,87846,0,0,0.0123228654265,0.0439508594573,0.0106906108558,0.0,29.6000003815,0.004121359674414716,0.014699284099431437,0.003575455135719063,29.6000003815,0.0,0.015812658352332205,0.04688091530489902
1648219783562369551,87847,0,1,0.0334016978741,0.0146502861753,-0.0294536203146,0.0,29.6000003815,0.011171136412742476,0.0048997612626421405,-0.009850709135317725,29.6000003815,0.0,0.016540744781753033,0.0468809135526118
1648219783562473360,87848,0,2,0.183966040611,-1.58955609798,0.363039672375,0.0,29.6000003815,0.06152710388327759,-0.5316241130367892,0.1214179506270903,29.6000003815,0.0,0.5386978434954794,1.6408320744188416
1648219783562484275,87849,0,3,2.05160474777,-0.843856453896,0.37762761116,0.0,29.6000003815,0.6861554340367892,-0.28222623876120395,0.12629685991973244,29.6000003815,0.0,1.0105791454219335,2.2502840639716455
1648219783562487125,87850,0,4,2.1167948246,-1.14272224903,0.395311713219,0.0,29.6000003815,0.7079581353177257,-0.3821813541906354,0.13221127532408025,29.6000003815,0.0,1.0716678730913276,2.437807584385951
1648219783562495510,87851,0,5,0.472543329,-0.580151319504,-0.390155017376,0.0809188112617,29.6000003815,0.15804124715719062,-0.19403054164013378,-0.13048662788494983,29.6000003815,0.010934974494824324,0.29597621981362643,0.8438564385535618
1648219783562520652,87852,0,6,0.527801334858,-0.263705134392,0.603306770325,0.0809188112617,29.6000003815,0.17652218557123744,-0.08819569712107023,0.20177483957357858,29.6000003815,0.010934974494824324,0.2647614869809511,0.8438564487533242
1648219783562523263,87853,0,7,0.539431214333,-0.909782707691,0.209657207131,0.161837622523,29.6000003815,0.1804117773688963,-0.304275153073913,0.07011946726789298,29.6000003815,0.021869948989594594,0.39708964681160047,1.0782609863629091
1648219783562534104,87854,0,8,1.13167202473,-0.835066318512,0.00459855701774,0.242756426334,29.6000003815,0.378485627,-0.2792863941511705,0.0015379789356989965,29.6000003815,0.03280492247756756,0.6037413598960478,1.4064275575358753
1648219783562553839,87855,0,9,0.845389127731,-0.876087069511,0.0592886582017,-0.242756426334,29.6000003815,0.28273883870602,-0.2930057088665552,0.019828982676153843,29.6000003815,-0.03280492247756756,0.4957164988721377,1.2189038008151056
1648219783757415552,87856,2,0,0.0122477002442,0.0439508594573,0.01077664271,0.0,30.0,0.004096220817458194,0.014699284099431437,0.0036042283311036784,30.0,0.0,0.015799588697385562,0.04688091548174064
1648219783757419583,87857,2,1,0.0333878919482,0.0146502861753,-0.0294692683965,0.0,30.0,0.011166519046220735,0.0048997612626421405,-0.009855942607525084,30.0,0.0,0.016534508025644712,0.04688091289200561
1648219783757421275,87858,2,2,2.04449343681,-0.843856453896,0.414404332638,0.0,30.0,0.683777069167224,-0.28222623876120395,0.13859676676856186,30.0,0.0,1.0073498947650381,2.2502839995987713
1648219783757535468,87859,2,3,1.58254826069,-1.61153149605,0.626943767071,0.0,30.0,0.5292803547458194,-0.5389737444983277,0.2096801896558528,30.0,0.0,0.9223709042994956,2.3440459140646692
1648219783757537172,87860,2,4,2.11220860481,-1.14272224903,0.419125825167,0.0,30.0,0.7064242825451506,-0.3821813541906354,0.1401758612598662,30.0,0.0,1.0696415854994836,2.4378075777188624
1648219783757543460,87861,2,5,0.751398026943,-0.424858301878,-1.05036342144,-0.242756426334,30.0,0.25130368794080266,-0.14209307755117057,-0.3512921141939799,30.0,-0.03280492247756756,0.38274995732626754,1.359546574659226
1648219783757991127,87862,2,6,1.32471597195,0.0424858294427,0.302802681923,-0.242756426334,30.0,0.44304882005016716,0.01420930750591973,0.1012717999742475,30.0,-0.03280492247756756,0.6267267493218146,1.3595465847931172
1648219783757995801,87863,2,7,0.453399807215,-0.5845464468,-0.496132284403,-0.0809188112617,30.0,0.15163873151003343,-0.19550048387959865,-0.1659305299006689,30.0,-0.010934974494824324,0.29018795458306196,0.8907374345316603
1648219783862484756,87864,3,0,0.012225298211,0.0439508594573,0.0108020491898,0.0,15.8999996185,0.004088728498662207,0.014699284099431437,0.0036127254815384612,15.8999996185,0.0,0.015795706837851316,0.04688091541429279
1648219783862490394,87865,3,1,0.0333878919482,0.0146502861753,-0.0294692683965,0.0,15.8999996185,0.011166519046220735,0.0048997612626421405,-0.009855942607525084,15.8999996185,0.0,0.016534508025644712,0.04688091289200561
1648219783862493959,87866,3,2,0.464863717556,-0.527410268784,-0.466726750135,0.0,15.8999996185,0.1554728152361204,-0.17639139424214045,-0.15609590305518392,15.8999996185,0.0,0.28188209683762444,0.8438564610230666
1648219783862499815,87867,3,3,1.12995243073,-0.835066318512,0.0625305175781,0.0,15.8999996185,0.3779105119498327,-0.2792863941511705,0.020913216581304347,15.8999996185,0.0,0.6030203977000548,1.4064275017413466
1648219783862571220,87868,3,4,2.11922669411,-1.14272224903,0.382060170174,0.0,15.8999996185,0.7087714696020067,-0.3821813541906354,0.1277793211284281,15.8999996185,0.0,1.0727425505379025,2.437807599686646
1648219783862576552,87869,3,5,0.626204192638,-0.914177834988,0.195170894265,-0.242756426334,15.8999996185,0.20943284034715717,-0.30574509531371236,0.06527454657692307,15.8999996185,-0.03280492247756756,0.4256809750742294,1.1251419834087413
1648219783862580779,87870,3,6,0.370351493359,-0.977174043655,0.265739440918,-0.161837622523,15.8999996185,0.12386337570535115,-0.3268140614230769,0.08887606719665551,15.8999996185,-0.021869948989594594,0.3707987357396147,1.0782610030441222
1648219784057526734,87871,5,0,0.0122609948739,0.0439508594573,0.0107615143061,0.0,11.8000001907,0.004100667181906354,0.014699284099431437,0.003599168664247491,11.8000001907,0.0,0.01580189532016098,0.046880915440011765
1648219784057640313,87872,5,1,0.0333878919482,0.0146502861753,-0.0294692683965,0.0,11.8000001907,0.011166519046220735,0.0048997612626421405,-0.009855942607525084,11.8000001907,0.0,0.016534508025644712,0.04688091289200561
1648219784057643602,87873,5,2,2.06780004501,-1.19546329975,0.107704296708,0.0,11.8000001907,0.6915719214080266,-0.39982050158862875,0.03602150391571906,11.8000001907,0.0,1.0565982578305542,2.3909265448193677
1648219784057645398,87874,5,3,0.36387360096,-0.934688270092,0.24020588398,-0.161837622523,11.8000001907,0.12169685650836119,-0.31260477260602004,0.08033641604682273,11.8000001907,-0.021869948989594594,0.3568500996554363,1.0313801561120834
1648219784057646466,87875,5,4,0.814322352409,-0.842391490936,-0.0298916846514,-0.161837622523,11.8000001907,0.27234861284581935,-0.2817362845939799,-0.009997218946956522,11.8000001907,-0.021869948989594594,0.47720317255326794,1.1720229649821727
1648219784057647421,87876,5,5,1.16202795506,-0.79111546278,-0.0431935414672,-0.161837622523,11.8000001907,0.3886381120602006,-0.26458711129765883,-0.01444600049070234,11.8000001907,-0.021869948989594594,0.6099881177172829,1.4064275046425312
1648219784162477728,87877,6,0,0.0122477002442,0.0439508594573,0.01077664271,0.0,20.7999992371,0.004096220817458194,0.014699284099431437,0.0036042283311036784,20.7999992371,0.0,0.015799588697385562,0.04688091548174064
1648219784162481378,87878,6,1,0.0334246940911,0.0146502861753,-0.0294275209308,0.0,20.7999992371,0.01117882745521739,0.0048997612626421405,-0.009841980244414716,20.7999992371,0.0,0.01655113370672634,0.04688091347482975
1648219784162483844,87879,6,2,2.05458426476,-0.757419764996,0.244914710522,0.0,20.7999992371,0.6871519280133779,-0.2533176471558528,0.08191127442207358,20.7999992371,0.0,1.004253640623514,2.2034029174974017
1648219784162493403,87880,6,3,1.65706789494,-1.57930088043,0.192097306252,0.0,20.7999992371,0.5542033093444816,-0.5281942743913043,0.06424659071973243,20.7999992371,0.0,0.945130577050868,2.2971649166825467
1648219784162504526,87881,6,4,1.67795789242,-0.789650440216,1.35568284988,0.0,20.7999992371,0.5611899305752508,-0.2640971371959866,0.4534056354113712,20.7999992371,0.0,0.8364302566461984,2.2971648821812183
1648219784162507418,87882,6,5,2.13895702362,-1.14272224903,0.248906746507,0.0,20.7999992371,0.715370242013378,-0.3821813541906354,0.08324640351404682,20.7999992371,0.0,1.0814674076492299,2.4378075920339186
1648219784162644544,87883,6,6,0.341531395912,-0.892202436924,0.237844020128,-0.161837622523,20.7999992371,0.11422454712775919,-0.2983954638541806,0.07954649502608695,20.7999992371,-0.021869948989594594,0.3393145254507018,0.9844991928678113
1648219784162647411,87884,6,7,0.782211303711,-0.808695793152,0.0100517738611,-0.161837622523,20.7999992371,0.2616091316759197,-0.2704668204521739,0.003361797277959866,20.7999992371,-0.021869948989594594,0.4582913664012948,1.1251419677857366
1648219784162649450,87885,6,8,1.05791246891,-0.849716603756,0.0846744179726,-0.0809188112617,20.7999992371,0.35381687923411365,-0.28418615510234113,0.028319203335317726,20.7999992371,-0.010934974494824324,0.5754429066499879,1.3595465625100456
1648219784357501749,87886,8,0,0.012225298211,0.0439508594573,0.0108020491898,0.0,14.1000003815,0.004088728498662207,0.014699284099431437,0.0036127254815384612,14.1000003815,0.0,0.015795706837851316,0.04688091541429279
1648219784357509647,87887,8,1,0.0334016978741,0.0146502861753,-0.0294536203146,0.0,14.1000003815,0.011171136412742476,0.0048997612626421405,-0.009850709135317725,14.1000003815,0.0,0.016540744781753033,0.0468809135526118
1648219784357663950,87888,8,2,1.57584893703,-1.61153149605,0.643597364426,0.0,14.1000003815,0.527039778270903,-0.5389737444983277,0.21524995465752508,14.1000003815,0.0,0.9198013660667361,2.3440459045410833
1648219784357667134,87889,8,3,0.779176056385,-0.808695793152,0.0695721358061,-0.0809188112617,14.1000003815,0.2605939987909699,-0.2704668204521739,0.023268272844849495,14.1000003815,-0.010934974494824324,0.4571332031008517,1.1251419887223326
1648219784462522970,87890,9,0,0.0123448604718,0.0439508594573,0.0106652053073,0.0,12.3999996185,0.0041287158768561864,0.014699284099431437,0.003566958296755853,12.3999996185,0.0,0.01581649590204501,0.046880915427819955
1648219784462527584,87891,9,1,0.0334108844399,0.0146502861753,-0.0294432006776,0.0,12.3999996185,0.011174208842775918,0.0048997612626421405,-0.009847224306889632,12.3999996185,0.0,0.01654489489101794,0.04688091456249508
1648219784462967469,87892,9,2,2.06396794319,-0.757419764996,0.146070420742,0.0,12.3999996185,0.6902902820033445,-0.2533176471558528,0.04885298352575251,12.3999996185,0.0,1.0085490455189035,2.2034030359283574
1648219784462981599,87893,9,3,2.11699342728,-1.14272224903,0.39424726367,0.0,12.3999996185,0.7080245576187291,-0.3821813541906354,0.13185527213043477,12.3999996185,0.0,1.0717556325363455,2.437807665605756
1648219784462984058,87894,9,4,0.868061721325,-0.83799636364,-0.173082113266,-0.323675245047,12.3999996185,0.2903216459280936,-0.28026634235451503,-0.05788699440334448,12.3999996185,-0.04373989797932432,0.4971142110678118,1.21890380073089
1648219784462989757,87895,9,5,0.446523219347,-0.902457654476,0.223455160856,-0.0809188112617,12.3999996185,0.14933886934682272,-0.30182530250033446,0.07473416751036789,12.3999996185,-0.010934974494824324,0.36837848610497487,1.0313801493394728
1648219784462992691,87896,9,6,1.00282990932,-0.892202436924,0.216041058302,-0.0809188112617,12.3999996185,0.3353946185016722,-0.2983954638541806,0.07225453454916388,12.3999996185,-0.010934974494824324,0.5603739404081136,1.3595465252620567
1648219784657523880,87897,11,0,0.0123228654265,0.0439508594573,0.0106906108558,0.0,17.8999996185,0.004121359674414716,0.014699284099431437,0.003575455135719063,17.8999996185,0.0,0.015812658352332205,0.04688091530489902
1648219784657531415,87898,11,1,0.0334108844399,0.0146502861753,-0.0294432006776,0.0,17.8999996185,0.011174208842775918,0.0048997612626421405,-0.009847224306889632,17.8999996185,0.0,0.01654489489101794,0.04688091456249508
1648219784657680083,87899,11,2,0.791326880455,-0.707608819008,0.189045771956,0.0,17.8999996185,0.2646578195501672,-0.23665846789565215,0.06322601068762541,17.8999996185,0.0,0.44282587246548183,1.0782609964025307
1648219784657684686,87900,11,3,2.12689399719,-1.14272224903,0.336769461632,0.0,17.8999996185,0.7113357850133778,-0.3821813541906354,0.11263192696722407,17.8999996185,0.0,1.076131862539245,2.437807597822056
1648219784657804739,87901,11,4,0.479044854641,-0.79111546278,0.154209151864,-0.0809188112617,17.8999996185,0.16021567044849497,-0.26458711129765883,0.05157496717859531,17.8999996185,-0.010934974494824324,0.3483453194451752,0.9376183182544188
1648219784657809173,87902,11,5,1.01404893398,-0.779395282269,0.295531868935,-0.0809188112617,17.8999996185,0.33914680066220737,-0.2606673184846154,0.09884008994481605,17.8999996185,-0.010934974494824324,0.5458832803125426,1.3126657350922826
1648219784762561205,87903,12,0,0.0122609948739,0.0439508594573,0.0107615143061,0.0,12.6999998093,0.004100667181906354,0.014699284099431437,0.003599168664247491,12.6999998093,0.0,0.01580189532016098,0.046880915440011765
1648219784762563251,87904,12,1,0.0333878919482,0.0146502861753,-0.0294692683965,0.0,12.6999998093,0.011166519046220735,0.0048997612626421405,-0.009855942607525084,12.6999998093,0.0,0.016534508025644712,0.04688091289200561
1648219784762569122,87905,12,2,2.02715110779,-0.914177834988,0.344550698996,0.0,12.6999998093,0.6779769591270902,-0.30574509531371236,0.115234347490301,12.6999998093,0.0,1.006372484482174,2.250283962520331
1648219784762573012,87906,12,3,2.12231659889,-1.14272224903,0.364504933357,0.0,12.6999998093,0.7098048825719063,-0.3821813541906354,0.12190800446722408,12.6999998093,0.0,1.0741082487984268,2.437807566399323
1648219784762727771,87907,12,4,0.787734150887,-0.707608819008,0.203497886658,0.161837622523,12.6999998093,0.2634562377548495,-0.23665846789565215,0.06805949386555184,12.6999998093,0.021869948989594594,0.4413905400556258,1.0782609716974048
1648219784762733024,87908,12,5,0.46931385994,-0.79111546278,0.181683585048,-0.0809188112617,12.6999998093,0.15696115717056855,-0.26458711129765883,0.060763740818729095,12.6999998093,-0.010934974494824324,0.34536929392389176,0.9376183123517209
1648219784957689873,87909,14,0,0.012225298211,0.0439508594573,0.0108020491898,0.0,21.2000007629,0.004088728498662207,0.014699284099431437,0.0036127254815384612,21.2000007629,0.0,0.015795706837851316,0.04688091541429279
1648219784957696041,87910,14,1,0.0334016978741,0.0146502861753,-0.0294536203146,0.0,21.2000007629,0.011171136412742476,0.0048997612626421405,-0.009850709135317725,21.2000007629,0.0,0.016540744781753033,0.0468809135526118
1648219784957708309,87911,14,2,1.6183835268,-1.53828012943,0.713498413563,0.0,21.2000007629,0.5412653935785953,-0.5144749596755852,0.23862823196086955,21.2000007629,0.0,0.9222911344606854,2.344045857608955
1648219784957711317,87912,14,3,0.824318349361,-0.73837441206,0.203093528748,0.161837622523,21.2000007629,0.2756917556391304,-0.24694796389966553,0.06792425710635451,21.2000007629,0.021869948989594594,0.46151401401145176,1.1251419887718657
1648219784957712411,87913,14,4,1.04033327103,-0.807230770588,0.338307589293,0.161837622523,21.2000007629,0.3479375488394648,-0.2699768463505016,0.1131463509341137,21.2000007629,0.021869948989594594,0.5612562457115219,1.3595465629279921
1648219784957713333,87914,14,5,1.17657363415,-0.637287437916,-0.240636557341,0.404594063759,21.2000007629,0.3935028876755852,-0.21313961134314377,-0.08048045396020066,21.2000007629,0.05467487348094594,0.5959173928839088,1.3595465228639312
1648219784957715177,87915,14,6,0.405626952648,-0.820416033268,0.203745961189,-0.0809188112617,21.2000007629,0.13566118817658862,-0.27438663319999995,0.0681424619361204,21.2000007629,-0.010934974494824324,0.3348073183695346,0.9376183173650845
1648219785062538152,87916,15,0,0.0123228654265,0.0439508594573,0.0106906108558,0.0,19.1000003815,0.004121359674414716,0.014699284099431437,0.003575455135719063,19.1000003815,0.0,0.015812658352332205,0.04688091530489902
1648219785062539889,87917,15,1,0.0333878919482,0.0146502861753,-0.0294692683965,0.0,19.1000003815,0.011166519046220735,0.0048997612626421405,-0.009855942607525084,19.1000003815,0.0,0.016534508025644712,0.04688091289200561
1648219785062546697,87918,15,2,1.67208087444,-1.53828012943,0.576533675194,0.0,19.1000003815,0.559224372722408,-0.5144749596755852,0.19282062715518394,19.1000003815,0.0,0.9434766993554935,2.3440459223103787
1648219785062548785,87919,15,3,1.06027388573,-0.807230770588,0.269378304482,0.0809188112617,19.1000003815,0.3546066507458194,-0.2699768463505016,0.09009307842207358,19.1000003815,0.010934974494824324,0.5695430195092355,1.3595465790735846
1648219785062553542,87920,15,4,1.15263354778,-0.747164607048,0.302025169134,0.161837622523,19.1000003815,0.3854961698260869,-0.24988782844414714,0.10101176225217391,19.1000003815,0.021869948989594594,0.5997153664078468,1.4064274770792566
