%time,field.header.seq,field.header.frame_id,field.point_id,field.x,field.y,field.z,field.velocity,field.intensity,normalized_x,normalized_y,normalized_z,normalized_intensity,normalized_velocity,normalized_range,range
1648295750469634966,63744,0,0,0.0127016305923,0.0439508594573,0.0102377133444,0.0,30.5,0.0042480369873913034,0.014699284099431437,0.0034239843961204014,30.5,0.0,0.01587956515551629,0.04688091553351634
1648295750469639424,63745,0,1,0.0335134975612,0.0146502861753,-0.0293263476342,0.0,30.5,0.01120852761244147,0.0048997612626421405,-0.009808143021471571,30.5,0.0,0.016591258026702325,0.04688091370019032
1648295750469648317,63746,0,2,1.87373840809,-0.0586011447012,0.0467183850706,0.0,30.5,0.6266683639096989,-0.019599045050568562,0.015624877950033443,30.5,0.0,0.8864595869059186,1.8752366047023354
1648295750469651985,63747,0,3,2.24222016335,-1.2306240797,0.591927409172,0.0,30.5,0.7499064091471571,-0.4115799597658863,0.19796903316789297,30.5,0.0,1.137592769070222,2.625331397023974
1648295750469653732,63748,0,4,0.347537189722,-1.63497185707,0.233366340399,0.161837622523,30.5,0.11623317382006687,-0.5468133301237458,0.07804894327725752,30.5,0.021869948989594594,0.5709860938705883,1.6877129259687536
1648295750469657694,63749,0,5,0.327620923519,-0.807230770588,0.185623735189,-0.323675245047,30.5,0.10957221522374581,-0.2699768463505016,0.062081516785618726,30.5,-0.04373989797932432,0.3112870672922987,0.8907374234739746
1648295750469676700,63750,0,6,0.526097595692,-0.799905598164,0.229370981455,-0.161837622523,30.5,0.1759523731411371,-0.26752695590769227,0.0767127028277592,30.5,-0.021869948989594594,0.3653616665240515,0.9844992093956397
1648295750571147958,63751,1,0,0.0126898419112,0.0439508594573,0.0102523220703,0.0,37.7999992371,0.004244094284682274,0.014699284099431437,0.0034288702576254176,37.7999992371,0.0,0.015877456522703608,0.046880915547797754
1648295750571155197,63752,1,1,0.03342808038,0.0146502861753,-0.0294236782938,0.0,37.7999992371,0.011179959993311037,0.0048997612626421405,-0.00984069508153846,37.7999992371,0.0,0.016552663572215777,0.046880916023974664
1648295750571160183,63753,1,2,0.264450162649,-0.0,1.09362268448,0.0,37.7999992371,0.08844487045117057,-0.0,0.3657600951438127,37.7999992371,0.0,0.12507993531437683,1.1251419752788199
1648295750571165813,63754,1,3,1.86935341358,-0.117202289402,-0.0910711959004,0.0,37.7999992371,0.6252018105618729,-0.03919809010100334,-0.03045859394662207,37.7999992371,0.0,0.8850373427868761,1.8752366581919728
1648295750571172801,63755,1,4,2.24622917175,-1.2306240797,0.576527237892,0.0,37.7999992371,0.751247214632107,-0.4115799597658863,0.19281847421137122,37.7999992371,0.0,1.1393607059513184,2.6253313645308745
1648295750571264237,63756,1,5,0.624305665493,-0.646077632904,0.40257281065,0.0809188112617,37.7999992371,0.20879788143578595,-0.2160794758876254,0.13463973600334447,37.7999992371,0.010934974494824324,0.36590087521624753,0.9844992328997185
1648295750571270574,63757,1,6,0.473722398281,-0.75155967474,0.064485013485,-0.485512852669,37.7999992371,0.15843558470936453,-0.25135775074916383,0.02156689414214047,37.7999992371,-0.06560984495527027,0.33672598335453,0.8907374317342668
1648295750571278854,63758,1,7,0.428807228804,-0.7120038867,0.145837366581,-0.323675245047,37.7999992371,0.14341378889765885,-0.2381283902006689,0.048775038990301,37.7999992371,-0.04373989797932432,0.3127941174503231,0.8438564520353883
1648295750571381772,63759,1,8,0.641911864281,-0.805765748024,0.0493529066443,-0.323675245047,37.7999992371,0.21468624223444815,-0.26948687224882945,0.01650598884424749,37.7999992371,-0.04373989797932432,0.4059600220760084,1.0313801392249253
1648295750571400276,63760,1,9,0.587513506413,-0.769140005112,0.180250525475,-0.161837622523,37.7999992371,0.19649281150936454,-0.2572374599036789,0.060284456680602005,37.7999992371,-0.021869948989594594,0.3786686687955661,0.9844992227601803
1648295750766541459,63761,3,0,0.0127100823447,0.0439508594573,0.0102272182703,0.0,34.7000007629,0.004250863660434782,0.014699284099431437,0.003420474337892977,34.7000007629,0.0,0.01588107794688408,0.04688091545386831
1648295750766552355,63762,3,1,0.03342808038,0.0146502861753,-0.0294236782938,0.0,34.7000007629,0.011179959993311037,0.0048997612626421405,-0.00984069508153846,34.7000007629,0.0,0.016552663572215777,0.046880916023974664
1648295750766555464,63763,3,2,0.602655470371,0.0703213736415,0.947526156902,0.0,34.7000007629,0.20155701350200667,0.023518854060702338,0.3168983802347826,34.7000007629,0.0,0.28601327920225106,1.1251420041809799
1648295750766568849,63764,3,3,1.87216842175,-0.0586011447012,0.0897981449962,0.0,34.7000007629,0.6261432848662207,-0.019599045050568562,0.030032824413444813,34.7000007629,0.0,0.8857171946693915,1.8752366251763897
1648295750766572322,63765,3,4,2.19543671608,-1.31266570091,0.59104257822,0.0,34.7000007629,0.734259771264214,-0.4390186290668896,0.197673103083612,34.7000007629,0.0,1.127391759798573,2.6253313973528414
1648295750766603211,63766,3,5,0.463617682457,-0.647542655468,-0.0302849654108,-0.242756426334,34.7000007629,0.15505608108929766,-0.21656944998929767,-0.010128750973511704,34.7000007629,-0.03280492247756756,0.30819977812160837,0.7969755487261087
1648295750766609326,63767,3,6,0.713094711304,-0.676843225956,0.0511660724878,-0.242756426334,34.7000007629,0.23849321448294314,-0.22636897189163876,0.01711239882535117,34.7000007629,-0.03280492247756756,0.4062030750057067,0.9844992568743193
1648295750871411457,63768,4,0,0.0127100823447,0.0439508594573,0.0102272182703,0.0,29.5,0.004250863660434782,0.014699284099431437,0.003420474337892977,29.5,0.0,0.01588107794688408,0.04688091545386831
1648295750871419951,63769,4,1,0.0334051251411,0.0146502861753,-0.0294497366995,0.0,29.5,0.011172282655886287,0.0048997612626421405,-0.009849410267391303,29.5,0.0,0.016542293067072764,0.04688091575876707
1648295750871424778,63770,4,2,1.87414646149,-0.0586011447012,-0.0255571547896,0.0,29.5,0.6268048366187291,-0.019599045050568562,-0.008547543407892976,29.5,0.0,0.8866525412945917,1.8752365774580868
1648295750871427862,63771,4,3,0.722655653954,-0.586011469364,0.116135530174,-0.323675245047,29.5,0.24169085416521738,-0.19599045798127088,0.038841314439464876,29.5,-0.04373989797932432,0.39400659587617703,0.9376183113541638
1648295750871429971,63772,4,4,0.528158783913,-0.572826206684,0.167596146464,-0.242756426334,29.5,0.1766417337501672,-0.19158067113177255,0.05605222289765886,29.5,-0.03280492247756756,0.31481384619458896,0.7969755531997341
1648295751066357235,63773,6,0,0.0127217965201,0.0439508594573,0.010212643072,0.0,41.4000015259,0.004254781444849498,0.014699284099431437,0.0034155996896321067,41.4000015259,0.0,0.015883176109414296,0.046880915437416903
1648295751066372766,63774,6,1,0.0335134975612,0.0146502861753,-0.0293263476342,0.0,41.4000015259,0.01120852761244147,0.0048997612626421405,-0.009808143021471571,41.4000015259,0.0,0.016591258026702325,0.04688091370019032
1648295751066375282,63775,6,2,0.366623967886,-0.0,1.06373465061,0.0,41.4000015259,0.12261671166755851,-0.0,0.35576409719397994,41.4000015259,0.0,0.17340621661385258,1.1251420091423365
1648295751066468235,63776,6,3,0.587488770485,0.0703213736415,0.957003831863,0.0,41.4000015259,0.19648453862374582,0.023518854060702338,0.3200681711916388,41.4000015259,0.0,0.27886463442448406,1.1251419844789676
1648295751066475347,63777,6,4,1.87134504318,-0.117202289402,0.0290467813611,0.0,41.4000015259,0.6258679074180602,-0.03919809010100334,0.009714642595685618,41.4000015259,0.0,0.8859784226149582,1.875236615145637
1648295751066482873,63778,6,5,0.702902078629,-0.448298752308,0.130577817559,-0.566431701183,41.4000015259,0.23508430723377924,-0.14993269307959864,0.04367151088929765,41.4000015259,-0.07654482448418919,0.36470409302511664,0.8438564273028617
1648295751066490185,63779,6,6,0.502157986164,-0.461484014988,0.171404227614,-0.485512852669,41.4000015259,0.16794581477056855,-0.15434247992909697,0.05732582863344481,41.4000015259,-0.06560984495527027,0.28325464604938777,0.7032137288205347
1648295751066534791,63780,6,7,0.442453145981,-0.527410328388,0.889953970909,-0.485512852669,41.4000015259,0.14797764079632106,-0.1763914141765886,0.2976434685314381,41.4000015259,-0.06560984495527027,0.27369452925936766,1.1251419960233993
1648295751171452369,63781,7,0,0.0127004906535,0.0439508594573,0.0102391270921,0.0,15.8999996185,0.004247655736956521,0.014699284099431437,0.003424457221438127,15.8999996185,0.0,0.01587936118221376,0.046880915450566385
1648295751171472828,63782,7,1,0.0335410349071,0.0146502861753,-0.0292948503047,0.0,15.8999996185,0.011217737427123745,0.0048997612626421405,-0.009797608797558527,15.8999996185,0.0,0.016603702189532134,0.046880914688519765
1648295751171575086,63783,7,2,0.412429183722,-0.0,1.04682695866,0.0,15.8999996185,0.13793618184682274,-0.0,0.350109350722408,15.8999996185,0.0,0.19507121910973824,1.1251419967999332
1648295751171578417,63784,7,3,0.577369272709,0.0703213736415,0.963142871857,0.0,15.8999996185,0.19310009120702337,0.023518854060702338,0.3221213618250836,15.8999996185,0.0,0.2740956529108955,1.1251420195994355
1648295751171579989,63785,7,4,0.573716282845,1.23208904266,-0.0342503748834,0.0,15.8999996185,0.19187835546655516,0.4120699139331103,-0.011454974877391303,15.8999996185,0.0,0.49339256232936907,1.3595465679497605
1648295751171582171,63786,7,5,0.499806433916,-0.410208046436,0.112675137818,-0.647350490093,15.8999996185,0.16715934244682273,-0.13719332656722408,0.0376839925812709,15.8999996185,-0.08747979595851352,0.27332489895560064,0.6563328419536644
1648295751171584592,63787,7,6,0.700321435928,-0.373582303524,0.071806512773,-0.485512852669,15.8999996185,0.2342212160294314,-0.12494391422207357,0.024015556111371236,15.8999996185,-0.06560984495527027,0.35401996804946473,0.7969755494387346
1648295751171627790,63788,7,7,0.444590210915,-0.451228827238,0.813926994801,-0.485512852669,15.8999996185,0.14869237823244147,-0.15091265125016723,0.2722163862210702,15.8999996185,-0.06560984495527027,0.25883097765954033,1.031380173863068
1648295751366410251,63789,9,0,0.0127217965201,0.0439508594573,0.010212643072,0.0,19.0,0.004254781444849498,0.014699284099431437,0.0034155996896321067,19.0,0.0,0.015883176109414296,0.046880915437416903
1648295751366425031,63790,9,1,0.0335410349071,0.0146502861753,-0.0292948503047,0.0,19.0,0.011217737427123745,0.0048997612626421405,-0.009797608797558527,19.0,0.0,0.016603702189532134,0.046880914688519765
1648295751366460290,63791,9,2,1.89583933353,-0.963988780975,0.575763463974,0.404594063759,19.0,0.6340599777692307,-0.32240427457357856,0.19256303142943143,19.0,0.05467487348094594,0.9528948667511805,2.2034029851238017
1648295751366462683,63792,9,3,0.514541268349,-0.193383783102,0.119733326137,-0.242756426334,19.0,0.1720873807187291,-0.06467685053578595,0.0400445906812709,19.0,-0.03280492247756756,0.2518158616936074,0.5625709500044134
1648295751366465091,63793,9,4,0.716762304306,-0.210964113474,0.0662416517735,-0.0809188112617,19.0,0.23971983421605347,-0.07055655969030099,0.02215439858645485,19.0,-0.010934974494824324,0.34627940445321803,0.7500946703434169
1648295751469646080,63794,10,0,0.0127217965201,0.0439508594573,0.010212643072,0.0,21.2000007629,0.004254781444849498,0.014699284099431437,0.0034155996896321067,21.2000007629,0.0,0.015883176109414296,0.046880915437416903
1648295751469654911,63795,10,1,0.0334906764328,0.0146502861753,-0.0293524079025,0.0,21.2000007629,0.011200895128026755,0.0048997612626421405,-0.009816858830267557,21.2000007629,0.0,0.01658094580441645,0.04688091448147568
1648295751469678676,63796,10,2,1.31138586998,-1.7580344677,0.827123343945,0.0,21.2000007629,0.4385905919665552,-0.5879713938795986,0.2766298809180602,21.2000007629,0.0,0.8546541843013844,2.344045886006326
1648295751469682530,63797,10,3,2.19876384735,-1.31266570091,0.578542411327,0.0,21.2000007629,0.7353725241973244,-0.4390186290668896,0.19349244525986622,21.2000007629,0.0,1.1288413774115742,2.6253314115484496
1648295751469688226,63798,10,4,0.662290811539,-0.131852582097,0.196202456951,0.0809188112617,21.2000007629,0.22150194365852843,-0.04409785354414715,0.06561955081973243,21.2000007629,0.010934974494824324,0.31633975845001344,0.7032137843986297
1648295751469761679,63799,10,5,0.550232052803,-0.0351606868207,0.111779056489,0.161837622523,21.2000007629,0.18402409792742475,-0.011759427030334446,0.03738429982909699,21.2000007629,0.021869948989594594,0.26051491581114233,0.5625710117834706
1648295751469775628,63800,10,6,0.512517392635,-0.761814892292,-1.63507688046,0.323675245047,21.2000007629,0.17141049920903006,-0.2547875893953177,-0.5468484550033444,21.2000007629,0.04373989797932432,0.3516814385037328,1.8752366285048017
1648295751569744066,63801,11,0,0.0127334436402,0.0439508594573,0.0101981181651,0.0,26.7999992371,0.004258676802742474,0.014699284099431437,0.003410741861237458,26.7999992371,0.0,0.015885263902631005,0.0468809156062766
1648295751569753399,63802,11,1,0.0333916135132,0.0146502861753,-0.0294650550932,0.0,26.7999992371,0.011167763716789295,0.0048997612626421405,-0.009854533475986622,26.7999992371,0.0,0.016536189201232534,0.04688091519668124
1648295751569763511,63803,11,2,1.38716638088,-1.68478298187,0.855468928814,0.0,26.7999992371,0.46393524444147155,-0.5634725691872909,0.2861100096367893,26.7999992371,0.0,0.8648544145094377,2.34404593649712
1648295751569768384,63804,11,3,1.95951938629,-0.879017233849,-0.939235627651,0.0,26.7999992371,0.655357654277592,-0.29398569693946486,-0.31412562797692306,26.7999992371,0.0,0.9723244828993243,2.344045879862178
1648295751569772586,63805,11,4,2.19698691368,-1.31266570091,0.585254251957,0.0,26.7999992371,0.7347782319999999,-0.4390186290668896,0.19573720801237457,26.7999992371,0.0,1.1280671332460062,2.6253314611036185
1648295751569776956,63806,11,5,0.653344392776,-0.0659262910485,0.251603633165,0.242756426334,26.7999992371,0.2185098303598662,-0.022048926772073575,0.08414837229598662,26.7999992371,0.03280492247756756,0.30980517603744984,0.7032137368148318
1648295751569830839,63807,11,6,0.259074509144,-0.128922522068,0.989951729774,0.242756426334,26.7999992371,0.08664699302474915,-0.04311790035719063,0.33108753504147154,26.7999992371,0.03280492247756756,0.12990210210644967,1.031380165248059
1648295751569841140,63808,11,7,1.85625290871,-0.747164547443,-1.30866348743,0.242756426334,26.7999992371,0.62082037080602,-0.2498878085093645,-0.4376800961304348,26.7999992371,0.03280492247756756,0.9128415976811427,2.3909265662881594
1648295751569847878,63809,11,8,0.696106076241,-0.0249054860324,0.387280374765,0.323675245047,26.7999992371,0.23281139673612036,-0.00832959399076923,0.12952520895150502,26.7999992371,0.04373989797932432,0.3293503833859884,0.7969755587797342
1648295751569851190,63810,11,9,0.170460686088,0.0571361146867,0.582331717014,-0.566431701183,26.7999992371,0.057010262905685616,0.0191090684570903,0.1947597715765886,26.7999992371,-0.07654482448418919,0.08285829258709444,0.6094518928870077
1648295751569856974,63811,11,10,0.538121461868,0.285680562258,0.0156063213944,-0.566431701183,26.7999992371,0.17997373306622072,0.09554533854782607,0.005219505483076922,26.7999992371,-0.07654482448418919,0.2718639382224153,0.6094519248000335
1648295751569881670,63812,11,11,1.49942290783,-1.20132350922,0.055576518178,-0.323675245047,26.7999992371,0.5014792333879599,-0.40178043786622075,0.018587464273578595,26.7999992371,-0.04373989797932432,0.8151014435582382,1.9221175769715073
1648295751569885908,63813,11,12,1.04409611225,-0.476134330034,0.238321438432,-0.161837622523,26.7999992371,0.3491960241638796,-0.15924225084749163,0.07970616669966554,26.7999992371,-0.021869948989594594,0.5188774624501407,1.1720229092764305
1648295751669632628,63814,12,0,0.0127004906535,0.0439508594573,0.0102391270921,0.0,20.7999992371,0.004247655736956521,0.014699284099431437,0.003424457221438127,20.7999992371,0.0,0.01587936118221376,0.046880915450566385
1648295751669642276,63815,12,1,0.033477243036,0.0146502861753,-0.0293677262962,0.0,20.7999992371,0.011196402353177256,0.0048997612626421405,-0.009821982038862875,20.7999992371,0.0,0.016574875919274777,0.046880913324274236
1648295751669649828,63816,12,2,1.3823672533,-1.68478298187,0.86320245266,0.0,20.7999992371,0.4623301850501672,-0.5634725691872909,0.2886964724615384,20.7999992371,0.0,0.8631336722915924,2.3440459452137867
1648295751669747134,63817,12,3,2.05735635757,-0.879017233849,-0.699403047562,0.0,20.7999992371,0.6880790493545149,-0.29398569693946486,-0.23391406272976586,20.7999992371,0.0,1.0165299534820451,2.344045883163608
1648295751669756268,63818,12,4,2.1972784996,-1.31266570091,0.584158480167,0.0,20.7999992371,0.7348757523745818,-0.4390186290668896,0.1953707291528428,20.7999992371,0.0,1.1281941763384469,2.625331441380495
1648295751669758173,63819,12,5,1.03554677963,-0.386767566204,0.209757432342,0.0809188112617,20.7999992371,0.3463367155953177,-0.1293537010715719,0.07015298740535117,20.7999992371,0.010934974494824324,0.506587229526779,1.1251419748156843
1648295751669816902,63820,12,6,0.650975525379,-0.0,0.799984931946,0.323675245047,20.7999992371,0.21771756701638798,-0.0,0.26755348894515046,20.7999992371,0.04373989797932432,0.3078991360414491,1.0313801558994196
1648295751670128766,63821,12,7,0.736987054348,0.0234404578805,0.137632250786,0.404594063759,20.7999992371,0.24648396466488295,0.007839618020234113,0.04603085310568562,20.7999992371,0.05467487348094594,0.34866911145747015,0.7500946672244844
1648295751670139672,63822,12,8,1.58373987675,-0.609451889992,-1.75021195412,0.404594063759,20.7999992371,0.5296788885451504,-0.20383006354247488,-0.5853551686020066,20.7999992371,0.05467487348094594,0.776315750674029,2.4378075165540602
1648295751670152080,63823,12,9,0.992358982563,1.6217867136,0.282077342272,0.485512852669,20.7999992371,0.33189263630869564,0.5424035831438127,0.094340248251505,20.7999992371,0.06560984495527027,0.7172914965891616,1.9221176139108125
1648295751670165258,63824,12,10,0.0672269463539,-0.181663542986,1.44034159184,-0.566431701183,20.7999992371,0.02248392854645485,-0.06075703778795986,0.4817195959331103,20.7999992371,-0.07654482448418919,0.06857457055302466,1.4533082970761853
1648295751670169414,63825,12,11,1.40715575218,0.363327085972,0.00335213285871,-0.566431701183,20.7999992371,0.47062065290301,0.12151407557591971,0.001121114668464883,20.7999992371,-0.07654482448418919,0.6765598779419166,1.4533083358629952
1648295751670279642,63826,12,12,0.188696935773,0.123062409461,-0.616459190845,-0.485512852669,20.7999992371,0.06310934306789298,0.041157996475250834,-0.2061736424230769,20.7999992371,-0.06560984495527027,0.09828305570533907,0.6563328608029151
1648295751670306292,63827,12,13,0.525673091412,0.389697641134,0.0507579706609,-0.485512852669,20.7999992371,0.17581039846555183,0.13033365924214046,0.016975909920033443,20.7999992371,-0.06560984495527027,0.28072309336547036,0.6563328592457227
1648295751769739650,63828,13,0,0.0127334436402,0.0439508594573,0.0101981181651,0.0,41.9000015259,0.004258676802742474,0.014699284099431437,0.003410741861237458,41.9000015259,0.0,0.015885263902631005,0.0468809156062766
1648295751769747526,63829,13,1,0.0334426723421,0.0146502861753,-0.0294070895761,0.0,41.9000015259,0.011184840248193979,0.0048997612626421405,-0.009835147015418058,41.9000015259,0.0,0.016559256118139135,0.046880914408061795
1648295751769762970,63830,13,2,2.24114918709,-1.2306240797,0.595969200134,0.0,41.9000015259,0.7495482231070234,-0.4115799597658863,0.1993208027204013,41.9000015259,0.0,1.1371205480540227,2.6253313299162833
1648295751769774722,63831,13,3,1.54274070263,0.096691891551,0.0634667277336,0.242756426334,41.9000015259,0.5159667901772574,0.032338425267892976,0.021226330345685617,41.9000015259,0.03280492247756756,0.7304034712954554,1.5470702062195587
1648295751769792357,63832,13,4,1.10514354706,-0.293005734682,0.257765740156,0.323675245047,41.9000015259,0.36961322644147154,-0.09799522899063544,0.08620927764414715,41.9000015259,0.04373989797932432,0.5318185209504047,1.1720229506980944
1648295751769864832,63833,13,5,0.654166042805,0.079111546278,0.527163982391,0.404594063759,41.9000015259,0.2187846297006689,0.026458711129765885,0.17630902421103678,41.9000015259,0.05467487348094594,0.31053742412335106,0.8438564526292299
1648295751769891733,63834,13,6,0.954657018185,0.12306240201,0.206698805094,0.404594063759,41.9000015259,0.319283283673913,0.04115799398327759,0.06913003514849497,41.9000015259,0.05467487348094594,0.4534066727959794,0.9844992499670245
1648295751769900790,63835,13,7,0.791258990765,0.0747164562345,0.0591323934495,0.566431701183,41.9000015259,0.26463511396822736,0.024988781349331104,0.019776720217224077,41.9000015259,0.07654482448418919,0.3750838923271406,0.7969755198585178
1648295751769902875,63836,13,8,0.367350161076,0.234404578805,0.610532820225,-0.485512852669,41.9000015259,0.12285958564414715,0.07839618020234114,0.20419157867056856,41.9000015259,-0.06560984495527027,0.19061719922300036,0.7500946420147293
1648295751769905439,63837,13,9,0.538439571857,0.515690088272,-0.082392655313,-0.485512852669,41.9000015259,0.1800801243668896,0.17247160142876253,-0.027556072011036787,41.9000015259,-0.06560984495527027,0.307577885556473,0.7500946535825058
1648295751769907732,63838,13,10,1.18861341476,-1.57490575314,0.4130859375,-0.485512852669,41.9000015259,0.39752957015384616,-0.5267243321538461,0.13815583193979933,41.9000015259,-0.06560984495527027,0.7703882400298687,2.015879453931001
1648295751869671119,63839,14,0,0.0127121871337,0.0439508594573,0.0102246021852,0.0,27.6000003815,0.004251567603244147,0.014699284099431437,0.003419599393043478,27.6000003815,0.0,0.01588145482018912,0.04688091550517269
1648295751869682092,63840,14,1,0.0335276499391,0.0146502861753,-0.0293101686984,0.0,27.6000003815,0.011213260849197323,0.0048997612626421405,-0.009802732006153845,27.6000003815,0.0,0.01659765339363283,0.0468809149290592
1648295751869685145,63841,14,2,0.366623967886,-0.0,1.06373465061,0.0,27.6000003815,0.12261671166755851,-0.0,0.35576409719397994,27.6000003815,0.0,0.17340621661385258,1.1251420091423365
1648295751869693577,63842,14,3,0.569437682629,0.0703213736415,0.967853367329,0.0,27.6000003815,0.1904473854946488,0.023518854060702338,0.323696778370903,27.6000003815,0.0,0.2703581879282063,1.1251419957671107
1648295751869700312,63843,14,4,0.473091959953,1.27457487583,-0.0031130516436,0.0,27.6000003815,0.1582247357702341,0.4262792226856187,-0.0010411543958528428,27.6000003815,0.0,0.4814396220841987,1.3595465449037654
1648295751869745825,63844,14,5,1.91322278976,-0.180198520422,0.0405347421765,0.0,27.6000003815,0.639873842729097,-0.06026706368628762,0.013556769958695652,27.6000003815,0.0,0.9069229229560631,1.9221175862424833
1648295751869758207,63845,14,6,2.24042654037,-1.2306240797,0.598680257797,0.0,27.6000003815,0.7493065352408027,-0.4115799597658863,0.2002275109688963,27.6000003815,0.0,1.1368019312043947,2.625331361829901
1648295751869759818,63846,14,7,1.02599680424,-0.0,-0.105240792036,0.161837622523,27.6000003815,0.3431427438929766,-0.0,-0.03519758930969899,27.6000003815,0.021869948989594594,0.48527712224336506,1.0313801755992102
1648295751869760776,63847,14,8,0.110202386975,-1.27457487583,-2.3993294239,0.242756426334,27.6000003815,0.03685698561036789,-0.4262792226856187,-0.802451312341137,27.6000003815,0.03280492247756756,0.42945413081028927,2.7190931143644845
1648295751869761789,63848,14,9,2.04167842865,-0.0,-1.79583311081,0.242756426334,27.6000003815,0.6828355948662207,-0.0,-0.6006130805384615,27.6000003815,0.03280492247756756,0.9656753591309094,2.7190931149734934
1648295751869766645,63849,14,10,0.808460474014,-0.237334638834,2.3872385025,0.404594063759,27.6000003815,0.2703881183993311,-0.07937613338929765,0.7984075259197323,27.6000003815,0.05467487348094594,0.39053814115256,2.53156942165366
1648295751869768083,63850,14,11,1.63684988022,-1.81956553459,-0.647107124329,0.404594063759,27.6000003815,0.5474414315117057,-0.6085503460167223,-0.21642378740100332,27.6000003815,0.05467487348094594,0.9847424869011409,2.5315694530076334
1648295751869769422,63851,14,12,0.828095555305,0.139177724719,0.29715397954,0.485512852669,27.6000003815,0.2769550352190635,0.04654773401973244,0.0993826018528428,27.6000003815,0.06560984495527027,0.39442980948295114,0.8907374334394579
1648295751869770875,63852,14,13,1.44969415665,-1.47528386116,-1.37680840492,0.485512852669,27.6000003815,0.4848475440301003,-0.49340597363210703,-0.4604710384347826,27.6000003815,0.06560984495527027,0.8447506950100057,2.484688512204833
1648295751869773255,63853,14,14,1.83087730408,-0.0776465162635,1.67795598507,0.485512852669,27.6000003815,0.6123335465150501,-0.025968734536287622,0.5611892926655518,27.6000003815,0.06560984495527027,0.866359694092941,2.4846885060134483
1648295751869774801,63854,14,15,1.17737770081,-0.266635209322,0.168563947082,0.566431701183,27.6000003815,0.39377180629096986,-0.0891756552916388,0.05637590203411371,27.6000003815,0.07654482448418919,0.5639723116926924,1.2189037654674348
1648295751869776365,63855,14,16,0.440229713917,-1.93383789062,0.566964685917,0.566431701183,27.6000003815,0.14723401803244146,-0.6467685252909698,0.18962029629331104,27.6000003815,0.07654482448418919,0.6794595186168271,2.0627603213388648
1648295751969521990,63856,15,0,0.0127323288471,0.0439508594573,0.0101995095611,0.0,24.6000003815,0.004258303962240802,0.014699284099431437,0.003411207211070234,24.6000003815,0.0,0.015885064000672747,0.046880915522129064
1648295751969651584,63857,15,1,0.0335276499391,0.0146502861753,-0.0293101686984,0.0,24.6000003815,0.011213260849197323,0.0048997612626421405,-0.009802732006153845,24.6000003815,0.0,0.01659765339363283,0.0468809149290592
1648295751969658730,63858,15,2,1.86700940132,-0.117202289402,0.130583390594,0.0,24.6000003815,0.6244178599732441,-0.03919809010100334,0.04367337478060201,24.6000003815,0.0,0.8839297585072572,1.8752366525741118
1648295751969667998,63859,15,3,2.19900417328,-1.31266570091,0.577628612518,0.0,24.6000003815,0.7354529007625418,-0.4390186290668896,0.19318682692909697,24.6000003815,0.0,1.1289460993102574,2.625331485821908
1648295751969672971,63860,15,4,0.723601639271,0.421928226948,0.102327682078,0.0809188112617,24.6000003815,0.24200723721438125,0.14111311938060198,0.03422330504280936,24.6000003815,0.010934974494824324,0.3701998354802438,0.8438564543633102
1648295751969681519,63861,15,5,0.972395956516,0.0922968015075,0.123150743544,0.161837622523,24.6000003815,0.3252160389685618,0.03086849548745819,0.04118753964682274,24.6000003815,0.021869948989594594,0.46095965986023274,0.9844992135358064
1648295751969751015,63862,15,6,0.847478628159,0.194848805666,0.19294308126,0.323675245047,24.6000003815,0.28343766828060196,0.06516682463745818,0.06452945861538462,24.6000003815,0.04373989797932432,0.4061040982728669,0.890737399496524
1648295751969754764,63863,15,7,1.52958929539,-1.34489631653,-1.50348067284,0.323675245047,24.6000003815,0.5115683262173913,-0.44979809917391306,-0.5028363454314381,24.6000003815,0.04373989797932432,0.8518935583734578,2.53156940422163
1648295751969763177,63864,15,8,2.18813109398,0.158223092556,1.26328587532,0.323675245047,24.6000003815,0.7318164193913043,0.05291742225953177,0.4225036372307692,24.6000003815,0.04373989797932432,1.03629667420098,2.5315693619261386
1648295751969766685,63865,15,9,0.743720829487,0.175803437829,0.82578265667,0.404594063759,24.6000003815,0.2487360633735786,0.05879713639765886,0.27618149052508356,24.6000003815,0.05467487348094594,0.356645989313962,1.1251419986038604
1648295751969768964,63866,15,10,0.831293344498,-1.95434808731,0.374248743057,0.404594063759,24.6000003815,0.2780245299324414,-0.6536281228461538,0.1251668036979933,24.6000003815,0.05467487348094594,0.7627745416987229,2.1565220130243676
1648295751969770497,63867,15,11,2.13856887817,0.134782627225,0.242782980204,0.404594063759,24.6000003815,0.7152404274816053,0.04507780174749164,0.08119832113846152,24.6000003815,0.05467487348094594,1.012506664876101,2.1565219170589716
1648295751969910654,63868,15,12,1.27168428898,-0.0,0.32543861866,0.566431701183,24.6000003815,0.4253124712307692,-0.0,0.10884234737792642,24.6000003815,0.07654482448418919,0.6014826650609706,1.3126656944378097
1648295752069489680,63869,16,0,0.0127121871337,0.0439508594573,0.0102246021852,0.0,30.7999992371,0.004251567603244147,0.014699284099431437,0.003419599393043478,30.7999992371,0.0,0.01588145482018912,0.04688091550517269
1648295752069494818,63870,16,1,0.0334655456245,0.0146502861753,-0.0293810591102,0.0,30.7999992371,0.01119249017541806,0.0048997612626421405,-0.009826441173979933,30.7999992371,0.0,0.016569590613064285,0.04688091576964707
1648295752069501768,63871,16,2,1.87131929398,-0.117202289402,0.0306588318199,0.0,30.7999992371,0.6258592956454849,-0.03919809010100334,0.01025378990632107,30.7999992371,0.0,0.885966255654972,1.8752365825760324
1648295752069514843,63872,16,3,2.19532108307,-1.31266570091,0.591472685337,0.0,30.7999992371,0.7342210980167224,-0.4390186290668896,0.19781695161772575,30.7999992371,0.0,1.1273413849466958,2.625331567177171
1648295752069537261,63873,16,4,0.861494660378,0.263705164194,0.259643286467,0.242756426334,30.7999992371,0.2881253044742475,0.0881957070882943,0.0868372195541806,30.7999992371,0.03280492247756756,0.4169063023097155,0.9376183123690442
1648295752069547372,63874,16,5,1.77361917496,0.0864366889,-2.1207113266,0.242756426334,30.7999992371,0.593183670555184,0.02890859160535117,-0.7092680022073578,30.7999992371,0.03280492247756756,0.8393863476941038,2.76597411588455
1648295752069571048,63875,16,6,1.7731013298,-0.9508035779,-1.89807701111,0.242756426334,30.7999992371,0.5930104781939799,-0.3179945076588629,-0.6348083649197324,30.7999992371,0.03280492247756756,0.8969076660375404,2.7659739893191766
1648295752069573270,63876,16,7,0.775145828724,0.219754308462,0.851172626019,0.323675245047,30.7999992371,0.2592460965632107,0.0734964242347826,0.28467311906989967,30.7999992371,0.04373989797932432,0.37392352365399834,1.1720229738191605
1648295752069581490,63877,16,8,0.981651186943,-1.81956541538,0.613294243813,0.404594063759,30.7999992371,0.32831143376020067,-0.6085503061471572,0.20511513171003343,30.7999992371,0.05467487348094594,0.7654477579738255,2.1565220108238523
1648295752069599185,63878,16,9,0.525754570961,-0.0,-1.20277738571,-0.647350490093,30.7999992371,0.1758376491508361,-0.0,-0.40226668418394645,30.7999992371,-0.08747979595851352,0.24867198820491437,1.3126657260939538
1648295752069601966,63879,16,10,1.2099763155,0.492249637842,0.129379168153,-0.647350490093,30.7999992371,0.40467435301003346,0.16463198590033443,0.043270624800334445,30.7999992371,-0.08747979595851352,0.595505125712337,1.3126657454121737
