%time,field.header.seq,field.header.frame_id,field.point_id,field.x,field.y,field.z,field.velocity,field.intensity,normalized_x,normalized_y,normalized_z,normalized_intensity,normalized_velocity,normalized_range,range
1648294605159625744,18721,0,0,0.0126902572811,0.0439508594573,0.0102518079802,0.0,15.0,0.004244233204381271,0.014699284099431437,0.0034286983211371234,15.0,0.0,0.015877530791094153,0.04688091556015881
1648294605159796641,18722,0,1,0.0335742086172,0.0146502861753,-0.029256824404,0.0,15.0,0.011228832313444816,0.0048997612626421405,-0.009784891105016721,15.0,0.0,0.016618694614133008,0.046880914490823905
1648294605159816993,18723,0,2,1.53468859196,-1.68478298187,0.548441827297,0.0,15.0,0.5132737765752508,-0.5634725691872909,0.18342536029999998,15.0,0.0,0.9189130947299463,2.344045905740715
1648294605159824563,18724,0,3,2.18943214417,-1.31266570091,0.612911522388,0.0,15.0,0.7322515532341136,-0.4390186290668896,0.20498713123344478,15.0,0.0,1.124776436050878,2.6253313868055517
1648294605159858566,18725,0,4,1.16152215004,-1.31413066387,0.516537964344,0.161837622523,15.0,0.3884689465016722,-0.43950858323411374,0.17275517202140467,15.0,0.021869948989594594,0.7035510212690306,1.8283557026370976
1648294605159879105,18726,0,5,0.388236910105,-1.0987714529,-0.124944545329,0.566431701183,15.0,0.12984512043645485,-0.3674820912709029,-0.0417874733541806,15.0,0.07654482448418919,0.41080725164869125,1.172022927882951
1648294605159883911,18727,0,6,0.958908319473,-0.79111546278,0.238415941596,-0.647350490093,15.0,0.3207051235695652,-0.26458711129765883,0.07973777310903009,15.0,-0.08747979595851352,0.5250808433302246,1.2657847375487088
1648294605159948788,18728,0,7,1.15317332745,-0.703213751316,-0.392071604729,-0.647350490093,15.0,0.38567669814381267,-0.23518854559063543,-0.13112762699966554,15.0,-0.08747979595851352,0.5939753218436483,1.4064275475177523
1648294605159955719,18729,0,8,0.841719806194,-0.703213751316,0.250883638859,-0.566431701183,15.0,0.28151164086755853,-0.23518854559063543,0.08390757152474916,15.0,-0.07654482448418919,0.4623972965588455,1.1251419521226285
1648294605264667765,18730,1,0,0.00631579104811,0.0454158857465,0.00976362358779,0.0,35.5,0.0021123046983645482,0.015189259446989964,0.003265425949093645,35.5,0.0,0.015480221730499849,0.04688091552291377
1648294605264672130,18731,1,1,0.033503819257,0.0146502861753,-0.0293374042958,0.0,35.5,0.011205290721404682,0.0048997612626421405,-0.00981184090160535,35.5,0.0,0.01658688459998695,0.04688091382043587
1648294605264674908,18732,1,2,1.50163924694,-1.68478298187,0.633353948593,0.0,35.5,0.5022204839264214,-0.5634725691872909,0.21182406307458193,35.5,0.0,0.9066157759365895,2.3440459355882175
1648294605264676437,18733,1,3,1.20050942898,-1.37126672268,0.145908683538,0.242756426334,35.5,0.40150817022742474,-0.4586176330033444,0.04879889081538461,35.5,0.03280492247756756,0.7298957150308115,1.8283557251616072
1648294605264678251,18734,1,4,1.17872262001,-0.637287437916,-0.229879453778,-0.647350490093,35.5,0.3942216120434783,-0.21313961134314377,-0.07688276046086956,35.5,-0.08747979595851352,0.5968666959446002,1.3595465629091377
1648294605264680129,18735,1,5,0.918861627579,-0.597731649876,0.253682225943,-0.566431701183,35.5,0.3073115811301003,-0.19991025079464883,0.08484355382709029,35.5,-0.07654482448418919,0.47837738676294456,1.125141985555605
1648294605459807820,18736,3,0,0.0126678450033,0.0439508594573,0.0102794887498,0.0,37.5999984741,0.004236737459297658,0.014699284099431437,0.0034379561036120398,37.5999984741,0.0,0.015873526439762208,0.046880915445629195
1648294605459809947,18737,3,1,0.0335877910256,0.0146502861753,-0.0292412284762,0.0,37.5999984741,0.011233374924949833,0.0048997612626421405,-0.009779675075652174,37.5999984741,0.0,0.016624833377807784,0.04688091332082697
1648294605459813874,18738,3,2,1.49744415283,-1.68478298187,0.643209517002,0.0,37.5999984741,0.5008174424180601,-0.5634725691872909,0.2151202398,37.5999984741,0.0,0.9050621843204258,2.3440458975040297
1648294605459815035,18739,3,3,2.19777464867,-1.31266570091,0.58228880167,0.0,37.5999984741,0.7350416885183946,-0.4390186290668896,0.19474541861872907,37.5999984741,0.0,1.128410352836111,2.6253313880789158
1648294605459816009,18740,3,4,0.873645424843,-0.399952799082,0.214522927999,-0.404594063759,37.5999984741,0.2921891052986622,-0.13376347795384613,0.0717467986618729,37.5999984741,-0.05467487348094594,0.4343289243704298,0.9844991906953996
1648294605459823555,18741,3,5,0.906596422195,-0.354536950588,0.340780705214,-0.161837622523,37.5999984741,0.3032095057508361,-0.11857423096588628,0.11397348000468227,37.5999984741,-0.021869948989594594,0.4448953326395816,1.0313801486916276
1648294605564648977,18742,4,0,0.00628323899582,0.0454158857465,0.00978460349143,0.0,34.0,0.002101417724354515,0.015189259446989964,0.0032724426392742472,34.0,0.0,0.01547725800820147,0.0468809154763667
1648294605564653503,18743,4,1,0.0335372425616,0.0146502861753,-0.0292991939932,0.0,34.0,0.011216469084147156,0.0048997612626421405,-0.00979906153618729,34.0,0.0,0.016601988370738802,0.04688091607791967
1648294605564659450,18744,4,2,1.49086344242,-1.68478298187,0.658318996429,0.0,34.0,0.49861653592642136,-0.5634725691872909,0.22017357740100335,34.0,0.0,0.9026285149634121,2.34404594686249
1648294605564667511,18745,4,3,2.24410557747,-1.2306240797,0.584738910198,0.0,34.0,0.7505369824314381,-0.4115799597658863,0.19556485290903006,34.0,0.0,1.138424168434361,2.625331419358131
1648294605564672181,18746,4,4,2.10928487778,-1.12074685097,-0.106648080051,0.485512852669,34.0,0.7054464474180602,-0.3748317227324415,-0.03566825419765886,34.0,0.06560984495527027,1.065743027524034,2.3909266012508885
1648294605564807933,18747,4,5,0.486898690462,-1.90746724606,-0.0381201729178,-0.566431701183,34.0,0.16284237139197325,-0.6379489117257524,-0.012749221711638796,34.0,-0.07654482448418919,0.6782433853810846,1.968998419793326
1648294605564811334,18748,4,6,1.71601939201,-0.12306240201,-0.957646965981,-0.566431701183,34.0,0.5739195291003344,-0.04115799398327759,-0.32028326621438125,34.0,-0.07654482448418919,0.812687659703423,1.9689983798864477
1648294605564813979,18749,4,7,0.947791993618,-0.257845044136,0.31456515193,-0.161837622523,34.0,0.3169872888354515,-0.08623580071438126,0.10520573643143813,34.0,-0.021869948989594594,0.45650684101265165,1.0313801262195343
1648294605564889304,18750,4,8,0.880540311337,-0.263705164194,-0.185031011701,-0.0809188112617,34.0,0.2944950874036789,-0.0881957070882943,-0.06188328150535117,34.0,-0.010934974494824324,0.42571492311006104,0.9376183278942135
1648294605564939495,18751,4,9,0.479263544083,0.0879017189145,0.801066696644,-0.0809188112617,34.0,0.16028881073010032,0.02939856819882943,0.2679152831585284,34.0,-0.010934974494824324,0.22858101737169925,0.9376183175190488
1648294605759829987,18752,6,0,0.0126474238932,0.0439508594573,0.0103046037257,0.0,22.7999992371,0.004229907656588629,0.014699284099431437,0.003446355761103679,22.7999992371,0.0,0.01586988313133818,0.04688091547861809
1648294605759837975,18753,6,1,0.0335877910256,0.0146502861753,-0.0292412284762,0.0,22.7999992371,0.011233374924949833,0.0048997612626421405,-0.009779675075652174,22.7999992371,0.0,0.016624833377807784,0.04688091332082697
1648294605759839452,18754,6,2,1.48217010498,-1.68478298187,0.677664637566,0.0,22.7999992371,0.4957090652107023,-0.5634725691872909,0.2266436914936455,22.7999992371,0.0,0.8994199747007307,2.344045920433866
1648294605759840870,18755,6,3,2.1981575489,-1.31266570091,0.5808416605,0.0,22.7999992371,0.7351697487959865,-0.4390186290668896,0.19426142491638793,22.7999992371,0.0,1.1285771908723297,2.6253313860737646
1648294605759843547,18756,6,4,0.983940958977,0.0307656005025,0.0123418252915,0.0809188112617,22.7999992371,0.3290772438050167,0.010289498495819397,0.00412770076638796,22.7999992371,0.010934974494824324,0.46549923583171243,0.984499189221801
1648294605759848504,18757,6,5,2.67080593109,-0.509829938412,-0.0183305665851,0.323675245047,22.7999992371,0.893246130799331,-0.1705116850876254,-0.006130624275953176,22.7999992371,0.04373989797932432,1.2746966443540098,2.719093028441292
1648294605759850554,18758,6,6,1.14542579651,-0.237334638834,-2.24510931969,0.485512852669,22.7999992371,0.3830855506722408,-0.07937613338929765,-0.7508726821705686,22.7999992371,0.06560984495527027,0.547548763873633,2.5315694427488906
1648294605759859796,18759,6,7,0.977198541164,0.064461261034,0.323531657457,-0.161837622523,22.7999992371,0.3268222545698996,0.021558950178595316,0.10820456771137124,22.7999992371,-0.021869948989594594,0.4626989955652678,1.031380131864104
1648294605864732197,18760,7,0,0.0126474238932,0.0439508594573,0.0103046037257,0.0,33.0999984741,0.004229907656588629,0.014699284099431437,0.003446355761103679,33.0999984741,0.0,0.01586988313133818,0.04688091547861809
1648294605864734400,18761,7,1,0.0335877910256,0.0146502861753,-0.0292412284762,0.0,33.0999984741,0.011233374924949833,0.0048997612626421405,-0.009779675075652174,33.0999984741,0.0,0.016624833377807784,0.04688091332082697
1648294605864736515,18762,7,2,0.975505828857,0.12306240201,0.0498269349337,0.0,33.0999984741,0.3262561300525083,0.04115799398327759,0.01666452673367893,33.0999984741,0.0,0.4632279193468437,0.9844992129846223
1648294605864747098,18763,7,3,1.49044251442,-1.68478298187,0.659271299839,0.0,33.0999984741,0.4984757573311036,-0.5634725691872909,0.22049207352474914,33.0999984741,0.0,0.9024729899116987,2.344045910723761
1648294605864751661,18764,7,4,2.2409529686,-1.2306240797,0.596706449986,0.0,33.0999984741,0.7494825981939798,-0.4115799597658863,0.1995673745772575,33.0999984741,0.0,1.1370340334713318,2.625331297278406
1648294605864815037,18765,7,5,0.967711865902,0.0922968015075,0.155736207962,0.161837622523,33.0999984741,0.32364945347892976,0.03086849548745819,0.05208568828160535,33.0999984741,0.021869948989594594,0.45874917055846437,0.9844992236901097
1648294605864818531,18766,7,6,1.02739596367,0.210964113474,0.407303422689,0.161837622523,33.0999984741,0.34361069019063545,0.07055655969030099,0.1362218804979933,33.0999984741,0.021869948989594594,0.49103446003503737,1.1251419472553021
1648294605864822534,18767,7,7,0.911569595337,-1.95434808731,-0.0123147815466,0.485512852669,33.0999984741,0.30487277436020066,-0.6536281228461538,-0.004118656035652174,33.0999984741,0.06560984495527027,0.7830226944779815,2.1565220210699585
1648294605864826328,18768,7,8,1.24655091763,-2.25614404678,-0.0658114999533,0.566431701183,33.0999984741,0.4169066614147157,-0.754563226347826,-0.022010535101438126,33.0999984741,0.07654482448418919,0.9575948993287137,2.5784503686499636
1648294606059630251,18769,9,0,0.0126474238932,0.0439508594573,0.0103046037257,0.0,16.7000007629,0.004229907656588629,0.014699284099431437,0.003446355761103679,16.7000007629,0.0,0.01586988313133818,0.04688091547861809
1648294606059827961,18770,9,1,0.0335877910256,0.0146502861753,-0.0292412284762,0.0,16.7000007629,0.011233374924949833,0.0048997612626421405,-0.009779675075652174,16.7000007629,0.0,0.016624833377807784,0.04688091332082697
1648294606059946223,18771,9,2,1.49475967884,-1.68478298187,0.649423539639,0.0,16.7000007629,0.4999196250301003,-0.5634725691872909,0.2171985082404682,16.7000007629,0.0,0.9040689128639467,2.344045888484668
1648294606059952127,18772,9,3,2.1972322464,-1.31266570091,0.584331929684,0.0,16.7000007629,0.7348602830769231,-0.4390186290668896,0.19542873902474917,16.7000007629,0.0,1.1281740237904623,2.625331329758924
1648294606059958131,18773,9,4,0.975878894329,0.370652228594,0.270044475794,0.242756426334,16.7000007629,0.3263809011133779,0.12396395605150501,0.09031587819197323,16.7000007629,0.03280492247756756,0.47792891482217376,1.0782609655669386
1648294606059959416,18774,9,5,1.28365921974,0.681238293648,0.0154408924282,0.485512852669,16.7000007629,0.4293174647959866,0.2278388941966555,0.005164178069632107,16.7000007629,0.06560984495527027,0.6484886528432562,1.4533083039448043
1648294606059960889,18775,9,6,0.173382475972,0.454158842564,1.36959242821,-0.647350490093,16.7000007629,0.05798745015785953,0.15189258948628762,0.45805766829765887,16.7000007629,-0.08747979595851352,0.17261647514785597,1.4533083487902412
1648294606059967242,18776,9,7,1.01021981239,1.04456532001,-0.0210811458528,-0.647350490093,16.7000007629,0.3378661579899665,0.34935294983612036,-0.007050550452441471,16.7000007629,-0.08747979595851352,0.591907564564773,1.4533083608867554
1648294606059971434,18777,9,8,2.35593438148,-1.25259947777,0.145895272493,-0.566431701183,16.7000007629,0.7879379202274247,-0.41892959122742474,0.048794405516053505,16.7000007629,-0.07654482448418919,1.1904597156857581,2.6722121345591248
1648294606164566024,18778,10,0,0.00631333654746,0.0454158857465,0.00976521056145,0.0,12.0,0.0021114837951371236,0.015189259446989964,0.0032659567095150496,12.0,0.0,0.015479997744903816,0.04688091545405326
1648294606164571193,18779,10,1,0.0335877910256,0.0146502861753,-0.0292412284762,0.0,12.0,0.011233374924949833,0.0048997612626421405,-0.009779675075652174,12.0,0.0,0.016624833377807784,0.04688091332082697
1648294606164576426,18780,10,2,1.51639723778,-1.68478298187,0.597157478333,0.0,12.0,0.5071562668160534,-0.5634725691872909,0.19971822017826088,12.0,0.0,0.9120944546307242,2.3440459322877207
1648294606164578686,18781,10,3,2.24171853065,-1.2306240797,0.593823850155,0.0,12.0,0.7497386390133779,-0.4115799597658863,0.19860329436622073,12.0,0.0,1.1373715826150015,2.6253312859922984
1648294606164580676,18782,10,4,0.91447108984,0.471739202738,0.322259962559,0.404594063759,12.0,0.30584317385953175,0.15777230860802674,0.10777925169197325,12.0,0.05467487348094594,0.4604043824253305,1.078260976304702
1648294606164582802,18783,10,5,0.997033298016,0.647542655468,0.268960088491,0.485512852669,12.0,0.33345595251371235,0.21656944998929767,0.08995320685317726,12.0,0.06560984495527027,0.5189297362864469,1.218903776843889
1648294606164584666,18784,10,6,0.9692953825,0.471739202738,0.023985421285,0.566431701183,12.0,0.3241790576923077,0.15777230860802674,0.008021880028428094,12.0,0.07654482448418919,0.48484659868462676,1.0782609676557544
1648294606164590122,18785,10,7,1.21365201473,0.499574750662,-0.624162614346,0.566431701183,12.0,0.4059036838561873,0.16708185640869566,-0.20875003824280933,12.0,0.07654482448418919,0.5978561264025177,1.4533083339417072
1648294606359675919,18786,12,0,0.0126678450033,0.0439508594573,0.0102794887498,0.0,18.6000003815,0.004236737459297658,0.014699284099431437,0.0034379561036120398,18.6000003815,0.0,0.015873526439762208,0.046880915445629195
1648294606359678848,18787,12,1,0.0335372425616,0.0146502861753,-0.0292991939932,0.0,18.6000003815,0.011216469084147156,0.0048997612626421405,-0.00979906153618729,18.6000003815,0.0,0.016601988370738802,0.04688091607791967
1648294606359681283,18788,12,2,1.59572803974,-1.61153149605,0.592595458031,0.0,18.6000003815,0.5336883076053511,-0.5389737444983277,0.19819246087993309,18.6000003815,0.0,0.9274368531646111,2.3440458861661786
1648294606359860490,18789,12,3,2.24096369743,-1.2306240797,0.59666633606,0.0,18.6000003815,0.749486186431438,-0.4115799597658863,0.19955395854849495,18.6000003815,0.0,1.137038763888008,2.62533133819788
1648294606359875229,18790,12,4,0.893325805664,0.695888638496,0.302234530449,0.485512852669,18.6000003815,0.2987711724628762,0.23273867508227425,0.10108178275886287,18.6000003815,0.06560984495527027,0.4823854453326052,1.172022910889023
1648294606359877598,18791,12,5,0.708672344685,0.990359306335,-0.0519464127719,-0.647350490093,18.6000003815,0.23701416210200665,0.3312238482725752,-0.017373382197959863,18.6000003815,-0.08747979595851352,0.4712331309854248,1.218903801604354
1648294606359881295,18792,12,6,2.27003860474,1.10756158829,-0.170517444611,-0.566431701183,18.6000003815,0.7592102356989966,0.37042193588294314,-0.05702924568929765,18.6000003815,-0.07654482448418919,1.1357872928341466,2.5315695008792587
1648294606464640812,18793,13,0,0.00631333654746,0.0454158857465,0.00976521056145,0.0,24.7999992371,0.0021114837951371236,0.015189259446989964,0.0032659567095150496,24.7999992371,0.0,0.015479997744903816,0.04688091545405326
1648294606464646240,18794,13,1,0.033601410687,0.0146502861753,-0.0292255785316,0.0,24.7999992371,0.011237929995652172,0.0048997612626421405,-0.009774440980468226,24.7999992371,0.0,0.01663098919503125,0.04688091430082548
1648294606464649143,18795,13,2,1.51361048222,-1.68478298187,0.604186296463,0.0,24.7999992371,0.5062242415451504,-0.5634725691872909,0.20206899547257526,24.7999992371,0.0,0.9110583415360687,2.344045961306797
1648294606464652014,18796,13,3,2.24155783653,-1.2306240797,0.594430208206,0.0,24.7999992371,0.7496848951605352,-0.4115799597658863,0.19880608970100333,24.7999992371,0.0,1.1373007286310044,2.625331299564753
1648294606464654383,18797,13,4,0.442652344704,0.593336582184,-1.02675294876,-0.485512852669,24.7999992371,0.14804426244280935,0.19844032848963208,-0.34339563503678927,24.7999992371,-0.06560984495527027,0.2884662393687412,1.2657847430811822
1648294606464656166,18798,13,5,0.650171756744,1.06800591946,0.19710662961,-0.485512852669,24.7999992371,0.21744874807491635,0.35719261520401335,0.06592194970234114,24.7999992371,-0.06560984495527027,0.4713326642987723,1.2657847292116433
1648294606659635019,18799,15,0,0.0126474238932,0.0439508594573,0.0103046037257,0.0,34.4000015259,0.004229907656588629,0.014699284099431437,0.003446355761103679,34.4000015259,0.0,0.01586988313133818,0.04688091547861809
1648294606659732377,18800,15,1,0.0335372425616,0.0146502861753,-0.0292991939932,0.0,34.4000015259,0.011216469084147156,0.0048997612626421405,-0.00979906153618729,34.4000015259,0.0,0.016601988370738802,0.04688091607791967
1648294606659742679,18801,15,2,1.50485253334,-1.68478298187,0.625680744648,0.0,34.4000015259,0.5032951616521739,-0.5634725691872909,0.2092577741297659,34.4000015259,0.0,0.9078069044193827,2.3440459119483688
1648294606659748296,18802,15,3,2.24028801918,-1.2306240797,0.599197983742,0.0,34.4000015259,0.749260207083612,-0.4115799597658863,0.20040066345886284,34.4000015259,0.0,1.13674085838367,2.6253312663622848
1648294606659749381,18803,15,4,1.04338788986,0.922968029976,0.193674743176,0.404594063759,34.4000015259,0.3489591604882943,0.30868495985819394,0.06477416159732441,34.4000015259,0.05467487348094594,0.5820922571380288,1.406427452522373
1648294606659750431,18804,15,5,1.03706741333,1.0782610178,-0.111410491168,0.404594063759,34.4000015259,0.3468452887391304,0.3606224139799331,-0.037261033835451506,34.4000015259,0.05467487348094594,0.6088118215883918,1.5001893013351228
1648294606659751477,18805,15,6,0.881463706493,0.934688270092,0.444686830044,0.485512852669,34.4000015259,0.2948039152150501,0.31260477260602004,0.148724692322408,34.4000015259,0.06560984495527027,0.5210954238028832,1.3595465438617886
1648294606764735762,18806,16,0,0.0126474238932,0.0439508594573,0.0103046037257,0.0,29.8999996185,0.004229907656588629,0.014699284099431437,0.003446355761103679,29.8999996185,0.0,0.01586988313133818,0.04688091547861809
1648294606764738968,18807,16,1,0.0335372425616,0.0146502861753,-0.0292991939932,0.0,29.8999996185,0.011216469084147156,0.0048997612626421405,-0.00979906153618729,29.8999996185,0.0,0.016601988370738802,0.04688091607791967
1648294606764743644,18808,16,2,1.50386929512,-1.68478298187,0.628040313721,0.0,29.8999996185,0.502966319438127,-0.5634725691872909,0.21004692766588628,29.8999996185,0.0,0.9074423250018694,2.3440459015263047
1648294606764757401,18809,16,3,2.23983693123,-1.2306240797,0.60088288784,0.0,29.8999996185,0.749109341548495,-0.4115799597658863,0.20096417653511703,29.8999996185,0.0,1.1365419809542137,2.625331474107267
1648294606764776731,18810,16,4,0.355084061623,0.76474493742,-1.06651175022,-0.647350490093,29.8999996185,0.11875721124515048,0.2557675375986622,-0.3566928930501672,29.8999996185,-0.08747979595851352,0.30597971131225954,1.359546550687226
1648294606764778779,18811,16,5,0.210279539227,1.317060709,0.263629347086,-0.647350490093,29.8999996185,0.07032760509264213,0.44048853143812705,0.08817035019598661,29.8999996185,-0.08747979595851352,0.4515773360174878,1.3595465525145112
