%time,field.header.seq,field.header.frame_id,field.point_id,field.x,field.y,field.z,field.velocity,field.intensity,normalized_x,normalized_y,normalized_z,normalized_intensity,normalized_velocity,normalized_range,range
1648125341282543176,18891,0,0,0.0125994505361,0.0439508594573,0.0103632062674,0.0,14.1000003815,0.004213863055551839,0.014699284099431437,0.003465955273377926,14.1000003815,0.0,0.01586134410249293,0.04688091557326548
1648125341282549342,18892,0,1,0.0328124724329,0.0146502861753,-0.0301086530089,0.0,14.1000003815,0.010974071047792642,0.0048997612626421405,-0.010069783615016722,14.1000003815,0.0,0.01627476977271537,0.04688091528744241
1648125341282553105,18893,0,2,2.42074346542,-0.902457654476,0.466836154461,0.0,14.1000003815,0.8096131991371237,-0.30182530250033446,0.15613249313076924,14.1000003815,0.0,1.184080055428481,2.6253313578685433
1648125341282555951,18894,0,3,1.09778940678,-0.879017174244,0.0150125417858,-0.323675245047,14.1000003815,0.36715364775250836,-0.29398567700468226,0.0050209169852173914,14.1000003815,-0.04373989797932432,0.5966834842693799,1.4064274423748853
1648125341282563137,18895,0,4,0.820008933544,-0.984499275684,0.285373002291,-0.242756426334,14.1000003815,0.2742504794461538,-0.32926397180066885,0.09544247568260869,14.1000003815,-0.03280492247756756,0.5087645959369049,1.3126656944366557
1648125341282569324,18896,0,5,1.02540135384,-0.908317685127,0.485403120518,-0.242756426334,14.1000003815,0.34294359660200663,-0.3037851789722408,0.1623421807752508,14.1000003815,-0.03280492247756756,0.5722814481213209,1.4533083440825587
1648125341282625831,18897,0,6,0.890752315521,-0.799905598164,0.228993162513,-0.0809188112617,14.1000003815,0.2979104734183946,-0.26752695590769227,0.07658634197759197,14.1000003815,-0.010934974494824324,0.49907110964468815,1.2189038198552973
1648125341387516937,18898,1,0,0.0126141794026,0.0439508594573,0.0103452727199,0.0,31.7000007629,0.004218789097859532,0.014699284099431437,0.003459957431404682,31.7000007629,0.0,0.015863962806948167,0.0468809154847196
1648125341387533745,18899,1,1,0.0329001024365,0.0146502861753,-0.0300128757954,0.0,31.7000007629,0.011003378741304349,0.0048997612626421405,-0.010037751102140467,31.7000007629,0.0,0.016314298877980183,0.04688091657444943
1648125341387547990,18900,1,2,0.301568746567,-1.58955609798,0.273308604956,0.0,31.7000007629,0.10085911256421404,-0.5316241130367892,0.09140756018595317,31.7000007629,0.0,0.5504264880405325,1.640832072783315
1648125341387555987,18901,1,3,2.4265973568,-0.902457654476,0.435385704041,0.0,31.7000007629,0.811571022341137,-0.30182530250033446,0.14561394783979933,31.7000007629,0.0,1.1867575834335733,2.625331457441964
1648125341387567405,18902,1,4,0.94439136982,-1.03138017654,0.543091058731,-0.242756426334,31.7000007629,0.31584995646153846,-0.34494320285618724,0.18163580559565218,31.7000007629,-0.03280492247756756,0.564365310052094,1.5001893300592881
1648125341387575515,18903,1,5,0.880120515823,-0.83799636364,0.0942149534822,-0.161837622523,31.7000007629,0.2943546875662207,-0.28026634235451503,0.031510017887023414,31.7000007629,-0.021869948989594594,0.5018352188131011,1.2189038047795486
1648125341582295291,18904,3,0,0.0126141794026,0.0439508594573,0.0103452727199,0.0,38.4000015259,0.004218789097859532,0.014699284099431437,0.003459957431404682,38.4000015259,0.0,0.015863962806948167,0.0468809154847196
1648125341582457826,18905,3,1,0.0328872464597,0.0146502861753,-0.0300269592553,0.0,38.4000015259,0.010999079083511706,0.0048997612626421405,-0.010042461289397992,38.4000015259,0.0,0.0163084990664861,0.0468809145264753
1648125341582569018,18906,3,2,0.299917221069,-1.58955609798,0.275119900703,0.0,38.4000015259,0.10030676289933109,-0.5316241130367892,0.09201334471672241,38.4000015259,0.0,0.5502245822651312,1.6408320718105138
1648125341582572255,18907,3,3,2.42578911781,-0.902457654476,0.439865887165,0.0,38.4000015259,0.8113007082976588,-0.30182530250033446,0.1471123368444816,38.4000015259,0.0,1.1863878757800856,2.6253313430687553
1648125341582573315,18908,3,4,1.08668220043,-1.74045407772,0.211947277188,0.404594063759,38.4000015259,0.3634388630200669,-0.5820916647892976,0.07088537698595317,38.4000015259,0.05467487348094594,0.7765348160409898,2.06276034712978
1648125341582575681,18909,3,5,0.66244584322,-0.842391431332,0.119117356837,-0.323675245047,38.4000015259,0.22155379371906353,-0.2817362646595318,0.0398385808819398,38.4000015259,-0.04373989797932432,0.4213638449688398,1.078260990428971
1648125341582577633,18910,3,6,0.872136414051,-0.769140064716,0.146422117949,-0.242756426334,38.4000015259,0.29168441941505013,-0.2572374798381271,0.048970608009699,38.4000015259,-0.03280492247756756,0.4861385832172351,1.1720229522026182
1648125341582578735,18911,3,7,1.14836966991,-0.722259104252,-0.0891952216625,-0.161837622523,38.4000015259,0.384070123715719,-0.24155822884682274,-0.02983117781354515,38.4000015259,-0.021869948989594594,0.594449407254839,1.3595465788311654
1648125341687530442,18912,4,0,0.0125994505361,0.0439508594573,0.0103632062674,0.0,21.3999996185,0.004213863055551839,0.014699284099431437,0.003465955273377926,21.3999996185,0.0,0.01586134410249293,0.04688091557326548
1648125341687538582,18913,4,1,0.0329244062304,0.0146502861753,-0.0299862083048,0.0,21.3999996185,0.011011507100468228,0.0048997612626421405,-0.010028832208963211,21.3999996185,0.0,0.016325263785869217,0.046880914017768956
1648125341687542771,18914,4,2,0.280284136534,-1.58955609798,0.29509678483,0.0,21.3999996185,0.09374051389096988,-0.5316241130367892,0.09869457686622074,21.3999996185,0.0,0.5479039746627496,1.640832074965326
1648125341687564568,18915,4,3,2.42417931557,-0.902457654476,0.448653459549,0.0,21.3999996185,0.8107623128996655,-0.30182530250033446,0.15005132426387957,21.3999996185,0.0,1.1856515378753778,2.625331426491719
1648125341687725359,18916,4,4,0.822294473648,-0.703213751316,0.308653086424,-0.242756426334,21.3999996185,0.2750148741297659,-0.23518854559063543,0.10322845699799331,21.3999996185,-0.03280492247756756,0.45451074130570374,1.1251419951237371
1648125341687728245,18917,4,5,0.844953894615,-0.876087069511,0.0651987791061,-0.242756426334,21.3999996185,0.2825932757909699,-0.2930057088665552,0.02180561174117057,21.3999996185,-0.03280492247756756,0.49555046612119624,1.218903818267198
1648125341687730529,18918,4,6,0.870640039444,-0.879017174244,0.668844521046,-0.161837622523,21.3999996185,0.29118395968026756,-0.29398567700468226,0.22369381974782607,21.3999996185,-0.021869948989594594,0.5059681561462744,1.4064274827491854
1648125341882578156,18919,6,0,0.0126097733155,0.0439508594573,0.0103506427258,0.0,15.8000001907,0.004217315490133779,0.014699284099431437,0.0034617534199999998,15.8000001907,0.0,0.01586317915559307,0.04688091546611253
1648125341882581622,18920,6,1,0.0328124724329,0.0146502861753,-0.0301086530089,0.0,15.8000001907,0.010974071047792642,0.0048997612626421405,-0.010069783615016722,15.8000001907,0.0,0.01627476977271537,0.04688091528744241
1648125341882583514,18921,6,2,0.873931407928,-0.572826147079,0.266009062529,0.0,15.8000001907,0.2922847518153846,-0.19158065119698997,0.08896624164849497,15.8000001907,0.0,0.45559181094552686,1.0782609711419338
1648125341882682925,18922,6,3,2.44545650482,-0.820416092873,0.488902181387,0.0,15.8000001907,0.8178784297056856,-0.2743866531347826,0.16351243524648829,15.8000001907,0.0,1.1887549314195014,2.6253314886650823
1648125341882686485,18923,6,4,0.56994086504,-1.02991509438,1.27407157421,0.161837622523,15.8000001907,0.19061567392642137,-0.34445320882274244,0.42611089438461536,15.8000001907,0.021869948989594594,0.43739762614940125,1.7345939200528333
1648125341882697389,18924,6,5,1.12259018421,-1.33610606194,0.358140528202,0.242756426334,15.8000001907,0.3754482221438126,-0.4468582146956522,0.1197794408702341,15.8000001907,0.03280492247756756,0.6939776646714827,1.781474885699561
1648125341882703671,18925,6,6,0.914810061455,-0.632892370224,0.168861657381,-0.0809188112617,15.8000001907,0.30595654229264213,-0.21166968903812708,0.05647547069598662,15.8000001907,-0.010934974494824324,0.48168752194844744,1.1251419733351484
1648125341987440254,18926,7,0,0.0126347495243,0.0439508594573,0.0103201400489,0.0,31.5,0.00422566873722408,0.014699284099431437,0.0034515518558193977,31.5,0.0,0.01586762444694554,0.04688091544761093
1648125341987449796,18927,7,1,0.0329001024365,0.0146502861753,-0.0300128757954,0.0,31.5,0.011003378741304349,0.0048997612626421405,-0.010037751102140467,31.5,0.0,0.016314298877980183,0.04688091657444943
1648125341987455690,18928,7,2,0.946534991264,-0.527410328388,0.303074926138,0.0809188112617,31.5,0.31656688671036787,-0.1763914141765886,0.10136285155117057,31.5,0.010934974494824324,0.4811892751487782,1.125142015494503
1648125341987457258,18929,7,3,1.14766550064,-1.24673938751,0.370568245649,0.161837622523,31.5,0.3838346155986622,-0.41696969481939794,0.12393586811003343,31.5,0.021869948989594594,0.6844864868361737,1.7345939082135189
1648125341987467715,18930,7,4,1.287976861,-1.25699448586,0.322435975075,0.323675245047,31.5,0.4307614919732441,-0.4203994935986622,0.10783811875418059,31.5,0.04373989797932432,0.7401666435013415,1.8283556792857414
1648125341987475716,18931,7,5,0.953209459782,-0.597731649876,0.00728418957442,-0.161837622523,31.5,0.3187991504287625,-0.19991025079464883,0.002436183804153846,31.5,-0.021869948989594594,0.493183439503985,1.1251419727746066
1648125342182441880,18932,9,0,0.0126200793311,0.0439508594573,0.0103380745277,0.0,38.4000015259,0.004220762318093645,0.014699284099431437,0.0034575500092642137,38.4000015259,0.0,0.015865012515831067,0.0468809154592663
1648125342182513000,18933,9,1,0.0328369177878,0.0146502861753,-0.0300819892436,0.0,38.4000015259,0.010982246751772574,0.0048997612626421405,-0.010060865967759198,38.4000015259,0.0,0.016285795892879384,0.046880914364728306
1648125342182516811,18934,9,2,1.64546644688,-1.61153149605,0.435841321945,0.0,38.4000015259,0.5503232263812708,-0.5389737444983277,0.145766328409699,38.4000015259,0.0,0.946680518574208,2.3440459143292838
1648125342182520406,18935,9,3,0.908133625984,-0.483459472656,0.072837151587,0.0809188112617,38.4000015259,0.3037236207304348,-0.16169213132307692,0.024360251366889633,38.4000015259,0.010934974494824324,0.4589557940706372,1.0313801408767638
1648125342182539529,18936,9,4,1.2799243927,-1.22476398945,0.18814688921,0.242756426334,38.4000015259,0.42806835876254173,-0.409620063361204,0.06292538100668896,38.4000015259,0.03280492247756756,0.7309402409604694,1.7814748195810524
1648125342182550102,18937,9,5,0.981111884117,-0.49224960804,0.247091680765,-0.161837622523,38.4000015259,0.32813106492207356,-0.16463197593311035,0.0826393581153846,38.4000015259,-0.021869948989594594,0.4923857014916541,1.1251419930277315
1648125342182552340,18938,9,6,0.935652196407,-0.549385726452,0.443134397268,-0.0809188112617,38.4000015259,0.3129271559889632,-0.1837410456361204,0.1482054840361204,38.4000015259,-0.010934974494824324,0.47917385337905977,1.1720229533215247
1648125342286383947,18939,10,0,0.0125994505361,0.0439508594573,0.0103632062674,0.0,27.5,0.004213863055551839,0.014699284099431437,0.003465955273377926,27.5,0.0,0.01586134410249293,0.04688091557326548
1648125342286391248,18940,10,1,0.0329001024365,0.0146502861753,-0.0300128757954,0.0,27.5,0.011003378741304349,0.0048997612626421405,-0.010037751102140467,27.5,0.0,0.016314298877980183,0.04688091657444943
1648125342286415741,18941,10,2,1.0216627121,-0.336956560612,-0.0728867799044,0.0,27.5,0.3416932147491638,-0.11269450187692308,-0.024376849466354513,27.5,0.0,0.4961940716741023,1.078261055459126
1648125342286563110,18942,10,3,1.71501505375,-1.53828012943,0.432398736477,0.0,27.5,0.5735836300167223,-0.5144749596755852,0.14461496203244145,27.5,0.0,0.9605627753455342,2.3440458738034966
1648125342286566888,18943,10,4,1.33040642738,-1.19985842705,0.365024775267,0.161837622523,27.5,0.44495198240133776,-0.40129044382943135,0.12208186463779264,27.5,0.021869948989594594,0.7463233572618391,1.8283557076060553
1648125342286569899,18944,10,5,0.953850030899,-0.438043534756,0.246849685907,-0.161837622523,27.5,0.3190133882605351,-0.1465028544334448,0.08255842338026755,27.5,-0.021869948989594594,0.4743439365440239,1.0782610014370078
1648125342286571989,18945,10,6,1.01169860363,-0.451228827238,0.704237043858,-0.161837622523,27.5,0.33836073699999997,-0.15091265125016723,0.23553078389899665,27.5,-0.021869948989594594,0.501747551059017,1.3126657354632698
1648125342386359116,18946,11,0,0.0126038333401,0.0439508594573,0.0103578744456,0.0,16.5,0.004215328876287625,0.014699284099431437,0.003464172055384615,16.5,0.0,0.01586212306427883,0.04688091535935669
1648125342386370904,18947,11,1,0.0329001024365,0.0146502861753,-0.0300128757954,0.0,16.5,0.011003378741304349,0.0048997612626421405,-0.010037751102140467,16.5,0.0,0.016314298877980183,0.04688091657444943
1648125342386373165,18948,11,2,1.04175615311,-0.26956525445,-0.0687422975898,0.0,16.5,0.3484134291337792,-0.09015560349498328,-0.022990734979866218,16.5,0.0,0.5009110380527291,1.0782610131258403
1648125342386414544,18949,11,3,0.257900804281,-1.58955609798,0.314846754074,0.0,16.5,0.08625444959230769,-0.5316241130367892,0.10529991775050165,16.5,0.0,0.5454391420782861,1.640832073073026
1648125342386423637,18950,11,4,1.78481554985,-1.46502864361,0.403331100941,0.0,16.5,0.596928277541806,-0.489976134986622,0.13489334479632106,16.5,0.0,0.9760754837175674,2.344045957435646
1648125342386430423,18951,11,5,0.714491784573,-0.68563336134,-1.53697526455,0.161837622523,16.5,0.23896046306789295,-0.2293088165016722,-0.5140385500167224,16.5,0.021869948989594594,0.40839532213853924,1.8283557039709861
1648125342386552052,18952,11,6,0.786350607872,-1.37126672268,0.918784439564,0.161837622523,16.5,0.2629935143384615,-0.4586176330033444,0.30728576574046823,16.5,0.021869948989594594,0.5904754952322572,1.8283556955951281
1648125342386557909,18953,11,7,1.10996735096,-0.410208046436,0.56814879179,-0.323675245047,16.5,0.3712265387826087,-0.13719332656722408,0.1900163183244147,16.5,-0.04373989797932432,0.5426235297585356,1.3126656890352686
1648125342386571424,18954,11,8,0.960720479488,-0.386767566204,0.439740180969,-0.242756426334,16.5,0.32131119715317724,-0.1293537010715719,0.14707029463846152,16.5,-0.03280492247756756,0.4724554484953364,1.1251419540367638
1648125342386581462,18955,11,9,1.46578848362,-0.234404578805,0.216994822025,-0.242756426334,16.5,0.4902302620802675,-0.07839618020234114,0.07257351907190634,16.5,-0.03280492247756756,0.6977086646938631,1.500189367401139
1648125342386591616,18956,11,10,0.953274309635,-0.404347896576,0.300695240498,-0.161837622523,16.5,0.31882083934280936,-0.13523341022608695,0.10056697006622073,16.5,-0.021869948989594594,0.47072447401838374,1.0782609881349097
1648125342487637571,18957,12,0,0.0126347495243,0.0439508594573,0.0103201400489,0.0,39.2999992371,0.00422566873722408,0.014699284099431437,0.0034515518558193977,39.2999992371,0.0,0.01586762444694554,0.04688091544761093
1648125342487672371,18958,12,1,0.0329001024365,0.0146502861753,-0.0300128757954,0.0,39.2999992371,0.011003378741304349,0.0048997612626421405,-0.010037751102140467,39.2999992371,0.0,0.016314298877980183,0.04688091657444943
1648125342487805223,18959,12,2,1.21228051186,-0.114272229373,0.0551744438708,0.0,39.2999992371,0.4054449872441471,-0.03821813691404682,0.01845299126113712,39.2999992371,0.0,0.5746580734245313,1.218903770236958
1648125342487808768,18960,12,3,1.78280758858,-1.46502864361,0.412115871906,0.0,39.2999992371,0.5962567185886287,-0.489976134986622,0.13783139528628763,39.2999992371,0.0,0.9752542036723486,2.3440459288104902
1648125342487814086,18961,12,4,0.781830966473,-0.703213751316,-1.55265676975,0.161837622523,39.2999992371,0.2614819285862876,-0.23518854559063543,-0.5192832005852842,39.2999992371,0.021869948989594594,0.43824565021394934,1.8752365943599039
1648125342487878013,18962,12,5,0.855418860912,-0.351606875658,0.154140278697,-0.485512852669,39.2999992371,0.28609326451906353,-0.11759427279531771,0.05155193267458194,39.2999992371,-0.06560984495527027,0.4213396788822639,0.9376182848743687
1648125342487886640,18963,12,6,1.03065633774,-0.328166425228,0.743737578392,-0.404594063759,39.2999992371,0.3447011163010033,-0.10975465726688963,0.24874166501404682,39.2999992371,-0.05467487348094594,0.4996837039068695,1.3126657132274575
1648125342487890752,18964,12,7,0.963670790195,-0.316446185112,0.757239341736,-0.323675245047,39.2999992371,0.32229792314214045,-0.10583484451906354,0.2532573049284281,39.2999992371,-0.04373989797932432,0.4679240502879164,1.2657847370780564
1648125342487895473,18965,12,8,1.48759675026,-0.187523663044,0.0495852716267,-0.323675245047,39.2999992371,0.4975239967424749,-0.0627169441618729,0.016583702885183946,39.2999992371,-0.04373989797932432,0.7063948398411584,1.5001892929720055
1648125342487916743,18966,12,9,0.989683806896,-0.290075659752,-0.0112724453211,-0.242756426334,39.2999992371,0.3309979287277592,-0.09701527082006689,-0.0037700486023745814,39.2999992371,-0.03280492247756756,0.4780493911892624,1.0313801404119793
1648125342488288483,18967,12,10,1.04303002357,-0.26956525445,0.0454924181104,-0.161837622523,39.2999992371,0.3488394727658863,-0.09015560349498328,0.015214855555317725,39.2999992371,-0.021869948989594594,0.50150372716532,1.0782609223099293
1648125342682471953,18968,14,0,0.0125994505361,0.0439508594573,0.0103632062674,0.0,41.0999984741,0.004213863055551839,0.014699284099431437,0.003465955273377926,41.0999984741,0.0,0.01586134410249293,0.04688091557326548
1648125342682645149,18969,14,1,0.0329244062304,0.0146502861753,-0.0299862083048,0.0,41.0999984741,0.011011507100468228,0.0048997612626421405,-0.010028832208963211,41.0999984741,0.0,0.016325263785869217,0.046880914017768956
1648125342682649382,18970,14,2,0.270765781403,-1.58955609798,0.30385389924,0.0,41.0999984741,0.09055711752608696,-0.5316241130367892,0.10162337767224079,41.0999984741,0.0,0.5468321320400072,1.640832072177873
1648125342682655874,18971,14,3,1.86033093929,-1.31852579117,0.543331921101,0.0,41.0999984741,0.622184260632107,-0.44097852547491634,0.1817163615722408,41.0999984741,0.0,0.9842197764151432,2.3440458703164047
1648125342682664627,18972,14,4,2.42677235603,-0.902457654476,0.434409439564,0.0,41.0999984741,0.8116295505117056,-0.30182530250033446,0.1452874379812709,41.0999984741,0.0,1.1868376332746973,2.625331492839719
1648125342682695946,18973,14,5,0.813614726067,-0.184593603015,0.126688808203,-0.404594063759,41.0999984741,0.2721119485173913,-0.06173699097491638,0.042370838863879594,41.0999984741,-0.05467487348094594,0.3897451489197778,0.8438564894998648
1648125342682702208,18974,14,6,0.948755860329,-0.12306240201,0.232285663486,-0.323675245047,41.0999984741,0.3173096522839464,-0.04115799398327759,0.0776875128715719,41.0999984741,-0.04373989797932432,0.45062713115595415,0.9844991959154781
1648125342682705079,18975,14,7,0.91494768858,-0.161153152585,0.447934657335,-0.242756426334,41.0999984741,0.3060025714314381,-0.05389737544648829,0.1498109221856187,41.0999984741,-0.03280492247756756,0.43609640508186315,1.0313801765924109
1648125342682714416,18976,14,8,0.919916570187,-0.190453708172,0.77666425705,-0.242756426334,41.0999984741,0.30766440474481604,-0.06369689236521739,0.2597539321237458,41.0999984741,-0.03280492247756756,0.43974090779793285,1.2189038022912668
1648125342787533953,18977,15,0,0.0125994505361,0.0439508594573,0.0103632062674,0.0,16.5,0.004213863055551839,0.014699284099431437,0.003465955273377926,16.5,0.0,0.01586134410249293,0.04688091557326548
1648125342787538946,18978,15,1,0.0329244062304,0.0146502861753,-0.0299862083048,0.0,16.5,0.011011507100468228,0.0048997612626421405,-0.010028832208963211,16.5,0.0,0.016325263785869217,0.046880914017768956
1648125342787572954,18979,15,2,0.278088629246,-1.58955609798,0.297166645527,0.0,16.5,0.09300623051705684,-0.5316241130367892,0.09938683796889632,16.5,0.0,0.547653645465943,1.6408320723203496
1648125342787598261,18980,15,3,1.87889230251,-1.24527442455,0.643122494221,0.0,16.5,0.6283920744180601,-0.4164797406521739,0.21509113519096987,16.5,0.0,0.9814318991945227,2.34404590813463
1648125342787670261,18981,15,4,2.41664600372,-0.902457654476,0.487603455782,0.0,16.5,0.8082428106086956,-0.30182530250033446,0.16307807885685616,16.5,0.0,1.182206155892747,2.6253313801325575
1648125342787682203,18982,15,5,0.867526829243,-0.46880915761,1.59503209591,0.161837622523,16.5,0.29014275225518393,-0.15679236040468228,0.5334555504715719,16.5,0.021869948989594594,0.43926014803723984,1.8752365751281779
1648125342787685434,18983,15,6,2.23780703545,-0.821880996227,-0.182377055287,0.161837622523,16.5,0.7484304466387959,-0.2748765873668896,-0.06099567066454849,16.5,0.021869948989594594,1.0935508242392586,2.390926617477785
1648125342787689292,18984,15,7,0.809571564198,-0.105482056737,0.213450536132,-0.404594063759,16.5,0.27075972046755853,-0.035278279845150494,0.07138813917458194,16.5,-0.05467487348094594,0.38453375597491257,0.8438564529743803
1648125342787692215,18985,15,8,0.98165255785,0.061531201005,-0.042554102838,-0.242756426334,16.5,0.32831189225752505,0.020578996991638794,-0.014232141417391302,16.5,-0.03280492247756756,0.4647589615194261,0.9844992050270597
1648125342787700103,18986,15,9,0.869207262993,-0.109877154231,0.778487980366,-0.161837622523,16.5,0.29070477023177255,-0.0367482121173913,0.260363873032107,16.5,-0.021869948989594594,0.4127577473105019,1.1720229479988944
1648125342982643789,18987,17,0,0.0126347495243,0.0439508594573,0.0103201400489,0.0,13.1000003815,0.00422566873722408,0.014699284099431437,0.0034515518558193977,13.1000003815,0.0,0.01586762444694554,0.04688091544761093
1648125342982684936,18988,17,1,0.0329001024365,0.0146502861753,-0.0300128757954,0.0,13.1000003815,0.011003378741304349,0.0048997612626421405,-0.010037751102140467,13.1000003815,0.0,0.016314298877980183,0.04688091657444943
1648125342982690639,18989,17,2,0.277195096016,-1.58955609798,0.298000305891,0.0,13.1000003815,0.09270738997190635,-0.5316241130367892,0.09966565414414716,13.1000003815,0.0,0.5475522969296714,1.640832073123832
1648125342982757658,18990,17,3,1.86494004726,-1.31852579117,0.527294456959,0.0,13.1000003815,0.6237257683143812,-0.44097852547491634,0.176352661190301,13.1000003815,0.0,0.9861692187696601,2.344045879711891
1648125342982760541,18991,17,4,2.42207050323,-0.902457654476,0.459902405739,0.0,13.1000003815,0.8100570244916387,-0.30182530250033446,0.1538135136250836,13.1000003815,0.0,1.184686996250872,2.625331514979331
1648125342982761936,18992,17,5,0.262559562922,1.95288312435,0.425534814596,0.161837622523,13.1000003815,0.08781256285016721,0.6531381686789297,0.14231933598528426,13.1000003815,0.021869948989594594,0.6648394992582007,2.0158794358507808
1648125342982767306,18993,17,6,0.760830998421,0.0498109720647,0.232002317905,-0.0809188112617,13.1000003815,0.25445852789999995,0.016659187981505015,0.0775927484632107,13.1000003815,-0.010934974494824324,0.3602441025003369,0.7969755432945347
1648125343087531860,18994,18,0,0.0126141794026,0.0439508594573,0.0103452727199,0.0,28.3999996185,0.004218789097859532,0.014699284099431437,0.003459957431404682,28.3999996185,0.0,0.015863962806948167,0.0468809154847196
1648125343087538853,18995,18,1,0.0328478105366,0.0146502861753,-0.0300700943917,0.0,28.3999996185,0.010985889811571906,0.0048997612626421405,-0.010056887756421403,28.3999996185,0.0,0.016290709325713453,0.04688091422735167
1648125343087553878,18996,18,2,0.76169359684,0.0747164562345,0.22228436172,0.0,28.3999996185,0.2547470223545151,0.024988781349331104,0.07434259589297658,28.3999996185,0.0,0.36113228876729964,0.7969755465286035
1648125343087591728,18997,18,3,0.554363965988,0.373582303524,-0.433920353651,0.0,28.3999996185,0.18540600869163879,0.12494391422207357,-0.14512386409732442,28.3999996185,0.0,0.29045095596169235,0.7969755439189156
1648125343087617317,18998,18,4,0.839395105839,0.0556710883975,0.292796343565,0.0,28.3999996185,0.2807341491100334,0.018619093109531772,0.0979251985167224,28.3999996185,0.0,0.39745439434140156,0.8907373982240007
1648125343087626334,18999,18,5,2.41729784012,-0.902457654476,0.484361767769,0.0,28.3999996185,0.8084608160936454,-0.30182530250033446,0.16199390226387958,28.3999996185,0.0,1.1825042475809653,2.6253314053748436
1648125343087629525,19000,18,6,0.139998838305,-1.95288312435,0.480018466711,0.161837622523,28.3999996185,0.04682235394816053,-0.6531381686789297,0.16054129321438126,28.3999996185,0.021869948989594594,0.6564862017161973,2.01587943599843
1648125343087635933,19001,18,7,1.54268956184,-0.228544458747,-1.87370812893,0.161837622523,28.3999996185,0.5159496862341137,-0.07643627382842809,-0.6266582371003344,28.3999996185,0.021869948989594594,0.7336556831422594,2.437807581876062
1648125343186407242,19002,19,0,0.0125890737399,0.0439508594573,0.0103758089244,0.0,16.0,0.004210392555150501,0.014699284099431437,0.003470170208829431,16.0,0.0,0.01585950074790286,0.0468809154720728
1648125343186426790,19003,19,1,0.0329244062304,0.0146502861753,-0.0299862083048,0.0,16.0,0.011011507100468228,0.0048997612626421405,-0.010028832208963211,16.0,0.0,0.016325263785869217,0.046880914017768956
1648125343186433136,19004,19,2,0.918331682682,0.117202289402,0.148521333933,0.0,16.0,0.3071343420341137,0.03919809010100334,0.049672686934113704,16.0,0.0,0.4361186746529232,0.9376182819739927
1648125343186456443,19005,19,3,1.88393092155,-1.24527442455,0.628209412098,0.0,16.0,0.6300772312876254,-0.4164797406521739,0.2101034823070234,16.0,0.0,0.9835903665387647,2.344045898667319
1648125343186459371,19006,19,4,2.42043542862,-0.902457654476,0.468430489302,0.0,16.0,0.8095101767959865,-0.30182530250033446,0.15666571548561872,16.0,0.0,1.1839391732272215,2.6253313325271757
1648125343186464798,19007,19,5,0.750626504421,0.124527432024,0.237113520503,0.0809188112617,16.0,0.25104565365250836,0.04164797057658863,0.07930218077023411,16.0,0.010934974494824324,0.3574666332523621,0.7969755655420736
1648125343186564494,19008,19,6,0.401109963655,-1.93383789062,0.595283091068,0.323675245047,16.0,0.1341504895167224,-0.6467685252909698,0.19909133480535116,16.0,0.04373989797932432,0.6740194603883544,2.062760322638672
1648125343186590811,19009,19,7,0.846581101418,-1.16030263901,-1.48053312302,0.323675245047,16.0,0.28313749211304345,-0.3880610832809364,-0.4951615796053512,16.0,0.04373989797932432,0.5576065667092716,2.06276031175002
1648125343286466561,19010,20,0,0.0126141794026,0.0439508594573,0.0103452727199,0.0,21.8999996185,0.004218789097859532,0.014699284099431437,0.003459957431404682,21.8999996185,0.0,0.015863962806948167,0.0468809154847196
1648125343286481389,19011,20,1,0.0329001024365,0.0146502861753,-0.0300128757954,0.0,21.8999996185,0.011003378741304349,0.0048997612626421405,-0.010037751102140467,21.8999996185,0.0,0.016314298877980183,0.04688091657444943
1648125343286485468,19012,20,2,0.292360007763,-1.58955609798,0.283137649298,0.0,21.8999996185,0.09777926681036787,-0.5316241130367892,0.09469486598595317,21.8999996185,0.0,0.549313906248603,1.6408320728260348
1648125343286514986,19013,20,3,2.42146229744,-0.902457654476,0.463093131781,0.0,21.8999996185,0.8098536111839465,-0.30182530250033446,0.15488064608060198,21.8999996185,0.0,1.184408821448395,2.6253313552289854
1648125343286522092,19014,20,4,0.746848225594,0.174338400364,0.216780811548,0.0809188112617,21.8999996185,0.2497820152488294,0.058307157312374576,0.07250194366153845,21.8999996185,0.010934974494824324,0.35802490818011934,0.796975576896679
1648125343286529837,19015,20,5,0.92212074995,0.146502867341,0.0857805013657,0.161837622523,21.8999996185,0.30840158861204015,0.04899761449531772,0.028689130891538458,21.8999996185,0.021869948989594594,0.4388893322274897,0.9376182922927837
1648125343286535336,19016,20,6,0.510794222355,-1.76389443874,0.831586122513,0.242756426334,21.8999996185,0.17083418807859532,-0.5899312504147156,0.2781224490010033,21.8999996185,0.03280492247756756,0.6374853095160826,2.0158794130020166
1648125343286538482,19017,20,7,0.145687937737,-1.1646977663,-2.18996143341,0.323675245047,21.8999996185,0.04872506278829431,-0.38953102551839464,-0.7324285730468227,21.8999996185,0.04373989797932432,0.39557892174490117,2.484688499963215
1648125343286546765,19018,20,8,2.05141544342,0.155293032527,-1.39328968525,0.323675245047,21.8999996185,0.6860921215451504,0.051937469072575244,-0.4659831723244147,21.8999996185,0.04373989797932432,0.9716698509197018,2.484688591046683
1648125343286550710,19019,20,9,0.565770685673,-1.93383789062,0.441763132811,0.404594063759,21.8999996185,0.18922096510802675,-0.6467685252909698,0.14774686716086954,21.8999996185,0.05467487348094594,0.6999419065750258,2.062760316051164
1648125343286552835,19020,20,10,1.05992364883,-1.30094540119,0.439225316048,-0.242756426334,21.8999996185,0.3544895146588628,-0.43509879638461535,0.14689809901270903,21.8999996185,-0.03280492247756756,0.6638046358843038,1.7345938880567915
1648125343386399046,19021,21,0,0.0125994505361,0.0439508594573,0.0103632062674,0.0,16.3999996185,0.004213863055551839,0.014699284099431437,0.003465955273377926,16.3999996185,0.0,0.01586134410249293,0.04688091557326548
1648125343386407127,19022,21,1,0.0329001024365,0.0146502861753,-0.0300128757954,0.0,16.3999996185,0.011003378741304349,0.0048997612626421405,-0.010037751102140467,16.3999996185,0.0,0.016314298877980183,0.04688091657444943
1648125343386418790,19023,21,2,0.271747291088,-1.58955609798,0.302976429462,0.0,16.3999996185,0.0908853816347826,-0.5316241130367892,0.10132990951906354,16.3999996185,0.0,0.5469410413855894,1.6408320741771876
1648125343386425746,19024,21,3,1.86425483227,-1.31852579117,0.52971214056,0.0,16.3999996185,0.6234965994214047,-0.44097852547491634,0.17716125102341138,16.3999996185,0.0,0.9858793429777005,2.344045923927084
1648125343386431972,19025,21,4,2.42432904243,-0.902457654476,0.447843700647,0.0,16.3999996185,0.8108123887725752,-0.30182530250033446,0.14978050188862876,16.3999996185,0.0,1.1857200229411653,2.6253314275155977
1648125343386442774,19026,21,5,0.743787765503,0.199243888259,0.205552011728,0.0809188112617,16.3999996185,0.24875845000100333,0.06663675192608695,0.0687464922167224,16.3999996185,0.010934974494824324,0.35805305417083405,0.796975530769884
1648125343386455358,19027,21,6,0.64748942852,0.266635209322,0.997692108154,0.242756426334,16.3999996185,0.21655164833444815,0.0891756552916388,0.33367629035250834,16.3999996185,0.03280492247756756,0.3189694817524495,1.218903785197222
1648125343386459940,19028,21,7,1.08930671215,-1.57490575314,0.629962325096,0.242756426334,16.3999996185,0.36431662613712373,-0.5267243321538461,0.2106897408347826,16.3999996185,0.03280492247756756,0.7368118689616697,2.0158794049865363
1648125343386462384,19029,21,8,1.99271333218,0.251984924078,0.171368226409,0.242756426334,16.3999996185,0.6664593084214046,0.08427589434046821,0.05731378809665552,16.3999996185,0.03280492247756756,0.9462760939228886,2.0158794346966986
1648125343386570219,19030,21,9,1.44737899303,-1.01965987682,-2.06369948387,0.242756426334,16.3999996185,0.4840732418160535,-0.34102337017391304,-0.6902004962775918,16.3999996185,0.03280492247756756,0.764820727941771,2.719093189573763
1648125343386586168,19031,21,10,2.12176251411,0.594801604748,-1.5930480957,0.242756426334,16.3999996185,0.7096195699364547,0.19893030259130434,-0.532792005250836,16.3999996185,0.03280492247756756,1.0230802184397203,2.7190931117757957
1648125343386589407,19032,21,11,0.965909898281,0.184593603015,0.046712230891,0.323675245047,16.3999996185,0.32304678872274245,0.06173699097491638,0.015622819695986622,16.3999996185,0.04373989797932432,0.46100966525962267,0.9844992444822319
1648125343386594151,19033,21,12,1.25173699856,-1.02845013142,-1.94532489777,0.404594063759,16.3999996185,0.4186411366421404,-0.3439632546555184,-0.6506103337023411,16.3999996185,0.05467487348094594,0.6847127303703822,2.531569502159811
1648125343386599228,19034,21,13,1.21589303017,-1.18667316437,-1.87676715851,0.404594063759,16.3999996185,0.406653187347826,-0.3968806569799331,-0.627681323916388,16.3999996185,0.05467487348094594,0.6987473688287602,2.53156947902158
1648125343386694125,19035,21,14,1.07205724716,-1.78000986576,0.364478260279,0.566431701183,16.3999996185,0.3585475743010033,-0.5953210253377926,0.12189908370535116,16.3999996185,0.07654482448418919,0.781997346084696,2.109641264672081
1648125343486391575,19036,22,0,0.0125994505361,0.0439508594573,0.0103632062674,0.0,27.7999992371,0.004213863055551839,0.014699284099431437,0.003465955273377926,27.7999992371,0.0,0.01586134410249293,0.04688091557326548
1648125343486408799,19037,22,1,0.0328124724329,0.0146502861753,-0.0301086530089,0.0,27.7999992371,0.010974071047792642,0.0048997612626421405,-0.010069783615016722,27.7999992371,0.0,0.01627476977271537,0.04688091528744241
1648125343486416106,19038,22,2,0.245221734047,-1.58955609798,0.324819356203,0.0,27.7999992371,0.08201395787525083,-0.5316241130367892,0.1086352361882943,27.7999992371,0.0,0.5441293744458938,1.640832076002463
1648125343486424238,19039,22,3,1.86613810062,-1.31852579117,0.523038744926,0.0,27.7999992371,0.6241264550568562,-0.44097852547491634,0.17492934612909697,27.7999992371,0.0,0.9866760986938455,2.3440459042561135
1648125343486437839,19040,22,4,2.42107057571,-0.902457654476,0.465136557817,0.0,27.7999992371,0.8097226005719063,-0.30182530250033446,0.15556406615953175,27.7999992371,0.0,1.1842296622628907,2.6253313253966484
1648125343486448843,19041,22,5,0.939061164856,0.354536950588,-0.237092241645,0.161837622523,27.7999992371,0.3140672792160535,0.11857423096588628,-0.07929506409531772,27.7999992371,0.021869948989594594,0.45971334546377957,1.0313801683769166
1648125343486559009,19042,22,6,1.71435642242,-1.81956553459,0.398757278919,0.161837622523,27.7999992371,0.573363351979933,-0.6085503460167223,0.13336363843444815,27.7999992371,0.021869948989594594,1.0138168426419052,2.5315694826039
1648125343486564281,19043,22,7,1.15692698956,-0.870226979256,-2.0767929554,0.161837622523,27.7999992371,0.38693210353177254,-0.29104581246020067,-0.6945795837458194,27.7999992371,0.021869948989594594,0.6197907472991695,2.5315694804204867
1648125343486569270,19044,22,8,0.74194508791,0.224149376154,0.185592517257,0.242756426334,27.7999992371,0.24814216986956522,0.07496634653979932,0.06207107600568561,27.7999992371,0.03280492247756756,0.35884401353328665,0.7969755571946952
1648125343486571937,19045,22,9,0.925246179104,0.41899818182,-0.179178863764,0.323675245047,27.7999992371,0.30944688264347825,0.14013317117725752,-0.05992604139264213,27.7999992371,0.04373989797932432,0.4595128420618163,1.0313801595603704
1648125343486573899,19046,22,10,0.649772644043,0.304725944996,0.985222816467,0.323675245047,27.7999992371,0.2173152655662207,0.10191503177123744,0.32950595868461535,27.7999992371,0.04373989797932432,0.3237877746258595,1.2189037651051475
1648125343487006643,19047,22,11,0.943281888962,0.761814832687,-0.124835588038,0.323675245047,27.7999992371,0.3154788926294314,0.2547875694605351,-0.04175103278862876,27.7999992371,0.04373989797932432,0.5137806622878985,1.2189038048125185
1648125343487024234,19048,22,12,0.855428636074,0.293005734682,0.248027443886,0.404594063759,27.7999992371,0.28609653380401334,0.09799522899063544,0.08295232236989966,27.7999992371,0.05467487348094594,0.4162997936755061,0.9376183258088471
1648125343586459910,19049,23,0,0.0126141794026,0.0439508594573,0.0103452727199,0.0,29.2000007629,0.004218789097859532,0.014699284099431437,0.003459957431404682,29.2000007629,0.0,0.015863962806948167,0.0468809154847196
1648125343586468587,19050,23,1,0.0328872464597,0.0146502861753,-0.0300269592553,0.0,29.2000007629,0.010999079083511706,0.0048997612626421405,-0.010042461289397992,29.2000007629,0.0,0.0163084990664861,0.0468809145264753
1648125343586473482,19051,23,2,0.234368830919,-1.58955609798,0.332734972239,0.0,29.2000007629,0.0783842243876254,-0.5316241130367892,0.11128259941103678,29.2000007629,0.0,0.5430583493767976,1.6408320752845582
1648125343586486317,19052,23,3,1.86752080917,-1.31852579117,0.518080055714,0.0,29.2000007629,0.6245888993879598,-0.44097852547491634,0.17327092164347824,29.2000007629,0.0,0.9872611844934234,2.3440458994635893
1648125343586492950,19053,23,4,2.42179965973,-0.902457654476,0.461325883865,0.0,29.2000007629,0.8099664413812708,-0.30182530250033446,0.1542895932658863,29.2000007629,0.0,1.1845631201236588,2.6253314040544464
1648125343586531830,19054,23,5,0.906325340271,0.451228827238,0.19675347209,0.161837622523,29.2000007629,0.30311884289999996,0.15091265125016723,0.06580383681939798,29.2000007629,0.021869948989594594,0.4544630833735831,1.0313801460797059
1648125343586717385,19055,23,6,0.764523863792,0.435113489628,0.91015958786,0.242756426334,29.2000007629,0.2556935999304348,0.14552290623010034,0.3044011999531772,29.2000007629,0.03280492247756756,0.38978885351998593,1.265784722034987
1648125343586726859,19056,23,7,0.823193192482,0.278355449438,0.195664077997,0.323675245047,29.2000007629,0.2753154489906354,0.09309546803946488,0.06543949096889631,29.2000007629,0.04373989797932432,0.40032981287348235,0.8907374584011577
1648125343586730221,19057,23,8,1.66511523724,-1.74045395851,0.779137551785,0.323675245047,29.2000007629,0.556894728173913,-0.5820916249197324,0.26058112099832775,29.2000007629,0.04373989797932432,0.9793335163964763,2.531569485434574
1648125343586732972,19058,23,9,1.78930592537,-0.712003946304,-1.64325249195,0.323675245047,29.2000007629,0.5984300753745819,-0.23812841013511704,-0.5495827732274247,29.2000007629,0.04373989797932432,0.879171342764955,2.5315694867841465
1648125343586741827,19059,23,10,0.800012767315,0.263705134392,0.0503276698291,0.404594063759,29.2000007629,0.26756279843311037,0.08819569712107023,0.016831996598361203,29.2000007629,0.05467487348094594,0.38853337463001303,0.8438564452098083
1648125343586744993,19060,23,11,1.28955316544,-1.58223104477,0.533088922501,0.404594063759,29.2000007629,0.43128868409364546,-0.529174262464883,0.17829060953210701,29.2000007629,0.05467487348094594,0.8074931938472977,2.109641259746208
1648125343586797313,19061,23,12,2.05537819862,0.395557761192,0.263705164194,0.404594063759,29.2000007629,0.6874174577324415,0.1322935656160535,0.0881957070882943,29.2000007629,0.05467487348094594,0.9811152378258504,2.10964117693607
1648125343586802864,19062,23,13,0.747182428837,0.273960351944,0.0428280085325,0.485512852669,29.2000007629,0.24989378890869565,0.09162553576722407,0.014323748673076923,29.2000007629,0.06560984495527027,0.3650877295595106,0.7969755922955851
1648125343687656333,19063,24,0,0.0126141794026,0.0439508594573,0.0103452727199,0.0,28.5,0.004218789097859532,0.014699284099431437,0.003459957431404682,28.5,0.0,0.015863962806948167,0.0468809154847196
1648125343687687625,19064,24,1,0.0329001024365,0.0146502861753,-0.0300128757954,0.0,28.5,0.011003378741304349,0.0048997612626421405,-0.010037751102140467,28.5,0.0,0.016314298877980183,0.04688091657444943
1648125343687897830,19065,24,2,0.299503207207,-1.58955609798,0.275570571423,0.0,28.5,0.10016829672474917,-0.5316241130367892,0.09216407071003344,28.5,0.0,0.550174129616822,1.6408320753773318
1648125343687902049,19066,24,3,2.42236208916,-0.902457654476,0.458363473415,0.0,28.5,0.8101545448695652,-0.30182530250033446,0.15329882054013377,28.5,0.0,1.1848203603817091,2.62533140439126
1648125343687910025,19067,24,4,0.789062678814,0.474669277668,0.868493080139,0.161837622523,28.5,0.2639005614762542,0.1587522667785953,0.2904659130899665,28.5,0.021869948989594594,0.4055727985236519,1.2657847623147918
1648125343687916717,19068,24,5,0.285569518805,0.32230630517,0.937183916569,0.242756426334,28.5,0.09550820026923075,0.10779475089297658,0.31343943697959864,28.5,0.03280492247756756,0.17281012978819804,1.0313801422843407
1648125343687949477,19069,24,6,0.773867845535,0.676843225956,-0.0822000131011,0.242756426334,28.5,0.2588186774364548,0.22636897189163876,-0.027491643177625417,28.5,0.03280492247756756,0.4303685943643993,1.0313801612544855
1648125343688020468,19070,24,7,1.17568862438,0.7779302001,-2.37974643707,0.242756426334,28.5,0.39320689778595314,0.26017732444816055,-0.7959018184180602,28.5,0.03280492247756756,0.6139344990224197,2.76597401333988
1648125343688059000,19071,24,8,1.80368411541,-0.4321834445,-2.05196332932,0.242756426334,28.5,0.6032388345852843,-0.14454295802675585,-0.6862753609765886,28.5,0.03280492247756756,0.8652669240290816,2.7659740459296174
1648125343688063500,19072,24,9,0.924437940121,0.632892370224,0.103953145444,0.323675245047,28.5,0.3091765686023411,0.21166968903812708,0.03476693827558528,28.5,0.04373989797932432,0.485782212933876,1.1251419972032917
1648125343688065821,19073,24,10,0.761477828026,0.389697611332,0.248395681381,0.566431701183,28.5,0.2546748588715719,0.13033364927491636,0.08307547872274247,28.5,0.07654482448418919,0.3830214453732676,0.8907374054017223
1648125343688069133,19074,24,11,1.36939549446,-1.55000019073,0.61060833931,0.566431701183,28.5,0.457991804167224,-0.518394712618729,0.2042168358896321,28.5,0.07654482448418919,0.8296059687826218,2.156522004419454
1648125343688072310,19075,24,12,2.24098300934,1.20864868164,0.406903028488,0.566431701183,28.5,0.7494926452642139,0.40423032830769223,0.1360879693939799,28.5,0.07654482448418919,1.1344076026429133,2.578450418056042
1648125343688088507,19076,24,13,1.95307219028,-1.61153149605,0.486704736948,0.566431701183,28.5,0.653201401431438,-0.5389737444983277,0.16277750399598662,28.5,0.07654482448418919,1.069503080370757,2.5784503571280735
1648125343688091137,19077,24,14,0.635834813118,0.553780794144,0.0336837098002,-0.647350490093,28.5,0.21265378365150503,0.18521096794113712,0.011265454782675585,28.5,-0.08747979595851352,0.3531945158808318,0.8438564272679716
1648125343688092743,19078,24,15,0.184960335493,0.250519901514,0.834531366825,-0.566431701183,28.5,0.06185964397759197,0.08378592023879598,0.2791074805434782,28.5,-0.07654482448418919,0.12113344516000006,0.8907374186453997
1648125343688094887,19079,24,16,0.667128920555,0.5845464468,-0.08159404248,-0.566431701183,28.5,0.22312004031939797,0.19550048387959865,-0.0272889774180602,28.5,-0.07654482448418919,0.3711947520930445,0.8907374096082485
1648125343882481817,19080,26,0,0.0125994505361,0.0439508594573,0.0103632062674,0.0,25.7000007629,0.004213863055551839,0.014699284099431437,0.003465955273377926,25.7000007629,0.0,0.01586134410249293,0.04688091557326548
1648125343882489542,19081,26,1,0.0328478105366,0.0146502861753,-0.0300700943917,0.0,25.7000007629,0.010985889811571906,0.0048997612626421405,-0.010056887756421403,25.7000007629,0.0,0.016290709325713453,0.04688091422735167
1648125343882497763,19082,26,2,0.795601010323,0.49224960804,0.306509375572,0.0,25.7000007629,0.266087294422408,0.16463197593311035,0.10251149684682273,25.7000007629,0.0,0.4107415050925761,0.9844991831159889
1648125343882659742,19083,26,3,2.42180728912,-0.902457654476,0.461286276579,0.0,25.7000007629,0.8099689930167224,-0.30182530250033446,0.1542763466819398,25.7000007629,0.0,1.1845666095777245,2.6253314824450653
1648125343882668070,19084,26,4,0.869504988194,0.5391305089,0.340508729219,0.0809188112617,25.7000007629,0.29080434387759196,0.18031120698996655,0.11388251813344481,25.7000007629,0.010934974494824324,0.44905062543362756,1.0782610188610917
1648125343882708459,19085,26,5,1.13678741455,0.656332850456,0.00572332693264,0.161837622523,25.7000007629,0.3801964597157191,0.21950931453377925,0.0019141561647625417,25.7000007629,0.021869948989594594,0.5807607382802512,1.3126656820905123
1648125343882810311,19086,26,6,0.876059114933,0.703213751316,-0.0628915205598,0.242756426334,25.7000007629,0.29299635950936453,0.23518854559063543,-0.021033953364481606,25.7000007629,0.03280492247756756,0.4764529203903781,1.1251419893753125
1648125343882819712,19087,26,7,1.50525605679,-1.47674882412,0.78561770916,0.242756426334,25.7000007629,0.5034301193277592,-0.49389592779933106,0.26274839771237457,25.7000007629,0.03280492247756756,0.8664969460935714,2.2502839978519575
1648125343987596470,19088,27,0,0.0126200793311,0.0439508594573,0.0103380745277,0.0,22.7000007629,0.004220762318093645,0.014699284099431437,0.0034575500092642137,22.7000007629,0.0,0.015865012515831067,0.0468809154592663
1648125343987599701,19089,27,1,0.0329001024365,0.0146502861753,-0.0300128757954,0.0,22.7000007629,0.011003378741304349,0.0048997612626421405,-0.010037751102140467,22.7000007629,0.0,0.016314298877980183,0.04688091657444943
1648125343987601764,19090,27,2,1.87397861481,-1.31852579117,0.494211673737,0.0,22.7000007629,0.6267487006053512,-0.44097852547491634,0.16528818519632105,22.7000007629,0.0,0.9899949127904767,2.3440459230150776
1648125343987603607,19091,27,3,1.90569710732,-1.17202293873,0.699451088905,0.0,22.7000007629,0.6373568920802675,-0.3919809159632107,0.23393013006856184,22.7000007629,0.0,0.9829021590391351,2.3440458740236956
1648125343987605326,19092,27,4,2.42239642143,-0.902457654476,0.45818194747,0.0,22.7000007629,0.8101660272341136,-0.30182530250033446,0.15323810952173914,22.7000007629,0.0,1.1848360631741555,2.6253313957797015
1648125343987612971,19093,27,5,0.866484820843,0.640217483044,0.0444120578468,0.0809188112617,22.7000007629,0.2897942544625418,0.21411955954648826,0.014853531052441471,22.7000007629,0.010934974494824324,0.462394426457957,1.0782610079330088
1648125343987674320,19094,27,6,0.767798781395,0.523015201092,0.325850903988,-0.0809188112617,22.7000007629,0.2567888900986622,0.1749214719371237,0.10898023544749162,22.7000007629,-0.010934974494824324,0.40308633008433264,0.9844992031051873
1648125344182583469,19095,29,0,0.0126097733155,0.0439508594573,0.0103506427258,0.0,25.2999992371,0.004217315490133779,0.014699284099431437,0.0034617534199999998,25.2999992371,0.0,0.01586317915559307,0.04688091546611253
1648125344182728742,19096,29,1,0.0329244062304,0.0146502861753,-0.0299862083048,0.0,25.2999992371,0.011011507100468228,0.0048997612626421405,-0.010028832208963211,25.2999992371,0.0,0.016325263785869217,0.046880914017768956
1648125344182738972,19097,29,2,0.660056352615,0.64461261034,0.16711768508,0.0,25.2999992371,0.22075463298160533,0.21558950178595315,0.05589220236789297,25.2999992371,0.0,0.3793995904663078,0.9376183267744205
1648125344182936609,19098,29,3,0.485046744347,-1.53828001022,0.301254332066,0.0,25.2999992371,0.16222299142040134,-0.51447491980602,0.10075395721270902,25.2999992371,0.0,0.563309010224564,1.6408320775242662
1648125344182940571,19099,29,4,2.39239406586,-0.984499275684,0.446739763021,0.0,25.2999992371,0.8001317946020067,-0.32926397180066885,0.14941129198026754,25.2999992371,0.0,1.1784890922668767,2.6253313326223267
1648125344182946886,19100,29,5,2.26902914047,-1.2965502739,0.906132996082,0.323675245047,25.2999992371,0.7588726222307691,-0.4336288541471572,0.3030545137397993,25.2999992371,0.04373989797932432,1.157501316064817,2.765974124904413
1648125344182990346,19101,29,6,2.33306622505,1.4694237709,0.219565093517,0.323675245047,25.2999992371,0.7802897073745819,0.49144607722408024,0.0734331416444816,25.2999992371,0.04373989797932432,1.2079831545548796,2.765974160986715
1648125344182994597,19102,29,7,0.859616279602,0.668053030968,0.284094244242,-0.161837622523,25.2999992371,0.28749708347892977,0.22342910734715715,0.09501479740535117,25.2999992371,-0.021869948989594594,0.4639285634962875,1.1251420087943338
1648125344183227745,19103,29,8,1.014072299,0.75155967474,0.0950077027082,-0.161837622523,25.2999992371,0.3391546150501672,0.25135775074916383,0.03177515140742475,25.2999992371,-0.021869948989594594,0.5415093948227796,1.2657847510016582
1648125344287470435,19104,30,0,0.0126097733155,0.0439508594573,0.0103506427258,0.0,14.8999996185,0.004217315490133779,0.014699284099431437,0.0034617534199999998,14.8999996185,0.0,0.01586317915559307,0.04688091546611253
1648125344287479780,19105,30,1,0.0329001024365,0.0146502861753,-0.0300128757954,0.0,14.8999996185,0.011003378741304349,0.0048997612626421405,-0.010037751102140467,14.8999996185,0.0,0.016314298877980183,0.04688091657444943
1648125344287482134,19106,30,2,0.261402010918,-1.58955609798,0.311945974827,0.0,14.8999996185,0.08742542171170568,-0.5316241130367892,0.10432975746722407,14.8999996185,0.0,0.5458118781091998,1.64083207280579
1648125344287493354,19107,30,3,2.39190173149,-0.984499275684,0.449368536472,0.0,14.8999996185,0.7999671342775919,-0.32926397180066885,0.15029048042541804,14.8999996185,0.0,1.1782655027516324,2.6253313692747757
1648125344287498478,19108,30,4,0.63137191534,0.673913180828,0.162291884422,0.0809188112617,14.8999996185,0.21116117569899664,0.2253890236882943,0.05427822221471571,14.8999996185,0.010934974494824324,0.37413673468977565,0.937618326678322
1648125344287655391,19109,30,5,0.775977373123,0.741304457188,0.104755081236,-0.0809188112617,14.8999996185,0.2595242050578595,0.24792791210301002,0.03503514422608695,14.8999996185,-0.010934974494824324,0.44291520138914364,1.0782610114858218
1648125344482495060,19110,32,0,0.0125994505361,0.0439508594573,0.0103632062674,0.0,20.6000003815,0.004213863055551839,0.014699284099431437,0.003465955273377926,20.6000003815,0.0,0.01586134410249293,0.04688091557326548
1648125344482500991,19111,32,1,0.0329244062304,0.0146502861753,-0.0299862083048,0.0,20.6000003815,0.011011507100468228,0.0048997612626421405,-0.010028832208963211,20.6000003815,0.0,0.016325263785869217,0.046880914017768956
1648125344482502985,19112,32,2,2.42220783234,-0.902457654476,0.459178835154,0.0,20.6000003815,0.8101029539598661,-0.30182530250033446,0.15357151677391304,20.6000003815,0.0,1.1847498070303368,2.625331560741414
1648125344482505044,19113,32,3,0.760981380939,0.741304457188,0.184450119734,0.0809188112617,20.6000003815,0.2545088230565217,0.24792791210301002,0.06168900325551839,20.6000003815,0.010934974494824324,0.4370557534537094,1.0782610106335615
1648125344482506778,19114,32,4,0.490257173777,0.769140005112,0.370554000139,0.161837622523,20.6000003815,0.16396560995886286,0.2572374599036789,0.12393110372541805,20.6000003815,0.021869948989594594,0.3463243469293788,0.9844992183453032
1648125344587562137,19115,33,0,0.0125994505361,0.0439508594573,0.0103632062674,0.0,35.9000015259,0.004213863055551839,0.014699284099431437,0.003465955273377926,35.9000015259,0.0,0.01586134410249293,0.04688091557326548
1648125344587699443,19116,33,1,0.0329001024365,0.0146502861753,-0.0300128757954,0.0,35.9000015259,0.011003378741304349,0.0048997612626421405,-0.010037751102140467,35.9000015259,0.0,0.016314298877980183,0.04688091657444943
1648125344587704800,19117,33,2,2.39272069931,-0.984499275684,0.444988012314,0.0,35.9000015259,0.8002410365585283,-0.32926397180066885,0.1488254221785953,35.9000015259,0.0,1.178637432084391,2.6253315028453112
1648125344587707783,19118,33,3,0.672097504139,0.842391431332,0.0361718274653,0.0809188112617,35.9000015259,0.22478177395953178,0.2817362646595318,0.012097601158963208,35.9000015259,0.010934974494824324,0.42476936640145535,1.0782609979748077
1648125344782515695,19119,35,0,0.0125994505361,0.0439508594573,0.0103632062674,0.0,24.7999992371,0.004213863055551839,0.014699284099431437,0.003465955273377926,24.7999992371,0.0,0.01586134410249293,0.04688091557326548
1648125344782521746,19120,35,1,0.0329001024365,0.0146502861753,-0.0300128757954,0.0,24.7999992371,0.011003378741304349,0.0048997612626421405,-0.010037751102140467,24.7999992371,0.0,0.016314298877980183,0.04688091657444943
1648125344782531643,19121,35,2,0.450203299522,0.830671191216,0.276660621166,0.0,24.7999992371,0.15056966539197322,0.2778164519117057,0.09252863584147156,24.7999992371,0.0,0.35003489715357045,0.9844992321584923
1648125344782536504,19122,35,3,0.481562644243,-1.53828001022,0.306793004274,0.0,24.7999992371,0.1610577405494983,-0.51447491980602,0.1026063559444816,24.7999992371,0.0,0.5626398801109194,1.6408320808797652
1648125344782619086,19123,35,4,2.39209294319,-0.984499275684,0.448349356651,0.0,24.7999992371,0.8000310846789298,-0.32926397180066885,0.14994961760903008,24.7999992371,0.0,1.1783523395109976,2.625331334953949
1648125344782622337,19124,35,5,0.567568302155,0.842391431332,0.361786782742,0.0809188112617,24.7999992371,0.18982217463377923,0.2817362646595318,0.12099892399397992,24.7999992371,0.010934974494824324,0.3891532330454158,1.0782609968646237
1648125344782623597,19125,35,6,0.773569703102,0.879017233849,-0.0505607128143,0.0809188112617,24.7999992371,0.25871896424816054,0.29398569693946486,-0.016909937396086955,24.7999992371,0.010934974494824324,0.46935977131435624,1.1720229386156034
1648125344782624780,19126,35,7,0.483986228704,0.183128580451,-1.05159831047,0.0809188112617,24.7999992371,0.16186830391438126,0.061247016873244145,-0.3517051205585284,24.7999992371,0.010934974494824324,0.2369681259159308,1.1720229320011095
1648125344782625881,19127,35,8,0.444838821888,0.861436843872,0.171124845743,-0.161837622523,24.7999992371,0.14877552571505015,0.28810596785016723,0.057232389880602,24.7999992371,-0.021869948989594594,0.35675392473588946,0.984499226139575
1648125344887609461,19128,36,0,0.0125994505361,0.0439508594573,0.0103632062674,0.0,26.8999996185,0.004213863055551839,0.014699284099431437,0.003465955273377926,26.8999996185,0.0,0.01586134410249293,0.04688091557326548
1648125344887614618,19129,36,1,0.0328872464597,0.0146502861753,-0.0300269592553,0.0,26.8999996185,0.010999079083511706,0.0048997612626421405,-0.010042461289397992,26.8999996185,0.0,0.0163084990664861,0.0468809145264753
1648125344887617633,19130,36,2,0.265012711287,-1.58955609798,0.308884382248,0.0,26.8999996185,0.0886330138083612,-0.5316241130367892,0.10330581346086956,26.8999996185,0.0,0.5462012631216255,1.6408320716532265
1648125344887620780,19131,36,3,2.39081954956,-0.984499275684,0.455091863871,0.0,26.8999996185,0.7996052005217391,-0.32926397180066885,0.15220463674615384,26.8999996185,0.0,1.1777740515603037,2.6253315118175427
1648125344887622720,19132,36,4,0.743906617165,0.843856453896,0.0213006343693,0.0809188112617,26.8999996185,0.24879819972073575,0.28222623876120395,0.0071239579830434776,26.8999996185,0.010934974494824324,0.45105735579176,1.1251419852037965
1648125344887703034,19133,36,5,0.706776678562,0.843856453896,0.233061209321,0.323675245047,26.8999996185,0.23638016005418058,0.28222623876120395,0.07794689274949831,26.8999996185,0.04373989797932432,0.4374960685306511,1.1251419978968127
1648125344887705741,19134,36,6,0.53226774931,0.799905598164,0.214664310217,-0.161837622523,26.8999996185,0.1780159696688963,0.26752695590769227,0.07179408368461537,26.8999996185,-0.021869948989594594,0.3673554723310259,0.9844992072168367
1648125344986527835,19135,37,0,0.0125994505361,0.0439508594573,0.0103632062674,0.0,34.7999992371,0.004213863055551839,0.014699284099431437,0.003465955273377926,34.7999992371,0.0,0.01586134410249293,0.04688091557326548
1648125344986690322,19136,37,1,0.0329001024365,0.0146502861753,-0.0300128757954,0.0,34.7999992371,0.011003378741304349,0.0048997612626421405,-0.010037751102140467,34.7999992371,0.0,0.016314298877980183,0.04688091657444943
1648125344986779009,19137,37,2,0.588493227959,0.769140005112,0.177025660872,0.0,34.7999992371,0.19682047757826088,0.2572374599036789,0.05920590664615384,34.7999992371,0.0,0.3790088542052365,0.9844992186002279
1648125344986784126,19138,37,3,0.271081119776,-1.58955609798,0.303572624922,0.0,34.7999992371,0.09066258186488295,-0.5316241130367892,0.10152930599397993,34.7999992371,0.0,0.5468670817145296,1.640832075724523
1648125344986786992,19139,37,4,2.39200377464,-0.984499275684,0.448825091124,0.0,34.7999992371,0.8000012624214047,-0.32926397180066885,0.15010872612842807,34.7999992371,0.0,1.1783118444951803,2.6253313779667504
1648125344986862834,19140,37,5,0.550107419491,0.988894343376,0.305135458708,0.161837622523,34.7999992371,0.18398241454548492,0.3307338941056856,0.10205199287892977,34.7999992371,0.021869948989594594,0.42081345800043535,1.1720229705517886
1648125344987133473,19141,37,6,0.758653104305,0.879017233849,0.159411370754,0.323675245047,34.7999992371,0.2537301352190635,0.29398569693946486,0.053314839717056854,34.7999992371,0.04373989797932432,0.46388096861323314,1.1720229584785573
1648125345087591777,19142,38,0,0.0125890737399,0.0439508594573,0.0103758089244,0.0,26.8999996185,0.004210392555150501,0.014699284099431437,0.003470170208829431,26.8999996185,0.0,0.01585950074790286,0.0468809154720728
1648125345087605592,19143,38,1,0.0329001024365,0.0146502861753,-0.0300128757954,0.0,26.8999996185,0.011003378741304349,0.0048997612626421405,-0.010037751102140467,26.8999996185,0.0,0.016314298877980183,0.04688091657444943
1648125345087607593,19144,38,2,0.268475323915,-1.58955609798,0.305879563093,0.0,26.8999996185,0.08979107823244147,-0.5316241130367892,0.10230085722173912,26.8999996185,0.0,0.5465794297468957,1.6408320740693219
1648125345087724749,19145,38,3,1.86446332932,-1.31852579117,0.52897799015,0.0,26.8999996185,0.6235663308762541,-0.44097852547491634,0.17691571576923076,26.8999996185,0.0,0.9859675440576021,2.344045964229931
1648125345087729873,19146,38,4,1.89281797409,-1.17202293873,0.7335896492,0.0,26.8999996185,0.6330494896622073,-0.3919809159632107,0.2453477087625418,26.8999996185,0.0,0.9773189608323989,2.3440459520582904
1648125345087731024,19147,38,5,2.39239048958,-0.984499275684,0.446759641171,0.0,26.8999996185,0.8001305985217391,-0.32926397180066885,0.14941794019096988,26.8999996185,0.0,1.1784874681164261,2.62533145629926
1648125345087732159,19148,38,6,0.611954033375,0.703213751316,0.10065164417,0.242756426334,26.8999996185,0.20466690079431435,0.23518854559063543,0.03366275724749163,26.8999996185,0.03280492247756756,0.37294869960698057,0.9376182978579161
1648125345087747087,19149,38,7,0.632777452469,0.990359306335,0.323276400566,0.323675245047,26.8999996185,0.2116312550063545,0.3312238482725752,0.10811919751371236,26.8999996185,0.04373989797932432,0.4464132769705928,1.2189038071810296
1648125345087750238,19150,38,8,0.747127652168,1.0987714529,0.461020439863,0.323675245047,26.8999996185,0.24987546895250837,0.3674820912709029,0.1541874380812709,26.8999996185,0.04373989797932432,0.5098221134604777,1.4064274884662624
1648125345087751429,19151,38,9,0.634033501148,0.915642917156,0.365016907454,0.404594063759,26.8999996185,0.21205133817658858,0.30623508934983273,0.12207923326220735,26.8999996185,0.05467487348094594,0.4286157603192677,1.1720229413468075
1648125345282495919,19152,40,0,0.0126141794026,0.0439508594573,0.0103452727199,0.0,27.1000003815,0.004218789097859532,0.014699284099431437,0.003459957431404682,27.1000003815,0.0,0.015863962806948167,0.0468809154847196
1648125345282499386,19153,40,1,0.0329244062304,0.0146502861753,-0.0299862083048,0.0,27.1000003815,0.011011507100468228,0.0048997612626421405,-0.010028832208963211,27.1000003815,0.0,0.016325263785869217,0.046880914017768956
1648125345282502333,19154,40,2,0.275823235512,-1.58955609798,0.299270540476,0.0,27.1000003815,0.09224857374983277,-0.5316241130367892,0.10009048176454849,27.1000003815,0.0,0.547397292905171,1.640832076195035
1648125345282637225,19155,40,3,2.42368268967,-0.902457654476,0.451328396797,0.0,27.1000003815,0.8105962172809364,-0.30182530250033446,0.15094595210602005,27.1000003815,0.0,1.1854243831513442,2.6253313924309976
1648125345282640092,19156,40,4,0.784313321114,1.21890377998,0.386903107166,0.323675245047,27.1000003815,0.26231214752976584,0.407660127083612,0.12939903249698997,27.1000003815,0.04373989797932432,0.5511824604404444,1.5001892630135405
1648125345282677265,19157,40,5,0.492817610502,1.02845013142,0.549210429192,0.404594063759,27.1000003815,0.1648219433117057,0.3439632546555184,0.18368241778996655,27.1000003815,0.05467487348094594,0.41550363000497514,1.2657847232337645
1648125345387634217,19158,41,0,0.0126038333401,0.0439508594573,0.0103578744456,0.0,33.5999984741,0.004215328876287625,0.014699284099431437,0.003464172055384615,33.5999984741,0.0,0.01586212306427883,0.04688091535935669
1648125345387643386,19159,41,1,0.0329001024365,0.0146502861753,-0.0300128757954,0.0,33.5999984741,0.011003378741304349,0.0048997612626421405,-0.010037751102140467,33.5999984741,0.0,0.016314298877980183,0.04688091657444943
1648125345387645378,19160,41,2,0.275548756123,-1.58955609798,0.29952326417,0.0,33.5999984741,0.09215677462307692,-0.5316241130367892,0.10017500473913044,33.5999984741,0.0,0.5473663670522788,1.6408320728841779
1648125345387739692,19161,41,3,1.86459732056,-1.31852579117,0.528505504131,0.0,33.5999984741,0.623611144,-0.44097852547491634,0.17675769368929764,33.5999984741,0.0,0.986024227781452,2.344045967492269
1648125345387741847,19162,41,4,1.89538431168,-1.17202293873,0.726933240891,0.0,33.5999984741,0.6339077965484949,-0.3919809159632107,0.24312148524782606,33.5999984741,0.0,0.9784310029477264,2.3440459454934466
1648125345387743297,19163,41,5,2.42313671112,-0.902457654476,0.454250812531,0.0,33.5999984741,0.8104136157591973,-0.30182530250033446,0.15192334867257526,33.5999984741,0.0,1.1851746582024145,2.625331434235466
1648125345387744512,19164,41,6,0.712073147297,1.06654083729,0.28023865819,0.323675245047,33.5999984741,0.2381515542799331,0.35670262116722407,0.09372530374247491,33.5999984741,0.04373989797932432,0.4905803558638116,1.3126656963038386
1648125345582657303,19165,43,0,0.0126347495243,0.0439508594573,0.0103201400489,0.0,36.7000007629,0.00422566873722408,0.014699284099431437,0.0034515518558193977,36.7000007629,0.0,0.01586762444694554,0.04688091544761093
1648125345582782111,19166,43,1,0.0329001024365,0.0146502861753,-0.0300128757954,0.0,36.7000007629,0.011003378741304349,0.0048997612626421405,-0.010037751102140467,36.7000007629,0.0,0.016314298877980183,0.04688091657444943
1648125345582786920,19167,43,2,0.287565976381,-1.58955609798,0.288005411625,0.0,36.7000007629,0.09617591183311036,-0.5316241130367892,0.09632288014214045,36.7000007629,0.0,0.5487474916535048,1.6408320744435267
1648125345582789662,19168,43,3,2.39243125916,-0.984499275684,0.446540594101,0.0,36.7000007629,0.8001442338327758,-0.32926397180066885,0.1493446803013378,36.7000007629,0.0,1.1785059834373484,2.625331342099183
1648125345582792791,19169,43,4,0.582646548748,1.14711737633,0.439330875874,0.161837622523,36.7000007629,0.19486506647090301,0.3836512964314381,0.14693340330234111,36.7000007629,0.021869948989594594,0.472369670401204,1.3595465767462307
1648125345582912875,19170,43,5,1.05971646309,-2.0744805336,-1.49135637283,0.242756426334,36.7000007629,0.35442022176923077,-0.6938061985284281,-0.4987813955953177,36.7000007629,0.03280492247756756,0.8559173022637,2.7659740232348486
1648125345687644575,19171,44,0,0.0125994505361,0.0439508594573,0.0103632062674,0.0,15.8999996185,0.004213863055551839,0.014699284099431437,0.003465955273377926,15.8999996185,0.0,0.01586134410249293,0.04688091557326548
1648125345687652041,19172,44,1,0.0328478105366,0.0146502861753,-0.0300700943917,0.0,15.8999996185,0.010985889811571906,0.0048997612626421405,-0.010056887756421403,15.8999996185,0.0,0.016290709325713453,0.04688091422735167
1648125345687654799,19173,44,2,0.588521122932,1.1896032095,0.294709950686,0.0,15.8999996185,0.19682980700066888,0.39786060518394645,0.09856520089832775,15.8999996185,0.0,0.48556874591058397,1.3595465653015302
1648125345687666292,19174,44,3,2.4223151207,-0.902457654476,0.458612501621,0.0,15.8999996185,0.810138836354515,-0.30182530250033446,0.15338210756555182,15.8999996185,0.0,1.1847988781093244,2.6253315578679297
1648125345687788158,19175,44,4,0.545260608196,1.13539719582,0.725030481815,0.323675245047,15.8999996185,0.18236140742341134,0.37973150361872904,0.24248511097491635,15.8999996185,0.04373989797932432,0.45902873621967905,1.4533083371009339
1648125345882702733,19176,46,0,0.0125994505361,0.0439508594573,0.0103632062674,0.0,20.8999996185,0.004213863055551839,0.014699284099431437,0.003465955273377926,20.8999996185,0.0,0.01586134410249293,0.04688091557326548
1648125345882723057,19177,46,1,0.0329001024365,0.0146502861753,-0.0300128757954,0.0,20.8999996185,0.011003378741304349,0.0048997612626421405,-0.010037751102140467,20.8999996185,0.0,0.016314298877980183,0.04688091657444943
1648125345882843330,19178,46,2,2.39296150208,-0.984499275684,0.443690240383,0.0,20.8999996185,0.8003215726020066,-0.32926397180066885,0.14839138474347824,20.8999996185,0.0,1.178746793111332,2.6253313321694107
1648125345882846727,19179,46,3,0.789212167263,1.18081307411,0.30810675025,0.323675245047,20.8999996185,0.2639505576130435,0.39492076057190634,0.10304573586956521,20.8999996185,0.04373989797932432,0.5434171517896413,1.4533083397870825
1648125345882849273,19180,46,4,0.812156319618,1.02552008629,0.108636498451,0.566431701183,20.8999996185,0.2716241871632107,0.342983306451505,0.03633327707391304,20.8999996185,0.07654482448418919,0.5149727629773799,1.3126656937984622
1648125345882853123,19181,46,5,0.632535219193,1.1896032095,0.181962311268,-0.0809188112617,20.8999996185,0.2115502405327759,0.39786060518394645,0.060856960290301,20.8999996185,-0.010934974494824324,0.49779520859113013,1.359546572315281
