%time,field.header.seq,field.header.frame_id,field.point_id,field.x,field.y,field.z,field.velocity,field.intensity,normalized_x,normalized_y,normalized_z,normalized_intensity,normalized_velocity,normalized_range,range
1648218638839325314,43257,0,0,0.00521258730441,0.0454158857465,0.0103945415467,0.0,22.1000003815,0.0017433402355886286,0.015189259446989964,0.0034764352998996654,22.1000003815,0.0,0.015388049678306159,0.046880915504193287
1648218638839329356,43258,0,1,0.0334148444235,0.0146502861753,-0.0294387042522,0.0,22.1000003815,0.011175533252006688,0.0048997612626421405,-0.009845720485685617,22.1000003815,0.0,0.016546683878176403,0.046880913183441654
1648218638839341885,43259,0,2,0.940868794918,-0.902457654476,0.153060004115,0.0,22.1000003815,0.3146718377652174,-0.30182530250033446,0.0511906368277592,22.1000003815,0.0,0.5377129756612695,1.3126657122940544
1648218638839346619,43260,0,3,1.43882751465,1.11342179775,0.454510718584,0.404594063759,22.1000003815,0.48121321560200664,0.37238187215719065,0.15201027377391302,22.1000003815,0.05467487348094594,0.7757580656695365,1.8752367077055851
1648218638839353448,43261,0,4,1.68546628952,1.18667328358,0.448994606733,-0.161837622523,22.1000003815,0.5637011001739131,0.3968806968494983,0.15016542031204014,22.1000003815,-0.021869948989594594,0.8905235247910654,2.109641261434317
1648218638839499027,43262,0,5,1.02403819561,-0.892202436924,-0.0607241168618,-0.0809188112617,22.1000003815,0.34248769083946484,-0.2983954638541806,-0.020309069184548494,22.1000003815,-0.010934974494824324,0.568889698976743,1.3595465541458867
1648218638944482276,43263,1,0,0.00521258730441,0.0454158857465,0.0103945415467,0.0,18.0,0.0017433402355886286,0.015189259446989964,0.0034764352998996654,18.0,0.0,0.015388049678306159,0.046880915504193287
1648218638944494048,43264,1,1,0.0334148444235,0.0146502861753,-0.0294387042522,0.0,18.0,0.011175533252006688,0.0048997612626421405,-0.009845720485685617,18.0,0.0,0.016546683878176403,0.046880913183441654
1648218638944498262,43265,1,2,2.03168964386,-1.19546329975,0.399543195963,0.0,18.0,0.679494864167224,-0.39982050158862875,0.13362648694414714,18.0,0.0,1.0408088077787636,2.3909266144023453
1648218638944520578,43266,1,3,1.03525829315,-0.849716603756,0.233642235398,-0.0809188112617,18.0,0.3462402318227425,-0.28418615510234113,0.0781412158521739,18.0,-0.010934974494824324,0.5661504808945982,1.3595465179228907
1648218639139435468,43267,3,0,0.00521258730441,0.0454158857465,0.0103945415467,0.0,20.5,0.0017433402355886286,0.015189259446989964,0.0034764352998996654,20.5,0.0,0.015388049678306159,0.046880915504193287
1648218639139438766,43268,3,1,0.0334148444235,0.0146502861753,-0.0294387042522,0.0,20.5,0.011175533252006688,0.0048997612626421405,-0.009845720485685617,20.5,0.0,0.016546683878176403,0.046880913183441654
1648218639139442654,43269,3,2,1.49808502197,1.14125728607,0.384459584951,0.0,20.5,0.5010317799230769,0.3816914000234114,0.1285818009869565,20.5,0.0,0.8048316680136319,1.9221176078792401
1648218639139444476,43270,3,3,1.06147992611,-0.93761831522,0.494671821594,-0.404594063759,20.5,0.3550100087324415,-0.31358472080936456,0.16544208080066888,20.5,-0.05467487348094594,0.5919455969305824,1.5001893046044583
1648218639139449135,43271,3,4,1.0408680439,-0.849716603756,0.207225054502,-0.242756426334,20.5,0.34811640264214044,-0.28418615510234113,0.06930603829498327,20.5,-0.03280492247756756,0.5684468579637516,1.3595465474650732
1648218639244425314,43272,4,0,0.00525635527447,0.0454158857465,0.0103724775836,0.0,34.5,0.0017579783526655518,0.015189259446989964,0.0034690560480267556,34.5,0.0,0.015391380000664505,0.046880915521487786
1648218639244435988,43273,4,1,0.0334376059473,0.0146502861753,-0.0294128507376,0.0,34.5,0.011183145801772574,0.0048997612626421405,-0.00983707382528428,34.5,0.0,0.016556967128018817,0.046880914720357526
1648218639244441559,43274,4,2,1.47603273392,1.25992465019,0.545607209206,0.0,34.5,0.4936564327491638,0.4213794816688963,0.18247732749364548,34.5,0.0,0.8154471256683704,2.015879456340905
1648218639244444034,43275,4,3,1.49802541733,1.14125728607,0.384691923857,0.161837622523,34.5,0.5010118452608695,0.3816914000234114,0.12865950630668896,34.5,0.021869948989594594,0.8048068482780416,1.922117639546389
1648218639244448491,43276,4,4,0.9408390522,-0.953733623028,0.563310861588,-0.485512852669,34.5,0.31466189036789294,-0.31897445586220735,0.18839828146755852,34.5,-0.06560984495527027,0.5475115651676986,1.4533083198763175
1648218639244453949,43277,4,5,0.974397838116,-0.79111546278,0.164000794291,-0.404594063759,34.5,0.32588556458729095,-0.26458711129765883,0.05484976397692307,34.5,-0.05467487348094594,0.5314218116313956,1.2657847695808426
1648218639439530957,43278,6,0,0.00516824191436,0.0454158857465,0.0104166613892,0.0,43.0999984741,0.0017285090014581938,0.015189259446989964,0.0034838332405351165,43.0999984741,0.0,0.015384703093794755,0.04688091548937306
1648218639439534277,43279,6,1,0.0334148444235,0.0146502861753,-0.0294387042522,0.0,43.0999984741,0.011175533252006688,0.0048997612626421405,-0.009845720485685617,43.0999984741,0.0,0.016546683878176403,0.046880913183441654
1648218639439722370,43280,6,2,0.948208987713,-0.659262895584,0.19977478683,-0.647350490093,43.0999984741,0.31712675174347826,-0.22048926273712371,0.06681430997658862,43.0999984741,-0.08747979595851352,0.4997542079113489,1.1720229585321629
1648218639439725955,43281,6,3,0.963956713676,-0.807230770588,0.51723575592,-0.566431701183,43.0999984741,0.3223935497244147,-0.2699768463505016,0.1729885471304348,43.0999984741,-0.07654482448418919,0.5298704552748527,1.3595465751592566
1648218639439728171,43282,6,4,1.66600513458,1.09584140778,0.527767717838,-0.323675245047,43.0999984741,0.5571923527023411,0.3665021430702341,0.17651094242073578,43.0999984741,-0.04373989797932432,0.8690514695315892,2.062760350463453
1648218639544540761,43283,7,0,0.00521258730441,0.0454158857465,0.0103945415467,0.0,22.3999996185,0.0017433402355886286,0.015189259446989964,0.0034764352998996654,22.3999996185,0.0,0.015388049678306159,0.046880915504193287
1648218639544544260,43284,7,1,0.0334148444235,0.0146502861753,-0.0294387042522,0.0,22.3999996185,0.011175533252006688,0.0048997612626421405,-0.009845720485685617,22.3999996185,0.0,0.016546683878176403,0.046880913183441654
1648218639544718905,43285,7,2,1.57980442047,1.19692838192,0.367899686098,0.0,22.3999996185,0.528362682431438,0.40031049562541804,0.12304337327692307,22.3999996185,0.0,0.8476925983398446,2.0158793955525187
1648218639544722869,43286,7,3,1.31559681892,-1.25699448586,0.179037705064,0.0809188112617,22.3999996185,0.4399989360936455,-0.4203994935986622,0.059878831125083604,22.3999996185,0.010934974494824324,0.7509552994320577,1.8283557168312332
1648218639544731214,43287,7,4,0.877008199692,-0.799905598164,0.277009367943,-0.647350490093,22.3999996185,0.293313779161204,-0.26752695590769227,0.09264527355953177,22.3999996185,-0.08747979595851352,0.49359560191404805,1.218903826488903
1648218639544732303,43288,7,5,0.889350950718,-0.606521844864,0.0619104206562,-0.566431701183,22.3999996185,0.2974417895377926,-0.20285011533913042,0.020705826306421402,22.3999996185,-0.07654482448418919,0.4670025756031625,1.0782609897543673
1648218639544733258,43289,7,6,1.01364028454,-0.69735366106,0.457517772913,-0.485512852669,22.3999996185,0.33901012860869567,-0.23322864918394645,0.15301597756287624,22.3999996185,-0.06560984495527027,0.5331522647412624,1.31266571051711
1648218639739716703,43290,9,0,0.00521258730441,0.0454158857465,0.0103945415467,0.0,22.2999992371,0.0017433402355886286,0.015189259446989964,0.0034764352998996654,22.2999992371,0.0,0.015388049678306159,0.046880915504193287
1648218639739720156,43291,9,1,0.0334376059473,0.0146502861753,-0.0294128507376,0.0,22.2999992371,0.011183145801772574,0.0048997612626421405,-0.00983707382528428,22.2999992371,0.0,0.016556967128018817,0.046880914720357526
1648218639739721246,43292,9,2,1.73595964909,-1.53828012943,0.338658213615,0.0,22.2999992371,0.5805885114013377,-0.5144749596755852,0.11326361659364546,22.2999992371,0.0,0.9689429927893786,2.344045871035112
1648218639739722279,43293,9,3,1.31979453564,-1.25699448586,0.144885599613,0.161837622523,22.2999992371,0.44140285472909696,-0.4203994935986622,0.04845672227859531,22.2999992371,0.021869948989594594,0.752601285239405,1.828355706847786
1648218639739723327,43294,9,4,0.82732874155,-0.523015201092,0.105928979814,-0.485512852669,22.2999992371,0.27669857576923074,-0.1749214719371237,0.03542775244615384,22.2999992371,-0.06560984495527027,0.4286277231002346,0.984499210732262
1648218639739724235,43295,9,5,0.897415041924,-0.609451889992,0.555824697018,-0.404594063759,22.2999992371,0.3001388100080267,-0.20383006354247488,0.18589454749765885,22.2999992371,-0.05467487348094594,0.47086442353377905,1.218903793373959
1648218639739725212,43296,9,6,0.925970852375,-0.41899818182,0.175395295024,-0.242756426334,22.2999992371,0.3096892482859532,-0.14013317117725752,0.058660633787290965,22.2999992371,-0.03280492247756756,0.45983928352418096,1.0313801458885592
1648218639844476116,43297,10,0,0.00521258730441,0.0454158857465,0.0103945415467,0.0,39.4000015259,0.0017433402355886286,0.015189259446989964,0.0034764352998996654,39.4000015259,0.0,0.015388049678306159,0.046880915504193287
1648218639844483338,43298,10,1,0.0334148444235,0.0146502861753,-0.0294387042522,0.0,39.4000015259,0.011175533252006688,0.0048997612626421405,-0.009845720485685617,39.4000015259,0.0,0.016546683878176403,0.046880913183441654
1648218639844489518,43299,10,2,1.65952038765,1.22476398945,0.0304225254804,0.0,39.4000015259,0.5550235410200668,0.409620063361204,0.010174757685752508,39.4000015259,0.0,0.885376111311427,2.0627603537338244
1648218639844499722,43300,10,3,1.3782980442,-1.19985842705,0.0593191720545,0.161837622523,39.4000015259,0.4609692455518394,-0.40129044382943135,0.019839187978093642,39.4000015259,0.021869948989594594,0.7655189814747156,1.8283556841549393
1648218639844673163,43301,10,4,0.844606041908,-0.547920703888,0.223983407021,-0.404594063759,39.4000015259,0.28247693709297655,-0.18325107153444814,0.07491083846856186,39.4000015259,-0.05467487348094594,0.43950812870455797,1.0313801580393889
1648218639844676768,43302,10,5,0.815118849277,-0.410208016634,0.215496480465,-0.323675245047,39.4000015259,0.2726149997581939,-0.13719331659999998,0.07207240149331103,39.4000015259,-0.04373989797932432,0.4092186240947838,0.9376183063753942
1648218639844679090,43303,10,6,0.828499674797,-0.476134330034,0.678617835045,-0.323675245047,39.4000015259,0.2770901922397993,-0.15924225084749163,0.2269624866371237,39.4000015259,-0.04373989797932432,0.4229846849780182,1.1720229423594162
1648218639844681602,43304,10,7,0.956998288631,-0.354536950588,0.149006262422,-0.242756426334,39.4000015259,0.320066317267893,-0.11857423096588628,0.04983487037525083,39.4000015259,-0.03280492247756756,0.4679153162143919,1.0313801627023251
1648218640039468371,43305,12,0,0.00539573840797,0.0454158857465,0.0103006586432,0.0,37.7999992371,0.0018045947852742474,0.015189259446989964,0.003445036335518394,37.7999992371,0.0,0.015402166316010612,0.04688091551569908
1648218640039473544,43306,12,1,0.0334148444235,0.0146502861753,-0.0294387042522,0.0,37.7999992371,0.011175533252006688,0.0048997612626421405,-0.009845720485685617,37.7999992371,0.0,0.016546683878176403,0.046880913183441654
1648218640039862798,43307,12,2,2.11027050018,-1.12074685097,-0.0849371924996,0.0,37.7999992371,0.7057760870167223,-0.3748317227324415,-0.02840708779250836,37.7999992371,0.0,1.0661794362938362,2.3909264761926146
1648218640039872307,43308,12,3,1.9455177784,-1.24527442455,0.398501425982,0.242756426334,37.7999992371,0.6506748422742474,-0.4164797406521739,0.133278068890301,37.7999992371,0.03280492247756756,1.010054887177393,2.3440459050578535
1648218640039875218,43309,12,4,0.853975832462,-0.512760043144,-2.12187504768,0.242756426334,37.7999992371,0.2856106463083612,-0.17149165322541807,-0.7096572065819398,37.7999992371,0.03280492247756756,0.4388123399533639,2.3440459257960806
1648218640039877946,43310,12,5,1.20213901997,-0.820416033268,1.18249392509,0.323675245047,37.7999992371,0.4020531839364548,-0.27438663319999995,0.39548291809030095,37.7999992371,0.04373989797932432,0.631333152864407,1.8752366714237396
1648218640039880614,43311,12,6,0.849797189236,-0.250519901514,0.0921826958656,-0.161837622523,37.7999992371,0.28421310676789296,-0.08378592023879598,0.030830333065418058,37.7999992371,-0.021869948989594594,0.4105779591594967,0.8907374098493
1648218640039884828,43312,12,7,0.933589100838,-0.184593603015,0.252141386271,-0.0809188112617,37.7999992371,0.31223715747090297,-0.06173699097491638,0.08432822283311037,37.7999992371,-0.010934974494824324,0.4458649359006109,0.9844992057631262
1648218640039888424,43313,12,8,0.89478546381,-0.316446185112,0.604289054871,-0.0809188112617,37.7999992371,0.29925935244481605,-0.10583484451906354,0.20210336283311037,37.7999992371,-0.010934974494824324,0.4362491654613858,1.1251419804426912
1648218640144513958,43314,13,0,0.00529456837103,0.0454158857465,0.0103530241176,0.0,22.3999996185,0.0017707586525183944,0.015189259446989964,0.003462549872107023,22.3999996185,0.0,0.015394309824052243,0.04688091552811506
1648218640144516550,43315,13,1,0.0334376059473,0.0146502861753,-0.0294128507376,0.0,22.3999996185,0.011183145801772574,0.0048997612626421405,-0.00983707382528428,22.3999996185,0.0,0.016556967128018817,0.046880914720357526
1648218640144518590,43316,13,2,0.947643399239,-0.061531201005,0.259662538767,0.0,22.3999996185,0.3169375917187291,-0.020578996991638794,0.08684365845050167,22.3999996185,0.0,0.4486896134368585,0.9844992305011153
1648218640144524828,43317,13,3,0.881066560745,-0.24612480402,0.655048727989,0.0,22.3999996185,0.2946710905501672,-0.08231598796655518,0.2190798421367893,22.3999996185,0.0,0.42477997255868805,1.1251420086624235
1648218640144532019,43318,13,4,0.850508391857,0.140642747283,-0.72304880619,0.0,22.3999996185,0.2844509671762542,0.047037708121404675,-0.24182234320735785,22.3999996185,0.0,0.4050151249525471,1.1251419835359777
1648218640144698570,43319,13,5,1.58628582954,1.19692838192,0.33886501193,0.0,22.3999996185,0.5305303777725752,0.40031049562541804,0.11333277990969899,22.3999996185,0.0,0.8503960585438356,2.015879406302707
1648218640144702615,43320,13,6,2.18232107162,-0.9713139534,-0.102728769183,0.242756426334,22.3999996185,0.7298732681003345,-0.3248541650167224,-0.03435744788729097,22.3999996185,0.03280492247756756,1.0821091458367946,2.390926442976458
1648218640144707690,43321,13,7,0.946064710617,-0.32230630517,0.254608035088,-0.242756426334,22.3999996185,0.3164096022130435,-0.10779475089297658,0.08515318899264214,22.3999996185,-0.03280492247756756,0.46027142108250835,1.0313801639349758
1648218640144996862,43322,13,8,0.813857793808,-0.131852567196,0.179844513535,-0.161837622523,22.3999996185,0.27219324207625417,-0.04409784856053511,0.06014866673411371,22.3999996185,-0.021869948989594594,0.3874570199539976,0.8438564196987789
1648218640339572731,43323,15,0,0.00521258730441,0.0454158857465,0.0103945415467,0.0,35.9000015259,0.0017433402355886286,0.015189259446989964,0.0034764352998996654,35.9000015259,0.0,0.015388049678306159,0.046880915504193287
1648218640339575295,43324,15,1,0.0334148444235,0.0146502861753,-0.0294387042522,0.0,35.9000015259,0.011175533252006688,0.0048997612626421405,-0.009845720485685617,35.9000015259,0.0,0.016546683878176403,0.046880913183441654
1648218640339579522,43325,15,2,1.58755624294,1.19692838192,0.332862019539,0.0809188112617,35.9000015259,0.5309552651973244,0.40031049562541804,0.11132509014682274,35.9000015259,0.010934974494824324,0.8509262483843062,2.0158793366655106
1648218640339584657,43326,15,3,0.414656221867,1.90746724606,0.258038163185,0.242756426334,35.9000015259,0.13868101065785954,0.6379489117257524,0.08630038902508361,35.9000015259,0.03280492247756756,0.6674156571479595,1.9689984181772784
1648218640339743325,43327,15,4,0.829200327396,-0.0263705141842,0.154353767633,-0.0809188112617,35.9000015259,0.27732452421270903,-0.008819569961270902,0.05162333365652173,35.9000015259,-0.010934974494824324,0.3922952565019269,0.8438564288754782
1648218640339745274,43328,15,5,0.9478764534,-0.12306240201,0.23584857583,-0.0809188112617,35.9000015259,0.3170155362541806,-0.04115799398327759,0.07887912235117056,35.9000015259,-0.010934974494824324,0.4502129284258493,0.9844992008222619
1648218640339746777,43329,15,6,0.348259210587,0.215359210968,-0.895307004452,-0.0809188112617,35.9000015259,0.1164746523702341,0.07202649196254181,-0.2994337807531772,35.9000015259,-0.010934974494824324,0.17977904447950507,0.9844992126600475
1648218640339852724,43330,15,7,0.991138339043,-0.105482056737,0.521979629993,-0.0809188112617,35.9000015259,0.33148439432876253,-0.035278279845150494,0.17457512708795983,35.9000015259,-0.010934974494824324,0.4701152671375881,1.125141949063323
1648218640444566407,43331,16,0,0.00521258730441,0.0454158857465,0.0103945415467,0.0,17.2000007629,0.0017433402355886286,0.015189259446989964,0.0034764352998996654,17.2000007629,0.0,0.015388049678306159,0.046880915504193287
1648218640444568272,43332,16,1,0.0334148444235,0.0146502861753,-0.0294387042522,0.0,17.2000007629,0.011175533252006688,0.0048997612626421405,-0.009845720485685617,17.2000007629,0.0,0.016546683878176403,0.046880913183441654
1648218640444575096,43333,16,2,2.14441204071,-1.14272224903,0.19644126296,0.0,17.2000007629,0.7171946624448159,-0.3821813541906354,0.06569941905016723,17.2000007629,0.0,1.0838814304017088,2.4378076849012364
1648218640444728030,43334,16,3,0.261970043182,-1.25992465019,-1.55168664455,0.242756426334,17.2000007629,0.08761539905752508,-0.4213794816688963,-0.5189587439966554,17.2000007629,0.03280492247756756,0.4392192890522529,2.0158794285760275
1648218640444730399,43335,16,4,0.776071131229,0.105482056737,0.314135074615,-0.0809188112617,17.2000007629,0.25955556228394644,0.035278279845150494,0.10506189786454849,17.2000007629,-0.010934974494824324,0.36875837191025773,0.8438564511360324
1648218640444737723,43336,16,5,0.838228106499,-0.0,0.420121133327,-0.0809188112617,17.2000007629,0.28034384832742476,-0.0,0.1405087402431438,17.2000007629,-0.010934974494824324,0.39646607243251003,0.9376183259689743
1648218640444738812,43337,16,6,1.07964265347,-0.0,0.316727548838,-0.0809188112617,17.2000007629,0.3610844994882943,-0.0,0.10592894609966554,17.2000007629,-0.010934974494824324,0.5106505963390467,1.1251420352047425
1648218640639734065,43338,18,0,0.00525120040402,0.0454158857465,0.0103750880808,0.0,18.3999996185,0.0017562543157257522,0.015189259446989964,0.0034699291240133778,18.3999996185,0.0,0.01539098635536347,0.04688091548281325
1648218640639735206,43339,18,1,0.0334289707243,0.0146502861753,-0.0294226650149,0.0,18.3999996185,0.011180257767324413,0.0048997612626421405,-0.009840356192274247,18.3999996185,0.0,0.016553065816292893,0.04688091493649962
1648218640639736203,43340,18,2,1.122854352,0.527410328388,-0.662627160549,0.161837622523,18.3999996185,0.3755365725752508,0.1763914141765886,-0.2216144349662207,18.3999996185,0.021869948989594594,0.5596153729825066,1.4064274969556405
1648218640639737206,43341,18,3,0.956981956959,0.57136118412,-0.857770502567,0.323675245047,18.3999996185,0.3200608551702341,0.19109069703010034,-0.286879766744816,18.3999996185,0.04373989797932432,0.4913181825620264,1.4064274967939618
1648218640639738219,43342,18,4,0.989797830582,-1.80491530895,0.132518067956,0.323675245047,18.3999996185,0.3310360637397993,-0.603650605,0.04432042406555183,18.3999996185,0.04373989797932432,0.7639134793348963,2.062760300238905
1648218640639741121,43343,18,5,1.16384732723,-0.0,0.138192281127,-0.242756426334,18.3999996185,0.38924659773578596,-0.0,0.046218154223076915,18.3999996185,-0.03280492247756756,0.5504778176255329,1.172022912601754
1648218640639743612,43344,18,6,0.761990845203,0.199243888259,0.121827200055,-0.0809188112617,18.3999996185,0.25484643652274247,0.06663675192608695,0.040744882961538456,18.3999996185,-0.010934974494824324,0.3665158511223482,0.796975559132768
1648218640639744675,43345,18,7,0.912963747978,0.175803437829,0.12131948024,-0.0809188112617,18.3999996185,0.30533904614648827,0.05879713639765886,0.04057507700334448,18.3999996185,-0.010934974494824324,0.43579923066919185,0.937618296621944
1648218640639745654,43346,18,8,1.54518938065,1.19692838192,0.493479520082,-0.0809188112617,18.3999996185,0.5167857460367893,0.40031049562541804,0.16504331775317727,18.3999996185,-0.010934974494824324,0.8332967703774385,2.0158794136206466
1648218640741497519,43347,19,0,0.00521258730441,0.0454158857465,0.0103945415467,0.0,18.2999992371,0.0017433402355886286,0.015189259446989964,0.0034764352998996654,18.2999992371,0.0,0.015388049678306159,0.046880915504193287
1648218640741519515,43348,19,1,0.0334973782301,0.0146502861753,-0.0293447580189,0.0,18.2999992371,0.01120313653180602,0.0048997612626421405,-0.00981430034076923,18.2999992371,0.0,0.016583974093427118,0.04688091356294542
1648218640741527428,43349,19,2,0.811451792717,0.250519901514,0.26869854331,0.0,18.2999992371,0.2713885594371237,0.08378592023879598,0.08986573354849497,18.2999992371,0.0,0.39284040120254476,0.8907374136832544
1648218640741720126,43350,19,3,0.729781389236,0.273960351944,0.165936380625,0.0809188112617,18.2999992371,0.24407404322274245,0.09162553576722407,0.055497117265886284,18.2999992371,0.010934974494824324,0.3571267505449923,0.7969755535318704
1648218640741722825,43351,19,4,1.3343398571,-1.68478286266,0.177850812674,0.485512852669,18.2999992371,0.4462675107357859,-0.5634725293177257,0.059481877148494976,18.2999992371,0.06560984495527027,0.8460559517977194,2.156521982296326
1648218640741723931,43352,19,5,0.857573509216,0.139177724719,0.196495264769,-0.161837622523,18.2999992371,0.28681388268093644,0.04654773401973244,0.06571747985585284,18.2999992371,-0.021869948989594594,0.40827821168830414,0.8907374202556227
1648218640741729688,43353,19,6,0.82136374712,0.202173948288,0.668680787086,-0.0809188112617,18.2999992371,0.274703594354515,0.06761670511304348,0.22363905922608693,18.2999992371,-0.010934974494824324,0.39432999925560336,1.0782609635275306
1648218640741733253,43354,19,7,1.54483735561,1.16909277439,0.351645201445,-0.0809188112617,18.2999992371,0.5166680119096989,0.39100092788963203,0.11760709078428093,18.2999992371,-0.010934974494824324,0.8287179222582282,1.968998404803391
1648218640841542202,43355,20,0,0.00521258730441,0.0454158857465,0.0103945415467,0.0,17.2999992371,0.0017433402355886286,0.015189259446989964,0.0034764352998996654,17.2999992371,0.0,0.015388049678306159,0.046880915504193287
1648218640841546557,43356,20,1,0.0334517285228,0.0146502861753,-0.0293967872858,0.0,17.2999992371,0.011187869071170567,0.0048997612626421405,-0.009831701433377926,17.2999992371,0.0,0.016563347763607406,0.046880914335237424
1648218640841550493,43357,20,2,1.48211348057,1.23062396049,0.407258093357,0.0,17.2999992371,0.4956901272809364,0.41157991989632103,0.1362067201862876,17.2999992371,0.0,0.8129055511124549,1.9689984398226912
1648218640841552489,43358,20,3,0.861947476864,0.32230630517,0.179703459144,0.161837622523,17.2999992371,0.28827674811505016,0.10779475089297658,0.060101491352508356,17.2999992371,0.021869948989594594,0.42169500273023747,0.9376183341066194
1648218640841554520,43359,20,4,1.61344707012,0.615312039852,-2.22043538094,0.323675245047,17.2999992371,0.5396144047224081,0.20578997988361203,-0.7426205287424749,17.2999992371,0.04373989797932432,0.7903903639267973,2.812855068323963
1648218640841558907,43360,20,5,1.3249745369,-0.79111546278,-2.35175085068,0.323675245047,17.2999992371,0.44313529662207357,-0.26458711129765883,-0.7865387460468226,17.2999992371,0.04373989797932432,0.6802529835947109,2.81285500204989
1648218640841571064,43361,20,6,0.947019577026,-0.902457654476,-0.108698621392,0.404594063759,17.2999992371,0.3167289555270903,-0.30182530250033446,-0.03635405397725752,17.2999992371,0.05467487348094594,0.5401231116773115,1.312665718180127
1648218640841693994,43362,20,7,1.74912285805,-1.85326123238,0.392935603857,0.404594063759,17.2999992371,0.5849909224247491,-0.6198198101605351,0.1314165899187291,17.2999992371,0.05467487348094594,1.033733696706342,2.578450378962935
1648218640841786258,43363,20,8,1.12983381748,-0.886342346668,-2.14156007767,0.404594063759,17.2999992371,0.3778708419665552,-0.2964355674474916,-0.7162408286521739,17.2999992371,0.05467487348094594,0.6111029308266677,2.5784504604293454
1648218640841791046,43364,20,9,1.31232523918,-1.64815723896,-0.109391860664,0.485512852669,17.2999992371,0.4389047622675585,-0.5512231568428093,-0.036585906576588625,17.2999992371,0.06560984495527027,0.8301335731808686,2.1096412957905017
1648218640841795020,43365,20,10,0.865049362183,0.194848805666,0.0844786539674,-0.0809188112617,17.2999992371,0.2893141679541806,0.06516682463745818,0.028253730423879596,17.2999992371,-0.010934974494824324,0.41430917270966716,0.8907373906257812
1648218640944562743,43366,21,0,0.00521258730441,0.0454158857465,0.0103945415467,0.0,15.1999998093,0.0017433402355886286,0.015189259446989964,0.0034764352998996654,15.1999998093,0.0,0.015388049678306159,0.046880915504193287
1648218640944571002,43367,21,1,0.0334148444235,0.0146502861753,-0.0294387042522,0.0,15.1999998093,0.011175533252006688,0.0048997612626421405,-0.009845720485685617,15.1999998093,0.0,0.016546683878176403,0.046880913183441654
1648218640944573798,43368,21,2,2.1101167202,-1.12074685097,-0.0886778533459,0.0,15.1999998093,0.7057246555852843,-0.3748317227324415,-0.02965814493173913,15.1999998093,0.0,1.0661113447330473,2.3909265648490363
1648218640944575768,43369,21,3,1.47795271873,1.32292079926,0.359591394663,0.0809188112617,15.1999998093,0.4942985681371237,0.44244842784615385,0.12026468048929764,15.1999998093,0.010934974494824324,0.827298471066129,2.0158793741272807
1648218640944584501,43370,21,4,1.03890311718,0.316446185112,0.29408621788,0.161837622523,15.1999998093,0.3474592365150502,0.10583484451906354,0.09835659460869564,15.1999998093,0.021869948989594594,0.5026498347693128,1.125142025926159
1648218640944687170,43371,21,5,0.816423892975,0.439508587122,0.139328047633,0.242756426334,15.1999998093,0.27305146922240797,0.14699283850234113,0.046598009241806015,15.1999998093,0.03280492247756756,0.4131841045587385,0.9376182997529722
1648218640944689509,43372,21,6,1.74352097511,-0.703213751316,-2.0923140049,0.323675245047,15.1999998093,0.5831173829799331,-0.23518854559063543,-0.6997705702006688,15.1999998093,0.04373989797932432,0.8575344988067654,2.8128549315222644
1648218640944691454,43373,21,7,1.37198257446,0.79111546278,-2.32464051247,0.323675245047,15.1999998093,0.45885704831438123,0.26458711129765883,-0.7774717433010032,15.1999998093,0.04373989797932432,0.7007894983805141,2.8128550215551966
1648218640944947558,43374,21,8,0.697840631008,0.421928226948,0.21699924767,0.404594063759,15.1999998093,0.23339151538729094,0.14111311938060198,0.07257499922073578,15.1999998093,0.05467487348094594,0.35896533449746393,0.8438564146052766
1648218640944950279,43375,21,9,1.61967754364,-1.54707026482,0.216785788536,0.404594063759,15.1999998093,0.5416981751304347,-0.5174148042876254,0.07250360820602006,15.1999998093,0.05467487348094594,0.924441401915388,2.2502839438108926
1648218640944952232,43376,21,10,0.793468952179,0.637287437916,-0.901464641094,0.566431701183,15.1999998093,0.26537423149799333,0.21313961134314377,-0.3014931910013378,15.1999998093,0.07654482448418919,0.4315964080130968,1.359546525772588
1648218640945024575,43377,21,11,1.88368821144,0.943478405476,0.460601836443,-0.647350490093,15.1999998093,0.6299960573377926,0.3155446172160535,0.15404743693745818,15.1999998093,-0.08747979595851352,0.9451764226726946,2.1565219292305438
