%time,field.header.seq,field.header.frame_id,field.point_id,field.x,field.y,field.z,field.velocity,field.intensity,normalized_x,normalized_y,normalized_z,normalized_intensity,normalized_velocity,normalized_range,range
1648219636957518155,81947,0,0,0.0122741637751,0.0439508594573,0.0107464920729,0.0,27.1000003815,0.004105071496688963,0.014699284099431437,0.003594144505986622,27.1000003815,0.0,0.015804182263617888,0.04688091546979662
1648219636957520873,81948,0,1,0.0334246940911,0.0146502861753,-0.0294275209308,0.0,27.1000003815,0.01117882745521739,0.0048997612626421405,-0.009841980244414716,27.1000003815,0.0,0.01655113370672634,0.04688091347482975
1648219636957688566,81949,0,2,1.68483054638,-1.53828012943,0.538136959076,0.0,27.1000003815,0.5634884770501671,-0.5144749596755852,0.17997891607892977,27.1000003815,0.0,0.9485373011483673,2.34404588550179
1648219636957692269,81950,0,3,1.23374593258,-0.55231577158,0.145551428199,0.0809188112617,27.1000003815,0.4126240577190635,-0.18472099383946486,0.04867940742441471,27.1000003815,0.010934974494824324,0.612077667932861,1.3595465994016067
1648219636957694624,81951,0,4,0.55054038763,-0.695888578892,0.0778300240636,0.161837622523,27.1000003815,0.1841272199431438,-0.23273865514782605,0.026030108382474913,27.1000003815,0.021869948989594594,0.34924625674157256,0.8907374165767701
1648219636957795187,81952,0,5,1.41796290874,-0.46880915761,-0.142010271549,0.242756426334,27.1000003815,0.47423508653511703,-0.15679236040468228,-0.047495074096655515,27.1000003815,0.03280492247756756,0.6887537142427703,1.500189239411755
1648219637063065281,81953,1,0,0.0122741637751,0.0439508594573,0.0107464920729,0.0,27.7999992371,0.004105071496688963,0.014699284099431437,0.003594144505986622,27.7999992371,0.0,0.015804182263617888,0.04688091546979662
1648219637063081253,81954,1,1,0.0334246940911,0.0146502861753,-0.0294275209308,0.0,27.7999992371,0.01117882745521739,0.0048997612626421405,-0.009841980244414716,27.7999992371,0.0,0.01655113370672634,0.04688091347482975
1648219637063090680,81955,1,2,0.372233510017,-0.501039743423,-0.567886531353,0.0,27.7999992371,0.12449281271471571,-0.16757182054280934,-0.18992860580367893,27.7999992371,0.0,0.24305809156511138,0.8438564587423051
1648219637063103036,81956,1,3,1.70371174812,-1.53828012943,0.474985867739,0.0,27.7999992371,0.5698032602408026,-0.5144749596755852,0.15885814974548493,27.7999992371,0.0,0.9560522971549678,2.3440458723824187
1648219637063110239,81957,1,4,1.48240613937,-0.43511351943,-0.0810859426856,0.0809188112617,27.7999992371,0.4957880064782609,-0.1455229161973244,-0.02711904437645485,27.7999992371,0.010934974494824324,0.7160924618189676,1.5470703497041889
1648219637063116682,81958,1,5,0.582985639572,-0.732514321804,-0.051755618304,0.242756426334,27.7999992371,0.19497847477324412,-0.24498806749297658,-0.017309571339130435,27.7999992371,0.03280492247756756,0.3688527680033653,0.9376183293969766
1648219637258175745,81959,3,0,0.00575314089656,0.0454158857465,0.010105391033,0.0,26.7000007629,0.0019241273901538462,0.015189259446989964,0.0033797294424749162,26.7000007629,0.0,0.015431076922076901,0.04688091548001862
1648219637258218972,81960,3,1,0.0334476083517,0.0146502861753,-0.0294014774263,0.0,26.7000007629,0.011186491087525082,0.0048997612626421405,-0.009833270042240803,26.7000007629,0.0,0.01656148622960647,0.04688091577940992
1648219637258227144,81961,3,2,1.30223464966,-0.527410328388,0.0637315958738,0.0,26.7000007629,0.43552998316387953,-0.1763914141765886,0.021314915007959866,26.7000007629,0.0,0.6406923313609078,1.4064275500636576
1648219637258238629,81962,3,3,1.76854002476,-1.46502864361,0.469583302736,0.0,26.7000007629,0.5914849581137124,-0.489976134986622,0.1570512718180602,26.7000007629,0.0,0.9694253577279627,2.344045909103383
1648219637258246407,81963,3,4,1.20350706577,-0.57136118412,0.450727760792,0.161837622523,26.7000007629,0.4025107243377926,-0.19109069703010034,0.15074507049899663,26.7000007629,0.021869948989594594,0.6004543453963161,1.406427521924217
1648219637258431579,81964,3,5,0.638639628887,-0.73837441206,0.127205967903,0.242756426334,26.7000007629,0.21359184912608695,-0.24694796389966553,0.042543801974247494,26.7000007629,0.03280492247756756,0.3901618291176018,0.9844992159671916
1648219637363216841,81965,4,0,0.0122741637751,0.0439508594573,0.0107464920729,0.0,32.0,0.004105071496688963,0.014699284099431437,0.003594144505986622,32.0,0.0,0.015804182263617888,0.04688091546979662
1648219637363230944,81966,4,1,0.0334246940911,0.0146502861753,-0.0294275209308,0.0,32.0,0.01117882745521739,0.0048997612626421405,-0.009841980244414716,32.0,0.0,0.01655113370672634,0.04688091347482975
1648219637363352569,81967,4,2,1.23456513882,-0.615312039852,0.274368911982,0.0,32.0,0.4128980397391304,-0.20578997988361203,0.09176217792040132,32.0,0.0,0.6191276914024525,1.4064274912837353
1648219637363372481,81968,4,3,0.800654530525,-0.64461261034,-0.0846872925758,0.485512852669,32.0,0.26777743495819395,-0.21558950178595315,-0.028323509222675583,32.0,0.06560984495527027,0.43576179573924917,1.0313801589052292
1648219637363410304,81969,4,4,1.43929481506,-0.421928226948,0.0312220565975,-0.0809188112617,32.0,0.4813695033645485,-0.14111311938060198,0.01044215939715719,32.0,-0.010934974494824324,0.69523097600739,1.500189258117875
1648219637558086505,81970,6,0,0.0122741637751,0.0439508594573,0.0107464920729,0.0,15.3000001907,0.004105071496688963,0.014699284099431437,0.003594144505986622,15.3000001907,0.0,0.015804182263617888,0.04688091546979662
1648219637558109702,81971,6,1,0.0334246940911,0.0146502861753,-0.0294275209308,0.0,15.3000001907,0.01117882745521739,0.0048997612626421405,-0.009841980244414716,15.3000001907,0.0,0.01655113370672634,0.04688091347482975
1648219637558322792,81972,6,2,1.71138095856,-1.46502864361,0.647624433041,0.0,15.3000001907,0.5723682135652173,-0.489976134986622,0.21659680034816053,15.3000001907,0.0,0.9461962569446705,2.3440458865370313
1648219637558429796,81973,6,3,0.805904626846,-0.707608819008,0.111598610878,0.323675245047,15.3000001907,0.2695333200153846,-0.23665846789565215,0.0373239501264214,15.3000001907,0.04373989797932432,0.4486687549002592,1.0782609880078136
1648219637558511570,81974,6,4,0.933764576912,-0.597731649876,-0.191690012813,0.485512852669,15.3000001907,0.3122958451210702,-0.19991025079464883,-0.06411037217826086,15.3000001907,0.06560984495527027,0.4847901588652005,1.1251419783171277
1648219637558573974,81975,6,5,1.2154198885,-0.55231577158,0.257038354874,-0.0809188112617,15.3000001907,0.40649494598662206,-0.18472099383946486,0.08596600497458194,15.3000001907,-0.010934974494824324,0.603819615274606,1.3595465908800977
1648219637663050295,81976,7,0,0.012287533842,0.0439508594573,0.0107312016189,0.0,19.6000003815,0.004109543090969899,0.014699284099431437,0.003589030641772575,19.6000003815,0.0,0.015806506314454016,0.04688091534024388
1648219637663064549,81977,7,1,0.0334476083517,0.0146502861753,-0.0294014774263,0.0,19.6000003815,0.011186491087525082,0.0048997612626421405,-0.009833270042240803,19.6000003815,0.0,0.01656148622960647,0.04688091577940992
1648219637663163169,81978,7,2,1.23171067238,-0.55231577158,0.161873981357,0.0,19.6000003815,0.4119433686889632,-0.18472099383946486,0.054138455303344483,19.6000003815,0.0,0.6111599819839825,1.3595466442278354
1648219637663194168,81979,7,3,0.81131619215,-0.673913121223,0.224173858762,0.161837622523,19.6000003815,0.271343208076923,-0.22538900375351167,0.07497453470301002,19.6000003815,0.021869948989594594,0.44503311803949286,1.0782609969546086
1648219637663215293,81980,7,4,1.18139863014,-0.747164607048,0.155179798603,0.323675245047,19.6000003815,0.39511659870903004,-0.24988782844414714,0.05189959819498327,19.6000003815,0.04373989797932432,0.612109614330078,1.4064275463799507
1648219637663372143,81981,7,5,0.990006446838,-0.622637212276,-0.0764716118574,0.404594063759,19.6000003815,0.3311058350628762,-0.20823987032642138,-0.025575789918862873,19.6000003815,0.05467487348094594,0.5124704787779819,1.172022939328279
1648219637663383255,81982,7,6,1.36006784439,-0.499574750662,0.112896479666,-0.161837622523,19.6000003815,0.4548721887591973,-0.16708185640869566,0.03775801995518394,19.6000003815,-0.021869948989594594,0.6646305462090512,1.453308325154589
1648219637858158118,81983,9,0,0.0122741637751,0.0439508594573,0.0107464920729,0.0,18.3999996185,0.004105071496688963,0.014699284099431437,0.003594144505986622,18.3999996185,0.0,0.015804182263617888,0.04688091546979662
1648219637858188988,81984,9,1,0.0334385335445,0.0146502861753,-0.0294117927551,0.0,18.3999996185,0.011183456034949833,0.0048997612626421405,-0.009836719984983276,18.3999996185,0.0,0.01655738621287189,0.046880912573176205
1648219637858253495,81985,9,2,1.2353656292,-0.659262895584,0.131463199854,0.0,18.3999996185,0.41316576227424745,-0.22048926273712371,0.04396762536923077,18.3999996185,0.0,0.6245217443882001,1.4064275225614595
1648219637858313775,81986,9,3,1.64154410362,-1.50751447678,0.556506752968,0.0,18.3999996185,0.5490114058929766,-0.5041854437391304,0.18612265985551837,18.3999996185,0.0,0.9257591529548003,2.297164928325751
1648219637858339203,81987,9,4,0.912259101868,-0.732514321804,-0.0695986971259,-0.242756426334,18.3999996185,0.30510337855117053,-0.24498806749297658,-0.02327715622939799,18.3999996185,-0.03280492247756756,0.4961807094402411,1.1720229857944795
1648219637963182265,81988,10,0,0.012296365574,0.0439508594573,0.0107210809365,0.0,26.3999996185,0.004112496847491639,0.014699284099431437,0.0035856457981605348,26.3999996185,0.0,0.015808042689626545,0.04688091541140993
1648219637963205272,81989,10,1,0.0334246940911,0.0146502861753,-0.0294275209308,0.0,26.3999996185,0.01117882745521739,0.0048997612626421405,-0.009841980244414716,26.3999996185,0.0,0.01655113370672634,0.04688091347482975
1648219637963243290,81990,10,2,1.69028019905,-1.53828012943,0.520766854286,0.0,26.3999996185,0.5653111033612039,-0.5144749596755852,0.17416951648361204,26.3999996185,0.0,0.950703829433814,2.3440458665355974
1648219637963260668,81991,10,3,1.24093472958,-0.659262895584,0.0590905696154,0.0809188112617,26.3999996185,0.41502833765217384,-0.22048926273712371,0.019762732312842805,26.3999996185,0.010934974494824324,0.6269868874952761,1.406427482662743
1648219638158132960,81992,12,0,0.012287533842,0.0439508594573,0.0107312016189,0.0,21.3999996185,0.004109543090969899,0.014699284099431437,0.003589030641772575,21.3999996185,0.0,0.015806506314454016,0.04688091534024388
1648219638158192011,81993,12,1,0.0334246940911,0.0146502861753,-0.0294275209308,0.0,21.3999996185,0.01117882745521739,0.0048997612626421405,-0.009841980244414716,21.3999996185,0.0,0.01655113370672634,0.04688091347482975
1648219638158368613,81994,12,2,1.74239635468,-1.46502864361,0.558835566044,0.0,21.3999996185,0.5827412557458194,-0.489976134986622,0.1869015271050167,21.3999996185,0.0,0.9587759671335413,2.3440458982868972
1648219638158381615,81995,12,3,1.45248329639,-0.53180539608,0.0300265960395,0.242756426334,21.3999996185,0.4857803666856187,-0.17786133648160535,0.010042339812541805,21.3999996185,0.03280492247756756,0.7096476480123437,1.5470702317805374
1648219638158392154,81996,12,4,1.90889084339,-1.31852579117,0.334928125143,0.242756426334,21.3999996185,0.6384250312341136,-0.44097852547491634,0.11201609536555183,21.3999996185,0.03280492247756756,1.0048060016453868,2.3440459387500203
1648219638158403453,81997,12,5,1.4927085638,-1.11342179775,-0.220512554049,0.485512852669,21.3999996185,0.49923363337792637,-0.37238187215719065,-0.07375001807658862,21.3999996185,0.06560984495527027,0.7982084314906388,1.8752367164280657
1648219638158414720,81998,12,6,0.945268571377,-0.386767566204,0.143607527018,-0.242756426334,21.3999996185,0.3161433349086956,-0.1293537010715719,0.048029273250167225,21.3999996185,-0.03280492247756756,0.465430549486491,1.0313801162116254
1648219638158492001,81999,12,7,0.57934564352,-0.805765748024,-0.280793935061,-0.242756426334,21.3999996185,0.19376108478929763,-0.26948687224882945,-0.09391101507056855,21.3999996185,-0.03280492247756756,0.38433044411275524,1.031380167213487
1648219638263122312,82000,13,0,0.00554603198543,0.0454158857465,0.0102205229923,0.0,32.0999984741,0.0018548601957959865,0.015189259446989964,0.003418235114481605,32.0999984741,0.0,0.015414104425488706,0.04688091551109777
1648219638263153642,82001,13,1,0.0334476083517,0.0146502861753,-0.0294014774263,0.0,32.0999984741,0.011186491087525082,0.0048997612626421405,-0.009833270042240803,32.0999984741,0.0,0.01656148622960647,0.04688091577940992
1648219638263233075,82002,13,2,1.18972194195,-0.659262895584,0.357732504606,0.0,32.0999984741,0.3979003150334448,-0.22048926273712371,0.11964297812909698,32.0999984741,0.0,0.6043714390917142,1.4064275343944177
1648219638263254682,82003,13,3,1.787104249,-1.39177727699,0.603129684925,0.0,32.0999984741,0.5976937287625418,-0.4654773501638796,0.20171561368729093,32.0999984741,0.0,0.9649584189589356,2.3440458618331856
1648219638263262885,82004,13,4,0.979503154755,-0.290075659752,0.142037853599,-0.242756426334,32.0999984741,0.32759302834615384,-0.09701527082006689,0.0475042988625418,32.0999984741,-0.03280492247756756,0.4733353432972218,1.0313801774372855
1648219638263295421,82005,13,5,0.152602240443,-0.681238293648,0.0844779536128,-0.0809188112617,32.0999984741,0.05103753860969899,-0.2278388941966555,0.028253496191571904,32.0999984741,-0.010934974494824324,0.23899837322339207,0.703213752117568
1648219638458143761,82006,15,0,0.0122741637751,0.0439508594573,0.0107464920729,0.0,13.1999998093,0.004105071496688963,0.014699284099431437,0.003594144505986622,13.1999998093,0.0,0.015804182263617888,0.04688091546979662
1648219638458190308,82007,15,1,0.0334385335445,0.0146502861753,-0.0294117927551,0.0,13.1999998093,0.011183456034949833,0.0048997612626421405,-0.009836719984983276,13.1999998093,0.0,0.01655738621287189,0.046880912573176205
1648219638458204993,82008,15,2,1.77032256126,-1.46502864361,0.462817698717,0.0,13.1999998093,0.592081124167224,-0.489976134986622,0.15478852799899664,13.1999998093,0.0,0.9701529405442608,2.344045886869458
1648219638458221829,82009,15,3,1.20716965199,-0.659262895584,0.293516904116,0.0809188112617,13.1999998093,0.40373566956187285,-0.22048926273712371,0.09816618866755852,13.1999998093,0.010934974494824324,0.6120624941421487,1.4064274980180453
1648219638458243826,82010,15,4,0.975861728191,-0.0,0.130125015974,-0.566431701183,13.1999998093,0.3263751599301003,-0.0,0.04352007223210702,13.1999998093,-0.07654482448418919,0.46156417759483576,0.9844991784304133
1648219638458381695,82011,15,5,1.26912164688,-0.635822415352,-0.311713248491,-0.242756426334,13.1999998093,0.42445540029431433,-0.21264963724147157,-0.10425192257224081,13.1999998093,-0.03280492247756756,0.6368238703887776,1.453308311311907
