%time,field.header.seq,field.header.frame_id,field.point_id,field.x,field.y,field.z,field.velocity,field.intensity,normalized_x,normalized_y,normalized_z,normalized_intensity,normalized_velocity,normalized_range,range
1648127422405330811,108794,0,0,0.0125890737399,0.0439508594573,0.0103758089244,0.0,22.7000007629,0.004210392555150501,0.014699284099431437,0.003470170208829431,22.7000007629,0.0,0.01585950074790286,0.0468809154720728
1648127422405335583,108795,0,1,0.0328101180494,0.0146502861753,-0.0301112178713,0.0,22.7000007629,0.010973283628561871,0.0048997612626421405,-0.010070641428528428,22.7000007629,0.0,0.016273707863195052,0.046880914806844864
1648127422405341858,108796,0,2,1.69330310822,-1.50751447678,0.370258718729,0.0,22.7000007629,0.5663221097725752,-0.5041854437391304,0.12383234740100334,22.7000007629,0.0,0.9463849247071434,2.2971649555057274
1648127422405361244,108797,0,3,1.33440315723,-1.1690928936,0.161996275187,0.161837622523,22.7000007629,0.446288681347826,-0.3910009677591973,0.05417935624983277,22.7000007629,0.021869948989594594,0.7424479314988974,1.7814748870152157
1648127422405363502,108798,0,4,1.32599258423,-0.93761831522,0.93761831522,0.242756426334,22.7000007629,0.44347578067892973,-0.31358472080936456,0.31358472080936456,22.7000007629,0.03280492247756756,0.701196772113691,1.8752366633321078
1648127422405365855,108799,0,5,0.852566480637,-0.580151319504,0.0173175204545,-0.566431701183,22.7000007629,0.2851392911829431,-0.19403054164013378,0.005791812861036789,22.7000007629,-0.07654482448418919,0.44750048250452884,1.0313801694538656
1648127422405377658,108800,0,6,0.809305012226,-0.523015201092,0.201789900661,-0.323675245047,22.7000007629,0.2706705726508361,-0.1749214719371237,0.06748826109063545,22.7000007629,-0.04373989797932432,0.4208594054347759,0.9844991962394929
1648127422405383284,108801,0,7,1.7724725008,0.0659262910485,-1.14218258858,-0.242756426334,22.7000007629,0.5928001674916388,0.022048926772073575,-0.38200086574581943,22.7000007629,-0.03280492247756756,0.838635935509581,2.109641227222991
1648127422405436044,108802,0,8,0.392222076654,-0.791115522385,1.91595518589,-0.242756426334,22.7000007629,0.13117795205819396,-0.2645871312324415,0.6407876875886287,22.7000007629,-0.03280492247756756,0.32314340504824923,2.1096412494810703
1648127422405528280,108803,0,9,1.03159761429,-0.533270418644,0.611980557442,-0.161837622523,22.7000007629,0.3450159245117057,-0.1783513105832776,0.20467577171973242,22.7000007629,-0.021869948989594594,0.519500881924282,1.312665677122925
1648127422405531516,108804,0,10,1.0326102972,-0.549385726452,0.0743584632874,-0.0809188112617,22.7000007629,0.3453546144481605,-0.1837410456361204,0.024869051266688962,22.7000007629,-0.010934974494824324,0.521824099953931,1.1720229875625852
1648127422600074046,108805,2,0,0.0125890737399,0.0439508594573,0.0103758089244,0.0,11.3000001907,0.004210392555150501,0.014699284099431437,0.003470170208829431,11.3000001907,0.0,0.01585950074790286,0.0468809154720728
1648127422600077517,108806,2,1,0.0328981243074,0.0146502861753,-0.0300150439143,0.0,11.3000001907,0.011002717159665552,0.0048997612626421405,-0.010038476225518393,11.3000001907,0.0,0.016313406456717926,0.04688091647078464
1648127422600081031,108807,2,2,1.81154191494,-1.39177727699,0.52518838644,0.0,11.3000001907,0.6058668611839465,-0.4654773501638796,0.1756482897792642,11.3000001907,0.0,0.9750992105818577,2.3440458484384714
1648127422600085832,108808,2,3,0.975489199162,-0.435113489628,0.679196596146,0.161837622523,11.3000001907,0.32625056828160537,-0.14552290623010034,0.22715605222274246,11.3000001907,0.021869948989594594,0.48379311988265755,1.265784714220506
1648127422600226108,108809,2,4,0.990811705589,-0.281285494566,0.45289632678,0.242756426334,11.3000001907,0.331375152370903,-0.09407541624280935,0.15147034340468227,11.3000001907,0.03280492247756756,0.4779844842240553,1.1251419680183647
1648127422600231801,108810,2,5,1.61940598488,-0.820416033268,0.470057874918,0.485512852669,11.3000001907,0.5416073528026756,-0.27438663319999995,0.15720999161137122,11.3000001907,0.06560984495527027,0.8136123608320335,1.8752366830031855
1648127422600334533,108811,2,6,0.98455542326,-0.438043534756,0.0376208797097,-0.323675245047,11.3000001907,0.3292827502541806,-0.1465028544334448,0.012582234016622073,11.3000001907,-0.04373989797932432,0.4881775758748667,1.078261030735295
1648127422600339974,108812,2,7,0.834684312344,-0.278355449438,0.138685002923,-0.0809188112617,11.3000001907,0.27915863289096987,-0.09309546803946488,0.04638294412140468,11.3000001907,-0.010934974494824324,0.40561786302454383,0.8907374402935804
