%time,field.header.seq,field.header.frame_id,field.point_id,field.x,field.y,field.z,field.velocity,field.intensity,normalized_x,normalized_y,normalized_z,normalized_intensity,normalized_velocity,normalized_range,range
1648295703965387993,60921,0,0,0.0127004906535,0.0439508594573,0.0102391270921,0.0,33.0999984741,0.004247655736956521,0.014699284099431437,0.003424457221438127,33.0999984741,0.0,0.01587936118221376,0.046880915450566385
1648295703965393602,60922,0,1,0.0335276499391,0.0146502861753,-0.0293101686984,0.0,33.0999984741,0.011213260849197323,0.0048997612626421405,-0.009802732006153845,33.0999984741,0.0,0.01659765339363283,0.0468809149290592
1648295703965400214,60923,0,2,2.24726581573,-1.2306240797,0.57247364521,0.0,33.0999984741,0.7515939183043477,-0.4115799597658863,0.19146275759531772,33.0999984741,0.0,1.1398179237689912,2.6253314736516833
1648295703965404647,60924,0,3,0.532145917416,-0.87022703886,0.152547389269,0.0809188112617,33.0999984741,0.17797522321605352,-0.2910458323946488,0.0510191937354515,33.0999984741,0.010934974494824324,0.384783103464669,1.0313801833263756
1648295703965437266,60925,0,4,1.87083125114,-0.0586011447012,0.114318706095,0.0809188112617,33.0999984741,0.6256960706153846,-0.019599045050568562,0.03823368096822742,33.0999984741,0.010934974494824324,0.8850848931791565,1.875236633325401
1648295703965495753,60926,0,5,0.644260585308,-0.257845044136,-1.9425303936,0.161837622523,33.0999984741,0.21547176766153844,-0.08623580071438126,-0.6496757169230769,33.0999984741,0.021869948989594594,0.31669035135795737,2.062760310512754
1648295704070091302,60927,1,0,0.0127121871337,0.0439508594573,0.0102246021852,0.0,14.5,0.004251567603244147,0.014699284099431437,0.003419599393043478,14.5,0.0,0.01588145482018912,0.04688091550517269
1648295704070095469,60928,1,1,0.0335410349071,0.0146502861753,-0.0292948503047,0.0,14.5,0.011217737427123745,0.0048997612626421405,-0.009797608797558527,14.5,0.0,0.016603702189532134,0.046880914688519765
1648295704070113033,60929,1,2,0.548668324947,-0.87022703886,0.0735730901361,0.0,14.5,0.18350111202240801,-0.2910458323946488,0.024606384660903008,14.5,0.0,0.38993972967782425,1.0313801576312032
1648295704070115847,60930,1,3,1.91309046745,-0.180198520422,0.0463640615344,0.0,14.5,0.6398295877759197,-0.06026706368628762,0.015506375095117056,14.5,0.0,0.9068604753501907,1.922117652385593
1648295704070123445,60931,1,4,2.24999952316,-1.2306240797,0.561632573605,0.0,14.5,0.7525082017257525,-0.4115799597658863,0.18783698113879596,14.5,0.0,1.1410237730257595,2.6253313367062594
1648295704265332206,60932,3,0,0.0127121871337,0.0439508594573,0.0102246021852,0.0,18.5,0.004251567603244147,0.014699284099431437,0.003419599393043478,18.5,0.0,0.01588145482018912,0.04688091550517269
1648295704265335484,60933,3,1,0.0334426723421,0.0146502861753,-0.0294070895761,0.0,18.5,0.011184840248193979,0.0048997612626421405,-0.009835147015418058,18.5,0.0,0.016559256118139135,0.046880914408061795
1648295704265344352,60934,3,2,2.24472737312,-1.2306240797,0.582347393036,0.0,18.5,0.7507449408428093,-0.4115799597658863,0.19476501439331104,18.5,0.0,1.1386983778345499,2.625331425048562
1648295704265424467,60935,3,3,0.293966174126,-0.922968029976,0.175933495164,-0.323675245047,18.5,0.09831644619598662,-0.30868495985819394,0.05884063383411371,18.5,-0.04373989797932432,0.33855376475217563,0.9844992080284664
1648295704265427416,60936,3,4,0.480009675026,-0.902457654476,0.137498781085,-0.0809188112617,18.5,0.160538352851505,-0.30182530250033446,0.045986214409698994,18.5,-0.010934974494824324,0.3776819279525657,1.0313801535034257
1648295704370214246,60937,4,0,0.0127121871337,0.0439508594573,0.0102246021852,0.0,29.6000003815,0.004251567603244147,0.014699284099431437,0.003419599393043478,29.6000003815,0.0,0.01588145482018912,0.04688091550517269
1648295704370218269,60938,4,1,0.0335276499391,0.0146502861753,-0.0293101686984,0.0,29.6000003815,0.011213260849197323,0.0048997612626421405,-0.009802732006153845,29.6000003815,0.0,0.01659765339363283,0.0468809149290592
1648295704370224527,60939,4,2,1.86441421509,-0.117202289402,0.16351030767,0.0,29.6000003815,0.6235499047123746,-0.03919809010100334,0.054685721628762535,29.6000003815,0.0,0.8827034935929444,1.8752366151462245
1648295704370235557,60940,4,3,2.19986724854,-1.31266570091,0.574333012104,0.0,29.6000003815,0.7357415546956521,-0.4390186290668896,0.1920846194327759,29.6000003815,0.0,1.129322198170089,2.6253315147495075
1648295704370237747,60941,4,4,0.340967148542,-0.849716603756,0.202116772532,-0.404594063759,29.6000003815,0.11403583563277592,-0.28418615510234113,0.06759758278662206,29.6000003815,-0.05467487348094594,0.3267569652949771,0.9376183087068243
1648295704370239920,60942,4,5,0.540113925934,-0.87022703886,0.121354453266,-0.0809188112617,29.6000003815,0.18064010900802674,-0.2910458323946488,0.04058677366755853,29.6000003815,-0.010934974494824324,0.38725879527669554,1.0313801701983474
1648295704370262224,60943,4,6,0.403683632612,-0.952268600464,0.64494228363,-0.0809188112617,29.6000003815,0.13501124836521738,-0.31848448176053507,0.2156997604113712,29.6000003815,-0.010934974494824324,0.3713333266656057,1.2189038156812722
1648295704468505905,60944,5,0,0.0127121871337,0.0439508594573,0.0102246021852,0.0,13.8000001907,0.004251567603244147,0.014699284099431437,0.003419599393043478,13.8000001907,0.0,0.01588145482018912,0.04688091550517269
1648295704468511624,60945,5,1,0.0334426723421,0.0146502861753,-0.0294070895761,0.0,13.8000001907,0.011184840248193979,0.0048997612626421405,-0.009835147015418058,13.8000001907,0.0,0.016559256118139135,0.046880914408061795
1648295704468592364,60946,5,2,2.19935035706,-1.31266570091,0.576309323311,0.0,13.8000001907,0.7355686812909699,-0.4390186290668896,0.19274559308060202,13.8000001907,0.0,1.1290969517539422,2.6253315355552096
1648295704468594374,60947,5,3,0.412689208984,-0.779395222664,0.125075399876,-0.566431701183,13.8000001907,0.1380231468173913,-0.2606672985498327,0.04183123741672241,13.8000001907,-0.07654482448418919,0.325650454702612,0.8907374203307319
1648295704468599389,60948,5,4,0.376655220985,-0.779395222664,0.209969222546,-0.323675245047,13.8000001907,0.12597164581438125,-0.2606672985498327,0.07022382024949833,13.8000001907,-0.04373989797932432,0.31572955457422014,0.890737415304475
1648295704468603071,60949,5,5,0.631692647934,-0.805765748024,0.124302059412,-0.0809188112617,13.8000001907,0.2112684441250836,-0.26948687224882945,0.04157259512107023,13.8000001907,-0.010934974494824324,0.40235790694420814,1.0313801646903091
1648295704568419908,60950,6,0,0.0127004906535,0.0439508594573,0.0102391270921,0.0,26.6000003815,0.004247655736956521,0.014699284099431437,0.003424457221438127,26.6000003815,0.0,0.01587936118221376,0.046880915450566385
1648295704568429861,60951,6,1,0.0334561355412,0.0146502861753,-0.0293917711824,0.0,26.6000003815,0.011189342990367892,0.0048997612626421405,-0.00983002380682274,26.6000003815,0.0,0.016565338920259937,0.04688091406540503
1648295704568439748,60952,6,2,1.91803765297,-0.120132349432,0.0351547710598,0.0,26.6000003815,0.6414841648729097,-0.040178043288294316,0.011757448514983277,26.6000003815,0.0,0.9080848763897925,1.9221176024164042
1648295704568542214,60953,6,3,2.20469069481,-1.31266570091,0.555529475212,0.0,26.6000003815,0.7373547474280936,-0.4390186290668896,0.1857958111076923,26.6000003815,0.0,1.1314245020226787,2.6253314647786214
1648295704568544381,60954,6,4,0.558145582676,-1.58223080635,0.182740628719,0.0809188112617,26.6000003815,0.1866707634367893,-0.5291741827257525,0.06111726713010032,26.6000003815,0.010934974494824324,0.5913689740826918,1.6877129357234653
1648295704568548533,60955,6,5,0.431224763393,-0.779395222664,-0.00120359763969,-0.647350490093,26.6000003815,0.14422232889397993,-0.2606672985498327,-0.0004025410166187291,26.6000003815,-0.08747979595851352,0.3309797589528312,0.890737423892189
1648295704568563300,60956,6,6,0.433580130339,-0.7120038867,0.130967333913,-0.404594063759,26.6000003815,0.14501007703645483,-0.2381283902006689,0.0438017839173913,26.6000003815,-0.05467487348094594,0.31426258941178337,0.843856449079445
1648295704568565622,60957,6,7,0.627729535103,-0.805765748024,0.142976209521,-0.242756426334,26.6000003815,0.20994298832876251,-0.26948687224882945,0.047818130274581934,26.6000003815,-0.03280492247756756,0.40096794262294677,1.0313801464146466
1648295704568596301,60958,6,8,0.608452796936,-0.73837441206,0.232006683946,-0.0809188112617,26.6000003815,0.2034959187076923,-0.24694796389966553,0.07759420867759197,26.6000003815,-0.010934974494824324,0.379215604551772,0.9844992025795709
1648295704568624105,60959,6,9,0.797612905502,-0.842391490936,0.166817292571,-0.0809188112617,26.6000003815,0.266760169064214,-0.2817362845939799,0.05579173664581939,26.6000003815,-0.010934974494824324,0.47084743777061816,1.1720229435149458
1648295704568723515,60960,6,10,1.7946767807,-0.171408340335,0.304366528988,-0.0809188112617,26.6000003815,0.6002263480602006,-0.05732720412541805,0.10179482574849497,26.6000003815,-0.010934974494824324,0.8507818440377107,1.8283556957792206
1648295704568865639,60961,6,11,0.980473160744,1.54267513752,0.0413562469184,-0.0809188112617,26.6000003815,0.3279174450648829,0.5159448620468228,0.013831520708494983,26.6000003815,-0.010934974494824324,0.6937281904523384,1.8283556924244408
1648295704670252083,60962,7,0,0.0127121871337,0.0439508594573,0.0102246021852,0.0,11.6999998093,0.004251567603244147,0.014699284099431437,0.003419599393043478,11.6999998093,0.0,0.01588145482018912,0.04688091550517269
1648295704670256922,60963,7,1,0.0333916135132,0.0146502861753,-0.0294650550932,0.0,11.6999998093,0.011167763716789295,0.0048997612626421405,-0.009854533475986622,11.6999998093,0.0,0.016536189201232534,0.04688091519668124
1648295704670264006,60964,7,2,0.642027974129,0.0703213736415,0.921303153038,0.0,11.6999998093,0.21472507495953178,0.023518854060702338,0.30812814482876255,11.6999998093,0.0,0.3045765127666309,1.1251419976841928
1648295704670272050,60965,7,3,0.68189573288,-0.773535132408,0.450117856264,0.0,11.6999998093,0.22805877353846155,-0.2587074021431438,0.150541089051505,11.6999998093,0.0,0.4134623662431551,1.1251419804260765
1648295704670275738,60966,7,4,2.19987463951,-1.31266570091,0.574304163456,0.0,11.6999998093,0.7357440265919731,-0.4390186290668896,0.19207497105551838,11.6999998093,0.0,1.1293254189999051,2.6253313969988037
1648295704670277636,60967,7,5,1.91316950321,-0.180198520422,-0.0429770238698,0.0809188112617,11.6999998093,0.6398560211404681,-0.06026706368628762,-0.014373586578528427,11.6999998093,0.010934974494824324,0.906897775134987,1.9221176028942093
1648295704670280092,60968,7,6,0.709367990494,-1.52948987484,0.0763721242547,0.161837622523,11.6999998093,0.2372468195632107,-0.5115350751973244,0.02554251647314381,11.6999998093,0.021869948989594594,0.6117517796809827,1.6877129271705986
1648295704670379090,60969,7,7,0.985151827335,-0.820416092873,-0.281930088997,-0.566431701183,11.6999998093,0.3294822165,-0.2743866531347826,-0.09429099966454849,11.6999998093,-0.07654482448418919,0.5407449467151896,1.3126657089405303
1648295704670383683,60970,7,8,0.651005446911,-0.73837441206,-0.0152905546129,-0.242756426334,11.6999998093,0.21772757421772576,-0.24694796389966553,-0.0051138978638461535,11.6999998093,-0.03280492247756756,0.39470734731400814,0.9844991952018608
1648295704670385579,60971,7,9,0.441596359015,-0.647542655468,0.144399449229,-0.161837622523,11.6999998093,0.1476910899715719,-0.21656944998929767,0.04829413017692307,11.6999998093,-0.021869948989594594,0.3008781194813754,0.7969755553864198
1648295704865451451,60972,9,0,0.0127004906535,0.0439508594573,0.0102391270921,0.0,34.4000015259,0.004247655736956521,0.014699284099431437,0.003424457221438127,34.4000015259,0.0,0.01587936118221376,0.046880915450566385
1648295704865453765,60973,9,1,0.03342808038,0.0146502861753,-0.0294236782938,0.0,34.4000015259,0.011179959993311037,0.0048997612626421405,-0.00984069508153846,34.4000015259,0.0,0.016552663572215777,0.046880916023974664
1648295704865454874,60974,9,2,2.19716358185,-1.31266570091,0.584590852261,0.0,34.4000015259,0.7348373183444815,-0.4390186290668896,0.19551533520434783,34.4000015259,0.0,1.128144106721827,2.625331505219999
1648295704865456017,60975,9,3,0.707431912422,-0.615312039852,0.00769600505009,-0.323675245047,34.4000015259,0.2365993018133779,-0.20578997988361203,0.0025739147324715717,34.4000015259,-0.04373989797932432,0.3928205379784173,0.9376182835213958
1648295704865460059,60976,9,4,1.5650550127,-0.377977371216,-1.21305644512,-0.242756426334,34.4000015259,0.5234297701337792,-0.1264138365270903,-0.4057044966956522,34.4000015259,-0.03280492247756756,0.7509579925602362,2.015879466876908
1648295704865572471,60977,9,5,0.868296205997,-0.606521844864,0.202088370919,-0.161837622523,34.4000015259,0.2904000688953177,-0.20285011533913042,0.067588083919398,34.4000015259,-0.021869948989594594,0.45805302020826044,1.078260988493375
1648295704865574139,60978,9,6,0.537836611271,-0.572826206684,0.133311584592,-0.0809188112617,34.4000015259,0.17987846530802676,-0.19158067113177255,0.044585814244816044,34.4000015259,-0.010934974494824324,0.3184582831619274,0.7969755718175329
1648295704865575186,60979,9,7,1.90545284748,-0.180198520422,-0.176958113909,-0.0809188112617,34.4000015259,0.6372751998260869,-0.06026706368628762,-0.05918331568862875,34.4000015259,-0.010934974494824324,0.9032560432081953,1.922117643332517
1648295704970439713,60980,10,0,0.0127323288471,0.0439508594573,0.0101995095611,0.0,14.8000001907,0.004258303962240802,0.014699284099431437,0.003411207211070234,14.8000001907,0.0,0.015885064000672747,0.046880915522129064
1648295704970452963,60981,10,1,0.03342808038,0.0146502861753,-0.0294236782938,0.0,14.8000001907,0.011179959993311037,0.0048997612626421405,-0.00984069508153846,14.8000001907,0.0,0.016552663572215777,0.046880916023974664
1648295704970456503,60982,10,2,0.731143534184,-0.586011469364,0.0338790118694,-0.323675245047,14.8000001907,0.24452961009498328,-0.19599045798127088,0.011330773200468226,14.8000001907,-0.04373989797932432,0.3974943019039611,0.9376183110682466
1648295704970464272,60983,10,3,0.952743113041,-0.597731649876,0.0306902211159,-0.242756426334,14.8000001907,0.3186431816190635,-0.19991025079464883,0.010264287998628762,14.8000001907,-0.03280492247756756,0.4929818077347463,1.1251419707675487
1648295704970503425,60984,10,4,0.559292972088,-0.547920703888,0.148809671402,-0.161837622523,14.8000001907,0.18705450571505014,-0.18325107153444814,0.04976912087023411,14.8000001907,-0.021869948989594594,0.3218069785370213,0.7969755609044237
1648295704970517486,60985,10,5,1.91757321358,-0.120132349432,0.0549287684262,-0.0809188112617,14.8000001907,0.6413288339732441,-0.040178043288294316,0.018370825560602006,14.8000001907,-0.010934974494824324,0.9078654204965833,1.9221175771581718
1648295705165443001,60986,12,0,0.0127004906535,0.0439508594573,0.0102391270921,0.0,12.8000001907,0.004247655736956521,0.014699284099431437,0.003424457221438127,12.8000001907,0.0,0.01587936118221376,0.046880915450566385
1648295705165571374,60987,12,1,0.0334906764328,0.0146502861753,-0.0293524079025,0.0,12.8000001907,0.011200895128026755,0.0048997612626421405,-0.009816858830267557,12.8000001907,0.0,0.01658094580441645,0.04688091448147568
1648295705165574948,60988,12,2,0.396493554115,-0.0,1.05296599865,0.0,12.8000001907,0.13260653983779264,-0.0,0.352162541354515,12.8000001907,0.0,0.18753396709797446,1.1251420056009536
1648295705165575967,60989,12,3,0.587488770485,0.0703213736415,0.957003831863,0.0,12.8000001907,0.19648453862374582,0.023518854060702338,0.3200681711916388,12.8000001907,0.0,0.27886463442448406,1.1251419844789676
1648295705165577182,60990,12,4,1.8708178997,-0.117202289402,0.0530706197023,0.0,12.8000001907,0.6256916052508361,-0.03919809010100334,0.017749371137892975,12.8000001907,0.0,0.8857293379076379,1.875236646707443
1648295705165598753,60991,12,5,0.62043017149,-0.473204225302,0.162216454744,-0.323675245047,12.8000001907,0.2075017295953177,-0.158262282709699,0.05425299489765886,12.8000001907,-0.04373989797932432,0.3334079868548163,0.7969755421143669
1648295705270358877,60992,13,0,0.0127004906535,0.0439508594573,0.0102391270921,0.0,42.5,0.004247655736956521,0.014699284099431437,0.003424457221438127,42.5,0.0,0.01587936118221376,0.046880915450566385
1648295705270366464,60993,13,1,0.0334426723421,0.0146502861753,-0.0294070895761,0.0,42.5,0.011184840248193979,0.0048997612626421405,-0.009835147015418058,42.5,0.0,0.016559256118139135,0.046880914408061795
1648295705270371377,60994,13,2,0.374586194754,-0.0,1.06095695496,0.0,42.5,0.12527966379732441,-0.0,0.35483510199331103,42.5,0.0,0.17717219963171782,1.1251419810754006
1648295705270393585,60995,13,3,0.598372340202,0.0703213736415,0.950236797333,0.0,42.5,0.20012452849565218,0.023518854060702338,0.3178049489408027,42.5,0.0,0.28399434907677795,1.1251420017559217
1648295705270469783,60996,13,4,1.873483181,-0.0586011447012,0.0560272037983,0.0,42.5,0.6265830036789297,-0.019599045050568562,0.018738195250267556,42.5,0.0,0.8863388988222922,1.8752366173940893
1648295705270480052,60997,13,5,0.507938981056,-0.461484014988,0.153427809477,-0.404594063759,42.5,0.16987925787826086,-0.15434247992909697,0.05131364865451504,42.5,-0.05467487348094594,0.28555126619435783,0.7032137635787306
1648295705270488968,60998,13,6,0.727835476398,-0.323771327734,-0.0244478676468,-0.404594063759,42.5,0.24342323625351167,-0.10828472499464883,-0.00817654436347826,42.5,-0.05467487348094594,0.3608813178365329,0.7969755652456456
1648295705465404063,60999,15,0,0.0127121871337,0.0439508594573,0.0102246021852,0.0,37.7999992371,0.004251567603244147,0.014699284099431437,0.003419599393043478,37.7999992371,0.0,0.01588145482018912,0.04688091550517269
1648295705465541032,61000,15,1,0.0333916135132,0.0146502861753,-0.0294650550932,0.0,37.7999992371,0.011167763716789295,0.0048997612626421405,-0.009854533475986622,37.7999992371,0.0,0.016536189201232534,0.04688091519668124
1648295705465634804,61001,15,2,1.60051810741,-1.61153149605,0.579533696175,0.0,37.7999992371,0.5352903369264214,-0.5389737444983277,0.19382397865384612,37.7999992371,0.0,0.9292815433829255,2.34404592103284
1648295705465639914,61002,15,3,1.20563387871,-1.24673938751,-0.0300653558224,0.242756426334,37.7999992371,0.4032220330133779,-0.41696969481939794,-0.010055302950635451,37.7999992371,0.03280492247756756,0.7064274500701859,1.7345939223584455
1648295705465641468,61003,15,4,0.525191962719,-0.266635209322,0.15655888617,-0.485512852669,37.7999992371,0.17564948585919732,-0.0891756552916388,0.05236083149498327,37.7999992371,-0.06560984495527027,0.2639276061004114,0.6094518991631852
1648295705465644072,61004,15,5,0.649420440197,-0.354536950588,0.718541383743,-0.323675245047,37.7999992371,0.2171974716377926,-0.11857423096588628,0.240314844061204,37.7999992371,-0.04373989797932432,0.32925572374804785,1.0313801809367913
1648295705465645715,61005,15,6,0.671033620834,-0.153828009963,0.143388986588,-0.242756426334,37.7999992371,0.22442596014515048,-0.05144749497090301,0.04795618280535117,37.7999992371,-0.03280492247756756,0.32152895345975674,0.7032137501595791
