%time,field.header.seq,field.header.frame_id,field.point_id,field.x,field.y,field.z,field.velocity,field.intensity,normalized_x,normalized_y,normalized_z,normalized_intensity,normalized_velocity,normalized_range,range
1648295477762428571,47067,0,0,0.0126983001828,0.0439508594573,0.01024184376,0.0,26.2000007629,0.0042469231380602,0.014699284099431437,0.0034253658060200663,26.2000007629,0.0,0.015878969277537507,0.046880915500575354
1648295477762436433,47068,0,1,0.0334552153945,0.0146502861753,-0.0293928217143,0.0,26.2000007629,0.011189035248996655,0.0048997612626421405,-0.00983037515528428,26.2000007629,0.0,0.016564923182359397,0.0468809160580209
1648295477762440574,47069,0,2,1.76224923134,-0.167013257742,0.200590804219,0.0,26.2000007629,0.5893810138260869,-0.05585727683678929,0.06708722549130434,26.2000007629,0.0,0.8353801495684188,1.7814747970031015
1648295477762444906,47070,0,3,1.91822683811,-0.120132349432,-0.022586684674,0.0,26.2000007629,0.6415474374949832,-0.040178043288294316,-0.0075540751418060196,26.2000007629,0.0,0.9081742697716308,1.9221176192288814
1648295477762452310,47071,0,4,2.24250555038,-1.2306240797,0.590845346451,0.0,26.2000007629,0.7500018563143813,-0.4115799597658863,0.19760713928127088,26.2000007629,0.0,1.1377186085455948,2.625331406212439
1648295477762461110,47072,0,5,0.702308773994,-0.879017174244,0.00597296049818,-0.0809188112617,26.2000007629,0.23488587758996654,-0.29398567700468226,0.0019976456515652173,26.2000007629,-0.010934974494824324,0.4435880174963238,1.12514198344119
1648295477867278794,47073,1,0,0.0126779936254,0.0439508594573,0.0102669699118,0.0,22.2000007629,0.004240131647290969,0.014699284099431437,0.0034337692012709024,22.2000007629,0.0,0.015875338919484987,0.04688091552615868
1648295477867284978,47074,1,1,0.0335497111082,0.0146502861753,-0.0292849130929,0.0,22.2000007629,0.011220639166622073,0.0048997612626421405,-0.00979428531535117,22.2000007629,0.0,0.016607623160643882,0.04688091440363094
1648295477867290380,47075,1,2,1.75578975677,-0.167013257742,0.250921070576,0.0,22.2000007629,0.5872206544381271,-0.05585727683678929,0.08392009049364547,22.2000007629,0.0,0.8323318024520668,1.7814748052944946
1648295477867293474,47076,1,3,0.955757915974,1.50311934948,-0.0284913368523,0.0,22.2000007629,0.3196514769143812,0.5027155014983277,-0.009528875201438126,22.2000007629,0.0,0.6760747065478825,1.7814748746484674
1648295477867356400,47077,1,4,1.91790318489,-0.120132349432,-0.0418516211212,0.0,22.2000007629,0.641439192270903,-0.040178043288294316,-0.013997197699397992,22.2000007629,0.0,0.9080213378135852,1.9221175734542697
1648295477867491077,47078,1,5,2.19649124146,-1.31266570091,0.587111532688,0.0,22.2000007629,0.7346124553377926,-0.4390186290668896,0.19635837213645482,22.2000007629,0.0,1.1278511762385195,2.625331401551295
1648295477867497141,47079,1,6,0.741523861885,-0.843856453896,-0.0631910264492,-0.0809188112617,22.2000007629,0.24800129160033443,-0.28222623876120395,-0.021134122558260866,22.2000007629,-0.010934974494824324,0.45017877683889573,1.1251419725307914
1648295478062557356,47080,3,0,0.0127100823447,0.0439508594573,0.0102272182703,0.0,21.0,0.004250863660434782,0.014699284099431437,0.003420474337892977,21.0,0.0,0.01588107794688408,0.04688091545386831
1648295478062564031,47081,3,1,0.0334645062685,0.0146502861753,-0.0293822418898,0.0,21.0,0.011192142564715717,0.0048997612626421405,-0.00982683675244147,21.0,0.0,0.016569121002899676,0.04688091512847611
1648295478062567513,47082,3,2,1.87154984474,-0.117202289402,0.00879289023578,0.0,21.0,0.625936402923077,-0.03919809010100334,0.0029407659651438127,21.0,0.0,0.8860751950461808,1.8752366551734443
1648295478062685128,47083,3,3,2.25101232529,-1.2306240797,0.557559788227,0.0,21.0,0.7528469315351171,-0.4115799597658863,0.18647484556086957,21.0,0.0,1.141470572518,2.62533141366813
1648295478062688310,47084,3,4,0.722390949726,-0.843856453896,0.178891316056,-0.323675245047,21.0,0.24160232432307693,-0.28222623876120395,0.05982987159063545,21.0,-0.04373989797932432,0.4431647730606784,1.1251419919228915
1648295478062695732,47085,3,5,0.53737527132,-0.769140005112,0.298144549131,-0.242756426334,21.0,0.1797241710100334,-0.2572374599036789,0.09971389603043479,21.0,-0.03280492247756756,0.3616250351789603,0.9844992137459827
1648295478062700025,47086,3,6,0.571245849133,-0.805765748024,0.296925485134,-0.161837622523,21.0,0.19105212345585285,-0.26948687224882945,0.09930618231906355,21.0,-0.021869948989594594,0.381608440772001,1.0313801455149405
1648295478062702179,47087,3,7,1.19157254696,-0.188988685608,-1.61499476433,-0.161837622523,21.0,0.3985192464749164,-0.06320691826354514,-0.5401320282040133,21.0,-0.021869948989594594,0.5671245843183355,2.0158794474794104
1648295478167490768,47088,4,0,0.0126983001828,0.0439508594573,0.01024184376,0.0,12.0,0.0042469231380602,0.014699284099431437,0.0034253658060200663,12.0,0.0,0.015878969277537507,0.046880915500575354
1648295478167496581,47089,4,1,0.0334645062685,0.0146502861753,-0.0293822418898,0.0,12.0,0.011192142564715717,0.0048997612626421405,-0.00982683675244147,12.0,0.0,0.016569121002899676,0.04688091512847611
1648295478167501172,47090,4,2,1.80497229099,-0.114272229373,0.268144607544,0.0,12.0,0.6036696625384614,-0.03821813691404682,0.08968047075050166,12.0,0.0,0.854572845887219,1.8283557214619068
1648295478167503888,47091,4,3,2.23105669022,-1.2306240797,0.632704377174,0.0,12.0,0.7461728060936454,-0.4115799597658863,0.21160681510836118,12.0,0.0,1.1326719632745477,2.6253312951717223
1648295478167512513,47092,4,4,0.788513183594,-0.722259104252,0.839616298676,-0.566431701183,12.0,0.26371678381070235,-0.24155822884682274,0.2808081266474916,12.0,-0.07654482448418919,0.44434610614985187,1.3595465359371972
1648295478167578954,47093,4,5,0.652560472488,-0.773535132408,0.198879897594,-0.404594063759,12.0,0.21824764966153845,-0.2587074021431438,0.06651501591772574,12.0,-0.05467487348094594,0.4027326570930468,1.0313801360265882
1648295478167673294,47094,4,6,1.24145340919,-0.188988685608,-1.5769739151,-0.323675245047,12.0,0.41520180909364546,-0.06320691826354514,-0.5274160251170568,12.0,-0.04373989797932432,0.5905761585652155,2.015879465489724
1648295478362492413,47095,6,0,0.0127100823447,0.0439508594573,0.0102272182703,0.0,17.8999996185,0.004250863660434782,0.014699284099431437,0.003420474337892977,17.8999996185,0.0,0.01588107794688408,0.04688091545386831
1648295478362559027,47096,6,1,0.0335632227361,0.0146502861753,-0.0292694270611,0.0,17.8999996185,0.011225158105719061,0.0048997612626421405,-0.009789106040501672,17.8999996185,0.0,0.01661372954600108,0.04688091473015751
1648295478362565538,47097,6,2,0.255797624588,-0.0,1.0956788063,0.0,17.8999996185,0.08555104501270902,-0.0,0.3664477613043478,17.8999996185,0.0,0.12098744813216424,1.1251419782942313
1648295478362573545,47098,6,3,0.540148794651,0.0703213736415,0.98449921608,0.0,17.8999996185,0.1806517707862876,0.023518854060702338,0.3292639518662207,17.8999996185,0.0,0.25656044331262645,1.1251420010007138
1648295478362581462,47099,6,4,1.87010633945,-0.117202289402,-0.0740153640509,0.0,17.8999996185,0.6254536252341136,-0.03919809010100334,-0.024754302358160535,17.8999996185,0.0,0.8853931132014504,1.8752366174986388
1648295478362585610,47100,6,5,2.24200320244,-1.2306240797,0.592748761177,0.0,17.8999996185,0.7498338469698995,-0.4115799597658863,0.19824373283511706,17.8999996185,0.0,1.1374971030311445,2.625331422728482
1648295478362588181,47101,6,6,0.617801904678,-0.68563336134,0.796212375164,-0.647350490093,17.8999996185,0.20662271059464882,-0.2293088165016722,0.2662917642688963,17.8999996185,-0.08747979595851352,0.37144100795733037,1.2189037886438987
1648295478362593383,47102,6,7,0.552062094212,-0.761814832687,0.774978756905,-0.647350490093,17.8999996185,0.1846361519103679,-0.2547875694605351,0.25919021970066886,17.8999996185,-0.08747979595851352,0.3648256059217114,1.2189037980175794
1648295478362596057,47103,6,8,1.36377882957,-0.251984924078,-1.46300387383,-0.404594063759,17.8999996185,0.4561133209264214,-0.08427589434046821,-0.48929895445819394,17.8999996185,-0.05467487348094594,0.6505237500813811,2.0158793199959915
1648295478467635610,47104,7,0,0.0126683982089,0.0439508594573,0.0102788070217,0.0,20.0,0.004236922477892977,0.014699284099431437,0.00343772810090301,20.0,0.0,0.015873625206711522,0.0468809154561208
1648295478467639269,47105,7,1,0.0335497111082,0.0146502861753,-0.0292849130929,0.0,20.0,0.011220639166622073,0.0048997612626421405,-0.00979428531535117,20.0,0.0,0.016607623160643882,0.04688091440363094
1648295478467641814,47106,7,2,1.80534124374,-0.171408340335,0.232909783721,0.0,20.0,0.6037930581070233,-0.05732720412541805,0.07789624873612039,20.0,0.0,0.855814537367355,1.8283557621092381
1648295478467646944,47107,7,3,0.167828440666,-0.44536870718,-0.579760551453,0.566431701183,20.0,0.05612991326622073,-0.14895274487625418,-0.19389984998428092,20.0,0.07654482448418919,0.16878404703264283,0.7500946392640413
1648295478467782688,47108,7,4,0.729844808578,-0.501039803028,0.0984824225307,-0.404594063759,20.0,0.24409525370501672,-0.16757184047759197,0.03293726506043478,20.0,-0.05467487348094594,0.38372556271856645,0.8907374003454159
1648295478662536218,47109,9,0,0.0126768937334,0.0439508594573,0.0102683277801,0.0,38.0,0.004239763790434782,0.014699284099431437,0.0034342233378260863,38.0,0.0,0.015875142425602416,0.04688091548981127
1648295478662642780,47110,9,1,0.0335497111082,0.0146502861753,-0.0292849130929,0.0,38.0,0.011220639166622073,0.0048997612626421405,-0.00979428531535117,38.0,0.0,0.016607623160643882,0.04688091440363094
1648295478662647152,47111,9,2,1.06903851032,-1.39177715778,0.306211799383,0.161837622523,38.0,0.3575379633177257,-0.46547731029431433,0.10241197303779265,38.0,0.021869948989594594,0.687266990932639,1.7814748551542214
1648295478662674827,47112,9,3,0.564152777195,-0.307656019926,0.133612304926,-0.404594063759,38.0,0.18867985859364547,-0.10289498994180601,0.04468638960735785,38.0,-0.05467487348094594,0.2859852391872008,0.6563328657329123
1648295478662683855,47113,9,4,0.696895360947,-0.395557701588,0.264508426189,-0.0809188112617,38.0,0.2330753715541806,-0.13229354568160534,0.08846435658494983,38.0,-0.010934974494824324,0.35517578729306654,0.8438564729383856
1648295478767459473,47114,10,0,0.0127100823447,0.0439508594573,0.0102272182703,0.0,15.8999996185,0.004250863660434782,0.014699284099431437,0.003420474337892977,15.8999996185,0.0,0.01588107794688408,0.04688091545386831
1648295478767466736,47115,10,1,0.0334645062685,0.0146502861753,-0.0293822418898,0.0,15.8999996185,0.011192142564715717,0.0048997612626421405,-0.00982683675244147,15.8999996185,0.0,0.016569121002899676,0.04688091512847611
1648295478767473631,47116,10,2,0.695758998394,-0.348676800728,0.171796143055,0.0,15.8999996185,0.23269531718862876,-0.11661431462474915,0.05745690403177257,15.8999996185,0.0,0.3491319516435485,0.7969755391357438
1648295478767477112,47117,10,3,1.48381435871,-1.68478298187,0.674056589603,0.0,15.8999996185,0.4962589828461538,-0.5634725691872909,0.22543698648929764,15.8999996185,0.0,0.9000262731373594,2.34404586838653
1648295478767479934,47118,10,4,0.672763884068,-0.290075659752,0.418734461069,0.161837622523,15.8999996185,0.22500464350100333,-0.09701527082006689,0.14004497025719062,15.8999996185,0.021869948989594594,0.33266521003302724,0.8438564338639395
1648295478767653509,47119,10,5,0.601901710033,-0.0952268540859,-0.00882138498127,0.323675245047,15.8999996185,0.20130491974347825,-0.03184844618257525,-0.0029502959803578595,15.8999996185,0.04373989797932432,0.2864640727038922,0.6094519169817539
1648295478767656459,47120,10,6,0.606746673584,-0.0571361146867,0.00505601009354,0.566431701183,15.8999996185,0.2029253088909699,-0.0191090684570903,0.001690973275431438,15.8999996185,0.07654482448418919,0.2876152264298413,0.6094519051941726
1648295478962562301,47121,12,0,0.0127100823447,0.0439508594573,0.0102272182703,0.0,35.7999992371,0.004250863660434782,0.014699284099431437,0.003420474337892977,35.7999992371,0.0,0.01588107794688408,0.04688091545386831
1648295478962581903,47122,12,1,0.033492513001,0.0146502861753,-0.029350310564,0.0,35.7999992371,0.011201509364882942,0.0048997612626421405,-0.009816157379264213,35.7999992371,0.0,0.01658177567493931,0.04688091341200158
1648295478962603617,47123,12,2,1.43979513645,-1.68478298187,0.763575434685,0.0,35.7999992371,0.4815368349331103,-0.5634725691872909,0.25537639956020064,35.7999992371,0.0,0.8838873135311545,2.3440458987396617
1648295478962612587,47124,12,3,2.24001646042,-1.2306240797,0.600213170052,0.0,35.7999992371,0.7491693847558528,-0.4115799597658863,0.2007401906528428,35.7999992371,0.0,1.136621131860487,2.6253314491686357
1648295478962616380,47125,12,4,0.816546440125,-0.184593603015,0.106164142489,0.242756426334,35.7999992371,0.27309245489130435,-0.06173699097491638,0.03550640217023411,35.7999992371,0.03280492247756756,0.39111434886968177,0.843856452428548
1648295478962619261,47126,12,5,0.685394465923,0.0879017189145,0.13045039773,0.323675245047,35.7999992371,0.2292289183688963,0.02939856819882943,0.04362889556187291,35.7999992371,0.04373989797932432,0.3255089397317522,0.703213760085732
1648295478962624543,47127,12,6,0.657952606678,-0.202173948288,0.82998239994,0.323675245047,35.7999992371,0.22005103902274248,-0.06761670511304348,0.2775860869364548,35.7999992371,0.04373989797932432,0.31846026182291776,1.0782609712916889
1648295478962627742,47128,12,7,0.981004953384,-0.68563336134,0.230787068605,0.404594063759,35.7999992371,0.328095302135117,-0.2293088165016722,0.0771863105702341,35.7999992371,0.05467487348094594,0.5175669887962958,1.218903809076672
1648295479067602521,47129,13,0,0.0126887271181,0.0439508594573,0.0102537022904,0.0,17.5,0.004243721444180602,0.014699284099431437,0.0034293318696989963,17.5,0.0,0.015877257207319986,0.046880915664832074
1648295479067619837,47130,13,1,0.0334416292608,0.0146502861753,-0.0294082760811,0.0,17.5,0.011184491391571906,0.0048997612626421405,-0.009835543839832775,17.5,0.0,0.016558784852977005,0.04688091461028868
1648295479067624076,47131,13,2,1.4150851965,-1.68478298187,0.808449983597,0.0,17.5,0.4732726409698996,-0.5634725691872909,0.2703846098986622,17.5,0.0,0.8749144653094801,2.344045900858215
1648295479067628065,47132,13,3,1.97282803059,-0.879017233849,-0.910949885845,0.0,17.5,0.659808705882943,-0.29398569693946486,-0.3046655136605351,17.5,0.0,0.9783264520204035,2.34404595309183
1648295479067634045,47133,13,4,2.24674773216,-1.2306240797,0.574502766132,0.0,17.5,0.7514206462073577,-0.4115799597658863,0.19214139335518393,17.5,0.0,1.1395894165769769,2.625331298293016
1648295479067708517,47134,13,5,0.83698797226,-0.105482056737,0.0204537287354,0.0809188112617,17.5,0.27992908771237457,-0.035278279845150494,0.006840711951638795,17.5,0.010934974494824324,0.3974482926416936,0.8438564362618535
1648295479067715052,47135,13,6,0.723520815372,-0.210964113474,0.835437774658,0.242756426334,17.5,0.2419802058100334,-0.07055655969030099,0.2794106269759197,17.5,0.03280492247756756,0.34940959935734917,1.125141992272951
1648295479067720945,47136,13,7,2.12029480934,-0.83799636364,-0.863144218922,0.242756426334,17.5,0.7091286987759197,-0.28026634235451503,-0.2886769962949833,17.5,0.03280492247756756,1.0412858615731013,2.4378076065691645
1648295479067745357,47137,13,8,0.819729089737,-0.079111546278,0.184063434601,0.323675245047,17.5,0.27415688619966555,-0.026458711129765885,0.06155967712408026,17.5,0.04373989797932432,0.38861814149115725,0.8438564838126583
1648295479067751112,47138,13,9,0.0976428240538,-0.600661754608,1.8232408762,0.404594063759,17.5,0.032656462894247486,-0.20089021893244144,0.6097795572575251,17.5,0.05467487348094594,0.20613046645329017,1.922117571113824
1648295479067887509,47139,13,10,1.18853473663,-0.533270418644,0.161552280188,0.566431701183,17.5,0.39750325639799333,-0.1783513105832776,0.05403086293913043,17.5,0.07654482448418919,0.5897684865104191,1.3126657224178715
1648295479067893187,47140,13,11,0.736411392689,0.093761831522,0.107466362417,-0.0809188112617,17.5,0.24629143568193979,0.03135847208093645,0.035941927229765885,17.5,-0.010934974494824324,0.34971745216930916,0.750094686945358
1648295479262587929,47141,15,0,0.0126887271181,0.0439508594573,0.0102537022904,0.0,22.8999996185,0.004243721444180602,0.014699284099431437,0.0034293318696989963,22.8999996185,0.0,0.015877257207319986,0.046880915664832074
1648295479262597030,47142,15,1,0.033492513001,0.0146502861753,-0.029350310564,0.0,22.8999996185,0.011201509364882942,0.0048997612626421405,-0.009816157379264213,22.8999996185,0.0,0.01658177567493931,0.04688091341200158
1648295479262604926,47143,15,2,1.41627156734,-1.68478298187,0.806369900703,0.0,22.8999996185,0.4736694205150501,-0.5634725691872909,0.2696889300010033,22.8999996185,0.0,0.8753438045069224,2.344045917897991
1648295479262758435,47144,15,3,1.98614346981,-0.879017233849,-0.881540775299,0.0,22.8999996185,0.6642620300367893,-0.29398569693946486,-0.29482969073545146,22.8999996185,0.0,0.9843351457213013,2.3440459292827898
1648295479262782133,47145,15,4,2.24178028107,-1.2306240797,0.593591213226,0.0,22.8999996185,0.7497592913277592,-0.4115799597658863,0.1985254893732441,22.8999996185,0.0,1.1373988100686128,2.625331404328009
1648295479262791543,47146,15,5,0.699528455734,-0.0659262910485,0.0286922659725,0.0809188112617,22.8999996185,0.23395600526220736,-0.022048926772073575,0.009596075576086955,22.8999996185,0.010934974494824324,0.3315976175552235,0.7032137529653718
1648295479262800813,47147,15,6,0.878482758999,0.0278355441988,0.14459054172,0.161837622523,22.8999996185,0.2938069428090301,0.009309546554782609,0.048358040709030096,22.8999996185,0.021869948989594594,0.4156100419174602,0.8907374473627014
1648295479262811315,47148,15,7,0.408477842808,-0.114272229373,1.14272224903,0.161837622523,22.8999996185,0.1366146631464883,-0.03821813691404682,0.3821813541906354,22.8999996185,0.021869948989594594,0.19694607983516138,1.2189037816411654
1648295479262957499,47149,15,8,0.67809432745,1.82689070702,0.516166865826,0.323675245047,22.8999996185,0.2267874004849498,0.6110002364615384,0.17263105880468227,22.8999996185,0.04373989797932432,0.6900625616518389,2.0158794124878945
1648295479367585461,47150,16,0,0.0126779936254,0.0439508594573,0.0102669699118,0.0,18.8999996185,0.004240131647290969,0.014699284099431437,0.0034337692012709024,18.8999996185,0.0,0.015875338919484987,0.04688091552615868
1648295479367590430,47151,16,1,0.0335269682109,0.0146502861753,-0.0293109472841,0.0,18.8999996185,0.01121303284645485,0.0048997612626421405,-0.00980299240270903,18.8999996185,0.0,0.016597345319726262,0.046880914166899254
1648295479367628665,47152,16,2,2.24547958374,-1.2306240797,0.579439938068,0.0,18.8999996185,0.7509965163010033,-0.4115799597658863,0.19379262142742473,18.8999996185,0.0,1.1390301129791849,2.625331374961813
1648295479367721443,47153,16,3,0.691709637642,-0.0879017189145,0.0912178680301,0.161837622523,18.8999996185,0.23134101593377926,-0.02939856819882943,0.030507648170602003,18.8999996185,0.021869948989594594,0.32848380039004577,0.7032137899976845
1648295479367724628,47154,16,4,0.816781580448,0.0556710883975,0.350972563028,0.161837622523,18.8999996185,0.2731710971397993,0.018619093109531772,0.11738212810301003,18.8999996185,0.021869948989594594,0.3867706907889283,0.8907374249692994
1648295479367726125,47155,16,5,0.872006356716,0.0556710883975,-0.172970443964,0.404594063759,18.8999996185,0.2916409219785953,0.018619093109531772,-0.057849646810702336,18.8999996185,0.05467487348094594,0.41286259866119096,0.8907374083991182
1648295479367729897,47156,16,6,0.11104400456,0.389697611332,0.793232738972,0.404594063759,18.8999996185,0.03713846306354515,0.13033364927491636,0.265295230425418,18.8999996185,0.05467487348094594,0.14051829422093592,0.8907374346032668
