%time,field.header.seq,field.header.frame_id,field.point_id,field.x,field.y,field.z,field.velocity,field.intensity,normalized_x,normalized_y,normalized_z,normalized_intensity,normalized_velocity,normalized_range,range
1648295590867830163,53715,0,0,0.0127438921481,0.0439508594573,0.0101850572973,0.0,34.9000015259,0.004262171286989967,0.014699284099431437,0.0034063736780267557,34.9000015259,0.0,0.015887138231760977,0.04688091537360406
1648295590867834113,53716,0,1,0.0335009843111,0.0146502861753,-0.0293406434357,0.0,34.9000015259,0.01120434257896321,0.0048997612626421405,-0.00981292422598662,34.9000015259,0.0,0.016585603567082642,0.046880915008686
1648295590867843099,53717,0,2,0.526738226414,-0.632892370224,0.184628814459,0.0,34.9000015259,0.1761666309076923,-0.21166968903812708,0.061748767377591975,34.9000015259,0.0,0.32691500569449483,0.843856451407498
1648295590868141620,53718,0,3,1.91743910313,-0.120132349432,0.0594262667,0.0,34.9000015259,0.6412839809799331,-0.040178043288294316,0.01987500558528428,34.9000015259,0.0,0.9078020509369972,1.9221175762075353
1648295590868151611,53719,0,4,2.19068145752,-1.31266570091,0.608430862427,0.0,34.9000015259,0.7326693837859531,-0.4390186290668896,0.203488582751505,34.9000015259,0.0,1.1253204914789154,2.6253313324266627
1648295590868153548,53720,0,5,0.231507629156,-0.842391490936,0.781292915344,0.242756426334,34.9000015259,0.07742730072107024,-0.2817362845939799,0.26130197837591973,34.9000015259,0.03280492247756756,0.3022669479958438,1.1720229630538541
1648295591062956087,53721,2,0,0.0127438921481,0.0439508594573,0.0101850572973,0.0,11.6999998093,0.004262171286989967,0.014699284099431437,0.0034063736780267557,11.6999998093,0.0,0.015887138231760977,0.04688091537360406
1648295591063052403,53722,2,1,0.0335009843111,0.0146502861753,-0.0293406434357,0.0,11.6999998093,0.01120434257896321,0.0048997612626421405,-0.00981292422598662,11.6999998093,0.0,0.016585603567082642,0.046880915008686
1648295591063060861,53723,2,2,1.85559606552,-0.175803437829,0.205837026238,0.0,11.6999998093,0.6206006908093644,-0.05879713639765886,0.06884181479531772,11.6999998093,0.0,0.8796292049009546,1.8752366486649898
1648295591063128929,53724,2,3,2.19514513016,-1.31266570091,0.592124760151,0.0,11.6999998093,0.7341622508896319,-0.4390186290668896,0.1980350368397993,11.6999998093,0.0,1.1272647328513534,2.6253314298188304
1648295591063132462,53725,2,4,0.633501529694,-0.805765748024,0.114727444947,0.242756426334,11.6999998093,0.2118734213023411,-0.26948687224882945,0.038370382925418056,11.6999998093,0.03280492247756756,0.40299363223651014,1.0313801507869835
1648295591063134983,53726,2,5,0.756841242313,-0.249054864049,-0.0182487461716,-0.566431701183,11.6999998093,0.25312416130869564,-0.0832959411535117,-0.00610325958916388,11.6999998093,-0.07654482448418919,0.3675348907098623,0.796975537961603
1648295591063223909,53727,2,6,0.764499604702,-0.224149376154,0.0216214712709,-0.323675245047,11.6999998093,0.25568548652240797,-0.07496634653979932,0.007231261294615384,11.6999998093,-0.04373989797932432,0.3692832099485789,0.7969755808302159
1648295591167883063,53728,3,0,0.0127553893253,0.0439508594573,0.0101706553251,0.0,33.0,0.004266016496755853,0.014699284099431437,0.0034015569649163877,33.0,0.0,0.01588920219951222,0.04688091545199708
1648295591167890310,53729,3,1,0.033392906189,0.0146502861753,-0.0294635873288,0.0,33.0,0.011168196049832777,0.0048997612626421405,-0.009854042584882943,33.0,0.0,0.016536773156994367,0.046880913462168855
1648295591167899806,53730,3,2,2.21400809288,-1.31266570091,0.517147541046,0.0,33.0,0.7404709340735786,-0.4390186290668896,0.17295904382809363,33.0,0.0,1.1354874570348046,2.625331342305881
1648295591168083547,53731,3,3,0.545743942261,-0.909782767296,0.690412819386,0.161837622523,33.0,0.18252305761237456,-0.30427517300869567,0.23090729745351168,33.0,0.021869948989594594,0.39901467896533843,1.265784734998756
1648295591168086240,53732,3,4,0.632894575596,-0.805765748024,0.118029877543,0.242756426334,33.0,0.2116704266207358,-0.26948687224882945,0.03947487543244147,33.0,0.03280492247756756,0.4027802295620597,1.031380160998035
1648295591168132294,53733,3,5,0.84986615181,-0.250519901514,0.0915446579456,-0.323675245047,33.0,0.28423617117391303,-0.08378592023879598,0.030616942456722408,33.0,-0.04373989797932432,0.4106098908178831,0.8907374031920402
1648295591363061005,53734,5,0,0.0126860151067,0.0439508594573,0.0102570559829,0.0,31.3999996185,0.0042428144169565215,0.014699284099431437,0.003430453505986622,31.3999996185,0.0,0.015876772385761097,0.04688091534685625
1648295591363271982,53735,5,1,0.0334877036512,0.0146502861753,-0.0293558016419,0.0,31.3999996185,0.011199900886688962,0.0048997612626421405,-0.009817993860167223,31.3999996185,0.0,0.016579602533661683,0.04688091584949422
1648295591363277473,53736,5,2,1.86682844162,-0.175803437829,-0.0236069820821,0.0,31.3999996185,0.6243573383344482,-0.05879713639765886,-0.007895311733143812,31.3999996185,0.0,0.884930096172979,1.875236670075774
1648295591363280131,53737,5,3,2.21391296387,-1.31266570091,0.517554461956,0.0,31.3999996185,0.7404391183511705,-0.4390186290668896,0.1730951377779264,31.3999996185,0.0,1.135445962006598,2.6253313076691396
1648295591363282995,53738,5,4,0.590220212936,-0.805765748024,0.257151126862,0.0809188112617,31.3999996185,0.1973980645270903,-0.26948687224882945,0.08600372135852842,31.3999996185,0.010934974494824324,0.38801438900192803,1.0313801639033446
1648295591363287096,53739,5,5,0.814834535122,-0.842391490936,-0.0076894108206,0.242756426334,31.3999996185,0.27251991141204013,-0.2817362845939799,-0.0025717093045484946,31.3999996185,0.03280492247756756,0.47739872045164977,1.1720229821414043
1648295591363290535,53740,5,6,1.11810433865,-0.329631447792,0.121751815081,0.404594063759,31.3999996185,0.37394793934782605,-0.11024463136856186,0.04071967059565217,31.3999996185,0.05467487348094594,0.5402110711847369,1.1720229127269322
1648295591466054091,53741,6,0,0.0126539859921,0.0439508594573,0.0102965449914,0.0,32.0999984741,0.0042321023384949835,0.014699284099431437,0.0034436605322408025,32.0999984741,0.0,0.015871053318629716,0.04688091559775176
1648295591466058609,53742,6,1,0.0334781743586,0.0146502861753,-0.0293666664511,0.0,32.0999984741,0.011196713832307692,0.0048997612626421405,-0.00982162757561873,32.0999984741,0.0,0.016575296730860337,0.04688091447330322
1648295591466060527,53743,6,2,1.87156009674,-0.117202289402,0.00623934902251,0.0,32.0999984741,0.6259398316856186,-0.03919809010100334,0.00208673880351505,32.0999984741,0.0,0.8860800393016466,1.8752366522193227
1648295591466062335,53744,6,3,2.20442295074,-1.31266570091,0.556590616703,0.0,32.0999984741,0.7372652009163879,-0.4390186290668896,0.18615070792742475,32.0999984741,0.0,1.1313077873118063,2.625331389119594
1648295591466070060,53745,6,4,0.849092364311,-0.805765748024,0.0584940686822,0.242756426334,32.0999984741,0.2839773793682274,-0.26948687224882945,0.019563233672976587,32.0999984741,0.03280492247756756,0.48364189055555273,1.172022969011665
1648295591466212889,53746,6,5,0.374915897846,-0.807230770588,0.0350673235953,-0.647350490093,32.0999984741,0.12538993238996654,-0.2699768463505016,0.011728201871337792,32.0999984741,-0.08747979595851352,0.32300583254003806,0.8907374274307249
1648295591466216237,53747,6,6,1.20034730434,-0.55231577158,0.320125728846,-0.647350490093,32.0999984741,0.40145394793979927,-0.18472099383946486,0.10706546115250835,32.0999984741,-0.08747979595851352,0.5970363390933099,1.359546558541302
1648295591466219017,53748,6,7,0.606151342392,-0.805765748024,0.216949626803,-0.161837622523,32.0999984741,0.2027262014688963,-0.26948687224882945,0.07255840361304347,32.0999984741,-0.021869948989594594,0.39347045611897213,1.03138015840051
1648295591566147583,53749,7,0,0.0127553893253,0.0439508594573,0.0101706553251,0.0,34.2999992371,0.004266016496755853,0.014699284099431437,0.0034015569649163877,34.2999992371,0.0,0.01588920219951222,0.04688091545199708
1648295591566157533,53750,7,1,0.0335279218853,0.0146502861753,-0.029309855774,0.0,34.2999992371,0.011213351801103678,0.0048997612626421405,-0.009802627349163878,34.2999992371,0.0,0.01659777628664511,0.04688091377583895
1648295591566162719,53751,7,2,0.949564576149,-0.761814832687,-0.0607598684728,0.0,34.2999992371,0.31758012580234113,-0.2547875694605351,-0.020321026245083612,34.2999992371,0.0,0.5163632230909446,1.2189038047343128
1648295591566168041,53752,7,3,1.91835236549,-0.120132349432,0.00535380328074,0.0,34.2999992371,0.641589419896321,-0.040178043288294316,0.0017905696591103677,34.2999992371,0.0,0.9082335837262744,1.9221176454032933
1648295591566326667,53753,7,4,2.19854307175,-1.31266570091,0.579380691051,0.0,34.2999992371,0.7352986862040134,-0.4390186290668896,0.19377280637157188,34.2999992371,0.0,1.1287451760846943,2.6253313821017343
1648295591566331377,53754,7,5,1.10526955128,-0.835066318512,0.243067651987,0.566431701183,34.2999992371,0.3696553683210702,-0.2792863941511705,0.08129352909264213,34.2999992371,0.07654482448418919,0.592698129417611,1.4064275383902118
1648295591566333991,53755,7,6,0.462376743555,-0.75155967474,0.121568776667,-0.566431701183,34.2999992371,0.15464105135618728,-0.25135775074916383,0.04065845373478261,34.2999992371,-0.07654482448418919,0.3331792736512472,0.8907374277171314
1648295591566337378,53756,7,7,1.3061350584,-0.483459442854,0.195746392012,-0.566431701183,34.2999992371,0.43683446769230766,-0.16169212135585284,0.06546702073979933,34.2999992371,-0.07654482448418919,0.6385867571728993,1.4064275572001521
1648295591566406892,53757,7,8,0.63825315237,-0.773535132408,0.240876212716,-0.242756426334,34.2999992371,0.21346259276588628,-0.2587074021431438,0.08056060625953176,34.2999992371,-0.03280492247756756,0.3975702163697924,1.031380161449748
1648295591566423761,53758,7,9,0.780773043633,-0.808695793152,0.0484669283032,-0.161837622523,34.2999992371,0.26112810823846155,-0.2704668204521739,0.016209675017792642,34.2999992371,-0.021869948989594594,0.45774237163485737,1.1251419797806979
1648295591668031311,53759,8,0,0.0127553893253,0.0439508594573,0.0101706553251,0.0,32.9000015259,0.004266016496755853,0.014699284099431437,0.0034015569649163877,32.9000015259,0.0,0.01588920219951222,0.04688091545199708
1648295591668042710,53760,8,1,0.0335279218853,0.0146502861753,-0.029309855774,0.0,32.9000015259,0.011213351801103678,0.0048997612626421405,-0.009802627349163878,32.9000015259,0.0,0.01659777628664511,0.04688091377583895
1648295591668055587,53761,8,2,1.87147963047,-0.117202289402,0.0184337310493,0.0,32.9000015259,0.625912919889632,-0.03919809010100334,0.0061651274412374574,32.9000015259,0.0,0.886042017534776,1.8752365681016345
1648295591668082986,53762,8,3,2.19417572021,-1.31266570091,0.595706820488,0.0,32.9000015259,0.7338380335150502,-0.4390186290668896,0.19923305033043479,32.9000015259,0.0,1.1268424359839504,2.625331398029692
1648295591668194015,53763,8,4,0.930999338627,-1.46356356144,0.00615459121764,0.161837622523,32.9000015259,0.3113710162632107,-0.4894861409498327,0.002058391711585284,32.9000015259,0.021869948989594594,0.658407549865225,1.7345938850036062
1648295591668197365,53764,8,5,1.21826589108,-0.53180539608,-0.791478216648,0.404594063759,32.9000015259,0.40744678631438125,-0.17786133648160535,-0.26470843366153846,32.9000015259,0.05467487348094594,0.6030426372743946,1.5470703048333163
1648295591668200590,53765,8,6,0.459596782923,-0.622637152672,0.190430670977,-0.566431701183,32.9000015259,0.15371129863645483,-0.20823985039197324,0.06368918761772575,32.9000015259,-0.07654482448418919,0.30102850686983484,0.7969755750394218
1648295591668289029,53766,8,7,0.781774759293,-0.808695793152,0.0279969442636,-0.323675245047,32.9000015259,0.26146313019832773,-0.2704668204521739,0.009363526509565217,32.9000015259,-0.04373989797932432,0.4581246968585342,1.1251419861588445
1648295591668292532,53767,8,8,0.644931018353,-0.707608819008,0.229330375791,-0.242756426334,32.9000015259,0.21569599276020066,-0.23665846789565215,0.07669912233812708,32.9000015259,-0.03280492247756756,0.3860786875914475,0.9844992028601016
1648295591668294615,53768,8,9,0.843655884266,-0.73837441206,0.0948288589716,-0.0809188112617,32.9000015259,0.28215915861739127,-0.24694796389966553,0.031715337448695646,32.9000015259,-0.010934974494824324,0.46926631933001417,1.12514200700865
1648295591863008383,53769,10,0,0.0127438921481,0.0439508594573,0.0101850572973,0.0,22.6000003815,0.004262171286989967,0.014699284099431437,0.0034063736780267557,22.6000003815,0.0,0.015887138231760977,0.04688091537360406
1648295591863014010,53770,10,1,0.0334781743586,0.0146502861753,-0.0293666664511,0.0,22.6000003815,0.011196713832307692,0.0048997612626421405,-0.00982162757561873,22.6000003815,0.0,0.016575296730860337,0.04688091447330322
1648295591863016729,53771,10,2,0.761027336121,-0.584546387196,0.21995818615,0.0,22.6000003815,0.2545241926826087,-0.1955004639451505,0.07356461075250836,22.6000003815,0.0,0.4096163579793128,0.9844992070904474
1648295591863150566,53772,10,3,0.560514032841,-0.49224960804,0.0784621909261,0.161837622523,22.6000003815,0.1874628872377926,-0.16463197593311035,0.026241535426789298,22.6000003815,0.021869948989594594,0.31207107472929774,0.7500946427165969
1648295591863156681,53773,10,4,1.11139023304,-1.22476398945,0.662130951881,0.242756426334,22.6000003815,0.3717024190769231,-0.409620063361204,0.22144847888996655,22.6000003815,0.03280492247756756,0.6664187669951304,1.78147480402868
1648295591965950262,53774,11,0,0.0127553893253,0.0439508594573,0.0101706553251,0.0,17.2000007629,0.004266016496755853,0.014699284099431437,0.0034015569649163877,17.2000007629,0.0,0.01588920219951222,0.04688091545199708
1648295591965971007,53775,11,1,0.0334914848208,0.0146502861753,-0.0293514840305,0.0,17.2000007629,0.011201165491906353,0.0048997612626421405,-0.009816549842976587,17.2000007629,0.0,0.016581311081607385,0.04688091355032194
1648295591965973429,53776,11,2,0.728242337704,-0.323771327734,0.00229057623073,-0.566431701183,17.2000007629,0.24355931026889632,-0.10828472499464883,0.0007660790069331104,17.2000007629,-0.07654482448418919,0.36106489292714095,0.7969755465675801
1648295591965974994,53777,11,3,1.255890131,-0.509829938412,0.105737529695,-0.485512852669,17.2000007629,0.4200301441471571,-0.1705116850876254,0.035363722306020064,17.2000007629,-0.06560984495527027,0.6180007109510349,1.3595466201754105
1648295591965982298,53778,11,4,0.799623966217,-0.553780794144,0.152207225561,-0.242756426334,17.2000007629,0.26743276462107024,-0.18521096794113712,0.050905426609030094,17.2000007629,-0.03280492247756756,0.4211219180135729,0.9844992101694864
1648295591966006172,53779,11,5,0.776908874512,-0.553780794144,0.242854207754,-0.0809188112617,17.2000007629,0.25983574398394643,-0.18521096794113712,0.08122214306153845,17.2000007629,-0.010934974494824324,0.411500097629484,0.9844992298026874
1648295592067922503,53780,12,0,0.0127553893253,0.0439508594573,0.0101706553251,0.0,36.7999992371,0.004266016496755853,0.014699284099431437,0.0034015569649163877,36.7999992371,0.0,0.01588920219951222,0.04688091545199708
1648295592067929661,53781,12,1,0.0334781743586,0.0146502861753,-0.0293666664511,0.0,36.7999992371,0.011196713832307692,0.0048997612626421405,-0.00982162757561873,36.7999992371,0.0,0.016575296730860337,0.04688091447330322
1648295592067932235,53782,12,2,1.04034626484,-0.421928226948,0.0748379081488,0.0809188112617,36.7999992371,0.34794189459531766,-0.14111311938060198,0.025029400718662203,36.7999992371,0.010934974494824324,0.5118984630671226,1.1251419874656312
1648295592067956230,53783,12,3,0.0462258197367,-0.0,1.12419199944,0.0809188112617,36.7999992371,0.015460140380167223,-0.0,0.37598394630100335,36.7999992371,0.010934974494824324,0.021863940201824424,1.1251419812695795
1648295592067958325,53784,12,4,1.19546961784,-1.37126672268,0.182659715414,0.161837622523,36.7999992371,0.3998226146622073,-0.4586176330033444,0.061090205824080264,36.7999992371,0.021869948989594594,0.72804284193462,1.828355710342817
1648295592067963522,53785,12,5,0.645063400269,-0.612381994724,0.0479026548564,0.404594063759,36.7999992371,0.21574026764849497,-0.20481003168026754,0.01602095480147157,36.7999992371,0.05467487348094594,0.36747091755261485,0.890737426052729
1648295592067992679,53786,12,6,1.1396573782,-0.38237246871,0.635089933872,0.566431701183,36.7999992371,0.3811563137792642,-0.1278837687993311,0.2124046601578595,36.7999992371,0.07654482448418919,0.5539986727329901,1.359546567285806
1648295592068152001,53787,12,7,0.703086256981,-0.849716603756,-0.794995725155,0.566431701183,36.7999992371,0.23514590534481605,-0.28418615510234113,-0.26588485791137123,36.7999992371,0.07654482448418919,0.43743452578953834,1.3595465400157907
1648295592068158770,53788,12,8,0.792234182358,-0.553780794144,0.186897054315,-0.242756426334,36.7999992371,0.2649612650026756,-0.18521096794113712,0.0625073760250836,36.7999992371,-0.03280492247756756,0.41798570136947155,0.9844992008990319
1648295592068182642,53789,12,9,1.29488515854,-0.297400802374,0.28843036294,-0.242756426334,36.7999992371,0.4330719593779264,-0.09946515129565217,0.0964650043277592,36.7999992371,-0.03280492247756756,0.6204804270250107,1.3595465734301124
1648295592166003410,53790,13,0,0.0126539859921,0.0439508594573,0.0102965449914,0.0,15.0,0.0042321023384949835,0.014699284099431437,0.0034436605322408025,15.0,0.0,0.015871053318629716,0.04688091559775176
1648295592166016357,53791,13,1,0.0335009843111,0.0146502861753,-0.0293406434357,0.0,15.0,0.01120434257896321,0.0048997612626421405,-0.00981292422598662,15.0,0.0,0.016585603567082642,0.046880915008686
1648295592166020196,53792,13,2,1.91770851612,-0.120132349432,0.049982920289,0.0,15.0,0.6413740856588629,-0.040178043288294316,0.01671669574882943,15.0,0.0,0.9079293533485746,1.922117589144806
1648295592166022230,53793,13,3,0.391924411058,-0.820416033268,-1.64006865025,0.242756426334,15.0,0.13107839834715718,-0.27438663319999995,-0.5485179432274246,15.0,0.03280492247756756,0.3311361011809847,1.8752366221784431
1648295592166202098,53794,13,4,0.766976594925,-0.498109728098,0.206788912416,-0.323675245047,15.0,0.2565139113461538,-0.1665918823070234,0.06916017137658863,15.0,-0.04373989797932432,0.3991887131154913,0.9376182873039557
1648295592166205335,53795,13,5,0.835596263409,-0.572826147079,0.369182795286,-0.242756426334,15.0,0.2794636332471572,-0.19158065119698997,0.12347250678461538,15.0,-0.03280492247756756,0.439207229594944,1.0782610289422685
1648295592166207559,53796,13,6,0.660480678082,-0.5845464468,0.124434262514,-0.161837622523,15.0,0.22089654785351168,-0.19550048387959865,0.04161681020535117,15.0,-0.021869948989594594,0.36852545217983895,0.8907374249876149
1648295592267990736,53797,14,0,0.0127438921481,0.0439508594573,0.0101850572973,0.0,40.0,0.004262171286989967,0.014699284099431437,0.0034063736780267557,40.0,0.0,0.015887138231760977,0.04688091537360406
1648295592267995341,53798,14,1,0.0335279218853,0.0146502861753,-0.029309855774,0.0,40.0,0.011213351801103678,0.0048997612626421405,-0.009802627349163878,40.0,0.0,0.01659777628664511,0.04688091377583895
1648295592267999183,53799,14,2,0.634268283844,-0.0351606868207,0.928661346436,0.0,40.0,0.2121298608173913,-0.011759427030334446,0.31058907907558525,40.0,0.0,0.3002273135890427,1.1251419582223572
1648295592268002054,53800,14,3,1.91832709312,-0.120132349432,-0.0112122604623,0.0,40.0,0.6415809675986622,-0.040178043288294316,-0.003749919887056856,40.0,0.0,0.9082216420743052,1.922117668708905
1648295592268007655,53801,14,4,1.47848963737,-1.68478298187,0.685657501221,0.0,40.0,0.49447813958862874,-0.5634725691872909,0.2293168900404682,40.0,0.0,0.8980638046868324,2.344045970707458
1648295592268022485,53802,14,5,1.5099003315,-1.05482065678,-0.352231234312,0.242756426334,40.0,0.5049833884615385,-0.352782828354515,-0.1178030883986622,40.0,0.03280492247756756,0.7965376131897385,1.875236644122164
1648295592268026937,53803,14,6,0.668100595474,-0.501039743423,0.121220625937,-0.566431701183,40.0,0.22344501520869564,-0.16757182054280934,0.040542015363545146,40.0,-0.07654482448418919,0.35768095376083414,0.8438564275483461
1648295592268150828,53804,14,7,0.776238679886,-0.461484014988,0.392077416182,-0.404594063759,40.0,0.2596115986240803,-0.15434247992909697,0.13112957062943142,40.0,-0.05467487348094594,0.3982687100325166,0.9844992049364784
1648295592268156465,53805,14,8,0.805099904537,-0.361862063408,0.119512148201,-0.323675245047,40.0,0.26926418211939795,-0.12102410147424747,0.03997061812742475,40.0,-0.04373989797932432,0.3995663057397427,0.8907374263984869
1648295592268158748,53806,14,9,0.853925466537,-0.380907446146,0.0696342587471,-0.242756426334,40.0,0.2855938015173913,-0.12739379469765885,0.023289049748193978,40.0,-0.03280492247756756,0.42350539295005374,0.9376183204914242
1648295592463012848,53807,16,0,0.0127438921481,0.0439508594573,0.0101850572973,0.0,38.7999992371,0.004262171286989967,0.014699284099431437,0.0034063736780267557,38.7999992371,0.0,0.015887138231760977,0.04688091537360406
1648295592463016367,53808,16,1,0.0334781743586,0.0146502861753,-0.0293666664511,0.0,38.7999992371,0.011196713832307692,0.0048997612626421405,-0.00982162757561873,38.7999992371,0.0,0.016575296730860337,0.04688091447330322
1648295592463018376,53809,16,2,0.796929299831,-0.139177724719,0.372755169868,0.0,38.7999992371,0.2665315384050167,-0.04654773401973244,0.12466728089230768,38.7999992371,0.0,0.3797957523083447,0.8907374274444783
1648295592463174593,53810,16,3,1.37059223652,-1.68478298187,0.881779134274,0.0,38.7999992371,0.4583920523478261,-0.5634725691872909,0.29490940945618727,38.7999992371,0.0,0.8589225131161894,2.3440459074959836
1648295592463180047,53811,16,4,2.24587464333,-1.2306240797,0.577907204628,0.0,38.7999992371,0.7511286432541806,-0.4115799597658863,0.1932800015478261,38.7999992371,0.0,1.1392043454598568,2.625331460263842
1648295592463297615,53812,16,5,2.14991044998,-1.04603040218,-0.0153313307092,0.242756426334,38.7999992371,0.7190335953110368,-0.34984294387290965,-0.0051275353542474915,38.7999992371,0.03280492247756756,1.07536445345264,2.390926513910324
1648295592463301159,53813,16,6,0.674799740314,-0.197778865695,0.0061991806142,-0.566431701183,38.7999992371,0.22568553187759197,-0.06614677782441471,0.002073304553244147,38.7999992371,-0.07654482448418919,0.32594986549206556,0.703213764856555
1648295592463302440,53814,16,7,0.802012979984,-0.184593603015,0.186531841755,-0.242756426334,38.7999992371,0.26823176588093645,-0.06173699097491638,0.06238523135618729,38.7999992371,-0.03280492247756756,0.3843280064083906,0.84385647258606
