%time,field.header.seq,field.header.frame_id,field.point_id,field.x,field.y,field.z,field.velocity,field.intensity,normalized_x,normalized_y,normalized_z,normalized_intensity,normalized_velocity,normalized_range,range
1648295691064925289,60065,0,0,0.0127121871337,0.0439508594573,0.0102246021852,0.0,23.6000003815,0.004251567603244147,0.014699284099431437,0.003419599393043478,23.6000003815,0.0,0.01588145482018912,0.04688091550517269
1648295691064935686,60066,0,1,0.0334655456245,0.0146502861753,-0.0293810591102,0.0,23.6000003815,0.01119249017541806,0.0048997612626421405,-0.009826441173979933,23.6000003815,0.0,0.016569590613064285,0.04688091576964707
1648295691064940948,60067,0,2,1.87381494045,-0.0586011447012,-0.0435428507626,0.0,23.6000003815,0.6266939600167224,-0.019599045050568562,-0.014562826342006688,23.6000003815,0.0,0.8864957764195929,1.8752366530831415
1648295691064943669,60068,0,3,0.685863256454,-0.474669247866,0.127962529659,-0.323675245047,23.6000003815,0.22938570449966555,-0.15875225681137123,0.04279683266187291,23.6000003815,-0.04373989797932432,0.3611618500067793,0.8438564513115309
1648295691065023531,60069,0,4,0.555434465408,-0.572826147079,0.725265145302,-0.242756426334,23.6000003815,0.1857640352535117,-0.19158065119698997,0.24256359374648828,23.6000003815,-0.03280492247756756,0.325145658898283,1.0782609939761219
1648295691169840369,60070,1,0,0.0127121871337,0.0439508594573,0.0102246021852,0.0,14.6999998093,0.004251567603244147,0.014699284099431437,0.003419599393043478,14.6999998093,0.0,0.01588145482018912,0.04688091550517269
1648295691169888263,60071,1,1,0.0334426723421,0.0146502861753,-0.0294070895761,0.0,14.6999998093,0.011184840248193979,0.0048997612626421405,-0.009835147015418058,14.6999998093,0.0,0.016559256118139135,0.046880914408061795
1648295691169891335,60072,1,2,1.87431514263,-0.0586011447012,0.00456700427458,0.0,14.6999998093,0.626861251715719,-0.019599045050568562,0.0015274261787892975,14.6999998093,0.0,0.8867323047978406,1.8752365732302823
1648295691169922684,60073,1,3,1.07636678219,-1.35515141487,0.117537721992,0.323675245047,14.6999998093,0.3599888903645485,-0.4532278979498327,0.03931027491371237,14.6999998093,0.04373989797932432,0.6816153826402555,1.7345938784387793
1648295691169930236,60074,1,4,0.253618448973,-0.307656019926,-0.521342754364,0.566431701183,14.6999998093,0.0848222237367893,-0.10289498994180601,-0.17436212520535116,14.6999998093,0.07654482448418919,0.15804112830030115,0.656332851367368
1648295691169971712,60075,1,5,0.690143704414,-0.398487776518,0.00889891851693,-0.161837622523,14.6999998093,0.23081729244615382,-0.1332735038521739,0.00297622692873913,14.6999998093,-0.021869948989594594,0.35258342532425146,0.7969755526534732
1648295691365476198,60076,3,0,0.0127207012847,0.0439508594573,0.0102140065283,0.0,37.7999992371,0.004254415145384615,0.014699284099431437,0.003416055695083612,37.7999992371,0.0,0.01588297986822227,0.04688091528084813
1648295691365515234,60077,3,1,0.0335142984986,0.0146502861753,-0.0293254330754,0.0,37.7999992371,0.011208795484481605,0.0048997612626421405,-0.00980783714896321,37.7999992371,0.0,0.016591619958785185,0.04688091417550657
1648295691365522879,60078,3,2,1.82504761219,-0.0571361146867,0.0939217284322,0.0,37.7999992371,0.6103838167859531,-0.0191090684570903,0.03141194930842809,37.7999992371,0.0,0.8634245561053228,1.828355713047547
1648295691365529547,60079,3,3,0.727343261242,-0.298865824938,0.129696011543,0.0809188112617,37.7999992371,0.2432586158,-0.09995512539732442,0.043376592489297656,37.7999992371,0.010934974494824324,0.3582464729973749,0.7969755682580123
1648295691365533035,60080,3,4,0.771466434002,-0.281285494566,0.769195973873,0.161837622523,37.7999992371,0.2580155297665552,-0.09407541624280935,0.2572561785528428,37.7999992371,0.021869948989594594,0.37682119253392593,1.1251419619174436
1648295691365544564,60081,3,5,0.595536053181,-0.114272229373,0.0609118007123,0.404594063759,37.7999992371,0.19917593751872908,-0.03821813691404682,0.020371839703110368,37.7999992371,0.05467487348094594,0.28425821740472196,0.6094518689037661
1648295691365568955,60082,3,6,0.791488647461,-1.69943320751,0.0445530898869,-0.566431701183,37.7999992371,0.2647119222277592,-0.5683723102040134,0.014900698958829431,37.7999992371,-0.07654482448418919,0.6805820204396217,1.8752366473770292
1648295691365596787,60083,3,7,0.919753849506,-0.761814832687,0.243756979704,-0.161837622523,37.7999992371,0.3076099831123746,-0.2547875694605351,0.08152407347959865,37.7999992371,-0.021869948989594594,0.5041473088020978,1.2189037895328096
1648295691468595441,60084,4,0,0.0127121871337,0.0439508594573,0.0102246021852,0.0,16.7000007629,0.004251567603244147,0.014699284099431437,0.003419599393043478,16.7000007629,0.0,0.01588145482018912,0.04688091550517269
1648295691468625059,60085,4,1,0.0335142984986,0.0146502861753,-0.0293254330754,0.0,16.7000007629,0.011208795484481605,0.0048997612626421405,-0.00980783714896321,16.7000007629,0.0,0.016591619958785185,0.04688091417550657
1648295691468650002,60086,4,2,1.46852397919,-1.68478298187,0.706749558449,0.0,16.7000007629,0.491145143541806,-0.5634725691872909,0.23637108978227422,16.7000007629,0.0,0.8943983677735156,2.3440459278398653
1648295691468728846,60087,4,3,0.753549337387,-0.224149376154,0.130730465055,0.242756426334,16.7000007629,0.2520231897615385,-0.07496634653979932,0.04372256356354515,16.7000007629,0.03280492247756756,0.3642133021577962,0.7969755336270434
1648295691468746765,60088,4,4,0.543144643307,-0.303260922432,0.880723237991,0.242756426334,16.7000007629,0.1816537268585284,-0.10142505766956521,0.29455626688662206,16.7000007629,0.03280492247756756,0.27619412608971305,1.0782609668186767
1648295691468953158,60089,4,5,1.87328135967,-1.39177727699,0.219826951623,0.242756426334,16.7000007629,0.6265155049063544,-0.4654773501638796,0.0735207196063545,16.7000007629,0.03280492247756756,1.000855893369128,2.3440458463717477
1648295691468974479,60090,4,6,0.531371057034,-1.53828001022,-1.10828435421,0.485512852669,16.7000007629,0.17771607258662206,-0.51447491980602,-0.3706636636153846,16.7000007629,0.06560984495527027,0.5725822631034232,1.9689984255662956
1648295691468980779,60091,4,7,0.548756361008,1.66134238243,0.903195917606,0.485512852669,16.7000007629,0.1835305555210702,0.5556329038227424,0.30207221324615385,16.7000007629,0.06560984495527027,0.613265728237147,1.9689984563186114
1648295691469004097,60092,4,8,0.100679665804,-0.082041606307,-0.643354952335,-0.566431701183,16.7000007629,0.033672129031438125,-0.027438664316722407,-0.21516888037959864,16.7000007629,-0.07654482448418919,0.05495911977556966,0.6563328537912817
1648295691469027886,60093,4,9,0.629609823227,0.184593617916,0.0170148741454,-0.566431701183,16.7000007629,0.21057184723311034,0.061736995958528426,0.0056905933596655515,16.7000007629,-0.07654482448418919,0.30412573446571745,0.6563328722694272
1648295691570477644,60094,5,0,0.0127121871337,0.0439508594573,0.0102246021852,0.0,42.2999992371,0.004251567603244147,0.014699284099431437,0.003419599393043478,42.2999992371,0.0,0.01588145482018912,0.04688091550517269
1648295691570511790,60095,5,1,0.0335276499391,0.0146502861753,-0.0293101686984,0.0,42.2999992371,0.011213260849197323,0.0048997612626421405,-0.009802732006153845,42.2999992371,0.0,0.01659765339363283,0.0468809149290592
1648295691570525174,60096,5,2,1.42014539242,-1.68478298187,0.799527704716,0.0,42.2999992371,0.4749650141872909,-0.5634725691872909,0.26740057013913043,42.2999992371,0.0,0.8767467511376322,2.3440459001945673
1648295691570560306,60097,5,3,2.24007606506,-1.2306240797,0.599990546703,0.0,42.2999992371,0.7491893194180601,-0.4115799597658863,0.20066573468327759,42.2999992371,0.0,1.1366474105636633,2.6253314188736496
1648295691570568977,60098,5,4,0.807026088238,-0.167013257742,0.337977319956,0.242756426334,42.2999992371,0.2699083907150502,-0.05585727683678929,0.1130358929618729,42.2999992371,0.03280492247756756,0.38577339738815336,0.8907374496241663
1648295691570594123,60099,5,5,0.822578012943,-0.281285494566,0.714274704456,0.242756426334,42.2999992371,0.27510970332541806,-0.09407541624280935,0.23888786102207357,42.2999992371,0.03280492247756756,0.4002760068613368,1.1251419778215548
1648295691570653865,60100,5,6,1.33226644993,-0.67244809866,-1.86799609661,0.323675245047,42.2999992371,0.4455740635217391,-0.2248990296521739,-0.6247478583979933,42.2999992371,0.04373989797932432,0.6690680576032897,2.3909265475858374
1648295691570673423,60101,5,7,0.699991822243,0.0659262910485,-0.0132196052,0.485512852669,42.2999992371,0.234110977338796,0.022048926772073575,-0.004421272642140468,42.2999992371,0.06560984495527027,0.3318162964546087,0.7032137548570357
1648295691570707190,60102,5,8,0.854274392128,-0.720794081688,-1.56371581554,0.566431701183,42.2999992371,0.2857104990394649,-0.24106825474515048,-0.5229818781070233,42.2999992371,0.07654482448418919,0.47050492236387165,1.9221175814741507
1648295691570733947,60103,5,9,0.0886173322797,-0.281285494566,-1.47091579437,-0.566431701183,42.2999992371,0.029637903772474918,-0.09407541624280935,-0.49194508172909696,42.2999992371,-0.07654482448418919,0.10299026469191544,1.5001892664463168
1648295691570758871,60104,5,10,1.47168076038,0.281285494566,-0.0748476609588,-0.566431701183,42.2999992371,0.4922009232040133,0.09407541624280935,-0.02503266252802675,42.2999992371,-0.07654482448418919,0.7024056388918186,1.5001893088130236
1648295691765675085,60105,7,0,0.0127121871337,0.0439508594573,0.0102246021852,0.0,20.6000003815,0.004251567603244147,0.014699284099431437,0.003419599393043478,20.6000003815,0.0,0.01588145482018912,0.04688091550517269
1648295691765692809,60106,7,1,0.0335142984986,0.0146502861753,-0.0293254330754,0.0,20.6000003815,0.011208795484481605,0.0048997612626421405,-0.00980783714896321,20.6000003815,0.0,0.016591619958785185,0.04688091417550657
1648295691765763438,60107,7,2,1.29748272896,-1.7580344677,0.848766446114,0.0,20.6000003815,0.4339407120267558,-0.5879713938795986,0.28386837662675585,20.6000003815,0.0,0.8498937834396095,2.344045883002229
1648295691765774084,60108,7,3,2.03360772133,-0.879017233849,-0.765715062618,0.0,20.6000003815,0.6801363616488294,-0.29398569693946486,-0.2560919941866221,20.6000003815,0.0,1.0057825465172865,2.3440459079925526
1648295691765796062,60109,7,4,2.23926281929,-1.2306240797,0.603018820286,0.0,20.6000003815,0.7489173308662207,-0.4115799597658863,0.201678535212709,20.6000003815,0.0,1.136288871821095,2.6253314642176497
1648295691765808110,60110,7,5,0.858805954456,-0.0278355441988,0.234714031219,0.161837622523,20.6000003815,0.2872260717244147,-0.009309546554782609,0.07849967599297658,20.6000003815,0.021869948989594594,0.4063056733710876,0.8907374256092523
1648295691765821698,60111,7,6,0.707537889481,-0.109877154231,0.927876532078,0.242756426334,20.6000003815,0.2366347456458194,-0.0367482121173913,0.31032659935719065,20.6000003815,0.03280492247756756,0.3366636849848051,1.1720229148161851
1648295691765857759,60112,7,7,1.20491588116,-0.356001973152,0.153790429235,0.404594063759,20.6000003815,0.4029819000535117,-0.11906420506755852,0.051434926165551835,20.6000003815,0.05467487348094594,0.5822071010129013,1.2657848086005703
1648295691766056497,60113,7,8,0.745451033115,0.0234404578805,0.0799709185958,-0.0809188112617,20.6000003815,0.24931472679431438,0.007839618020234113,0.026746126620668893,20.6000003815,-0.010934974494824324,0.3526714130798673,0.7500946911283431
1648295691868872019,60114,8,0,0.0127334436402,0.0439508594573,0.0101981181651,0.0,13.3000001907,0.004258676802742474,0.014699284099431437,0.003410741861237458,13.3000001907,0.0,0.015885263902631005,0.0468809156062766
1648295691868927116,60115,8,1,0.0335142984986,0.0146502861753,-0.0293254330754,0.0,13.3000001907,0.011208795484481605,0.0048997612626421405,-0.00980783714896321,13.3000001907,0.0,0.016591619958785185,0.04688091417550657
1648295691868980164,60116,8,2,0.716296136379,0.0234404578805,0.221387386322,0.0,13.3000001907,0.23956392521036787,0.007839618020234113,0.07404260412107024,13.3000001907,0.0,0.3388852433126893,0.7500946506139188
1648295691868994684,60117,8,3,0.965362071991,-0.12306240201,0.148897111416,0.0,13.3000001907,0.32286356922775916,-0.04115799398327759,0.049798365022073576,13.3000001907,0.0,0.4584492874219607,0.9844991795909513
1648295691869003909,60118,8,4,1.38368582726,-1.68478298187,0.861087143421,0.0,13.3000001907,0.46277117968561865,-0.5634725691872909,0.28798901117759196,13.3000001907,0.0,0.8636061982881807,2.344045911052916
1648295691869105269,60119,8,5,2.04844355583,-0.879017233849,-0.725092351437,0.0,13.3000001907,0.6850981792073578,-0.29398569693946486,-0.24250580315618728,13.3000001907,0.0,1.012495244587083,2.3440459076002416
1648295691869560491,60120,8,6,2.24325156212,-1.2306240797,0.588006675243,0.0,13.3000001907,0.7502513585685618,-0.4115799597658863,0.1966577509173913,13.3000001907,0.0,1.1380475672610675,2.6253314165304196
1648295691869770888,60121,8,7,0.889371216297,-0.0278355441988,-0.0407083593309,0.161837622523,13.3000001907,0.29744856732341135,-0.009309546554782609,-0.013614835896622072,13.3000001907,0.021869948989594594,0.42075880033881125,0.8907374183326207
1648295691869804345,60122,8,8,0.828131377697,1.76389443874,0.516376435757,0.242756426334,13.3000001907,0.2769670159521739,0.5899312504147156,0.17270114908260867,13.3000001907,0.03280492247756756,0.7081245201705513,2.015879409376794
1648295691869815755,60123,8,9,1.49779605865,-0.228544458747,1.9097853899,-0.161837622523,13.3000001907,0.5009351366722408,-0.07643627382842809,0.6387242106688963,13.3000001907,-0.021869948989594594,0.712540894449187,2.4378075884710277
1648295691968668936,60124,9,0,0.0127121871337,0.0439508594573,0.0102246021852,0.0,16.6000003815,0.004251567603244147,0.014699284099431437,0.003419599393043478,16.6000003815,0.0,0.01588145482018912,0.04688091550517269
1648295691968710184,60125,9,1,0.0335276499391,0.0146502861753,-0.0293101686984,0.0,16.6000003815,0.011213260849197323,0.0048997612626421405,-0.009802732006153845,16.6000003815,0.0,0.01659765339363283,0.0468809149290592
1648295691968744353,60126,9,2,1.38124537468,-1.68478298187,0.864996433258,0.0,16.6000003815,0.4619549748093645,-0.5634725691872909,0.28929646597257525,16.6000003815,0.0,0.8627317855097073,2.3440459275839123
1648295691968926732,60127,9,3,2.05713820457,-0.879017233849,-0.700044870377,0.0,16.6000003815,0.6880060884849498,-0.29398569693946486,-0.2341287191896321,16.6000003815,0.0,1.0164311809412894,2.344046012911475
1648295691968947924,60128,9,4,2.23682570457,-1.2306240797,0.611997067928,0.0,16.6000003815,0.7481022423311037,-0.4115799597658863,0.20468129362140466,16.6000003815,0.0,1.1352145141965635,2.625331458942855
1648295691968959417,60129,9,5,0.885688602924,0.0556710883975,0.0766133069992,0.161837622523,16.6000003815,0.29621692405484945,0.018619093109531772,0.02562317959839465,16.6000003815,0.021869948989594594,0.41932756029296986,0.8907374305833246
1648295691968981771,60130,9,6,0.425712555647,1.93383789062,0.577944636345,0.323675245047,16.6000003815,0.1423787811528428,0.6467685252909698,0.1932925205167224,16.6000003815,0.04373989797932432,0.6773868613666744,2.0627603277921227
1648295691969027870,60131,9,7,1.03322672844,0.679773271084,-0.564550817013,-0.647350490093,16.6000003815,0.34556077874247493,0.22734892009498325,-0.1888129822785953,16.6000003815,-0.08747979595851352,0.5389916836821942,1.3595465411059353
1648295691969198299,60132,9,8,1.06940436363,0.169943317771,0.822107315063,-0.647350490093,16.6000003815,0.3576603222842809,0.05683723002374581,0.27495227928528426,16.6000003815,-0.08747979595851352,0.5089914370495475,1.3595465647361973
1648295691969212770,60133,9,9,0.715827703476,0.0234404578805,0.222897440195,-0.0809188112617,16.6000003815,0.2394072586876254,0.007839618020234113,0.07454763886120401,16.6000003815,-0.010934974494824324,0.33866374272329536,0.7500946773407042
1648295692070543850,60134,10,0,0.0127121871337,0.0439508594573,0.0102246021852,0.0,20.2000007629,0.004251567603244147,0.014699284099431437,0.003419599393043478,20.2000007629,0.0,0.01588145482018912,0.04688091550517269
1648295692070617211,60135,10,1,0.0334914848208,0.0146502861753,-0.0293514840305,0.0,20.2000007629,0.011201165491906353,0.0048997612626421405,-0.009816549842976587,20.2000007629,0.0,0.016581311081607385,0.04688091355032194
1648295692070635621,60136,10,2,0.710717737675,0.046880915761,0.235211446881,0.0,20.2000007629,0.2376982400250836,0.015679236040468225,0.07866603574615384,20.2000007629,0.0,0.3365215372971799,0.7500946257988479
1648295692070647210,60137,10,3,1.38648986816,-1.68478298187,0.856564819813,0.0,20.2000007629,0.4637089860066889,-0.5634725691872909,0.2864765283655518,20.2000007629,0.0,0.8646116952905677,2.344045891413046
1648295692070667183,60138,10,4,2.05094814301,-0.879017233849,-0.717977702618,0.0,20.2000007629,0.6859358337826086,-0.29398569693946486,-0.24012632194581937,20.2000007629,0.0,1.0136288897516033,2.3440459816685197
1648295692070701369,60139,10,5,2.24127459526,-1.2306240797,0.595497608185,0.0,20.2000007629,0.749590165638796,-0.4115799597658863,0.1991630796605351,20.2000007629,0.0,1.1371758422186447,2.6253313768454842
1648295692070729539,60140,10,6,0.838546574116,0.139177724719,0.266237407923,0.0809188112617,20.2000007629,0.2804503592361204,0.04654773401973244,0.08904261134548494,20.2000007629,0.010934974494824324,0.3993388279815897,0.8907374211276833
1648295692070770732,60141,10,7,0.926275491714,0.117202289402,-0.0860550031066,0.242756426334,20.2000007629,0.3097911343525083,0.03919809010100334,-0.02878093749384615,20.2000007629,0.03280492247756756,0.43986086904201205,0.9376183267997483
1648295692070802694,60142,10,8,0.949786126614,0.835066318512,-0.615312039852,-0.647350490093,20.2000007629,0.3176542229478261,0.2792863941511705,-0.20578997988361203,20.2000007629,-0.08747979595851352,0.5289700375929977,1.4064275128880406
1648295692070827984,60143,10,9,1.05846166611,0.351606875658,0.856778681278,-0.647350490093,20.2000007629,0.3540005572274247,0.11759427279531771,0.2865480539391304,20.2000007629,-0.08747979595851352,0.514257913919576,1.4064274607411524
1648295692070967579,60144,10,10,0.691483855247,-0.0,0.127905040979,-0.0809188112617,20.2000007629,0.23126550342709026,-0.0,0.04277760567859531,20.2000007629,-0.010934974494824324,0.32705881145563254,0.7032137808483944
1648295692168693727,60145,11,0,0.0127121871337,0.0439508594573,0.0102246021852,0.0,19.2000007629,0.004251567603244147,0.014699284099431437,0.003419599393043478,19.2000007629,0.0,0.01588145482018912,0.04688091550517269
1648295692168737341,60146,11,1,0.0335276499391,0.0146502861753,-0.0293101686984,0.0,19.2000007629,0.011213260849197323,0.0048997612626421405,-0.009802732006153845,19.2000007629,0.0,0.01659765339363283,0.0468809149290592
1648295692168753396,60147,11,2,0.695137679577,0.0659262910485,0.0833480358124,0.0,19.2000007629,0.23248751825317723,0.022048926772073575,0.027875597261672238,19.2000007629,0.0,0.3295254883295723,0.7032137402617304
1648295692168813764,60148,11,3,1.87157034874,-0.117202289402,-0.000448608712759,0.0,19.2000007629,0.6259432604481605,-0.03919809010100334,-0.00015003635878227425,19.2000007629,0.0,0.8860848835571644,1.875236557923723
1648295692168848086,60149,11,4,2.24015617371,-1.2306240797,0.599690794945,0.0,19.2000007629,0.7492161116086956,-0.4115799597658863,0.20056548325919732,19.2000007629,0.0,1.1366827292912458,2.625331285321962
1648295692168876368,60150,11,5,0.880029380322,0.175803437829,0.271605432034,0.0809188112617,19.2000007629,0.2943242074655518,0.05879713639765886,0.09083793713511705,19.2000007629,0.010934974494824324,0.42036957721630536,0.9376182963726732
1648295692168949613,60151,11,6,0.433423727751,-1.90746724606,0.225094094872,0.242756426334,19.2000007629,0.14495776847859532,-0.6379489117257524,0.07528230597725752,19.2000007629,0.03280492247756756,0.6700778486539156,1.968998419023118
1648295692268566897,60152,12,0,0.0127121871337,0.0439508594573,0.0102246021852,0.0,18.2999992371,0.004251567603244147,0.014699284099431437,0.003419599393043478,18.2999992371,0.0,0.01588145482018912,0.04688091550517269
1648295692268594989,60153,12,1,0.0335142984986,0.0146502861753,-0.0293254330754,0.0,18.2999992371,0.011208795484481605,0.0048997612626421405,-0.00980783714896321,18.2999992371,0.0,0.016591619958785185,0.04688091417550657
1648295692268603477,60154,12,2,1.03728544712,0.210964113474,0.381415188313,0.0,18.2999992371,0.3469182097391304,0.07055655969030099,0.1275636081314381,18.2999992371,0.0,0.4956639149792302,1.125141991864427
1648295692268626812,60155,12,3,2.2398045063,-1.2306240797,0.601002812386,0.0,18.2999992371,0.749098497090301,-0.4115799597658863,0.20100428507892973,18.2999992371,0.0,1.136527685525867,2.625331261474472
1648295692268875574,60156,12,4,0.701146304607,0.164083212614,0.210029751062,0.242756426334,18.2999992371,0.234497091841806,0.054877328633444813,0.07024406390033444,18.2999992371,0.03280492247756756,0.3361388007393254,0.7500946190027954
1648295692268891067,60157,12,5,0.877334475517,0.32230630517,0.074370495975,0.242756426334,18.2999992371,0.2934229015107023,0.10779475089297658,0.024873075576923077,18.2999992371,0.03280492247756756,0.4287350074136675,0.9376183162431256
1648295692268928788,60158,12,6,1.61698997021,0.0864366889,-2.24242830276,0.323675245047,18.2999992371,0.5407993211404681,0.02890859160535117,-0.7499760209899665,18.2999992371,0.04373989797932432,0.7653518917207871,2.765974070371381
1648295692269068353,60159,12,7,1.59448266029,-1.1236770153,-1.96101689339,0.323675245047,18.2999992371,0.5332717927391304,-0.37581171080267556,-0.6558584927725752,18.2999992371,0.04373989797932432,0.8426102609384993,2.7659740137680178
1648295692269094720,60160,12,8,0.774726748466,-1.88695681095,0.699842512608,0.485512852669,18.2999992371,0.259105935941806,-0.631089234431438,0.23406104100602004,18.2999992371,0.06560984495527027,0.7297570786883928,2.156521987746189
1648295692269125142,60161,12,9,2.12880301476,0.134782627225,0.317202955484,0.485512852669,18.2999992371,0.7119742524280935,0.04507780174749164,0.10608794497792642,18.2999992371,0.06560984495527027,1.007892196840253,2.1565218170055043
1648295692269192989,60162,12,10,0.809340953827,0.219754308462,0.818726539612,-0.0809188112617,18.2999992371,0.27068259325317723,0.0734964242347826,0.27382158515451505,18.2999992371,-0.010934974494824324,0.3897946343343237,1.1720229871014687
1648295692368629029,60163,13,0,0.0127534996718,0.0439508594573,0.0101730246097,0.0,18.1000003815,0.004265384505618729,0.014699284099431437,0.0034023493677926417,18.1000003815,0.0,0.015888862860423413,0.04688091542006727
1648295692368688862,60164,13,1,0.0335276499391,0.0146502861753,-0.0293101686984,0.0,18.1000003815,0.011213260849197323,0.0048997612626421405,-0.009802732006153845,18.1000003815,0.0,0.01659765339363283,0.0468809149290592
1648295692368725032,60165,13,2,1.87059009075,-0.117202289402,0.0605686381459,0.0,18.1000003815,0.6256154149665552,-0.03919809010100334,0.020257069614013377,18.1000003815,0.0,0.8856216941533877,1.8752365781895393
1648295692368939954,60166,13,3,2.19388628006,-1.31266570091,0.596771538258,0.0,18.1000003815,0.7337412307892976,-0.4390186290668896,0.19958914323010032,18.1000003815,0.0,1.126716354806372,2.6253313164352927
1648295692368966237,60167,13,4,0.985186338425,0.293005734682,0.563199102879,0.0809188112617,18.1000003815,0.32949375867056857,0.09799522899063544,0.1883609039729097,18.1000003815,0.010934974494824324,0.47616734338953237,1.1720229142211802
1648295692368977032,60168,13,5,0.787353754044,0.732514321804,-0.465977102518,0.0809188112617,18.1000003815,0.26332901473043474,0.24498806749297658,-0.15584518478862874,18.1000003815,0.010934974494824324,0.4457617000278807,1.1720229629688252
1648295692369006668,60169,13,6,0.89291882515,0.399952799082,0.109418645501,0.242756426334,18.1000003815,0.2986350585785953,0.13376347795384613,0.036594864716053506,18.1000003815,0.03280492247756756,0.44301068210460925,0.9844992177671125
1648295692369048064,60170,13,7,1.52939736843,-0.966918885708,-2.1536397934,0.323675245047,18.1000003815,0.5115041365986621,-0.3233842427117057,-0.7202808673578595,18.1000003815,0.04373989797932432,0.7923700725982203,2.812854920150594
1648295692369057848,60171,13,8,1.43536245823,0.263705164194,-2.40465116501,0.323675245047,18.1000003815,0.48005433385618723,0.0881957070882943,-0.8042311588662208,18.1000003815,0.04373989797932432,0.6846041262342929,2.8128549599121895
1648295692369072624,60172,13,9,1.17964673042,-1.7902649641,0.508300960064,0.485512852669,18.1000003815,0.3945306790702341,-0.5987508241137123,0.1700003210916388,18.1000003815,0.06560984495527027,0.8184201016788931,2.203403030831299
1648295692369158696,60173,13,10,2.17997956276,0.206569030881,0.244956061244,0.485512852669,18.1000003815,0.7290901547692307,0.06908663240167225,0.08192510409498327,18.1000003815,0.06560984495527027,1.0334011178334603,2.203403079445649
1648295692369173368,60174,13,11,0.710443735123,0.323771327734,0.160037115216,0.566431701183,18.1000003815,0.23760660037558526,0.10828472499464883,0.05352411880133779,18.1000003815,0.07654482448418919,0.35304302110543534,0.7969755652997247
1648295692369180796,60175,13,12,1.33183825016,0.212429150939,0.171602919698,-0.404594063759,18.1000003815,0.445430852896321,0.07104653877558528,0.057392280835451503,18.1000003815,-0.05467487348094594,0.633928150578501,1.359546553379763
1648295692468540009,60176,14,0,0.0127323288471,0.0439508594573,0.0101995095611,0.0,29.8999996185,0.004258303962240802,0.014699284099431437,0.003411207211070234,29.8999996185,0.0,0.015885064000672747,0.046880915522129064
1648295692468592429,60177,14,1,0.0335276499391,0.0146502861753,-0.0293101686984,0.0,29.8999996185,0.011213260849197323,0.0048997612626421405,-0.009802732006153845,29.8999996185,0.0,0.01659765339363283,0.0468809149290592
1648295692468636581,60178,14,2,1.91955125332,-0.0600661747158,-0.0790632516146,0.0,29.8999996185,0.6419903857257525,-0.020089021644080267,-0.02644255906842809,29.8999996185,0.0,0.9081337343801392,1.9221175711239014
1648295692468685596,60179,14,3,2.19614505768,-1.31266570091,0.588405072689,0.0,29.8999996185,0.7344966748093644,-0.4390186290668896,0.1967909942103679,29.8999996185,0.0,1.1277003534981258,2.6253313859937717
1648295692468719573,60180,14,4,1.56411993504,-0.879017174244,-2.16633582115,0.242756426334,29.8999996185,0.5231170351304347,-0.29398567700468226,-0.7245270304849498,29.8999996185,0.03280492247756756,0.7960718831683571,2.8128550004938195
1648295692468736690,60181,14,5,1.76202607155,0.527410328388,-2.12820482254,0.242756426334,29.8999996185,0.589306378444816,0.1763914141765886,-0.7117741881404681,29.8999996185,0.03280492247756756,0.8518673290757818,2.8128550083491284
1648295692468744323,60182,14,6,0.854207754135,0.430718421936,0.232485413551,0.323675245047,29.8999996185,0.2856882120852843,0.14405298392508362,0.07775431891337792,29.8999996185,0.04373989797932432,0.4289367916449849,0.9844992197728641
1648295692468751993,60183,14,7,1.76416790485,-1.92065250874,0.582686066628,0.323675245047,29.8999996185,0.5900227106521739,-0.6423586985752507,0.19487828315317726,29.8999996185,0.04373989797932432,1.0530329034773642,2.67221210012875
1648295692468808233,60184,14,8,1.34385097027,-1.68771290779,0.639896512032,0.404594063759,29.8999996185,0.4494484850401337,-0.5644524775217391,0.2140122113819398,29.8999996185,0.05467487348094594,0.8500673389739027,2.2502839455338335
1648295692468824119,60185,14,9,0.258777320385,0.34281668067,-0.726364076138,-0.485512852669,29.8999996185,0.08654759879096989,0.1146544082508361,-0.2429311291431438,29.8999996185,-0.06560984495527027,0.16770988952448446,0.8438564742863848
1648295692468848298,60186,14,10,0.512308299541,0.659262835979,0.122500710189,-0.485512852669,29.8999996185,0.17134056840836118,0.22048924280234114,0.040970137186956516,29.8999996185,-0.06560984495527027,0.32761362449774634,0.8438564479095211
1648295692468873551,60187,14,11,1.27750968933,0.246124818921,0.174593091011,-0.485512852669,29.8999996185,0.42726076566220733,0.08231599295016721,0.05839233813076923,29.8999996185,-0.06560984495527027,0.6098191916001687,1.3126656772574286
1648295692468938802,60188,14,12,1.3122729063,0.254914969206,0.247638881207,-0.323675245047,29.8999996185,0.438887259632107,0.0852558425438127,0.08282236829665551,29.8999996185,-0.04373989797932432,0.626508269716064,1.3595465558853803
1648295692570547447,60189,15,0,0.0127121871337,0.0439508594573,0.0102246021852,0.0,24.2999992371,0.004251567603244147,0.014699284099431437,0.003419599393043478,24.2999992371,0.0,0.01588145482018912,0.04688091550517269
1648295692570601786,60190,15,1,0.0335276499391,0.0146502861753,-0.0293101686984,0.0,24.2999992371,0.011213260849197323,0.0048997612626421405,-0.009802732006153845,24.2999992371,0.0,0.01659765339363283,0.0468809149290592
1648295692570655845,60191,15,2,0.331596434116,1.317060709,0.0613328553736,0.0,24.2999992371,0.11090181743010032,0.44048853143812705,0.02051266066006689,24.2999992371,0.0,0.467577343919823,1.3595465514127525
1648295692570713581,60192,15,3,1.17151248455,0.38237246871,0.574209690094,0.0,24.2999992371,0.39181019550167223,0.1278837687993311,0.19204337461337792,24.2999992371,0.0,0.5686692509011174,1.3595466062190518
1648295692570803097,60193,15,4,1.87115216255,-0.0586011447012,-0.108940847218,0.0,24.2999992371,0.6258033988461538,-0.019599045050568562,-0.03643506595919732,24.2999992371,0.0,0.8852366410071889,1.8752366831332008
1648295692570829674,60194,15,5,2.24112844467,-1.2306240797,0.596047818661,0.0,24.2999992371,0.7495412858428093,-0.4115799597658863,0.19934709654214045,24.2999992371,0.0,1.1371114024785225,2.6253314711055027
1648295692570848718,60195,15,6,0.891365170479,0.36918720603,0.195978671312,0.242756426334,24.2999992371,0.29811544163177256,0.12347398194983276,0.06554470612441471,24.2999992371,0.03280492247756756,0.43930792992747264,0.9844992127211232
1648295692570862109,60196,15,7,1.63517570496,-0.80430072546,-2.20394897461,0.242756426334,24.2999992371,0.5468815066755852,-0.26899689814715716,-0.7371066804715718,24.2999992371,0.03280492247756756,0.8188516934709901,2.8597360587563645
1648295692570868549,60197,15,8,1.50737559795,0.625567257404,-2.34831309319,0.242756426334,24.2999992371,0.5041389959698996,0.20921981852976587,-0.7853889943779263,24.2999992371,0.03280492247756756,0.7430243515395072,2.859735996640016
1648295692570878043,60198,15,9,0.948621273041,0.50543487072,-0.0854400023818,0.323675245047,24.2999992371,0.3172646398130434,0.16904176278260868,-0.028575251632709027,24.2999992371,0.04373989797932432,0.4794672261125385,1.0782609712925126
1648295692571012410,60199,15,10,0.425022929907,0.820416033268,0.1593773067,-0.404594063759,24.2999992371,0.14214813709264215,0.27438663319999995,0.05330344705685618,24.2999992371,-0.05467487348094594,0.3401473360716625,0.9376183042586554
1648295692571036578,60200,15,11,0.221722841263,0.498109728098,-0.762793421745,-0.404594063759,24.2999992371,0.0741547964090301,0.1665918823070234,-0.255114856770903,24.2999992371,-0.05467487348094594,0.19685203303884505,0.9376183252374318
1648295692571067785,60201,15,12,1.22314715385,0.237334638834,0.223146259785,-0.323675245047,24.2999992371,0.4090793156688963,0.07937613338929765,0.07463085611538461,24.2999992371,-0.04373989797932432,0.583945497086929,1.2657847147196302
1648295692571095887,60202,15,13,1.23615682125,0.287145614624,0.335492134094,-0.161837622523,24.2999992371,0.41343037499999996,0.0960353226167224,0.11220472712173914,24.2999992371,-0.021869948989594594,0.5925134033381685,1.3126657086858198
