%time,field.header.seq,field.header.frame_id,field.point_id,field.x,field.y,field.z,field.velocity,field.intensity,normalized_x,normalized_y,normalized_z,normalized_intensity,normalized_velocity,normalized_range,range
1648127409005823860,107963,0,0,0.0125890737399,0.0439508594573,0.0103758089244,0.0,12.6000003815,0.004210392555150501,0.014699284099431437,0.003470170208829431,12.6000003815,0.0,0.01585950074790286,0.0468809154720728
1648127409005845606,107964,0,1,0.032785564661,0.0146502861753,-0.0301379524171,0.0,12.6000003815,0.010965071792976589,0.0048997612626421405,-0.010079582748193979,12.6000003815,0.0,0.01626263383591816,0.04688091627788627
1648127409005850606,107965,0,2,0.686215102673,-0.448298752308,0.200575977564,0.0,12.6000003815,0.22950337882040134,-0.14993269307959864,0.06708226674381271,12.6000003815,0.0,0.3575240051158277,0.8438564221674086
1648127409005860996,107966,0,3,0.890204966068,-0.515690088272,0.0731015130877,0.0,12.6000003815,0.2977274134006689,-0.17247160142876253,0.024448666584515052,12.6000003815,0.0,0.4550051413774437,1.031380133592762
