%time,field.header.seq,field.header.frame_id,field.point_id,field.x,field.y,field.z,field.velocity,field.intensity,normalized_x,normalized_y,normalized_z,normalized_intensity,normalized_velocity,normalized_range,range
1648217908904924301,12581,0,0,0.0334331989288,0.0146502861753,-0.029417861253,0.0,19.1000003815,0.011181671882541804,0.0048997612626421405,-0.009838749582943142,19.1000003815,0.0,0.016554976067893922,0.0468809154809466
1648217908904934419,12582,0,1,0.00445279618725,0.0454158857465,0.0107419816777,0.0,19.1000003815,0.0014892294940635452,0.015189259446989964,0.003592636012608695,19.1000003815,0.0,0.015334575687639726,0.04688091554554339
1648217908904938318,12583,0,2,1.20654881001,1.37126672268,-0.0821710899472,0.0,19.1000003815,0.4035280301036789,0.4586176330033444,-0.02748196988200669,19.1000003815,0.0,0.7321201236547876,1.8283556939745629
1648217908904940368,12584,0,3,2.40012741089,-0.984499275684,0.403131753206,0.0,19.1000003815,0.8027181976220735,-0.32926397180066885,0.13482667331304346,19.1000003815,0.0,1.1820015959012966,2.6253315262592647
1648217908904965207,12585,0,4,1.0684940815,-0.632892370224,0.244905591011,-0.161837622523,19.1000003815,0.35735588010033437,-0.21166968903812708,0.08190822441839465,19.1000003815,-0.021869948989594594,0.5479146898396378,1.265784777518172
1648217909009999097,12586,1,0,0.0334331989288,0.0146502861753,-0.029417861253,0.0,32.5999984741,0.011181671882541804,0.0048997612626421405,-0.009838749582943142,32.5999984741,0.0,0.016554976067893922,0.0468809154809466
1648217909010006914,12587,1,1,0.00445279618725,0.0454158857465,0.0107419816777,0.0,32.5999984741,0.0014892294940635452,0.015189259446989964,0.003592636012608695,32.5999984741,0.0,0.015334575687639726,0.04688091554554339
1648217909010013047,12588,1,2,1.14114201069,1.4284029007,-0.0185599084944,0.0,32.5999984741,0.3816528463846154,0.47772672264214044,-0.006207327255652173,32.5999984741,0.0,0.7207916563288994,1.8283556561821093
1648217909010040968,12589,1,3,1.3613986969,-0.448298752308,-0.697353601456,-0.566431701183,32.5999984741,0.4553172899331103,-0.14993269307959864,-0.2332286292494983,32.5999984741,-0.07654482448418919,0.6611410450714471,1.5939511374899737
1648217909010056125,12590,1,4,1.00768840313,-0.593336582184,0.484486103058,-0.242756426334,32.5999984741,0.33701953281939795,-0.19844032848963208,0.16203548597257525,32.5999984741,-0.03280492247756756,0.5162779241597335,1.2657847374719
1648217909204953646,12591,3,0,0.033512763679,0.0146502861753,-0.0293271858245,0.0,35.7999992371,0.011208282166889632,0.0048997612626421405,-0.009808423352675585,35.7999992371,0.0,0.01659092639656149,0.046880913416948715
1648217909204957921,12592,3,1,0.00445279618725,0.0454158857465,0.0107419816777,0.0,35.7999992371,0.0014892294940635452,0.015189259446989964,0.003592636012608695,35.7999992371,0.0,0.015334575687639726,0.04688091554554339
1648217909204960037,12593,3,2,1.14129173756,1.4284029007,-0.00168480747379,0.0,35.7999992371,0.38170292226086955,0.47772672264214044,-0.0005634807604648829,35.7999992371,0.0,0.7208446873296462,1.8283556862730845
1648217909204963798,12594,3,3,1.04666674137,-0.476134330034,0.226765632629,-0.566431701183,35.7999992371,0.35005576634448154,-0.15924225084749163,0.07584134870535117,35.7999992371,-0.07654482448418919,0.5200347811031681,1.1720229604699095
1648217909205167167,12595,3,4,1.28327727318,-0.234404578805,-0.740825176239,-0.404594063759,35.7999992371,0.42918972347157186,-0.07839618020234114,-0.24776761747123743,35.7999992371,-0.05467487348094594,0.6120078418921824,1.5001893241103241
1648217909310213415,12596,4,0,0.033512763679,0.0146502861753,-0.0293271858245,0.0,13.8000001907,0.011208282166889632,0.0048997612626421405,-0.009808423352675585,13.8000001907,0.0,0.01659092639656149,0.046880913416948715
1648217909310217955,12597,4,1,0.00445279618725,0.0454158857465,0.0107419816777,0.0,13.8000001907,0.0014892294940635452,0.015189259446989964,0.003592636012608695,13.8000001907,0.0,0.015334575687639726,0.04688091554554339
1648217909310221407,12598,4,2,2.12530469894,-1.14272224903,0.346657603979,0.0,13.8000001907,0.7108042471371236,-0.3821813541906354,0.11593899798628761,13.8000001907,0.0,1.0754291901317046,2.437807559296075
1648217909310230584,12599,4,3,1.10523509979,-0.961058795452,1.24473178387,0.242756426334,13.8000001907,0.369643846083612,-0.3214243463050167,0.4162982554749164,13.8000001907,0.03280492247756756,0.6136666491610714,1.92211754268558
1648217909310232443,12600,4,4,0.952510237694,-0.386767566204,0.082946293056,-0.566431701183,13.8000001907,0.3185652968876254,-0.1293537010715719,0.02774123513578595,13.8000001907,-0.07654482448418919,0.46872174767458297,1.0313801387999373
1648217909310329157,12601,4,5,1.05762255192,-0.351606875658,0.154115557671,-0.485512852669,13.8000001907,0.3537199170301003,-0.11759427279531771,0.05154366477290969,13.8000001907,-0.06560984495527027,0.5138715524348684,1.1251419743552353
1648217909505403217,12602,6,0,0.0334331989288,0.0146502861753,-0.029417861253,0.0,31.8999996185,0.011181671882541804,0.0048997612626421405,-0.009838749582943142,31.8999996185,0.0,0.016554976067893922,0.0468809154809466
1648217909505411859,12603,6,1,0.00445279618725,0.0454158857465,0.0107419816777,0.0,31.8999996185,0.0014892294940635452,0.015189259446989964,0.003592636012608695,31.8999996185,0.0,0.015334575687639726,0.04688091554554339
1648217909505414646,12604,6,2,2.12418103218,-1.14272224903,0.353477776051,0.0,31.8999996185,0.7104284388561872,-0.3821813541906354,0.11821999199030099,31.8999996185,0.0,1.074932426230722,2.4378075670699344
1648217909505416368,12605,6,3,0.612304985523,0.164083212614,1.14945662022,0.242756426334,31.8999996185,0.2047842760946488,0.054877328633444813,0.38443365224749165,31.8999996185,0.03280492247756756,0.29476214253048477,1.3126656915321728
1648217909505417880,12606,6,4,1.24936842918,-0.328166425228,-0.233402058482,0.242756426334,31.8999996185,0.41784897296989965,-0.10975465726688963,-0.07806088912441471,31.8999996185,0.03280492247756756,0.6010337870833655,1.3126656830214845
1648217909505419193,12607,6,5,2.05662798882,-0.761814832687,-1.06434297562,0.242756426334,31.8999996185,0.6878354477658862,-0.2547875694605351,-0.35596755037458194,31.8999996185,0.03280492247756756,1.0055604964188884,2.437807722822158
1648217909505422900,12608,6,6,1.25755631924,-0.49224960804,1.432898283,0.323675245047,31.8999996185,0.42058739773913045,-0.16463197593311035,0.47923019498327757,31.8999996185,0.04373989797932432,0.6171638402997921,1.9689984921528862
1648217909505424404,12609,6,7,0.989041447639,-0.161153152585,0.244073286653,-0.404594063759,31.8999996185,0.33078309285585283,-0.05389737544648829,0.08162986175685617,31.8999996185,-0.05467487348094594,0.4708925950984866,1.0313801883852194
1648217909505425931,12610,6,8,0.165894761682,-0.77207005024,0.107502572238,-0.0809188112617,31.8999996185,0.05548319788695652,-0.25821740810702337,0.03595403753779264,31.8999996185,-0.010934974494824324,0.26987589804396284,0.7969755563810662
1648217909606468556,12611,7,0,0.0334331989288,0.0146502861753,-0.029417861253,0.0,11.6000003815,0.011181671882541804,0.0048997612626421405,-0.009838749582943142,11.6000003815,0.0,0.016554976067893922,0.0468809154809466
1648217909606473126,12612,7,1,0.00422143004835,0.0454158857465,0.0108349937946,0.0,11.6000003815,0.0014118495144983278,0.015189259446989964,0.0036237437440133774,11.6000003815,0.0,0.015319929525006054,0.04688091552349713
1648217909606583468,12613,7,2,0.94989323616,1.58223092556,0.332807123661,0.0,11.6000003815,0.31769004553846153,0.5291742225953177,0.11130673032140467,11.6000003815,0.0,0.6941752573578364,1.8752366366569526
1648217909606589466,12614,7,3,0.225882723927,0.879017174244,-1.64098083973,0.0,11.6000003815,0.07554606151404682,0.29398567700468226,-0.5488230233210702,11.6000003815,0.0,0.3127970477873307,1.875236602124
1648217909606592247,12615,7,4,2.09008741379,-1.21890377998,0.297849416733,0.0,11.6000003815,0.6990258908996655,-0.407660127083612,0.09961518954280936,11.6000003815,0.0,1.0693274388651817,2.4378076415462093
1648217909606595515,12616,7,5,0.684628903866,1.84593605995,-0.0275320578367,0.323675245047,11.6000003815,0.22897287754715714,0.6173699197157191,-0.009208046099230769,11.6000003815,0.04373989797932432,0.6971389926508518,1.9689983970641558
1648217909606599031,12617,7,6,1.9378349781,-0.533270418644,-1.37961018085,0.323675245047,11.6000003815,0.6481053438461538,-0.1783513105832776,-0.4614080872408027,11.6000003815,0.04373989797932432,0.9337506430684025,2.437807620148387
1648217909606602036,12618,7,7,1.21584796906,0.076181486249,-0.0404554419219,-0.485512852669,11.6000003815,0.40663811674247485,0.02547875794280936,-0.013530248134414715,11.6000003815,-0.06560984495527027,0.5756372843050053,1.2189038294695482
1648217909606621633,12619,7,8,0.88379329443,-0.0556710883975,0.0960383787751,-0.323675245047,11.6000003815,0.29558304161538457,-0.018619093109531772,0.03211985912210702,11.6000003815,-0.04373989797932432,0.41843200117752194,0.8907374627579916
1648217909606629624,12620,7,9,0.898650169373,-0.0,0.402077794075,-0.323675245047,11.6000003815,0.30055189611137123,-0.0,0.1344741786204013,11.6000003815,-0.04373989797932432,0.4250445676776507,0.9844992023370764
1648217909706253476,12621,8,0,0.0334331989288,0.0146502861753,-0.029417861253,0.0,39.7000007629,0.011181671882541804,0.0048997612626421405,-0.009838749582943142,39.7000007629,0.0,0.016554976067893922,0.0468809154809466
1648217909706266038,12622,8,1,0.00445279618725,0.0454158857465,0.0107419816777,0.0,39.7000007629,0.0014892294940635452,0.015189259446989964,0.003592636012608695,39.7000007629,0.0,0.015334575687639726,0.04688091554554339
1648217909706271336,12623,8,2,0.979654967785,1.58223092556,0.230941191316,0.0,39.7000007629,0.3276438019347826,0.5291742225953177,0.07723785662742474,39.7000007629,0.0,0.7033678125646047,1.8752366228161015
1648217909706277373,12624,8,3,1.10699093342,0.93761831522,-1.18825733662,0.0,39.7000007629,0.37023108141137123,0.31358472080936456,-0.39741048047491634,39.7000007629,0.0,0.6103093350188524,1.8752366596622758
1648217909706447073,12625,8,4,2.09971499443,-1.21890377998,0.219946086407,0.0,39.7000007629,0.7022458175351171,-0.407660127083612,0.07356056401571906,39.7000007629,0.0,1.0735386139794676,2.437807573129894
1648217909706454715,12626,8,5,0.499874979258,-1.95288312435,0.0119333909824,0.404594063759,39.7000007629,0.1671822673103679,-0.6531381686789297,0.003991100663010033,39.7000007629,0.05467487348094594,0.694614489045065,2.0158794354027085
1648217909706523353,12627,8,6,0.882412552834,0.111342176795,-0.0486234650016,-0.323675245047,39.7000007629,0.2951212551284281,0.037238186219063545,-0.016262028428628762,39.7000007629,-0.04373989797932432,0.41902242537845524,0.8907374669795964
1648217909706652920,12628,8,7,1.07796955109,-0.0,0.0250690672547,-0.323675245047,39.7000007629,0.3605249334749164,-0.0,0.008384303429665552,39.7000007629,-0.04373989797932432,0.5098592504938846,1.078261012561521
1648217909706662909,12629,8,8,1.15861546993,0.304725944996,-0.224674522877,-0.323675245047,39.7000007629,0.3874968126856187,0.10191503177123744,-0.07514198089531772,39.7000007629,-0.04373989797932432,0.557399527613685,1.2189037492537413
1648217909706664480,12630,8,9,0.954364895821,0.0922968015075,0.223400235176,-0.242756426334,39.7000007629,0.31918558388662205,0.03086849548745819,0.07471579771772574,39.7000007629,-0.03280492247756756,0.4524508127252585,0.984499222458116
1648217909806367812,12631,9,0,0.033460393548,0.0146502861753,-0.0293869227171,0.0,29.7999992371,0.011190767072909698,0.0048997612626421405,-0.009828402246521739,29.7999992371,0.0,0.01656726277304517,0.04688091347431313
1648217909806370140,12632,9,1,0.00445279618725,0.0454158857465,0.0107419816777,0.0,29.7999992371,0.0014892294940635452,0.015189259446989964,0.003592636012608695,29.7999992371,0.0,0.015334575687639726,0.04688091554554339
1648217909806373633,12633,9,2,0.879160702229,0.139177724719,-0.033453617245,0.0,29.7999992371,0.2940336796752508,0.04654773401973244,-0.01118850075083612,29.7999992371,0.0,0.41842359052652345,0.8907374045747272
1648217909806378815,12634,9,3,0.886411309242,0.083506628871,-0.0267349574715,0.0,29.7999992371,0.2964586318535117,0.027928638418394644,-0.008941457348327759,29.7999992371,0.0,0.42018501834884275,0.8907374047206721
1648217909806464059,12635,9,4,1.06572699547,1.4855389595,0.0168648567051,0.0,29.7999992371,0.35643043326755847,0.4968357724080267,0.00564042030270903,29.7999992371,0.0,0.7077648566175628,1.8283556690254605
1648217909806467072,12636,9,5,2.09244322777,-1.21890377998,0.280821919441,0.0,29.7999992371,0.6998137885518394,-0.407660127083612,0.09392037439498327,29.7999992371,0.0,1.0703576301911357,2.437807629147262
1648217909806475085,12637,9,6,0.919254899025,0.215359210968,0.278979480267,0.0809188112617,29.7999992371,0.307443110041806,0.07202649196254181,0.09330417400234112,29.7999992371,0.010934974494824324,0.4407157217172836,0.9844992176432991
1648217909806478832,12638,9,7,0.990059554577,-1.80491530895,0.130548417568,0.485512852669,29.7999992371,0.33112359684849496,-0.603650605,0.04366167811638796,29.7999992371,0.06560984495527027,0.7639893492036622,2.0627603068269447
1648217909806597358,12639,9,8,1.47550439835,-2.05690026283,0.0298666134477,0.485512852669,29.7999992371,0.49347973188963207,-0.6879265093076923,0.009988833928996655,29.7999992371,0.06560984495527027,0.9799425359581003,2.5315694609034836
1648217909806607530,12640,9,9,0.780142486095,0.263705164194,0.448291689157,-0.0809188112617,29.7999992371,0.26091721942976587,0.0881957070882943,0.14993033082173912,29.7999992371,-0.010934974494824324,0.3793864435357771,0.9376183396245554
1648217909910552762,12641,10,0,0.0334331989288,0.0146502861753,-0.029417861253,0.0,23.8999996185,0.011181671882541804,0.0048997612626421405,-0.009838749582943142,23.8999996185,0.0,0.016554976067893922,0.0468809154809466
1648217909910555347,12642,10,1,0.00444180425256,0.0454158857465,0.0107465311885,0.0,23.8999996185,0.0014855532617257525,0.015189259446989964,0.00359415758812709,23.8999996185,0.0,0.01533386251193162,0.04688091547466415
1648217909910556431,12643,10,2,1.14088916779,1.4284029007,-0.0303587913513,0.0,23.8999996185,0.381568283541806,0.47772672264214044,-0.010153441923511706,23.8999996185,0.0,0.7207021101235105,1.8283557083130855
1648217909910560949,12644,10,3,2.12977409363,-1.14272224903,0.318046569824,0.0,23.8999996185,0.7122990279698996,-0.3821813541906354,0.10637009024214046,23.8999996185,0.0,1.0774054009446563,2.4378075085827597
1648217909910562176,12645,10,4,0.880364596844,0.32230630517,-0.0143142966554,0.161837622523,23.8999996185,0.2944363200147157,0.10779475089297658,-0.004787390185752508,23.8999996185,0.021869948989594594,0.4301223098232583,0.9376183001719701
1648217909910563290,12646,10,5,0.921283006668,-1.04456532001,0.415001362562,0.242756426334,23.8999996185,0.30812140691237455,-0.34935294983612036,0.13879644232842808,23.8999996185,0.03280492247756756,0.5585025392552133,1.4533083695730717
1648217909910564242,12647,10,6,0.232797011733,-0.886342346668,-2.41010570526,0.404594063759,23.8999996185,0.07785853235217391,-0.2964355674474916,-0.8060554198193979,23.8999996185,0.05467487348094594,0.31622452113646304,2.5784504483692436
1648217909910565230,12648,10,7,1.79222083092,-1.85326123238,0.0421134829521,0.404594063759,23.8999996185,0.599404960173913,-0.6198198101605351,0.014084776907056853,23.8999996185,0.05467487348094594,1.0501186645468321,2.5784503578065197
1648217909910566719,12649,10,8,0.858365416527,0.22268435359,0.0838668197393,0.485512852669,23.8999996185,0.2870787346244147,0.07447637243812709,0.02804910359173913,23.8999996185,0.06560984495527027,0.41276522358194473,0.8907374209476947
1648217909910567996,12650,10,9,1.78050911427,-1.12074697018,-0.155884355307,-0.647350490093,23.8999996185,0.595487998083612,-0.3748317626020066,-0.05213523588862876,23.8999996185,-0.08747979595851352,0.921797571041811,2.1096412987509674
