%time,field.header.seq,field.header.frame_id,field.point_id,field.x,field.y,field.z,field.velocity,field.intensity,normalized_x,normalized_y,normalized_z,normalized_intensity,normalized_velocity,normalized_range,range
1648218226440163041,25216,0,0,0.0048888400197,0.0454158857465,0.0105506777763,0.0,11.3000001907,0.0016350635517391303,0.015189259446989964,0.003528654774682274,11.3000001907,0.0,0.01536425944145781,0.046880915481853296
1648218226440168504,25217,0,1,0.0334888286889,0.0146502861753,-0.0293545145541,0.0,11.3000001907,0.01120027715347826,0.0048997612626421405,-0.009817563396020067,11.3000001907,0.0,0.016580110888059302,0.046880913564899165
1648218226440171275,25218,0,2,0.743928015232,-0.676843225956,0.228471770883,0.0,11.3000001907,0.24880535626488293,-0.22636897189163876,0.07641196350602006,11.3000001907,0.0,0.4183911113389817,1.031380140617397
1648218226440230264,25219,0,3,1.09286642075,1.52362978458,-0.0266046114266,0.0,11.3000001907,0.36550716413043477,0.5095751787892976,-0.008897863353377925,11.3000001907,0.0,0.7258497343799816,1.8752366622406287
1648218226440241052,25220,0,4,0.996652245522,-0.68563336134,0.149390906096,0.323675245047,11.3000001907,0.33332851020802673,-0.2293088165016722,0.0499635137444816,11.3000001907,0.04373989797932432,0.5242120990213816,1.2189037892756818
1648218226440244608,25221,0,5,0.733822107315,-0.76474493742,0.85149115324,0.323675245047,11.3000001907,0.245425453951505,-0.2557675375986622,0.28477964991304344,11.3000001907,0.04373989797932432,0.4311430623167764,1.3595465746121875
1648218226440247081,25222,0,6,0.778464913368,-0.741304457188,0.0843021273613,-0.242756426334,11.3000001907,0.26035615831705683,-0.24792791210301002,0.02819469142518394,11.3000001907,-0.03280492247756756,0.4438906486365652,1.0782609926494995
1648218226440248758,25223,0,7,1.30591237545,1.51190948486,0.269244343042,-0.161837622523,11.3000001907,0.4367599917892976,0.5056553461070235,0.09004827526488295,11.3000001907,-0.021869948989594594,0.7982517835258424,2.0158794455579954
1648218226635045983,25224,2,0,0.00493015442044,0.0454158857465,0.0105314357206,0.0,16.7999992371,0.001648881077070234,0.015189259446989964,0.003522219304548495,16.7999992371,0.0,0.015367212504570061,0.04688091551031885
1648218226635076813,25225,2,1,0.033518049866,0.0146502861753,-0.0293211434036,0.0,16.7999992371,0.011210050122408027,0.0048997612626421405,-0.0098064024761204,16.7999992371,0.0,0.016593315157758227,0.046880912985268586
1648218226635080516,25226,2,2,2.04438376427,1.00500965118,0.295663774014,0.0,16.7999992371,0.6837403893879598,0.3361236291571906,0.09888420535585284,16.7999992371,0.0,1.0237093993114443,2.2971648704087224
1648218226635083618,25227,2,3,0.821595132351,-0.673913121223,0.18294608593,0.0809188112617,16.7999992371,0.274780980719398,-0.22538900375351167,0.06118598191638796,16.7999992371,0.010934974494824324,0.44923198655397284,1.078260973427347
1648218226635149993,25228,2,4,0.982692956924,-0.68563336134,0.223490178585,0.0809188112617,16.7999992371,0.32865985181404683,-0.2293088165016722,0.07474587912541805,16.7999992371,0.010934974494824324,0.5182828665065632,1.2189037754041032
1648218226740482562,25229,3,0,0.00490374397486,0.0454158857465,0.0105437589809,0.0,18.8999996185,0.0016400481521270903,0.015189259446989964,0.0035263407962876255,18.8999996185,0.0,0.0153653219436029,0.04688091548335449
1648218226740518331,25230,3,1,0.0335323177278,0.0146502861753,-0.0293048284948,0.0,18.8999996185,0.011214821982541805,0.0048997612626421405,-0.009800945984882943,18.8999996185,0.0,0.016599762788398344,0.046880914990281054
1648218226740548179,25231,3,2,1.16950011253,1.46502864361,-0.0497295111418,0.0,18.8999996185,0.39113716138127086,0.489976134986622,-0.016631943525685616,18.8999996185,0.0,0.7389541060737297,1.8752366421558218
1648218226740714282,25232,3,3,0.824462413788,-0.673913121223,0.169557243586,0.0809188112617,18.8999996185,0.2757399377217391,-0.22538900375351167,0.05670810822274247,18.8999996185,0.010934974494824324,0.45040562776521526,1.0782610192148019
1648218226740731517,25233,3,4,1.81989789009,1.26578474045,0.386702090502,-0.404594063759,18.8999996185,0.6086615017023411,0.42333937807692307,0.12933180284347826,18.8999996185,-0.05467487348094594,0.9592465148957561,2.2502839479293995
1648218226935693971,25234,5,0,0.00493015442044,0.0454158857465,0.0105314357206,0.0,27.2999992371,0.001648881077070234,0.015189259446989964,0.003522219304548495,27.2999992371,0.0,0.015367212504570061,0.04688091551031885
1648218226935751904,25235,5,1,0.0334805957973,0.0146502861753,-0.029363906011,0.0,27.2999992371,0.011197523678026755,0.0048997612626421405,-0.009820704351505017,27.2999992371,0.0,0.016576390845742875,0.046880914626137686
1648218226935775619,25236,5,2,1.17052447796,1.46502864361,0.00872118584812,0.0,27.2999992371,0.3914797585150501,0.489976134986622,0.002916784564588629,27.2999992371,0.0,0.7393168573152058,1.8752366621799723
1648218226935818825,25237,5,3,2.18851399422,0.914177834988,0.563552558422,0.242756426334,27.2999992371,0.7319444796722407,0.30574509531371236,0.188479116529097,27.2999992371,0.03280492247756756,1.0793356780694898,2.4378076427364213
1648218226935851933,25238,5,4,0.991101622581,-0.622637212276,0.060649048537,-0.485512852669,27.2999992371,0.33147211457558523,-0.20823987032642138,0.020283962721404678,27.2999992371,-0.06560984495527027,0.5129438264332504,1.172022965424297
1648218226935876127,25239,5,5,0.80632007122,-0.722259104252,0.822530567646,-0.404594063759,27.2999992371,0.26967226462207355,-0.24155822884682274,0.2750938353331103,27.2999992371,-0.05467487348094594,0.4514384105682738,1.3595465441238774
1648218226935897932,25240,5,6,0.767157077789,-0.64461261034,0.244314625859,-0.323675245047,27.2999992371,0.25657427350802675,-0.21558950178595315,0.08171057721036788,27.2999992371,-0.04373989797932432,0.42206581113928066,1.0313801606680872
1648218227040766719,25241,6,0,0.00485466001555,0.0454158857465,0.0105664487928,0.0,32.7999992371,0.0016236321122240801,0.015189259446989964,0.003533929362140468,32.7999992371,0.0,0.015361834689244132,0.0468809155424314
1648218227040788088,25242,6,1,0.0334662795067,0.0146502861753,-0.0293802209198,0.0,32.7999992371,0.0111927356209699,0.0048997612626421405,-0.009826160842742473,32.7999992371,0.0,0.01656992220237456,0.04688091435045831
1648218227040805983,25243,6,2,1.19615900517,-1.31413066387,0.430288940668,0.0809188112617,32.7999992371,0.400053178986622,-0.43950858323411374,0.1439093447050167,32.7999992371,0.010934974494824324,0.7164166991151605,1.8283556382262944
1648218227040831752,25244,6,3,2.22451519966,0.931758165359,0.597524940968,0.404594063759,32.7999992371,0.7439850166086955,0.311624804467893,0.199841117380602,32.7999992371,0.05467487348094594,1.0973319591792332,2.4846885533825667
1648218227040987398,25245,6,4,0.843596220016,-0.606521844864,0.288311362267,-0.647350490093,32.7999992371,0.28213920401872905,-0.20285011533913042,0.0964252047715719,32.7999992371,-0.08747979595851352,0.4476083446292557,1.0782609945346102
1648218227041005430,25246,6,5,0.756402611732,-0.584546387196,0.235370591283,-0.485512852669,32.7999992371,0.2529774621177257,-0.1955004639451505,0.0787192612986622,32.7999992371,-0.06560984495527027,0.4076955041226476,0.9844992153677908
