%time,field.header.seq,field.header.frame_id,field.point_id,field.x,field.y,field.z,field.velocity,field.intensity,normalized_x,normalized_y,normalized_z,normalized_intensity,normalized_velocity,normalized_range,range
1648219730362532568,85760,0,0,0.0122118405998,0.0439508594573,0.0108172614127,0.0,13.1999998093,0.00408422762535117,0.014699284099431437,0.003617813181505017,13.1999998093,0.0,0.015793377840954772,0.04688091554503761
1648219730362540384,85761,0,1,0.0333878919482,0.0146502861753,-0.0294692683965,0.0,13.1999998093,0.011166519046220735,0.0048997612626421405,-0.009855942607525084,13.1999998093,0.0,0.016534508025644712,0.04688091289200561
1648219730362553316,85762,0,2,1.32738506794,-0.773535132408,-0.18198594451,0.0809188112617,13.1999998093,0.4439414942943144,-0.2587074021431438,-0.06086486438461538,13.1999998093,0.010934974494824324,0.6790416928555948,1.5470703292542125
1648219730362556742,85763,0,3,1.38400769234,-0.676843225956,0.140827655792,0.242756426334,13.1999998093,0.46287882686956516,-0.22636897189163876,0.047099550432107014,13.1999998093,0.03280492247756756,0.6926445900774562,1.5470702872250786
1648219730362558700,85764,0,4,1.41008687019,-0.628497302532,-0.100362606347,0.404594063759,13.1999998093,0.47160095992976586,-0.21019976673311033,-0.033566089079264214,13.1999998093,0.05467487348094594,0.6992845434785523,1.5470702936599208
1648219730362566078,85765,0,5,0.979153096676,-0.79111546278,0.132689535618,-0.242756426334,13.1999998093,0.3274759520655518,-0.26458711129765883,0.044377771109698996,13.1999998093,-0.03280492247756756,0.533373544363909,1.2657847269746678
1648219730362570812,85766,0,6,0.88076376915,-0.97717410326,0.343151390553,-0.242756426334,13.1999998093,0.29456982245819396,-0.3268140813578595,0.11476635135551838,13.1999998093,-0.03280492247756756,0.5294810708419003,1.3595465869060013
1648219730362700700,85767,0,7,1.05608022213,-0.779395282269,-0.0181295294315,-0.0809188112617,13.1999998093,0.3532040876688963,-0.2606673184846154,-0.006063387769732441,13.1999998093,-0.010934974494824324,0.5634303027154244,1.3126656548545528
1648219730557518440,85768,2,0,0.012225298211,0.0439508594573,0.0108020491898,0.0,12.3999996185,0.004088728498662207,0.014699284099431437,0.0036127254815384612,12.3999996185,0.0,0.015795706837851316,0.04688091541429279
1648219730557521918,85769,2,1,0.0335084721446,0.0146502861753,-0.0293320901692,0.0,12.3999996185,0.01120684687110368,0.0048997612626421405,-0.00981006360173913,12.3999996185,0.0,0.01658898713049176,0.046880914071482226
1648219730557729980,85770,2,2,1.09887194633,-0.817485928535,0.486109495163,0.0809188112617,12.3999996185,0.36751570111371235,-0.2734066650618729,0.16257842647591972,12.3999996185,0.010934974494824324,0.5872706238442905,1.4533083771421125
1648219730557738304,85771,2,3,1.42506015301,-0.697353601456,-0.153563454747,0.242756426334,12.3999996185,0.47660874682608695,-0.2332286292494983,-0.051359014965551834,12.3999996185,0.03280492247756756,0.7132372596856295,1.593951134694653
1648219730557752838,85772,2,4,0.988102912903,-0.79111546278,5.07001495862e-05,-0.242756426334,12.3999996185,0.3304692016397993,-0.26458711129765883,1.6956571767959864e-05,12.3999996185,-0.03280492247756756,0.5370531872447387,1.2657847544142378
1648219730662595969,85773,3,0,0.0122477002442,0.0439508594573,0.01077664271,0.0,32.9000015259,0.004096220817458194,0.014699284099431437,0.0036042283311036784,32.9000015259,0.0,0.015799588697385562,0.04688091548174064
1648219730662599279,85774,3,1,0.0334016978741,0.0146502861753,-0.0294536203146,0.0,32.9000015259,0.011171136412742476,0.0048997612626421405,-0.009850709135317725,32.9000015259,0.0,0.016540744781753033,0.0468809135526118
1648219730662614353,85775,3,2,1.20144093037,-0.843856453896,0.308243453503,0.0809188112617,32.9000015259,0.4018197091538461,-0.28222623876120395,0.10309145602107021,32.9000015259,0.010934974494824324,0.6344838903977461,1.5001893382429163
1648219730662810492,85776,3,3,1.44837450981,-0.769140005112,-0.0544511973858,0.161837622523,32.9000015259,0.4844061905719063,-0.2572374599036789,-0.018211102804615385,32.9000015259,0.021869948989594594,0.7317580376780762,1.6408321062886941
1648219730662821136,85777,3,4,0.957898139954,-0.659262895584,0.146429091692,-0.323675245047,32.9000015259,0.3203672708876254,-0.22048926273712371,0.048972940365217384,32.9000015259,-0.04373989797932432,0.5038709075689235,1.1720229907791386
1648219730662956007,85778,3,5,0.950264394283,-0.761814832687,0.0486020818353,-0.242756426334,32.9000015259,0.31781417868996653,-0.2547875694605351,0.01625487686799331,32.9000015259,-0.03280492247756756,0.5166511491367874,1.2189037782789436
1648219730857666166,85779,5,0,0.0122118405998,0.0439508594573,0.0108172614127,0.0,30.0,0.00408422762535117,0.014699284099431437,0.003617813181505017,30.0,0.0,0.015793377840954772,0.04688091554503761
1648219730857702072,85780,5,1,0.0334108844399,0.0146502861753,-0.0294432006776,0.0,30.0,0.011174208842775918,0.0048997612626421405,-0.009847224306889632,30.0,0.0,0.01654489489101794,0.04688091456249508
1648219730857704335,85781,5,2,1.24849462509,-1.25699448586,0.451786011457,0.0809188112617,30.0,0.4175567307993311,-0.4203994935986622,0.15109900048729094,30.0,0.010934974494824324,0.7248744588476419,1.828355700215166
1648219730857706229,85782,5,3,1.3278375864,-0.871692061424,0.411497533321,0.161837622523,30.0,0.44409283826086954,-0.29153580649632105,0.13762459308394648,30.0,0.021869948989594594,0.6924088564270752,1.640832083345358
1648219730857712279,85783,5,4,1.06954109669,-0.69735366106,-0.304747343063,-0.404594063759,30.0,0.3577060524046823,-0.23322864918394645,-0.1019221883153846,30.0,-0.05467487348094594,0.5570483306267519,1.3126656959053176
1648219730857725121,85784,5,5,0.872908830643,-0.668053030968,0.240166112781,-0.323675245047,30.0,0.29194275272341136,-0.22342910734715715,0.08032311464247491,30.0,-0.04373989797932432,0.4694483014618258,1.1251419646108651
1648219730962659885,85785,6,0,0.012225298211,0.0439508594573,0.0108020491898,0.0,32.5999984741,0.004088728498662207,0.014699284099431437,0.0036127254815384612,32.5999984741,0.0,0.015795706837851316,0.04688091541429279
1648219730962667507,85786,6,1,0.0333878919482,0.0146502861753,-0.0294692683965,0.0,32.5999984741,0.011166519046220735,0.0048997612626421405,-0.009855942607525084,32.5999984741,0.0,0.016534508025644712,0.04688091289200561
1648219730962670382,85787,6,2,1.15210771561,-0.843856453896,0.459480017424,0.0809188112617,32.5999984741,0.3853203062240802,-0.28222623876120395,0.15367224663010032,32.5999984741,0.010934974494824324,0.6136734690554366,1.5001892512486494
1648219730962849400,85788,6,3,1.26524937153,-1.25699448586,0.402484148741,0.0809188112617,32.5999984741,0.42316032492642136,-0.4203994935986622,0.1346100831909699,32.5999984741,0.010934974494824324,0.7313446898704337,1.828355709271933
1648219730962852557,85789,6,4,0.904454946518,-0.572826147079,0.128367841244,-0.485512852669,32.5999984741,0.30249329314983275,-0.19158065119698997,0.04293238837591973,32.5999984741,-0.06560984495527027,0.46872969898900585,1.078261029493274
1648219730962853889,85790,6,5,1.03085851669,-0.647542655468,-0.0612020306289,-0.485512852669,32.5999984741,0.3447687346789297,-0.21656944998929767,-0.020468906564849496,32.5999984741,-0.06560984495527027,0.5335103443166659,1.2189037946597576
1648219730962855052,85791,6,6,1.14627182484,-0.527410328388,-0.621238768101,-0.485512852669,32.5999984741,0.38336850329096983,-0.1763914141765886,-0.20777216324448158,32.5999984741,-0.06560984495527027,0.5701374830918711,1.4064275160505106
1648219730962859524,85792,6,7,0.96901601553,-0.659262895584,0.00426692748442,-0.404594063759,32.5999984741,0.32408562392307694,-0.22048926273712371,0.0014270660483010032,32.5999984741,-0.05467487348094594,0.5086044614920129,1.172022956480629
1648219730962866441,85793,6,8,1.16201639175,-0.93761831522,0.145457029343,-0.323675245047,32.5999984741,0.3886342447324414,-0.31358472080936456,0.048647835900668894,32.5999984741,-0.04373989797932432,0.6327784205253821,1.5001893037603524
1648219731157593815,85794,8,0,0.0122343283147,0.0439508594573,0.0107918214053,0.0,25.3999996185,0.004091748600234113,0.014699284099431437,0.0036093048178260866,25.3999996185,0.0,0.0157972708481824,0.04688091557970149
1648219731157602290,85795,8,1,0.0333878919482,0.0146502861753,-0.0294692683965,0.0,25.3999996185,0.011166519046220735,0.0048997612626421405,-0.009855942607525084,25.3999996185,0.0,0.016534508025644712,0.04688091289200561
1648219731157714790,85796,8,2,1.68576085567,-1.53828012943,0.535215735435,0.0,25.3999996185,0.5637996172809364,-0.5144749596755852,0.17900191820568562,25.3999996185,0.0,0.948907003359895,2.344045925865288
1648219731157718356,85797,8,3,0.98049223423,-0.438043534756,-0.0969513729215,-0.485512852669,25.3999996185,0.3279238241571906,-0.1465028544334448,-0.03242520833494983,25.3999996185,-0.06560984495527027,0.48634468770296985,1.0782609741793643
1648219731157719403,85798,8,4,0.910137176514,-0.36918720603,0.067747913301,-0.323675245047,25.3999996185,0.3043937045197324,-0.12347398194983276,0.022658164983612037,25.3999996185,-0.04373989797932432,0.44783577226595017,0.9844991888903482
1648219731157722063,85799,8,5,1.13705122471,-0.89073741436,0.405301332474,-0.161837622523,25.3999996185,0.3802846905384615,-0.29790548975250836,0.1355522851083612,25.3999996185,-0.021869948989594594,0.614801246371987,1.500189254414405
1648219731262565020,85800,9,0,0.0122343283147,0.0439508594573,0.0107918214053,0.0,24.1000003815,0.004091748600234113,0.014699284099431437,0.0036093048178260866,24.1000003815,0.0,0.0157972708481824,0.04688091557970149
1648219731262567624,85801,9,1,0.0333878919482,0.0146502861753,-0.0294692683965,0.0,24.1000003815,0.011166519046220735,0.0048997612626421405,-0.009855942607525084,24.1000003815,0.0,0.016534508025644712,0.04688091289200561
1648219731262571507,85802,9,2,1.65375757217,-1.53828012943,0.627161204815,0.0,24.1000003815,0.5530961779832776,-0.5144749596755852,0.20975291130936455,24.1000003815,0.0,0.9362239306558094,2.344045870057536
1648219731262574566,85803,9,3,0.913251936436,-0.205104008317,0.0550578758121,-0.323675245047,24.1000003815,0.3054354302461538,-0.06859665829999999,0.018414005288327758,24.1000003815,-0.04373989797932432,0.43736381380863365,0.9376183249706377
1648219731262667789,85804,9,4,1.20054364204,-0.918572962284,0.329158097506,-0.161837622523,24.1000003815,0.401519612722408,-0.30721503755317725,0.11008632023612039,24.1000003815,-0.021869948989594594,0.6456137220508135,1.5470702558822724
1648219731262670638,85805,9,5,1.19036996365,-0.817485928535,0.163833215833,-0.0809188112617,24.1000003815,0.3981170446989966,-0.2734066650618729,0.05479371766989966,24.1000003815,-0.010934974494824324,0.6258958116651532,1.453308369315685
1648219731457636093,85806,11,0,0.0122118405998,0.0439508594573,0.0108172614127,0.0,12.3999996185,0.00408422762535117,0.014699284099431437,0.003617813181505017,12.3999996185,0.0,0.015793377840954772,0.04688091554503761
1648219731457646483,85807,11,1,0.0333878919482,0.0146502861753,-0.0294692683965,0.0,12.3999996185,0.011166519046220735,0.0048997612626421405,-0.009855942607525084,12.3999996185,0.0,0.016534508025644712,0.04688091289200561
1648219731457662592,85808,11,2,1.24167537689,-0.796975553036,0.27136734128,0.0,12.3999996185,0.4152760457826086,-0.2665470077043478,0.09075830812040134,12.3999996185,0.0,0.6449462735126238,1.5001893239272628
1648219731457668993,85809,11,3,1.68372499943,-1.53828012943,0.541586220264,0.0,12.3999996185,0.5631187289063545,-0.5144749596755852,0.18113251513846154,12.3999996185,0.0,0.948098038086469,2.344045917699689
1648219731457684869,85810,11,4,1.16680276394,-0.34281668067,-0.0823077559471,0.161837622523,12.3999996185,0.3902350381070234,-0.1146544082508361,-0.027527677574280936,12.3999996185,0.021869948989594594,0.5636598293865985,1.218903824414653
1648219731458036779,85811,11,5,0.82822817564,0.105482056737,0.122496366501,-0.242756426334,12.3999996185,0.2769993898461538,0.035278279845150494,0.04096868444849498,12.3999996185,-0.03280492247756756,0.3933215999396877,0.8438564658894174
1648219731562535589,85812,12,0,0.00558515451849,0.0454158857465,0.0101991966367,0.0,46.0,0.0018679446550133778,0.015189259446989964,0.0034111025540802674,46.0,0.0,0.015417264252011769,0.04688091553253438
1648219731562547206,85813,12,1,0.0333878919482,0.0146502861753,-0.0294692683965,0.0,46.0,0.011166519046220735,0.0048997612626421405,-0.009855942607525084,46.0,0.0,0.016534508025644712,0.04688091289200561
1648219731562551698,85814,12,2,1.20345890522,-0.843856453896,0.300267726183,0.0,46.0,0.4024946171304348,-0.28222623876120395,0.10042398868996655,46.0,0.0,0.635338872951472,1.5001892409700723
1648219731562560314,85815,12,3,1.69266796112,-1.53828012943,0.51295286417,0.0,46.0,0.566109685993311,-0.5144749596755852,0.17155614186287624,46.0,0.0,0.9516537381233184,2.3440459091198536
1648219731562567710,85816,12,4,1.16874349117,-0.474669277668,-0.10458856076,0.242756426334,46.0,0.3908841107591973,-0.1587522667785953,-0.034979451759197325,46.0,0.03280492247756756,0.5751374255735399,1.2657847519842973
1648219731562578054,85817,12,5,0.789689898491,0.263705134392,0.137634292245,0.404594063759,46.0,0.26411033394347827,0.08819569712107023,0.04603153586789298,46.0,0.05467487348094594,0.38377990825750996,0.8438564641485012
1648219731562580288,85818,12,6,1.87458622456,1.2965502739,-1.56700229645,-0.566431701183,46.0,0.6269519145685618,0.4336288541471572,-0.5240810356020067,46.0,-0.07654482448418919,0.987001210491328,2.765974027922145
1648219731562584483,85819,12,7,2.52611064911,-1.1236770153,-0.0820163339376,-0.566431701183,46.0,0.84485305990301,-0.37581171080267556,-0.02743021201926421,46.0,-0.07654482448418919,1.2525126057774396,2.7659739198504796
1648219731757657297,85820,14,0,0.0122118405998,0.0439508594573,0.0108172614127,0.0,15.6000003815,0.00408422762535117,0.014699284099431437,0.003617813181505017,15.6000003815,0.0,0.015793377840954772,0.04688091554503761
1648219731757705955,85821,14,1,0.0333878919482,0.0146502861753,-0.0294692683965,0.0,15.6000003815,0.011166519046220735,0.0048997612626421405,-0.009855942607525084,15.6000003815,0.0,0.016534508025644712,0.04688091289200561
1648219731757826828,85822,14,2,1.74001252651,-1.46502864361,0.566214263439,0.0,15.6000003815,0.5819439887993311,-0.489976134986622,0.18936931887591973,15.6000003815,0.0,0.9578069873705143,2.3440458850311012
1648219731757838133,85823,14,3,0.547659754753,0.87022703886,0.0807388722897,-0.242756426334,15.6000003815,0.18316379757625417,0.2910458323946488,0.0270029673209699,15.6000003815,-0.03280492247756756,0.3896224198366978,1.0313801780322194
1648219731757840076,85824,14,4,1.2243616581,-0.77207005024,-0.130197837949,-0.161837622523,15.6000003815,0.4094855043812709,-0.25821740810702337,-0.04354442740769231,15.6000003815,-0.021869948989594594,0.6340607119561003,1.4533083324985003
1648219731862681442,85825,15,0,0.012225298211,0.0439508594573,0.0108020491898,0.0,13.6999998093,0.004088728498662207,0.014699284099431437,0.0036127254815384612,13.6999998093,0.0,0.015795706837851316,0.04688091541429279
1648219731862742894,85826,15,1,0.0333878919482,0.0146502861753,-0.0294692683965,0.0,13.6999998093,0.011166519046220735,0.0048997612626421405,-0.009855942607525084,13.6999998093,0.0,0.016534508025644712,0.04688091289200561
1648219731862748144,85827,15,2,1.677485466,-1.53828012943,0.560613870621,0.0,13.6999998093,0.5610319284280936,-0.5144749596755852,0.18749627779966554,13.6999998093,0.0,0.9456205018741324,2.3440458948521194
1648219731862751859,85828,15,3,1.14289677143,-0.722259104252,-0.143162935972,0.242756426334,13.6999998093,0.3822397228862876,-0.24155822884682274,-0.047880580592642136,13.6999998093,0.03280492247756756,0.5920851200866188,1.3595465678144836
1648219731862754831,85829,15,4,0.47336858511,1.01965987682,-0.046480499208,-0.0809188112617,13.6999998093,0.1583172525451505,0.34102337017391304,-0.015545317460869564,13.6999998093,-0.010934974494824324,0.40795299228178683,1.125141999292643
