%time,field.header.seq,field.header.frame_id,field.point_id,field.x,field.y,field.z,field.velocity,field.intensity,normalized_x,normalized_y,normalized_z,normalized_intensity,normalized_velocity,normalized_range,range
1648125518985099772,28086,0,0,0.0126355709508,0.0439508594573,0.0103191342205,0.0,20.6000003815,0.00422594346180602,0.014699284099431437,0.003451215458361204,20.6000003815,0.0,0.015867770773506908,0.04688091542780209
1648125518985171772,28087,0,1,0.0327526517212,0.0146502861753,-0.0301737133414,0.0,20.6000003815,0.010954064120802676,0.0048997612626421405,-0.01009154292354515,20.6000003815,0.0,0.01624779067923395,0.046880913564022964
1648125518985180769,28088,0,2,0.806105673313,-0.769140064716,0.3636687994,0.0,20.6000003815,0.26960055963645485,-0.2572374798381271,0.12162836100334448,20.6000003815,0.0,0.4599348264113625,1.1720229483059514
1648125518985187417,28089,0,3,2.42344903946,-0.902457654476,0.452581226826,0.0,20.6000003815,0.8105180733979932,-0.30182530250033446,0.15136495880468226,20.6000003815,0.0,1.185317513512311,2.625331375628084
1648125518985227997,28090,0,4,1.02567148209,-0.892202436924,0.0184309910983,-0.0809188112617,20.6000003815,0.3430339404983277,-0.2983954638541806,0.006164211069665551,20.6000003815,-0.010934974494824324,0.5695475586080341,1.3595465711253465
1648125519090025403,28091,1,0,0.0126051837578,0.0439508594573,0.0103562315926,0.0,17.0,0.004215780521003344,0.014699284099431437,0.003463622606220736,17.0,0.0,0.015862363122761385,0.04688091549237075
1648125519090039914,28092,1,1,0.0327771268785,0.0146502861753,-0.0301471278071,0.0,17.0,0.010962249792140466,0.0048997612626421405,-0.010082651440501671,17.0,0.0,0.01625882841540115,0.04688091558880965
1648125519090051341,28093,1,2,2.42611932755,-0.902457654476,0.438041239977,0.0,17.0,0.8114111463377925,-0.30182530250033446,0.14650208694882944,17.0,0.0,1.186538920571862,2.6253313957583666
1648125519090063056,28094,1,3,1.21261930466,-0.843856453896,0.260822921991,0.0809188112617,17.0,0.40555829587290965,-0.28222623876120395,0.08723174648528427,17.0,0.010934974494824324,0.6392235231497454,1.5001892845411064
1648125519090065005,28095,1,4,1.09919393063,-0.615312039852,-0.62546145916,-0.161837622523,17.0,0.36762338817056855,-0.20578997988361203,-0.2091844345016722,17.0,-0.021869948989594594,0.5591452645605742,1.4064274742819889
1648125519090070140,28096,1,5,0.777694642544,-0.805765748024,0.34578961134,-0.0809188112617,17.0,0.26009854265685617,-0.26948687224882945,0.11564869944481605,17.0,-0.010934974494824324,0.45598868198552667,1.1720229746216515
1648125519285101166,28097,3,0,0.0126392701641,0.0439508594573,0.0103146024048,0.0,27.0,0.004227180656889632,0.014699284099431437,0.0034496998009364544,27.0,0.0,0.015868429841914465,0.04688091530767665
1648125519285148023,28098,3,1,0.0328283309937,0.0146502861753,-0.0300913602114,0.0,27.0,0.010979374914280936,0.0048997612626421405,-0.01006400007070234,27.0,0.0,0.01628192271961673,0.046880914669216275
1648125519285153616,28099,3,2,0.229190602899,-1.58955609798,0.336322724819,0.0,27.0,0.07665237555150502,-0.5316241130367892,0.1124825166618729,27.0,0.0,0.5425637021747131,1.6408320743794251
1648125519285195680,28100,3,3,2.42052984238,-0.902457654476,0.467942595482,0.0,27.0,0.8095417533043479,-0.30182530250033446,0.15650254029498328,27.0,0.0,1.1839823537179823,2.625331371206481
1648125519285201463,28101,3,4,1.28755116463,-0.821881055832,0.245255067945,0.0809188112617,27.0,0.4306191186053511,-0.27487660730167224,0.0820251063361204,27.0,0.010934974494824324,0.6681487857196005,1.547070302160926
1648125519285209023,28102,3,5,0.824069261551,-0.73837441206,0.204101890326,-0.242756426334,27.0,0.2756084486792642,-0.24694796389966553,0.0682615017812709,27.0,-0.03280492247756756,0.4614144891970469,1.1251419918627195
1648125519285234444,28103,3,6,1.32065653801,-1.3214558363,0.451837211847,-0.242756426334,27.0,0.44169114983612034,-0.4419584736789297,0.15111612436354513,27.0,-0.03280492247756756,0.7651858833928639,1.9221176042816843
1648125519285241527,28104,3,7,1.4538756609,-1.41814780235,0.360669195652,-0.242756426334,27.0,0.4862460404347826,-0.47429692386287625,0.12062514904749164,27.0,-0.03280492247756756,0.8353609972118614,2.062760261242156
1648125519285246906,28105,3,8,1.12144386768,-0.76474493742,-0.0767828822136,-0.0809188112617,27.0,0.3750648386889632,-0.2557675375986622,-0.025679893716923075,27.0,-0.010934974494824324,0.5888669626756446,1.3595465342045578
1648125519390439640,28106,4,0,0.0126392701641,0.0439508594573,0.0103146024048,0.0,16.7000007629,0.004227180656889632,0.014699284099431437,0.0034496998009364544,16.7000007629,0.0,0.015868429841914465,0.04688091530767665
1648125519390554011,28107,4,1,0.0328283309937,0.0146502861753,-0.0300913602114,0.0,16.7000007629,0.010979374914280936,0.0048997612626421405,-0.01006400007070234,16.7000007629,0.0,0.01628192271961673,0.046880914669216275
1648125519390561520,28108,4,2,0.298977434635,-1.58955609798,0.276140928268,0.0,16.7000007629,0.09999245305518394,-0.5316241130367892,0.0923548255076923,16.7000007629,0.0,0.5501101516043303,1.6408320777310035
1648125519390568284,28109,4,3,2.42107629776,-0.902457654476,0.465107887983,0.0,16.7000007629,0.8097245143010033,-0.30182530250033446,0.15555447758628763,16.7000007629,0.0,1.184232279305631,2.6253315229055545
1648125519390715762,28110,4,4,1.09615266323,-1.78000986576,0.283902227879,0.566431701183,16.7000007629,0.3666062418829431,-0.5953210253377926,0.09495057788595317,16.7000007629,0.07654482448418919,0.789434858860635,2.109641262941123
1648125519390720406,28111,4,5,0.830325186253,-0.73837441206,0.176940023899,-0.242756426334,16.7000007629,0.2777007311882943,-0.24694796389966553,0.05917726551806019,16.7000007629,-0.03280492247756756,0.4639166833378781,1.1251419729831469
1648125519390723598,28112,4,6,1.42043781281,-1.26138961315,0.292896836996,-0.242756426334,16.7000007629,0.47506281364882935,-0.42186943583612035,0.09795880835986621,16.7000007629,-0.03280492247756756,0.7933115243815453,1.922117554507378
1648125519390775363,28113,4,7,1.4165790081,-1.38591706753,0.369198799133,-0.242756426334,16.7000007629,0.47377224351170566,-0.46351741388963213,0.12347785924180602,16.7000007629,-0.03280492247756756,0.8147199951045527,2.01587945015117
1648125519390778559,28114,4,8,0.877633631229,-0.779395282269,0.587701797485,-0.0809188112617,16.7000007629,0.2935229535882943,-0.2606673184846154,0.1965557851120401,16.7000007629,-0.010934974494824324,0.4901621155213363,1.3126656845726083
1648125519390790381,28115,4,9,1.15125930309,-0.287145614624,-0.56146299839,-0.0809188112617,16.7000007629,0.3850365562173913,-0.0960353226167224,-0.1877802670200669,16.7000007629,-0.010934974494824324,0.5529277370846887,1.312665717351587
1648125519585316645,28116,6,0,0.0126256523654,0.0439508594573,0.010331267491,0.0,13.1000003815,0.004222626209163879,0.014699284099431437,0.0034552734083612034,13.1000003815,0.0,0.015866004451040385,0.04688091544176436
1648125519585324329,28117,6,1,0.0327771268785,0.0146502861753,-0.0301471278071,0.0,13.1000003815,0.010962249792140466,0.0048997612626421405,-0.010082651440501671,13.1000003815,0.0,0.01625882841540115,0.04688091558880965
1648125519585329759,28118,6,2,0.887309968472,-0.572826147079,0.217251181602,0.0,13.1000003815,0.2967591867799331,-0.19158065119698997,0.07265925806086956,13.1000003815,0.0,0.46134062880873306,1.0782610309357468
1648125519585337484,28119,6,3,2.40900802612,-0.902457654476,0.524038076401,0.0,13.1000003815,0.8056883030501671,-0.30182530250033446,0.17526357070267556,13.1000003815,0.0,1.1787136194059753,2.6253314826038565
1648125519585342057,28120,6,4,0.834077656269,-1.46356356144,-0.413657009602,0.242756426334,13.1000003815,0.2789557378826087,-0.4894861409498327,-0.13834682595384615,13.1000003815,0.03280492247756756,0.6286726410280798,1.7345938881060874
1648125519585347443,28121,6,5,1.38985741138,-1.29215526581,0.524962961674,0.323675245047,13.1000003815,0.4648352546421404,-0.4321589517759197,0.17557289688093644,13.1000003815,0.04373989797932432,0.7867051464916882,1.9689984677642498
1648125519585435301,28122,6,6,0.939195096493,-0.695888638496,-0.0853772461414,-0.404594063759,13.1000003815,0.3141120724056856,-0.23273867508227425,-0.02855426292354515,13.1000003815,-0.05467487348094594,0.5014978354300662,1.1720229095981876
1648125519585438370,28123,6,7,1.36611521244,-0.609451889992,0.113425768912,-0.323675245047,13.1000003815,0.4568947198795986,-0.20383006354247488,0.03793503976989966,13.1000003815,-0.04373989797932432,0.6775339584931837,1.5001892497042117
1648125519690314379,28124,7,0,0.0127124926075,0.0439508594573,0.0102242222056,0.0,26.8999996185,0.004251669768394649,0.014699284099431437,0.0034194723095652174,26.8999996185,0.0,0.015881509521287952,0.046880915467176654
1648125519690323285,28125,7,1,0.0328283309937,0.0146502861753,-0.0300913602114,0.0,26.8999996185,0.010979374914280936,0.0048997612626421405,-0.01006400007070234,26.8999996185,0.0,0.01628192271961673,0.046880914669216275
1648125519690332937,28126,7,2,1.23599302769,-1.22476398945,0.382003933191,0.161837622523,26.8999996185,0.41337559454515044,-0.409620063361204,0.1277605127729097,26.8999996185,0.021869948989594594,0.713825861565095,1.7814748382520498
1648125519690340822,28127,7,3,0.897041082382,-1.08412122726,1.01430487633,0.242756426334,26.8999996185,0.3000137399270903,-0.36258235025418056,0.33923240011036787,26.8999996185,0.03280492247756756,0.5581061270098411,1.7345938778352745
1648125519690346191,28128,7,4,1.35966908932,-0.499574750662,0.117602385581,-0.161837622523,26.8999996185,0.4547388258595318,-0.16708185640869566,0.03933190153210702,26.8999996185,-0.021869948989594594,0.66444800114771,1.4533083929591888
1648125519690349848,28129,7,5,0.904097735882,-0.5391305089,0.2336499542,-0.0809188112617,26.8999996185,0.302373824709699,-0.18031120698996655,0.07814379739130435,26.8999996185,-0.010934974494824324,0.4640818797424891,1.0782609715423228
1648125519885308565,28130,9,0,0.0126188620925,0.0439508594573,0.0103395609185,0.0,33.9000015259,0.004220355214882943,0.014699284099431437,0.00345804712993311,33.9000015259,0.0,0.015864795911557678,0.04688091560040442
1648125519885476658,28131,9,1,0.0328283309937,0.0146502861753,-0.0300913602114,0.0,33.9000015259,0.010979374914280936,0.0048997612626421405,-0.01006400007070234,33.9000015259,0.0,0.01628192271961673,0.046880914669216275
1648125519885481303,28132,9,2,0.284447133541,-1.58955609798,0.291086137295,0.0,33.9000015259,0.09513282058227424,-0.5316241130367892,0.09735322317558527,33.9000015259,0.0,0.5483837202780834,1.64083207542101
1648125519885484615,28133,9,3,1.69590878487,-1.50751447678,0.358134031296,0.0,33.9000015259,0.567193573535117,-0.5041854437391304,0.11977726799197325,33.9000015259,0.0,0.9474281299378313,2.297164880602357
1648125519885488626,28134,9,4,1.17629110813,-1.33610606194,0.0693722441792,0.161837622523,33.9000015259,0.39340839736789296,-0.4468582146956522,0.02320141945792642,33.9000015259,0.021869948989594594,0.713598345205574,1.781474863162817
1648125519885510827,28135,9,5,0.914354145527,-0.471739202738,0.322591751814,-0.242756426334,33.9000015259,0.3058040620491639,-0.15777230860802674,0.10789021799799331,33.9000015259,-0.03280492247756756,0.4603524194517111,1.07826101533011
1648125519885609035,28136,9,6,1.39919030666,-0.317911207676,0.230876415968,-0.0809188112617,33.9000015259,0.4679566243010033,-0.10632481862073578,0.07721619263143811,33.9000015259,-0.010934974494824324,0.670277384005393,1.453308284455692
1648125519989518007,28137,10,0,0.0126051837578,0.0439508594573,0.0103562315926,0.0,16.2999992371,0.004215780521003344,0.014699284099431437,0.003463622606220736,16.2999992371,0.0,0.015862363122761385,0.04688091549237075
1648125519989523286,28138,10,1,0.0327771268785,0.0146502861753,-0.0301471278071,0.0,16.2999992371,0.010962249792140466,0.0048997612626421405,-0.010082651440501671,16.2999992371,0.0,0.01625882841540115,0.04688091558880965
1648125519989529413,28139,10,2,0.308783650398,-1.58955609798,0.265130102634,0.0,16.2999992371,0.10327212387892976,-0.5316241130367892,0.08867227512842808,16.2999992371,0.0,0.5513206514389632,1.6408320763262867
1648125519989549060,28140,10,3,1.72126924992,-1.53828012943,0.406789332628,0.0,16.2999992371,0.5756753344214046,-0.5144749596755852,0.13604994402274245,16.2999992371,0.0,0.9630621295926796,2.3440458929934094
1648125519989554613,28141,10,4,1.24645161629,-1.22476398945,0.346358329058,0.0809188112617,16.2999992371,0.41687345026421396,-0.409620063361204,0.11583890603946488,16.2999992371,0.010934974494824324,0.7178826807901253,1.7814748254503299
1648125519989557325,28142,10,5,0.841606259346,-0.410208016634,-0.0505613200366,-0.485512852669,16.2999992371,0.28147366533311036,-0.13719331659999998,-0.016910140480468225,16.2999992371,-0.06560984495527027,0.42104258059229527,0.9376183444051264
1648125519989634239,28143,10,6,0.83664560318,-0.50543487072,0.455199420452,-0.404594063759,16.2999992371,0.2798145830033445,-0.16904176278260868,0.15224060884682272,16.2999992371,-0.05467487348094594,0.4303109565039251,1.0782610009826035
1648125519989639713,28144,10,7,0.935372233391,-0.474669277668,0.708504617214,-0.323675245047,16.2999992371,0.3128335228732441,-0.1587522667785953,0.23695806595785954,16.2999992371,-0.04373989797932432,0.47003394374652496,1.2657847094882626
1648125519989683653,28145,10,8,0.956105709076,-0.386767566204,-0.00420719478279,-0.161837622523,16.2999992371,0.31976779567759195,-0.1293537010715719,-0.0014070885561170568,16.2999992371,-0.021869948989594594,0.47035653103356173,1.0313801324841518
1648125520090372127,28146,11,0,0.0127222454175,0.0439508594573,0.0102120842785,0.0,34.2999992371,0.004254931577759197,0.014699284099431437,0.003415412802173913,34.2999992371,0.0,0.01588325654576613,0.04688091552870553
1648125520090380059,28147,11,1,0.0328015126288,0.0146502861753,-0.0301205907017,0.0,34.2999992371,0.010970405561471571,0.0048997612626421405,-0.010073776154414715,34.2999992371,0.0,0.016269826575511532,0.046880914026657464
1648125520090403655,28148,11,2,0.282917022705,-1.58955609798,0.2925735116,0.0,34.2999992371,0.09462107782775919,-0.5316241130367892,0.09785067277591973,34.2999992371,0.0,0.548206616432825,1.6408320724716532
1648125520090409758,28149,11,3,1.77486097813,-1.46502864361,0.445096135139,0.0,34.2999992371,0.5935989893411371,-0.489976134986622,0.14886158365852842,34.2999992371,0.0,0.9720062413123011,2.344045858724187
1648125520090474709,28150,11,4,0.799655973911,-0.389697611332,0.0458179973066,-0.485512852669,34.2999992371,0.26744346953545145,-0.13033364927491636,0.015323744918595316,34.2999992371,-0.06560984495527027,0.40004859570761747,0.89073744378835
1648125520090478344,28151,11,5,1.11468827724,-0.435113489628,0.412743598223,-0.485512852669,34.2999992371,0.37280544389297654,-0.14552290623010034,0.13804133719832776,34.2999992371,-0.06560984495527027,0.5469412347136876,1.2657847297809386
1648125520090482157,28152,11,6,1.18467319012,1.57490575314,0.424253702164,-0.485512852669,34.2999992371,0.396211769270903,0.5267243321538461,0.1418908702889632,34.2999992371,-0.06560984495527027,0.7690292935255937,2.0158794364897985
1648125520090545064,28153,11,7,0.922174096107,-0.354536950588,0.296046584845,-0.404594063759,34.2999992371,0.3084194301361204,-0.11857423096588628,0.0990122357341137,34.2999992371,-0.05467487348094594,0.45200103763169597,1.0313801885150733
1648125520090548755,28154,11,8,0.988597989082,-0.290075659752,0.0476981587708,-0.161837622523,34.2999992371,0.3306347789571906,-0.09701527082006689,0.015952561461806018,34.2999992371,-0.021869948989594594,0.4775465180319416,1.0313801368785696
1648125520090554768,28155,11,9,1.38021695614,-0.219754293561,0.157313585281,-0.0809188112617,34.2999992371,0.4616110221204013,-0.07349641925117056,0.052613239224414715,34.2999992371,-0.010934974494824324,0.6569407851007784,1.4064275166779208
1648125520285460036,28156,13,0,0.0126051837578,0.0439508594573,0.0103562315926,0.0,12.8000001907,0.004215780521003344,0.014699284099431437,0.003463622606220736,12.8000001907,0.0,0.015862363122761385,0.04688091549237075
1648125520285469877,28157,13,1,0.0328283309937,0.0146502861753,-0.0300913602114,0.0,12.8000001907,0.010979374914280936,0.0048997612626421405,-0.01006400007070234,12.8000001907,0.0,0.01628192271961673,0.046880914669216275
1648125520285478884,28158,13,2,0.275168538094,-1.58955609798,0.299872606993,0.0,12.8000001907,0.09202961140267557,-0.5316241130367892,0.10029184180367892,12.8000001907,0.0,0.5473235755127015,1.640832073494107
1648125520285481828,28159,13,3,1.87133848667,-1.31852579117,0.504116237164,0.0,12.8000001907,0.6258657146053511,-0.44097852547491634,0.1686007482153846,12.8000001907,0.0,0.9888770628177018,2.34404589849372
1648125520285670391,28160,13,4,0.740402460098,-0.273960351944,0.109178245068,-0.647350490093,12.8000001907,0.2476262408354515,-0.09162553576722407,0.036514463233444816,12.8000001907,-0.08747979595851352,0.36198445975652727,0.7969755118901579
1648125520285676403,28161,13,5,0.848437905312,-0.194848805666,0.18868021667,-0.485512852669,12.8000001907,0.2837584967598662,-0.06516682463745818,0.06310375139464883,12.8000001907,-0.06560984495527027,0.4065519450207651,0.8907374250598877
1648125520285679351,28162,13,6,0.945239424706,-0.24612480402,0.558470666409,-0.323675245047,12.8000001907,0.3161335868581939,-0.08231598796655518,0.18677948709331102,12.8000001907,-0.04373989797932432,0.45459521703881195,1.125141979668222
1648125520390712728,28163,14,0,0.0126923779026,0.0439508594573,0.0102491816506,0.0,18.2000007629,0.004244942442341137,0.014699284099431437,0.0034278199500334446,18.2000007629,0.0,0.015877909991978672,0.04688091539597687
1648125520390750805,28164,14,1,0.0328283309937,0.0146502861753,-0.0300913602114,0.0,18.2000007629,0.010979374914280936,0.0048997612626421405,-0.01006400007070234,18.2000007629,0.0,0.01628192271961673,0.046880914669216275
1648125520390756036,28165,14,2,0.290270060301,-1.58955609798,0.285279870033,0.0,18.2000007629,0.09708028772608696,-0.5316241130367892,0.0954113277702341,18.2000007629,0.0,0.549065899589578,1.6408320757404138
1648125520390856600,28166,14,3,1.86730349064,-1.31852579117,0.518862962723,0.0,18.2000007629,0.6245162176053511,-0.44097852547491634,0.17353276345250837,18.2000007629,0.0,0.9871692215796742,2.344045938590473
1648125520390858978,28167,14,4,0.724963486195,-0.164083212614,0.100730344653,-0.647350490093,18.2000007629,0.24246270441304343,-0.054877328633444813,0.03368907847926421,18.2000007629,-0.08747979595851352,0.34725760936301575,0.750094633570759
1648125520390861090,28168,14,5,0.732596337795,-0.131852567196,0.39750623703,-0.323675245047,18.2000007629,0.24501549759030097,-0.04409784856053511,0.13294522977591972,18.2000007629,-0.04373989797932432,0.3492990242850865,0.8438564463844381
1648125520390867945,28169,14,6,0.641703188419,-0.105482056737,0.918169379234,-0.161837622523,18.2000007629,0.21461645097625415,-0.035278279845150494,0.30708005994448156,18.2000007629,-0.021869948989594594,0.30555686719188385,1.1251419711678732
1648125520585559112,28170,16,0,0.0126051837578,0.0439508594573,0.0103562315926,0.0,17.2999992371,0.004215780521003344,0.014699284099431437,0.003463622606220736,17.2999992371,0.0,0.015862363122761385,0.04688091549237075
1648125520585560423,28171,16,1,0.0327771268785,0.0146502861753,-0.0301471278071,0.0,17.2999992371,0.010962249792140466,0.0048997612626421405,-0.010082651440501671,17.2999992371,0.0,0.01625882841540115,0.04688091558880965
1648125520585561463,28172,16,2,0.634138643742,0.082041606307,0.148020803928,0.0,17.2999992371,0.2120865029237458,0.027438664316722407,0.04950528559464882,17.2999992371,0.0,0.3011880637481072,0.6563328447120923
1648125520585562486,28173,16,3,1.8961186409,-1.24527442455,0.590403914452,0.0,17.2999992371,0.6341533916053511,-0.4164797406521739,0.197459503161204,17.2999992371,0.0,0.988815666614785,2.3440458773255783
1648125520585563535,28174,16,4,2.41723966599,-0.902457654476,0.484652757645,0.0,17.2999992371,0.8084413598628761,-0.30182530250033446,0.1620912232926421,17.2999992371,0.0,1.1824776437224052,2.6253315441007965
1648125520585564769,28175,16,5,0.456256449223,-1.38152205944,-1.25609028339,0.242756426334,17.2999992371,0.15259413017491638,-0.4620475115183946,-0.4200970847458194,17.2999992371,0.03280492247756756,0.5099586650190578,1.9221175687776464
1648125520585569418,28176,16,6,0.455059349537,1.74191904068,0.673182725906,0.242756426334,17.2999992371,0.1521937623869565,0.5825816189565217,0.2251447243832776,17.2999992371,0.03280492247756756,0.6210694207292745,1.9221175662125358
1648125520585570444,28177,16,7,0.719092190266,-0.0,0.343622505665,-0.0809188112617,17.2999992371,0.24049906028963208,-0.0,0.11492391493812709,17.2999992371,-0.010934974494824324,0.34011703279958233,0.7969755356979574
1648125520689785918,28178,17,0,0.0126355709508,0.0439508594573,0.0103191342205,0.0,27.2000007629,0.00422594346180602,0.014699284099431437,0.003451215458361204,27.2000007629,0.0,0.015867770773506908,0.04688091542780209
1648125520689791750,28179,17,1,0.0328283309937,0.0146502861753,-0.0300913602114,0.0,27.2000007629,0.010979374914280936,0.0048997612626421405,-0.01006400007070234,27.2000007629,0.0,0.01628192271961673,0.046880914669216275
1648125520689795847,28180,17,2,0.741144001484,0.0498109720647,0.288781017065,0.0,27.2000007629,0.24787424798795984,0.016659187981505015,0.09658227995484948,27.2000007629,0.0,0.35094275056680735,0.7969755577750434
1648125520689800229,28181,17,3,0.290014535189,-1.58955609798,0.285539627075,0.0,27.2000007629,0.09699482782240802,-0.5316241130367892,0.09549820303511705,27.2000007629,0.0,0.5490356917457644,1.6408320748560548
1648125520689805158,28182,17,4,1.87081634998,-1.31852579117,0.506050407887,0.0,27.2000007629,0.6256910869498327,-0.44097852547491634,0.1692476280558528,27.2000007629,0.0,0.9886560233503651,2.3440458810901212
1648125520689824936,28183,17,5,2.41733837128,-0.902457654476,0.484159648418,0.0,27.2000007629,0.8084743716655518,-0.30182530250033446,0.1619263038187291,27.2000007629,0.0,1.1825227830826077,2.625331442797501
1648125520689878156,28184,17,6,0.617379486561,0.143572807312,0.170300468802,0.161837622523,27.2000007629,0.20648143363244145,0.0480176613083612,0.056956678529096985,27.2000007629,0.021869948989594594,0.2959304997247515,0.6563328660824121
1648125520689887621,28185,17,7,0.874697446823,0.167013257742,0.020594201982,0.242756426334,27.2000007629,0.2925409521147157,0.05585727683678929,0.006887692970568562,27.2000007629,0.03280492247756756,0.4174691038915221,0.8907374320727439
1648125520689914310,28186,17,8,1.24463069439,-1.23062396049,-0.901894569397,0.323675245047,27.2000007629,0.41626444628428094,-0.41157991989632103,-0.3016369797314381,27.2000007629,0.04373989797932432,0.7182967415647797,1.9689984032135799
1648125520789620709,28187,18,0,0.0126256523654,0.0439508594573,0.010331267491,0.0,23.0,0.004222626209163879,0.014699284099431437,0.0034552734083612034,23.0,0.0,0.015866004451040385,0.04688091544176436
1648125520789633823,28188,18,1,0.0327771268785,0.0146502861753,-0.0301471278071,0.0,23.0,0.010962249792140466,0.0048997612626421405,-0.010082651440501671,23.0,0.0,0.01625882841540115,0.04688091558880965
1648125520789642438,28189,18,2,0.282484740019,-1.58955609798,0.292990922928,0.0,23.0,0.09447650167859531,-0.5316241130367892,0.09799027522675584,23.0,0.0,0.5481567442812357,1.64083207485934
1648125520789649005,28190,18,3,2.42127799988,-0.902457654476,0.464056164026,0.0,23.0,0.8097919732040133,-0.30182530250033446,0.15520273044347824,23.0,0.0,1.1843245302537295,2.625331425591013
1648125520789654034,28191,18,4,0.834118306637,0.105482056737,0.0722071379423,0.0809188112617,23.0,0.27896933332341134,0.035278279845150494,0.024149544462307694,23.0,0.010934974494824324,0.39609637072138126,0.8438564359713461
1648125520789732591,28192,18,5,0.970007658005,0.32230630517,0.137654542923,0.161837622523,23.0,0.32441727692474914,0.10779475089297658,0.046038308669899664,23.0,0.021869948989594594,0.4712884970531507,1.031380135608604
1648125520789737359,28193,18,6,0.560409843922,-0.032230630517,-0.865243911743,0.161837622523,23.0,0.18742804144548494,-0.010779475089297658,-0.2893792346966555,23.0,0.021869948989594594,0.26528237507113367,1.0313801595515264
1648125520789741529,28194,18,7,0.611144661903,0.175803437829,0.300174802542,0.242756426334,23.0,0.20439620799431435,0.05879713639765886,0.10039291054916388,23.0,0.03280492247756756,0.29497919067872386,0.7032137360761349
1648125520789797625,28195,18,8,2.15357804298,-0.304725944996,-1.10097658634,0.242756426334,23.0,0.7202602150434783,-0.10191503177123744,-0.36821959409364546,23.0,0.03280492247756756,1.0236875638835745,2.4378075667345342
1648125520789801358,28196,18,9,0.423417747021,-1.90746724606,0.243394508958,0.323675245047,23.0,0.14161128662909697,-0.6379489117257524,0.08140284580535116,23.0,0.04373989797932432,0.6686451427876885,1.9689984180478577
1648125520789808892,28197,18,10,1.78507137299,0.285680562258,0.273480057716,-0.242756426334,23.0,0.5970138371204013,0.09554533854782607,0.09146490224615383,23.0,-0.03280492247756756,0.8496940361945993,1.828355690856896
1648125520890374441,28198,19,0,0.0127064259723,0.0439508594573,0.0102317612618,0.0,20.6000003815,0.004249640793411371,0.014699284099431437,0.0034219937330434783,20.6000003815,0.0,0.01588042338169389,0.04688091558985754
1648125520890387041,28199,19,1,0.0327771268785,0.0146502861753,-0.0301471278071,0.0,20.6000003815,0.010962249792140466,0.0048997612626421405,-0.010082651440501671,20.6000003815,0.0,0.01625882841540115,0.04688091558880965
1648125520890401158,28200,19,2,0.270213395357,-1.58955609798,0.30434525013,0.0,20.6000003815,0.09037237302909698,-0.5316241130367892,0.10178770907357859,20.6000003815,0.0,0.5467710025010226,1.6408320751778513
1648125520890509631,28201,19,3,2.41775751114,-0.902457654476,0.482062071562,0.0,20.6000003815,0.8086145522207357,-0.30182530250033446,0.16122477309765884,20.6000003815,0.0,1.182714463154865,2.62533141558068
1648125520890511743,28202,19,4,0.763560295105,0.149432912469,0.172671630979,0.161837622523,20.6000003815,0.2553713361555184,0.04997756269866221,0.05774970935752508,20.6000003815,0.021869948989594594,0.36459127174550987,0.7969755402361797
1648125520890512842,28203,19,5,2.67255425453,-0.339886635542,0.367965847254,0.161837622523,20.6000003815,0.8938308543578595,-0.11367446004749163,0.12306550075384615,20.6000003815,0.021869948989594594,1.269168655172074,2.7190932373075807
1648125520890513860,28204,19,6,1.13464379311,-1.27457487583,-2.11695766449,0.161837622523,20.6000003815,0.3794795294682274,-0.4262792226856187,-0.708012596819398,20.6000003815,0.021869948989594594,0.6853637007197783,2.7190931217196415
1648125520890515049,28205,19,7,0.745567321777,-0.471739202738,-0.619869530201,0.323675245047,20.6000003815,0.24935361932341135,-0.15777230860802674,-0.20731422414749162,20.6000003815,0.04373989797932432,0.38632441846571897,1.0782609800847016
1648125520890516249,28206,19,8,0.837377011776,0.134782627225,0.665792942047,0.323675245047,20.6000003815,0.28005920126287626,0.04507780174749164,0.22267322476488294,20.6000003815,0.04373989797932432,0.3986205220938664,1.0782610343196941
1648125520890517239,28207,19,9,0.037094514817,-1.88988697529,0.700514912605,0.404594063759,20.6000003815,0.012406192246488293,-0.6320692225050167,0.2342859239481605,20.6000003815,0.05467487348094594,0.632312683132491,2.0158794421250206
1648125520890520467,28208,19,10,1.68929648399,0.895132482052,1.09544503689,-0.242756426334,20.6000003815,0.5649821016688963,0.29937541205752505,0.3663695775551839,20.6000003815,-0.03280492247756756,0.8532497804025613,2.2034029590822657
1648125520989506028,28209,20,0,0.0126355709508,0.0439508594573,0.0103191342205,0.0,14.0,0.00422594346180602,0.014699284099431437,0.003451215458361204,14.0,0.0,0.015867770773506908,0.04688091542780209
1648125520989513195,28210,20,1,0.0328283309937,0.0146502861753,-0.0300913602114,0.0,14.0,0.010979374914280936,0.0048997612626421405,-0.01006400007070234,14.0,0.0,0.01628192271961673,0.046880914669216275
1648125520989665576,28211,20,2,0.267375379801,-1.58955609798,0.306841522455,0.0,14.0,0.08942320394682274,-0.5316241130367892,0.10262258276086957,14.0,0.0,0.5464587965898097,1.6408320761892836
1648125520989679221,28212,20,3,2.42088651657,-0.902457654476,0.466094136238,0.0,14.0,0.8096610423311036,-0.30182530250033446,0.15588432650100334,14.0,0.0,1.1841454809974983,2.62533142442401
1648125520989716037,28213,20,4,0.65194028616,0.257845044136,0.266705393791,0.242756426334,14.0,0.2180402294849498,0.08623580071438126,0.08919912835819398,14.0,0.03280492247756756,0.3201869714284915,0.7500946410827709
1648125520989732962,28214,20,5,1.48976588249,-0.934688270092,-2.07374620438,0.242756426334,14.0,0.4982494590267558,-0.31260477260602004,-0.6935606034715718,14.0,0.03280492247756756,0.7708610709440263,2.7190932067619973
1648125520989736506,28215,20,6,2.12380075455,0.339886635542,-1.66355490685,0.242756426334,14.0,0.710301255702341,0.11367446004749163,-0.5563728785451505,14.0,0.03280492247756756,1.0109290927516794,2.7190931389255355
1648125520989749088,28216,20,7,0.653640389442,-1.74045407772,0.893618524075,0.566431701183,14.0,0.21860882590033442,-0.5820916647892976,0.29886907159698994,14.0,0.07654482448418919,0.6590981290674565,2.062760340401193
1648125520989753355,28217,20,8,2.00889754295,0.257845044136,0.390930593014,0.566431701183,14.0,0.6718720879431437,0.08623580071438126,0.1307460177304348,14.0,0.07654482448418919,0.954075897630272,2.062760318944089
1648125521090274520,28218,21,0,0.0126256523654,0.0439508594573,0.010331267491,0.0,23.2000007629,0.004222626209163879,0.014699284099431437,0.0034552734083612034,23.2000007629,0.0,0.015866004451040385,0.04688091544176436
1648125521090299324,28219,21,1,0.0327771268785,0.0146502861753,-0.0301471278071,0.0,23.2000007629,0.010962249792140466,0.0048997612626421405,-0.010082651440501671,23.2000007629,0.0,0.01625882841540115,0.04688091558880965
1648125521090304323,28220,21,2,0.490574806929,-1.53828001022,0.292165875435,0.0,23.2000007629,0.16407184178227424,-0.51447491980602,0.09771433961036789,23.2000007629,0.0,0.5643789344412723,1.6408320845853084
1648125521090311816,28221,21,3,2.39408969879,-0.984499275684,0.437562763691,0.0,23.2000007629,0.800698895916388,-0.32926397180066885,0.14634206143511705,23.2000007629,0.0,1.179259177182606,2.625331499419382
1648125521090318465,28222,21,4,0.658626377583,0.304725944996,0.189724519849,0.161837622523,23.2000007629,0.2202763804625418,0.10191503177123744,0.06345301667190635,23.2000007629,0.021869948989594594,0.32776522280481385,0.7500946608487113
1648125521090484413,28223,21,5,2.02605462074,0.5186201334,-1.81017899513,0.242756426334,23.2000007629,0.6776102410501672,0.17345154963210702,-0.6054110351605351,23.2000007629,0.03280492247756756,0.9738566206695474,2.7659739990461945
1648125521090488621,28224,21,6,1.29508054256,-0.6050568223,-2.36797070503,0.242756426334,23.2000007629,0.4331373052040134,-0.20236014123745819,-0.7919634464983276,23.2000007629,0.03280492247756756,0.6451088877704548,2.7659740833582576
1648125521090513505,28225,21,7,0.809865117073,0.334026515484,0.161114931107,0.404594063759,23.2000007629,0.2708578986866221,0.11171455367357858,0.05388459234347826,23.2000007629,0.05467487348094594,0.39900895236116163,0.890737470820477
1648125521090525354,28226,21,8,0.781439781189,-1.68478286266,1.0961047411,0.485512852669,23.2000007629,0.2613510973876254,-0.5634725293177257,0.3665902144147157,23.2000007629,0.06560984495527027,0.6738769053077479,2.1565219751719282
1648125521090653898,28227,21,9,2.0717959404,0.336956560612,0.494680523872,0.485512852669,23.2000007629,0.692908341270903,0.11269450187692308,0.16544499126153844,23.2000007629,0.06560984495527027,0.9863792321206262,2.15652195979908
1648125521285364051,28228,23,0,0.0127124926075,0.0439508594573,0.0102242222056,0.0,25.5,0.004251669768394649,0.014699284099431437,0.0034194723095652174,25.5,0.0,0.015881509521287952,0.046880915467176654
1648125521285373407,28229,23,1,0.0328283309937,0.0146502861753,-0.0300913602114,0.0,25.5,0.010979374914280936,0.0048997612626421405,-0.01006400007070234,25.5,0.0,0.01628192271961673,0.046880914669216275
1648125521285499822,28230,23,2,0.493675261736,-1.53828001022,0.286895930767,0.0,25.5,0.16510878318929764,-0.51447491980602,0.09595181631003344,25.5,0.0,0.5649834189442303,1.6408320843350226
1648125521285544630,28231,23,3,2.39117765427,-0.984499275684,0.45320558548,0.0,25.5,0.7997249679832775,-0.32926397180066885,0.15157377440802675,25.5,0.0,1.1779366756993603,2.6253313506703813
1648125521285603309,28232,23,4,0.811855316162,0.46880915761,0.0153964813799,0.161837622523,25.5,0.2715235171110368,0.15679236040468228,0.005149324876220735,25.5,0.021869948989594594,0.41476967701360085,0.9376183297474407
1648125521285604672,28233,23,5,1.50145280361,0.879017174244,-2.21023106575,0.242756426334,25.5,0.5021581282976588,0.29398567700468226,-0.7392077142976587,25.5,0.03280492247756756,0.7686046772657041,2.8128549692599893
1648125521285605743,28234,23,6,1.92387890816,1.93383777142,0.686378061771,0.242756426334,25.5,0.6434377619264214,0.6467684854247491,0.2295578801909699,25.5,0.03280492247756756,1.1163932016473355,2.812855030589757
1648125521285606779,28235,23,7,0.663352429867,0.398487776518,0.190633311868,0.323675245047,25.5,0.22185699995551839,0.1332735038521739,0.06375696049096989,25.5,0.04373989797932432,0.3408854407092817,0.796975541555997
1648125521285607721,28236,23,8,1.51805984974,-1.51483952999,0.505707919598,0.323675245047,25.5,0.5077123243277591,-0.5066352943110367,0.16913308347759196,25.5,0.04373989797932432,0.8787621578050697,2.2034030518625256
1648125521389559873,28237,24,0,0.0126288169995,0.0439508594573,0.0103273997083,0.0,24.8999996185,0.004223684615217391,0.014699284099431437,0.003453979835551839,24.8999996185,0.0,0.015866567886390744,0.04688091563287978
1648125521389567747,28238,24,1,0.0328283309937,0.0146502861753,-0.0300913602114,0.0,24.8999996185,0.010979374914280936,0.0048997612626421405,-0.01006400007070234,24.8999996185,0.0,0.01628192271961673,0.046880914669216275
1648125521389591656,28239,24,2,0.469130784273,-1.53828001022,0.325485557318,0.0,24.8999996185,0.15689992785050166,-0.51447491980602,0.1088580459257525,24.8999996185,0.0,0.5602853003857909,1.640832084833074
1648125521389594001,28240,24,3,2.39137411118,-0.984499275684,0.452168226242,0.0,24.8999996185,0.7997906726354516,-0.32926397180066885,0.15122683151906352,24.8999996185,0.0,1.1780258924129332,2.6253314206528464
1648125521389663347,28241,24,4,0.79116243124,0.584546387196,0.0400774106383,0.161837622523,24.8999996185,0.264602819812709,0.1955004639451505,0.013403816266989964,24.8999996185,0.021869948989594594,0.422196323892621,0.9844991976801986
1648125521389680833,28242,24,5,1.52189767361,-1.28043496609,0.833607017994,0.323675245047,24.8999996185,0.5089958774615384,-0.4282391190936455,0.27879833377725755,24.8999996185,0.04373989797932432,0.8375812495918139,2.1565219432628733
1648125521389696637,28243,24,6,2.15938997269,0.562570989132,0.290389925241,0.323675245047,24.8999996185,0.7222040042441471,0.1881508324856187,0.0971203763347826,24.8999996185,0.04373989797932432,1.038536462170487,2.2502838666818348
1648125521389700741,28244,24,7,0.676749169827,0.474669247866,0.169686049223,0.404594063759,24.8999996185,0.22633751499230767,0.15875225681137123,0.05675118703110368,24.8999996185,0.05467487348094594,0.3572948648224457,0.8438564386387759
1648125521490362630,28245,25,0,0.0126051837578,0.0439508594573,0.0103562315926,0.0,41.5,0.004215780521003344,0.014699284099431437,0.003463622606220736,41.5,0.0,0.015862363122761385,0.04688091549237075
1648125521490366746,28246,25,1,0.0328283309937,0.0146502861753,-0.0300913602114,0.0,41.5,0.010979374914280936,0.0048997612626421405,-0.01006400007070234,41.5,0.0,0.01628192271961673,0.046880914669216275
1648125521490370974,28247,25,2,0.653949975967,0.44536870718,0.409156829119,0.0,41.5,0.21871236654414714,0.14895274487625418,0.13684174886923076,41.5,0.0,0.3433032460738657,0.8907374288852686
1648125521490378363,28248,25,3,0.487399816513,-1.53828001022,0.297432273626,0.0,41.5,0.16300997207792642,-0.51447491980602,0.09947567679799331,41.5,0.0,0.5637631994934605,1.6408320841492834
1648125521490449577,28249,25,4,2.42122817039,-0.902457654476,0.46431607008,0.0,41.5,0.8097753078227424,-0.30182530250033446,0.15528965554515048,41.5,0.0,1.1843017400765115,2.6253314236772023
1648125521490453467,28250,25,5,0.789033830166,0.584546387196,0.0704970285296,0.161837622523,41.5,0.26389091309899665,0.1955004639451505,0.023577601514916387,41.5,0.021869948989594594,0.4213042361942418,0.9844992102393112
1648125521490455238,28251,25,6,0.653208255768,0.501039743423,0.185396552086,0.242756426334,41.5,0.21846429958795985,0.16757182054280934,0.06200553581471572,41.5,0.03280492247756756,0.35147349178700127,0.8438564637533065
1648125521490551928,28252,25,7,1.69457578659,-1.33610606194,0.637974262238,0.323675245047,41.5,0.5667477547123745,-0.4468582146956522,0.21336931847424748,41.5,0.04373989797932432,0.917653692295749,2.2502839075387917
1648125521490556151,28253,25,8,0.580847024918,1.17055785656,1.77409017086,0.404594063759,41.5,0.1942632190361204,0.39149092192642143,0.5933411942675585,41.5,0.05467487348094594,0.47826931585807464,2.203403026287406
1648125521490558805,28254,25,9,0.671452522278,0.5845464468,0.0294981766492,0.485512852669,41.5,0.22456606096254178,0.19550048387959865,0.009865610919464883,41.5,0.06560984495527027,0.3729346734612126,0.8907374363782072
1648125521685345037,28255,27,0,0.0126923779026,0.0439508594573,0.0102491816506,0.0,32.7999992371,0.004244942442341137,0.014699284099431437,0.0034278199500334446,32.7999992371,0.0,0.015877909991978672,0.04688091539597687
1648125521685409236,28256,27,1,0.0327771268785,0.0146502861753,-0.0301471278071,0.0,32.7999992371,0.010962249792140466,0.0048997612626421405,-0.010082651440501671,32.7999992371,0.0,0.01625882841540115,0.04688091558880965
1648125521685419398,28257,27,2,0.671900272369,0.615311980247,0.373068243265,0.0,32.7999992371,0.22471581015685616,0.2057899599488294,0.12477198771404681,32.7999992371,0.0,0.3786078423443514,0.9844992245694529
1648125521685430613,28258,27,3,0.486913353205,-1.53828001022,0.298227965832,0.0,32.7999992371,0.162847275319398,-0.51447491980602,0.09974179459264214,32.7999992371,0.0,0.5636691523112777,1.6408320825045057
1648125521685436567,28259,27,4,2.39202260971,-0.984499275684,0.448724508286,0.0,32.7999992371,0.8000075617759197,-0.32926397180066885,0.1500750863832776,32.7999992371,0.0,1.178320398246273,2.6253313454729237
1648125521685532631,28260,27,5,0.574983894825,0.640217542648,0.230061292648,0.161837622523,32.7999992371,0.19230230596153844,0.21411957948093643,0.07694357613645483,32.7999992371,0.021869948989594594,0.34613226962151816,0.890737435834623
1648125521790385634,28261,28,0,0.0126256523654,0.0439508594573,0.010331267491,0.0,38.4000015259,0.004222626209163879,0.014699284099431437,0.0034552734083612034,38.4000015259,0.0,0.015866004451040385,0.04688091544176436
1648125521790393319,28262,28,1,0.0328283309937,0.0146502861753,-0.0300913602114,0.0,38.4000015259,0.010979374914280936,0.0048997612626421405,-0.01006400007070234,38.4000015259,0.0,0.01628192271961673,0.046880914669216275
1648125521790413282,28263,28,2,0.487114459276,-1.53828001022,0.297899365425,0.0,38.4000015259,0.1629145348749164,-0.51447491980602,0.0996318947909699,38.4000015259,0.0,0.5637080223452842,1.640832081048762
1648125521790416681,28264,28,3,2.39229440689,-0.984499275684,0.447273522615,0.0,38.4000015259,0.8000984638428094,-0.32926397180066885,0.14958980689464882,38.4000015259,0.0,1.1784438326934374,2.6253313994792977
1648125521790420186,28265,28,4,0.603337883949,0.707608819008,0.323282927275,0.0809188112617,38.4000015259,0.20178524546789298,0.23665846789565215,0.10812138035953177,38.4000015259,0.010934974494824324,0.3707314405385562,0.9844992097576546
1648125521985432522,28266,30,0,0.0126051837578,0.0439508594573,0.0103562315926,0.0,28.1000003815,0.004215780521003344,0.014699284099431437,0.003463622606220736,28.1000003815,0.0,0.015862363122761385,0.04688091549237075
1648125521985480554,28267,30,1,0.0327771268785,0.0146502861753,-0.0301471278071,0.0,28.1000003815,0.010962249792140466,0.0048997612626421405,-0.010082651440501671,28.1000003815,0.0,0.01625882841540115,0.04688091558880965
1648125521985490734,28268,30,2,0.479242891073,-1.53828001022,0.310404241085,0.0,28.1000003815,0.1602819033688963,-0.51447491980602,0.10381412745317724,28.1000003815,0.0,0.5621966028041464,1.6408320850623337
1648125521985498732,28269,30,3,2.39335989952,-0.984499275684,0.441536843777,0.0,28.1000003815,0.8004548158929765,-0.32926397180066885,0.147671185209699,28.1000003815,0.0,1.1789277279369035,2.625331448953686
1648125521985569575,28270,30,4,0.118005186319,0.779395222664,0.414766222239,0.0809188112617,28.1000003815,0.03946661749799331,0.2606672985498327,0.1387178000799331,28.1000003815,0.010934974494824324,0.26657582097169547,0.8907374227122489
1648125521985585954,28271,30,5,0.6702221632,0.773535132408,0.127242654562,0.0809188112617,28.1000003815,0.22415456963210703,0.2587074021431438,0.04255607175986622,28.1000003815,0.010934974494824324,0.4091699672477986,1.031380163787308
1648125522089595430,28272,31,0,0.0127124926075,0.0439508594573,0.0102242222056,0.0,24.7000007629,0.004251669768394649,0.014699284099431437,0.0034194723095652174,24.7000007629,0.0,0.015881509521287952,0.046880915467176654
1648125522089602947,28273,31,1,0.0328039452434,0.0146502861753,-0.0301179438829,0.0,24.7000007629,0.010971219144949832,0.0048997612626421405,-0.010072890930735786,24.7000007629,0.0,0.016270923744026212,0.04688091565108008
1648125522089610243,28274,31,2,0.48421689868,-1.53828001022,0.302586376667,0.0,24.7000007629,0.16194545106354513,-0.51447491980602,0.10119945707926421,24.7000007629,0.0,0.5631492709306839,1.6408320785973758
1648125522089613747,28275,31,3,2.3925652504,-0.984499275684,0.445822298527,0.0,24.7000007629,0.8001890469565217,-0.32926397180066885,0.14910444766789296,24.7000007629,0.0,1.1785668351282947,2.625331373961739
1648125522089619341,28276,31,4,0.562536418438,0.769140005112,0.247416958213,0.0809188112617,24.7000007629,0.18813927038060196,0.2572374599036789,0.08274814655953176,24.7000007629,0.010934974494824324,0.37008631546760457,0.9844992233334231
1648125522190364417,28277,32,0,0.0126051837578,0.0439508594573,0.0103562315926,0.0,24.0,0.004215780521003344,0.014699284099431437,0.003463622606220736,24.0,0.0,0.015862363122761385,0.04688091549237075
1648125522190373360,28278,32,1,0.0328283309937,0.0146502861753,-0.0300913602114,0.0,24.0,0.010979374914280936,0.0048997612626421405,-0.01006400007070234,24.0,0.0,0.01628192271961673,0.046880914669216275
1648125522190375446,28279,32,2,0.235599026084,0.779395222664,0.361177712679,0.0,24.0,0.07879566089765885,0.2606672985498327,0.12079522163177257,24.0,0.0,0.2834871300180404,0.8907374216564776
1648125522190381785,28280,32,3,0.482933342457,-1.53828001022,0.304630815983,0.0,24.0,0.1615161680458194,-0.51447491980602,0.10188321604782609,24.0,0.0,0.5629026453924528,1.6408320868222934
1648125522190387945,28281,32,4,1.85193550587,-1.39177727699,0.357549518347,0.0,24.0,0.6193764233678929,-0.4654773501638796,0.11958177871137123,24.0,0.0,0.9919291664043323,2.3440458111389044
1648125522190390549,28282,32,5,2.39088821411,-0.984499275684,0.454730719328,0.0,24.0,0.7996281652541805,-0.32926397180066885,0.1520838526180602,24.0,0.0,1.1778052336704425,2.6253314654140314
1648125522190475738,28283,32,6,0.580702662468,0.83799636364,0.1558573246,0.0809188112617,24.0,0.19421493728026754,0.28026634235451503,0.05212619551839465,24.0,0.010934974494824324,0.39241318324227425,1.0313801400563987
1648125522190482676,28284,32,7,0.325223326683,0.761814892292,0.439313083887,0.161837622523,24.0,0.1087703433722408,0.2547875893953177,0.1469274528050167,24.0,0.021869948989594594,0.29762172451705765,0.9376183274717571
1648125522190492361,28285,32,8,0.560723483562,0.799905598164,0.122388511896,0.242756426334,24.0,0.18753293764615384,0.26752695590769227,0.04093261267424749,24.0,0.03280492247756756,0.3767066199864674,0.9844992325218584
1648125522190607543,28286,32,9,0.477972984314,-1.98071861267,-1.33835780621,0.242756426334,24.0,0.15985718538929763,-0.6624476965451505,-0.4476113064247491,24.0,0.03280492247756756,0.6999611347061723,2.4378076244352513
1648125522385458824,28287,34,0,0.0126188620925,0.0439508594573,0.0103395609185,0.0,18.7999992371,0.004220355214882943,0.014699284099431437,0.00345804712993311,18.7999992371,0.0,0.015864795911557678,0.04688091560040442
1648125522385467209,28288,34,1,0.0328408256173,0.0146502861753,-0.0300777256489,0.0,18.7999992371,0.010983553718160535,0.0048997612626421405,-0.010059440016354514,18.7999992371,0.0,0.016287558595146318,0.04688091607951567
1648125522385487379,28289,34,2,0.491182148457,-1.53828001022,0.291143655777,0.0,18.7999992371,0.16427496603913042,-0.51447491980602,0.09737246012608695,18.7999992371,0.0,0.5644970965768784,1.6408320819341855
1648125522385492986,28290,34,3,1.84566164017,-1.39177727699,0.388639122248,0.0,18.7999992371,0.6172781405250836,-0.4654773501638796,0.12997963954782607,18.7999992371,0.0,0.9893097437384293,2.34404591381705
1648125522385509884,28291,34,4,2.39249610901,-0.984499275684,0.446193367243,0.0,18.7999992371,0.8001659227458193,-0.32926397180066885,0.1492285509173913,18.7999992371,0.0,1.178535434755056,2.625331403160743
1648125522385516220,28292,34,5,0.489219427109,0.723724126816,0.174071639776,0.0809188112617,18.7999992371,0.16361853749464883,0.24204820294849494,0.058217939724414705,18.7999992371,0.010934974494824324,0.3348572594022286,0.8907374446888068
1648125522385518325,28293,34,6,0.451992183924,0.879017174244,0.537565231323,0.485512852669,18.7999992371,0.15116795448963208,0.29398567700468226,0.17978770278361203,18.7999992371,0.06560984495527027,0.36349838956047703,1.1251419932042552
1648125522490495740,28294,35,0,0.0126188620925,0.0439508594573,0.0103395609185,0.0,27.6000003815,0.004220355214882943,0.014699284099431437,0.00345804712993311,27.6000003815,0.0,0.015864795911557678,0.04688091560040442
1648125522490501580,28295,35,1,0.0328039452434,0.0146502861753,-0.0301179438829,0.0,27.6000003815,0.010971219144949832,0.0048997612626421405,-0.010072890930735786,27.6000003815,0.0,0.016270923744026212,0.04688091565108008
1648125522490512044,28296,35,2,0.485974609852,-1.53828001022,0.299755245447,0.0,27.6000003815,0.16253331433177257,-0.51447491980602,0.10025259045050167,27.6000003815,0.0,0.563487887753368,1.6408320811211117
1648125522490515404,28297,35,3,1.87209391594,-1.31852579117,0.501303553581,0.0,27.6000003815,0.626118366535117,-0.44097852547491634,0.16766005136488293,27.6000003815,0.0,0.9891968852332874,2.3440458922369625
1648125522490526875,28298,35,4,2.42253565788,-0.902457654476,0.457445830107,0.0,27.6000003815,0.8102125946086957,-0.30182530250033446,0.15299191642374582,27.6000003815,0.0,1.184899746879257,2.625331506553923
1648125522490534718,28299,35,5,0.645021855831,0.612381994724,0.0484587401152,0.566431701183,27.6000003815,0.21572637318762541,0.20481003168026754,0.016206936493377927,27.6000003815,0.07654482448418919,0.36745460298415833,0.8907374200376703
1648125522490598193,28300,35,6,0.548586428165,0.949338555336,0.252494931221,0.566431701183,27.6000003815,0.18347372179431437,0.3175045335571906,0.08444646529130433,27.6000003815,0.07654482448418919,0.41004187835815514,1.125141969756072
1648125522685474993,28301,37,0,0.0127264875919,0.0439508594573,0.0102067971602,0.0,27.8999996185,0.004256350365183946,0.014699284099431437,0.003413644535183946,27.8999996185,0.0,0.015884016806154574,0.04688091553853858
1648125522685502894,28302,37,1,0.0327410101891,0.0146502861753,-0.0301863476634,0.0,27.8999996185,0.01095017063180602,0.0048997612626421405,-0.010095768449297658,27.8999996185,0.0,0.01624254087765281,0.04688091529051658
1648125522685518709,28303,37,2,0.488151550293,-1.53828001022,0.296196848154,0.0,27.8999996185,0.16326138805785953,-0.51447491980602,0.09906249102140467,27.8999996185,0.0,0.5639086847802299,1.640832075122944
1648125522685524920,28304,37,3,2.39227676392,-0.984499275684,0.447368383408,0.0,27.8999996185,0.8000925631839464,-0.32926397180066885,0.14962153291237457,27.8999996185,0.0,1.178435820250923,2.6253314856389003
1648125522685532256,28305,37,4,0.637581110001,1.02845001221,0.146653801203,0.242756426334,27.8999996185,0.21323782943177258,0.34396321478595315,0.049048094047826084,27.8999996185,0.03280492247756756,0.4574400910801711,1.2189037849035278
1648125522685537051,28306,37,5,0.642043828964,0.990359306335,0.304457992315,0.404594063759,27.8999996185,0.2147303775799331,0.3312238482725752,0.10182541548996654,27.8999996185,0.05467487348094594,0.44936344730711597,1.2189038120539197
1648125522790485988,28307,38,0,0.0126392701641,0.0439508594573,0.0103146024048,0.0,32.7000007629,0.004227180656889632,0.014699284099431437,0.0034496998009364544,32.7000007629,0.0,0.015868429841914465,0.04688091530767665
1648125522790494522,28308,38,1,0.0328283309937,0.0146502861753,-0.0300913602114,0.0,32.7000007629,0.010979374914280936,0.0048997612626421405,-0.01006400007070234,32.7000007629,0.0,0.01628192271961673,0.046880914669216275
1648125522790646837,28309,38,2,1.87060332298,-1.31852579117,0.506837546825,0.0,32.7000007629,0.6256198404615384,-0.44097852547491634,0.1695108852257525,32.7000007629,0.0,0.98856584479147,2.3440459365797155
1648125522790652084,28310,38,3,2.39303255081,-0.984499275684,0.443307459354,0.0,32.7000007629,0.8003453347190636,-0.32926397180066885,0.14826336433244147,32.7000007629,0.0,1.1787790601885881,2.6253314298536545
1648125522790779067,28311,38,4,0.521076440811,1.06654083729,0.276941239834,0.161837622523,32.7000007629,0.17427305712742475,0.35670262116722407,0.09262248823879597,32.7000007629,0.021869948989594594,0.4335654008666345,1.218903796489414
1648125522790785045,28312,38,5,0.723705112934,1.02845013142,0.144056171179,0.404594063759,32.7000007629,0.24204184379063542,0.3439632546555184,0.04817932146454849,32.7000007629,0.05467487348094594,0.4852620208138668,1.2657847146175303
1648125522790788255,28313,38,6,0.8613935709,1.05482065678,0.351273238659,0.566431701183,32.7000007629,0.2880914952842809,0.352782828354515,0.11748268851471572,32.7000007629,0.07654482448418919,0.5389333384492714,1.406427527516305
1648125522985432654,28314,40,0,0.0126051837578,0.0439508594573,0.0103562315926,0.0,31.1000003815,0.004215780521003344,0.014699284099431437,0.003463622606220736,31.1000003815,0.0,0.015862363122761385,0.04688091549237075
1648125522985435706,28315,40,1,0.0327896587551,0.0146502861753,-0.0301334951073,0.0,31.1000003815,0.010966441055217392,0.0048997612626421405,-0.010078092009130433,31.1000003815,0.0,0.01626448029498648,0.04688091438608856
1648125522985494327,28316,40,2,1.87744450569,-1.31852579117,0.480877786875,0.0,31.1000003815,0.6279078614347826,-0.44097852547491634,0.1608286912625418,31.1000003815,0.0,0.9914628711319632,2.3440459850087927
1648125522985528614,28317,40,3,2.39398336411,-0.984499275684,0.438144236803,0.0,31.1000003815,0.8006633324782608,-0.32926397180066885,0.14653653404782607,31.1000003815,0.0,1.179210883208063,2.6253315112003355
1648125522985539576,28318,40,4,0.568382799625,1.10756158829,0.229040041566,0.0809188112617,31.1000003815,0.19009458181438127,0.37042193588294314,0.07660202059063545,31.1000003815,0.010934974494824324,0.4576945604370192,1.2657847444986747
1648125522985544144,28319,40,5,0.734129965305,1.06654083729,-0.215951651335,0.242756426334,31.1000003815,0.24552841648996654,0.35670262116722407,-0.07222463255351169,31.1000003815,0.03280492247756756,0.49780032799879625,1.3126657149786036
1648125522985574211,28320,40,6,0.864155888557,1.17202293873,0.360783517361,0.323675245047,31.1000003815,0.2890153473434782,0.3919809159632107,0.12066338373277591,31.1000003815,0.04373989797932432,0.5663115577837877,1.5001892930681842
1648125523090410445,28321,41,0,0.012629323639,0.0439508594573,0.0103267794475,0.0,31.8999996185,0.0042238540598662205,0.014699284099431437,0.003453772390468227,31.8999996185,0.0,0.015866658100365513,0.04688091548136884
1648125523090437382,28322,41,1,0.0328283309937,0.0146502861753,-0.0300913602114,0.0,31.8999996185,0.010979374914280936,0.0048997612626421405,-0.01006400007070234,31.8999996185,0.0,0.01628192271961673,0.046880914669216275
1648125523090498071,28323,41,2,0.565260708332,1.10756158829,0.236640378833,0.0,31.8999996185,0.1890504041244147,0.37042193588294314,0.07914393940903008,31.8999996185,0.0,0.4568287657125767,1.2657847404411573
1648125523090506745,28324,41,3,2.39351177216,-0.984499275684,0.440712243319,0.0,31.8999996185,0.8005056094180601,-0.32926397180066885,0.14739539910334448,31.8999996185,0.0,1.17899670251681,2.62533135217292
1648125523090623002,28325,41,4,0.787145256996,1.10463154316,-0.0925115048885,0.242756426334,31.8999996185,0.26325928327625414,0.3694419876789297,-0.030940302638294313,31.8999996185,0.03280492247756756,0.524498124612865,1.3595465715789499
1648125523090633468,28326,41,5,0.81908929348,1.11195671558,0.697188258171,0.242756426334,31.8999996185,0.2739429075183946,0.37189187812040136,0.23317333049197325,31.8999996185,0.03280492247756756,0.5370223479252823,1.5470702877854452
1648125523285455977,28327,43,0,0.00646429089829,0.0454158857465,0.00966594554484,0.0,24.1000003815,0.00216197020009699,0.015189259446989964,0.0032327577073043476,24.1000003815,0.0,0.015493928902644052,0.04688091550122148
1648125523285571444,28328,43,1,0.0327771268785,0.0146502861753,-0.0301471278071,0.0,24.1000003815,0.010962249792140466,0.0048997612626421405,-0.010082651440501671,24.1000003815,0.0,0.01625882841540115,0.04688091558880965
1648125523285577282,28329,43,2,0.566574394703,1.06800591946,0.374923676252,0.0,24.1000003815,0.1894897641147157,0.35719261520401335,0.12539253386354515,24.1000003815,0.0,0.4465414938891833,1.2657847177735182
1648125523285597587,28330,43,3,1.92280387878,-1.17202293873,0.650952339172,0.0,24.1000003815,0.6430782203277591,-0.3919809159632107,0.21770981243210702,24.1000003815,0.0,0.990327336489907,2.344045962227323
1648125523285600911,28331,43,4,1.88483595848,-1.31852579117,0.451037168503,0.0,24.1000003815,0.6303799192240802,-0.44097852547491634,0.150848551338796,24.1000003815,0.0,0.9945952669563369,2.344045942325128
1648125523285661030,28332,43,5,2.39377641678,-0.984499275684,0.439273566008,0.0,24.1000003815,0.8005941193244147,-0.32926397180066885,0.1469142361230769,24.1000003815,0.0,1.1791168945103034,2.6253315263310655
1648125523285669888,28333,43,6,0.976511895657,1.14565241337,0.52400881052,0.161837622523,24.1000003815,0.3265926072431438,0.383161342264214,0.1752537827826087,24.1000003815,0.021869948989594594,0.6001150526502922,1.5939511184859836
1648125523285675171,28334,43,7,1.10632109642,0.98449921608,0.239547207952,-0.161837622523,24.1000003815,0.3700070556588629,0.3292639518662207,0.08011612306086956,24.1000003815,-0.021869948989594594,0.6182436352064149,1.5001893012829028
1648125523390414220,28335,44,0,0.0126256523654,0.0439508594573,0.010331267491,0.0,16.8999996185,0.004222626209163879,0.014699284099431437,0.0034552734083612034,16.8999996185,0.0,0.015866004451040385,0.04688091544176436
1648125523390420195,28336,44,1,0.0328283309937,0.0146502861753,-0.0300913602114,0.0,16.8999996185,0.010979374914280936,0.0048997612626421405,-0.01006400007070234,16.8999996185,0.0,0.01628192271961673,0.046880914669216275
1648125523390423938,28337,44,2,0.645384669304,1.06800591946,0.212256774306,0.0,16.8999996185,0.2158477154862876,0.35719261520401335,0.0709888877277592,16.8999996185,0.0,0.46985852862067007,1.2657847185098348
1648125523390426998,28338,44,3,2.39278411865,-0.984499275684,0.44464674592,0.0,16.8999996185,0.8002622470401337,-0.32926397180066885,0.14871128626086955,16.8999996185,0.0,1.1786662340125806,2.6253314821072067
1648125523390439774,28339,44,4,0.514625072479,1.10463154316,0.026013892144,0.242756426334,16.8999996185,0.17211540885585283,0.3694419876789297,0.008700298375919732,16.8999996185,0.03280492247756756,0.4424192696881469,1.2189038247345598
1648125523585534552,28340,46,0,0.0126256523654,0.0439508594573,0.010331267491,0.0,23.3999996185,0.004222626209163879,0.014699284099431437,0.0034552734083612034,23.3999996185,0.0,0.015866004451040385,0.04688091544176436
1648125523585625178,28341,46,1,0.0328039452434,0.0146502861753,-0.0301179438829,0.0,23.3999996185,0.010971219144949832,0.0048997612626421405,-0.010072890930735786,23.3999996185,0.0,0.016270923744026212,0.04688091565108008
1648125523585633740,28342,46,2,0.716255903244,1.02845013142,0.177422761917,0.0,23.3999996185,0.23955046931237456,0.3439632546555184,0.05933871636020066,23.3999996185,0.0,0.4827831555147454,1.2657847479709772
1648125523585644279,28343,46,3,1.86678421497,-1.31852579117,0.520728170872,0.0,23.3999996185,0.624342546812709,-0.44097852547491634,0.1741565788869565,23.3999996185,0.0,0.9869494877911386,2.3440459456208047
1648125523585650386,28344,46,4,2.41915035248,-0.902457654476,0.475023180246,0.0,23.3999996185,0.809080385444816,-0.30182530250033446,0.15887062884481604,23.3999996185,0.0,1.183351449676926,2.6253314586538314
1648125523585664841,28345,46,5,0.725069403648,1.14711737633,-0.0822375267744,-0.242756426334,23.3999996185,0.24249812831036788,0.3836512964314381,-0.027504189556655515,23.3999996185,-0.03280492247756756,0.5145862432300211,1.3595465883869737
