%time,field.header.seq,field.header.frame_id,field.point_id,field.x,field.y,field.z,field.velocity,field.intensity,normalized_x,normalized_y,normalized_z,normalized_intensity,normalized_velocity,normalized_range,range
1648219244750176203,67651,0,0,0.0122110880911,0.0439508594573,0.0108181107789,0.0,14.0,0.004083975950200668,0.014699284099431437,0.0036180972504682276,14.0,0.0,0.01579324767612516,0.046880915522507595
1648219244750189649,67652,0,1,0.0333628132939,0.0146502861753,-0.0294976588339,0.0,14.0,0.011158131536421404,0.0048997612626421405,-0.0098654377370903,14.0,0.0,0.016523179451880688,0.04688091373451434
1648219244750193999,67653,0,2,1.03433394432,-0.712003946304,0.159419730306,-0.323675245047,14.0,0.34593108505685616,-0.23812841013511704,0.05331763555384615,14.0,-0.04373989797932432,0.544097207243987,1.2657847282756558
1648219244750196041,67654,0,3,1.11192154884,-0.69735366106,0.0204837992787,-0.161837622523,14.0,0.3718801166688963,-0.23322864918394645,0.006850768989531773,14.0,-0.021869948989594594,0.5753131713662675,1.3126657020739974
1648219244855360771,67655,1,0,0.00558724580333,0.0454158857465,0.0101980511099,0.0,28.1000003815,0.0018686440813812707,0.015189259446989964,0.0034107194347491637,28.1000003815,0.0,0.01541743376680232,0.0468809155226954
1648219244855362510,67656,1,1,0.0334378667176,0.0146502861753,-0.029412554577,0.0,28.1000003815,0.01118323301591973,0.0048997612626421405,-0.009836974774916388,28.1000003815,0.0,0.016557084942936142,0.04688091490561134
1648219244855364245,67657,1,2,2.14894413948,-1.14272224903,0.138315007091,0.0,28.1000003815,0.7187104145418061,-0.3821813541906354,0.046259199695986616,28.1000003815,0.0,1.0858876127080084,2.4378076409389244
1648219244855366739,67658,1,3,1.11019992828,-0.69735366106,-0.0651545450091,-0.323675245047,28.1000003815,0.3713043238394648,-0.23322864918394645,-0.021790817728795986,28.1000003815,-0.04373989797932432,0.5745688858648131,1.3126656558629257
1648219245050263577,67659,3,0,0.00556060066447,0.0454158857465,0.0102126039565,0.0,33.4000015259,0.001859732663702341,0.015189259446989964,0.003415586607525083,33.4000015259,0.0,0.015415278580319484,0.04688091549299315
1648219245050413888,67660,3,1,0.0334149859846,0.0146502861753,-0.0294385440648,0.0,33.4000015259,0.011175580596856187,0.0048997612626421405,-0.009845666911304347,33.4000015259,0.0,0.01654674783105567,0.04688091349391959
1648219245050421342,67661,3,2,1.69349503517,-1.53828012943,0.510215520859,0.0,33.4000015259,0.5663862993879598,-0.5144749596755852,0.1706406424277592,33.4000015259,0.0,0.9519828593005077,2.3440458759311937
1648219245050423526,67662,3,3,0.961299061775,-1.08119118214,1.2654902935,-0.566431701183,33.4000015259,0.3215047029347826,-0.3616024020535117,0.4232409008361204,33.4000015259,-0.07654482448418919,0.580936179962339,1.922117567020681
1648219245050424691,67663,3,4,0.457440137863,1.80198526382,0.487989336252,-0.566431701183,33.4000015259,0.1529900126632107,0.6026706567959866,0.1632071358702341,33.4000015259,-0.07654482448418919,0.6403310147980376,1.9221175726391513
1648219245050425747,67664,3,5,1.12763774395,-0.457088917494,0.0723144933581,-0.404594063759,33.4000015259,0.3771363692140468,-0.15287254765685618,0.024185449283645483,33.4000015259,-0.05467487348094594,0.5548276289037933,1.2189038296871995
1648219245155287573,67665,4,0,0.0122110880911,0.0439508594573,0.0108181107789,0.0,27.2999992371,0.004083975950200668,0.014699284099431437,0.0036180972504682276,27.2999992371,0.0,0.01579324767612516,0.046880915522507595
1648219245155377884,67666,4,1,0.0334981679916,0.0146502861753,-0.0293438583612,0.0,27.2999992371,0.011203400666086955,0.0048997612626421405,-0.009813999451906355,27.2999992371,0.0,0.016584330960296344,0.04688091474506239
1648219245155389064,67667,4,2,2.11065673828,-1.12074685097,-0.0747286751866,0.0,27.2999992371,0.7059052636387959,-0.3748317227324415,-0.02499286795538461,27.2999992371,0.0,1.0663504596672175,2.3909265454423907
1648219245155392564,67668,4,3,2.44256711006,-0.902457654476,0.334365844727,0.0809188112617,27.2999992371,0.8169120769431438,-0.30182530250033446,0.1118280417147157,27.2999992371,0.010934974494824324,1.19406415076433,2.6253312978344625
1648219245155508636,67669,4,4,1.09304535389,-0.24612480402,0.103048823774,-0.323675245047,27.2999992371,0.36556700798996655,-0.08231598796655518,0.03446448955652174,27.2999992371,-0.04373989797932432,0.5235020501740013,1.1251420465415038
1648219245350403902,67670,6,0,0.0122110880911,0.0439508594573,0.0108181107789,0.0,34.2000007629,0.004083975950200668,0.014699284099431437,0.0036180972504682276,34.2000007629,0.0,0.01579324767612516,0.046880915522507595
1648219245350421608,67671,6,1,0.0333487987518,0.0146502861753,-0.0295135043561,0.0,34.2000007629,0.011153444398595318,0.0048997612626421405,-0.00987073724284281,34.2000007629,0.0,0.01651684910435411,0.046880915121014624
1648219245350424508,67672,6,2,2.1400437355,-1.14272224903,0.239383682609,0.0,34.2000007629,0.7157336908026755,-0.3821813541906354,0.08006143231070234,34.2000007629,0.0,1.0819482519007217,2.437807596136418
1648219245350428107,67673,6,3,1.01546466351,-0.032230630517,0.177588522434,-0.242756426334,34.2000007629,0.3396202887993311,-0.010779475089297658,0.05939415466020066,34.2000007629,-0.03280492247756756,0.4804165673782316,1.0313801334528856
1648219245350430645,67674,6,4,1.12391042709,-0.0351606868207,0.0391614884138,-0.0809188112617,34.2000007629,0.3758897749464883,-0.011759427030334446,0.013097487763812709,34.2000007629,-0.010934974494824324,0.5317184686868842,1.1251420106787027
1648219245455286883,67675,7,0,0.0122110880911,0.0439508594573,0.0108181107789,0.0,20.6000003815,0.004083975950200668,0.014699284099431437,0.0036180972504682276,20.6000003815,0.0,0.01579324767612516,0.046880915522507595
1648219245455292526,67676,7,1,0.033385772258,0.0146502861753,-0.0294716712087,0.0,20.6000003815,0.01116581011973244,0.0048997612626421405,-0.009856746223645484,20.6000003815,0.0,0.016533550486532746,0.04688091379351458
1648219245455294896,67677,7,2,2.10152482986,-1.21890377998,0.201921850443,0.0,20.6000003815,0.7028511136655519,-0.407660127083612,0.06753239145250836,20.6000003815,0.0,1.0743305614081913,2.437807512715875
1648219245455302594,67678,7,3,1.00974357128,0.096691891551,0.186584234238,0.0809188112617,20.6000003815,0.33770688002675586,0.032338425267892976,0.0624027539257525,20.6000003815,0.010934974494824324,0.47868324326596023,1.0313801811646275
1648219245455307871,67679,7,4,0.480842262506,-0.0,-2.48548483849,0.566431701183,20.6000003815,0.16081681020267558,-0.0,-0.831265832270903,20.6000003815,0.07654482448418919,0.22742931404620373,2.5315695060131276
1648219245455310423,67680,7,5,1.25562119484,-1.64815723896,0.396962553263,-0.647350490093,20.6000003815,0.41994019894314377,-0.5512231568428093,0.13276339574013377,20.6000003815,-0.08747979595851352,0.810275576588957,2.109641234418962
1648219245455451412,67681,7,6,1.06951022148,0.134782627225,-0.0250690672547,-0.0809188112617,20.6000003815,0.35769572624749163,0.04507780174749164,-0.008384303429665552,20.6000003815,-0.010934974494824324,0.5078626520643422,1.078261066989295
1648219245650318851,67682,9,0,0.00560000818223,0.0454158857465,0.0101910484955,0.0,14.8999996185,0.001872912435528428,0.015189259446989964,0.003408377423244147,14.8999996185,0.0,0.015418469591055006,0.046880915511728405
1648219245650493717,67683,9,1,0.0334149859846,0.0146502861753,-0.0294385440648,0.0,14.8999996185,0.011175580596856187,0.0048997612626421405,-0.009845666911304347,14.8999996185,0.0,0.01654674783105567,0.04688091349391959
1648219245650642260,67684,9,2,2.10408329964,-1.21890377998,0.173242881894,0.0,14.8999996185,0.7037067891772575,-0.407660127083612,0.057940763175250834,14.8999996185,0.0,1.0754502636022538,2.4378076324436306
1648219245650649262,67685,9,3,0.86704146862,0.351606875658,0.0611531920731,0.404594063759,14.8999996185,0.2899804242876254,0.11759427279531771,0.020452572599698994,14.8999996185,0.05467487348094594,0.4266212675597902,0.9376182678560802
1648219245650652981,67686,9,4,1.55548501015,0.703213751316,-2.23564529419,0.485512852669,14.8999996185,0.5202291003846153,0.23518854559063543,-0.747707456250836,14.8999996185,0.06560984495527027,0.772392572304402,2.8128549692927924
1648219245650655012,67687,9,5,1.56409728527,-0.703213751316,-2.22962856293,0.485512852669,14.8999996185,0.5231094599565217,-0.23518854559063543,-0.7456951715484949,14.8999996185,0.06560984495527027,0.7762735768844937,2.8128550311848994
1648219245650658224,67688,9,6,0.992822349072,0.303260922432,0.291518986225,0.566431701183,14.8999996185,0.33204760838528424,0.10142505766956521,0.09749798870401337,14.8999996185,0.07654482448418919,0.4804146862784784,1.0782609717599925
1648219245755336353,67689,10,0,0.00556060066447,0.0454158857465,0.0102126039565,0.0,35.2000007629,0.001859732663702341,0.015189259446989964,0.003415586607525083,35.2000007629,0.0,0.015415278580319484,0.04688091549299315
1648219245755339172,67690,10,1,0.0334149859846,0.0146502861753,-0.0294385440648,0.0,35.2000007629,0.011175580596856187,0.0048997612626421405,-0.009845666911304347,35.2000007629,0.0,0.01654674783105567,0.04688091349391959
1648219245755340889,67691,10,2,0.880508720875,1.59981119633,-0.0905162245035,0.0,35.2000007629,0.29448452203177256,0.5350539118160534,-0.030272984783779263,35.2000007629,0.0,0.678030202853991,1.8283557253275748
1648219245755345990,67692,10,3,2.1113152504,-1.12074685097,-0.0529489740729,0.0,35.2000007629,0.7061255018060201,-0.3748317227324415,-0.01770868698090301,35.2000007629,0.0,1.0666420528781795,2.3909264280579943
1648219245755347813,67693,10,4,1.03844714165,0.439508616924,0.319527059793,0.566431701183,35.2000007629,0.34730673633779263,0.1469928484695652,0.1068652373889632,35.2000007629,0.07654482448418919,0.5126898045723306,1.1720229657696397
1648219245755349404,67694,10,5,0.316529810429,0.290075659752,-0.937768638134,-0.485512852669,35.2000007629,0.10586281285250836,0.09701527082006689,-0.31363499603143813,35.2000007629,-0.06560984495527027,0.17839796260714788,1.0313801568473546
1648219245755351183,67695,10,6,0.796960771084,0.64461261034,0.114337690175,-0.485512852669,35.2000007629,0.2665420639076923,0.21558950178595315,0.038240030158862875,35.2000007629,-0.06560984495527027,0.4342443746839562,1.0313801410976977
1648219245950349657,67696,12,0,0.00556060066447,0.0454158857465,0.0102126039565,0.0,32.5,0.001859732663702341,0.015189259446989964,0.003415586607525083,32.5,0.0,0.015415278580319484,0.04688091549299315
1648219245950351909,67697,12,1,0.0335209183395,0.0146502861753,-0.0293178688735,0.0,32.5,0.011211009478093645,0.0048997612626421405,-0.009805307315551839,32.5,0.0,0.016594611398484137,0.04688091601734499
1648219245950357634,67698,12,2,0.969246804714,0.75155967474,0.312937170267,0.161837622523,32.5,0.32416281094113714,0.25135775074916383,0.10466126095886287,32.5,0.021869948989594594,0.5228228905243129,1.2657847311760049
1648219246055404475,67699,13,0,0.00556060066447,0.0454158857465,0.0102126039565,0.0,35.2000007629,0.001859732663702341,0.015189259446989964,0.003415586607525083,35.2000007629,0.0,0.015415278580319484,0.04688091549299315
1648219246055407099,67700,13,1,0.0334466174245,0.0146502861753,-0.0294026006013,0.0,35.2000007629,0.011186159673745819,0.0048997612626421405,-0.009833645686053511,35.2000007629,0.0,0.016561038521903233,0.04688091321933288
1648219246055409791,67701,13,2,1.00004565716,0.712003946304,0.308496206999,0.0,35.2000007629,0.3344634304882943,0.23812841013511704,0.10317598896287625,35.2000007629,0.0,0.5295627558481381,1.2657846758788855
1648219246055412347,67702,13,3,1.18405723572,0.747164607048,0.133385658264,0.161837622523,35.2000007629,0.39600576445484953,0.24988782844414714,0.04461058804816053,35.2000007629,0.021869948989594594,0.613257741710181,1.4064274674922275
1648219246250372016,67703,15,0,0.0122110880911,0.0439508594573,0.0108181107789,0.0,15.6000003815,0.004083975950200668,0.014699284099431437,0.0036180972504682276,15.6000003815,0.0,0.01579324767612516,0.046880915522507595
1648219246250374191,67704,15,1,0.0334694497287,0.0146502861753,-0.0293766111135,0.0,15.6000003815,0.011193795895886286,0.0048997612626421405,-0.009824953549665552,15.6000003815,0.0,0.016571354608130556,0.04688091542060558
1648219246250405044,67705,15,2,0.976681947708,0.861436843872,0.164651870728,0.0,15.6000003815,0.32664948083879597,0.28810596785016723,0.05506751529364548,15.6000003815,0.0,0.5444307259655644,1.3126657234395491
1648219246355326399,67706,16,0,0.00562270963565,0.0454158857465,0.0101785408333,0.0,12.3000001907,0.0018805048948662205,0.015189259446989964,0.003404194258628762,12.3000001907,0.0,0.015420317761551009,0.04688091546974235
1648219246355328966,67707,16,1,0.0333628132939,0.0146502861753,-0.0294976588339,0.0,12.3000001907,0.011158131536421404,0.0048997612626421405,-0.0098654377370903,12.3000001907,0.0,0.016523179451880688,0.04688091373451434
1648219246355339693,67708,16,2,2.10940623283,-1.12074685097,-0.104218624532,0.0,12.3000001907,0.7054870343913043,-0.3748317227324415,-0.03485572726822742,12.3000001907,0.0,1.0657967591220405,2.390926531861773
1648219246355342818,67709,16,3,0.870792269707,0.909782767296,-0.127385929227,-0.242756426334,12.3000001907,0.2912348728117057,0.30427517300869567,-0.04260398970802676,12.3000001907,-0.03280492247756756,0.5120731228963031,1.2657847509016935
1648219246355460477,67710,16,4,1.01401269436,0.892202436924,0.155305594206,-0.0809188112617,12.3000001907,0.33913468038795985,0.2983954638541806,0.051941670303010036,12.3000001907,-0.010934974494824324,0.5648579606701485,1.3595465274745215
1648219246550317682,67711,18,0,0.0122110880911,0.0439508594573,0.0108181107789,0.0,15.1999998093,0.004083975950200668,0.014699284099431437,0.0036180972504682276,15.1999998093,0.0,0.01579324767612516,0.046880915522507595
1648219246550326209,67712,18,1,0.0334555059671,0.0146502861753,-0.0293924864382,0.0,15.1999998093,0.011189132430468226,0.0048997612626421405,-0.009830263022809364,15.1999998093,0.0,0.0165650544678851,0.04688091321158986
1648219246550329462,67713,18,2,2.10913920403,-1.12074685097,-0.109491460025,0.0,15.1999998093,0.7053977271003343,-0.3748317227324415,-0.036619217399665546,15.1999998093,0.0,1.0656785289960595,2.390926612373094
1648219246655420266,67714,19,0,0.00552461948246,0.0454158857465,0.0102321133018,0.0,11.8999996185,0.0018476988235652172,0.015189259446989964,0.0034221114721739126,11.8999996185,0.0,0.015412384125539514,0.04688091553271961
1648219246655423022,67715,19,1,0.0334149859846,0.0146502861753,-0.0294385440648,0.0,11.8999996185,0.011175580596856187,0.0048997612626421405,-0.009845666911304347,11.8999996185,0.0,0.01654674783105567,0.04688091349391959
1648219246655425539,67716,19,2,2.10384511948,-1.21890377998,0.176112279296,0.0,11.8999996185,0.7036271302608694,-0.407660127083612,0.05890042785819398,11.8999996185,0.0,1.0753460169136815,2.437807672177643
1648219246655428156,67717,19,3,0.884599924088,0.83799636364,0.0311697367579,-0.242756426334,11.8999996185,0.29585281742073577,0.28026634235451503,0.010424661123043478,11.8999996185,-0.03280492247756756,0.5035940843659232,1.2189038041042923
1648219246655430038,67718,19,4,0.862972378731,0.94347846508,0.297015577555,-0.242756426334,11.8999996185,0.28861952465919727,0.31554463715050163,0.09933631356354515,11.8999996185,-0.03280492247756756,0.5159175109098776,1.312665682431244
