%time,field.header.seq,field.header.frame_id,field.point_id,field.x,field.y,field.z,field.velocity,field.intensity,normalized_x,normalized_y,normalized_z,normalized_intensity,normalized_velocity,normalized_range,range
1648219662457716170,82968,0,0,0.00575314089656,0.0454158857465,0.010105391033,0.0,13.5,0.0019241273901538462,0.015189259446989964,0.0033797294424749162,13.5,0.0,0.015431076922076901,0.04688091548001862
1648219662457720670,82969,0,1,0.0334246940911,0.0146502861753,-0.0294275209308,0.0,13.5,0.01117882745521739,0.0048997612626421405,-0.009841980244414716,13.5,0.0,0.01655113370672634,0.04688091347482975
1648219662457728379,82970,0,2,1.33657026291,-0.39555773139,0.187489405274,0.0,13.5,0.4470134658561873,-0.13229355564882941,0.06270548671371237,13.5,0.0,0.6458665978201159,1.4064274825413887
1648219662457732932,82971,0,3,2.11911916733,-1.14272224903,0.382655471563,0.0,13.5,0.7087355074682274,-0.3821813541906354,0.12797841858294315,13.5,0.0,1.072695029625606,2.4378074972586896
1648219662457737571,82972,0,4,1.48079228401,-0.234404578805,-0.0536349676549,0.161837622523,13.5,0.4952482555217391,-0.07839618020234114,-0.017938116272541806,13.5,0.021869948989594594,0.7047606900678908,1.5001893229534877
1648219662457739702,82973,0,5,1.30035603046,-0.527410328388,-0.094608001411,-0.161837622523,13.5,0.43490168242809357,-0.1763914141765886,-0.03164147204381271,13.5,-0.021869948989594594,0.6398381652830578,1.4064274365835623
1648219662457845700,82974,0,6,0.96387642622,-0.79111546278,0.217461690307,-0.0809188112617,13.5,0.3223666977324415,-0.26458711129765883,0.07272966231003344,13.5,-0.010934974494824324,0.5271118620166675,1.2657847475868202
1648219662457849204,82975,0,7,0.409389257431,-0.356001973152,-1.14362323284,-0.0809188112617,13.5,0.13691948409063545,-0.11906420506755852,-0.3824826865685618,13.5,-0.010934974494824324,0.22731074584291253,1.2657847635674226
1648219662562798151,82976,1,0,0.012225298211,0.0439508594573,0.0108020491898,0.0,15.3000001907,0.004088728498662207,0.014699284099431437,0.0036127254815384612,15.3000001907,0.0,0.015795706837851316,0.04688091541429279
1648219662562802524,82977,1,1,0.0334246940911,0.0146502861753,-0.0294275209308,0.0,15.3000001907,0.01117882745521739,0.0048997612626421405,-0.009841980244414716,15.3000001907,0.0,0.01655113370672634,0.04688091347482975
1648219662562804505,82978,1,2,2.06930851936,-1.21890377998,0.418500065804,0.0,15.3000001907,0.6920764278795986,-0.407660127083612,0.13996657719197322,15.3000001907,0.0,1.0602482460570246,2.437807719698861
1648219662562808022,82979,1,3,1.21058535576,-0.410208046436,0.298836946487,-0.0809188112617,15.3000001907,0.4048780454046822,-0.13719332656722408,0.09994546705250835,15.3000001907,-0.010934974494824324,0.5887906862001239,1.312665633559087
1648219662562810141,82980,1,4,1.26509237289,-0.57136118412,0.226110294461,-0.0809188112617,15.3000001907,0.4231078170200669,-0.19109069703010034,0.07562217206053512,15.3000001907,-0.010934974494824324,0.6281370106421229,1.4064274527769642
1648219662757788628,82981,3,0,0.0122343283147,0.0439508594573,0.0107918214053,0.0,19.6000003815,0.004091748600234113,0.014699284099431437,0.0036093048178260866,19.6000003815,0.0,0.0157972708481824,0.04688091557970149
1648219662757795528,82982,3,1,0.0334246940911,0.0146502861753,-0.0294275209308,0.0,19.6000003815,0.01117882745521739,0.0048997612626421405,-0.009841980244414716,19.6000003815,0.0,0.01655113370672634,0.04688091347482975
1648219662757797702,82983,3,2,1.30244624615,-0.483459442854,0.21894992888,0.0,19.6000003815,0.4356007512207357,-0.16169212135585284,0.0732274009632107,19.6000003815,0.0,0.6368990273478947,1.406427505544272
1648219662757954540,82984,3,3,2.08636522293,-1.21890377998,0.322892993689,0.0,19.6000003815,0.6977810110133779,-0.407660127083612,0.1079909677889632,19.6000003815,0.0,1.067700078615493,2.4378076531331847
1648219662758069326,82985,3,4,0.988069415092,-0.79111546278,-0.00813239440322,-0.0809188112617,19.6000003815,0.3304579983585284,-0.26458711129765883,-0.00271986434890301,19.6000003815,-0.010934974494824324,0.5370393996934396,1.2657847290628015
1648219662862776884,82986,4,0,0.00581256346777,0.0454158857465,0.0100713288411,0.0,13.0,0.0019440011597892974,0.015189259446989964,0.003368337405050167,13.0,0.0,0.015436057902408184,0.046880915486278305
1648219662862784740,82987,4,1,0.0334246940911,0.0146502861753,-0.0294275209308,0.0,13.0,0.01117882745521739,0.0048997612626421405,-0.009841980244414716,13.0,0.0,0.01655113370672634,0.04688091347482975
1648219662862790430,82988,4,2,1.27088391781,-0.467344135046,0.121698856354,0.0,13.0,0.4250447885652174,-0.15630238630301002,0.04070195864682274,13.0,0.0,0.6210930530419062,1.3595466467715847
1648219662862792446,82989,4,3,2.11843347549,-1.14272224903,0.386433720589,0.0,13.0,0.7085061790936453,-0.3821813541906354,0.12924204701973244,13.0,0.0,1.0723919988132795,2.437807529095166
1648219662862796976,82990,4,4,0.331199973822,-0.76474493742,0.132534816861,-0.161837622523,13.0,0.11076922201404682,-0.2557675375986622,0.04432602570602006,13.0,-0.021869948989594594,0.2999277819417159,0.8438564567801754
1648219662862798499,82991,4,5,0.966788470745,-0.723724126816,0.165136128664,-0.0809188112617,13.0,0.32334062566722405,-0.24204820294849494,0.05522947446956521,13.0,-0.010934974494824324,0.517383468004477,1.2189038107624286
1648219662862802304,82992,4,6,1.47259402275,-0.281285494566,0.0539725646377,-0.0809188112617,13.0,0.4925063621237458,-0.09407541624280935,0.01805102496244147,13.0,-0.010934974494824324,0.7028337053713277,1.500189229072732
1648219663058065536,82993,6,0,0.00558515451849,0.0454158857465,0.0101991966367,0.0,18.0,0.0018679446550133778,0.015189259446989964,0.0034111025540802674,18.0,0.0,0.015417264252011769,0.04688091553253438
1648219663058067395,82994,6,1,0.0334246940911,0.0146502861753,-0.0294275209308,0.0,18.0,0.01117882745521739,0.0048997612626421405,-0.009841980244414716,18.0,0.0,0.01655113370672634,0.04688091347482975
1648219663058069215,82995,6,2,1.29776406288,-0.38237246871,0.13404007256,0.0,18.0,0.434034803638796,-0.1278837687993311,0.04482945570568562,18.0,0.0,0.6269981498073636,1.3595466188336738
1648219663058074317,82996,6,3,2.06024265289,-1.19546329975,0.206876337528,0.0,18.0,0.6890443655150501,-0.39982050158862875,0.0691894105444816,18.0,0.0,1.053290419963392,2.3909266213887412
1648219663058075457,82997,6,4,0.977360546589,-0.723724126816,0.0819524079561,-0.242756426334,18.0,0.3268764369862876,-0.24204820294849494,0.027408832092341132,18.0,-0.03280492247756756,0.5218081473724769,1.218903789039206
1648219663058077877,82998,6,5,1.42512464523,-0.227079421282,-0.171928837895,-0.161837622523,18.0,0.4766303161304347,-0.07594629474314381,-0.05750128357692307,18.0,-0.021869948989594594,0.6783220151184898,1.4533082409838687
1648219663161397577,82999,7,0,0.0123096564785,0.0439508594573,0.0107058184221,0.0,18.0,0.004116941966053511,0.014699284099431437,0.003580541278294314,18.0,0.0,0.01581035658483081,0.04688091549597757
1648219663161401273,83000,7,1,0.0334246940911,0.0146502861753,-0.0294275209308,0.0,18.0,0.01117882745521739,0.0048997612626421405,-0.009841980244414716,18.0,0.0,0.01655113370672634,0.04688091347482975
1648219663161407931,83001,7,2,1.1769092083,-0.451228827238,0.366562902927,0.0,18.0,0.39361511983277586,-0.15091265125016723,0.12259628860434782,18.0,0.0,0.5767498187509863,1.3126656470381872
1648219663161410823,83002,7,3,2.07009506226,-1.19546329975,-0.0458595380187,0.0,18.0,0.6923394857056856,-0.39982050158862875,-0.01533763813334448,18.0,0.0,1.0576031204686422,2.390926424018456
1648219663161413040,83003,7,4,0.955962121487,-0.659262895584,0.158576950431,-0.404594063759,18.0,0.3197197730725752,-0.22048926273712371,0.053035769374916386,18.0,-0.05467487348094594,0.5030476931360667,1.1720229487598448
1648219663161418099,83004,7,5,1.41793656349,-0.317911207676,0.0222137570381,-0.161837622523,18.0,0.47422627541471574,-0.10632481862073578,0.007429350179966554,18.0,-0.021869948989594594,0.6790332006921016,1.4533083241520333
1648219663262872836,83005,8,0,0.012287533842,0.0439508594573,0.0107312016189,0.0,29.1000003815,0.004109543090969899,0.014699284099431437,0.003589030641772575,29.1000003815,0.0,0.015806506314454016,0.04688091534024388
1648219663262879693,83006,8,1,0.0334016978741,0.0146502861753,-0.0294536203146,0.0,29.1000003815,0.011171136412742476,0.0048997612626421405,-0.009850709135317725,29.1000003815,0.0,0.016540744781753033,0.0468809135526118
1648219663262883988,83007,8,2,1.29087626934,-0.38237246871,0.189199671149,0.0809188112617,29.1000003815,0.4317311937591973,-0.1278837687993311,0.0632774819896321,29.1000003815,0.010934974494824324,0.6238091900988666,1.3595465284922859
1648219663262886129,83008,8,3,1.26611709595,-1.31413066387,0.113545559347,0.161837622523,29.1000003815,0.4234505337625418,-0.43950858323411374,0.03797510346053511,29.1000003815,0.021869948989594594,0.7428246790623082,1.828355681049968
1648219663262889520,83009,8,4,0.907097458839,-0.597731649876,0.292977005243,-0.647350490093,29.1000003815,0.3033770765347826,-0.19991025079464883,0.0979856204826087,29.1000003815,-0.08747979595851352,0.47332801470688596,1.1251419691295907
1648219663262896935,83010,8,5,0.86643654108,-0.5391305089,0.348242491484,-0.566431701183,29.1000003815,0.28977810738461535,-0.18031120698996655,0.11646906069698995,29.1000003815,-0.07654482448418919,0.4477218270366075,1.0782610158122343
1648219663262898975,83011,8,6,1.27794706821,-0.57136118412,0.13577927649,-0.161837622523,29.1000003815,0.42740704622408027,-0.19109069703010034,0.04541112926086956,29.1000003815,-0.021869948989594594,0.633931558463085,1.406427503922506
1648219663262998000,83012,8,7,0.604974627495,-0.0879017189145,1.26661646366,-0.161837622523,29.1000003815,0.20233265133612038,-0.02939856819882943,0.4236175463745819,29.1000003815,-0.021869948989594594,0.28764783921585324,1.4064274876848082
1648219663263000635,83013,8,8,1.12209963799,-0.492249637842,0.47082272172,-0.0809188112617,29.1000003815,0.3752841598628762,-0.16463198590033443,0.1574657932173913,29.1000003815,-0.010934974494824324,0.5556798467368216,1.3126657376578004
1648219663263008566,83014,8,9,1.32457494736,-0.54499065876,0.246153622866,-0.0809188112617,29.1000003815,0.44300165463545144,-0.18227112333110365,0.08232562637658862,29.1000003815,-0.010934974494824324,0.6524750527183993,1.4533083689841817
1648219663263080730,83015,8,10,0.829275250435,-0.0454158857465,-1.19262111187,-0.0809188112617,29.1000003815,0.27734958208528426,-0.015189259446989964,-0.3988699370802676,29.1000003815,-0.010934974494824324,0.392525534160915,1.4533083499864048
1648219663457764663,83016,10,0,0.00575314089656,0.0454158857465,0.010105391033,0.0,13.5,0.0019241273901538462,0.015189259446989964,0.0033797294424749162,13.5,0.0,0.015431076922076901,0.04688091548001862
1648219663457768352,83017,10,1,0.0334246940911,0.0146502861753,-0.0294275209308,0.0,13.5,0.01117882745521739,0.0048997612626421405,-0.009841980244414716,13.5,0.0,0.01655113370672634,0.04688091347482975
1648219663457770387,83018,10,2,1.65226912498,-1.53828012943,0.631072103977,0.0,13.5,0.5525983695585284,-0.5144749596755852,0.21106090434013375,13.5,0.0,0.9356358267032546,2.3440458652465206
1648219663457776040,83019,10,3,0.941920340061,-0.41899818182,0.0311715099961,-0.566431701183,13.5,0.3150235251040134,-0.14013317117725752,0.010425254179297658,13.5,-0.07654482448418919,0.467029922384115,1.031380175504907
1648219663457846751,83020,10,4,0.906133770943,-0.36918720603,0.108908899128,-0.485512852669,13.5,0.3030547728906354,-0.12347398194983276,0.03642438097926421,13.5,-0.06560984495527027,0.4460159357715113,0.9844992393338309
1648219663457849623,83021,10,5,1.18244755268,-0.492249637842,0.287401109934,-0.0809188112617,13.5,0.3954674089230769,-0.16463198590033443,0.09612077255317725,13.5,-0.010934974494824324,0.583003116477221,1.3126657300264208
1648219663562929044,83022,11,0,0.0123228654265,0.0439508594573,0.0106906108558,0.0,14.8000001907,0.004121359674414716,0.014699284099431437,0.003575455135719063,14.8000001907,0.0,0.015812658352332205,0.04688091530489902
1648219663562932984,83023,11,1,0.0334016978741,0.0146502861753,-0.0294536203146,0.0,14.8000001907,0.011171136412742476,0.0048997612626421405,-0.009850709135317725,14.8000001907,0.0,0.016540744781753033,0.0468809135526118
1648219663562938681,83024,11,2,2.12946271896,-1.14272224903,0.320125102997,0.0,14.8000001907,0.712194889284281,-0.3821813541906354,0.10706525183846152,14.8000001907,0.0,1.0772677049537345,2.4378075583272643
1648219663562942236,83025,11,3,1.48096311092,-0.234404578805,0.0486886948347,0.404594063759,14.8000001907,0.49530538826755854,-0.07839618020234114,0.01628384442632107,14.8000001907,0.05467487348094594,0.7048409865807123,1.5001892652179925
1648219663562945279,83026,11,4,0.879833519459,-0.293005734682,0.138451173902,-0.161837622523,14.8000001907,0.29425870216020067,-0.09799522899063544,0.046304740435451505,14.8000001907,-0.021869948989594594,0.42752711317405173,0.9376183179071274
1648219663562948019,83027,11,5,1.21107387543,-0.410208046436,0.296851277351,-0.0809188112617,14.8000001907,0.40504142990969894,-0.13719332656722408,0.0992813636625418,14.8000001907,-0.010934974494824324,0.5890153892226994,1.312665705339634
1648219663757927402,83028,13,0,0.0123096564785,0.0439508594573,0.0107058184221,0.0,21.0,0.004116941966053511,0.014699284099431437,0.003580541278294314,21.0,0.0,0.01581035658483081,0.04688091549597757
1648219663758025141,83029,13,1,0.0334246940911,0.0146502861753,-0.0294275209308,0.0,21.0,0.01117882745521739,0.0048997612626421405,-0.009841980244414716,21.0,0.0,0.01655113370672634,0.04688091347482975
1648219663758027431,83030,13,2,2.15044569969,-1.14272224903,0.112583987415,0.0,21.0,0.7192126085919732,-0.3821813541906354,0.03765350749665552,21.0,0.0,1.0865524102436706,2.437807621607098
1648219663758028527,83031,13,3,1.28923463821,-0.246124818921,0.0196981802583,0.161837622523,21.0,0.4311821532474916,-0.08231599295016721,0.006588020153277591,21.0,0.021869948989594594,0.6153145709746021,1.31266575987753
1648219663758029610,83032,13,4,0.462536513805,0.246124818921,-1.20356714725,0.161837622523,21.0,0.154694486222408,0.08231599295016721,-0.40253081847826083,21.0,0.021869948989594594,0.23374492685532564,1.3126657346907784
1648219663758030677,83033,13,5,0.898920655251,-0.0293005723506,0.264974027872,-0.161837622523,21.0,0.300642359615719,-0.009799522525284281,0.08862007621137122,21.0,-0.021869948989594594,0.42528541878641707,0.9376183143602045
1648219663758031658,83034,13,6,1.22477662563,-0.276890397072,-0.159577131271,-0.0809188112617,21.0,0.40962428950836116,-0.09260548397056856,-0.053370278017056856,21.0,-0.010934974494824324,0.5866514235658877,1.2657847113569436
1648219663862895365,83035,14,0,0.00558515451849,0.0454158857465,0.0101991966367,0.0,17.2999992371,0.0018679446550133778,0.015189259446989964,0.0034111025540802674,17.2999992371,0.0,0.015417264252011769,0.04688091553253438
1648219663862904675,83036,14,1,0.0334246940911,0.0146502861753,-0.0294275209308,0.0,17.2999992371,0.01117882745521739,0.0048997612626421405,-0.009841980244414716,17.2999992371,0.0,0.01655113370672634,0.04688091347482975
1648219663862909662,83037,14,2,2.11166238785,-1.12074685097,-0.0365808643401,0.0,17.2999992371,0.7062416012876254,-0.3748317227324415,-0.012234402789331104,17.2999992371,0.0,1.0667957719944283,2.390926536691457
1648219663862911905,83038,14,3,0.888963580132,0.117202289402,0.274108558893,-0.0809188112617,17.2999992371,0.2973122341578595,0.03919809010100334,0.09167510330869565,17.2999992371,-0.010934974494824324,0.4222861819044546,0.9376183261330648
1648219663862917901,83039,14,4,1.23877370358,-0.328166425228,0.284320056438,-0.0809188112617,17.2999992371,0.4143055864816053,-0.10975465726688963,0.09509031987892977,17.2999992371,-0.010934974494824324,0.5961076436110396,1.3126657555604708
