%time,field.header.seq,field.header.frame_id,field.point_id,field.x,field.y,field.z,field.velocity,field.intensity,normalized_x,normalized_y,normalized_z,normalized_intensity,normalized_velocity,normalized_range,range
1648126820801623063,81452,0,0,0.0126362647861,0.0439508594573,0.0103182848543,0.0,21.2999992371,0.004226175513745819,0.014699284099431437,0.003450931389397993,21.2999992371,0.0,0.015867894377697606,0.04688091548929313
1648126820801647541,81453,0,1,0.0328372865915,0.0146502861753,-0.0300815850496,0.0,21.2999992371,0.010982370097491638,0.0048997612626421405,-0.010060730785819396,21.2999992371,0.0,0.01628596224812785,0.04688091333161941
1648126820801657874,81454,0,2,0.907458364964,-0.597731649876,0.291857361794,0.0,21.2999992371,0.3034977809244147,-0.19991025079464883,0.09761115779063545,21.2999992371,0.0,0.47348274987043343,1.12514200394438
1648126820801663973,81455,0,3,2.42236447334,-0.902457654476,0.458351194859,0.0,21.2999992371,0.8101553422541805,-0.30182530250033446,0.15329471399966554,21.2999992371,0.0,1.1848214508504626,2.625331460530417
1648126820801676896,81456,0,4,1.04885411263,-0.609451889992,0.11916295439,0.161837622523,21.2999992371,0.35078732863879597,-0.20383006354247488,0.03985383089966555,21.2999992371,0.021869948989594594,0.5363303037036176,1.2189037556323463
1648126820801681039,81457,0,5,1.29782140255,-1.25699448586,0.28019502759,0.161837622523,21.2999992371,0.4340539807859531,-0.4203994935986622,0.09371071156856185,21.2999992371,0.021869948989594594,0.7440036630892867,1.8283557596609734
1648126821101305103,81458,3,0,0.0126607660204,0.0439508594573,0.0102882068604,0.0,14.5,0.004234369906488294,0.014699284099431437,0.0034408718596655517,14.5,0.0,0.015872262915090123,0.046880915559116734
1648126821101317058,81459,3,1,0.0328372865915,0.0146502861753,-0.0300815850496,0.0,14.5,0.010982370097491638,0.0048997612626421405,-0.010060730785819396,14.5,0.0,0.01628596224812785,0.04688091333161941
1648126821101351583,81460,3,2,1.70903813839,-1.50751447678,0.289059787989,0.0,14.5,0.5715846616688963,-0.5041854437391304,0.09667551437759196,14.5,0.0,0.9526914571826061,2.297164952110553
1648126821101358262,81461,3,3,1.15519046783,-0.574291229248,0.242519572377,0.161837622523,14.5,0.38635132703344477,-0.1920706452334448,0.08111022487525082,14.5,0.021869948989594594,0.5791595881632275,1.3126656756167567
1648126821101379199,81462,3,4,1.12793493271,-0.514225065708,0.256020307541,0.323675245047,14.5,0.37723576344816045,-0.17198162732709027,0.08562552091672242,14.5,0.04373989797932432,0.5605277179468533,1.265784748092383
1648126821101388081,81463,3,5,1.16570460796,-0.109877154231,0.0519381202757,-0.647350490093,14.5,0.38986776185953176,-0.0367482121173913,0.01737060878785953,14.5,-0.08747979595851352,0.5525795640163921,1.1720229478891842
1648126821101421275,81464,3,6,1.02624571323,-0.609451889992,0.247213721275,-0.161837622523,14.5,0.3432259910468227,-0.20383006354247488,0.08268017433946487,14.5,-0.021869948989594594,0.5264549901595355,1.218903808396875
1648126821101435966,81465,3,7,0.959836244583,-0.796975553036,0.833134055138,-0.161837622523,14.5,0.32101546641571904,-0.2665470077043478,0.2786401522200669,14.5,-0.021869948989594594,0.5264495860691173,1.5001893221800116
1648126821401470082,81466,6,0,0.0126506788656,0.0439508594573,0.0103006083518,0.0,22.6000003815,0.004230996276120401,0.014699284099431437,0.0034450195156521734,22.6000003815,0.0,0.015870463509705293,0.046880915682322666
1648126821401632299,81467,6,1,0.0328889451921,0.0146502861753,-0.0300250984728,0.0,22.6000003815,0.010999647221438126,0.0048997612626421405,-0.010041838954113712,22.6000003815,0.0,0.016309265416415034,0.04688091444467014
1648126821401643324,81468,6,2,1.70916354656,-1.50751447678,0.288316577673,0.0,22.6000003815,0.5716266042006688,-0.5041854437391304,0.09642694905451504,22.6000003815,0.0,0.9527417860776339,2.2971648559804985
1648126821401654344,81469,6,3,1.03230559826,-0.476134330034,0.285094797611,-0.323675245047,22.6000003815,0.34525270844816053,-0.15924225084749163,0.09534943063913043,22.6000003815,-0.04373989797932432,0.5135727405505052,1.1720229486066898
1648126821401675670,81470,6,4,1.1998039484,-0.39555773139,0.0788381099701,-0.161837622523,22.6000003815,0.40127222354515046,-0.13229355564882941,0.026367260859565218,22.6000003815,-0.021869948989594594,0.5827009349949152,1.2657846898435337
1648126821506357517,81471,7,0,0.0126506788656,0.0439508594573,0.0103006083518,0.0,38.5,0.004230996276120401,0.014699284099431437,0.0034450195156521734,38.5,0.0,0.015870463509705293,0.046880915682322666
1648126821506361923,81472,7,1,0.0328889451921,0.0146502861753,-0.0300250984728,0.0,38.5,0.010999647221438126,0.0048997612626421405,-0.010041838954113712,38.5,0.0,0.016309265416415034,0.04688091444467014
1648126821506387492,81473,7,2,0.26343241334,-1.58955609798,0.310233265162,0.0,38.5,0.08810448606688963,-0.5316241130367892,0.10375694487023411,38.5,0.0,0.546030217563437,1.6408320766722646
1648126821506402069,81474,7,3,1.74268019199,-1.53828012943,0.302177250385,0.0,38.5,0.58283618461204,-0.5144749596755852,0.10106262554682273,38.5,0.0,0.9716380603493437,2.3440458824015624
1648126821506495739,81475,7,4,1.95498681068,-0.808695793152,0.417881190777,0.242756426334,38.5,0.6538417427023411,-0.2704668204521739,0.13975959557759196,38.5,0.03280492247756756,0.963415979712594,2.156521969607475
1648126821506500249,81476,7,5,1.05133497715,-0.351606875658,0.19238422811,-0.242756426334,38.5,0.3516170492140468,-0.11759427279531771,0.06434255120735785,38.5,-0.03280492247756756,0.5109770166947301,1.1251419112336238
1648126821506507197,81477,7,6,1.24120461941,-0.237334638834,0.072762273252,-0.161837622523,38.5,0.4151186018093645,-0.07937613338929765,0.02433520844548495,38.5,-0.021869948989594594,0.5924082019082442,1.2657847314784558
1648126821701628769,81478,9,0,0.0126506788656,0.0439508594573,0.0103006083518,0.0,27.7000007629,0.004230996276120401,0.014699284099431437,0.0034450195156521734,27.7000007629,0.0,0.015870463509705293,0.046880915682322666
1648126821701638521,81479,9,1,0.0328016132116,0.0146502861753,-0.0301204826683,0.0,27.7000007629,0.010970439201204014,0.0048997612626421405,-0.010073740022842809,27.7000007629,0.0,0.01626987194066124,0.046880914991848856
1648126821701643891,81480,9,2,1.8309469223,-1.39177727699,0.452924370766,0.0,27.7000007629,0.6123568302006688,-0.4654773501638796,0.15147972266421403,27.7000007629,0.0,0.9831739106091091,2.344045884077212
1648126821701648553,81481,9,3,1.38176524639,-0.090831771493,0.441111832857,0.161837622523,27.7000007629,0.4621288449464883,-0.03037851889397993,0.14752904108929765,27.7000007629,0.021869948989594594,0.6542545323292325,1.4533083829422564
1648126821701765373,81482,9,4,1.10076475143,-0.553780794144,0.289577126503,-0.647350490093,27.7000007629,0.36814874629765887,-0.18521096794113712,0.09684853729197324,27.7000007629,-0.08747979595851352,0.5526030233782375,1.2657847835028053
1648126821701771183,81483,9,5,1.03078424931,-0.235869601369,0.21094109118,-0.0809188112617,27.7000007629,0.3447438960903009,-0.07888615430401337,0.0705488599264214,27.7000007629,-0.010934974494824324,0.49388230695573315,1.078260998749264
