%time,field.header.seq,field.header.frame_id,field.point_id,field.x,field.y,field.z,field.velocity,field.intensity,normalized_x,normalized_y,normalized_z,normalized_intensity,normalized_velocity,normalized_range,range
1648218252639707058,26560,0,0,0.00493015442044,0.0454158857465,0.0105314357206,0.0,20.5,0.001648881077070234,0.015189259446989964,0.003522219304548495,20.5,0.0,0.015367212504570061,0.04688091551031885
1648218252639756946,26561,0,1,0.0334805957973,0.0146502861753,-0.029363906011,0.0,20.5,0.011197523678026755,0.0048997612626421405,-0.009820704351505017,20.5,0.0,0.016576390845742875,0.046880914626137686
1648218252639792185,26562,0,2,0.702325940132,-0.646077632904,0.24199321866,0.0,20.5,0.23489161877324413,-0.2160794758876254,0.08093418684280936,20.5,0.0,0.39628081588653896,0.9844992391051198
1648218252639840901,26563,0,3,1.01916515827,-0.76474493742,0.474166959524,-0.242756426334,20.5,0.34085791246488295,-0.2557675375986622,0.1585842673993311,20.5,-0.03280492247756756,0.5456970462345556,1.3595465216921667
1648218252639858941,26564,0,4,0.889801442623,-0.668053030968,0.16704197228,-0.161837622523,20.5,0.2975924557267558,-0.22342910734715715,0.05586688036120401,20.5,-0.021869948989594594,0.47649040433245843,1.1251419821438962
1648218252834613066,26565,2,0,0.00493015442044,0.0454158857465,0.0105314357206,0.0,30.2999992371,0.001648881077070234,0.015189259446989964,0.003522219304548495,30.2999992371,0.0,0.015367212504570061,0.04688091551031885
1648218252834623083,26566,2,1,0.0334805957973,0.0146502861753,-0.029363906011,0.0,30.2999992371,0.011197523678026755,0.0048997612626421405,-0.009820704351505017,30.2999992371,0.0,0.016576390845742875,0.046880914626137686
1648218252834713571,26567,2,2,0.482045024633,0.105482056737,-1.01116299629,0.0,30.2999992371,0.16121907178361203,0.035278279845150494,-0.33818160411036785,30.2999992371,0.0,0.23071136782215923,1.1251419799887779
1648218252834724534,26568,2,3,1.10922324657,-1.39177715778,0.0789487808943,0.0,30.2999992371,0.37097767443812707,-0.46547731029431433,0.026404274546588627,30.2999992371,0.0,0.7013686593096896,1.7814748883029934
1648218252834746327,26569,2,4,0.832272052765,-0.606521844864,0.319532811642,-0.647350490093,30.2999992371,0.27835185711204014,-0.20285011533913042,0.10686716108428092,30.2999992371,-0.08747979595851352,0.4428404701566262,1.0782609776054863
1648218252834750773,26570,2,5,0.66387784481,-0.615312039852,0.244510412216,-0.404594063759,30.2999992371,0.2220327240167224,-0.20578997988361203,0.08177605759732441,30.2999992371,-0.05467487348094594,0.3754285243412779,0.9376182810176207
1648218252834754689,26571,2,6,0.659117162228,-0.64461261034,0.170784160495,-0.242756426334,30.2999992371,0.22044052248428092,-0.21558950178595315,0.05711844832608695,30.2999992371,-0.03280492247756756,0.37903414250777073,0.9376183020978325
1648218252939884137,26572,3,0,0.00493015442044,0.0454158857465,0.0105314357206,0.0,28.2000007629,0.001648881077070234,0.015189259446989964,0.003522219304548495,28.2000007629,0.0,0.015367212504570061,0.04688091551031885
1648218252939890622,26573,3,1,0.0334805957973,0.0146502861753,-0.029363906011,0.0,28.2000007629,0.011197523678026755,0.0048997612626421405,-0.009820704351505017,28.2000007629,0.0,0.016576390845742875,0.046880914626137686
1648218252939898291,26574,3,2,0.482045024633,0.105482056737,-1.01116299629,0.0,28.2000007629,0.16121907178361203,0.035278279845150494,-0.33818160411036785,28.2000007629,0.0,0.23071136782215923,1.1251419799887779
1648218252940048122,26575,3,3,1.08864998817,1.52362978458,0.0995289981365,0.0,28.2000007629,0.36409698601003343,0.5095751787892976,0.033287290346655514,28.2000007629,0.0,0.724430875433485,1.8752366620434588
1648218252940053324,26576,3,4,1.15097546577,-1.2804350853,0.457596033812,0.0809188112617,28.2000007629,0.38494162734782605,-0.42823915896321063,0.15304215177658861,28.2000007629,0.010934974494824324,0.6926390764315158,1.7814748554588582
1648218252940058444,26577,3,5,0.766532421112,-0.46880915761,0.26790702343,-0.647350490093,28.2000007629,0.25636535823143813,-0.15679236040468228,0.089601011180602,28.2000007629,-0.08747979595851352,0.3950066304298435,0.9376183403058757
1648218253134894552,26578,5,0,0.0049711689353,0.0454158857465,0.0105121377856,0.0,47.5,0.0016625983061204013,0.015189259446989964,0.003515765145685618,47.5,0.0,0.015370168144916397,0.046880915515227224
1648218253134997789,26579,5,1,0.0334805957973,0.0146502861753,-0.029363906011,0.0,47.5,0.011197523678026755,0.0048997612626421405,-0.009820704351505017,47.5,0.0,0.016576390845742875,0.046880914626137686
1648218253135000572,26580,5,2,1.16849923134,1.46502864361,0.0693753734231,0.0,47.5,0.39080241850836117,0.489976134986622,0.02320246602779264,47.5,0.0,0.7385998060386944,1.875236604452228
1648218253135004485,26581,5,3,0.325789600611,-0.373582303524,-0.624073266983,0.566431701183,47.5,0.10895973264581939,-0.12494391422207357,-0.20872015618160536,47.5,0.07654482448418919,0.19838202634722168,0.7969755604379646
1648218253135006114,26582,5,4,0.764894068241,-0.316446185112,0.163989424706,-0.323675245047,47.5,0.25581741412742476,-0.10583484451906354,0.054845961440133775,47.5,-0.04373989797932432,0.3769431164725774,0.8438564185438246
1648218253135008223,26583,5,5,0.453258246183,-0.457088917494,0.922806143761,-0.242756426334,47.5,0.15159138668327757,-0.15287254765685618,0.3086308173113712,47.5,-0.03280492247756756,0.2633057402720566,1.125141988902633
1648218253239950390,26584,6,0,0.00493015442044,0.0454158857465,0.0105314357206,0.0,13.3999996185,0.001648881077070234,0.015189259446989964,0.003522219304548495,13.3999996185,0.0,0.015367212504570061,0.04688091551031885
1648218253239954547,26585,6,1,0.0335031487048,0.0146502861753,-0.029338169843,0.0,13.3999996185,0.01120506645645485,0.0048997612626421405,-0.009812096937458194,13.3999996185,0.0,0.01658658159531456,0.04688091368447124
1648218253239960987,26586,6,2,1.72690653801,-1.53828012943,0.382150709629,0.0,13.3999996185,0.5775607150535117,-0.5144749596755852,0.12780960188260868,13.3999996185,0.0,0.9653171723736413,2.344045885321106
1648218253239965414,26587,6,3,2.28096604347,0.512760043144,0.169770181179,0.0,13.3999996185,0.7628648974816052,0.17149165322541807,0.0567793248090301,13.3999996185,0.0,1.0923987782605888,2.344045833111156
1648218253240040709,26588,6,4,1.08273625374,-1.35515141487,-0.00793103594333,0.323675245047,13.3999996185,0.3621191484080267,-0.4532278979498327,-0.0026525203823846155,13.3999996185,0.04373989797932432,0.6838684689087025,1.7345939160847494
1648218253240046320,26589,6,5,0.396993964911,-0.263705164194,-0.517073452473,0.566431701183,13.3999996185,0.13277390130802674,-0.0881957070882943,-0.1729342650411371,13.3999996185,0.07654482448418919,0.20745192331215312,0.7032137491905918
1648218253240048666,26590,6,6,0.60884642601,-0.370652228594,0.809054791927,-0.323675245047,13.3999996185,0.20362756722742476,-0.12396395605150501,0.27058688693210703,13.3999996185,-0.04373989797932432,0.3135210274764011,1.0782609616261225
1648218253240049705,26591,6,7,0.704999566078,-0.323771327734,0.18253159523,-0.242756426334,13.3999996185,0.23578580805284277,-0.10828472499464883,0.061047356264214044,13.3999996185,-0.03280492247756756,0.35059303504980066,0.7969755605349602
