%time,field.header.seq,field.header.frame_id,field.point_id,field.x,field.y,field.z,field.velocity,field.intensity,normalized_x,normalized_y,normalized_z,normalized_intensity,normalized_velocity,normalized_range,range
1648295737670698813,62938,0,0,0.0127121871337,0.0439508594573,0.0102246021852,0.0,22.0,0.004251567603244147,0.014699284099431437,0.003419599393043478,22.0,0.0,0.01588145482018912,0.04688091550517269
1648295737670706724,62939,0,1,0.0335410349071,0.0146502861753,-0.0292948503047,0.0,22.0,0.011217737427123745,0.0048997612626421405,-0.009797608797558527,22.0,0.0,0.016603702189532134,0.046880914688519765
1648295737670728686,62940,0,2,1.87085950375,-0.117202289402,-0.0515794828534,0.0,22.0,0.6257055196488294,-0.03919809010100334,-0.01725066316167224,22.0,0.0,0.8857489965591774,1.8752365457360813
1648295737670738287,62941,0,3,2.24248027802,-1.2306240797,0.590941429138,0.0,22.0,0.7499934040200669,-0.4115799597658863,0.1976392739591973,22.0,0.0,1.1377074647852596,2.6253314448880145
1648295737670743938,62942,0,4,0.297217458487,-0.879017174244,0.134605765343,-0.404594063759,22.0,0.09940383226989966,-0.29398567700468226,0.04501865061638796,22.0,-0.05467487348094594,0.32586779838423136,0.9376183244310838
1648295737670819551,62943,0,5,0.428155899048,-0.861436843872,0.209398657084,-0.242756426334,22.0,0.14319595285886286,-0.28810596785016723,0.07003299568026755,22.0,-0.03280492247756756,0.3521579340880977,0.9844992165859434
1648295737670826993,62944,0,6,0.442990005016,-0.914177834988,0.673620939255,-0.161837622523,22.0,0.14815719231304347,-0.30574509531371236,0.22529128403177257,22.0,-0.021869948989594594,0.37064966015977857,1.2189037814077908
1648295737670833571,62945,0,7,0.505528330803,-0.83799636364,0.325496852398,-0.0809188112617,22.0,0.1690730203354515,-0.28026634235451503,0.10886182354448161,22.0,-0.010934974494824324,0.36840276202477396,1.0313801431282918
1648295737670910738,62946,0,8,0.512120127678,-0.451228827238,-0.773220896721,-0.0809188112617,22.0,0.17127763467491636,-0.15091265125016723,-0.25860230659565214,22.0,-0.010934974494824324,0.28538865532291713,1.0313801601880557
1648295737866124856,62947,2,0,0.0126802325249,0.0439508594573,0.0102642038837,0.0,23.8999996185,0.004240880443110368,0.014699284099431437,0.0034328441082608695,23.8999996185,0.0,0.015875738940323687,0.0468809153631521
1648295737866137355,62948,2,1,0.03342808038,0.0146502861753,-0.0294236782938,0.0,23.8999996185,0.011179959993311037,0.0048997612626421405,-0.00984069508153846,23.8999996185,0.0,0.016552663572215777,0.046880916023974664
1648295737866148686,62949,2,2,1.87411487103,-0.0586011447012,-0.0277777072042,0.0,23.8999996185,0.6267942712474915,-0.019599045050568562,-0.009290203078327758,23.8999996185,0.0,0.886637603254138,1.875236583739131
1648295737866159943,62950,2,3,2.20358324051,-1.31266570091,0.559906303883,0.0,23.8999996185,0.7369843613745819,-0.4390186290668896,0.1872596334056856,23.8999996185,0.0,1.1309417555688586,2.625331485609011
1648295737866163055,62951,2,4,0.418362498283,-0.779395222664,0.104542143643,-0.404594063759,23.8999996185,0.1399205679876254,-0.2606672985498327,0.03496392763979933,23.8999996185,-0.05467487348094594,0.32726590293708724,0.8907374208365408
1648295737866338519,62952,2,5,0.473865628242,-0.761814892292,0.272429019213,-0.242756426334,23.8999996185,0.1584834877063545,-0.2547875893953177,0.0911133843521739,23.8999996185,-0.03280492247756756,0.3393386913704617,0.9376183308022588
1648295737866342326,62953,2,6,0.627841770649,-0.805765748024,0.142482683063,-0.161837622523,23.8999996185,0.2099805253006689,-0.26948687224882945,0.04765307125852842,23.8999996185,-0.021869948989594594,0.4010072522106634,1.0313801649407357
1648295737969414033,62954,3,0,0.0127121871337,0.0439508594573,0.0102246021852,0.0,31.1000003815,0.004251567603244147,0.014699284099431437,0.003419599393043478,31.1000003815,0.0,0.01588145482018912,0.04688091550517269
1648295737969424022,62955,3,1,0.03342808038,0.0146502861753,-0.0294236782938,0.0,31.1000003815,0.011179959993311037,0.0048997612626421405,-0.00984069508153846,31.1000003815,0.0,0.016552663572215777,0.046880916023974664
1648295737969426758,62956,3,2,0.415518015623,-0.0,1.04560470581,0.0,31.1000003815,0.13896923599431438,-0.0,0.3497005705050167,31.1000003815,0.0,0.19653217829578667,1.1251419564300729
1648295737969428543,62957,3,3,1.87403035164,-0.0586011447012,-0.032992798835,0.0,31.1000003815,0.6267660038929765,-0.019599045050568562,-0.011034380881270903,31.1000003815,0.0,0.8865976369463409,1.875236619150554
1648295737969458320,62958,3,4,2.2434284687,-1.2306240797,0.587330937386,0.0,31.1000003815,0.7503105246488293,-0.4115799597658863,0.1964317516341137,31.1000003815,0.0,1.1381255774643197,2.6253313218947842
1648295737969461462,62959,3,5,0.451519608498,-0.7120038867,-0.0356958210468,-0.404594063759,31.1000003815,0.1510099025076923,-0.2381283902006689,-0.011938401687892975,31.1000003815,-0.05467487348094594,0.31986420795444975,0.8438564351679134
1648295737969477875,62960,3,6,0.478849589825,-0.68563336134,0.112710647285,-0.242756426334,31.1000003815,0.16015036448996653,-0.2293088165016722,0.037695868657190636,31.1000003815,-0.03280492247756756,0.32230236086311226,0.8438564604654997
1648295737969550221,62961,3,7,0.621559917927,-0.73837441206,0.194178283215,-0.161837622523,31.1000003815,0.20787957121304348,-0.24694796389966553,0.06494256963712373,31.1000003815,-0.021869948989594594,0.38394156994213086,0.9844992176892241
1648295738071063999,62962,4,0,0.0127693619579,0.0439508594573,0.0101531073451,0.0,33.4000015259,0.004270689618026756,0.014699284099431437,0.003395688075284281,33.4000015259,0.0,0.01589171270388566,0.04688091552655861
1648295738071070072,62963,4,1,0.0334790125489,0.0146502861753,-0.0293657127768,0.0,33.4000015259,0.011196994163511704,0.0048997612626421405,-0.009821308621003345,33.4000015259,0.0,0.016575675462143884,0.04688091566039538
1648295738071077534,62964,4,2,0.649498701096,-0.615311980247,0.410830080509,0.0,33.4000015259,0.21722364585150503,-0.2057899599488294,0.13740136471872907,33.4000015259,0.0,0.36975901915948034,0.9844992386040261
1648295738071089064,62965,4,3,0.491091758013,0.0703213736415,1.00986552238,0.0,33.4000015259,0.16424473512140467,0.023518854060702338,0.33774766634782605,33.4000015259,0.0,0.2334647779142057,1.1251420282217515
1648295738071100243,62966,4,4,1.87356281281,-0.0586011447012,-0.053298085928,0.0,33.4000015259,0.6266096363913043,-0.019599045050568562,-0.017825446798662204,33.4000015259,0.0,0.8863765539564883,1.8752366233807398
1648295738071226857,62967,4,5,2.18234014511,-1.31266570091,0.637702703476,0.0,33.4000015259,0.7298796471939799,-0.4390186290668896,0.2132784961458194,33.4000015259,0.0,1.1216888853170421,2.6253313103920575
1648295738071229941,62968,4,6,0.831793785095,-1.51776957512,0.115371905267,0.242756426334,33.4000015259,0.2781919013695652,-0.5076152425150501,0.03858592149397993,33.4000015259,0.03280492247756756,0.6422263638382038,1.73459391807061
1648295738071231461,62969,4,7,0.472810059786,-0.867296934128,-1.42585504055,0.242756426334,33.4000015259,0.15813045477792642,-0.29006586425685615,-0.47687459550167216,33.4000015259,0.03280492247756756,0.36626313910032576,1.7345938778989483
1648295738071233267,62970,4,8,0.676842451096,-0.707608819008,0.102042734623,-0.242756426334,33.4000015259,0.22636871274113712,-0.23665846789565215,0.03412800489063545,33.4000015259,-0.03280492247756756,0.3981115655728634,0.9844991945313504
1648295738071237050,62971,4,9,0.5144713521,-0.659262835979,0.113072998822,-0.161837622523,33.4000015259,0.1720639973578595,-0.22048924280234114,0.03781705646220736,33.4000015259,-0.021869948989594594,0.32837104708710346,0.8438564819311848
1648295738266224288,62972,6,0,0.0126919997856,0.0439508594573,0.0102496510372,0.0,38.5999984741,0.00424481598180602,0.014699284099431437,0.0034279769355183946,38.5999984741,0.0,0.015877842374661284,0.04688091564781326
1648295738266228407,62973,6,1,0.03342808038,0.0146502861753,-0.0294236782938,0.0,38.5999984741,0.011179959993311037,0.0048997612626421405,-0.00984069508153846,38.5999984741,0.0,0.016552663572215777,0.046880916023974664
1648295738266229763,62974,6,2,0.423546910286,-0.0,1.04237830639,0.0,38.5999984741,0.14165448504548495,-0.0,0.34862150715384616,38.5999984741,0.0,0.2003296939223016,1.125141999413986
1648295738266230768,62975,6,3,0.59745824337,0.0703213736415,0.950811803341,0.0,38.5999984741,0.19981881049163877,0.023518854060702338,0.3179972586424749,38.5999984741,0.0,0.28356348592319763,1.1251420059415425
1648295738266240100,62976,6,4,1.87420666218,-0.0586011447012,-0.0206757485867,0.0,38.5999984741,0.6268249706287625,-0.019599045050568562,-0.00691496608250836,38.5999984741,0.0,0.8866810081277213,1.875236569955857
1648295738266241938,62977,6,5,0.745443582535,-0.556710898876,0.116253785789,-0.242756426334,38.5999984741,0.24931223496153843,-0.18619093607892975,0.03888086481237458,38.5999984741,-0.03280492247756756,0.3987232695504274,0.9376183138037641
1648295738266247634,62978,6,6,1.30680525303,-0.0629962310195,-1.53364312649,-0.242756426334,38.5999984741,0.4370586130535117,-0.021068973585117053,-0.5129241225719063,38.5999984741,-0.03280492247756756,0.6184532028669986,2.0158793946810127
1648295738266249186,62979,6,7,0.544576585293,-0.547920703888,0.195931762457,-0.161837622523,38.5999984741,0.1821326372217391,-0.18325107153444814,0.06552901754414715,38.5999984741,-0.021869948989594594,0.3161100287893674,0.7969755394853795
1648295738266328241,62980,6,8,0.689806997776,-0.695888638496,0.643073141575,-0.161837622523,38.5999984741,0.23070468153043475,-0.23273867508227425,0.21507462928929763,38.5999984741,-0.021869948989594594,0.40076999767843285,1.1720229335570593
1648295738371023056,62981,7,0,0.0127016305923,0.0439508594573,0.0102377133444,0.0,12.5,0.0042480369873913034,0.014699284099431437,0.0034239843961204014,12.5,0.0,0.01587956515551629,0.04688091553351634
1648295738371033740,62982,7,1,0.0335134975612,0.0146502861753,-0.0293263476342,0.0,12.5,0.01120852761244147,0.0048997612626421405,-0.009808143021471571,12.5,0.0,0.016591258026702325,0.04688091370019032
1648295738371043481,62983,7,2,1.76350283623,-0.111342176795,0.226524844766,0.0,12.5,0.5898002796755852,-0.037238186219063545,0.07576081764749162,12.5,0.0,0.8349343820466868,1.7814749055265875
1648295738371159399,62984,7,3,1.87115120888,-0.117202289402,-0.0396115444601,0.0,12.5,0.6258030798929766,-0.03919809010100334,-0.01324800818063545,12.5,0.0,0.8858868324310035,1.8752365977627117
1648295738371164231,62985,7,4,0.520958304405,-0.515690088272,0.159085437655,-0.242756426334,12.5,0.17423354662374582,-0.17247160142876253,0.053205831991638794,12.5,-0.03280492247756756,0.3007675362095782,0.7500946597226237
1648295738371166561,62986,7,5,0.671705245972,-0.556710898876,0.17971713841,-0.242756426334,12.5,0.22465058393712373,-0.18619093607892975,0.060106066357859526,12.5,-0.03280492247756756,0.3682429013633928,0.8907374541535278
1648295738371167629,62987,7,6,0.708714306355,-0.597731649876,0.637483656406,-0.242756426334,12.5,0.23702819610535114,-0.19991025079464883,0.21320523625618729,12.5,-0.03280492247756756,0.3902932741807025,1.1251419934748224
1648295738371174664,62988,7,7,1.49770200253,0.553780794144,1.15202867985,-0.161837622523,12.5,0.5009036797759198,0.18521096794113712,0.3852938728595317,12.5,-0.021869948989594594,0.732196760080108,1.9689983584406732
1648295738566103563,62989,9,0,0.0127004906535,0.0439508594573,0.0102391270921,0.0,12.0,0.004247655736956521,0.014699284099431437,0.003424457221438127,12.0,0.0,0.01587936118221376,0.046880915450566385
1648295738566109813,62990,9,1,0.0335269682109,0.0146502861753,-0.0293109472841,0.0,12.0,0.01121303284645485,0.0048997612626421405,-0.00980299240270903,12.0,0.0,0.016597345319726262,0.046880914166899254
1648295738566112355,62991,9,2,0.571677386761,0.0703213736415,0.966532170773,0.0,12.0,0.1911964504217391,0.023518854060702338,0.32325490661304346,12.0,0.0,0.27141352546266684,1.1251420209306384
1648295738566178127,62992,9,3,1.86930310726,-0.117202289402,-0.0920966863632,0.0,12.0,0.6251849857056856,-0.03919809010100334,-0.030801567345551836,12.0,0.0,0.8850135721960444,1.875236593897432
1648295738566179968,62993,9,4,1.41380488873,-1.7580344677,0.636413156986,0.0,12.0,0.47284444439130435,-0.5879713938795986,0.21284720969431437,12.0,0.0,0.8904347798711373,2.344045895327768
1648295738566182277,62994,9,5,0.544032394886,-0.417533159256,0.155577778816,-0.404594063759,12.0,0.1819506337411371,-0.13964319707558526,0.05203270194515049,12.0,-0.05467487348094594,0.2927666113597887,0.7032137875674886
1648295738566183959,62995,9,6,0.671681046486,-0.373582303524,0.210833847523,-0.404594063759,12.0,0.22464249046354515,-0.12494391422207357,0.07051299248260869,12.0,-0.05467487348094594,0.3413787907068347,0.796975581166812
1648295738670991274,62996,10,0,0.0127217965201,0.0439508594573,0.010212643072,0.0,42.4000015259,0.004254781444849498,0.014699284099431437,0.0034155996896321067,42.4000015259,0.0,0.015883176109414296,0.046880915437416903
1648295738671001930,62997,10,1,0.0335637778044,0.0146502861753,-0.0292687918991,0.0,42.4000015259,0.01122534374729097,0.0048997612626421405,-0.00978889361173913,42.4000015259,0.0,0.01661398040568778,0.04688091557077509
1648295738671006862,62998,10,2,0.412429183722,-0.0,1.04682695866,0.0,42.4000015259,0.13793618184682274,-0.0,0.350109350722408,42.4000015259,0.0,0.19507121910973824,1.1251419967999332
1648295738671029403,62999,10,3,1.87097895145,-0.117202289402,-0.0470495410264,0.0,42.4000015259,0.6257454687123745,-0.03919809010100334,-0.015735632450301,42.4000015259,0.0,0.8858054377207811,1.875236591132118
1648295738671043936,63000,10,4,1.50719571114,-1.68478298187,0.620015025139,0.0,42.4000015259,0.5040788331571906,-0.5634725691872909,0.2073628846618729,42.4000015259,0.0,0.9086761118796708,2.3440459123224726
1648295738671109950,63001,10,5,0.50526368618,-0.369187235832,0.19794498384,-0.485512852669,42.4000015259,0.16898451042809362,-0.12347399191705685,0.06620233573244147,42.4000015259,-0.06560984495527027,0.26899322706934164,0.6563328609028289
1648295738671112129,63002,10,6,0.677877604961,-0.304725944996,0.101321309805,-0.485512852669,42.4000015259,0.22671491804715718,-0.10191503177123744,0.03388672568729097,42.4000015259,-0.06560984495527027,0.33643124383919926,0.7500946318178577
1648295738769283293,63003,11,0,0.0127100823447,0.0439508594573,0.0102272182703,0.0,45.7000007629,0.004250863660434782,0.014699284099431437,0.003420474337892977,45.7000007629,0.0,0.01588107794688408,0.04688091545386831
1648295738769286971,63004,11,1,0.0335134975612,0.0146502861753,-0.0293263476342,0.0,45.7000007629,0.01120852761244147,0.0048997612626421405,-0.009808143021471571,45.7000007629,0.0,0.016591258026702325,0.04688091370019032
1648295738769311472,63005,11,2,1.56709706783,-1.61153149605,0.664623498917,0.0,45.7000007629,0.524112731715719,-0.5389737444983277,0.222282106661204,45.7000007629,0.0,0.9164502214258967,2.3440459419719595
1648295738769395547,63006,11,3,1.20450484753,-1.24673938751,-0.0602078400552,0.161837622523,45.7000007629,0.4028444306120401,-0.41696969481939794,-0.02013640135625418,45.7000007629,0.021869948989594594,0.7059964567531904,1.734593904087118
1648295738769398679,63007,11,4,0.511574745178,-0.285680562258,0.167658910155,-0.485512852669,45.7000007629,0.1710952325010033,-0.09554533854782607,0.05607321409866221,45.7000007629,-0.06560984495527027,0.2601462451917449,0.6094518961413976
1648295738769401493,63008,11,5,0.505729675293,-0.24612480402,0.80802154541,-0.485512852669,45.7000007629,0.16914035962976587,-0.08231598796655518,0.27024131953511704,45.7000007629,-0.06560984495527027,0.25296806989476583,0.9844992338608555
1648295738769404012,63009,11,6,0.643658220768,-0.219754293561,0.178666427732,-0.323675245047,45.7000007629,0.21527030794916385,-0.07349641925117056,0.059754658104347824,45.7000007629,-0.04373989797932432,0.31318418640122864,0.7032137278944685
1648295738871146486,63010,12,0,0.0126802325249,0.0439508594573,0.0102642038837,0.0,42.7000007629,0.004240880443110368,0.014699284099431437,0.0034328441082608695,42.7000007629,0.0,0.015875738940323687,0.0468809153631521
1648295738871259744,63011,12,1,0.0334696359932,0.0146502861753,-0.029376398772,0.0,42.7000007629,0.011193858191705685,0.0048997612626421405,-0.009824882532441471,42.7000007629,0.0,0.016571438768644125,0.04688091534246167
1648295738871262524,63012,12,2,0.746176898479,-0.0703213736415,0.0302811469883,0.0,42.7000007629,0.24955749113010034,-0.023518854060702338,0.010127473909130434,42.7000007629,0.0,0.353710360683185,0.7500946655439529
1648295738871263663,63013,12,3,1.34747350216,-1.7580344677,0.766929745674,0.0,42.7000007629,0.45066003416722406,-0.5879713938795986,0.25649824270033444,42.7000007629,0.0,0.8671212676505664,2.344045917520419
1648295738871265933,63014,12,4,2.21353125572,-1.31266570091,0.519185483456,0.0,42.7000007629,0.7403114567625417,-0.4390186290668896,0.17364062991839463,42.7000007629,0.0,1.1352794645793276,2.6253314892840374
1648295738871270095,63015,12,5,0.463122606277,-0.586011469364,-1.720064044,0.323675245047,42.7000007629,0.1548905037715719,-0.19599045798127088,-0.5752722555183946,42.7000007629,0.04373989797932432,0.2939292362745342,1.8752366000408027
1648295738871272796,63016,12,6,1.00215995312,-0.228544458747,-1.51206064224,0.404594063759,42.7000007629,0.3351705528829431,-0.07643627382842809,-0.5057059004147157,42.7000007629,0.05467487348094594,0.4801261323824084,1.828355689430446
1648295738871273954,63017,12,7,0.999891281128,-0.22268435359,-1.45749163628,0.485512852669,42.7000007629,0.33441179970836116,-0.07447637243812709,-0.4874553967491638,42.7000007629,0.06560984495527027,0.4787580115464521,1.7814748848175606
1648295738871276644,63018,12,8,0.517578363419,-0.193383783102,0.105837069452,-0.323675245047,42.7000007629,0.17310313157826085,-0.06467685053578595,0.03539701319464883,42.7000007629,-0.04373989797932432,0.2532044298973258,0.5625710045110034
1648295738871278275,63019,12,9,0.242154270411,-0.215359210968,0.929634571075,-0.242756426334,42.7000007629,0.08098805030468227,-0.07202649196254181,0.31091457226588626,42.7000007629,-0.03280492247756756,0.13529946093291573,0.9844992210077378
1648295738871280438,63020,12,10,0.716036021709,-0.187523663044,0.121528945863,-0.161837622523,42.7000007629,0.2394769303374582,-0.0627169441618729,0.04064513239565217,42.7000007629,-0.021869948989594594,0.34442969589265543,0.7500946562060439
1648295738969502174,63021,13,0,0.0127004906535,0.0439508594573,0.0102391270921,0.0,25.0,0.004247655736956521,0.014699284099431437,0.003424457221438127,25.0,0.0,0.01587936118221376,0.046880915450566385
1648295738969591848,63022,13,1,0.0334051251411,0.0146502861753,-0.0294497366995,0.0,25.0,0.011172282655886287,0.0048997612626421405,-0.009849410267391303,25.0,0.0,0.016542293067072764,0.04688091575876707
1648295738969596296,63023,13,2,0.714385986328,-0.0703213736415,0.217599466443,0.0,25.0,0.23892507903946486,-0.023518854060702338,0.07277574128528427,25.0,0.0,0.3387086111753843,0.7500946345954856
1648295738969599003,63024,13,3,1.41875815392,-1.68478298187,0.801986753941,0.0,25.0,0.47450105482274246,-0.5634725691872909,0.268222994629097,25.0,0.0,0.8762441659048674,2.344045893068239
1648295738969620447,63025,13,4,1.96259856224,-0.879017233849,-0.932784378529,0.0,25.0,0.6563874790100334,-0.29398569693946486,-0.3119680195749164,25.0,0.0,0.973712809409056,2.3440458849471772
1648295738969622761,63026,13,5,2.19553828239,-1.31266570091,0.590665876865,0.0,25.0,0.7342937399297658,-0.4390186290668896,0.1975471160083612,25.0,0.0,1.1274360069058715,2.625331554276197
1648295738969624621,63027,13,6,0.55172252655,-0.0351606868207,0.104173414409,0.161837622523,25.0,0.18452258413043476,-0.011759427030334446,0.03484060682575251,25.0,0.021869948989594594,0.2612191651323243,0.5625709914935608
1648295738969626309,63028,13,7,0.746012270451,-0.0234404578805,0.0745538398623,0.161837622523,25.0,0.2495024315889632,-0.007839618020234113,0.02493439460277592,25.0,0.021869948989594594,0.3529368022016317,0.7500946858679356
1648295738969755303,63029,13,8,1.69861066341,-0.68563336134,-1.60858154297,0.242756426334,25.0,0.5680972118428094,-0.2293088165016722,-0.5379871381170568,25.0,0.03280492247756756,0.8354947142457247,2.4378075954464276
1648295739069313141,63030,14,0,0.0127004906535,0.0439508594573,0.0102391270921,0.0,13.8000001907,0.004247655736956521,0.014699284099431437,0.003424457221438127,13.8000001907,0.0,0.01587936118221376,0.046880915450566385
1648295739069362998,63031,14,1,0.03342808038,0.0146502861753,-0.0294236782938,0.0,13.8000001907,0.011179959993311037,0.0048997612626421405,-0.00984069508153846,13.8000001907,0.0,0.016552663572215777,0.046880916023974664
1648295739069365589,63032,14,2,1.40935504436,-1.68478298187,0.818398356438,0.0,13.8000001907,0.4713562021270903,-0.5634725691872909,0.27371182489565216,13.8000001907,0.0,0.8728428694752998,2.344045905455387
1648295739069369111,63033,14,3,2.02375006676,-0.879017233849,-0.791401267052,0.0,13.8000001907,0.6768394872107023,-0.29398569693946486,-0.2646826980107023,13.8000001907,0.0,1.0013246091554304,2.344045988372703
1648295739069388442,63034,14,4,2.24221801758,-1.2306240797,0.591935575008,0.0,13.8000001907,0.7499056914983276,-0.4115799597658863,0.19797176421672238,13.8000001907,0.0,1.1375918229154334,2.625331405529197
1648295739069397597,63035,14,5,0.528278291225,-0.0307656005025,0.830189287663,0.161837622523,13.8000001907,0.1766817027508361,-0.010289498495819397,0.27765528015484947,13.8000001907,0.021869948989594594,0.25007743191492726,0.9844992272746002
1648295739069531484,63036,14,6,1.08433377743,-0.281285494566,0.10508685559,0.161837622523,13.8000001907,0.3626534372675585,-0.09407541624280935,0.03514610554849498,13.8000001907,0.021869948989594594,0.5214261357711251,1.125141998836878
1648295739069541756,63037,14,7,0.729986429214,0.0234404578805,0.170916169882,0.242756426334,13.8000001907,0.24414261846622073,0.007839618020234113,0.05716259862274247,13.8000001907,0.03280492247756756,0.34535879301646344,0.7500946467142573
1648295739069602923,63038,14,8,0.641565561295,0.0659262910485,0.280280083418,0.485512852669,13.8000001907,0.21457042183779262,0.022048926772073575,0.09373915833377926,13.8000001907,0.06560984495527027,0.30424839691787503,0.7032137444987697
1648295739069608216,63039,14,9,0.392126351595,0.0380907431245,-0.464992105961,-0.647350490093,13.8000001907,0.1311459369882943,0.01273937897140468,-0.15551575450200666,13.8000001907,-0.08747979595851352,0.1859053666617841,0.6094519168343209
1648295739069635171,63040,14,10,0.530863165855,0.266635209322,0.136094078422,-0.647350490093,13.8000001907,0.1775462093160535,0.0891756552916388,0.04551641418795986,13.8000001907,-0.08747979595851352,0.266453767812904,0.6094519126996925
1648295739169364373,63041,15,0,0.0127004906535,0.0439508594573,0.0102391270921,0.0,41.2999992371,0.004247655736956521,0.014699284099431437,0.003424457221438127,41.2999992371,0.0,0.01587936118221376,0.046880915450566385
1648295739169392771,63042,15,1,0.03342808038,0.0146502861753,-0.0294236782938,0.0,41.2999992371,0.011179959993311037,0.0048997612626421405,-0.00984069508153846,41.2999992371,0.0,0.016552663572215777,0.046880916023974664
1648295739169593833,63043,15,2,1.4031419754,-1.68478298187,0.829005599022,0.0,41.2999992371,0.46927825264214046,-0.5634725691872909,0.2772593976662207,41.2999992371,0.0,0.8706006507189433,2.3440459428812415
1648295739169597663,63044,15,3,2.0419383049,-0.879017233849,-0.74321436882,0.0,41.2999992371,0.6829225099999999,-0.29398569693946486,-0.24856667853511705,41.2999992371,0.0,1.0095513356607393,2.3440458477687556
1648295739169601653,63045,15,4,2.2419500351,-1.2306240797,0.592949032784,0.0,41.2999992371,0.749816065250836,-0.4115799597658863,0.19831071330568562,41.2999992371,0.0,1.1374736597817905,2.62533124403414
1648295739169612800,63046,15,5,0.716370940208,0.046880915761,0.21738640964,0.323675245047,41.2999992371,0.2395889432133779,0.015679236040468225,0.07270448482943143,41.2999992371,0.04373989797932432,0.33919251445605214,0.7500946575821306
1648295739169698306,63047,15,6,1.15035390854,-0.183128580451,0.129566863179,0.323675245047,41.2999992371,0.3847337486755853,-0.061247016873244145,0.04333339905652174,41.2999992371,0.04373989797932432,0.5475320189868428,1.1720229365952268
1648295739169713922,63048,15,7,0.568057119846,0.064461261034,0.858429312706,0.404594063759,41.2999992371,0.18998565881137125,0.021558950178595316,0.28710010458394647,41.2999992371,0.05467487348094594,0.2695438543925361,1.0313801580865911
1648295739169728016,63049,15,8,0.0873122811317,-1.41521763802,-1.3661955595,0.404594063759,41.2999992371,0.029201431816622072,-0.47331693579264206,-0.45692159180602,41.2999992371,0.05467487348094594,0.47511511126085826,1.9689984012682302
1648295739169738941,63050,15,9,1.93589842319,-0.061531201005,0.354211807251,0.404594063759,41.2999992371,0.647457666618729,-0.020578996991638794,0.11846548737491637,41.2999992371,0.05467487348094594,0.91587463948071,1.9689984250889245
1648295739169747563,63051,15,10,1.3897383213,0.871692061424,-0.0333212651312,-0.647350490093,41.2999992371,0.4647954251839465,0.29153580649632105,-0.011144235829832774,41.2999992371,-0.08747979595851352,0.7190707204533582,1.6408320932835598
1648295739169750540,63052,15,11,1.06575155258,-0.205104008317,-1.2306240797,-0.647350490093,41.2999992371,0.35643864634782607,-0.06859665829999999,-0.4115799597658863,41.2999992371,-0.08747979595851352,0.5087263692305208,1.6408319998073702
1648295739169760037,63053,15,12,0.495138883591,0.430718421936,0.0095895268023,-0.161837622523,41.2999992371,0.16559828882642139,0.14405298392508362,0.003207199599431438,41.2999992371,-0.021869948989594594,0.27494881105798247,0.656332866816124
1648295739269378255,63054,16,0,0.0127121871337,0.0439508594573,0.0102246021852,0.0,34.5999984741,0.004251567603244147,0.014699284099431437,0.003419599393043478,34.5999984741,0.0,0.01588145482018912,0.04688091550517269
1648295739269384010,63055,16,1,0.03342808038,0.0146502861753,-0.0294236782938,0.0,34.5999984741,0.011179959993311037,0.0048997612626421405,-0.00984069508153846,34.5999984741,0.0,0.016552663572215777,0.046880916023974664
1648295739269386517,63056,16,2,0.472698271275,1.27457487583,-0.0195460356772,0.0,34.5999984741,0.15809306731605352,0.4262792226856187,-0.006537135677993311,34.5999984741,0.0,0.4813531048619628,1.359546548402859
1648295739269468537,63057,16,3,2.19784545898,-1.31266570091,0.582021474838,0.0,34.5999984741,0.735065370896321,-0.4390186290668896,0.194656011651505,34.5999984741,0.0,1.1284412061111837,2.625331388811163
1648295739269475877,63058,16,4,1.82887899876,0.0849716588855,-2.0103354454,0.242756426334,34.5999984741,0.6116652169765886,0.028418615011872907,-0.6723529917725752,34.5999984741,0.03280492247756756,0.8654919369914589,2.7190930800453947
1648295739269487789,63059,16,5,0.239920556545,-1.52948987484,-2.23530006409,0.242756426334,34.5999984741,0.08024098881103678,-0.5115350751973244,-0.7475919946789297,34.5999984741,0.03280492247756756,0.5239707680089399,2.719093144269188
1648295739269494256,63060,16,6,1.15920937061,-0.190453708172,0.325095951557,0.323675245047,34.5999984741,0.38769544167558523,-0.06369689236521739,0.10872774299565216,34.5999984741,0.04373989797932432,0.5519717430168326,1.2189037523878778
1648295739269499990,63061,16,7,0.0626333728433,-0.23293954134,-2.47295236588,0.485512852669,34.5999984741,0.02094761633555184,-0.07790620111705684,-0.8270743698595316,34.5999984741,0.06560984495527027,0.08334855387332324,2.4846885465234685
1648295739269510922,63062,16,8,0.752351105213,0.0996219441295,0.243337959051,0.566431701183,34.5999984741,0.2516224432150501,0.033318375963043476,0.08138393279297658,34.5999984741,0.07654482448418919,0.3574042837401882,0.7969755828019263
1648295739269519219,63063,16,9,1.3529099226,-1.4489133358,0.366134822369,-0.647350490093,34.5999984741,0.4524782349832776,-0.4845863999331103,0.12245311784916388,34.5999984741,-0.08747979595851352,0.8026811853203591,2.01587941640362
1648295739269521482,63064,16,10,1.94376623631,0.876087069511,0.323776513338,-0.485512852669,34.5999984741,0.6500890422441471,0.2930057088665552,0.10828645931036789,34.5999984741,-0.06560984495527027,0.964926873457371,2.156521960326958
1648295739269524518,63065,16,11,0.188544541597,0.298865824938,-0.71435302496,-0.404594063759,34.5999984741,0.0630583751160535,0.09995512539732442,-0.23891405517056855,34.5999984741,-0.05467487348094594,0.13395426248443415,0.7969755766341879
1648295739269582556,63066,16,12,0.521994769573,0.597731649876,0.07354170084,-0.404594063759,34.5999984741,0.17458019049264212,0.19991025079464883,0.024595886568561872,34.5999984741,-0.05467487348094594,0.3176800185684863,0.7969755620390718
