%time,field.header.seq,field.header.frame_id,field.point_id,field.x,field.y,field.z,field.velocity,field.intensity,normalized_x,normalized_y,normalized_z,normalized_intensity,normalized_velocity,normalized_range,range
1648219777062457607,87509,0,0,0.0122477002442,0.0439508594573,0.01077664271,0.0,11.8000001907,0.004096220817458194,0.014699284099431437,0.0036042283311036784,11.8000001907,0.0,0.015799588697385562,0.04688091548174064
1648219777062470613,87510,0,1,0.0334108844399,0.0146502861753,-0.0294432006776,0.0,11.8000001907,0.011174208842775918,0.0048997612626421405,-0.009847224306889632,11.8000001907,0.0,0.01654489489101794,0.04688091456249508
1648219777062473586,87511,0,2,0.357886701822,-0.553780794144,-0.526628553867,0.0,11.8000001907,0.11969454910434782,-0.18521096794113712,-0.17612995112608695,11.8000001907,0.0,0.2509116832996805,0.8438564410205306
1648219777062478731,87512,0,3,1.16193163395,1.04603040218,0.310508370399,0.0,11.8000001907,0.3886058976421405,0.34984294387290965,0.10384895331070233,11.8000001907,0.0,0.6514746140427663,1.5939511198108969
1648219777062480719,87513,0,4,2.14381146431,-1.14272224903,0.202889338136,0.0,11.8000001907,0.7169938007725752,-0.3821813541906354,0.06785596593177257,11.8000001907,0.0,1.0836156182814987,2.437807583970571
1648219777062591508,87514,0,5,0.794088482857,1.02552008629,0.202047765255,-0.161837622523,11.8000001907,0.26558143239364546,0.342983306451505,0.06757450342976588,11.8000001907,-0.021869948989594594,0.5086300649479225,1.3126657097048435
1648219777257478824,87515,2,0,0.01232395228,0.0439508594573,0.0106893591583,0.0,20.1000003815,0.004121723170568562,0.014699284099431437,0.003575036507792642,20.1000003815,0.0,0.015812847840455602,0.04688091558459781
1648219777257483840,87516,2,1,0.0333878919482,0.0146502861753,-0.0294692683965,0.0,20.1000003815,0.011166519046220735,0.0048997612626421405,-0.009855942607525084,20.1000003815,0.0,0.016534508025644712,0.04688091289200561
1648219777257487581,87517,2,2,0.370588898659,-0.527410268784,-0.544606268406,0.0,20.1000003815,0.12394277547123746,-0.17639139424214045,-0.18214256468428092,20.1000003815,0.0,0.24867156481132574,0.8438564516641499
1648219777257490131,87518,2,3,1.08250570297,1.14565241337,0.237365022302,0.0,20.1000003815,0.36204204112709026,0.383161342264214,0.07938629508428093,20.1000003815,0.0,0.6395009720810858,1.5939511294376336
1648219777257585958,87519,2,4,2.14404082298,-1.14272224903,0.200450658798,0.0,20.1000003815,0.7170705093578595,-0.3821813541906354,0.06704035411304347,20.1000003815,0.0,1.0837171301924078,2.437807550986232
1648219777257590101,87520,2,5,0.563471734524,-2.6795372963,-0.391397178173,-0.323675245047,20.1000003815,0.1884520851250836,-0.8961663198327758,-0.13090206627859532,20.1000003815,-0.04373989797932432,0.9349558543474684,2.7659740181267045
1648219777257591299,87521,2,6,0.714539647102,1.06654083729,0.273888617754,-0.161837622523,20.1000003815,0.23897647060267557,0.35670262116722407,0.09160154439933109,20.1000003815,-0.021869948989594594,0.4913819969748496,1.312665699949192
1648219777257592306,87522,2,7,1.38480114937,1.11342179775,0.127554804087,-0.161837622523,20.1000003815,0.46314419711371235,0.37238187215719065,0.04266046959431438,20.1000003815,-0.021869948989594594,0.7534410085411496,1.7814748247019907
1648219777362454300,87523,3,0,0.0123228654265,0.0439508594573,0.0106906108558,0.0,25.1000003815,0.004121359674414716,0.014699284099431437,0.003575455135719063,25.1000003815,0.0,0.015812658352332205,0.04688091530489902
1648219777362461111,87524,3,1,0.0334016978741,0.0146502861753,-0.0294536203146,0.0,25.1000003815,0.011171136412742476,0.0048997612626421405,-0.009850709135317725,25.1000003815,0.0,0.016540744781753033,0.0468809135526118
1648219777362465229,87525,3,2,0.394999504089,-0.553780794144,-0.499395549297,0.0,25.1000003815,0.1321068575548495,-0.18521096794113712,-0.167021922841806,25.1000003815,0.0,0.26307327167868555,0.8438564397164767
1648219777362468325,87526,3,3,1.15147745609,1.09584140778,0.117947630584,0.0,25.1000003815,0.3851095170869565,0.3665021430702341,0.03944736808829431,25.1000003815,0.0,0.6564621094754609,1.5939511806981825
1648219777362473308,87527,3,4,2.14346003532,-1.14272224903,0.206568226218,0.0,25.1000003815,0.716876265993311,-0.3821813541906354,0.06908636328361203,25.1000003815,0.0,1.083460081858124,2.437807517734952
1648219777362477185,87528,3,5,0.776831328869,0.988894343376,0.144333213568,-0.323675245047,25.1000003815,0.2598098089862876,0.3307338941056856,0.04827197778193979,25.1000003815,-0.04373989797932432,0.4943553199888652,1.2657847417362451
1648219777362606869,87529,3,6,0.680725634098,1.2306240797,-0.0146728642285,-0.242756426334,25.1000003815,0.22766743615317725,0.4115799597658863,-0.004907312451003344,25.1000003815,-0.03280492247756756,0.5225542902417036,1.40642749809589
1648219777362610357,87530,3,7,0.703634083271,1.1075617075,-0.036019641906,-0.161837622523,25.1000003815,0.23532912483979931,0.3704219757525083,-0.012046702978595317,25.1000003815,-0.021869948989594594,0.49796790470483493,1.3126657128393246
1648219777362619081,87531,3,8,1.33967912197,1.1690928936,0.110155887902,-0.161837622523,25.1000003815,0.4480532180501672,0.3910009677591973,0.03684143408093645,25.1000003815,-0.021869948989594594,0.7445704326649362,1.7814748562210496
1648219777557498923,87532,5,0,0.0122477002442,0.0439508594573,0.01077664271,0.0,16.7999992371,0.004096220817458194,0.014699284099431437,0.0036042283311036784,16.7999992371,0.0,0.015799588697385562,0.04688091548174064
1648219777557660239,87533,5,1,0.0333878919482,0.0146502861753,-0.0294692683965,0.0,16.7999992371,0.011166519046220735,0.0048997612626421405,-0.009855942607525084,16.7999992371,0.0,0.016534508025644712,0.04688091289200561
1648219777557663936,87534,5,2,0.397996664047,-0.527410268784,-0.524910271168,0.0,16.7999992371,0.1331092521896321,-0.17639139424214045,-0.1755552746381271,16.7999992371,0.0,0.25797300246276234,0.8438564623139501
1648219777557667680,87535,5,3,2.1429309845,-1.14272224903,0.211985945702,0.0,16.7999992371,0.7166993259197324,-0.3821813541906354,0.07089830959933109,16.7999992371,0.0,1.0832259390536148,2.437807495257468
1648219777557770611,87536,5,4,1.09246492386,0.69735366106,0.208109244704,-0.647350490093,16.7999992371,0.3653728842341137,0.23322864918394645,0.06960175408160535,16.7999992371,-0.08747979595851352,0.5669129491088367,1.3126656833289616
1648219777557773229,87537,5,5,1.08373200893,1.09584140778,0.406616389751,-0.0809188112617,16.7999992371,0.3624521768996655,0.3665021430702341,0.13599210359565217,16.7999992371,-0.010934974494824324,0.6301325114241346,1.5939511744714276
1648219777662527789,87538,6,0,0.012225298211,0.0439508594573,0.0108020491898,0.0,13.1000003815,0.004088728498662207,0.014699284099431437,0.0036127254815384612,13.1000003815,0.0,0.015795706837851316,0.04688091541429279
1648219777662531142,87539,6,1,0.0333878919482,0.0146502861753,-0.0294692683965,0.0,13.1000003815,0.011166519046220735,0.0048997612626421405,-0.009855942607525084,13.1000003815,0.0,0.016534508025644712,0.04688091289200561
1648219777662536314,87540,6,2,0.409581303596,-0.527410268784,-0.515921771526,0.0,13.1000003815,0.1369837135772575,-0.17639139424214045,-0.17254908746688963,13.1000003815,0.0,0.2619980907058646,0.8438564511862998
1648219777662539136,87541,6,3,2.14254283905,-1.14272224903,0.215875133872,0.0,13.1000003815,0.7165695113879598,-0.3821813541906354,0.07219904142876253,13.1000003815,0.0,1.0830541615231193,2.437807627565569
1648219777662541685,87542,6,4,0.867017805576,0.703213751316,0.140410169959,-0.485512852669,13.1000003815,0.28997251022608694,0.23518854559063543,0.046959923063210694,13.1000003815,-0.06560984495527027,0.47273858034930316,1.1251419781759362
1648219777662544384,87543,6,5,1.06887769699,1.14565241337,0.292679548264,-0.0809188112617,13.1000003815,0.3574841795953177,0.383161342264214,0.0978861365431438,13.1000003815,-0.010934974494824324,0.6343520249258994,1.5939511602791254
1648219777761068832,87544,7,0,0.0122477002442,0.0439508594573,0.01077664271,0.0,13.8000001907,0.004096220817458194,0.014699284099431437,0.0036042283311036784,13.8000001907,0.0,0.015799588697385562,0.04688091548174064
1648219777761075285,87545,7,1,0.0333878919482,0.0146502861753,-0.0294692683965,0.0,13.8000001907,0.011166519046220735,0.0048997612626421405,-0.009855942607525084,13.8000001907,0.0,0.016534508025644712,0.04688091289200561
1648219777761080637,87546,7,2,0.375839203596,-0.527410268784,-0.540996313095,0.0,13.8000001907,0.12569873029966552,-0.17639139424214045,-0.180935221770903,13.8000001907,0.0,0.25042816447153526,0.843856450683924
1648219777761180451,87547,7,3,2.14204525948,-1.14272224903,0.220757171512,0.0,13.8000001907,0.7164030968160535,-0.3821813541906354,0.07383182993712374,13.8000001907,0.0,1.0828339585302316,2.4378075725665678
1648219777761183032,87548,7,4,1.12520384789,1.17934799194,0.188107922673,-0.0809188112617,13.8000001907,0.3763223571538461,0.39443076653511705,0.06291234872006689,13.8000001907,-0.010934974494824324,0.6624293642171472,1.6408320986535228
1648219777862550256,87549,8,0,0.0122477002442,0.0439508594573,0.01077664271,0.0,13.6000003815,0.004096220817458194,0.014699284099431437,0.0036042283311036784,13.6000003815,0.0,0.015799588697385562,0.04688091548174064
1648219777862554652,87550,8,1,0.0334016978741,0.0146502861753,-0.0294536203146,0.0,13.6000003815,0.011171136412742476,0.0048997612626421405,-0.009850709135317725,13.6000003815,0.0,0.016540744781753033,0.0468809135526118
1648219777862561426,87551,8,2,0.38514021039,-0.527410268784,-0.534414768219,0.0,13.6000003815,0.12880943491304347,-0.17639139424214045,-0.17873403619364547,13.6000003815,0.0,0.2535698424653874,0.8438564556656731
1648219777862664160,87552,8,3,1.10223960876,1.14565241337,0.115015149117,0.0,13.6000003815,0.36864200961872906,0.383161342264214,0.038466605055852844,13.6000003815,0.0,0.6469980500103415,1.59395109457797
1648219777862668411,87553,8,4,1.68348026276,-1.53828012943,0.542346298695,0.0,13.6000003815,0.5630368771772575,-0.5144749596755852,0.18138672197157188,13.6000003815,0.0,0.9480008092065276,2.3440458739985917
1648219777862670868,87554,8,5,2.14141392708,-1.14272224903,0.226799353957,0.0,13.6000003815,0.7161919488561872,-0.3821813541906354,0.07585262674147156,13.6000003815,0.0,1.0825545726215537,2.4378075585401895
1648219777862671968,87555,8,6,0.551491975784,-2.17996263504,-0.0860067680478,0.242756426334,13.6000003815,0.1844454768508361,-0.7290844933244146,-0.028764805367157188,13.6000003815,0.03280492247756756,0.7743413112236638,2.250283905127241
1648219777862674023,87556,8,7,1.02091014385,0.892202436924,-0.100420549512,0.485512852669,13.6000003815,0.3414415196822742,0.2983954638541806,-0.033585468064214044,13.6000003815,0.06560984495527027,0.5676305801968683,1.3595466145128101
1648219777862675151,87557,8,8,0.261673778296,0.46880915761,-0.768682599068,0.566431701183,13.6000003815,0.08751631381137125,0.15679236040468228,-0.2570844812936455,13.6000003815,0.07654482448418919,0.19975498653984236,0.9376183288612897
1648219777862707737,87558,8,9,2.5756649971,1.05482065678,0.406763702631,0.566431701183,13.6000003815,0.8614264204347826,0.352782828354515,0.13604137211739128,13.6000003815,0.07654482448418919,1.2682928209321287,2.8128550451514585
1648219777862736825,87559,8,10,0.363279283047,-1.31852579117,-2.45798110962,0.566431701183,13.6000003815,0.12149808797558528,-0.44097852547491634,-0.8220672607424748,13.6000003815,0.07654482448418919,0.4732712020538304,2.812854997101767
1648219778057549024,87560,10,0,0.0123018650338,0.0439508594573,0.010714771226,0.0,15.6000003815,0.004114336131705685,0.014699284099431437,0.0035835355270903008,15.6000003815,0.0,0.015808999862265662,0.04688091565627409
1648219778057563129,87561,10,1,0.0334246940911,0.0146502861753,-0.0294275209308,0.0,15.6000003815,0.01117882745521739,0.0048997612626421405,-0.009841980244414716,15.6000003815,0.0,0.01655113370672634,0.04688091347482975
1648219778057565865,87562,10,2,2.14096856117,-1.14272224903,0.230966821313,0.0,15.6000003815,0.7160429970468226,-0.3821813541906354,0.07724642853277591,15.6000003815,0.0,1.0823574893400885,2.4378076607669343
1648219778057572214,87563,10,3,0.8637368083,-0.0,0.217650726438,0.242756426334,15.6000003815,0.28887518672240803,-0.0,0.07279288509632106,15.6000003815,0.03280492247756756,0.4085312068958897,0.8907373983005654
1648219778057726016,87564,10,4,1.04201519489,1.19546329975,0.16047424078,0.242756426334,15.6000003815,0.348500065180602,0.39982050158862875,0.05367031464214046,15.6000003815,0.03280492247756756,0.6346345596895511,1.593951112608138
1648219778057728255,87565,10,5,0.573631167412,-1.93383789062,0.431507140398,-0.647350490093,15.6000003815,0.19184988876655518,-0.6467685252909698,0.14431676936387958,15.6000003815,-0.08747979595851352,0.7013717166713633,2.0627603146363187
1648219778057737247,87566,10,6,0.625670433044,-1.16030263901,-1.58657312393,-0.647350490093,15.6000003815,0.20925432543277592,-0.3880610832809364,-0.5306264628528428,15.6000003815,-0.08747979595851352,0.4880226939209139,2.062760282353729
1648219778162496056,87567,11,0,0.012225298211,0.0439508594573,0.0108020491898,0.0,11.8000001907,0.004088728498662207,0.014699284099431437,0.0036127254815384612,11.8000001907,0.0,0.015795706837851316,0.04688091541429279
1648219778162498763,87568,11,1,0.0334108844399,0.0146502861753,-0.0294432006776,0.0,11.8000001907,0.011174208842775918,0.0048997612626421405,-0.009847224306889632,11.8000001907,0.0,0.01654489489101794,0.04688091456249508
1648219778162500736,87569,11,2,0.410987585783,-0.527410268784,-0.514802217484,0.0,11.8000001907,0.13745404206789297,-0.17639139424214045,-0.17217465467692306,11.8000001907,0.0,0.26249028805708297,0.843856451307326
1648219778162510444,87570,11,3,2.14297699928,-1.14272224903,0.211521342397,0.0,11.8000001907,0.7167147154782608,-0.3821813541906354,0.0707429238785953,11.8000001907,0.0,1.0832463035972735,2.437807588010326
1648219778162512332,87571,11,4,1.12486159801,1.09584140778,0.272943407297,0.0809188112617,11.8000001907,0.3762078923110368,0.3665021430702341,0.09128542050066889,11.8000001907,0.010934974494824324,0.6460561719767869,1.5939511000246398
1648219778162604977,87572,11,5,1.04598164558,1.2306240797,0.289510965347,0.404594063759,11.8000001907,0.34982663731772573,0.4115799597658863,0.09682640981505015,11.8000001907,0.05467487348094594,0.6435490778759176,1.6408320534057923
1648219778162609621,87573,11,6,0.60712915659,-0.24612480402,-0.734884679317,-0.647350490093,11.8000001907,0.20305322962876252,-0.08231598796655518,-0.24578082920301,11.8000001907,-0.08747979595851352,0.29872587768764186,0.9844992249008722
1648219778162937359,87574,11,7,0.950871706009,0.12306240201,0.223466545343,-0.647350490093,11.8000001907,0.31801729297959863,0.04115799398327759,0.07473797503110367,11.8000001907,-0.08747979595851352,0.4516237125493648,0.9844991889100122
1648219778162940198,87575,11,8,0.186607778072,-1.52362966537,-1.89384162426,-0.404594063759,11.8000001907,0.06241062811772575,-0.5095751389197325,-0.6333918475785952,11.8000001907,-0.05467487348094594,0.5171624456678605,2.437807604757238
1648219778162996003,87576,11,9,1.05272758007,-0.533270418644,-2.13314151764,-0.404594063759,11.8000001907,0.3520828026989966,-0.1783513105832776,-0.7134252567357858,11.8000001907,-0.05467487348094594,0.5288986574945468,2.437807505017627
1648219778357560451,87577,13,0,0.012225298211,0.0439508594573,0.0108020491898,0.0,17.5,0.004088728498662207,0.014699284099431437,0.0036127254815384612,17.5,0.0,0.015795706837851316,0.04688091541429279
1648219778357565853,87578,13,1,0.0334108844399,0.0146502861753,-0.0294432006776,0.0,17.5,0.011174208842775918,0.0048997612626421405,-0.009847224306889632,17.5,0.0,0.01654489489101794,0.04688091456249508
1648219778357568711,87579,13,2,0.40844553709,-0.527410268784,-0.51682138443,0.0,17.5,0.1366038585585284,-0.17639139424214045,-0.1728499613478261,17.5,0.0,0.2616011320863178,0.8438564402738724
1648219778357571249,87580,13,3,2.10250449181,-1.21890377998,0.191452741623,0.0,17.5,0.7031787598026755,-0.407660127083612,0.06403101726521739,17.5,0.0,1.0747592826717454,2.437807563202174
1648219778357718151,87581,13,4,0.408057898283,-0.49224960804,-0.925809681416,-0.485512852669,17.5,0.13647421347257524,-0.16463197593311035,-0.3096353449551839,17.5,-0.06560984495527027,0.25368111751873906,1.1251419871155233
1648219778357721738,87582,13,5,1.10930907726,-0.0703213736415,0.174450546503,-0.485512852669,17.5,0.37100638035451505,-0.023518854060702338,0.05834466438227424,17.5,-0.06560984495527027,0.5252091059985983,1.125142087763788
1648219778357723589,87583,13,6,1.3641242981,1.19985842705,0.205886736512,-0.161837622523,17.5,0.4562288622408026,0.40129044382943135,0.06885844030501673,17.5,-0.021869948989594594,0.7598181162567108,1.8283557350530228
1648219778462569898,87584,14,0,0.0122270965949,0.0439508594573,0.01080001425,0.0,24.0,0.004089329964849498,0.014699284099431437,0.0036120448996655517,24.0,0.0,0.01579601823747459,0.046880915583812514
1648219778462572636,87585,14,1,0.0334108844399,0.0146502861753,-0.0294432006776,0.0,24.0,0.011174208842775918,0.0048997612626421405,-0.009847224306889632,24.0,0.0,0.01654489489101794,0.04688091456249508
1648219778462575184,87586,14,2,0.393758177757,-0.527410268784,-0.52809715271,0.0,24.0,0.1316916982464883,-0.17639139424214045,-0.1766211213076923,24.0,0.0,0.2565138022344499,0.8438564432827028
1648219778462578059,87587,14,3,1.13589787483,1.17934799194,0.105850055814,0.0,24.0,0.3798989547926421,0.39443076653511705,0.03540135645953177,24.0,0.0,0.6664998584355167,1.640832076250354
1648219778462582621,87588,14,4,2.10517835617,-1.21890377998,0.159385442734,0.0,24.0,0.704073028819398,-0.407660127083612,0.05330616813846153,24.0,0.0,1.0759295697375681,2.437807632995612
1648219778657546016,87589,16,0,0.0122386738658,0.0439508594573,0.0107868928462,0.0,11.8000001907,0.00409320196180602,0.014699284099431437,0.003607656470301003,11.8000001907,0.0,0.015798023852243773,0.04688091554464517
1648219778657662665,87590,16,1,0.0334108844399,0.0146502861753,-0.0294432006776,0.0,11.8000001907,0.011174208842775918,0.0048997612626421405,-0.009847224306889632,11.8000001907,0.0,0.01654489489101794,0.04688091456249508
1648219778657671281,87591,16,2,0.38632196188,-0.527410268784,-0.533561110497,0.0,11.8000001907,0.1292046695250836,-0.17639139424214045,-0.17844853193879595,11.8000001907,0.0,0.2539716858566292,0.8438564501646089
1648219778657678152,87592,16,3,1.8769286871,-1.31852579117,0.482886999846,0.0,11.8000001907,0.6277353468561873,-0.44097852547491634,0.16150066884481604,11.8000001907,0.0,0.9912443650863024,2.3440459494343693
1648219778657752301,87593,16,4,1.08990442753,-0.533270418644,0.116006761789,0.323675245047,11.8000001907,0.3645165309464883,-0.1783513105832776,0.038798248089966555,11.8000001907,0.04373989797932432,0.5454849151473367,1.2189038392469744
1648219778657754116,87594,16,5,1.03960466385,1.19546329975,0.175413310528,-0.242756426334,11.8000001907,0.3476938675083612,0.39982050158862875,0.05866665903946488,11.8000001907,-0.03280492247756756,0.6337495439812374,1.5939511246139961
1648219778657755279,87595,16,6,1.27192890644,1.13832724094,0.308583974838,-0.161837622523,11.8000001907,0.4253942830903009,0.380711451819398,0.10320534275518393,11.8000001907,-0.021869948989594594,0.7119422741474593,1.7345939351994017
1648219778762538904,87596,17,0,0.0122477002442,0.0439508594573,0.01077664271,0.0,17.0,0.004096220817458194,0.014699284099431437,0.0036042283311036784,17.0,0.0,0.015799588697385562,0.04688091548174064
1648219778762540774,87597,17,1,0.0333878919482,0.0146502861753,-0.0294692683965,0.0,17.0,0.011166519046220735,0.0048997612626421405,-0.009855942607525084,17.0,0.0,0.016534508025644712,0.04688091289200561
1648219778762544954,87598,17,2,0.39137801528,-0.527410268784,-0.529863536358,0.0,17.0,0.13089565728428093,-0.17639139424214045,-0.1772118850695652,17.0,0.0,0.2556976146827617,0.843856450840502
1648219778762547018,87599,17,3,1.2060085535,1.24673938751,-0.000495030602906,-0.242756426334,17.0,0.4033473423076923,0.41696969481939794,-0.00016556207455050166,17.0,-0.03280492247756756,0.7065705085065037,1.734593893837768
1648219778762551254,87600,17,4,0.88035428524,1.38445210457,-0.0244647786021,-0.161837622523,17.0,0.2944328713177257,0.463027459722408,-0.008182200201371238,17.0,-0.021869948989594594,0.6227165164677961,1.640832051972652
