%time,field.header.seq,field.header.frame_id,field.point_id,field.x,field.y,field.z,field.velocity,field.intensity,normalized_x,normalized_y,normalized_z,normalized_intensity,normalized_velocity,normalized_range,range
1648127117603082645,95375,0,0,0.0126157794148,0.0439508594573,0.0103433215991,0.0,42.7999992371,0.004219324218996655,0.014699284099431437,0.0034593048826421402,42.7999992371,0.0,0.01586424743773941,0.0468809155091988
1648127117603087860,95376,0,1,0.0327621363103,0.0146502861753,-0.030163416639,0.0,42.7999992371,0.0109572362241806,0.0048997612626421405,-0.010088099210367893,42.7999992371,0.0,0.016252067923063808,0.04688091470919446
1648127117603091625,95377,0,2,0.707699596882,-0.842391490936,0.403950035572,0.0,42.7999992371,0.23668882838862876,-0.2817362845939799,0.1351003463451505,42.7999992371,0.0,0.4375140420886895,1.1720229411862817
1648127117603100669,95378,0,3,2.42332863808,-0.902457654476,0.453225314617,0.0,42.7999992371,0.8104778053779264,-0.30182530250033446,0.15158037278160533,42.7999992371,0.0,1.185262443195539,2.62533134900543
1648127117903197607,95379,3,0,0.0125266173854,0.0439508594573,0.0104511268437,0.0,14.3000001907,0.004189504142274247,0.014699284099431437,0.003495360148394649,14.3000001907,0.0,0.01584843345419553,0.046880915546292916
1648127117903201210,95380,3,1,0.0327621363103,0.0146502861753,-0.030163416639,0.0,14.3000001907,0.0109572362241806,0.0048997612626421405,-0.010088099210367893,14.3000001907,0.0,0.016252067923063808,0.04688091470919446
1648127117903210853,95381,3,2,2.42253351212,-0.902457654476,0.457457363605,0.0,14.3000001907,0.8102118769632106,-0.30182530250033446,0.15299577378093646,14.3000001907,0.0,1.1848987654537901,2.625331536203232
1648127117903218053,95382,3,3,1.11840164661,-1.30094540119,0.255997806787,0.161837622523,14.3000001907,0.37404737344816047,-0.43509879638461535,0.08561799558093645,14.3000001907,0.021869948989594594,0.6849334550029487,1.7345939170587228
1648127117903222446,95383,3,4,0.646630764008,-0.741304516792,0.309969753027,-0.404594063759,14.3000001907,0.21626446956789297,-0.2479279320374582,0.10366881372140467,14.3000001907,-0.05467487348094594,0.3937116979203624,1.031380133301689
1648127117903289222,95384,3,5,0.790356457233,-0.73837441206,0.309974789619,-0.323675245047,14.3000001907,0.2643332632886287,-0.24694796389966553,0.10367049820033444,14.3000001907,-0.04373989797932432,0.44802616557051833,1.1251419786294496
1648127117903292876,95385,3,6,1.18140935898,-0.747164607048,-0.155097857118,-0.323675245047,14.3000001907,0.3951201869498328,-0.24988782844414714,-0.05187219301605351,14.3000001907,-0.04373989797932432,0.6121142467506153,1.4064275199217777
1648127117903295903,95386,3,7,0.941719472408,-0.695888638496,0.0504106581211,-0.161837622523,14.3000001907,0.3149563452869565,-0.23273867508227425,0.016859751879966554,14.3000001907,-0.021869948989594594,0.5025557578538778,1.1720229504375845
1648127118008419838,95387,4,0,0.0126506788656,0.0439508594573,0.0103006083518,0.0,32.0,0.004230996276120401,0.014699284099431437,0.0034450195156521734,32.0,0.0,0.015870463509705293,0.046880915682322666
1648127118008431218,95388,4,1,0.0328372865915,0.0146502861753,-0.0300815850496,0.0,32.0,0.010982370097491638,0.0048997612626421405,-0.010060730785819396,32.0,0.0,0.01628596224812785,0.04688091333161941
1648127118008434017,95389,4,2,0.47922462225,-1.53828001022,0.31043240428,0.0,32.0,0.1602757933946488,-0.51447491980602,0.1038235465819398,32.0,0.0,0.5621931189600056,1.640832077343736
1648127118008438195,95390,4,3,2.41944074631,-0.902457654476,0.473541408777,0.0,32.0,0.8091775071270901,-0.30182530250033446,0.15837505310267558,32.0,0.0,1.1834842581590355,2.6253313712470505
1648127118008440419,95391,4,4,0.938876390457,-0.975709080696,-1.08412122726,0.161837622523,32.0,0.314005481758194,-0.32632410725618727,-0.36258235025418056,32.0,0.021869948989594594,0.5510774066543997,1.734593878147253
1648127118008567070,95392,4,5,1.47752797604,0.068856343627,-1.63314259052,-0.485512852669,32.0,0.4941565137257525,0.023028877467224075,-0.5462015352909699,32.0,-0.06560984495527027,0.6992221745000512,2.2034030128437503
1648127118008570068,95393,4,6,0.752270698547,-0.676843225956,0.199291288853,-0.404594063759,32.0,0.2515955513535117,-0.22636897189163876,0.06665260496755852,32.0,-0.05467487348094594,0.4217150155697952,1.0313801308090078
1648127118008578054,95394,4,7,0.890621602535,-0.668053030968,0.16261254251,-0.242756426334,32.0,0.29786675670066887,-0.22342910734715715,0.05438546572240803,32.0,-0.03280492247756756,0.47683306880364157,1.1251420044017153
1648127118203255217,95395,6,0,0.0126405349001,0.0439508594573,0.0103130536154,0.0,36.9000015259,0.004227603645518395,0.014699284099431437,0.003449181811170568,36.9000015259,0.0,0.01586865521091812,0.046880915567745665
1648127118203402909,95396,6,1,0.0327492877841,0.0146502861753,-0.0301773659885,0.0,36.9000015259,0.010952939058227425,0.0048997612626421405,-0.010092764544648828,36.9000015259,0.0,0.016246273679135663,0.04688091459632442
1648127118203412395,95397,6,2,0.473995864391,-1.53828001022,0.31835898757,0.0,36.9000015259,0.15852704494682274,-0.51447491980602,0.10647457778260867,36.9000015259,0.0,0.5612005800679064,1.6408320798511986
1648127118203514968,95398,6,3,0.711267411709,-0.628497242928,-1.56268179417,0.242756426334,36.9000015259,0.23788207749464882,-0.2101997467986622,-0.5226360515618729,36.9000015259,0.03280492247756756,0.39668589480918265,1.8283556834373578
1648127118203533019,95399,6,4,1.06553387642,-1.37126672268,0.571970105171,0.242756426334,36.9000015259,0.3563658449565217,-0.4586176330033444,0.19129434955551838,36.9000015259,0.03280492247756756,0.6814127707966307,1.8283557278980216
1648127118203538101,95400,6,5,0.87895065546,-0.515690088272,0.158916577697,-0.323675245047,36.9000015259,0.2939634299197324,-0.17247160142876253,0.053149357089297654,36.9000015259,-0.04373989797932432,0.45008382503679106,1.0313801435661214
1648127118203540330,95401,6,6,1.10293138027,-0.553780794144,-0.281212151051,-0.323675245047,36.9000015259,0.36887337132775916,-0.18521096794113712,-0.09405088663913043,36.9000015259,-0.04373989797932432,0.5535686324161682,1.2657847650551721
1648127118203550508,95402,6,7,1.18218171597,-0.492249637842,-0.288492321968,-0.242756426334,36.9000015259,0.39537850032441474,-0.16463198590033443,-0.09648572641070234,36.9000015259,-0.03280492247756756,0.5828824991531778,1.312665660160211
