%time,field.header.seq,field.header.frame_id,field.point_id,field.x,field.y,field.z,field.velocity,field.intensity,normalized_x,normalized_y,normalized_z,normalized_intensity,normalized_velocity,normalized_range,range
1648127440099002188,109817,0,0,0.0125890737399,0.0439508594573,0.0103758089244,0.0,30.2000007629,0.004210392555150501,0.014699284099431437,0.003470170208829431,30.2000007629,0.0,0.01585950074790286,0.0468809154720728
1648127440099012714,109818,0,1,0.0329373031855,0.0146502861753,-0.0299720410258,0.0,30.2000007629,0.011015820463377925,0.0048997612626421405,-0.010024093988561873,30.2000007629,0.0,0.016331082676713148,0.04688091370060926
1648127440099020230,109819,0,2,1.03737485409,-0.386767566204,0.200521439314,0.0,30.2000007629,0.34694811173578594,-0.1293537010715719,0.06706402652642139,30.2000007629,0.0,0.5074232596708278,1.1251420291635064
1648127440099044944,109820,0,3,1.82797050476,-1.39177727699,0.464791566133,0.0,30.2000007629,0.6113613728294314,-0.4654773501638796,0.15544868432541806,30.2000007629,0.0,0.9819341219712048,2.3440459370427438
1648127440099048190,109821,0,4,1.21785569191,-0.158223092556,0.306600660086,0.0809188112617,30.2000007629,0.4073095959565217,-0.05291742225953177,0.10254202678461538,30.2000007629,0.010934974494824324,0.5784483274201107,1.2657847360830121
1648127440099051424,109822,0,5,1.20246386528,-0.492249637842,-0.186714142561,-0.242756426334,30.2000007629,0.40216182785284277,-0.16463198590033443,-0.062446201525418056,30.2000007629,-0.03280492247756756,0.5920911773919343,1.3126656940333237
1648127440099053963,109823,0,6,1.11682009697,-0.483459442854,0.704995155334,-0.0809188112617,30.2000007629,0.3735184270802675,-0.16169212135585284,0.2357843328876254,30.2000007629,-0.010934974494824324,0.5524277082529352,1.4064275064592526
1648127440203836704,109824,1,0,0.0125890737399,0.0439508594573,0.0103758089244,0.0,12.3999996185,0.004210392555150501,0.014699284099431437,0.003470170208829431,12.3999996185,0.0,0.01585950074790286,0.0468809154720728
1648127440203850704,109825,1,1,0.032885145396,0.0146502861753,-0.0300292614847,0.0,12.3999996185,0.010998376386622074,0.0048997612626421405,-0.010043231265785952,12.3999996185,0.0,0.016307551217595504,0.04688091528597467
1648127440203856458,109826,1,2,1.71441090107,-1.53828012943,0.434787869453,0.0,12.3999996185,0.5733815722642139,-0.5144749596755852,0.14541400316153846,12.3999996185,0.0,0.9603214768802991,2.344045858282279
1648127440203879282,109827,1,3,1.23455941677,-0.197778865695,0.197376430035,0.0809188112617,12.3999996185,0.41289612601003345,-0.06614677782441471,0.06601218395819397,12.3999996185,0.010934974494824324,0.587657908961276,1.265784692743772
1648127440203893161,109828,1,4,1.25829350948,-0.635822415352,0.352891653776,-0.161837622523,12.3999996185,0.4208339496588629,-0.21264963724147157,0.11802396447357859,12.3999996185,-0.021869948989594594,0.6319986507816976,1.4533083702945864
1648127440203896511,109829,1,5,1.02962219715,-0.386767566204,0.237135738134,-0.0809188112617,12.3999996185,0.3443552498829431,-0.1293537010715719,0.0793096114160535,12.3999996185,-0.010934974494824324,0.5038784141286486,1.1251419365714335
