%time,field.header.seq,field.header.frame_id,field.point_id,field.x,field.y,field.z,field.velocity,field.intensity,normalized_x,normalized_y,normalized_z,normalized_intensity,normalized_velocity,normalized_range,range
1648295484262259012,47441,0,0,0.0126683982089,0.0439508594573,0.0102788070217,0.0,32.5999984741,0.004236922477892977,0.014699284099431437,0.00343772810090301,32.5999984741,0.0,0.015873625206711522,0.0468809154561208
1648295484262270215,47442,0,1,0.0334645062685,0.0146502861753,-0.0293822418898,0.0,32.5999984741,0.011192142564715717,0.0048997612626421405,-0.00982683675244147,32.5999984741,0.0,0.016569121002899676,0.04688091512847611
1648295484262273367,47443,0,2,0.657434821129,-0.808695793152,0.27647292614,0.0,32.5999984741,0.21987786659832773,-0.2704668204521739,0.09246586158528428,32.5999984741,0.0,0.41212237673435365,1.0782609650650796
1648295484262278597,47444,0,3,2.20035505295,-1.31266570091,0.572460472584,0.0,32.5999984741,0.7359046999832776,-0.4390186290668896,0.1914583520347826,32.5999984741,0.0,1.1295347766150128,2.6253313303389416
1648295484262281849,47445,0,4,0.814007103443,-0.842391490936,-0.0375083014369,0.0809188112617,32.5999984741,0.27224317840903006,-0.2817362845939799,-0.012544582420367894,32.5999984741,0.010934974494824324,0.47708283393696105,1.1720229780741167
1648295484262291012,47446,0,5,1.24611890316,-0.424858301878,0.339189946651,-0.566431701183,32.5999984741,0.41676217496989965,-0.14209307755117057,0.11344145372943143,32.5999984741,-0.07654482448418919,0.6062770518989198,1.359546511670876
1648295484367537666,47447,1,0,0.0126887271181,0.0439508594573,0.0102537022904,0.0,30.8999996185,0.004243721444180602,0.014699284099431437,0.0034293318696989963,30.8999996185,0.0,0.015877257207319986,0.046880915664832074
1648295484367541476,47448,1,1,0.0334645062685,0.0146502861753,-0.0293822418898,0.0,30.8999996185,0.011192142564715717,0.0048997612626421405,-0.00982683675244147,30.8999996185,0.0,0.016569121002899676,0.04688091512847611
1648295484367543834,47449,1,2,2.18978786469,-1.31266570091,0.611639618874,0.0,30.8999996185,0.7323705233076923,-0.4390186290668896,0.20456174544280933,30.8999996185,0.0,1.124931341677232,2.6253314377551384
1648295484367745328,47450,1,3,0.884150385857,-0.769140064716,0.0184223949909,0.161837622523,30.8999996185,0.2957024701862876,-0.2572374798381271,0.006161336117357859,30.8999996185,0.021869948989594594,0.4909694723524218,1.1720229215333697
1648295484367749509,47451,1,4,1.02880072594,-0.879017174244,0.383322626352,0.404594063759,30.8999996185,0.34408051034782605,-0.29398567700468226,0.12820154727491637,30.8999996185,0.05467487348094594,0.5685159395182708,1.4064275175720835
1648295484367752634,47452,1,5,0.630410254002,-0.842391431332,0.235809952021,-0.161837622523,30.8999996185,0.2108395498334448,-0.2817362646595318,0.07886620468929766,30.8999996185,-0.021869948989594594,0.4102218355624735,1.0782609820468272
1648295484562475289,47453,3,0,0.0126887271181,0.0439508594573,0.0102537022904,0.0,34.5999984741,0.004243721444180602,0.014699284099431437,0.0034293318696989963,34.5999984741,0.0,0.015877257207319986,0.046880915664832074
1648295484562482033,47454,3,1,0.0335269682109,0.0146502861753,-0.0293109472841,0.0,34.5999984741,0.01121303284645485,0.0048997612626421405,-0.00980299240270903,34.5999984741,0.0,0.016597345319726262,0.046880914166899254
1648295484562487837,47455,3,2,2.18743753433,-1.31266570091,0.619992554188,0.0,34.5999984741,0.7315844596421404,-0.4390186290668896,0.20735536929364548,34.5999984741,0.0,1.1239079143095025,2.6253314031165305
1648295484562491981,47456,3,3,0.502990424633,-0.723724126816,0.128985315561,-0.566431701183,34.5999984741,0.16822422228528428,-0.24204820294849494,0.043138901525418064,34.5999984741,-0.07654482448418919,0.3393907931538115,0.8907374420324083
1648295484562495567,47457,3,4,0.637050271034,-0.773535132408,0.244039714336,-0.323675245047,34.5999984741,0.21306029131571905,-0.2587074021431438,0.08161863355719062,34.5999984741,-0.04373989797932432,0.3971383831798841,1.0313801583640978
1648295484562499290,47458,3,5,0.777370274067,-0.808695793152,0.0874700918794,-0.323675245047,34.5999984741,0.25999005821638793,-0.2704668204521739,0.02925421133090301,34.5999984741,-0.04373989797932432,0.456444916400906,1.1251419669704512
1648295484667527302,47459,4,0,0.0126779936254,0.0439508594573,0.0102669699118,0.0,31.3999996185,0.004240131647290969,0.014699284099431437,0.0034337692012709024,31.3999996185,0.0,0.015875338919484987,0.04688091552615868
1648295484667545758,47460,4,1,0.0335632227361,0.0146502861753,-0.0292694270611,0.0,31.3999996185,0.011225158105719061,0.0048997612626421405,-0.009789106040501672,31.3999996185,0.0,0.01661372954600108,0.04688091473015751
1648295484667566875,47461,4,2,1.79123902321,-0.114272229373,0.348266154528,0.0,31.3999996185,0.5990765963913043,-0.03821813691404682,0.11647697475852843,31.3999996185,0.0,0.848083818190608,1.8283557353715145
1648295484667568150,47462,4,3,2.19116568565,-1.31266570091,0.606684505939,0.0,31.3999996185,0.732831332993311,-0.4390186290668896,0.20290451703645485,31.3999996185,0.0,1.1255313775729567,2.625331292249042
1648295484667569233,47463,4,4,1.19911015034,-0.515690088272,-0.739436507225,0.161837622523,31.3999996185,0.4010401840602006,-0.17247160142876253,-0.24730317967391302,31.3999996185,0.021869948989594594,0.5928009039816665,1.5001892440647304
1648295484667570250,47464,4,5,0.45939463377,-0.597731649876,0.258541107178,-0.566431701183,31.3999996185,0.15364369022408025,-0.19991025079464883,0.08646859771839464,31.3999996185,-0.07654482448418919,0.29525730382858556,0.796975569826945
1648295484667572116,47465,4,6,0.781390607357,-0.808695793152,-0.0372066646814,-0.404594063759,31.3999996185,0.2613346512899666,-0.2704668204521739,-0.012443700562341136,31.3999996185,-0.05467487348094594,0.45797805722021806,1.1251419923832715
1648295484667573560,47466,4,7,0.693699061871,-0.676843225956,0.172926470637,-0.323675245047,31.3999996185,0.23200637520769227,-0.22636897189163876,0.05783494001237458,31.3999996185,-0.04373989797932432,0.3986186494750371,0.9844992154441767
1648295484667593270,47467,4,8,0.934603333473,-0.695888638496,0.126068845391,-0.242756426334,31.3999996185,0.3125763657100334,-0.23273867508227425,0.04216349344180602,31.3999996185,-0.03280492247756756,0.4995750791222852,1.1720229272095661
1648295484862959754,47468,6,0,0.0126983001828,0.0439508594573,0.01024184376,0.0,20.1000003815,0.0042469231380602,0.014699284099431437,0.0034253658060200663,20.1000003815,0.0,0.015878969277537507,0.046880915500575354
1648295484863001141,47469,6,1,0.0334416292608,0.0146502861753,-0.0294082760811,0.0,20.1000003815,0.011184491391571906,0.0048997612626421405,-0.009835543839832775,20.1000003815,0.0,0.016558784852977005,0.04688091461028868
1648295484863024726,47470,6,2,0.794400334358,-0.673913121223,0.278237342834,0.0,20.1000003815,0.265685730554515,-0.22538900375351167,0.09305596750301003,20.1000003815,0.0,0.43815296170809254,1.0782610097429808
1648295484863049086,47471,6,3,0.577486693859,-0.547920703888,0.0382374227047,0.404594063759,20.1000003815,0.1931393624946488,-0.18325107153444814,0.012788435687190635,20.1000003815,0.05467487348094594,0.32891728733558856,0.7969755829562268
1648295484863064116,47472,6,4,1.21720588207,-0.594801604748,0.113964036107,-0.404594063759,20.1000003815,0.4070922682508361,-0.19893030259130434,0.03811506224314381,20.1000003815,-0.05467487348094594,0.6091153380340125,1.3595465824613735
1648295484863100906,47473,6,5,0.728173732758,-0.556710898876,0.197393417358,-0.161837622523,20.1000003815,0.243536365470903,-0.18619093607892975,0.06601786533712374,20.1000003815,-0.021869948989594594,0.3915188211203933,0.9376183505149164
1648295484967944823,47474,7,0,0.0126983001828,0.0439508594573,0.01024184376,0.0,43.4000015259,0.0042469231380602,0.014699284099431437,0.0034253658060200663,43.4000015259,0.0,0.015878969277537507,0.046880915500575354
1648295484967981334,47475,7,1,0.0334416292608,0.0146502861753,-0.0294082760811,0.0,43.4000015259,0.011184491391571906,0.0048997612626421405,-0.009835543839832775,43.4000015259,0.0,0.016558784852977005,0.04688091461028868
1648295484967993729,47476,7,2,1.21917831898,-0.451228827238,0.181901305914,-0.485512852669,43.4000015259,0.4077519461471572,-0.15091265125016723,0.0608365571618729,43.4000015259,-0.06560984495527027,0.5960687271455725,1.3126657278586573
1648295484968030966,47477,7,3,0.730601072311,-0.473204255104,0.188978716731,-0.323675245047,43.4000015259,0.24434818471939798,-0.15826229267692307,0.0632035841909699,43.4000015259,-0.04373989797932432,0.38007765526887544,0.8907374188209509
1648295484968051043,47478,7,4,0.683533608913,-0.549385726452,0.777557015419,-0.323675245047,43.4000015259,0.22860655816488293,-0.1837410456361204,0.2600525135180602,43.4000015259,-0.04373989797932432,0.3718638039974352,1.1720229448138482
1648295484968075244,47479,7,5,0.41529661417,0.184593603015,-1.91583108902,-0.242756426334,43.4000015259,0.13889518868561873,0.06173699097491638,-0.640746183618729,43.4000015259,-0.03280492247756756,0.2059009541859002,1.968998435162071
1648295484968191080,47480,7,6,1.89130997658,-0.49224960804,0.239982411265,-0.242756426334,43.4000015259,0.6325451426688963,-0.16463197593311035,0.0802616760083612,43.4000015259,-0.03280492247756756,0.9095770459546948,1.9689983905130897
1648295484968219776,47481,7,7,0.941311120987,-0.41899818182,0.0460321940482,-0.161837622523,43.4000015259,0.3148197729053511,-0.14013317117725752,0.015395382624816052,43.4000015259,-0.021869948989594594,0.4667550583427546,1.0313801751784641
1648295485162999550,47482,9,0,0.0126983001828,0.0439508594573,0.01024184376,0.0,29.5,0.0042469231380602,0.014699284099431437,0.0034253658060200663,29.5,0.0,0.015878969277537507,0.046880915500575354
1648295485163015898,47483,9,1,0.0335404723883,0.0146502861753,-0.0292954929173,0.0,29.5,0.011217549293745818,0.0048997612626421405,-0.009797823718160533,29.5,0.0,0.016603447977637752,0.046880913795659694
1648295485163048199,47484,9,2,0.678914129734,-0.36918720603,0.338924944401,-0.485512852669,29.5,0.2270615818508361,-0.12347398194983276,0.11335282421438127,29.5,-0.06560984495527027,0.3440345158901291,0.8438564490397246
1648295485163157095,47485,9,3,1.19949603081,-0.076181486249,0.202810436487,-0.323675245047,29.5,0.40116924107357854,-0.02547875794280936,0.06782957742040134,29.5,-0.04373989797932432,0.5679108090830903,1.2189037779595642
1648295485267950948,47486,10,0,0.0126983001828,0.0439508594573,0.01024184376,0.0,23.0,0.0042469231380602,0.014699284099431437,0.0034253658060200663,23.0,0.0,0.015878969277537507,0.046880915500575354
1648295485268015375,47487,10,1,0.0335269682109,0.0146502861753,-0.0293109472841,0.0,23.0,0.01121303284645485,0.0048997612626421405,-0.00980299240270903,23.0,0.0,0.016597345319726262,0.046880914166899254
1648295485268026967,47488,10,2,1.86671435833,-0.175803437829,-0.0313533507288,0.0,23.0,0.6243191833879599,-0.05879713639765886,-0.010486070477859532,23.0,0.0,0.8848762561742648,1.87523661892301
1648295485268048373,47489,10,3,0.255613714457,-0.375047326088,-0.597196042538,0.323675245047,23.0,0.08548953660769229,-0.1254338883237458,-0.1997311179056856,23.0,0.04373989797932432,0.1742141844937141,0.7500946480593712
1648295485268072477,47490,10,4,0.745218038559,-0.273960351944,-0.069034896791,-0.566431701183,23.0,0.24923680219364547,-0.09162553576722407,-0.023088594244481602,23.0,-0.07654482448418919,0.3641884209307863,0.7969755431667571
1648295485268080810,47491,10,5,0.55398529768,-0.26956525445,0.884918987751,-0.404594063759,23.0,0.18527936377257526,-0.09015560349498328,0.2959595276759197,23.0,-0.05467487348094594,0.2771009168542847,1.0782609847966058
1648295485268217654,47492,10,6,1.16573941708,-0.0,0.121200181544,-0.0809188112617,23.0,0.3898794037056856,-0.0,0.04053517777391304,23.0,-0.010934974494824324,0.5513727404105156,1.1720229829403161
1648295485268228838,47493,10,7,2.13641190529,-1.47674894333,0.38382434845,-0.0809188112617,23.0,0.7145190318695652,-0.4938959676688963,0.1283693473076923,23.0,-0.010934974494824324,1.1247257980002223,2.6253312935997597
1648295485366032477,47494,11,0,0.0126779936254,0.0439508594573,0.0102669699118,0.0,14.1000003815,0.004240131647290969,0.014699284099431437,0.0034337692012709024,14.1000003815,0.0,0.015875338919484987,0.04688091552615868
1648295485366057224,47495,11,1,0.0335497111082,0.0146502861753,-0.0292849130929,0.0,14.1000003815,0.011220639166622073,0.0048997612626421405,-0.00979428531535117,14.1000003815,0.0,0.016607623160643882,0.04688091440363094
1648295485366076182,47496,11,2,1.47024452686,-1.68478298187,0.703163325787,0.0,14.1000003815,0.4917205775451505,-0.5634725691872909,0.2351716808652174,14.1000003815,0.0,0.89503049612245,2.3440459311823196
1648295485366097882,47497,11,3,0.300733476877,-0.225614413619,-0.537987291813,0.161837622523,14.1000003815,0.10057975815284281,-0.07545632562508361,-0.17992886013812706,14.1000003815,0.021869948989594594,0.16101624941914203,0.656332852978929
1648295485366126205,47498,11,4,1.16230261326,0.0366257168353,0.146112635732,0.161837622523,14.1000003815,0.38872997098996653,0.012249403623846153,0.048867102251505014,14.1000003815,0.021869948989594594,0.5498836500395882,1.1720229137031737
1648295485366160379,47499,11,5,1.98116123676,-1.27017974854,0.42210611701,0.161837622523,14.1000003815,0.6625957313578594,-0.42480928044816046,0.14117261438461537,14.1000003815,0.021869948989594594,1.0288484490838274,2.3909266014787676
1648295485366184882,47500,11,6,1.03582215309,-1.00207960606,-1.04716837406,0.323675245047,14.1000003815,0.3464288137424749,-0.3351436809565217,-0.35022353647491633,14.1000003815,0.04373989797932432,0.593588353042008,1.7814748590268772
1648295485366237947,47501,11,7,0.66047590971,-0.164083212614,0.315420776606,-0.242756426334,14.1000003815,0.22089495308026755,-0.054877328633444813,0.10549189853043477,14.1000003815,-0.03280492247756756,0.3171761053273249,0.7500946568825266
1648295485465928391,47502,12,0,0.0126983001828,0.0439508594573,0.01024184376,0.0,44.0,0.0042469231380602,0.014699284099431437,0.0034253658060200663,44.0,0.0,0.015878969277537507,0.046880915500575354
1648295485465945299,47503,12,1,0.0335497111082,0.0146502861753,-0.0292849130929,0.0,44.0,0.011220639166622073,0.0048997612626421405,-0.00979428531535117,44.0,0.0,0.016607623160643882,0.04688091440363094
1648295485465975417,47504,12,2,1.40952539444,-1.68478298187,0.818104922771,0.0,44.0,0.47141317539799327,-0.5634725691872909,0.2736136865454849,44.0,0.0,0.8729044049059237,2.3440459036102834
1648295485466038493,47505,12,3,1.98510217667,-0.879017233849,-0.883883237839,0.0,44.0,0.6639137714615384,-0.29398569693946486,-0.2956131230230769,44.0,0.0,0.9838651238241706,2.3440459738145654
1648295485466070692,47506,12,4,2.19942116737,-1.31266570091,0.5760384202,0.0,44.0,0.7355923636688964,-0.4390186290668896,0.1926549900334448,44.0,0.0,1.129127808374127,2.6253314029598753
1648295485466146351,47507,12,5,0.820950567722,0.105482056737,0.164339289069,0.0809188112617,44.0,0.27456540726488293,0.035278279845150494,0.05496297293277592,44.0,0.010934974494824324,0.3898934248764588,0.843856445651893
1648295485466169445,47508,12,6,0.552846908569,-0.0879017189145,0.0558543615043,-0.647350490093,44.0,0.18489863162842807,-0.02939856819882943,0.018680388462976587,44.0,-0.08747979595851352,0.2631335854053441,0.5625709965875214
1648295485466211586,47509,12,7,0.86004960537,-1.59981119633,0.209292754531,-0.485512852669,44.0,0.2876420084849498,-0.5350539118160534,0.06999757676622073,44.0,-0.06560984495527027,0.6721298525137631,1.8283557215977124
1648295485466235205,47510,12,8,0.557530879974,-0.0527410283685,0.0535144470632,-0.404594063759,44.0,0.1864651772488294,-0.017639139922575247,0.017897808382341136,44.0,-0.05467487348094594,0.26429086989542966,0.5625709681830637
1648295485466289519,47511,12,9,0.673768043518,-0.0439508594573,0.196505829692,-0.161837622523,44.0,0.2253404827819398,-0.014699284099431437,0.06572101327491639,44.0,-0.021869948989594594,0.3190183933785499,0.7032137623909605
1648295485568120031,47512,13,0,0.0126983001828,0.0439508594573,0.01024184376,0.0,33.4000015259,0.0042469231380602,0.014699284099431437,0.0034253658060200663,33.4000015259,0.0,0.015878969277537507,0.046880915500575354
1648295485568143606,47513,13,1,0.0335497111082,0.0146502861753,-0.0292849130929,0.0,33.4000015259,0.011220639166622073,0.0048997612626421405,-0.00979428531535117,33.4000015259,0.0,0.016607623160643882,0.04688091440363094
1648295485568184114,47514,13,2,0.70055103302,-0.0219754297286,0.0570515468717,0.0,33.4000015259,0.23429800435451503,-0.007349642049698997,0.019080784906923075,33.4000015259,0.0,0.33142891685439185,0.7032137288034126
1648295485568238107,47515,13,3,1.39952135086,-1.68478298187,0.835103332996,0.0,33.4000015259,0.4680673414247491,-0.5634725691872909,0.2792987735772575,33.4000015259,0.0,0.8692959268531009,2.3440459219675702
1648295485568277286,47516,13,4,2.00583362579,-0.879017233849,-0.83576977253,0.0,33.4000015259,0.6708473664849497,-0.29398569693946486,-0.27952166305351167,33.4000015259,0.0,0.9932270476807242,2.3440458494722867
1648295485568308010,47517,13,5,2.1990070343,-1.31266570091,0.577617704868,0.0,33.4000015259,0.735453857625418,-0.4390186290668896,0.19318317888561873,33.4000015259,0.0,1.1289473460086563,2.6253314823510188
1648295485568329121,47518,13,6,0.523143529892,0.140642747283,0.151745021343,0.485512852669,33.4000015259,0.1749643912682274,0.047037708121404675,0.050750843258528425,33.4000015259,0.06560984495527027,0.2518682639973468,0.5625709615093542
1648295485568471773,47519,13,7,0.310471683741,0.105482056737,-0.457129091024,-0.647350490093,33.4000015259,0.10383668352541804,0.035278279845150494,-0.1528859836200669,33.4000015259,-0.08747979595851352,0.15102539759904093,0.562571005792929
1648295485568489378,47520,13,8,0.451276540756,0.316446185112,0.112682886422,-0.647350490093,33.4000015259,0.15092860894849497,0.10583484451906354,0.037686584087625416,33.4000015259,-0.08747979595851352,0.23824337202245477,0.5625710063636707
1648295485568518447,47521,13,9,1.7344930172,-0.0,-0.0187093894929,-0.161837622523,33.4000015259,0.5800979990635451,-0.0,-0.00625732090063545,33.4000015259,-0.021869948989594594,0.8203824577811605,1.7345939201930682
1648295485665886317,47522,14,0,0.0126983001828,0.0439508594573,0.01024184376,0.0,15.1999998093,0.0042469231380602,0.014699284099431437,0.0034253658060200663,15.1999998093,0.0,0.015878969277537507,0.046880915500575354
1648295485665938508,47523,14,1,0.0335497111082,0.0146502861753,-0.0292849130929,0.0,15.1999998093,0.011220639166622073,0.0048997612626421405,-0.00979428531535117,15.1999998093,0.0,0.016607623160643882,0.04688091440363094
1648295485665960726,47524,14,2,1.41342544556,-1.68478298187,0.811348259449,0.0,15.1999998093,0.47271754032107016,-0.5634725691872909,0.27135393292608695,15.1999998093,0.0,0.8743140637556572,2.3440459006312517
1648295485665981313,47525,14,3,1.97407281399,-0.879017233849,-0.908249139786,0.0,15.1999998093,0.6602250214013378,-0.29398569693946486,-0.30376225410903007,15.1999998093,0.0,0.9788880159516596,2.344045919400888
1648295485666016866,47526,14,4,2.19755530357,-1.31266570091,0.583116173744,0.0,15.1999998093,0.7349683289531772,-0.4390186290668896,0.19502213168695653,15.1999998093,0.0,1.1283147813426104,2.6253314127317373
1648295485666070658,47527,14,5,0.699957489967,0.0659262910485,-0.0149278556928,0.161837622523,15.1999998093,0.2340994949722408,0.022048926772073575,-0.004992593877190635,15.1999998093,0.021869948989594594,0.3318000938280709,0.7032137686990347
1648295485666105388,47528,14,6,0.50247079134,0.133317604661,-0.318089842796,-0.566431701183,15.1999998093,0.1680504318862876,0.0445878276458194,-0.10638456280802674,15.1999998093,-0.07654482448418919,0.24180564445130073,0.6094519078256925
1648295485666122747,47529,14,7,0.375439971685,0.380907416344,0.292208820581,-0.566431701183,15.1999998093,0.12556520792140466,0.12739378473043478,0.0977287025354515,15.1999998093,-0.07654482448418919,0.21854614905926742,0.6094519070361778
1648295485765989158,47530,15,0,0.0126983001828,0.0439508594573,0.01024184376,0.0,42.0,0.0042469231380602,0.014699284099431437,0.0034253658060200663,42.0,0.0,0.015878969277537507,0.046880915500575354
1648295485766118753,47531,15,1,0.0335497111082,0.0146502861753,-0.0292849130929,0.0,42.0,0.011220639166622073,0.0048997612626421405,-0.00979428531535117,42.0,0.0,0.016607623160643882,0.04688091440363094
1648295485766141836,47532,15,2,1.25622344017,-0.079111546278,0.133623272181,0.0,42.0,0.4201416187859532,-0.026458711129765885,0.044690057585618725,42.0,0.0,0.5947587940222581,1.2657847950008736
1648295485766181083,47533,15,3,1.91834771633,-0.120132349432,-0.00682254927233,0.0,42.0,0.641587864993311,-0.040178043288294316,-0.00228178905429097,42.0,0.0,0.908231386914054,1.9221176575088093
1648295485766200870,47534,15,4,2.1961915493,-1.31266570091,0.588231503963,0.0,42.0,0.7345122238461538,-0.4390186290668896,0.19673294446923073,42.0,0.0,1.1277206084073377,2.625331382095763
1648295485766370017,47535,15,5,1.08633077145,-0.0,0.292967408895,0.0809188112617,42.0,0.3633213282441471,-0.0,0.09798241100167224,42.0,0.010934974494824324,0.5138139499022798,1.1251419677861998
1648295485766393871,47536,15,6,0.86639380455,-0.0,0.358454883099,0.242756426334,42.0,0.28976381423076925,-0.0,0.11988457628729095,42.0,0.03280492247756756,0.4097879159701119,0.9376183273486827
1648295485766403392,47537,15,7,1.74568641186,0.169943317771,-2.07777905464,0.242756426334,42.0,0.5838416093177257,0.05683723002374581,-0.6949093828227425,42.0,0.03280492247756756,0.8276306665767018,2.719093153922526
1648295485766519848,47538,15,8,0.643903553486,-1.35954654217,-2.26505827904,0.242756426334,42.0,0.21535235902541805,-0.4546978401906354,-0.7575445749297658,42.0,0.03280492247756756,0.547269040737418,2.719093156544282
1648295485766580542,47539,15,9,0.69647538662,0.164083212614,0.225034981966,0.404594063759,42.0,0.23293491191304344,0.054877328633444813,0.07526253577458193,42.0,0.05467487348094594,0.33395938012551424,0.7500946659839993
1648295485766603433,47540,15,10,0.887710511684,-1.39763724804,-1.8526352644,0.485512852669,42.0,0.2968931477204013,-0.46743720670234107,-0.6196104563210701,42.0,0.06560984495527027,0.6283220707060537,2.484688562488577
1648295485766614621,47541,15,11,2.38742518425,0.621172130108,0.296686291695,0.485512852669,42.0,0.7984699612876254,0.20774987629030098,0.09922618451337792,42.0,0.06560984495527027,1.1481587735396002,2.4846884274077077
1648295485766624930,47542,15,12,0.499877393246,0.287145614624,0.31375592947,0.566431701183,42.0,0.16718307466421403,0.0960353226167224,0.10493509346822741,42.0,0.07654482448418919,0.25519236684990854,0.6563328390030431
1648295485766722644,47543,15,13,0.652064025402,-1.88988697529,0.258668959141,0.566431701183,42.0,0.21808161384682273,-0.6320692225050167,0.08651135757224081,42.0,0.07654482448418919,0.7032998525765278,2.0158794366274324
