%time,field.header.seq,field.header.frame_id,field.point_id,field.x,field.y,field.z,field.velocity,field.intensity,normalized_x,normalized_y,normalized_z,normalized_intensity,normalized_velocity,normalized_range,range
1648295620666252699,55460,0,0,0.0127668203786,0.0439508594573,0.0101563036442,0.0,33.4000015259,0.004269839591505016,0.014699284099431437,0.003396757071638796,33.4000015259,0.0,0.015891255875800543,0.046880915662217644
1648295620666259144,55461,0,1,0.0334918834269,0.0146502861753,-0.0293510295451,0.0,33.4000015259,0.011201298804983278,0.0048997612626421405,-0.009816397841170568,33.4000015259,0.0,0.01658149119554475,0.04688091376942837
1648295620666268383,55462,0,2,1.38632106781,-1.68478298187,0.856838107109,0.0,33.4000015259,0.46365253104013376,-0.5634725691872909,0.2865679287989966,33.4000015259,0.0,0.8645511409433052,2.344045934030893
1648295620666279964,55463,0,3,2.04025626183,-0.879017233849,-0.747819662094,0.0,33.4000015259,0.6823599537892977,-0.29398569693946486,-0.2501069103993311,33.4000015259,0.0,1.008790267139631,2.3440458951041165
1648295620666288724,55464,0,4,2.24196004868,-1.2306240797,0.592911839485,0.0,33.4000015259,0.7498194142742475,-0.4115799597658863,0.19829827407525083,33.4000015259,0.0,1.137478075096852,2.6253313952368353
1648295620666329125,55465,0,5,0.735012888908,-0.0,0.149659857154,0.161837622523,33.4000015259,0.24582370866488293,-0.0,0.05005346393110367,33.4000015259,0.021869948989594594,0.34764722274673,0.750094673827404
1648295620666337464,55466,0,6,0.638171195984,0.032230630517,0.809594810009,0.242756426334,33.4000015259,0.21343518260334446,0.010779475089297658,0.2707674949862876,33.4000015259,0.03280492247756756,0.3020353479794158,1.031380165274028
1648295620666349707,55467,0,7,1.02608966827,1.66134238243,0.25305429101,0.323675245047,33.4000015259,0.34317380209698994,0.5556329038227424,0.0846335421438127,33.4000015259,0.04373989797932432,0.7377428011860916,1.9689984746533453
1648295620666352492,55468,0,8,0.263792783022,0.123062409461,-0.588253200054,-0.404594063759,33.4000015259,0.08822501104414715,0.041157996475250834,-0.1967402006869565,33.4000015259,-0.05467487348094594,0.1313822127281183,0.656332854861472
1648295620666358403,55469,0,9,0.536770939827,0.369187235832,0.0796903893352,-0.404594063759,33.4000015259,0.17952205345384614,0.12347399191705685,0.026652304125484947,33.4000015259,-0.05467487348094594,0.28231571339991796,0.6563328538907902
1648295620768048833,55470,1,0,0.0127460183576,0.0439508594573,0.0101823974401,0.0,46.0999984741,0.0042628823938461536,0.014699284099431437,0.00340548409367893,46.0999984741,0.0,0.015887519807802754,0.04688091561217387
1648295620768054016,55471,1,1,0.033464897424,0.0146502861753,-0.029381794855,0.0,46.0999984741,0.011192273385953177,0.0048997612626421405,-0.009826687242474916,46.0999984741,0.0,0.016569297737765474,0.04688091417110307
1648295620768057312,55472,1,2,0.363844066858,-0.0,1.06468868256,0.0,46.0999984741,0.12168697888227424,-0.0,0.3560831714247491,46.0999984741,0.0,0.17209137589952064,1.1251419891547543
1648295620768063566,55473,1,3,1.39098250866,-1.68478298187,0.849249839783,0.0,46.0999984741,0.4652115413578595,-0.5634725691872909,0.2840300467501672,46.0999984741,0.0,0.8662245047628457,2.344045930814558
1648295620768070722,55474,1,4,2.04052448273,-0.879017233849,-0.747087299824,0.0,46.0999984741,0.6824496597759196,-0.29398569693946486,-0.24986197318528428,46.0999984741,0.0,1.0089116246042167,2.3440458390531522
1648295620768078448,55475,1,5,2.24252605438,-1.2306240797,0.590767264366,0.0,46.0999984741,0.7500087138394648,-0.4115799597658863,0.1975810248715719,46.0999984741,0.0,1.1377276497260427,2.625331348755256
1648295620768082232,55476,1,6,0.827711343765,0.0527410283685,0.155582651496,0.323675245047,46.0999984741,0.27682653637625415,0.017639139922575247,0.05203433160401338,46.0999984741,0.04373989797932432,0.3918890171226483,0.8438564132108938
1648295620768085348,55477,1,7,0.662829637527,0.046880915761,0.347995817661,0.404594063759,46.0999984741,0.22168215301906352,0.015679236040468225,0.11638656109063544,46.0999984741,0.05467487348094594,0.3138977419115144,0.7500946858606
1648295620768103151,55478,1,8,0.616441845894,1.84593605995,0.299122422934,0.485512852669,46.0999984741,0.20616784143612038,0.6173699197157191,0.1000409441250836,46.0999984741,0.06560984495527027,0.6827561610521372,1.9689984029183059
1648295620768145864,55479,1,9,0.406349390745,0.257845044136,-0.575359106064,-0.404594063759,46.0999984741,0.13590280626923076,0.08623580071438126,-0.1924277946702341,46.0999984741,-0.05467487348094594,0.21065554544932974,0.7500946574100456
1648295620768170994,55480,1,10,0.498169571161,0.5391305089,0.154296383262,-0.404594063759,46.0999984741,0.16661189670936455,0.18031120698996655,0.05160414155919732,46.0999984741,-0.05467487348094594,0.29670048806222493,0.7500946614563003
1648295620866389593,55481,2,0,0.0127574298531,0.0439508594573,0.0101680960506,0.0,42.0,0.004266698947525083,0.014699284099431437,0.0034007010202675584,42.0,0.0,0.015889568680534445,0.04688091552845711
1648295620866411023,55482,2,1,0.033464897424,0.0146502861753,-0.029381794855,0.0,42.0,0.011192273385953177,0.0048997612626421405,-0.009826687242474916,42.0,0.0,0.016569297737765474,0.04688091417110307
1648295620866418136,55483,2,2,0.972190260887,-0.183128580451,0.628448724747,0.0,42.0,0.3251472444438127,-0.061247016873244145,0.21018351998227422,42.0,0.0,0.4638886269512117,1.1720229434519027
1648295620866456165,55484,2,3,2.24230837822,-1.2306240797,0.59159296751,0.0,42.0,0.7499359124481605,-0.4115799597658863,0.19785717976923076,42.0,0.0,1.1376316665950357,2.6253313558064186
1648295620866487282,55485,2,4,0.745036661625,0.134782627225,0.767724454403,0.323675245047,42.0,0.24917614101170568,0.04507780174749164,0.25676403157290967,42.0,0.04373989797932432,0.35525977355923233,1.078261017405054
1648295620866493111,55486,2,5,0.666527330875,-1.26578474045,2.0886297226,0.485512852669,42.0,0.22291883975752508,-0.42333937807692307,0.6985383687625417,42.0,0.06560984495527027,0.5278274786975743,2.5315694361576533
1648295620866530438,55487,2,6,2.48001670837,0.237334638834,0.449480682611,0.485512852669,42.0,0.8294370262107023,0.07937613338929765,0.1503279874953177,42.0,0.06560984495527027,1.1756836868181602,2.53156937266694
1648295620866535611,55488,2,7,0.796465694904,0.131852567196,0.245664447546,0.566431701183,42.0,0.26637648658996654,0.04409784856053511,0.08216202259063544,42.0,0.07654482448418919,0.37928549334728995,0.8438564590160869
1648295620866542272,55489,2,8,1.35644626617,-1.54707026482,0.146993234754,-0.566431701183,42.0,0.45366095858528427,-0.5174148042876254,0.049161616974581934,42.0,-0.07654482448418919,0.8242175746640202,2.0627602595454966
1648295620968069411,55490,3,0,0.0127781834453,0.0439508594573,0.0101420022547,0.0,25.5,0.004273639948260869,0.014699284099431437,0.0033919739982274243,25.5,0.0,0.015893298897665654,0.046880915402020634
1648295620968075015,55491,3,1,0.033464897424,0.0146502861753,-0.029381794855,0.0,25.5,0.011192273385953177,0.0048997612626421405,-0.009826687242474916,25.5,0.0,0.016569297737765474,0.04688091417110307
1648295620968094782,55492,3,2,2.24375700951,-1.2306240797,0.58607506752,0.0,25.5,0.7504204045183945,-0.4115799597658863,0.19601172826755853,25.5,0.0,1.1382704556984646,2.6253314320350682
1648295620968100134,55493,3,3,0.738073945045,0.473204255104,0.157282441854,0.0809188112617,25.5,0.24684747325919731,0.15826229267692307,0.0526028233625418,25.5,0.010934974494824324,0.3832940169011986,0.890737437137554
1648295620968117833,55494,3,4,1.14916718006,-0.0,0.530684351921,0.242756426334,25.5,0.38433684951839464,-0.0,0.17748640532474916,25.5,0.03280492247756756,0.543534385108661,1.265784772029141
1648295620968271196,55495,3,5,1.87520587444,-0.0,-2.03327703476,0.323675245047,25.5,0.6271591553311037,-0.0,-0.6800257641337792,25.5,0.04373989797932432,0.8869369832357014,2.7659740728388442
1648295620968274779,55496,3,6,1.09719896317,-1.0372402668,-2.3175201416,0.323675245047,25.5,0.3669561749732442,-0.34690309926421403,-0.775090348361204,25.5,0.04373989797932432,0.624223861271824,2.7659740675889104
1648295620968277683,55497,3,7,0.842349886894,0.194848805666,0.214228361845,0.485512852669,25.5,0.2817223701986622,0.06516682463745818,0.0716482815535117,25.5,0.06560984495527027,0.40370992404699857,0.8907374360823697
1648295620968281609,55498,3,8,2.4565141201,0.725189208984,0.296724706888,0.485512852669,25.5,0.8215766287959866,0.24253819698461535,0.09923903240401337,25.5,0.06560984495527027,1.1869292695708977,2.5784504189057595
1648295620968340753,55499,3,9,1.28669881821,-0.241729736328,-2.22134637833,0.485512852669,25.5,0.4303340529130435,-0.08084606566153846,-0.7429252101438126,25.5,0.06560984495527027,0.613930680554476,2.578450473972308
1648295620968343168,55500,3,10,1.02806985378,-0.24612480402,0.385278373957,0.566431701183,25.5,0.34383607149832773,-0.08231598796655518,0.1288556434638796,25.5,0.07654482448418919,0.4931758408536618,1.1251419771940179
1648295620968345144,55501,3,11,1.48218989372,-1.38445210457,0.58051019907,-0.647350490093,25.5,0.4957156835183946,-0.463027459722408,0.1941505682508361,25.5,-0.08747979595851352,0.8401562391776928,2.1096413444276014
1648295621066346317,55502,4,0,0.0127460183576,0.0439508594573,0.0101823974401,0.0,23.7999992371,0.0042628823938461536,0.014699284099431437,0.00340548409367893,23.7999992371,0.0,0.015887519807802754,0.04688091561217387
1648295621066356611,55503,4,1,0.033464897424,0.0146502861753,-0.029381794855,0.0,23.7999992371,0.011192273385953177,0.0048997612626421405,-0.009826687242474916,23.7999992371,0.0,0.016569297737765474,0.04688091417110307
1648295621066447455,55504,4,2,1.86934220791,-0.117202289402,0.0912989750504,0.0,23.7999992371,0.6251980628461538,-0.03919809010100334,0.030534774264347822,23.7999992371,0.0,0.8850320479173241,1.8752365636794088
1648295621066454950,55505,4,3,2.24165296555,-1.2306240797,0.594071984291,0.0,23.7999992371,0.7497167108862877,-0.4115799597658863,0.1986862823715719,23.7999992371,0.0,1.1373426732718663,2.625331439269341
1648295621066462639,55506,4,4,1.29730498791,0.0424858294427,0.40442726016,0.161837622523,23.7999992371,0.43388126685953177,0.01420930750591973,0.13525995323076923,23.7999992371,0.021869948989594594,0.6137652742564231,1.3595465001683922
1648295621066465775,55507,4,5,0.87042349577,0.41899818182,0.36131504178,0.242756426334,23.7999992371,0.29111153704682274,0.14013317117725752,0.12084115109698997,23.7999992371,0.03280492247756756,0.4348898247461325,1.0313801907024471
1648295621066471052,55508,4,6,0.822125017643,0.278355449438,0.200104668736,0.323675245047,23.7999992371,0.274958199880602,0.09309546803946488,0.06692463837324414,23.7999992371,0.04373989797932432,0.3998384542945428,0.8907374356769105
1648295621066495735,55509,4,7,1.016248703,-1.81956541538,0.554082632065,0.485512852669,23.7999992371,0.3398825093645485,-0.6085503061471572,0.1853119170785953,23.7999992371,0.06560984495527027,0.775482891787874,2.1565220356750943
1648295621066525991,55510,4,8,0.714612782001,0.448298752308,0.0212247502059,-0.323675245047,23.7999992371,0.23900093043511703,0.14993269307959864,0.0070985786641806015,23.7999992371,-0.04373989797932432,0.3697603304193196,0.843856438940547
1648295621166334247,55511,5,0,0.0127460183576,0.0439508594573,0.0101823974401,0.0,45.4000015259,0.0042628823938461536,0.014699284099431437,0.00340548409367893,45.4000015259,0.0,0.015887519807802754,0.04688091561217387
1648295621166343995,55512,5,1,0.033464897424,0.0146502861753,-0.029381794855,0.0,45.4000015259,0.011192273385953177,0.0048997612626421405,-0.009826687242474916,45.4000015259,0.0,0.016569297737765474,0.04688091417110307
1648295621166349464,55513,5,2,1.72621035576,-0.111342176795,0.425973445177,0.0,45.4000015259,0.5773278781806019,-0.037238186219063545,0.14246603517625417,45.4000015259,0.0,0.8173136731769006,1.7814748520993715
1648295621166357784,55514,5,3,0.95612770319,1.50311934948,-0.0102331815287,0.0,45.4000015259,0.31977515156856184,0.5027155014983277,-0.0034224687386956516,45.4000015259,0.0,0.6761916670353965,1.7814748613417934
1648295621166379916,55515,5,4,2.19647264481,-1.31266570091,0.587181150913,0.0,45.4000015259,0.734606235722408,-0.4390186290668896,0.1963816558237458,45.4000015259,0.0,1.127843074098637,2.6253314125518883
1648295621166579425,55516,5,5,0.853627443314,0.293005734682,0.254157185555,0.242756426334,45.4000015259,0.28549412819866216,0.09799522899063544,0.08500240319565217,45.4000015259,0.03280492247756756,0.41547185148545906,0.9376182845404485
1648295621166588013,55517,5,6,0.676976621151,0.082041606307,-1.12163412571,0.242756426334,45.4000015259,0.22641358566923075,0.027438664316722407,-0.3751284701371237,45.4000015259,0.03280492247756756,0.32137066426586286,1.3126657162841169
1648295621166592264,55518,5,7,1.18355762959,0.533270418644,0.194692984223,0.242756426334,45.4000015259,0.39583867210367896,0.1783513105832776,0.06511471044247491,45.4000015259,0.03280492247756756,0.5875250621483142,1.3126657457506479
1648295621166597510,55519,5,8,1.16272962093,-1.05482065678,-2.33400225639,0.242756426334,45.4000015259,0.38887278291973243,-0.352782828354515,-0.7806027613344481,45.4000015259,0.03280492247756756,0.6533757009357525,2.8128550126502114
1648295621166604237,55520,5,9,1.66267776489,0.351606875658,-2.24143457413,0.242756426334,45.4000015259,0.5560795200301003,0.11759427279531771,-0.7496436702775919,45.4000015259,0.03280492247756756,0.7951586496970734,2.8128550789144686
1648295621166613649,55521,5,10,0.730799257755,0.421928226948,0.00163347017951,-0.323675245047,45.4000015259,0.2444144674765886,0.14111311938060198,0.0005463110968260869,45.4000015259,-0.04373989797932432,0.37334940241689524,0.8438564167295104
1648295621266238301,55522,6,0,0.0127781834453,0.0439508594573,0.0101420022547,0.0,35.0999984741,0.004273639948260869,0.014699284099431437,0.0033919739982274243,35.0999984741,0.0,0.015893298897665654,0.046880915402020634
1648295621266351427,55523,6,1,0.0335146933794,0.0146502861753,-0.0293249841779,0.0,35.0999984741,0.011208927551638796,0.0048997612626421405,-0.009807687016020066,35.0999984741,0.0,0.016591798400012674,0.04688091567330431
1648295621266354840,55524,6,2,0.691551029682,0.373582303524,0.131770476699,0.0,35.0999984741,0.231287969793311,0.12494391422207357,0.044070393544816046,35.0999984741,0.0,0.3501417307939115,0.7969755471092036
1648295621266357736,55525,6,3,1.75578141212,-0.111342176795,0.280155777931,0.0,35.0999984741,0.5872178635852843,-0.037238186219063545,0.09369758459230769,35.0999984741,0.0,0.8312859442696098,1.7814748685815567
1648295621266359895,55526,6,4,2.19784832001,-1.31266570091,0.582011163235,0.0,35.0999984741,0.7350663277625417,-0.4390186290668896,0.19465256295484948,35.0999984741,0.0,1.1284424527145316,2.62533149797249
1648295621266362190,55527,6,5,0.817125856876,0.515690088272,0.360713332891,0.242756426334,35.0999984741,0.27328623975785954,0.17247160142876253,0.12063991066588628,35.0999984741,0.03280492247756756,0.4232223895086158,1.031380163490967
1648295621266366286,55528,6,6,1.03668832779,0.41899818182,0.485226005316,0.242756426334,35.0999984741,0.346718504277592,0.14013317117725752,0.16228294492173911,35.0999984741,0.03280492247756756,0.5099654381241691,1.2189037868426758
1648295621266373009,55529,6,7,0.903553247452,0.36918720603,0.128573045135,0.323675245047,35.0999984741,0.30219172155585283,0.12347398194983276,0.04300101843979933,35.0999984741,0.04373989797932432,0.4448432278593525,0.9844992087414696
1648295621266439554,55530,6,8,1.56070148945,-0.879017174244,-2.16879987717,0.323675245047,35.0999984741,0.5219737422909698,-0.29398567700468226,-0.7253511294882943,35.0999984741,0.04373989797932432,0.7945695397926986,2.8128549978624853
1648295621266446182,55531,6,9,1.97247052193,0.527410328388,-1.9347743988,0.323675245047,35.0999984741,0.6596891377692308,0.1763914141765886,-0.6470817387290969,35.0999984741,0.04373989797932432,0.949470087984155,2.8128550600102105
1648295621266455622,55532,6,10,0.714113295078,0.676843225956,0.0341201424599,-0.566431701183,35.0999984741,0.23883387795250835,0.22636897189163876,0.011411418882909698,35.0999984741,-0.07654482448418919,0.4066031897943557,0.9844992304980067
1648295621366235842,55533,7,0,0.0127668203786,0.0439508594573,0.0101563036442,0.0,36.7000007629,0.004269839591505016,0.014699284099431437,0.003396757071638796,36.7000007629,0.0,0.015891255875800543,0.046880915662217644
1648295621366275370,55534,7,1,0.033464897424,0.0146502861753,-0.029381794855,0.0,36.7000007629,0.011192273385953177,0.0048997612626421405,-0.009826687242474916,36.7000007629,0.0,0.016569297737765474,0.04688091417110307
1648295621366279154,55535,7,2,0.473037213087,1.27457487583,0.00784178450704,0.0,36.7000007629,0.15820642578160532,0.4262792226856187,0.002622670403692307,36.7000007629,0.0,0.4814275875047425,1.3595465467009324
1648295621366298322,55536,7,3,1.74180924892,-0.111342176795,0.356870144606,0.0,36.7000007629,0.5825448993043478,-0.037238186219063545,0.11935456341337791,36.7000007629,0.0,0.8246840618830409,1.7814749058204025
1648295621366342035,55537,7,4,2.19819355011,-1.31266570091,0.580705940723,0.0,36.7000007629,0.7351817893344481,-0.4390186290668896,0.19421603368662205,36.7000007629,0.0,1.1285928776160927,2.625331505863923
1648295621366365669,55538,7,5,0.683317005634,0.398487776518,0.0972388833761,0.242756426334,36.7000007629,0.2285341155966555,0.1332735038521739,0.03252136567762542,36.7000007629,0.03280492247756756,0.3495962110952097,0.7969755571302712
1648295621366371769,55539,7,6,0.727129518986,0.395557701588,0.164044141769,0.323675245047,36.7000007629,0.24318713009565215,0.13229354568160534,0.05486426146120401,36.7000007629,0.04373989797932432,0.36848547151459077,0.8438564529083846
1648295621366381220,55540,7,7,0.869069457054,0.399952799082,0.232367813587,0.323675245047,36.7000007629,0.29065868128896316,0.13376347795384613,0.07771498782173913,36.7000007629,0.04373989797932432,0.43227029281641277,0.9844992450321451
1648295621366387709,55541,7,8,0.583661973476,0.922968029976,-1.63842105865,0.323675245047,36.7000007629,0.19520467340334446,0.30868495985819394,-0.5479669092474916,36.7000007629,0.04373989797932432,0.414120916496218,1.968998438056126
1648295621366394464,55542,7,9,0.913410842419,0.572826147079,-0.0140577666461,0.566431701183,36.7000007629,0.3054885760598662,0.19158065119698997,-0.004701594196020066,36.7000007629,0.07654482448418919,0.47259886385732247,1.0782609993081618
1648295621366407563,55543,7,10,1.45090043545,-1.72287368774,0.45117726922,0.566431701183,36.7000007629,0.4852509817558528,-0.5762119356989966,0.15089540776588628,36.7000007629,0.07654482448418919,0.8960788053692725,2.297164936559115
1648295621466169169,55544,8,0,0.0127574298531,0.0439508594573,0.0101680960506,0.0,23.0,0.004266698947525083,0.014699284099431437,0.0034007010202675584,23.0,0.0,0.015889568680534445,0.04688091552845711
1648295621466177455,55545,8,1,0.033464897424,0.0146502861753,-0.029381794855,0.0,23.0,0.011192273385953177,0.0048997612626421405,-0.009826687242474916,23.0,0.0,0.016569297737765474,0.04688091417110307
1648295621466186698,55546,8,2,0.473082154989,1.27457487583,0.00435613282025,0.0,23.0,0.1582214565180602,0.4262792226856187,0.001456900608779264,23.0,0.0,0.4814374666546509,1.3595465476986228
1648295621466195745,55547,8,3,1.75033605099,-0.167013257742,0.286501020193,0.0,23.0,0.5853966725719063,-0.05585727683678929,0.09581973919498327,23.0,0.0,0.8297581357794216,1.781474825594932
1648295621466269924,55548,8,4,2.19769072533,-1.31266570091,0.582605540752,0.0,23.0,0.7350136205117057,-0.4390186290668896,0.19485135142207358,23.0,0.0,1.1283737861822307,2.625331404349168
1648295621466277364,55549,8,5,0.740876555443,0.5391305089,0.568407416344,0.242756426334,23.0,0.247784801151505,0.18031120698996655,0.19010281483076924,23.0,0.03280492247756756,0.3940897698869641,1.078260992054669
1648295621466283744,55550,8,6,0.851237535477,0.483459472656,0.324663877487,0.485512852669,23.0,0.2846948279187291,0.16169213132307692,0.10858323661772575,23.0,0.06560984495527027,0.4338739856446208,1.0313801611678732
1648295621466289399,55551,8,7,0.615622580051,0.720794081688,-1.67212462425,0.485512852669,23.0,0.2058938394819398,0.24106825474515048,-0.5592390047658863,23.0,0.06560984495527027,0.378019112901851,1.9221175896100378
1648295621466301892,55552,8,8,1.17713880539,-0.0600661747158,-1.51831221581,0.485512852669,23.0,0.39369190815719063,-0.020089021644080267,-0.5077967276956521,23.0,0.06560984495527027,0.5571267413143225,1.9221175034783533
1648295621466398805,55553,8,9,2.15852618217,0.879017233849,0.250289052725,-0.647350490093,23.0,0.7219151110936455,0.29398569693946486,0.08370871328595318,23.0,-0.08747979595851352,1.0624266775903568,2.344045901093006
1648295621466413063,55554,8,10,2.08100557327,1.69943320751,0.418102532625,-0.647350490093,23.0,0.6959884860434783,0.5683723102040134,0.139833622951505,23.0,-0.08747979595851352,1.1365944872366895,2.719093075007909
1648295621568167535,55555,9,0,0.0126773277298,0.0439508594573,0.0102677913383,0.0,11.5,0.004239908939732441,0.014699284099431437,0.003434043925852842,11.5,0.0,0.015875219956594112,0.04688091535338192
1648295621568171221,55556,9,1,0.033464897424,0.0146502861753,-0.029381794855,0.0,11.5,0.011192273385953177,0.0048997612626421405,-0.009826687242474916,11.5,0.0,0.016569297737765474,0.04688091417110307
1648295621568173327,55557,9,2,0.472981780767,1.27457487583,0.0106736440212,0.0,11.5,0.15818788654414714,0.4262792226856187,0.0035697806090969897,11.5,0.0,0.4814154033597837,1.3595465441503918
1648295621568177795,55558,9,3,2.2031853199,-1.31266570091,0.561469912529,0.0,11.5,0.7368512775585284,-0.4390186290668896,0.18778257944113713,11.5,0.0,1.1307683083404143,2.6253314569485755
1648295621568182902,55559,9,4,1.11479997635,0.593336582184,0.0859286040068,0.323675245047,11.5,0.3728428014548495,0.19844032848963208,0.028738663547424746,11.5,0.04373989797932432,0.5633844807628923,1.2657847415790366
1648295621568324240,55560,9,5,0.880554199219,0.572826147079,0.243189752102,0.485512852669,11.5,0.29449973218026754,0.19158065119698997,0.08133436525150502,11.5,0.06560984495527027,0.45843574295811773,1.0782609832814218
1648295621568341557,55561,9,6,0.293184131384,0.843856453896,-1.20520424843,0.485512852669,11.5,0.09805489343946489,0.28222623876120395,-0.40307834395652176,11.5,0.06560984495527027,0.3144537710064005,1.5001892980924254
1648295621568343762,55562,9,7,1.2560955286,1.14272224903,1.74908995628,0.566431701183,11.5,0.42009883899665545,0.3821813541906354,0.5849799184882942,11.5,0.07654482448418919,0.7064196037368043,2.437807578656828
1648295621568345540,55563,9,8,0.12468919158,0.46880915761,-0.802370667458,-0.566431701183,11.5,0.0417020707625418,0.15679236040468228,-0.2683513937986622,11.5,-0.07654482448418919,0.1675170728404716,0.9376183172020842
1648295621568346736,55564,9,9,0.444470137358,0.820416033268,0.0921516567469,-0.566431701183,11.5,0.14865221985217392,0.27438663319999995,0.030819952089264212,11.5,-0.07654482448418919,0.3456631154936688,0.9376183117278789
1648295621763097752,55565,11,0,0.0127781834453,0.0439508594573,0.0101420022547,0.0,36.7999992371,0.004273639948260869,0.014699284099431437,0.0033919739982274243,36.7999992371,0.0,0.015893298897665654,0.046880915402020634
1648295621763272283,55566,11,1,0.0335014909506,0.0146502861753,-0.0293400622904,0.0,36.7999992371,0.011204512023612041,0.0048997612626421405,-0.009812729863010032,36.7999992371,0.0,0.01658583250263375,0.04688091334579428
1648295621763275731,55567,11,2,1.74233949184,-0.111342176795,0.354272335768,0.0,36.7999992371,0.5827222380735785,-0.037238186219063545,0.11848573102608695,36.7999992371,0.0,0.8249346010465595,1.7814749150771763
1648295621763277641,55568,11,3,0.860010027885,1.55879044533,-0.0648670643568,0.0,36.7999992371,0.287628771867893,0.5213345971003345,-0.021694670353444814,36.7999992371,0.0,0.6612491080872873,1.7814748487006848
1648295621763278724,55569,11,4,1.85826325417,-0.175803437829,0.180175259709,0.0,36.7999992371,0.6214927271471571,-0.05879713639765886,0.06025928418361204,36.7999992371,0.0,0.8808879174118499,1.8752365970090756
1648295621763279891,55570,11,5,2.20326113701,-1.31266570091,0.561172366142,0.0,36.7999992371,0.736876634451505,-0.4390186290668896,0.18768306559933107,36.7999992371,0.0,1.1308013554417615,2.6253314656868665
1648295621763283550,55571,11,6,0.88924318552,0.732514321804,0.215190753341,0.323675245047,36.7999992371,0.29740574766555183,0.24498806749297658,0.07197015161906353,36.7999992371,0.04373989797932432,0.4867437834250737,1.172022924249009
1648295621868101365,55572,12,0,0.0127460183576,0.0439508594573,0.0101823974401,0.0,39.7000007629,0.0042628823938461536,0.014699284099431437,0.00340548409367893,39.7000007629,0.0,0.015887519807802754,0.04688091561217387
1648295621868106336,55573,12,1,0.033464897424,0.0146502861753,-0.029381794855,0.0,39.7000007629,0.011192273385953177,0.0048997612626421405,-0.009826687242474916,39.7000007629,0.0,0.016569297737765474,0.04688091417110307
1648295621868112314,55574,12,2,1.18068265915,0.637287437916,0.219590395689,0.0,39.7000007629,0.39487714352842807,0.21313961134314377,0.07344160390936454,39.7000007629,0.0,0.597732725292708,1.359546528082767
1648295621868116019,55575,12,3,0.560880959034,1.23208904266,0.12544311583,0.0,39.7000007629,0.18758560502809365,0.4120699139331103,0.041954219341137126,39.7000007629,0.0,0.4900799244983953,1.3595465547596646
1648295621868118475,55576,12,4,1.75145125389,-0.111342176795,0.306062012911,0.0,39.7000007629,0.5857696501304347,-0.037238186219063545,0.10236187722775919,39.7000007629,0.0,0.829239922182205,1.781474819028727
1648295621868124210,55577,12,5,2.19549393654,-1.31266570091,0.590830266476,0.0,39.7000007629,0.734278908541806,-0.4390186290668896,0.19760209581137123,39.7000007629,0.0,1.1274166877097673,2.6253314593615693
1648295621868168528,55578,12,6,0.887988805771,0.732514321804,0.220309957862,0.242756426334,39.7000007629,0.29698622266588626,0.24498806749297658,0.07368226015451504,39.7000007629,0.03280492247756756,0.4862312064446769,1.172022964090609
1648295621868263257,55579,12,7,1.44547462463,-0.0673913136125,1.59895241261,0.323675245047,39.7000007629,0.4834363293076923,-0.02253890087374582,0.534766693180602,39.7000007629,0.04373989797932432,0.6840536316997283,2.1565220373070613
1648295621868267615,55580,12,8,0.773749291897,0.879017233849,-0.0477342568338,0.485512852669,39.7000007629,0.258779027390301,0.29398569693946486,-0.01596463439257525,39.7000007629,0.06560984495527027,0.4694259899484936,1.1720229619722182
1648295621868294969,55581,12,9,0.2273478508,-1.13539719582,0.181173950434,-0.647350490093,39.7000007629,0.07603607050167223,-0.37973150361872904,0.06059329445953177,39.7000007629,-0.08747979595851352,0.3946631258113828,1.1720229681431844
1648295621966291812,55582,13,0,0.0127460183576,0.0439508594573,0.0101823974401,0.0,32.5999984741,0.0042628823938461536,0.014699284099431437,0.00340548409367893,32.5999984741,0.0,0.015887519807802754,0.04688091561217387
1648295621966296587,55583,13,1,0.033464897424,0.0146502861753,-0.029381794855,0.0,32.5999984741,0.011192273385953177,0.0048997612626421405,-0.009826687242474916,32.5999984741,0.0,0.016569297737765474,0.04688091417110307
1648295621966298733,55584,13,2,0.4103474617,-0.0,1.04764473438,0.0,32.5999984741,0.1372399537458194,-0.0,0.3503828543076923,32.5999984741,0.0,0.19408660388679405,1.1251420038367486
1648295621966301061,55585,13,3,0.472752451897,1.27457487583,0.0181878842413,0.0,32.5999984741,0.15811118792541803,0.4262792226856187,0.006082904428528427,32.5999984741,0.0,0.4813650082710926,1.3595465398451279
1648295621966307932,55586,13,4,1.75704371929,-0.167013257742,0.241984501481,0.0,32.5999984741,0.587640039896321,-0.05585727683678929,0.08093127139832776,32.5999984741,0.0,0.8329235669341581,1.7814748268541545
1648295621966430008,55587,13,5,2.2011885643,-1.31266570091,0.569247186184,0.0,32.5999984741,0.7361834663210702,-0.4390186290668896,0.1903836743090301,32.5999984741,0.0,1.129898025857548,2.625331349930717
1648295621966452900,55588,13,6,0.925154149532,0.761814832687,0.222383394837,0.323675245047,32.5999984741,0.309416103522408,0.2547875694605351,0.0743757173367893,32.5999984741,0.04373989797932432,0.5063529952410531,1.2189037755284169
1648295622066237517,55589,14,0,0.0127460183576,0.0439508594573,0.0101823974401,0.0,36.2000007629,0.0042628823938461536,0.014699284099431437,0.00340548409367893,36.2000007629,0.0,0.015887519807802754,0.04688091561217387
1648295622066257326,55590,14,1,0.0334070585668,0.0146502861753,-0.0294475425035,0.0,36.2000007629,0.011172929286555182,0.0048997612626421405,-0.00984867642257525,36.2000007629,0.0,0.01654316650812696,0.046880915163840714
1648295622066261562,55591,14,2,0.4103474617,-0.0,1.04764473438,0.0,36.2000007629,0.1372399537458194,-0.0,0.3503828543076923,36.2000007629,0.0,0.19408660388679405,1.1251420038367486
1648295622066284635,55592,14,3,1.74458503723,-0.111342176795,0.343043297529,0.0,36.2000007629,0.5834732565986622,-0.037238186219063545,0.1147301998424749,36.2000007629,0.0,0.825995620354359,1.7814748767355153
1648295622066301360,55593,14,4,1.86485660076,-0.175803437829,0.0889676213264,0.0,36.2000007629,0.6236978597859532,-0.05879713639765886,0.02975505729979933,36.2000007629,0.0,0.8839995157531038,1.875236579153445
1648295622066303608,55594,14,5,2.199862957,-1.31266570091,0.574349045753,0.0,36.2000007629,0.7357401193979933,-0.4390186290668896,0.19208998185719064,36.2000007629,0.0,1.1293203280076554,2.625331426369575
1648295622066311400,55595,14,6,0.929855465889,0.902457654476,0.209833845496,0.323675245047,36.2000007629,0.31098845013010035,0.30182530250033446,0.07017854364414716,36.2000007629,0.04373989797932432,0.5334099225343134,1.3126657031710747
1648295622066405738,55596,14,7,1.19686627388,0.773535132408,0.602146983147,0.323675245047,36.2000007629,0.4002897237056856,0.2587074021431438,0.20138695088528427,36.2000007629,0.04373989797932432,0.6224092269017246,1.5470702853890932
1648295622066420445,55597,14,8,0.951216578484,0.79111546278,0.267459124327,0.404594063759,36.2000007629,0.3181326349444816,0.26458711129765883,0.08945121214949832,36.2000007629,0.05467487348094594,0.5219416502812142,1.2657847517718748
1648295622066425208,55598,14,9,0.889970302582,0.934688270092,0.427407979965,0.404594063759,36.2000007629,0.29764893062943143,0.31260477260602004,0.1429458126973244,36.2000007629,0.05467487348094594,0.5243200507950747,1.3595465725980975
1648295622168249053,55599,15,0,0.0126567855477,0.0439508594573,0.0102931028232,0.0,33.7000007629,0.004233038644715719,0.014699284099431437,0.00344250930541806,33.7000007629,0.0,0.01587155270826113,0.04688091544717074
1648295622168265329,55600,15,1,0.0333795510232,0.0146502861753,-0.0294787157327,0.0,33.7000007629,0.011163729439197323,0.0048997612626421405,-0.00985910225173913,33.7000007629,0.0,0.016530740165343186,0.046880912883367924
1648295622168267683,55601,15,2,0.366623967886,-0.0,1.06373465061,0.0,33.7000007629,0.12261671166755851,-0.0,0.35576409719397994,33.7000007629,0.0,0.17340621661385258,1.1251420091423365
1648295622168274479,55602,15,3,1.74202680588,-0.111342176795,0.355806589127,0.0,33.7000007629,0.5826176608294313,-0.037238186219063545,0.11899885923979932,33.7000007629,0.0,0.8247868572750188,1.781474895024938
1648295622168290852,55603,15,4,2.19826483727,-1.31266570091,0.580435574055,0.0,33.7000007629,0.7352056311939799,-0.4390186290668896,0.19412561005183945,33.7000007629,0.0,1.1286239395593414,2.6253314062707966
1648295622168298513,55604,15,5,0.675989627838,1.1075617075,0.198585912585,0.161837622523,33.7000007629,0.22608348757123745,0.3704219757525083,0.06641669317224079,33.7000007629,0.021869948989594594,0.48932599238660884,1.3126657143165164
1648295622168372352,55605,15,6,0.986953794956,0.934688270092,-0.0254356805235,0.242756426334,33.7000007629,0.3300848812561873,0.31260477260602004,-0.008506916563043478,33.7000007629,0.03280492247756756,0.561812959554943,1.3595465896648482
1648295622168375141,55606,15,7,0.956574559212,0.922968029976,0.459492564201,0.323675245047,33.7000007629,0.3199246017431438,0.30868495985819394,0.1536764428765886,33.7000007629,0.04373989797932432,0.5477133429483648,1.4064274912861383
1648295622168376695,55607,15,8,1.28174233437,0.747164607048,0.582719445229,0.323675245047,33.7000007629,0.42867636601003345,0.24988782844414714,0.1948894465648829,33.7000007629,0.04373989797932432,0.6557215722817634,1.5939511641168442
1648295622168378744,55608,15,9,0.933762013912,0.79111546278,0.323165327311,0.404594063759,33.7000007629,0.31229498793043475,0.26458711129765883,0.10808204926789297,33.7000007629,0.05467487348094594,0.5148423627070527,1.2657847379592762
