%time,field.header.seq,field.header.frame_id,field.point_id,field.x,field.y,field.z,field.velocity,field.intensity,normalized_x,normalized_y,normalized_z,normalized_intensity,normalized_velocity,normalized_range,range
1648295614166156985,55056,0,0,0.0126539859921,0.0439508594573,0.0102965449914,0.0,18.0,0.0042321023384949835,0.014699284099431437,0.0034436605322408025,18.0,0.0,0.015871053318629716,0.04688091559775176
1648295614166162223,55057,0,1,0.0334781743586,0.0146502861753,-0.0293666664511,0.0,18.0,0.011196713832307692,0.0048997612626421405,-0.00982162757561873,18.0,0.0,0.016575296730860337,0.04688091447330322
1648295614166167115,55058,0,2,0.603655159473,0.0380907431245,-0.0747074782848,0.0,18.0,0.20189135768327757,0.01273937897140468,-0.024985778690568557,18.0,0.0,0.2858015612115709,0.6094519370564209
1648295614166170255,55059,0,3,1.87061035633,-0.117202289402,0.0599414631724,0.0,18.0,0.6256221927525083,-0.03919809010100334,0.02004731209779264,18.0,0.0,0.8856312699969889,1.8752366412955375
1648295614166360839,55060,0,4,2.24013924599,-1.2306240797,0.599754393101,0.0,18.0,0.7492104501638795,-0.4115799597658863,0.20058675354548494,18.0,0.0,1.1366752660942416,2.625331369371506
1648295614166371942,55061,0,5,0.594033539295,0.114272229373,0.0741460472345,0.161837622523,18.0,0.1986734245133779,0.03821813691404682,0.024798009108528425,18.0,0.021869948989594594,0.2835540251961283,0.6094519050209956
1648295614166376630,55062,0,6,0.745627939701,0.174338400364,0.220941439271,0.242756426334,18.0,0.24937389287658862,0.058307157312374576,0.07389345795016722,18.0,0.03280492247756756,0.35745545385502037,0.7969755466081614
1648295614166382508,55063,0,7,0.758650958538,0.32230630517,0.4468729496,0.323675245047,18.0,0.25372941757123746,0.10779475089297658,0.14945583598662207,18.0,0.04373989797932432,0.374669111353148,0.9376182935113667
1648295614166390737,55064,0,8,0.381425529718,-0.703213751316,0.489012360573,0.323675245047,18.0,0.1275670667953177,-0.23518854559063543,0.16354928447257525,18.0,0.04373989797932432,0.2964124913672845,0.9376183144295741
1648295614166397787,55065,0,9,1.74659442902,-0.0,-2.14476585388,0.323675245047,18.0,0.584145293986622,-0.0,-0.7173129946086956,18.0,0.04373989797932432,0.8261061971522996,2.765974090163049
1648295614166417416,55066,0,10,1.36176085472,-1.1236770153,-2.1292181015,0.323675245047,18.0,0.4554384129498327,-0.37581171080267556,-0.712113077424749,18.0,0.04373989797932432,0.7457095533496662,2.765974038908631
1648295614166422992,55067,0,11,0.748019754887,0.334026515484,0.34972268343,0.404594063759,18.0,0.25017383106588625,0.11171455367357858,0.11696410817056856,18.0,0.05467487348094594,0.3710175642780973,0.8907374596664668
1648295614166431777,55068,0,12,0.61255967617,-1.26578474045,-2.10508990288,0.404594063759,18.0,0.20486945691304345,-0.42333937807692307,-0.7040434457792641,18.0,0.05467487348094594,0.512990465586103,2.5315694470491814
1648295614166446146,55069,0,13,1.2543438673,-2.13601183891,0.522416114807,0.404594063759,18.0,0.41951299909698997,-0.7143852304046823,0.17472110863110368,18.0,0.05467487348094594,0.9286164817851625,2.5315694164701155
1648295614166455964,55070,0,14,0.897141754627,0.41899818182,0.288655847311,0.566431701183,18.0,0.30004740957424747,0.14013317117725752,0.09654041716086957,18.0,0.07654482448418919,0.4468715717615375,1.031380144491113
1648295614268218402,55071,1,0,0.0126656908542,0.0439508594573,0.0102821430191,0.0,26.7000007629,0.004236017008093645,0.014699284099431437,0.0034388438190969895,26.7000007629,0.0,0.015873141882485495,0.046880915487165234
1648295614268230118,55072,1,1,0.0335279218853,0.0146502861753,-0.029309855774,0.0,26.7000007629,0.011213351801103678,0.0048997612626421405,-0.009802627349163878,26.7000007629,0.0,0.01659777628664511,0.04688091377583895
1648295614268258109,55073,1,2,0.3070512712,-0.0,1.08243429661,0.0,26.7000007629,0.10269273284280934,-0.0,0.36201815940133775,26.7000007629,0.0,0.14522945554345795,1.1251419864279892
1648295614268271930,55074,1,3,2.24561285973,-1.2306240797,0.578923225403,0.0,26.7000007629,0.7510410902107023,-0.4115799597658863,0.1936198078270903,26.7000007629,0.0,1.1390888910224035,2.625331377604213
1648295614268282173,55075,1,4,0.380729466677,0.780860245228,1.71459567547,0.242756426334,26.7000007629,0.12733426979163878,0.261157272651505,0.573443369722408,26.7000007629,0.03280492247756756,0.31722413777250974,1.9221175769744447
1648295614268291973,55076,1,5,1.91565418243,0.120132349432,0.101848341525,0.242756426334,26.7000007629,0.640687017535117,0.040178043288294316,0.034062990476588624,26.7000007629,0.03280492247756756,0.9069586451644654,1.9221175335324834
1648295614268297263,55077,1,6,0.823836803436,0.334026515484,-0.0559676662087,0.323675245047,26.7000007629,0.27553070349030095,0.11171455367357858,-0.018718283012943142,26.7000007629,0.04373989797932432,0.40535722348837844,0.8907374312348604
1648295614268299444,55078,1,7,0.764150500298,0.389697611332,0.240047797561,0.485512852669,26.7000007629,0.2555687291966555,0.13033364927491636,0.0802835443347826,26.7000007629,0.06560984495527027,0.3842103731287116,0.8907374251132806
1648295614268338272,55079,1,8,1.45873367786,-0.966918885708,-2.20211648941,0.485512852669,26.7000007629,0.487870795270903,-0.3233842427117057,-0.736493809167224,26.7000007629,0.06560984495527027,0.7619797859462875,2.8128549744686775
1648295614268347883,55080,1,9,1.97320151329,0.439508587122,-1.95587861538,0.485512852669,26.7000007629,0.6599336164849497,0.14699283850234113,-0.6541400051438127,26.7000007629,0.06560984495527027,0.9447918558628587,2.8128549852960267
1648295614268363494,55081,1,10,1.63311862946,-1.21304368973,0.715566575527,-0.647350490093,26.7000007629,0.5461935215585284,-0.4057002306789298,0.23931992492541804,26.7000007629,-0.08747979595851352,0.8724949301617461,2.1565219625810723
1648295614268379694,55082,1,11,2.2343313694,-1.31266570091,0.420758396387,-0.647350490093,26.7000007629,0.747268016521739,-0.4390186290668896,0.1407218717013378,26.7000007629,-0.08747979595851352,1.1443584812900367,2.625331510259339
1648295614268407583,55083,1,12,0.154437705874,0.164083212614,-0.616440176964,-0.566431701183,26.7000007629,0.05165140664682274,0.054877328633444813,-0.20616728326555184,26.7000007629,-0.07654482448418919,0.09136332313972598,0.6563328404344574
1648295614268519152,55084,1,13,0.525527596474,0.389697641134,0.0522429049015,-0.566431701183,26.7000007629,0.17576173795117056,0.13033365924214046,0.017472543445317724,26.7000007629,-0.07654482448418919,0.28066214526843175,0.6563328631675321
1648295614463131401,55085,3,0,0.0127345351502,0.0439508594573,0.0101967547089,0.0,36.0,0.00425904185625418,0.014699284099431437,0.003410285855819398,36.0,0.0,0.015885459644040773,0.04688091551069038
1648295614463307696,55086,3,1,0.0334781743586,0.0146502861753,-0.0293666664511,0.0,36.0,0.011196713832307692,0.0048997612626421405,-0.00982162757561873,36.0,0.0,0.016575296730860337,0.04688091447330322
1648295614463310720,55087,3,2,2.20087766647,-1.31266570091,0.570448637009,0.0,36.0,0.7360794871137123,-0.4390186290668896,0.19078549732742472,36.0,0.0,1.1297625322902785,2.625331482418439
1648295614463357605,55088,3,3,0.922002971172,0.404347896576,0.386083036661,0.323675245047,36.0,0.30836219771638795,0.13523341022608695,0.1291247614250836,36.0,0.04373989797932432,0.45657700906017884,1.078261012701846
1648295614463415775,55089,3,4,0.506434977055,0.395557701588,-0.546947360039,-0.485512852669,36.0,0.16937624650668895,0.13229354568160534,-0.18292553847458193,36.0,-0.06560984495527027,0.2736388276367232,0.8438564427222863
1648295614463418701,55090,3,5,0.361433446407,0.7120038867,0.272965252399,-0.485512852669,36.0,0.12088075130668895,0.2381283902006689,0.09129272655484949,36.0,-0.06560984495527027,0.2931372413947112,0.8438564450632572
1648295614463422176,55091,3,6,1.87406349182,-0.0586011447012,0.0310549270362,-0.0809188112617,36.0,0.6267770875652173,-0.019599045050568562,0.010386263222809364,36.0,-0.010934974494824324,0.8866133077956627,1.8752366448067526
1648295614568163416,55092,4,0,0.0127553893253,0.0439508594573,0.0101706553251,0.0,12.3999996185,0.004266016496755853,0.014699284099431437,0.0034015569649163877,12.3999996185,0.0,0.01588920219951222,0.04688091545199708
1648295614568165225,55093,4,1,0.0334781743586,0.0146502861753,-0.0293666664511,0.0,12.3999996185,0.011196713832307692,0.0048997612626421405,-0.00982162757561873,12.3999996185,0.0,0.016575296730860337,0.04688091447330322
1648295614568166194,55094,4,2,2.19548416138,-1.31266570091,0.590866923332,0.0,12.3999996185,0.734275639257525,-0.4390186290668896,0.19761435562943142,12.3999996185,0.0,1.1274124291854624,2.625331534550219
1648295614568167162,55095,4,3,1.14416325092,-0.0629962310195,-1.65852093697,0.323675245047,12.3999996185,0.38266329462207355,-0.021068973585117053,-0.5546892765785952,12.3999996185,0.04373989797932432,0.5415775990104928,2.0158794032000853
1648295614568169333,55096,4,4,0.996205627918,0.755954742432,1.58109974861,0.323675245047,12.3999996185,0.33317913977190633,0.2528276730541806,0.5287959025451505,12.3999996185,0.04373989797932432,0.5347321858840055,2.015879371578452
1648295614568170477,55097,4,5,0.793953835964,0.580151319504,0.311137884855,0.404594063759,12.3999996185,0.26553639998795986,0.19403054164013378,0.1040594932625418,12.3999996185,0.05467487348094594,0.42269020632881393,1.0313801581164075
1648295614568171427,55098,4,6,0.693897306919,0.615312039852,0.137933686376,0.485512852669,12.3999996185,0.2320726778993311,0.20578997988361203,0.04613166768428094,12.3999996185,0.06560984495527027,0.3873822033537819,0.9376183022816602
1648295614666102234,55099,5,0,0.0127553893253,0.0439508594573,0.0101706553251,0.0,31.7000007629,0.004266016496755853,0.014699284099431437,0.0034015569649163877,31.7000007629,0.0,0.01588920219951222,0.04688091545199708
1648295614666127682,55100,5,1,0.0334552824497,0.0146502861753,-0.0293927434832,0.0,31.7000007629,0.01118905767548495,0.0048997612626421405,-0.009830348991036788,31.7000007629,0.0,0.016564953479003372,0.046880914861770644
1648295614666132544,55101,5,2,0.472634643316,1.27457487583,0.0210278462619,0.0,31.7000007629,0.15807178706220734,0.4262792226856187,0.007032724502307693,31.7000007629,0.0,0.4813391272518108,1.359546538548025
1648295614666216828,55102,5,3,1.86455857754,-0.117202289402,0.161855340004,0.0,31.7000007629,0.6235981864682274,-0.03919809010100334,0.054132220737123746,31.7000007629,0.0,0.8827717069551394,1.8752365762236156
1648295614666219950,55103,5,4,2.20046043396,-1.31266570091,0.572055995464,0.0,31.7000007629,0.7359399444682274,-0.4390186290668896,0.19132307540602006,31.7000007629,0.0,1.1295807011433785,2.6253314887296195
1648295614666225974,55104,5,5,1.87423932552,-0.0,0.0611493885517,0.161837622523,31.7000007629,0.6268358948227425,-0.0,0.020451300518963208,31.7000007629,0.021869948989594594,0.8864798238405974,1.8752365976179943
1648295614666297077,55105,5,6,0.799327850342,0.612381994724,0.223177790642,0.404594063759,31.7000007629,0.2673337292113712,0.20481003168026754,0.07464140155250835,31.7000007629,0.05467487348094594,0.4299788304381853,1.0313801656180677
1648295614666307065,55106,5,7,0.958989322186,0.439508587122,-0.930166602135,-0.647350490093,31.7000007629,0.3207322147779264,0.14699283850234113,-0.3110925090752508,31.7000007629,-0.08747979595851352,0.4768073004513282,1.4064274691387793
1648295614666313143,55107,5,8,0.912623882294,1.01086974144,0.351138591766,-0.647350490093,31.7000007629,0.30522537869364547,0.33808352556521737,0.11743765610903009,31.7000007629,-0.08747979595851352,0.5482932918210522,1.4064274938011398
1648295614766177085,55108,6,0,0.0127668203786,0.0439508594573,0.0101563036442,0.0,16.8999996185,0.004269839591505016,0.014699284099431437,0.003396757071638796,16.8999996185,0.0,0.015891255875800543,0.046880915662217644
1648295614766197796,55109,6,1,0.0334781743586,0.0146502861753,-0.0293666664511,0.0,16.8999996185,0.011196713832307692,0.0048997612626421405,-0.00982162757561873,16.8999996185,0.0,0.016575296730860337,0.04688091447330322
1648295614766290492,55110,6,2,0.473040133715,1.27457487583,0.00766302086413,0.0,16.8999996185,0.15820740258026755,0.4262792226856187,0.0025628832321505013,16.8999996185,0.0,0.4814282294961991,1.3595465435544782
1648295614766293226,55111,6,3,2.20200181007,-1.31266570091,0.566093325615,0.0,16.8999996185,0.7364554548729096,-0.4390186290668896,0.1893288714431438,16.8999996185,0.0,1.1302524632540731,2.6253313823597484
1648295614766296107,55112,6,4,0.539374649525,0.673913180828,0.36612033844,0.404594063759,16.8999996185,0.1803928593729097,0.2253890236882943,0.12244827372575251,16.8999996185,0.05467487348094594,0.3404164793670119,0.9376183072355986
1648295614766297144,55113,6,5,0.775765895844,0.64461261034,0.215422466397,0.566431701183,16.8999996185,0.259453476870903,0.21558950178595315,0.0720476476244147,16.8999996185,0.07654482448418919,0.4255714353679249,1.0313801343794435
1648295614766299564,55114,6,6,0.42840385437,1.59981119633,-1.78884887695,0.566431701183,16.8999996185,0.14327888106020065,0.5350539118160534,-0.5982772163712374,16.8999996185,0.07654482448418919,0.5721366655488769,2.4378076279532754
1648295614766300577,55115,6,7,0.602572619915,0.5391305089,-0.713366210461,-0.647350490093,16.8999996185,0.20152930431939797,0.18031120698996655,-0.23858401687658862,16.8999996185,-0.08747979595851352,0.33725398791578376,1.078261015768208
1648295614766305117,55116,6,8,0.445630967617,0.943478405476,0.271860837936,-0.647350490093,16.8999996185,0.14904045739698996,0.3155446172160535,0.09092335716923076,16.8999996185,-0.08747979595851352,0.37946610037819406,1.0782609962815417
1648295614766307147,55117,6,9,0.732927680016,0.495179653168,-0.83865404129,-0.404594063759,16.8999996185,0.24512631438662205,0.16561192413645484,-0.2804863014347826,16.8999996185,-0.05467487348094594,0.3841889241320174,1.2189038001488328
1648295614766308189,55118,6,10,0.742877423763,0.914177834988,0.31327059865,-0.404594063759,16.8999996185,0.248453987880602,0.30574509531371236,0.10477277546822741,16.8999996185,-0.05467487348094594,0.4657669282977696,1.21890378976301
1648295614766405835,55119,6,11,1.81667149067,-0.171408340335,0.114929027855,-0.0809188112617,16.8999996185,0.6075824383511705,-0.05732720412541805,0.038437801958193976,16.8999996185,-0.010934974494824324,0.8611615685330746,1.8283557655974
1648295614866176835,55120,7,0,0.0127553893253,0.0439508594573,0.0101706553251,0.0,14.1999998093,0.004266016496755853,0.014699284099431437,0.0034015569649163877,14.1999998093,0.0,0.01588920219951222,0.04688091545199708
1648295614866199175,55121,7,1,0.0334781743586,0.0146502861753,-0.0293666664511,0.0,14.1999998093,0.011196713832307692,0.0048997612626421405,-0.00982162757561873,14.1999998093,0.0,0.016575296730860337,0.04688091447330322
1648295614866203738,55122,7,2,0.472759604454,1.27457487583,0.0180010162294,0.0,14.1999998093,0.15811358008494983,0.4262792226856187,0.006020406765685619,14.1999998093,0.0,0.4813665797581039,1.3595465399484687
1648295614866211674,55123,7,3,1.86695122719,-0.175803437829,-0.00993611011654,0.0,14.1999998093,0.6243984037424749,-0.05879713639765886,-0.00332311375135117,14.1999998093,0.0,0.8849880431061575,1.8752366409984076
1648295614866217053,55124,7,4,2.20101499557,-1.31266570091,0.569918453693,0.0,14.1999998093,0.7361254165785953,-0.4390186290668896,0.1906081784926421,14.1999998093,0.0,1.129822381852029,2.625331464202067
1648295614866230362,55125,7,5,0.490619599819,0.773535132408,0.474005073309,0.566431701183,14.1999998093,0.16408682268193978,0.2587074021431438,0.15853012485250834,14.1999998093,0.07654482448418919,0.3475319995041651,1.031380144427208
1648295614866237447,55126,7,6,0.57183778286,0.709073901176,0.483694911003,0.566431701183,14.1999998093,0.19125009460200668,0.23714846193177255,0.1617708732451505,14.1999998093,0.07654482448418919,0.359711815718025,1.0313801501703397
1648295614866259641,55127,7,7,0.738720238209,0.586011469364,-0.696075260639,-0.566431701183,14.1999998093,0.24706362481906352,0.19599045798127088,-0.23280109051471573,14.1999998093,-0.07654482448418919,0.4006159370733749,1.1720229524370962
1648295614866262153,55128,7,8,0.33991765976,1.02552008629,0.454315274954,-0.566431701183,14.1999998093,0.11368483604013377,0.342983306451505,0.15194490801137123,14.1999998093,-0.07654482448418919,0.37879550207909174,1.172022965584503
1648295614866269060,55129,7,9,0.449757218361,1.01965987682,0.15477950871,-0.404594063759,14.1999998093,0.15042047436822742,0.34102337017391304,0.05176572197658863,14.1999998093,-0.05467487348094594,0.4019323042790899,1.1251419982299615
1648295614968219743,55130,8,0,0.0127353817225,0.0439508594573,0.0101956976578,0.0,36.4000015259,0.004259324990802675,0.014699284099431437,0.003409932327023411,36.4000015259,0.0,0.01588561147045811,0.046880915577475576
1648295614968405281,55131,8,1,0.0334781743586,0.0146502861753,-0.0293666664511,0.0,36.4000015259,0.011196713832307692,0.0048997612626421405,-0.00982162757561873,36.4000015259,0.0,0.016575296730860337,0.04688091447330322
1648295614968421482,55132,8,2,0.451138198376,-0.0,1.03073704243,0.0,36.4000015259,0.15088234059397992,-0.0,0.34472810783612035,36.4000015259,0.0,0.213379852390603,1.1251420020029856
1648295614968507451,55133,8,3,0.574286580086,1.23208904266,0.0227686464787,0.0,36.4000015259,0.19206909032976585,0.4120699139331103,0.0076149319326755845,36.4000015259,0.0,0.49354096576581,1.3595465774927245
1648295614968511455,55134,8,4,2.2012014389,-1.31266570091,0.569197177887,0.0,36.4000015259,0.7361877722073579,-0.4390186290668896,0.19036694912608693,36.4000015259,0.0,1.1299036368483095,2.625331301812306
1648295614968512934,55135,8,5,0.564403831959,0.640217483044,-0.658951163292,-0.647350490093,36.4000015259,0.18876382339765885,0.21411955954648826,-0.22038500444548492,36.4000015259,-0.08747979595851352,0.34221447635625707,1.0782609826610057
1648295614968515872,55136,8,6,0.711039245129,0.609451889992,-0.78020387888,-0.485512852669,36.4000015259,0.2378057676016722,0.20383006354247488,-0.26093775213377923,36.4000015259,-0.06560984495527027,0.3932554653313421,1.218903813657106
1648295614968517701,55137,8,7,0.424944579601,1.06654083729,0.409437716007,-0.485512852669,36.4000015259,0.14212193297692308,0.35670262116722407,0.1369356909722408,36.4000015259,-0.06560984495527027,0.40943137106694966,1.218903809424088
1648295614968520515,55138,8,8,1.87248826027,-0.0,0.10148948431,-0.242756426334,36.4000015259,0.626250254270903,-0.0,0.03394297134113712,36.4000015259,-0.03280492247756756,0.8856516030295103,1.8752366251421395
1648295614968525660,55139,8,9,1.81392991543,-0.114272229373,0.198707163334,-0.0809188112617,36.4000015259,0.6066655235551839,-0.03821813691404682,0.06645724526220735,36.4000015259,-0.010934974494824324,0.8588054150563744,1.8283556593994528
1648295615163099527,55140,10,0,0.0127553893253,0.0439508594573,0.0101706553251,0.0,14.3999996185,0.004266016496755853,0.014699284099431437,0.0034015569649163877,14.3999996185,0.0,0.01588920219951222,0.04688091545199708
1648295615163109023,55141,10,1,0.0334781743586,0.0146502861753,-0.0293666664511,0.0,14.3999996185,0.011196713832307692,0.0048997612626421405,-0.00982162757561873,14.3999996185,0.0,0.016575296730860337,0.04688091447330322
1648295615163130162,55142,10,2,0.426844120026,-0.0,1.04103243351,0.0,14.3999996185,0.1427572307779264,-0.0,0.34817138244481605,14.3999996185,0.0,0.20188921189296935,1.1251419601190433
1648295615163187274,55143,10,3,0.60924488306,0.0703213736415,0.943302750587,0.0,14.3999996185,0.2037608304548495,0.023518854060702338,0.3154858697615384,14.3999996185,0.0,0.2891195056574849,1.1251419921017172
1648295615163192010,55144,10,4,2.19829893112,-1.31266570091,0.580306649208,0.0,14.3999996185,0.735217033819398,-0.4390186290668896,0.19408249137391304,14.3999996185,0.0,1.1286387953212307,2.6253314533642973
1648295615163212252,55145,10,5,0.985351026058,0.934688270092,0.0617093443871,0.566431701183,14.3999996185,0.3295488381464883,0.31260477260602004,0.020638576718093642,14.3999996185,0.07654482448418919,0.5611832297061826,1.3595465604332255
1648295615268109739,55146,11,0,0.0127553893253,0.0439508594573,0.0101706553251,0.0,39.7000007629,0.004266016496755853,0.014699284099431437,0.0034015569649163877,39.7000007629,0.0,0.01588920219951222,0.04688091545199708
1648295615268117230,55147,11,1,0.033464897424,0.0146502861753,-0.029381794855,0.0,39.7000007629,0.011192273385953177,0.0048997612626421405,-0.009826687242474916,39.7000007629,0.0,0.016569297737765474,0.04688091417110307
1648295615268124332,55148,11,2,0.451138198376,-0.0,1.03073704243,0.0,39.7000007629,0.15088234059397992,-0.0,0.34472810783612035,39.7000007629,0.0,0.213379852390603,1.1251420020029856
1648295615268203044,55149,11,3,1.82324659824,-0.114272229373,0.0748225152493,0.0,39.7000007629,0.6097814709832775,-0.03821813691404682,0.02502425259173913,39.7000007629,0.0,0.8632076868855144,1.8283557392334346
1648295615268206179,55150,11,4,2.19732642174,-1.31266570091,0.583977937698,0.0,39.7000007629,0.7348917798461538,-0.4390186290668896,0.19531034705618727,39.7000007629,0.0,1.1282150561123827,2.625331384366603
1648295615268208547,55151,11,5,0.930148541927,1.01086974144,0.301669418812,0.242756426334,39.7000007629,0.31108646887190633,0.33808352556521737,0.10089278221137123,39.7000007629,0.03280492247756756,0.554842367244058,1.4064275247783893
1648295615268214796,55152,11,6,1.87523293495,-0.0,0.0037093651481,0.404594063759,39.7000007629,0.6271682056688963,-0.0,0.001240590350535117,39.7000007629,0.05467487348094594,0.8869497823461517,1.8752366036612533
1648295615268224319,55153,11,7,0.679907143116,1.2306240797,-0.0364544801414,-0.566431701183,39.7000007629,0.22739369334983275,0.4115799597658863,-0.012192133826555183,39.7000007629,-0.07654482448418919,0.5223158496843113,1.4064274876153455
1648295615463076487,55154,13,0,0.0127553893253,0.0439508594573,0.0101706553251,0.0,31.7999992371,0.004266016496755853,0.014699284099431437,0.0034015569649163877,31.7999992371,0.0,0.01588920219951222,0.04688091545199708
1648295615463082037,55155,13,1,0.0335279218853,0.0146502861753,-0.029309855774,0.0,31.7999992371,0.011213351801103678,0.0048997612626421405,-0.009802627349163878,31.7999992371,0.0,0.01659777628664511,0.04688091377583895
1648295615463084978,55156,13,2,0.451138198376,-0.0,1.03073704243,0.0,31.7999992371,0.15088234059397992,-0.0,0.34472810783612035,31.7999992371,0.0,0.213379852390603,1.1251420020029856
1648295615463089357,55157,13,3,1.86175298691,-0.175803437829,-0.139575794339,0.0,31.7999992371,0.6226598618428093,-0.05879713639765886,-0.04668086767190635,31.7999992371,0.0,0.8825348210403812,1.8752366345040736
1648295615463191338,55158,13,4,2.19984197617,-1.31266570091,0.574429690838,0.0,31.7999992371,0.7357331023979933,-0.4390186290668896,0.19211695345752508,31.7999992371,0.0,1.1293111850132909,2.6253314899610896
1648295615463194624,55159,13,5,1.02143287659,0.999149501324,0.265481024981,0.323675245047,31.7999992371,0.34161634668561874,0.3341637128173913,0.0887896404618729,31.7999992371,0.04373989797932432,0.5874256068725313,1.4533083024602462
1648295615463220180,55160,13,6,1.04715168476,0.54499065876,-0.847681283951,-0.485512852669,31.7999992371,0.35021795476923073,0.18227112333110365,-0.28350544613745815,31.7999992371,-0.06560984495527027,0.5277575144759838,1.4533083045906607
1648295615463327755,55161,13,7,0.70341438055,1.13539719582,0.572875738144,-0.485512852669,31.7999992371,0.2352556456688963,0.37973150361872904,0.19159723683745816,31.7999992371,-0.06560984495527027,0.504862805600412,1.4533083617713387
1648295615568157364,55162,14,0,0.0127553893253,0.0439508594573,0.0101706553251,0.0,30.2999992371,0.004266016496755853,0.014699284099431437,0.0034015569649163877,30.2999992371,0.0,0.01588920219951222,0.04688091545199708
1648295615568165314,55163,14,1,0.0334781743586,0.0146502861753,-0.0293666664511,0.0,30.2999992371,0.011196713832307692,0.0048997612626421405,-0.00982162757561873,30.2999992371,0.0,0.016575296730860337,0.04688091447330322
1648295615568168484,55164,14,2,0.451138198376,-0.0,1.03073704243,0.0,30.2999992371,0.15088234059397992,-0.0,0.34472810783612035,30.2999992371,0.0,0.213379852390603,1.1251420020029856
1648295615568175327,55165,14,3,0.473085075617,1.27457487583,0.00402388814837,0.0,30.2999992371,0.1582224333167224,0.4262792226856187,0.0013457819894214047,30.2999992371,0.0,0.4814381086939261,1.3595465400435665
1648295615568179183,55166,14,4,2.19931507111,-1.31266570091,0.576443135738,0.0,30.2999992371,0.7355568799698996,-0.4390186290668896,0.1927903464006689,30.2999992371,0.0,1.129081575445228,2.6253313530098605
1648295615568202361,55167,14,5,1.15286493301,1.09584140778,0.103509247303,0.161837622523,30.2999992371,0.38557355619063544,0.3665021430702341,0.03461847735886287,30.2999992371,0.021869948989594594,0.6570066630880242,1.5939510999546498
1648295615568344449,55168,14,6,1.01801621914,1.03138017654,0.38789921999,0.404594063759,30.2999992371,0.3404736518862876,0.34494320285618724,0.1297321805986622,30.2999992371,0.05467487348094594,0.5923094026387346,1.500189286677062
1648295615568354038,55169,14,7,1.92187690735,-0.0,-0.0304190535098,-0.0809188112617,30.2999992371,0.642768196438127,-0.0,-0.010173596491571905,30.2999992371,-0.010934974494824324,0.9090115008648929,1.9221176253865506
1648295615763108677,55170,16,0,0.0126453237608,0.0439508594573,0.0103071806952,0.0,14.3000001907,0.004229205271170568,0.014699284099431437,0.003447217623812709,14.3000001907,0.0,0.015869508734903916,0.04688091545537793
1648295615763117682,55171,16,1,0.033464897424,0.0146502861753,-0.029381794855,0.0,14.3000001907,0.011192273385953177,0.0048997612626421405,-0.009826687242474916,14.3000001907,0.0,0.016569297737765474,0.04688091417110307
1648295615763121650,55172,16,2,0.59463095665,0.0703213736415,0.952582538128,0.0,14.3000001907,0.19887322964882942,0.023518854060702338,0.31858947763478257,14.3000001907,0.0,0.2822308619521272,1.1251420186552914
1648295615763197290,55173,16,3,0.472233176231,1.27457487583,0.0286621823907,0.0,14.3000001907,0.1579375171341137,0.4262792226856187,0.009586014177491638,14.3000001907,0.0,0.48125096813454016,1.3595465448191453
1648295615763201568,55174,16,4,1.08920419216,0.98449921608,0.308161407709,0.0,14.3000001907,0.36428233851505015,0.3292639518662207,0.10306401595618729,14.3000001907,0.0,0.6114065703822196,1.5001892986827514
1648295615763208229,55175,16,5,2.1998257637,-1.31266570091,0.574491679668,0.0,14.3000001907,0.735727680167224,-0.4390186290668896,0.19213768550769228,14.3000001907,0.0,1.1293041199766614,2.6253314691656726
1648295615763233824,55176,16,6,1.07636404037,0.846786499023,0.815520167351,0.242756426334,14.3000001907,0.359987973367893,0.283206186964214,0.27274921984983275,14.3000001907,0.03280492247756756,0.5825705333037837,1.5939510863528603
1648295615763340795,55177,16,7,1.10787117481,1.14565241337,0.0279685072601,-0.161837622523,14.3000001907,0.3705254765250836,0.383161342264214,0.00935401580605351,14.3000001907,-0.021869948989594594,0.6491462637295194,1.5939511377811282
