%time,field.header.seq,field.header.frame_id,field.point_id,field.x,field.y,field.z,field.velocity,field.intensity,normalized_x,normalized_y,normalized_z,normalized_intensity,normalized_velocity,normalized_range,range
1648127653589936223,121696,0,0,0.0126620735973,0.0439508594573,0.010286597535,0.0,34.4000015259,0.004234807223177257,0.014699284099431437,0.003440333623745819,34.4000015259,0.0,0.015872496258331467,0.04688091555916807
1648127653589942706,121697,0,1,0.0329111367464,0.0146502861753,-0.0300007723272,0.0,34.4000015259,0.011007069145953176,0.0048997612626421405,-0.010033703119464882,34.4000015259,0.0,0.016319277030508346,0.04688091453018932
1648127653589952898,121698,0,2,2.4126060009,-0.902457654476,0.507215857506,0.0,34.4000015259,0.8068916390969899,-0.30182530250033446,0.16963741053712372,34.4000015259,0.0,1.1803587368756467,2.6253314952223765
1648127653590043849,121699,0,3,1.09341049194,-0.632892370224,0.0781777799129,0.0809188112617,34.4000015259,0.3656891277391304,-0.21166968903812708,0.026146414686588626,34.4000015259,0.010934974494824324,0.5588033048852785,1.2657847453040092
1648127653590053572,121700,0,4,1.10018002987,-0.615312039852,0.366177976131,0.242756426334,34.4000015259,0.3679531872474916,-0.20578997988361203,0.12246755054548494,34.4000015259,0.03280492247756756,0.5595789594254529,1.3126657284758287
1648127653590059661,121701,0,5,0.913447439671,-0.732514321804,0.0517139285803,-0.404594063759,34.4000015259,0.3055008159434782,-0.24498806749297658,0.017295628287725753,34.4000015259,-0.05467487348094594,0.49666955845733607,1.1720229464898235
1648127653695200333,121702,1,0,0.0126571767032,0.0439508594573,0.0102926222607,0.0,31.1000003815,0.004233169465953177,0.014699284099431437,0.0034423485821739124,31.1000003815,0.0,0.015871622490809013,0.046880915542817876
1648127653695205707,121703,1,1,0.0329111367464,0.0146502861753,-0.0300007723272,0.0,31.1000003815,0.011007069145953176,0.0048997612626421405,-0.010033703119464882,31.1000003815,0.0,0.016319277030508346,0.04688091453018932
1648127653695225484,121704,1,2,0.228955626488,-1.58955609798,0.336482733488,0.0,31.1000003815,0.07657378812307691,-0.5316241130367892,0.11253603126688963,31.1000003815,0.0,0.5425415077366786,1.6408320747296088
1648127653695368758,121705,1,3,1.37386679649,-0.338421612978,-0.625609576702,0.242756426334,31.1000003815,0.45948722290635446,-0.11318448594581938,-0.20923397214113712,31.1000003815,0.03280492247756756,0.6595966524226811,1.5470702973974977
1648127653695372641,121706,1,4,0.871005058289,-0.668053030968,0.246981441975,-0.404594063759,31.1000003815,0.29130603956153844,-0.22342910734715715,0.08260248895484949,31.1000003815,-0.05467487348094594,0.468656572961486,1.1251419894531562
1648127653695386279,121707,1,5,1.05483496189,-0.609451889992,0.0402247421443,-0.242756426334,31.1000003815,0.35278761267224074,-0.20383006354247488,0.013453091018160536,31.1000003815,-0.03280492247756756,0.538947951210214,1.218903783290902
1648127653890026065,121708,3,0,0.0126723647118,0.0439508594573,0.0102739166468,0.0,38.0999984741,0.0042382490674916385,0.014699284099431437,0.003436092524013378,38.0999984741,0.0,0.015874333477408915,0.04688091549542953
1648127653890052480,121709,3,1,0.0328981243074,0.0146502861753,-0.0300150439143,0.0,38.0999984741,0.011002717159665552,0.0048997612626421405,-0.010038476225518393,38.0999984741,0.0,0.016313406456717926,0.04688091647078464
1648127653890059887,121710,3,2,0.906245172024,-0.79111546278,0.393785476685,-0.647350490093,38.0999984741,0.3030920307772575,-0.26458711129765883,0.13170082832274246,38.0999984741,-0.08747979595851352,0.5037220440939663,1.2657847324543203
1648127653890063476,121711,3,3,2.00728678703,-0.125992462039,-0.136730581522,-0.242756426334,38.0999984741,0.6713333735886287,-0.04213794717023411,-0.04572929147892976,38.0999984741,-0.03280492247756756,0.9503434134982469,2.015879360923965
1648127653890065659,121712,3,4,0.440033525229,-0.818951010704,1.78870332241,-0.242756426334,38.0999984741,0.14716840308662207,-0.2738966590983277,0.5982285359230769,38.0999984741,-0.03280492247756756,0.3440006651147037,2.015879420218168
1648127653890141959,121713,3,5,0.904637992382,-0.451228827238,0.204371526837,-0.161837622523,38.0999984741,0.3025545125023411,-0.15091265125016723,0.06835168121638795,38.0999984741,-0.021869948989594594,0.453710363975095,1.0313801785826617
1648127653995160550,121714,4,0,0.0126723647118,0.0439508594573,0.0102739166468,0.0,40.5,0.0042382490674916385,0.014699284099431437,0.003436092524013378,40.5,0.0,0.015874333477408915,0.04688091549542953
1648127653995165518,121715,4,1,0.0328981243074,0.0146502861753,-0.0300150439143,0.0,40.5,0.011002717159665552,0.0048997612626421405,-0.010038476225518393,40.5,0.0,0.016313406456717926,0.04688091647078464
1648127653995170392,121716,4,2,0.211741194129,-1.58955609798,0.347572982311,0.0,40.5,0.07081645288595317,-0.5316241130367892,0.11624514458561871,40.5,0.0,0.540975172776764,1.6408320754876597
1648127653995182626,121717,4,3,1.65163123608,-0.98449921608,0.424064010382,0.161837622523,40.5,0.5523850287892976,-0.3292639518662207,0.14182742822140468,40.5,0.021869948989594594,0.8477459466489163,1.96899840816557
1648127653995331020,121718,4,4,1.29983830452,-0.297400802374,0.265216767788,0.242756426334,40.5,0.43472852993979927,-0.09946515129565217,0.08870126012976588,40.5,0.03280492247756756,0.6227929879257673,1.35954653802878
1648127653995334693,121719,4,5,0.485201150179,-0.571361124516,-0.961172580719,0.566431701183,40.5,0.16227463216688962,-0.19109067709565214,-0.32146240157826084,40.5,0.07654482448418919,0.2986331518145188,1.2189037782652226
1648127653995336501,121720,4,6,0.914191186428,-0.41899818182,0.22899775207,-0.0809188112617,40.5,0.30574956067826087,-0.14013317117725752,0.07658787694648829,40.5,-0.010934974494824324,0.4545359098840196,1.031380129808701
1648127654091742966,121721,5,0,0.0126723647118,0.0439508594573,0.0102739166468,0.0,27.2000007629,0.0042382490674916385,0.014699284099431437,0.003436092524013378,27.2000007629,0.0,0.015874333477408915,0.04688091549542953
1648127654091749347,121722,5,1,0.0329111367464,0.0146502861753,-0.0300007723272,0.0,27.2000007629,0.011007069145953176,0.0048997612626421405,-0.010033703119464882,27.2000007629,0.0,0.016319277030508346,0.04688091453018932
1648127654091750637,121723,5,2,0.947366952896,-0.354536950588,0.201356604695,0.0,27.2000007629,0.31684513474782605,-0.11857423096588628,0.06734334605183946,27.2000007629,0.0,0.46351000752506677,1.0313801796747832
1648127654091751641,121724,5,3,1.68526637554,-1.50751447678,0.405270159245,0.0,27.2000007629,0.5636342393110367,-0.5041854437391304,0.1355418592792642,27.2000007629,0.0,0.9431702248936222,2.2971648953006123
1648127654091752642,121725,5,4,1.28171014786,-1.22476398945,0.175570428371,0.0809188112617,27.2000007629,0.42866560129096987,-0.409620063361204,0.058719206813043476,27.2000007629,0.010934974494824324,0.7316399331422079,1.7814748688373796
1648127654091771961,121726,5,5,1.29727971554,-0.123062409461,0.158152580261,0.242756426334,27.2000007629,0.4338728145618729,-0.041157996475250834,0.0528938395521739,27.2000007629,0.03280492247756756,0.6149676569589163,1.3126657059651945
1648127654091776967,121727,5,6,2.00008130074,-0.125992462039,-0.218106821179,-0.161837622523,27.2000007629,0.6689235119531771,-0.04213794717023411,-0.07294542514347825,27.2000007629,-0.021869948989594594,0.946938718333592,2.015879434764209
1648127654091780114,121728,5,7,1.52852416039,-0.818951010704,1.02796053886,-0.161837622523,27.2000007629,0.5112120937759197,-0.2738966590983277,0.34379951132441466,27.2000007629,-0.021869948989594594,0.7731073596278495,2.0158793952720484
1648127654195098195,121729,6,0,0.0126620735973,0.0439508594573,0.010286597535,0.0,13.6999998093,0.004234807223177257,0.014699284099431437,0.003440333623745819,13.6999998093,0.0,0.015872496258331467,0.04688091555916807
1648127654195120577,121730,6,1,0.0329224467278,0.0146502861753,-0.0299883615226,0.0,13.6999998093,0.011010851748428094,0.0048997612626421405,-0.010029552348695651,13.6999998093,0.0,0.01632437970896942,0.04688091520409101
1648127654195266564,121731,6,2,0.194742590189,-1.58955609798,0.357374638319,0.0,13.6999998093,0.06513130106655518,-0.5316241130367892,0.1195232904076923,13.6999998093,0.0,0.5395445953018132,1.6408320746415705
1648127654195273641,121732,6,3,1.7173794508,-1.53828012943,0.42291033268,0.0,13.6999998093,0.5743743982608696,-0.5144749596755852,0.1414415828361204,13.6999998093,0.0,0.9615073493677867,2.3440458792687475
1648127654195325474,121733,6,4,1.1114385128,-0.109877154231,0.355343699455,0.0809188112617,13.6999998093,0.37171856615384613,-0.0367482121173913,0.11884404664046821,13.6999998093,0.010934974494824324,0.5269723104118159,1.1720229099720465
1648127654195326693,121734,6,5,1.33320999146,-0.127457484603,0.233821585774,0.0809188112617,13.6999998093,0.4458896292508361,-0.04262792127190635,0.07820119925551838,13.6999998093,0.010934974494824324,0.6320223592712998,1.3595465514957423
1648127654195327744,121735,6,6,1.35354650021,-1.19985842705,0.266713529825,0.161837622523,13.6999998093,0.4526911371939799,-0.40129044382943135,0.08920184943979934,13.6999998093,0.021869948989594594,0.7555743191088349,1.8283556766081785
1648127654195328628,121736,6,7,0.939436256886,-0.527410328388,0.32441085577,-0.647350490093,13.6999998093,0.31419272805551834,-0.1763914141765886,0.10849861396989965,13.6999998093,-0.08747979595851352,0.4780670159309829,1.125142008185518
1648127654195329659,121737,6,8,2.53912401199,-0.76474493742,0.601234138012,-0.647350490093,13.6999998093,0.8492053551806019,-0.2557675375986622,0.20108165150903007,13.6999998093,-0.08747979595851352,1.2278910797884752,2.719093241557697
1648127654195331831,121738,6,9,0.960316836834,-0.354536950588,0.12585785985,-0.404594063759,13.6999998093,0.32117619961003346,-0.11857423096588628,0.04209292971571906,13.6999998093,-0.05467487348094594,0.4694338618389597,1.031380180789373
1648127654195332734,121739,6,10,0.973790884018,-0.39555773139,0.705320119858,-0.323675245047,13.6999998093,0.32568256990568556,-0.13229355564882941,0.23589301667491638,13.6999998093,-0.04373989797932432,0.47920753077028483,1.2657847669076543
1648127654291665589,121740,7,0,0.0126620735973,0.0439508594573,0.010286597535,0.0,17.2999992371,0.004234807223177257,0.014699284099431437,0.003440333623745819,17.2999992371,0.0,0.015872496258331467,0.04688091555916807
1648127654291668909,121741,7,1,0.0329111367464,0.0146502861753,-0.0300007723272,0.0,17.2999992371,0.011007069145953176,0.0048997612626421405,-0.010033703119464882,17.2999992371,0.0,0.016319277030508346,0.04688091453018932
1648127654291674574,121742,7,2,0.213646888733,-1.58955609798,0.346404850483,0.0,17.2999992371,0.07145380894080267,-0.5316241130367892,0.1158544650444816,17.2999992371,0.0,0.5411427641449623,1.6408320761518662
1648127654291692121,121743,7,3,1.81599938869,-1.39177727699,0.509561777115,0.0,17.2999992371,0.6073576550802675,-0.4654773501638796,0.17042199903511704,17.2999992371,0.0,0.9769523048157415,2.344045855601965
1648127654291752236,121744,7,4,0.98096203804,-0.742769479752,-1.35236513615,0.242756426334,17.2999992371,0.3280809491772575,-0.24841788620468228,-0.4522960321571906,17.2999992371,0.03280492247756756,0.5262942756790187,1.8283556769952216
1648127654291753657,121745,7,5,0.853072524071,-0.351606875658,0.166637063026,-0.647350490093,17.2999992371,0.2853085364785953,-0.11759427279531771,0.055731459206020066,17.2999992371,-0.08747979595851352,0.42027411884313726,0.9376182789967238
1648127654291798987,121746,7,6,0.921564340591,-0.307655990124,0.159077450633,-0.404594063759,17.2999992371,0.308215498525418,-0.10289497997458194,0.053203160746822735,17.2999992371,-0.05467487348094594,0.4478626619472911,0.9844992013242053
1648127654291806734,121747,7,7,0.972113072872,-0.316446185112,0.74637055397,-0.323675245047,17.2999992371,0.32512142905418057,-0.10583484451906354,0.24962225885284278,17.2999992371,-0.04373989797932432,0.4718144779199124,1.2657847440833159
1648127654395078263,121748,8,0,0.0126620735973,0.0439508594573,0.010286597535,0.0,14.8000001907,0.004234807223177257,0.014699284099431437,0.003440333623745819,14.8000001907,0.0,0.015872496258331467,0.04688091555916807
1648127654395084688,121749,8,1,0.0328981243074,0.0146502861753,-0.0300150439143,0.0,14.8000001907,0.011002717159665552,0.0048997612626421405,-0.010038476225518393,14.8000001907,0.0,0.016313406456717926,0.04688091647078464
1648127654395087542,121750,8,2,0.207957074046,-1.58955609798,0.349850207567,0.0,14.8000001907,0.06955086088494983,-0.5316241130367892,0.11700675838361205,14.8000001907,0.0,0.540646688755076,1.6408320758096637
1648127654395091705,121751,8,3,1.87468230724,-1.31852579117,0.491535842419,0.0,14.8000001907,0.6269840492441472,-0.44097852547491634,0.1643932583341137,14.8000001907,0.0,0.9902929142143782,2.3440459678602124
1648127654395232672,121752,8,4,0.690234482288,-0.194848805666,-0.528226673603,0.566431701183,14.8000001907,0.23084765293913043,-0.06516682463745818,-0.17666443933210702,14.8000001907,0.07654482448418919,0.3329083849474802,0.8907374003119777
1648127654395235635,121753,8,5,0.876980602741,-0.276890397072,0.351390689611,-0.647350490093,14.8000001907,0.29330454941170564,-0.09260548397056856,0.11752196976956521,14.8000001907,-0.08747979595851352,0.4250069329700759,0.9844992058503408
1648127654395236814,121754,8,6,0.782192707062,1.69943320751,0.128894180059,-0.647350490093,14.8000001907,0.26160291206086955,0.5683723102040134,0.04310842142441471,14.8000001907,-0.08747979595851352,0.6781734661604664,1.875236616382527
1648127654395237977,121755,8,7,1.85086596012,-0.0586011447012,0.295590013266,-0.647350490093,14.8000001907,0.6190187157591972,-0.019599045050568562,0.09885953620936454,14.8000001907,-0.08747979595851352,0.8756440278373546,1.875236612386238
1648127654395240288,121756,8,8,0.807464301586,-0.237334623933,-0.0613794103265,-0.566431701183,14.8000001907,0.2700549503632107,-0.07937612840568561,-0.020528230878428092,14.8000001907,-0.07654482448418919,0.39007681575816355,0.843856477172045
1648127654395241525,121757,8,9,0.89465880394,-0.205104008317,0.191431850195,-0.485512852669,14.8000001907,0.2992169912842809,-0.06859665829999999,0.06402403016555183,14.8000001907,-0.06560984495527027,0.42868067051869957,0.9376183567764297
1648127654395245027,121758,8,10,0.984772622585,-0.152362972498,0.701950788498,-0.242756426334,14.8000001907,0.3293553921688963,-0.05095751588561872,0.23476614999933107,14.8000001907,-0.03280492247756756,0.4685580189546307,1.218903812059971
1648127654491755809,121759,9,0,0.0125831468031,0.0439508594573,0.0103829959407,0.0,15.0,0.0042084103020401335,0.014699284099431437,0.003472573893210702,15.0,0.0,0.015858448460566152,0.04688091546896556
1648127654491925910,121760,9,1,0.0328232087195,0.0146502861753,-0.0300969481468,0.0,15.0,0.01097766177909699,0.0048997612626421405,-0.01006586894541806,15.0,0.0,0.016279612301998543,0.04688091512986084
1648127654491929432,121761,9,2,0.193705976009,-1.58955609798,0.357937574387,0.0,15.0,0.06478460736086956,-0.5316241130367892,0.11971156334013378,15.0,0.0,0.5394611091301734,1.6408320757850425
1648127654491931428,121762,9,3,1.86839926243,-1.31852579117,0.514902889729,0.0,15.0,0.6248826964648829,-0.44097852547491634,0.17220832432408026,15.0,0.0,0.987632942247512,2.3440458723499242
1648127654491990395,121763,9,4,2.42723464966,-0.902457654476,0.431818068027,0.0,15.0,0.8117841637658862,-0.30182530250033446,0.1444207585374582,15.0,0.0,1.1870491018957796,2.625331351754859
1648127654491992585,121764,9,5,0.77726238966,-0.149432912469,0.0932899340987,-0.647350490093,15.0,0.25995397647491636,-0.04997756269866221,0.031200646855752506,15.0,-0.08747979595851352,0.3710119897571255,0.7969755513898036
1648127654491993661,121765,9,6,0.844220817089,-0.083506628871,0.271534472704,-0.404594063759,15.0,0.2823480993608695,-0.027928638418394644,0.09081420491772574,15.0,-0.05467487348094594,0.40027603883981905,0.8907373995395371
1648127654491994880,121766,9,7,0.898851752281,-0.109877154231,0.744063317776,-0.242756426334,15.0,0.30061931514414714,-0.0367482121173913,0.24885060795183944,15.0,-0.03280492247756756,0.42672517662928783,1.17202290184977
1648127654595063653,121767,10,0,0.0126620735973,0.0439508594573,0.010286597535,0.0,15.3000001907,0.004234807223177257,0.014699284099431437,0.003440333623745819,15.3000001907,0.0,0.015872496258331467,0.04688091555916807
1648127654595072346,121768,10,1,0.0328232087195,0.0146502861753,-0.0300969481468,0.0,15.3000001907,0.01097766177909699,0.0048997612626421405,-0.01006586894541806,15.3000001907,0.0,0.016279612301998543,0.04688091512986084
1648127654595080696,121769,10,2,0.218521997333,-1.58955609798,0.343350321054,0.0,15.3000001907,0.0730842800444816,-0.5316241130367892,0.11483288329565217,15.3000001907,0.0,0.5415780844360242,1.640832073952631
1648127654595117253,121770,10,3,1.83223760128,-1.39177727699,0.447674155235,0.0,15.3000001907,0.6127884954113711,-0.4654773501638796,0.14972379773745817,15.3000001907,0.0,0.9837116669698754,2.3440458113175513
1648127654595147994,121771,10,4,2.42527604103,-0.902457654476,0.442686796188,0.0,15.3000001907,0.8111291107123746,-0.30182530250033446,0.14805578467826086,15.3000001907,0.0,1.1861531864474815,2.6253314634224134
1648127654595150392,121772,10,5,1.7971457243,-0.523015201092,-1.48770034313,0.242756426334,15.3000001907,0.6010520817056856,-0.1749214719371237,-0.4975586431872909,15.3000001907,0.03280492247756756,0.8678275930103433,2.390926591489625
1648127654595152203,121773,10,6,0.0502621456981,-1.49432909489,-1.86573958397,0.242756426334,15.3000001907,0.01681008217327759,-0.4997756170200669,-0.623993171896321,15.3000001907,0.03280492247756756,0.5003407090105034,2.3909265823771113
1648127654595153651,121774,10,7,0.280386984348,-1.17202293873,-1.43675255775,0.485512852669,15.3000001907,0.09377491115317726,-0.3919809159632107,-0.480519250083612,15.3000001907,0.06560984495527027,0.4138073300497832,1.875236662958102
1648127654595155495,121775,10,8,0.873457729816,-0.083506628871,0.153334259987,-0.485512852669,15.3000001907,0.2921263310421405,-0.027928638418394644,0.05128236119966555,15.3000001907,-0.06560984495527027,0.41407196888969666,0.8907374237823852
1648127654595173163,121776,10,9,0.728690207005,-0.0234404578805,0.176360830665,-0.404594063759,15.3000001907,0.2437090993327759,-0.007839618020234113,0.05898355540635451,15.3000001907,-0.05467487348094594,0.34474586263781154,0.7500946709872602
1648127654595174394,121777,10,10,0.875748693943,0.083506628871,0.139656573534,-0.161837622523,15.3000001907,0.2928925397802675,0.027928638418394644,0.04670788412508361,15.3000001907,-0.021869948989594594,0.4151530905121346,0.8907373858436205
1648127654691806901,121778,11,0,0.0125518683344,0.0439508594573,0.0104207862169,0.0,35.5999984741,0.004197949275719063,0.014699284099431437,0.003485212781571906,35.5999984741,0.0,0.01585290223520029,0.04688091542512564
1648127654691822229,121779,11,1,0.0328981243074,0.0146502861753,-0.0300150439143,0.0,35.5999984741,0.011002717159665552,0.0048997612626421405,-0.010038476225518393,35.5999984741,0.0,0.016313406456717926,0.04688091647078464
1648127654691835007,121780,11,2,0.660160243511,0.153828009963,0.187176272273,0.0,35.5999984741,0.22078937910066887,0.05144749497090301,0.06260075995752508,35.5999984741,0.0,0.3164533845388588,0.7032137375390898
1648127654691999758,121781,11,3,0.206330806017,-1.58955609798,0.350811779499,0.0,35.5999984741,0.0690069585341137,-0.5316241130367892,0.11732835434749163,35.5999984741,0.0,0.5405072785952199,1.6408320739101498
1648127654692002937,121782,11,4,2.43118691444,-0.902457654476,0.408981442451,0.0,35.5999984741,0.813105991451505,-0.30182530250033446,0.13678309112073578,35.5999984741,0.0,1.1888571065935924,2.625331493609124
1648127654692057086,121783,11,5,0.287037938833,-1.37126672268,-1.99502944946,0.242756426334,35.5999984741,0.09599931064648828,-0.4586176330033444,-0.6672339295852843,35.5999984741,0.03280492247756756,0.47829056920536517,2.437807561574891
1648127654692058473,121784,11,6,0.808518469334,0.105482056737,0.217405602336,-0.0809188112617,35.5999984741,0.2704075148274247,0.035278279845150494,0.07271090379130435,35.5999984741,-0.010934974494824324,0.38403776530325834,0.843856489857571
