%time,field.header.seq,field.header.frame_id,field.point_id,field.x,field.y,field.z,field.velocity,field.intensity,normalized_x,normalized_y,normalized_z,normalized_intensity,normalized_velocity,normalized_range,range
1648125570685907050,30733,0,0,0.00650562345982,0.0454158857465,0.00963817536831,0.0,25.1000003815,0.002175793799270903,0.015189259446989964,0.0032234700228461533,25.1000003815,0.0,0.015497798548886397,0.04688091551122268
1648125570685912854,30734,0,1,0.0328296348453,0.0146502861753,-0.0300899371505,0.0,25.1000003815,0.010979810985050166,0.0048997612626421405,-0.010063524130602006,25.1000003815,0.0,0.016282510831126296,0.04688091431291589
1648125570685921134,30735,0,2,0.529265344143,-1.53828001022,0.21424920857,0.0,25.1000003815,0.17701182078361202,-0.51447491980602,0.07165525370234113,25.1000003815,0.0,0.5721457965446132,1.6408320809047228
1648125570685936145,30736,0,3,2.41991138458,-0.902457654476,0.471130281687,0.0,25.1000003815,0.8093349112307693,-0.30182530250033446,0.15756865608260867,25.1000003815,0.0,1.1836995016908864,2.6253313447381625
1648125570685942391,30737,0,4,1.22980129719,-0.843856453896,0.161440357566,0.0809188112617,25.1000003815,0.41130478166889634,-0.28222623876120395,0.05399343062408026,25.1000003815,0.010934974494824324,0.6465252483025649,1.5001892995229558
1648125570685956318,30738,0,5,0.781381249428,-0.914177834988,0.198616936803,-0.161837622523,25.1000003815,0.2613315215478261,-0.30574509531371236,0.06642706916488293,25.1000003815,-0.021869948989594594,0.4796544502216099,1.2189037937942502
1648125570791038458,30739,1,0,0.0126621415839,0.0439508594573,0.010286513716,0.0,40.2000007629,0.004234829961170568,0.014699284099431437,0.003440305590635451,40.2000007629,0.0,0.015872508391424896,0.04688091553026159
1648125570791043276,30740,1,1,0.0327422693372,0.0146502861753,-0.0301849804819,0.0,40.2000007629,0.010950591751571906,0.0048997612626421405,-0.010095311197959865,40.2000007629,0.0,0.016243108687996822,0.046880914379527815
1648125570791046195,30741,1,2,0.50245821476,-1.53828001022,0.271219968796,0.0,40.2000007629,0.16804622567224078,-0.51447491980602,0.09070901966421405,40.2000007629,0.0,0.5667129000073865,1.6408320812611974
1648125570791051635,30742,1,3,2.42084121704,-0.902457654476,0.466328591108,0.0,40.2000007629,0.8096458919866221,-0.30182530250033446,0.15596273950100334,40.2000007629,0.0,1.184124762873847,2.62533128788098
1648125570791079261,30743,1,4,1.26798534393,-0.796975553036,-0.0872414559126,0.161837622523,40.2000007629,0.4240753658628762,-0.2665470077043478,-0.02917774445237458,40.2000007629,0.021869948989594594,0.6562980566629817,1.5001893001178446
1648125570791089296,30744,1,5,0.726411879063,-0.808695793152,0.29031252861,-0.242756426334,40.2000007629,0.24294711674347824,-0.2704668204521739,0.09709449117391304,40.2000007629,-0.03280492247756756,0.4372629689711295,1.125141976896033
1648125570890258162,30745,2,0,0.00653523253277,0.0454158857465,0.00961812306195,0.0,37.9000015259,0.0021856964992541805,0.015189259446989964,0.003216763565869565,37.9000015259,0.0,0.015500585179975556,0.04688091545214674
1648125570890260923,30746,2,1,0.0327790863812,0.0146502861753,-0.0301449969411,0.0,37.9000015259,0.010962905144214047,0.0048997612626421405,-0.010081938776287625,37.9000015259,0.0,0.016259712138686776,0.046880915408973045
1648125570890266847,30747,2,2,2.41521239281,-0.902457654476,0.494655579329,0.0,37.9000015259,0.807763342076923,-0.30182530250033446,0.16543664860501672,37.9000015259,0.0,1.181550568886486,2.6253313814957986
1648125570890462590,30748,2,3,0.930961489677,-1.46356356144,0.0104101169854,0.0809188112617,37.9000015259,0.311358357751505,-0.4894861409498327,0.003481644476722408,37.9000015259,0.010934974494824324,0.6583955771915451,1.7345938902729379
1648125570890468038,30749,2,4,0.838064074516,-0.668053030968,0.342488288879,-0.242756426334,37.9000015259,0.28028898813244146,-0.22342910734715715,0.11454457822040133,37.9000015259,-0.03280492247756756,0.4550213179034179,1.1251419791293704
1648125570890470373,30750,2,5,0.873705863953,-0.83799636364,0.141868487,-0.242756426334,37.9000015259,0.29220931904782604,-0.28026634235451503,0.04744765451505016,37.9000015259,-0.03280492247756756,0.4993213343464974,1.218903814820263
1648125570890477674,30751,2,6,0.969204604626,-0.849716603756,0.432424545288,-0.161837622523,37.9000015259,0.3241486971993311,-0.28418615510234113,0.144623593741806,37.9000015259,-0.021869948989594594,0.5393575127351978,1.3595465640037512
1648125570991054107,30752,3,0,0.00650562345982,0.0454158857465,0.00963817536831,0.0,17.6000003815,0.002175793799270903,0.015189259446989964,0.0032234700228461533,17.6000003815,0.0,0.015497798548886397,0.04688091551122268
1648125570991061742,30753,3,1,0.0327790863812,0.0146502861753,-0.0301449969411,0.0,17.6000003815,0.010962905144214047,0.0048997612626421405,-0.010081938776287625,17.6000003815,0.0,0.016259712138686776,0.046880915408973045
1648125570991089365,30754,3,2,0.295590043068,-1.58955609798,0.279763877392,0.0,17.6000003815,0.09885954617658863,-0.5316241130367892,0.09356651417792641,17.6000003815,0.0,0.5497004796274376,1.6408320722364467
1648125570991091471,30755,3,3,2.41612052917,-0.902457654476,0.490201294422,0.0,17.6000003815,0.8080670666120401,-0.30182530250033446,0.16394692121137122,17.6000003815,0.0,1.1819658546317626,2.6253315102386687
1648125570991093936,30756,3,4,1.31791222095,-0.43511351943,-0.683527708054,0.161837622523,17.6000003815,0.44077331804347825,-0.1455229161973244,-0.2286045846334448,17.6000003815,0.021869948989594594,0.6401087055623349,1.5470703037023485
1648125570991118508,30757,3,5,1.14721512794,-1.30094540119,-0.0159532614052,0.161837622523,17.6000003815,0.38368398927759195,-0.43509879638461535,-0.005335538931505015,17.6000003815,0.021869948989594594,0.6955125950486272,1.7345938986406193
1648125570991123344,30758,3,6,1.72040760517,-1.28043496609,0.226430743933,-0.647350490093,17.6000003815,0.5753871589197324,-0.4282391190936455,0.07572934579698996,17.6000003815,-0.08747979595851352,0.9195267850484532,2.1565219479779763
1648125570991225350,30759,3,7,0.824039876461,-0.673913121223,0.171598687768,-0.323675245047,17.6000003815,0.2755986208899665,-0.22538900375351167,0.05739086547424749,17.6000003815,-0.04373989797932432,0.4502326095318991,1.0782609714712321
1648125570991271890,30760,3,8,1.39413189888,-1.2306240797,0.241811543703,-0.242756426334,17.6000003815,0.4662648491237458,-0.4115799597658863,0.08087342598762541,17.6000003815,-0.03280492247756756,0.7773055270211755,1.875236571657095
1648125570991290421,30761,3,9,1.291274786,-0.750094652176,0.143302083015,-0.161837622523,17.6000003815,0.4318644769230769,-0.2508677766474916,0.047927118065217385,17.6000003815,-0.021869948989594594,0.6602639579866081,1.5001893371100925
1648125571186163415,30762,5,0,0.00653523253277,0.0454158857465,0.00961812306195,0.0,16.2999992371,0.0021856964992541805,0.015189259446989964,0.003216763565869565,16.2999992371,0.0,0.015500585179975556,0.04688091545214674
1648125571186166570,30763,5,1,0.0328296348453,0.0146502861753,-0.0300899371505,0.0,16.2999992371,0.010979810985050166,0.0048997612626421405,-0.010063524130602006,16.2999992371,0.0,0.016282510831126296,0.04688091431291589
1648125571186172946,30764,5,2,2.41107010841,-0.902457654476,0.514467477798,0.0,16.2999992371,0.8063779626789298,-0.30182530250033446,0.17206270160468223,16.2999992371,0.0,1.1796564544891286,2.625331535540296
1648125571186181569,30765,5,3,1.26428055763,-1.08412122726,0.484862774611,0.242756426334,16.2999992371,0.4228363068996655,-0.36258235025418056,0.162161463080602,16.2999992371,0.03280492247756756,0.6993189870015982,1.7345939219311333
1648125571186184416,30766,5,4,1.33957493305,-0.54499065876,0.143629133701,-0.323675245047,16.2999992371,0.44801837225752505,-0.18227112333110365,0.04803649956555184,16.2999992371,-0.04373989797932432,0.6592902897517504,1.4533083456167415
1648125571186336163,30767,5,5,0.865827083588,-0.703213751316,0.147574990988,-0.242756426334,16.2999992371,0.2895742754474916,-0.23518854559063543,0.04935618427692307,16.2999992371,-0.03280492247756756,0.4722501180295436,1.1251419895637753
1648125571186341689,30768,5,6,0.842902421951,-0.547920703888,0.230311572552,-0.0809188112617,16.2999992371,0.281907164532107,-0.18325107153444814,0.07702728178996655,16.2999992371,-0.010934974494824324,0.43877585855147994,1.0313801486994782
1648125571291095924,30769,6,0,0.0126754716039,0.0439508594573,0.0102700833231,0.0,31.3999996185,0.0042392881618394645,0.014699284099431437,0.0034348104759531766,31.3999996185,0.0,0.015874888386191013,0.04688091550812579
1648125571291122451,30770,6,1,0.0327790863812,0.0146502861753,-0.0301449969411,0.0,31.3999996185,0.010962905144214047,0.0048997612626421405,-0.010081938776287625,31.3999996185,0.0,0.016259712138686776,0.046880915408973045
1648125571291133360,30771,6,2,0.289027392864,-1.58955609798,0.286538779736,0.0,31.3999996185,0.09666467988762541,-0.5316241130367892,0.09583236780468227,31.3999996185,0.0,0.5489192274257725,1.6408320739014581
1648125571291135508,30772,6,3,1.07630288601,-1.35515141487,0.118122078478,0.242756426334,31.3999996185,0.3599675204046822,-0.4532278979498327,0.03950571186555184,31.3999996185,0.03280492247756756,0.6815928102412867,1.7345939251252958
1648125571291269517,30773,6,4,0.900054335594,-0.5391305089,0.248771548271,-0.161837622523,31.3999996185,0.3010215169210702,-0.18031120698996655,0.08320118671270903,31.3999996185,-0.021869948989594594,0.46232027715113566,1.0782610054515929
1648125571291289479,30774,6,5,1.33434557915,-0.439508587122,0.0662746429443,-0.161837622523,31.3999996185,0.44626942446488294,-0.14699283850234113,0.022165432422842805,31.3999996185,-0.021869948989594594,0.6480121086796227,1.4064274780622428
1648125571485928500,30775,8,0,0.00639936653897,0.0454158857465,0.00970905087888,0.0,16.2000007629,0.0021402563675484948,0.015189259446989964,0.0032471742069832775,16.2000007629,0.0,0.01548789841087672,0.046880915511622746
1648125571485935630,30776,8,1,0.032754637301,0.0146502861753,-0.0301715619862,0.0,16.2000007629,0.010954728194314381,0.0048997612626421405,-0.010090823406755852,16.2000007629,0.0,0.016248686102374597,0.046880916185857074
1648125571485938162,30777,8,2,0.297601521015,-1.58955609798,0.277623206377,0.0,16.2000007629,0.09953228127591972,-0.5316241130367892,0.09285057069464882,16.2000007629,0.0,0.5499432221549152,1.6408320750932714
1648125571485940091,30778,8,3,1.23879516125,-1.22476398945,0.372816890478,0.161837622523,16.2000007629,0.41431276295986624,-0.409620063361204,0.12468792323678929,16.2000007629,0.021869948989594594,0.714911692036795,1.7814748707785857
1648125571485944250,30779,8,4,1.1000316143,-0.212429150939,-0.770175933838,-0.647350490093,16.2000007629,0.3679035499331103,-0.07104653877558528,-0.25758392436053507,16.2000007629,-0.08747979595851352,0.5251225140657748,1.3595464926553131
1648125571486078047,30780,8,5,0.880203664303,-0.451228827238,0.292197048664,-0.242756426334,16.2000007629,0.294382496422408,-0.15091265125016723,0.09772476543946487,16.2000007629,-0.03280492247756756,0.4428281119205653,1.0313801725992997
1648125571486110564,30781,8,6,0.814623892307,-0.474669277668,0.844563782215,-0.242756426334,16.2000007629,0.2724494623100334,-0.1587522667785953,0.2824628034163879,16.2000007629,-0.03280492247756756,0.4167249707341701,1.2657847334000254
1648125571590031730,30782,9,0,0.00656197406352,0.0454158857465,0.00959989894181,0.0,13.8000001907,0.002194640155023411,0.015189259446989964,0.0032106685424113713,13.8000001907,0.0,0.015503112376811833,0.04688091553545446
1648125571590039749,30783,9,1,0.032754637301,0.0146502861753,-0.0301715619862,0.0,13.8000001907,0.010954728194314381,0.0048997612626421405,-0.010090823406755852,13.8000001907,0.0,0.016248686102374597,0.046880916185857074
1648125571590047570,30784,9,2,1.77859699726,-1.46502864361,0.429924637079,0.0,13.8000001907,0.5948484940668896,-0.489976134986622,0.14378750403979934,13.8000001907,0.0,0.9735327804669553,2.344045946398567
1648125571590051373,30785,9,3,1.3114284277,-1.1690928936,0.295008510351,0.161837622523,13.8000001907,0.4386048253177257,-0.3910009677591973,0.09866505362909699,13.8000001907,0.021869948989594594,0.7332326659203163,1.7814748766191542
1648125571590072857,30786,9,4,0.777686059475,-0.417533159256,0.11951430887,-0.485512852669,13.8000001907,0.2600956720652174,-0.13964319707558526,0.039971340759197324,13.8000001907,-0.06560984495527027,0.39344598071857967,0.8907374563835987
1648125571590078558,30787,9,5,0.873667120934,-0.451228827238,0.311196655035,-0.404594063759,13.8000001907,0.29219636151638795,-0.15091265125016723,0.10407914884113711,13.8000001907,-0.05467487348094594,0.4399227837634532,1.0313801679481034
1648125571590129100,30788,9,6,0.957602739334,-0.380907416344,0.650870919228,-0.323675245047,13.8000001907,0.32026847469364544,-0.12739378473043478,0.21768258168160534,13.8000001907,-0.04373989797932432,0.4705028885704452,1.2189037778686815
1648125571590133540,30789,9,7,0.94292896986,-0.276890397072,-0.058781504631,-0.0809188112617,13.8000001907,0.3153608594849498,-0.09260548397056856,-0.019659366097324413,13.8000001907,-0.010934974494824324,0.45550051487522575,0.9844991617460194
1648125571590136695,30790,9,8,1.37554121017,-0.175803437829,0.234559029341,-0.0809188112617,13.8000001907,0.4600472274816053,-0.05879713639765886,0.0784478359,13.8000001907,-0.010934974494824324,0.653256462865534,1.4064275338153172
1648125571691038782,30791,10,0,0.00656197406352,0.0454158857465,0.00959989894181,0.0,17.6000003815,0.002194640155023411,0.015189259446989964,0.0032106685424113713,17.6000003815,0.0,0.015503112376811833,0.04688091553545446
1648125571691042805,30792,10,1,0.032754637301,0.0146502861753,-0.0301715619862,0.0,17.6000003815,0.010954728194314381,0.0048997612626421405,-0.010090823406755852,17.6000003815,0.0,0.016248686102374597,0.046880916185857074
1648125571691051187,30793,10,2,1.34984016418,-0.0849716588855,0.138123854995,0.0,17.6000003815,0.4514515599264214,-0.028418615011872907,0.04619526922909698,17.6000003815,0.0,0.6390810900028192,1.3595465607936796
1648125571691060971,30794,10,3,1.79292404652,-1.46502864361,0.365603297949,0.0,17.6000003815,0.5996401493377926,-0.489976134986622,0.12227535048461537,17.6000003815,0.0,0.9793943180619995,2.344045932710917
1648125571691137007,30795,10,4,1.11217558384,-0.820416033268,1.26747608185,0.161837622523,17.6000003815,0.37196507820735786,-0.27438663319999995,0.4239050440969899,17.6000003815,0.021869948989594594,0.5932993032950933,1.8752366823936846
1648125571691139861,30796,10,5,0.989551663399,1.6217867136,0.291772931814,-0.566431701183,17.6000003815,0.33095373357826086,0.5424035831438127,0.09758292033913042,17.6000003815,-0.07654482448418919,0.7164233347302612,1.9221176037601218
1648125571691144239,30797,10,6,0.773401558399,-0.316446185112,0.117496959865,-0.485512852669,17.6000003815,0.25866272856153844,-0.10583484451906354,0.039296642095317726,17.6000003815,-0.06560984495527027,0.38080681271239697,0.8438564416910364
1648125571691151629,30798,10,7,0.985556960106,1.66134238243,0.381541371346,-0.485512852669,17.6000003815,0.3296177124100334,0.5556329038227424,0.12760580981471573,17.6000003815,-0.06560984495527027,0.7252748420284133,1.9689984386281656
1648125571691162056,30799,10,8,0.875860452652,-0.338421612978,0.295935720205,-0.404594063759,17.6000003815,0.29292991727491635,-0.11318448594581938,0.09897515725919731,17.6000003815,-0.05467487348094594,0.42944918294042433,0.9844991981427154
1648125571691267083,30800,10,9,0.893803536892,-0.293005734682,0.699214339256,-0.404594063759,17.6000003815,0.298930948793311,-0.09799522899063544,0.23385094958394645,17.6000003815,-0.05467487348094594,0.43396139136778666,1.172022958537243
1648125571790214599,30801,11,0,0.00654576485977,0.0454158857465,0.00961095839739,0.0,21.0,0.002189219016645485,0.015189259446989964,0.0032143673569866218,21.0,0.0,0.015501579350300353,0.046880915488660226
1648125571790224473,30802,11,1,0.0327422693372,0.0146502861753,-0.0301849804819,0.0,21.0,0.010950591751571906,0.0048997612626421405,-0.010095311197959865,21.0,0.0,0.016243108687996822,0.046880914379527815
1648125571790228287,30803,11,2,0.29026812315,-1.58955609798,0.285281836987,0.0,21.0,0.09707963984949833,-0.5316241130367892,0.09541198561438126,21.0,0.0,0.5490656704883028,1.6408320750330012
1648125571790237759,30804,11,3,1.87140357494,-1.31852579117,0.503874838352,0.0,21.0,0.6258874832575251,-0.44097852547491634,0.16852001282675583,21.0,0.0,0.9889046179116108,2.3440459583811366
1648125571790256208,30805,11,4,0.680641293526,-0.68563336134,-1.55226254463,0.242756426334,21.0,0.22763922860401337,-0.2293088165016722,-0.5191513527190635,21.0,0.03280492247756756,0.3952489976258739,1.8283557323716675
1648125571790260072,30806,11,5,0.746046185493,-0.249054864049,0.128673255444,-0.485512852669,21.0,0.24951377441237454,-0.0832959411535117,0.04303453359331103,21.0,-0.06560984495527027,0.3625637337843761,0.7969755597643371
1648125571790265195,30807,11,6,0.894596576691,-0.205104008317,0.191722452641,-0.485512852669,21.0,0.2991961794953177,-0.06859665829999999,0.06412122161906354,21.0,-0.06560984495527027,0.42865161749270897,0.9376183595160862
1648125571890203826,30808,12,0,0.00650562345982,0.0454158857465,0.00963817536831,0.0,37.4000015259,0.002175793799270903,0.015189259446989964,0.0032234700228461533,37.4000015259,0.0,0.015497798548886397,0.04688091551122268
1648125571890209869,30809,12,1,0.032754637301,0.0146502861753,-0.0301715619862,0.0,37.4000015259,0.010954728194314381,0.0048997612626421405,-0.010090823406755852,37.4000015259,0.0,0.016248686102374597,0.046880916185857074
1648125571890213109,30810,12,2,0.265300154686,-1.58955609798,0.308637559414,0.0,37.4000015259,0.0887291487244147,-0.5316241130367892,0.1032232640180602,37.4000015259,0.0,0.5462324791047045,1.6408320766558806
1648125571890234798,30811,12,3,1.86957287788,-1.31852579117,0.510625302792,0.0,37.4000015259,0.625275209993311,-0.44097852547491634,0.17077769324147157,37.4000015259,0.0,0.988129665779947,2.34404590559494
1648125571890241635,30812,12,4,2.42501783371,-0.902457654476,0.444099396467,0.0,37.4000015259,0.8110427537491639,-0.30182530250033446,0.1485282262431438,37.4000015259,0.0,1.1860350796024004,2.6253315192326125
1648125571890583924,30813,12,5,2.10671448708,-1.04603040218,0.429073989391,0.161837622523,37.4000015259,0.7045867849765886,-0.34984294387290965,0.14350300648528427,37.4000015259,0.021869948989594594,1.0560658883350766,2.39092660295742
1648125571890589735,30814,12,6,0.991403579712,-0.298865824938,-2.15507030487,0.161837622523,37.4000015259,0.33157310358260866,-0.09995512539732442,-0.7207592992876254,37.4000015259,0.021869948989594594,0.4794501779455312,2.3909265689506474
1648125571890593651,30815,12,7,0.721513092518,-0.164083212614,0.123034849763,-0.485512852669,37.4000015259,0.2413087265946488,-0.054877328633444813,0.04114877918494983,37.4000015259,-0.06560984495527027,0.34564624149468925,0.7500946724199706
1648125571890595583,30816,12,8,0.800781786442,-0.105482056737,0.244368046522,-0.323675245047,37.4000015259,0.26781999546555185,-0.035278279845150494,0.0817284436528428,37.4000015259,-0.04373989797932432,0.38039408114634116,0.8438564308883869
1648125571890707030,30817,12,9,0.873095154762,-0.175803437829,0.687562763691,-0.242756426334,37.4000015259,0.2920050684822742,-0.05879713639765886,0.2299541015688963,37.4000015259,-0.03280492247756756,0.4171223121426618,1.1251420141634485
1648125571990295165,30818,13,0,0.00653523253277,0.0454158857465,0.00961812306195,0.0,15.0,0.0021856964992541805,0.015189259446989964,0.003216763565869565,15.0,0.0,0.015500585179975556,0.04688091545214674
1648125571990299076,30819,13,1,0.032754637301,0.0146502861753,-0.0301715619862,0.0,15.0,0.010954728194314381,0.0048997612626421405,-0.010090823406755852,15.0,0.0,0.016248686102374597,0.046880916185857074
1648125571990306776,30820,13,2,0.286152124405,-1.58955609798,0.289410203695,0.0,15.0,0.09570305164046822,-0.5316241130367892,0.09679271026588628,15.0,0.0,0.5485821230670473,1.6408320733486654
1648125571990310563,30821,13,3,1.87226915359,-1.31852579117,0.500648915768,0.0,15.0,0.626176974444816,-0.44097852547491634,0.16744110895250833,15.0,0.0,0.9892710784106442,2.344045942878416
1648125571990316130,30822,13,4,2.42058634758,-0.902457654476,0.467650443316,0.0,15.0,0.8095606513645485,-0.30182530250033446,0.15640483054046822,15.0,0.0,1.184008196637592,2.625331411716749
1648125571990438405,30823,13,5,1.96024131775,-0.67244809866,-1.19239139557,0.161837622523,15.0,0.6555991029264213,-0.2248990296521739,-0.3987931088862876,15.0,0.021869948989594594,0.9540439932489204,2.3909265378583
1648125571990445519,30824,13,6,1.35939061642,-0.0,0.0205919258296,-0.647350490093,15.0,0.45464569111036784,-0.0,0.0068869317155852835,15.0,-0.08747979595851352,0.6429661024427711,1.3595465697871916
1648125571990466052,30825,13,7,1.50018155575,-0.0,0.00482332194224,-0.404594063759,15.0,0.5017329617892976,-0.0,0.001613151151250836,15.0,-0.05467487348094594,0.7095575592520466,1.5001893096029744
1648125571990476615,30826,13,8,0.69056481123,-0.0219754297286,0.130946144462,-0.323675245047,15.0,0.23095813084615383,-0.007349642049698997,0.04379469714448161,15.0,-0.04373989797932432,0.3267068007344765,0.7032137447251334
1648125571990532891,30827,13,9,0.840841412544,-0.0263705141842,0.0662118792534,-0.161837622523,15.0,0.2812178637270903,-0.008819569961270902,0.022144441221872906,15.0,-0.021869948989594594,0.39779989765302654,0.8438564439652014
1648125572090162398,30828,14,0,0.00653523253277,0.0454158857465,0.00961812306195,0.0,37.5,0.0021856964992541805,0.015189259446989964,0.003216763565869565,37.5,0.0,0.015500585179975556,0.04688091545214674
1648125572090174761,30829,14,1,0.0327667072415,0.0146502861753,-0.030158450827,0.0,37.5,0.010958764963712373,0.0048997612626421405,-0.010086438403678928,37.5,0.0,0.016254129305830818,0.0468809145042301
1648125572090177733,30830,14,2,0.658614218235,0.0879017189145,0.230239406228,0.0,37.5,0.22027231379096987,0.02939856819882943,0.07700314589565216,37.5,0.0,0.3128962451960653,0.7032137547215968
1648125572090269508,30831,14,3,0.278942763805,-1.58955609798,0.296365052462,0.0,37.5,0.09329189424916387,-0.5316241130367892,0.09911874664280935,37.5,0.0,0.5477508125300657,1.640832075023334
1648125572090275827,30832,14,4,1.87273526192,-1.31852579117,0.498902648687,0.0,37.5,0.6263328635183946,-0.44097852547491634,0.16685707313946488,37.5,0.0,0.9894684288931785,2.344045962878277
1648125572090280411,30833,14,5,2.41632270813,-0.902457654476,0.489203602076,0.0,37.5,0.808134684993311,-0.30182530250033446,0.16361324484147155,37.5,0.0,1.182058311339967,2.6253314861615387
1648125572090285167,30834,14,6,0.774757564068,-1.3214558363,-1.16105175018,0.242756426334,37.5,0.25911624216321066,-0.4419584736789297,-0.38831162213377923,37.5,0.03280492247756756,0.5741164919789158,1.922117576260088
1648125572090344319,30835,14,7,0.362606942654,1.74191904068,0.727165877819,0.242756426334,37.5,0.12127322496789297,0.5825816189565217,0.2431992902404682,37.5,0.03280492247756756,0.6073020113042836,1.9221175700275699
1648125572090361008,30836,14,8,0.890631973743,-1.4196126461,-1.70528721809,0.242756426334,37.5,0.297870225332107,-0.4747868381605351,-0.5703301732742475,37.5,0.03280492247756756,0.6347250459602791,2.390926572231261
1648125572090364815,30837,14,9,1.11554646492,-0.373582273722,-2.08147120476,0.242756426334,37.5,0.37309246318394645,-0.12494390425484948,-0.696144215638796,37.5,0.03280492247756756,0.5422240785687904,2.390926600061126
1648125572191183862,30838,15,0,0.00656197406352,0.0454158857465,0.00959989894181,0.0,18.8999996185,0.002194640155023411,0.015189259446989964,0.0032106685424113713,18.8999996185,0.0,0.015503112376811833,0.04688091553545446
1648125572191187175,30839,15,1,0.0327667072415,0.0146502861753,-0.030158450827,0.0,18.8999996185,0.010958764963712373,0.0048997612626421405,-0.010086438403678928,18.8999996185,0.0,0.016254129305830818,0.0468809145042301
1648125572191205600,30840,15,2,0.677587211132,0.0747164562345,0.412871688604,0.0,18.8999996185,0.2266177963652174,0.024988781349331104,0.13808417679063542,18.8999996185,0.0,0.32145869167309654,0.7969755383778111
1648125572191212610,30841,15,3,0.27233800292,-1.58955609798,0.302445560694,0.0,18.8999996185,0.09108294412040133,-0.5316241130367892,0.1011523614361204,18.8999996185,0.0,0.5470067668515931,1.6408320735661421
1648125572191232876,30842,15,4,2.4163415432,-0.902457654476,0.48911011219,0.0,18.8999996185,0.8081409843478261,-0.30182530250033446,0.16358197732107022,18.8999996185,0.0,1.1820669246682969,2.6253314025781576
1648125572191266708,30843,15,5,0.626434803009,0.153828009963,0.280046343803,0.161837622523,18.8999996185,0.20950996756153845,0.05144749497090301,0.09366098454949831,18.8999996185,0.021869948989594594,0.3007252861899958,0.7032137468419752
1648125572191288591,30844,15,6,2.12909126282,-0.304725944996,-1.14761412144,0.161837622523,18.8999996185,0.7120706564615383,-0.10191503177123744,-0.3838174319197324,18.8999996185,0.021869948989594594,1.0121639754941216,2.437807555714493
1648125572191291736,30845,15,7,0.762736916542,-1.21890377998,1.96860659122,0.161837622523,18.8999996185,0.255095958709699,-0.407660127083612,0.6583968532508361,18.8999996185,0.021869948989594594,0.5443663063727103,2.4378076092465455
1648125572191293761,30846,15,8,0.923753678799,-1.34489619732,-1.74770224094,0.242756426334,18.8999996185,0.3089477186618729,-0.4497980593043478,-0.584515799645485,18.8999996185,0.03280492247756756,0.6270691189069265,2.390926549195349
1648125572191295677,30847,15,9,1.91194629669,-0.224149376154,-1.4180085659,0.242756426334,18.8999996185,0.6394469219698996,-0.07496634653979932,-0.4742503564882942,18.8999996185,0.03280492247756756,0.9074164893515452,2.390926572946691
1648125572290272500,30848,16,0,0.00653523253277,0.0454158857465,0.00961812306195,0.0,17.0,0.0021856964992541805,0.015189259446989964,0.003216763565869565,17.0,0.0,0.015500585179975556,0.04688091545214674
1648125572290279548,30849,16,1,0.0328052677214,0.0146502861753,-0.0301165021956,0.0,17.0,0.01097166144528428,0.0048997612626421405,-0.010072408761070234,17.0,0.0,0.01627152021695464,0.04688091487789562
1648125572290288234,30850,16,2,0.485424041748,-1.53828001022,0.300646007061,0.0,17.0,0.16234917784214045,-0.51447491980602,0.10055050403377924,17.0,0.0,0.5633817126970386,1.6408320790718136
1648125572290424114,30851,16,3,1.87246525288,-1.31852579117,0.499914884567,0.0,17.0,0.6262425594916388,-0.44097852547491634,0.16719561356755852,17.0,0.0,0.9893541057514791,2.3440459204194517
1648125572290436588,30852,16,4,2.41837286949,-0.902457654476,0.478965491056,0.0,17.0,0.8088203576889632,-0.30182530250033446,0.16018912744347824,17.0,0.0,1.1829958813341757,2.6253314258641964
1648125572290441507,30853,16,5,0.603569507599,0.219754293561,0.286219269037,0.242756426334,17.0,0.20186271157157187,0.07349641925117056,0.09572550803913044,17.0,0.03280492247756756,0.2947860788585497,0.703213744184418
1648125572290443978,30854,16,6,0.602071583271,-0.0776465162635,2.40938949585,0.242756426334,17.0,0.20136173353545148,-0.025968734536287622,0.8058158848996656,17.0,0.03280492247756756,0.2859501191435676,2.4846884946774765
1648125572290574563,30855,16,7,1.7776376009,0.399952799082,0.151416152716,-0.161837622523,17.0,0.5945276257190635,0.13376347795384613,0.05064085375117057,17.0,-0.021869948989594594,0.8513629446485222,1.8283556910323409
1648125572390246549,30856,17,0,0.0126418694854,0.0439508594573,0.0103114163503,0.0,18.6000003815,0.004228049995117057,0.014699284099431437,0.0034486342308695647,18.6000003815,0.0,0.01586889304766456,0.04688091528831811
1648125572390257918,30857,17,1,0.032754637301,0.0146502861753,-0.0301715619862,0.0,18.6000003815,0.010954728194314381,0.0048997612626421405,-0.010090823406755852,18.6000003815,0.0,0.016248686102374597,0.046880916185857074
1648125572390263795,30858,17,2,0.278927356005,-1.58955609798,0.29637953639,0.0,18.6000003815,0.09328674113879598,-0.5316241130367892,0.09912359076588627,18.6000003815,0.0,0.5477490572394865,1.6408320718903853
1648125572390292629,30859,17,3,2.42033576965,-0.902457654476,0.468945086002,0.0,18.6000003815,0.8094768460367892,-0.30182530250033446,0.15683782140535116,18.6000003815,0.0,1.1838935939385573,2.6253313218820598
1648125572390300227,30860,17,4,0.805175662041,0.184593603015,0.172368943691,0.242756426334,18.6000003815,0.2692895190772575,0.06173699097491638,0.05764847615083612,18.6000003815,0.03280492247756756,0.3858045440690897,0.8438564438139778
1648125572390309257,30861,17,5,0.87290674448,-1.10463154316,-2.3262181282,0.242756426334,18.6000003815,0.29194205501003345,-0.3694419876789297,-0.777999373979933,18.6000003815,0.03280492247756756,0.554028617696885,2.719093196392692
1648125572390324364,30862,17,6,2.70528292656,-0.169943317771,0.214549347758,0.242756426334,18.6000003815,0.90477689851505,-0.05683723002374581,0.07175563470167223,18.6000003815,0.03280492247756756,1.2808094873515727,2.719093206680388
1648125572390331269,30863,17,7,0.641412436962,0.281285494566,0.268534004688,0.323675245047,18.6000003815,0.21451920968628763,0.09407541624280935,0.08981070390903009,18.6000003815,0.04373989797932432,0.31762740213986057,0.7500946309743496
1648125572390333260,30864,17,8,0.363875359297,-1.1646977663,2.16442847252,0.323675245047,18.6000003815,0.12169744458093644,-0.38953102551839464,0.7238891212441472,18.6000003815,0.04373989797932432,0.42585790573438037,2.484688466706237
1648125572390337030,30865,17,9,1.35751390457,0.0776465162635,-2.07961630821,0.323675245047,18.6000003815,0.4540180282842809,0.025968734536287622,-0.6955238488996655,18.6000003815,0.04373989797932432,0.642603388714772,2.484688506022784
1648125572390339988,30866,17,10,1.98094201088,0.386767566204,0.425746381283,0.485512852669,18.6000003815,0.6625224116655518,0.1293537010715719,0.14239009407458195,18.6000003815,0.06560984495527027,0.9458352244969477,2.0627603791793736
1648125572390343985,30867,17,11,1.77263915539,1.30827057362,-0.0341066680849,-0.242756426334,18.6000003815,0.592855904812709,0.4375486868294314,-0.01140691240297659,18.6000003815,-0.03280492247756756,0.9457299303124289,2.2034029894301295
1648125572491189640,30868,18,0,0.0126754716039,0.0439508594573,0.0102700833231,0.0,12.8000001907,0.0042392881618394645,0.014699284099431437,0.0034348104759531766,12.8000001907,0.0,0.015874888386191013,0.04688091550812579
1648125572491202708,30869,18,1,0.0327790863812,0.0146502861753,-0.0301449969411,0.0,12.8000001907,0.010962905144214047,0.0048997612626421405,-0.010081938776287625,12.8000001907,0.0,0.016259712138686776,0.046880915408973045
1648125572491331197,30870,18,2,0.279023349285,-1.58955609798,0.296289175749,0.0,12.8000001907,0.09331884591471572,-0.5316241130367892,0.09909336981571905,12.8000001907,0.0,0.5477599944938127,1.6408320735948712
1648125572491337006,30871,18,3,1.87205243111,-1.31852579117,0.501458406448,0.0,12.8000001907,0.6261044920100334,-0.44097852547491634,0.16771184162140468,12.8000001907,0.0,0.9891793213367914,2.344045882699975
1648125572491344827,30872,18,4,2.42006754875,-0.902457654476,0.470327496529,0.0,12.8000001907,0.8093871400501672,-0.30182530250033446,0.1573001660632107,12.8000001907,0.0,1.1837709230195665,2.6253313529203117
1648125572491373023,30873,18,5,0.678332090378,0.398487776518,0.127448707819,0.242756426334,12.8000001907,0.22686691985886287,0.1332735038521739,0.04262498589264214,12.8000001907,0.03280492247756756,0.34741765280643244,0.7969755993727659
1648125572491379377,30874,18,6,0.635178565979,0.328166425228,0.226929485798,0.323675245047,12.8000001907,0.21243430300301003,0.10975465726688963,0.07589614909632107,12.8000001907,0.04373989797932432,0.31984801230666066,0.7500946639262328
1648125572491387025,30875,18,7,1.67586517334,0.509829938412,-2.07966756821,0.323675245047,12.8000001907,0.5604900245284281,0.1705116850876254,-0.6955409927123746,12.8000001907,0.04373989797932432,0.8107850331272634,2.7190932017089056
1648125572491456184,30876,18,8,1.46242117882,0.679773271084,-2.18922352791,0.323675245047,12.8000001907,0.48910407318394644,0.22734892009498325,-0.7321817819096988,12.8000001907,0.04373989797932432,0.728102410570525,2.719093058263403
1648125572491473937,30877,18,9,0.771371126175,0.290075659752,0.181484088302,0.404594063759,12.8000001907,0.25798365423913044,0.09701527082006689,0.06069701949899665,12.8000001907,0.05467487348094594,0.3775223099121976,0.8438564907517474
1648125572491500772,30878,18,10,0.37137696147,-0.949338555336,-2.31725692749,0.566431701183,12.8000001907,0.12420634162876253,-0.3175045335571906,-0.7750023168862875,12.8000001907,0.07654482448418919,0.36285473599082446,2.531569514779029
1648125572491637362,30879,18,11,1.62842428684,-1.89867711067,0.390004247427,0.566431701183,12.8000001907,0.5446235073043478,-0.6350090671137123,0.1304362031528428,12.8000001907,0.07654482448418919,0.9982314584972792,2.531569422623769
1648125572491806207,30880,18,12,1.40299618244,-0.0,-1.57549607754,-0.647350490093,12.8000001907,0.4692294924548494,-0.0,-0.5269217650635452,12.8000001907,-0.08747979595851352,0.6635907120950919,2.1096412439761267
1648125572590308117,30881,19,0,0.00656197406352,0.0454158857465,0.00959989894181,0.0,25.8999996185,0.002194640155023411,0.015189259446989964,0.0032106685424113713,25.8999996185,0.0,0.015503112376811833,0.04688091553545446
1648125572590315288,30882,19,1,0.0327667072415,0.0146502861753,-0.030158450827,0.0,25.8999996185,0.010958764963712373,0.0048997612626421405,-0.010086438403678928,25.8999996185,0.0,0.016254129305830818,0.0468809145042301
1648125572590465185,30883,19,2,0.499477833509,-1.53828001022,0.276670247316,0.0,25.8999996185,0.16704944264515048,-0.51447491980602,0.09253185528963209,25.8999996185,0.0,0.5661231983283511,1.6408320821336912
1648125572590469514,30884,19,3,1.87488019466,-1.31852579117,0.490780472755,0.0,25.8999996185,0.6270502323277591,-0.44097852547491634,0.16414062633946486,25.8999996185,0.0,0.9903767200689971,2.3440459634457715
1648125572590471452,30885,19,4,2.39107894897,-0.984499275684,0.45372697711,0.0,25.8999996185,0.7996919561772575,-0.32926397180066885,0.15174815287959864,25.8999996185,0.0,1.1778918510097474,2.625331509312144
1648125572590472646,30886,19,5,0.659307360649,0.398487776518,0.204184532166,0.323675245047,25.8999996185,0.22050413399632104,0.1332735038521739,0.06828914119264214,25.8999996185,0.04373989797932432,0.339125305820681,0.7969755498232416
1648125572590476565,30887,19,6,0.780047535896,0.361862063408,0.232368037105,0.566431701183,25.8999996185,0.26088546351036784,0.12102410147424747,0.07771506257692308,25.8999996185,0.07654482448418919,0.3882902049752065,0.8907374561897279
1648125572590628284,30888,19,7,1.00035262108,-1.6173915863,1.01682150364,0.566431701183,25.8999996185,0.33456609400668896,-0.54093364090301,0.3400740814849498,25.8999996185,0.07654482448418919,0.718664140178409,2.156521940579406
1648125572590693160,30889,19,8,2.04352712631,0.471739202738,0.502041459084,0.566431701183,25.8999996185,0.6834538883979933,0.15777230860802674,0.16790684250301002,25.8999996185,0.07654482448418919,0.979341889483024,2.156521879787887
1648125572691150289,30890,20,0,0.00650562345982,0.0454158857465,0.00963817536831,0.0,22.1000003815,0.002175793799270903,0.015189259446989964,0.0032234700228461533,22.1000003815,0.0,0.015497798548886397,0.04688091551122268
1648125572691164161,30891,20,1,0.0328052677214,0.0146502861753,-0.0301165021956,0.0,22.1000003815,0.01097166144528428,0.0048997612626421405,-0.010072408761070234,22.1000003815,0.0,0.01627152021695464,0.04688091487789562
1648125572691170028,30892,20,2,0.484535068274,-1.53828001022,0.302076637745,0.0,22.1000003815,0.16205186229899665,-0.51447491980602,0.10102897583444814,22.1000003815,0.0,0.5632104893008978,1.6408320807751953
1648125572691312428,30893,20,3,1.8419803381,-1.39177727699,0.40572860837,0.0,22.1000003815,0.616046935819398,-0.4654773501638796,0.1356951867458194,22.1000003815,0.0,0.987773667284427,2.344045916432216
1648125572691317422,30894,20,4,2.39110207558,-0.984499275684,0.453604191542,0.0,22.1000003815,0.7996996908294314,-0.32926397180066885,0.1517070874722408,22.1000003815,0.0,1.1779023534025763,2.6253313547531056
1648125572691319527,30895,20,5,0.803452968597,0.410208016634,0.255579382181,0.242756426334,22.1000003815,0.2687133674237458,0.13719331659999998,0.08547805424113712,22.1000003815,0.03280492247756756,0.4040244470129572,0.9376183180026687
1648125572691322699,30896,20,6,1.12335717678,0.7779302001,-2.40489196777,0.242756426334,22.1000003815,0.37570474139799326,0.26017732444816055,-0.8043116949063543,22.1000003815,0.03280492247756756,0.5916082703739607,2.7659739911097176
1648125572691327274,30897,20,7,1.74102973938,-0.4321834445,-2.10538482666,0.242756426334,22.1000003815,0.5822841937725752,-0.14454295802675585,-0.7041420824949832,22.1000003815,0.03280492247756756,0.8360636526903202,2.7659740330371205
1648125572691374605,30898,20,8,0.135238915682,0.395557701588,0.733033597469,0.323675245047,22.1000003815,0.04523040658260869,0.13229354568160534,0.24516173828394647,22.1000003815,0.04373989797932432,0.14694611797617244,0.8438564537993226
1648125572691409165,30899,20,9,0.833780229092,0.523015201092,-0.0224571134895,0.323675245047,22.1000003815,0.2788562639103679,0.1749214719371237,-0.007510740297491638,22.1000003815,0.04373989797932432,0.4314152908610767,0.9844992092146613
1648125572691505548,30900,20,10,1.44975137711,-1.41521763802,0.738895714283,0.323675245047,22.1000003815,0.4848666813076922,-0.47331693579264206,0.24712231246923078,22.1000003815,0.04373989797932432,0.8331988472104401,2.156521944006375
1648125572886009603,30901,22,0,0.00653523253277,0.0454158857465,0.00961812306195,0.0,21.7000007629,0.0021856964992541805,0.015189259446989964,0.003216763565869565,21.7000007629,0.0,0.015500585179975556,0.04688091545214674
1648125572886113524,30902,22,1,0.0327422693372,0.0146502861753,-0.0301849804819,0.0,21.7000007629,0.010950591751571906,0.0048997612626421405,-0.010095311197959865,21.7000007629,0.0,0.016243108687996822,0.046880914379527815
1648125572886130140,30903,22,2,0.321328252554,-1.58955609798,0.249778822064,0.0,21.7000007629,0.10746764299464882,-0.5316241130367892,0.08353806757993311,21.7000007629,0.0,0.5529220434598384,1.6408320738169675
1648125572886258259,30904,22,3,2.39088773727,-0.984499275684,0.45473253727,0.0,21.7000007629,0.7996280057759196,-0.32926397180066885,0.15208446062541806,21.7000007629,0.0,1.1778050171264767,2.6253313460404177
1648125572886262096,30905,22,4,1.09484505653,0.632892370224,-0.0545212998986,0.0809188112617,21.7000007629,0.36616891522742473,0.21166968903812708,-0.018234548461070234,21.7000007629,0.010934974494824324,0.559431323948843,1.2657847456177391
1648125572886263969,30906,22,5,0.702989518642,0.501039803028,0.219494998455,0.242756426334,21.7000007629,0.23511355138528425,0.16757184047759197,0.0734096984799331,21.7000007629,0.03280492247756756,0.37234001371199543,0.8907374483458121
1648125572886272244,30907,22,6,0.784493684769,0.773535132408,-0.228380292654,0.323675245047,21.7000007629,0.262372469822408,0.2587074021431438,-0.076381368780602,21.7000007629,0.04373989797932432,0.45233631930796264,1.125141991299157
1648125572886276970,30908,22,7,2.16528725624,-1.52948987484,0.604697167873,0.323675245047,21.7000007629,0.7241763398795986,-0.5115350751973244,0.20223985547591972,21.7000007629,0.04373989797932432,1.1447842048351105,2.7190930186565985
1648125572886279562,30909,22,8,2.32090210915,1.35954654217,0.398138046265,0.323675245047,21.7000007629,0.7762214411872909,0.4546978401906354,0.13315653721237458,21.7000007629,0.04373989797932432,1.1881875177730905,2.719093103309821
1648125572991177480,30910,23,0,0.0126552544534,0.0439508594573,0.0102949859574,0.0,12.6999998093,0.004232526573043478,0.014699284099431437,0.003443139116187291,12.6999998093,0.0,0.015871279577237503,0.0468809156072991
1648125572991179967,30911,23,1,0.032754637301,0.0146502861753,-0.0301715619862,0.0,12.6999998093,0.010954728194314381,0.0048997612626421405,-0.010090823406755852,12.6999998093,0.0,0.016248686102374597,0.046880916185857074
1648125572991182917,30912,23,2,0.492185950279,-1.53828001022,0.289443463087,0.0,12.6999998093,0.1646106857120401,-0.51447491980602,0.09680383380836119,12.6999998093,0.0,0.5646926587185164,1.6408320809328056
1648125572991184888,30913,23,3,2.39159059525,-0.984499275684,0.451021194458,0.0,12.6999998093,0.799863075334448,-0.32926397180066885,0.1508432088488294,12.6999998093,0.0,1.178124204696989,2.6253313156553957
1648125572991188670,30914,23,4,0.722296357155,0.556710898876,0.217919871211,0.161837622523,12.6999998093,0.24157068801170564,0.18619093607892975,0.07288290007056857,12.6999998093,0.021869948989594594,0.38907564726007426,0.9376183246691193
1648125572991207501,30915,23,5,0.764830470085,0.606521844864,0.458052784204,0.161837622523,12.6999998093,0.25579614384113714,0.20285011533913042,0.1531949111050167,12.6999998093,0.021869948989594594,0.41474269577786416,1.0782609838924473
1648125572991387274,30916,23,6,1.0418806076,0.712003946304,-0.0987222418189,0.161837622523,12.6999998093,0.3484550527090301,0.23812841013511704,-0.03301747218023411,12.6999998093,0.021869948989594594,0.5473088590826796,1.2657846977567566
1648125572991391167,30917,23,7,2.32101297379,1.35954654217,0.397492021322,0.323675245047,12.6999998093,0.7762585196622073,0.4546978401906354,0.13294047535852843,12.6999998093,0.04373989797932432,1.1882359633382384,2.7190932186746655
1648125572991403312,30918,23,8,2.16045165062,-1.52948987484,0.621753275394,0.323675245047,12.6999998093,0.7225590804749165,-0.5115350751973244,0.20794423926220737,12.6999998093,0.04373989797932432,1.1427385452108658,2.71909318475258
1648125573186138149,30919,25,0,0.00653523253277,0.0454158857465,0.00961812306195,0.0,13.5,0.0021856964992541805,0.015189259446989964,0.003216763565869565,13.5,0.0,0.015500585179975556,0.04688091545214674
1648125573186142467,30920,25,1,0.0327422693372,0.0146502861753,-0.0301849804819,0.0,13.5,0.010950591751571906,0.0048997612626421405,-0.010095311197959865,13.5,0.0,0.016243108687996822,0.046880914379527815
1648125573186313832,30921,25,2,0.46069175005,0.140642747283,-1.01682209969,0.0,13.5,0.15407750837792641,0.047037708121404675,-0.34007428083277585,13.5,0.0,0.22291770490747123,1.1251419703066017
1648125573186320862,30922,25,3,0.779660463333,0.808695793152,0.0639155879617,0.0,13.5,0.2607560078036789,0.2704668204521739,0.021376450823311032,13.5,0.0,0.4573179333646703,1.125142002740481
1648125573186341673,30923,25,4,2.39205026627,-0.984499275684,0.448577135801,0.0,13.5,0.8000168114615385,-0.32926397180066885,0.15002579792675586,13.5,0.0,1.1783329581948072,2.6253313594569594
1648125573186479619,30924,25,5,0.74600070715,0.775000095367,-0.0741925537586,0.0809188112617,13.5,0.24949856426421402,0.25919735631003343,-0.02481356312996655,13.5,0.010934974494824324,0.4378154139108384,1.0782609785763286
1648125573186483124,30925,25,6,0.58010083437,0.703213751316,0.219320610166,0.242756426334,13.5,0.1940136569799331,0.23518854559063543,0.07335137463745818,13.5,0.03280492247756756,0.36138103182996845,0.9376183061994245
1648125573186485688,30926,25,7,0.701653063297,0.879017174244,0.0309246759862,0.242756426334,13.5,0.23466657635351168,0.29398567700468226,0.010342700998729096,13.5,0.03280492247756756,0.4433558191778455,1.1251420130076124
1648125573291191207,30927,26,0,0.0126552544534,0.0439508594573,0.0102949859574,0.0,17.1000003815,0.004232526573043478,0.014699284099431437,0.003443139116187291,17.1000003815,0.0,0.015871279577237503,0.0468809156072991
1648125573291196586,30928,26,1,0.032754637301,0.0146502861753,-0.0301715619862,0.0,17.1000003815,0.010954728194314381,0.0048997612626421405,-0.010090823406755852,17.1000003815,0.0,0.016248686102374597,0.046880916185857074
1648125573291199546,30929,26,2,2.4214849472,-0.902457654476,0.462975531816,0.0,17.1000003815,0.8098611863545151,-0.30182530250033446,0.15484131498862874,17.1000003815,0.0,1.1844191806773916,2.625331504914916
1648125573291203873,30930,26,3,0.703807830811,0.775000095367,0.258217215538,0.0809188112617,17.1000003815,0.2353872343849498,0.25919735631003343,0.08636027275518393,17.1000003815,0.010934974494824324,0.42189758205149863,1.0782609799718907
1648125573291206939,30931,26,4,0.561932086945,0.73837441206,0.329050540924,0.242756426334,17.1000003815,0.1879371528244147,0.24694796389966553,0.11005034813511705,17.1000003815,0.03280492247756756,0.3628002807298877,0.9844992134103971
1648125573291334094,30932,26,5,1.11219155788,0.835066318512,-0.209123030305,0.404594063759,17.1000003815,0.3719704206956521,0.2792863941511705,-0.06994081281103678,17.1000003815,0.05467487348094594,0.5955878421383061,1.4064274810798714
1648125573486231738,30933,28,0,0.00650562345982,0.0454158857465,0.00963817536831,0.0,16.5,0.002175793799270903,0.015189259446989964,0.0032234700228461533,16.5,0.0,0.015497798548886397,0.04688091551122268
1648125573486239363,30934,28,1,0.0328296348453,0.0146502861753,-0.0300899371505,0.0,16.5,0.010979810985050166,0.0048997612626421405,-0.010063524130602006,16.5,0.0,0.016282510831126296,0.04688091431291589
1648125573486244667,30935,28,2,2.39178776741,-0.984499275684,0.449975013733,0.0,16.5,0.7999290192006688,-0.32926397180066885,0.15049331562976587,16.5,0.0,1.178213747434921,2.62533141929518
1648125573486249713,30936,28,3,0.476315557957,0.842391431332,0.475549072027,0.0809188112617,16.5,0.15930286219297657,0.2817362646595318,0.15904651238361203,16.5,0.010934974494824324,0.36073553557981325,1.078260986143524
1648125573486252536,30937,28,4,0.923773527145,1.17202293873,-0.153533637524,0.242756426334,16.5,0.30895435690468226,0.3919809159632107,-0.05134904265016722,16.5,0.03280492247756756,0.5869877577770505,1.5001892801292012
1648125573486255352,30938,28,5,1.14142870903,1.78586983681,-1.29672145844,0.242756426334,16.5,0.3817487321170568,0.5972808818762542,-0.4336861065016722,16.5,0.03280492247756756,0.8051140545294416,2.4846885343246603
1648125573591260707,30939,29,0,0.00656197406352,0.0454158857465,0.00959989894181,0.0,18.7000007629,0.002194640155023411,0.015189259446989964,0.0032106685424113713,18.7000007629,0.0,0.015503112376811833,0.04688091553545446
1648125573591268806,30940,29,1,0.0328052677214,0.0146502861753,-0.0301165021956,0.0,18.7000007629,0.01097166144528428,0.0048997612626421405,-0.010072408761070234,18.7000007629,0.0,0.01627152021695464,0.04688091487789562
1648125573591271673,30941,29,2,0.478096544743,-1.53828001022,0.31216698885,0.0,18.7000007629,0.15989850994749163,-0.51447491980602,0.10440367520066889,18.7000007629,0.0,0.5619782113892556,1.640832083080202
1648125573591274889,30942,29,3,2.39183163643,-0.984499275684,0.449741393328,0.0,18.7000007629,0.7999436911137123,-0.32926397180066885,0.15041518171505017,18.7000007629,0.0,1.1782336699616136,2.625331354652655
1648125573591392792,30943,29,4,0.621841073036,0.876087069511,0.0918252393603,0.161837622523,18.7000007629,0.20797360302207357,0.2930057088665552,0.030710782394749163,18.7000007629,0.021869948989594594,0.41516067315722305,1.078260983279332
1648125573786141924,30944,31,0,0.00639936653897,0.0454158857465,0.00970905087888,0.0,33.0,0.0021402563675484948,0.015189259446989964,0.0032471742069832775,33.0,0.0,0.01548789841087672,0.046880915511622746
1648125573786146964,30945,31,1,0.0327667072415,0.0146502861753,-0.030158450827,0.0,33.0,0.010958764963712373,0.0048997612626421405,-0.010086438403678928,33.0,0.0,0.016254129305830818,0.0468809145042301
1648125573786174259,30946,31,2,0.480999022722,-1.53828001022,0.30767595768,0.0,33.0,0.16086923836856187,-0.51447491980602,0.10290165808695652,33.0,0.0,0.5625320140365107,1.6408320891048747
1648125573786291486,30947,31,3,1.86874914169,-1.31852579117,0.513631999493,0.0,33.0,0.6249997129397993,-0.44097852547491634,0.171783277422408,33.0,0.0,0.987781019396351,2.3440459567702083
1648125573786295470,30948,31,4,2.39139413834,-0.984499275684,0.452062636614,0.0,33.0,0.7997973706822742,-0.32926397180066885,0.15119151726220734,33.0,0.0,1.1780349873524596,2.6253314792863076
1648125573786299103,30949,31,5,0.581804037094,0.949338555336,0.161879271269,0.242756426334,33.0,0.1945832899979933,0.3175045335571906,0.054140224504682276,33.0,0.03280492247756756,0.4201600198998656,1.125142003790145
1648125573786304310,30950,31,6,0.40480774641,0.902457654476,0.292311280966,-0.0809188112617,33.0,0.13538720615719063,0.30182530250033446,0.09776297022274247,33.0,-0.010934974494824324,0.3574323773967849,1.0313801504081073
1648125573891224830,30951,32,0,0.0126754716039,0.0439508594573,0.0102700833231,0.0,17.6000003815,0.0042392881618394645,0.014699284099431437,0.0034348104759531766,17.6000003815,0.0,0.015874888386191013,0.04688091550812579
1648125573891230245,30952,32,1,0.0327422693372,0.0146502861753,-0.0301849804819,0.0,17.6000003815,0.010950591751571906,0.0048997612626421405,-0.010095311197959865,17.6000003815,0.0,0.016243108687996822,0.046880914379527815
1648125573891237652,30953,32,2,0.479964196682,-1.53828001022,0.309287726879,0.0,17.6000003815,0.16052314270301002,-0.51447491980602,0.10344071133076924,17.6000003815,0.0,0.5623342438407184,1.640832080968988
1648125573891355285,30954,32,3,1.87187457085,-1.31852579117,0.502121925354,0.0,17.6000003815,0.6260450069732441,-0.44097852547491634,0.16793375429899665,17.6000003815,0.0,0.9891040195258989,2.344045882421365
1648125573891358599,30955,32,4,2.39182496071,-0.984499275684,0.449778020382,0.0,17.6000003815,0.7999414584314382,-0.32926397180066885,0.15042743156588628,17.6000003815,0.0,1.1782306382711256,2.6253315474652843
1648125573891362007,30956,32,5,0.612649738789,0.988894343376,0.14277985692,0.323675245047,17.6000003815,0.20489957819030097,0.3307338941056856,0.047752460508361204,17.6000003815,0.04373989797932432,0.439718754427688,1.1720229572586776
1648125573891365112,30957,32,6,0.426974952221,0.902457654476,0.258858263493,-0.0809188112617,17.6000003815,0.14280098736488295,0.30182530250033446,0.0865746700645485,17.6000003815,-0.010934974494824324,0.36315665657425217,1.0313801571317243
1648125574086097204,30958,34,0,0.00656197406352,0.0454158857465,0.00959989894181,0.0,18.0,0.002194640155023411,0.015189259446989964,0.0032106685424113713,18.0,0.0,0.015503112376811833,0.04688091553545446
1648125574086104802,30959,34,1,0.0327790863812,0.0146502861753,-0.0301449969411,0.0,18.0,0.010962905144214047,0.0048997612626421405,-0.010081938776287625,18.0,0.0,0.016259712138686776,0.046880915408973045
1648125574086108046,30960,34,2,0.484675973654,-1.53828001022,0.301850527525,0.0,18.0,0.16209898784414714,-0.51447491980602,0.10095335368729097,18.0,0.0,0.5632376113414342,1.6408320847201328
1648125574086111126,30961,34,3,1.87334537506,-1.31852579117,0.496606707573,0.0,18.0,0.6265369147357859,-0.44097852547491634,0.16608919985719062,18.0,0.0,0.9897267658214091,2.3440459420083175
1648125574086124174,30962,34,4,2.39241480827,-0.984499275684,0.44663003087,0.0,18.0,0.8001387318628761,-0.32926397180066885,0.14937459226421404,18.0,0.0,1.1784985123368696,2.6253315644175
1648125574086179879,30963,34,5,0.581180810928,1.06654083729,-0.102205552161,0.242756426334,18.0,0.19437485315317723,0.35670262116722407,-0.034182458916722405,18.0,0.03280492247756756,0.45033312894368166,1.2189037974716121
1648125574086195383,30964,34,6,0.695149302483,0.990359306335,0.147249415517,0.404594063759,18.0,0.23249140551270903,0.3312238482725752,0.049247296159531766,18.0,0.05467487348094594,0.46670520131989507,1.2189038102972038
1648125574086215231,30965,34,7,0.608835875988,0.769140005112,0.0835539624095,0.566431701183,18.0,0.20362403879197324,0.2572374599036789,0.02794446903327759,18.0,0.07654482448418919,0.3861303007089794,0.9844992310754188
1648125574191364632,30966,35,0,0.00656197406352,0.0454158857465,0.00959989894181,0.0,34.2999992371,0.002194640155023411,0.015189259446989964,0.0032106685424113713,34.2999992371,0.0,0.015503112376811833,0.04688091553545446
1648125574191392465,30967,35,1,0.032754637301,0.0146502861753,-0.0301715619862,0.0,34.2999992371,0.010954728194314381,0.0048997612626421405,-0.010090823406755852,34.2999992371,0.0,0.016248686102374597,0.046880916185857074
1648125574191429084,30968,35,2,0.48092392087,-1.53828001022,0.307793319225,0.0,34.2999992371,0.1608441206923077,-0.51447491980602,0.10294090943979932,34.2999992371,0.0,0.5625176489959883,1.6408320861279377
1648125574191591808,30969,35,3,1.87415921688,-1.31852579117,0.493526548147,0.0,34.2999992371,0.6268091026354515,-0.44097852547491634,0.16505904620301,34.2999992371,0.0,0.9900713924881132,2.3440459649765026
1648125574191596935,30970,35,4,2.39241528511,-0.984499275684,0.446626543999,0.0,34.2999992371,0.800138891341137,-0.32926397180066885,0.14937342608662205,34.2999992371,0.0,1.178498728891635,2.625331405757142
1648125574191641540,30971,35,5,0.660426020622,1.06800591946,0.159410774708,0.242756426334,34.2999992371,0.22087826776655514,0.35719261520401335,0.05331464037056856,34.2999992371,0.03280492247756756,0.4745113093482498,1.2657847241174998
1648125574386302317,30972,37,0,0.0126552544534,0.0439508594573,0.0102949859574,0.0,29.5,0.004232526573043478,0.014699284099431437,0.003443139116187291,29.5,0.0,0.015871279577237503,0.0468809156072991
1648125574386334831,30973,37,1,0.0327667072415,0.0146502861753,-0.030158450827,0.0,29.5,0.010958764963712373,0.0048997612626421405,-0.010086438403678928,29.5,0.0,0.016254129305830818,0.0468809145042301
1648125574386355739,30974,37,2,2.39262390137,-0.984499275684,0.445507973433,0.0,29.5,0.8002086626655518,-0.32926397180066885,0.14899932221839465,29.5,0.0,1.1785934713614925,2.6253314670002523
1648125574386359214,30975,37,3,0.271427005529,-1.27164494991,0.179826855659,-0.404594063759,29.5,0.09077826271872909,-0.4252993143511705,0.06014276108996655,29.5,-0.05467487348094594,0.4442531854157457,1.312665683248499
1648125574491366968,30976,38,0,0.00654576485977,0.0454158857465,0.00961095839739,0.0,37.5,0.002189219016645485,0.015189259446989964,0.0032143673569866218,37.5,0.0,0.015501579350300353,0.046880915488660226
1648125574491372308,30977,38,1,0.0327929444611,0.0146502861753,-0.0301299206913,0.0,37.5,0.010967539953545151,0.0048997612626421405,-0.010076896552274247,37.5,0.0,0.01626596218168808,0.04688091522475861
1648125574491376312,30978,38,2,0.552667558193,1.1485824585,0.313700765371,0.0,37.5,0.18483864822508358,0.38414129046822737,0.10491664393678929,37.5,0.0,0.46464522250631973,1.3126657091762808
1648125574491379315,30979,38,3,1.87031781673,-1.31852579117,0.507890045643,0.0,37.5,0.6255243534214047,-0.44097852547491634,0.16986289151939798,37.5,0.0,0.988444987531711,2.3440459244693557
1648125574491382099,30980,38,4,2.39208483696,-0.984499275684,0.448392510414,0.0,37.5,0.8000283735652174,-0.32926397180066885,0.1499640503056856,37.5,0.0,1.1783486581418785,2.625331318982737
1648125574491461619,30981,38,5,0.828293919563,1.06214570999,0.184776827693,0.161837622523,37.5,0.27702137778026753,0.3552326789264214,0.06179827013143812,37.5,0.021869948989594594,0.5288401872700271,1.359546542964781
1648125574491469658,30982,38,6,0.77741330862,1.13539719582,0.467554211617,0.323675245047,37.5,0.26000445104347825,0.37973150361872904,0.1563726460257525,37.5,0.04373989797932432,0.5285836205988431,1.4533083587099502
1648125574686204667,30983,40,0,0.00653523253277,0.0454158857465,0.00961812306195,0.0,23.2000007629,0.0021856964992541805,0.015189259446989964,0.003216763565869565,23.2000007629,0.0,0.015500585179975556,0.04688091545214674
1648125574686226703,30984,40,1,0.032754637301,0.0146502861753,-0.0301715619862,0.0,23.2000007629,0.010954728194314381,0.0048997612626421405,-0.010090823406755852,23.2000007629,0.0,0.016248686102374597,0.046880916185857074
1648125574686232382,30985,40,2,1.87214541435,-1.31852579117,0.501111507416,0.0,23.2000007629,0.626135590083612,-0.44097852547491634,0.16759582187826086,23.2000007629,0.0,0.9892186887987596,2.344045958874728
1648125574686442440,30986,40,3,2.42156720161,-0.902457654476,0.462544471025,0.0,23.2000007629,0.8098886961906353,-0.30182530250033446,0.1546971475,23.2000007629,0.0,1.1844568010966683,2.6253313919791927
1648125574686447513,30987,40,4,0.818868160248,1.14272236824,-0.0409742370248,0.0809188112617,23.2000007629,0.27386894991571903,0.3821813940602007,-0.013703758202274246,23.2000007629,0.010934974494824324,0.5441240864193347,1.4064275178066388
1648125574686449551,30988,40,5,0.895516335964,1.0782610178,0.534763157368,0.242756426334,23.2000007629,0.2995037912923077,0.3606224139799331,0.1788505543036789,23.2000007629,0.03280492247756756,0.5562855089445047,1.5001893097085022
1648125574686540394,30989,40,6,0.51646143198,1.10756158829,0.329827100039,-0.0809188112617,23.2000007629,0.17272957591304347,0.37042193588294314,0.11031006690267559,23.2000007629,-0.010934974494824324,0.4437154756975093,1.2657847362401067
1648125574791179785,30990,41,0,0.0126552544534,0.0439508594573,0.0102949859574,0.0,25.1000003815,0.004232526573043478,0.014699284099431437,0.003443139116187291,25.1000003815,0.0,0.015871279577237503,0.0468809156072991
1648125574791183722,30991,41,1,0.032754637301,0.0146502861753,-0.0301715619862,0.0,25.1000003815,0.010954728194314381,0.0048997612626421405,-0.010090823406755852,25.1000003815,0.0,0.016248686102374597,0.046880916185857074
1648125574791186962,30992,41,2,1.87770235538,-1.31852579117,0.479869604111,0.0,25.1000003815,0.6279940987892977,-0.44097852547491634,0.16049150639163878,25.1000003815,0.0,0.9915721033582963,2.344045911310127
1648125574791189680,30993,41,3,2.42185330391,-0.902457654476,0.461044549942,0.0,25.1000003815,0.8099843825785952,-0.30182530250033446,0.1541955016528428,25.1000003815,0.0,1.184587655377125,2.625331468750818
1648125574791192087,30994,41,4,0.517510414124,1.0782610178,0.905596017838,0.242756426334,25.1000003815,0.17308040606153846,0.3606224139799331,0.30287492235384617,25.1000003815,0.03280492247756756,0.43584650897944377,1.500189320971833
1648125574791198189,30995,41,5,0.910300195217,1.05482065678,0.19169048965,0.404594063759,25.1000003815,0.3044482258250836,0.352782828354515,0.06411053165551839,25.1000003815,0.05467487348094594,0.5566265969192393,1.4064274980261713
1648125574791200806,30996,41,6,0.534578979015,1.10756158829,0.299572378397,-0.0809188112617,25.1000003815,0.17878895619230767,0.37042193588294314,0.10019143090200669,25.1000003815,-0.010934974494824324,0.448490125081854,1.265784723623501
1648125574986076045,30997,43,0,0.0064396969974,0.0454158857465,0.00968234799802,0.0,24.5,0.0021537448151839464,0.015189259446989964,0.0032382434775986625,24.5,0.0,0.01549163761536647,0.046880915502069985
1648125574986081788,30998,43,1,0.0328052677214,0.0146502861753,-0.0301165021956,0.0,24.5,0.01097166144528428,0.0048997612626421405,-0.010072408761070234,24.5,0.0,0.01627152021695464,0.04688091487789562
1648125574986086057,30999,43,2,2.39398694038,-0.984499275684,0.438123464584,0.0,24.5,0.8006645285551839,-0.32926397180066885,0.14652958681739128,24.5,0.0,1.179212507438308,2.625331305711986
1648125574986170329,31000,43,3,0.834469676018,1.06361079216,0.752209305763,0.161837622523,24.5,0.27908684816655516,0.3557226729632107,0.2515750186498328,24.5,0.021869948989594594,0.5313356356383175,1.5470702624862462
1648125574986172350,31001,43,4,0.989476621151,1.0782610178,0.329935103655,0.323675245047,24.5,0.3309286358364548,0.3606224139799331,0.11034618851337792,24.5,0.04373989797932432,0.5908265815769194,1.5001893143651328
1648125574986176148,31002,43,5,0.658173501492,1.1896032095,0.00433036359027,-0.161837622523,24.5,0.2201249168869565,0.39786060518394645,0.0014482821372140467,24.5,-0.021869948989594594,0.5051762259116269,1.3595465810952432
1648125574986184312,31003,43,6,0.663471579552,0.990359306335,0.254402011633,-0.0809188112617,24.5,0.22189684934849496,0.3312238482725752,0.08508428482709031,24.5,-0.010934974494824324,0.45627366915708745,1.218903800978767
1648125575091111930,31004,44,0,0.00653523253277,0.0454158857465,0.00961812306195,0.0,22.8999996185,0.0021856964992541805,0.015189259446989964,0.003216763565869565,22.8999996185,0.0,0.015500585179975556,0.04688091545214674
1648125575091267884,31005,44,1,0.0327422693372,0.0146502861753,-0.0301849804819,0.0,22.8999996185,0.010950591751571906,0.0048997612626421405,-0.010095311197959865,22.8999996185,0.0,0.016243108687996822,0.046880914379527815
1648125575091271989,31006,44,2,0.647407412529,0.990359306335,0.292879849672,0.0,22.8999996185,0.21652421823712373,0.3312238482725752,0.09795312698060199,22.8999996185,0.0,0.45108171303089767,1.2189038189232695
1648125575091274036,31007,44,3,0.727360606194,1.14711737633,0.058609906584,0.0,22.8999996185,0.24326441678729097,0.3836512964314381,0.019601975446153844,22.8999996185,0.0,0.5153091016111057,1.3595465595818743
1648125575091288638,31008,44,4,1.83938348293,-1.39177727699,0.417343497276,0.0,22.8999996185,0.6151784223846153,-0.4654773501638796,0.13957976497525082,22.8999996185,0.0,0.9866905017536326,2.344045899879087
1648125575091289865,31009,44,5,2.39405751228,-0.984499275684,0.4377386868,0.0,22.8999996185,0.8006881311973243,-0.32926397180066885,0.1464008985953177,22.8999996185,0.0,1.179244559031959,2.625331475042344
1648125575091291058,31010,44,6,0.389631450176,1.05482065678,0.0385386832058,0.0809188112617,22.8999996185,0.1303115217979933,0.352782828354515,0.012889191707625416,22.8999996185,0.010934974494824324,0.39801747374760943,1.1251419977226345
1648125575091292140,31011,44,7,0.701661229134,0.105482056737,-0.873206436634,0.0809188112617,22.8999996185,0.23466930740267555,0.035278279845150494,-0.2920422864996655,22.8999996185,0.010934974494824324,0.33374230283638845,1.1251419580401183
1648125575091293298,31012,44,8,1.03503394127,1.11195671558,0.292717576027,0.242756426334,22.8999996185,0.3461651977491639,0.37189187812040136,0.09789885485852842,22.8999996185,0.03280492247756756,0.6147879774990358,1.5470703203860818
1648125575091294370,31013,44,9,1.0151848793,1.0782610178,0.239417716861,0.323675245047,22.8999996185,0.33952671548494984,0.3606224139799331,0.08007281500367892,22.8999996185,0.04373989797932432,0.6005042102439503,1.5001893229900622
1648125575091297407,31014,44,10,0.657800912857,1.1896032095,0.0225621685386,-0.242756426334,22.8999996185,0.22000030530334447,0.39786060518394645,0.007545875765418059,22.8999996185,-0.03280492247756756,0.5050676487605058,1.3595465745818962
