%time,field.header.seq,field.header.frame_id,field.point_id,field.x,field.y,field.z,field.velocity,field.intensity,normalized_x,normalized_y,normalized_z,normalized_intensity,normalized_velocity,normalized_range,range
1648218257040036599,26825,0,0,0.00490374397486,0.0454158857465,0.0105437589809,0.0,25.5,0.0016400481521270903,0.015189259446989964,0.0035263407962876255,25.5,0.0,0.0153653219436029,0.04688091548335449
1648218257040042127,26826,0,1,0.0334805957973,0.0146502861753,-0.029363906011,0.0,25.5,0.011197523678026755,0.0048997612626421405,-0.009820704351505017,25.5,0.0,0.016576390845742875,0.046880914626137686
1648218257040044103,26827,0,2,1.16826879978,1.46502864361,-0.0731530711055,0.0,25.5,0.39072535109698997,0.489976134986622,-0.024465910068729096,25.5,0.0,0.7385182549105748,1.8752365949259109
1648218257040047079,26828,0,3,0.921374499798,-0.632892370224,0.1282992661,0.161837622523,25.5,0.3081520066214047,-0.21166968903812708,0.0429094535451505,25.5,0.021869948989594594,0.4844784573405652,1.1251419567537093
1648218257040075537,26829,0,4,1.00789582729,-0.594801604748,0.69189876318,0.161837622523,25.5,0.3370889054481605,-0.19893030259130434,0.23140426862207356,25.5,0.021869948989594594,0.5165569916684369,1.3595465590296654
1648218257040120148,26830,0,5,0.766186952591,-0.584546387196,0.201250463724,-0.0809188112617,25.5,0.2562498169200669,-0.1955004639451505,0.0673078473993311,25.5,-0.010934974494824324,0.4117625149839464,0.9844991997222264
1648218257235267896,26831,2,0,0.00493015442044,0.0454158857465,0.0105314357206,0.0,28.2999992371,0.001648881077070234,0.015189259446989964,0.003522219304548495,28.2999992371,0.0,0.015367212504570061,0.04688091551031885
1648218257235272070,26832,2,1,0.0334949493408,0.0146502861753,-0.0293475333601,0.0,28.2999992371,0.011202324194247491,0.0048997612626421405,-0.009815228548528428,28.2999992371,0.0,0.016582876564002216,0.046880915420703204
1648218257235405321,26833,2,2,0.767344534397,-0.584546387196,0.196790888906,0.0,28.2999992371,0.2566369680257525,-0.1955004639451505,0.06581635080468226,28.2999992371,0.0,0.4122444640230737,0.9844992469317884
1648218257235410029,26834,2,3,1.19462549686,1.50165438652,-0.111535228789,0.0,28.2999992371,0.39954029995317725,0.5022255473311037,-0.03730275210334448,28.2999992371,0.0,0.7559731496325622,1.922117603468574
1648218257235411648,26835,2,4,1.26041555405,-0.38237246871,-0.336913853884,-0.323675245047,28.2999992371,0.42154366356187284,-0.1278837687993311,-0.11268021869030101,28.2999992371,-0.04373989797932432,0.6097149980939058,1.3595466224655621
1648218257235414002,26836,2,5,1.05844926834,-0.679773271084,0.515713393688,-0.161837622523,28.2999992371,0.3539964108160535,-0.22734892009498325,0.17247939588227423,28.2999992371,-0.021869948989594594,0.5498312915882937,1.359546563439045
1648218257235415438,26837,2,6,0.983437776566,-0.622637212276,0.137152671814,-0.0809188112617,28.2999992371,0.3289089553732441,-0.20823987032642138,0.045870458800668895,28.2999992371,-0.010934974494824324,0.5096332460142314,1.1720229579123547
1648218257339991812,26838,3,0,0.00490374397486,0.0454158857465,0.0105437589809,0.0,25.5,0.0016400481521270903,0.015189259446989964,0.0035263407962876255,25.5,0.0,0.0153653219436029,0.04688091548335449
1648218257340009562,26839,3,1,0.0335031487048,0.0146502861753,-0.029338169843,0.0,25.5,0.01120506645645485,0.0048997612626421405,-0.009812096937458194,25.5,0.0,0.01658658159531456,0.04688091368447124
1648218257340012093,26840,3,2,1.16884946823,1.46502864361,-0.0632003694773,0.0,25.5,0.3909195545919732,0.489976134986622,-0.02113724731682274,25.5,0.0,0.7387237705537855,1.8752365964542652
1648218257340112254,26841,3,3,0.730770289898,-0.615311980247,0.237917244434,0.0809188112617,25.5,0.24440477923010032,-0.2057899599488294,0.07957098476053512,25.5,0.010934974494824324,0.402264713636144,0.9844991949372833
1648218257340114085,26842,3,4,0.965735673904,-0.635822415352,0.880448460579,-0.323675245047,25.5,0.32298851970033443,-0.21264963724147157,0.294464368086622,25.5,-0.04373989797932432,0.5038482270836686,1.4533083043355925
1648218257340118561,26843,3,5,0.923848211765,-0.597731649876,0.234874173999,-0.242756426334,25.5,0.30897933503846153,-0.19991025079464883,0.07855323545117057,25.5,-0.03280492247756756,0.48052114140212304,1.1251420004855324
1648218257534983163,26844,5,0,0.0048888400197,0.0454158857465,0.0105506777763,0.0,40.0,0.0016350635517391303,0.015189259446989964,0.003528654774682274,40.0,0.0,0.01536425944145781,0.046880915481853296
1648218257534996296,26845,5,1,0.0334805957973,0.0146502861753,-0.029363906011,0.0,40.0,0.011197523678026755,0.0048997612626421405,-0.009820704351505017,40.0,0.0,0.016576390845742875,0.046880914626137686
1648218257534999040,26846,5,2,1.17055690289,1.46502864361,-0.000157376125571,0.0,40.0,0.3914906029732441,0.489976134986622,-5.263415570936454e-05,40.0,0.0,0.7393283420031569,1.8752366288733884
1648218257535010075,26847,5,3,1.28009676933,-1.25699448586,0.352422475815,0.0809188112617,40.0,0.42812600980936455,-0.4203994935986622,0.11786704876755853,40.0,0.010934974494824324,0.7371020925004812,1.8283556759534298
1648218257535014707,26848,5,4,0.529627144337,-0.742769479752,1.58451032639,0.0809188112617,40.0,0.17713282419297657,-0.24841788620468228,0.5299365640100334,40.0,0.010934974494824324,0.3527938789145333,1.8283556509897538
1648218257535161483,26849,5,5,0.881992697716,-0.515690088272,0.14105924964,-0.647350490093,40.0,0.2949808353565217,-0.17247160142876253,0.047177006568561865,40.0,-0.08747979595851352,0.4514131585971599,1.0313801907518538
1648218257535164037,26850,5,6,0.852433741093,-0.5391305089,0.381237119436,-0.485512852669,40.0,0.285094896686622,-0.18031120698996655,0.12750405332307693,40.0,-0.06560984495527027,0.44166767099221776,1.0782609748184526
1648218257535165599,26851,5,7,0.733622133732,-0.615311980247,0.228972658515,-0.242756426334,40.0,0.24535857315451504,-0.2057899599488294,0.07657948445317725,40.0,-0.03280492247756756,0.4034243007759694,0.9844992364062065
1648218257639955710,26852,6,0,0.00493015442044,0.0454158857465,0.0105314357206,0.0,40.5999984741,0.001648881077070234,0.015189259446989964,0.003522219304548495,40.5999984741,0.0,0.015367212504570061,0.04688091551031885
1648218257639960479,26853,6,1,0.0334805957973,0.0146502861753,-0.029363906011,0.0,40.5999984741,0.011197523678026755,0.0048997612626421405,-0.009820704351505017,40.5999984741,0.0,0.016576390845742875,0.046880914626137686
1648218257639966093,26854,6,2,0.494550704956,0.140642747283,-1.00079154968,0.0,40.5999984741,0.16540157356387958,0.047037708121404675,-0.3347128928695652,40.5999984741,0.0,0.23859569790784033,1.125141994615205
1648218257639974119,26855,6,3,1.30875110626,-1.25699448586,0.223651319742,0.0809188112617,40.5999984741,0.43770940008695647,-0.4203994935986622,0.0747997724889632,40.5999984741,0.010934974494824324,0.7482745298798953,1.828355684335397
1648218257639978079,26856,6,4,0.857185602188,-0.430718421936,0.221253678203,-0.566431701183,40.5999984741,0.2866841478889632,-0.14405298392508362,0.07399788568662206,40.5999984741,-0.07654482448418919,0.43026371387715495,0.9844992156989253
1648218257640143651,26857,6,5,0.792086780071,-0.474669277668,0.865735888481,-0.404594063759,40.5999984741,0.26491196657892974,-0.1587522667785953,0.2895437754117057,40.5999984741,-0.05467487348094594,0.4068893980933569,1.2657847443104582
