%time,field.header.seq,field.header.frame_id,field.point_id,field.x,field.y,field.z,field.velocity,field.intensity,normalized_x,normalized_y,normalized_z,normalized_intensity,normalized_velocity,normalized_range,range
1648126769001204911,78875,0,0,0.0125994505361,0.0439508594573,0.0103632062674,0.0,11.6999998093,0.004213863055551839,0.014699284099431437,0.003465955273377926,11.6999998093,0.0,0.01586134410249293,0.04688091557326548
1648126769001210722,78876,0,1,0.0329001024365,0.0146502861753,-0.0300128757954,0.0,11.6999998093,0.011003378741304349,0.0048997612626421405,-0.010037751102140467,11.6999998093,0.0,0.016314298877980183,0.04688091657444943
1648126769001224527,78877,0,2,0.259541660547,-1.58955609798,0.313495516777,0.0,11.6999998093,0.0868032309521739,-0.5316241130367892,0.10484799892207357,11.6999998093,0.0,0.5456132323996786,1.6408320758761927
1648126769001234376,78878,0,3,1.83522522449,-1.39177727699,0.435264587402,0.0,11.6999998093,0.6137877004983278,-0.4654773501638796,0.14557344060267557,11.6999998093,0.0,0.9849567737122461,2.3440458345340227
1648126769001239185,78879,0,4,0.640321314335,0.0410208031535,0.138125881553,0.0809188112617,11.6999998093,0.2141542857307692,0.013719332158361203,0.046195947007692306,11.6999998093,0.010934974494824324,0.30317047393930585,0.6563328812712749
1648126769001245013,78880,0,5,0.516333580017,-0.105482056737,0.196873798966,0.404594063759,11.6999998093,0.17268681605919733,-0.035278279845150494,0.06584407992173913,11.6999998093,0.05467487348094594,0.24675094713122958,0.5625709936229777
1648126769001286216,78881,0,6,0.594383120537,-0.0952268540859,0.0952478349209,-0.647350490093,11.6999998093,0.1987903413167224,-0.03184844618257525,0.031855463184247486,11.6999998093,-0.08747979595851352,0.282930244275656,0.6094518830683175
1648126769001290149,78882,0,7,0.47227036953,1.75803434849,0.450320363045,-0.242756426334,11.6999998093,0.15794995636454848,0.5879713540100334,0.15060881707190635,11.6999998093,-0.03280492247756756,0.6289727264099116,1.8752366522067667
1648126769001302658,78883,0,8,2.04966664314,-0.523015201092,-1.11438393593,-0.161837622523,11.6999998093,0.6855072385083611,-0.1749214719371237,-0.3727036575016722,11.6999998093,-0.021869948989594594,0.985108049626724,2.3909265578919277
1648126769106307803,78884,1,0,0.0125994505361,0.0439508594573,0.0103632062674,0.0,22.8999996185,0.004213863055551839,0.014699284099431437,0.003465955273377926,22.8999996185,0.0,0.01586134410249293,0.04688091557326548
1648126769106323192,78885,1,1,0.0328124724329,0.0146502861753,-0.0301086530089,0.0,22.8999996185,0.010974071047792642,0.0048997612626421405,-0.010069783615016722,22.8999996185,0.0,0.01627476977271537,0.04688091528744241
1648126769106335921,78886,1,2,0.248832345009,-1.58955609798,0.322061747313,0.0,22.8999996185,0.08322152006989966,-0.5316241130367892,0.10771295896755853,22.8999996185,0.0,0.5444959507357628,1.6408320735621864
1648126769106354373,78887,1,3,0.62019687891,-0.0615312047303,0.205773100257,0.323675245047,22.8999996185,0.2074237053210702,-0.020578998237558526,0.06882043486856186,22.8999996185,0.04373989797932432,0.2940623781218974,0.6563328626197569
1648126769106392251,78888,1,4,0.532254636288,-0.171408340335,0.242395967245,0.404594063759,22.8999996185,0.17801158404280934,-0.05732720412541805,0.08106888536622073,22.8999996185,0.05467487348094594,0.25819112385924053,0.6094519028792259
1648126769106395179,78889,1,5,0.349971145391,-1.53828001022,0.451159328222,0.566431701183,22.8999996185,0.11704720581638794,-0.51447491980602,0.15088940743210702,22.8999996185,0.07654482448418919,0.5404484618243062,1.6408320852209277
1648126769106403268,78890,1,6,1.86032116413,0.117202289402,-0.20489244163,-0.242756426334,22.8999996185,0.622180991347826,0.03919809010100334,-0.06852590021070233,22.8999996185,-0.03280492247756756,0.8807694716875089,1.8752365512084526
1648126769106406731,78891,1,7,2.22183942795,-0.597731649876,-0.650135278702,-0.242756426334,22.8999996185,0.7430901096822742,-0.19991025079464883,-0.21743654806086957,22.8999996185,-0.03280492247756756,1.0697335792560725,2.390926483493291
1648126769301310476,78892,3,0,0.0126097733155,0.0439508594573,0.0103506427258,0.0,17.7000007629,0.004217315490133779,0.014699284099431437,0.0034617534199999998,17.7000007629,0.0,0.01586317915559307,0.04688091546611253
1648126769301328078,78893,3,1,0.0328872464597,0.0146502861753,-0.0300269592553,0.0,17.7000007629,0.010999079083511706,0.0048997612626421405,-0.010042461289397992,17.7000007629,0.0,0.0163084990664861,0.0468809145264753
1648126769301337003,78894,3,2,0.471563696861,-1.53828001022,0.321950644255,0.0,17.7000007629,0.157713610990301,-0.51447491980602,0.10767580075418058,17.7000007629,0.0,0.5607420166998462,1.6408320838452257
1648126769301427260,78895,3,3,1.74181449413,-1.53828012943,0.307128220797,0.0,17.7000007629,0.5825466535551839,-0.5144749596755852,0.10271846849397992,17.7000007629,0.0,0.971290734677255,2.344045910934864
1648126769301441426,78896,3,4,0.621393680573,-0.28568059206,0.163603425026,0.242756426334,17.7000007629,0.20782397343578596,-0.09554534851505017,0.05471686455719063,17.7000007629,0.03280492247756756,0.30904776571290554,0.7032137567027893
1648126769301444915,78897,3,5,0.571110963821,-0.266635209322,0.183059483767,0.323675245047,17.7000007629,0.19100701131137124,-0.0891756552916388,0.06122390761438126,17.7000007629,0.04373989797932432,0.2844638012768897,0.6563328747242354
1648126769301493623,78898,3,6,0.716821491718,-0.799905598164,1.47959542274,-0.0809188112617,17.7000007629,0.23973962933712373,-0.26752695590769227,0.4948479674715719,17.7000007629,-0.010934974494824324,0.4318805991088732,1.8283557181128856
1648126769406431198,78899,4,0,0.0126200793311,0.0439508594573,0.0103380745277,0.0,14.1999998093,0.004220762318093645,0.014699284099431437,0.0034575500092642137,14.1999998093,0.0,0.015865012515831067,0.0468809154592663
1648126769406451585,78900,4,1,0.0328607447445,0.0146502861753,-0.0300559606403,0.0,14.1999998093,0.010990215633612039,0.0048997612626421405,-0.010052160749264214,14.1999998093,0.0,0.016296543798531928,0.04688091509551231
1648126769406516369,78901,4,2,0.477085530758,-1.53828001022,0.313709914684,0.0,14.1999998093,0.1595603781799331,-0.51447491980602,0.1049197039076923,14.1999998093,0.0,0.5617859660753882,1.6408320767440305
1648126769406520416,78902,4,3,1.74633085728,-1.53828012943,0.28031000495,0.0,14.1999998093,0.58405714290301,-0.5144749596755852,0.09374916553511706,14.1999998093,0.0,0.9731032712334541,2.3440458439549654
1648126769406526920,78903,4,4,0.61427795887,-0.307656019926,0.150066375732,0.161837622523,14.1999998093,0.2054441334013378,-0.10289498994180601,0.050189423321739125,14.1999998093,0.021869948989594594,0.3082238843003211,0.7032137331391777
1648126769406544165,78904,4,5,0.735539257526,-0.273960351944,0.138194575906,0.404594063759,14.1999998093,0.24599975168093643,-0.09162553576722407,0.04621892170769231,14.1999998093,0.05467487348094594,0.35975963428210733,0.7969755420394147
1648126769406612912,78905,4,6,1.00364613533,1.4855389595,0.358821719885,0.485512852669,14.1999998093,0.3356676037892976,0.4968357724080267,0.12000726417558527,14.1999998093,0.06560984495527027,0.6871617460333326,1.8283557071358998
1648126769406615219,78906,4,7,0.29504352808,-0.68563336134,-1.66905391216,-0.161837622523,14.1999998093,0.09867676524414715,-0.2293088165016722,-0.5582120107558528,14.1999998093,-0.021869948989594594,0.26843386769089816,1.8283557507610169
1648126769601435590,78907,6,0,0.0126200793311,0.0439508594573,0.0103380745277,0.0,21.7000007629,0.004220762318093645,0.014699284099431437,0.0034575500092642137,21.7000007629,0.0,0.015865012515831067,0.0468809154592663
1648126769601448079,78908,6,1,0.0328478105366,0.0146502861753,-0.0300700943917,0.0,21.7000007629,0.010985889811571906,0.0048997612626421405,-0.010056887756421403,21.7000007629,0.0,0.016290709325713453,0.04688091422735167
1648126769601453641,78909,6,2,0.460026144981,-1.53828001022,0.338231414557,0.0,21.7000007629,0.1538548979869565,-0.51447491980602,0.11312087443377926,21.7000007629,0.0,0.5585938617444379,1.6408320857728718
1648126769601457777,78910,6,3,1.74854397774,-1.53828012943,0.266156792641,0.0,21.7000007629,0.5847973169698997,-0.5144749596755852,0.08901564971270902,21.7000007629,0.0,0.9739919342600233,2.344045911870956
1648126769601460912,78911,6,4,0.631829857826,-0.375047326088,0.150905609131,0.161837622523,21.7000007629,0.21131433372107022,-0.1254338883237458,0.050470103388294316,21.7000007629,0.021869948989594594,0.3241005331868086,0.750094639971104
1648126769601466097,78912,6,5,0.805957794189,-0.306190997362,0.22381311655,0.242756426334,21.7000007629,0.2695511017354515,-0.10240501584013377,0.07485388513377926,21.7000007629,0.03280492247756756,0.39471810214735464,0.8907374495435559
1648126769601500450,78913,6,6,1.02049708366,-0.336956560612,0.0877083688974,0.242756426334,21.7000007629,0.34130337246153847,-0.11269450187692308,0.0293339026412709,21.7000007629,0.03280492247756756,0.49565717472919435,1.0782609978445274
1648126769706555713,78914,7,0,0.0125994505361,0.0439508594573,0.0103632062674,0.0,14.3000001907,0.004213863055551839,0.014699284099431437,0.003465955273377926,14.3000001907,0.0,0.01586134410249293,0.04688091557326548
1648126769706596131,78915,7,1,0.0329001024365,0.0146502861753,-0.0300128757954,0.0,14.3000001907,0.011003378741304349,0.0048997612626421405,-0.010037751102140467,14.3000001907,0.0,0.016314298877980183,0.04688091657444943
1648126769706709240,78916,7,2,0.462847590446,-1.53828001022,0.334360033274,0.0,14.3000001907,0.1547985252327759,-0.51447491980602,0.11182609808494982,14.3000001907,0.0,0.5591150238885514,1.6408320796702818
1648126769706765956,78917,7,3,1.80851864815,-1.46502864361,0.278392553329,0.0,14.3000001907,0.604855735167224,-0.489976134986622,0.09310787736755852,14.3000001907,0.0,0.9857877730961135,2.3440458700829856
1648126769706772308,78918,7,4,0.847517848015,-0.380907446146,0.12550342083,0.0809188112617,14.3000001907,0.2834507852892976,-0.12739379469765885,0.041974388237458186,14.3000001907,0.010934974494824324,0.4206160651826179,0.93761830926741
1648126769706781464,78919,7,5,0.618879258633,-0.375047326088,0.197408139706,0.242756426334,14.3000001907,0.2069830296431438,-0.1254338883237458,0.06602278919933109,14.3000001907,0.03280492247756756,0.3184613154851355,0.7500946654883461
1648126769706794077,78920,7,6,1.01914846897,-0.336956560612,0.102193191648,0.242756426334,14.3000001907,0.34085233075919735,-0.11269450187692308,0.034178324965886284,14.3000001907,0.03280492247756756,0.49503603254838163,1.0782609952894375
1648126769706795919,78921,7,7,0.757581114769,-0.593336582184,0.822334229946,-0.566431701183,14.3000001907,0.25337161029063543,-0.19844032848963208,0.27502817055050166,14.3000001907,-0.07654482448418919,0.4096009152499691,1.265784749060168
1648126769706798013,78922,7,8,1.16613054276,-0.079111546278,-0.485893011093,-0.566431701183,14.3000001907,0.3900102149698996,-0.026458711129765885,-0.16250602377692305,14.3000001907,-0.07654482448418919,0.5521919946507583,1.265784775442196
1648126769706827082,78923,7,9,1.20191860199,-1.2804350853,0.299215972424,-0.0809188112617,14.3000001907,0.4019794655484949,-0.42823915896321063,0.1000722315799331,14.3000001907,-0.010934974494824324,0.7117329265355266,1.7814748192524232
1648126769901510363,78924,9,0,0.0126303331926,0.0439508594573,0.0103255445138,0.0,17.8999996185,0.004224191703210702,0.014699284099431437,0.003453359369163879,17.8999996185,0.0,0.015866837874218862,0.04688091544645748
1648126769901512681,78925,9,1,0.0328124724329,0.0146502861753,-0.0301086530089,0.0,17.8999996185,0.010974071047792642,0.0048997612626421405,-0.010069783615016722,17.8999996185,0.0,0.01627476977271537,0.04688091528744241
1648126769901513707,78926,9,2,0.211802810431,-1.58955609798,0.347535431385,0.0,17.8999996185,0.07083706034481604,-0.5316241130367892,0.11623258574749162,17.8999996185,0.0,0.540980568781119,1.6408320740404339
1648126769901514819,78927,9,3,1.18579769135,-1.24673938751,0.219865128398,0.0,17.8999996185,0.3965878566387959,-0.41696969481939794,0.07353348775852842,17.8999996185,0.0,0.6988759421131122,1.7345938832664172
1648126769901515916,78928,9,4,2.423620224,-0.902457654476,0.451664358377,0.0,17.8999996185,0.8105753257525083,-0.30182530250033446,0.15105831383846152,17.8999996185,0.0,1.1853958118143444,2.6253315030548507
1648126769901516918,78929,9,5,0.760692596436,-0.549385726452,0.702253460884,0.161837622523,17.8999996185,0.2544122396107023,-0.1837410456361204,0.23486737822207354,17.8999996185,0.021869948989594594,0.4039949841011911,1.1720229630964107
1648126769901519424,78930,9,6,0.648442625999,-0.448298752308,0.117134384811,0.242756426334,17.8999996185,0.21687044347792642,-0.14993269307959864,0.0391753795354515,17.8999996185,0.03280492247756756,0.3413874499197738,0.7969755797001813
1648126769901520413,78931,9,7,0.865262806416,-0.461484014988,0.0871290937066,0.242756426334,17.8999996185,0.28938555398528426,-0.15434247992909697,0.029140165119264212,17.8999996185,0.03280492247756756,0.4373895275625646,0.9844992124052057
1648126769901521972,78932,9,8,0.683056533337,-0.474669247866,0.142184883356,0.323675245047,17.8999996185,0.2284470011160535,-0.15875225681137123,0.047553472694314376,17.8999996185,0.04373989797932432,0.3599699205218957,0.8438564236047467
