%time,field.header.seq,field.header.frame_id,field.point_id,field.x,field.y,field.z,field.velocity,field.intensity,normalized_x,normalized_y,normalized_z,normalized_intensity,normalized_velocity,normalized_range,range
1648294500164213588,13615,0,0,0.00625035958365,0.0454158857465,0.00980563927442,0.0,28.2000007629,0.0020904212654347825,0.015189259446989964,0.0032794780182006686,28.2000007629,0.0,0.015474279455985594,0.046880915462948404
1648294500164218282,13616,0,1,0.0335735455155,0.0146502861753,-0.0292575843632,0.0,28.2000007629,0.011228610540301002,0.0048997612626421405,-0.009785145271973245,28.2000007629,0.0,0.016618394921363674,0.046880913880483405
1648294500164220976,13617,0,2,1.52360355854,-1.68478298187,0.578523814678,0.0,28.2000007629,0.5095664075384615,-0.5634725691872909,0.19348622564481602,28.2000007629,0.0,0.9147771223690683,2.344045926116659
1648294500164229030,13618,0,3,2.2397108078,-1.2306240797,0.601352393627,0.0,28.2000007629,0.749067159799331,-0.4115799597658863,0.20112120188193977,28.2000007629,0.0,1.1364863760998465,2.6253313751666707
1648294500164255920,13619,0,4,1.13155639172,-0.98449921608,-0.0301538016647,0.161837622523,28.2000007629,0.3784469537525083,-0.3292639518662207,-0.010084883499899664,28.2000007629,0.021869948989594594,0.6283780260382019,1.5001892633462468
1648294500164295297,13620,0,5,0.805199503899,-1.02552008629,0.151834115386,-0.323675245047,28.2000007629,0.26929749294280936,-0.342983306451505,0.050780640597324414,28.2000007629,-0.04373989797932432,0.512523002327673,1.3126657179413554
1648294500359664344,13621,2,0,0.012665912509,0.0439508594573,0.0102818692103,0.0,30.6000003815,0.004236091140133779,0.014699284099431437,0.0034387522442474914,30.6000003815,0.0,0.015873181449565732,0.04688091531933537
1648294500359715482,13622,2,1,0.0335509069264,0.0146502861753,-0.0292835440487,0.0,30.6000003815,0.011221039105819395,0.0048997612626421405,-0.009793827441036788,30.6000003815,0.0,0.016608163584802046,0.0468809150151135
1648294500359842192,13623,2,2,2.23578119278,-1.2306240797,0.615801990032,0.0,30.6000003815,0.7477529072842809,-0.4115799597658863,0.20595384282006687,30.6000003815,0.0,1.1347541072783467,2.6253314568742754
1648294500359852843,13624,2,3,1.0334123373,-1.44744825363,-0.102981448174,0.161837622523,30.6000003815,0.3456228552842809,-0.484096405896321,-0.034441955911036784,30.6000003815,0.021869948989594594,0.6879386937739826,1.7814748621545013
1648294500359858630,13625,2,4,0.620716691017,-0.946408510208,-1.37574505806,0.161837622523,30.6000003815,0.20759755552408024,-0.31652458535384614,-0.46011540403344475,30.6000003815,0.021869948989594594,0.43171900960297244,1.7814748787108206
1648294500359869357,13626,2,5,0.893783271313,-0.94347846508,0.184637740254,-0.323675245047,30.6000003815,0.29892417100769225,-0.31554463715050163,0.06175175259331104,30.6000003815,-0.04373989797932432,0.5275222630939038,1.312665702025761
1648294500464746407,13627,3,0,0.012665912509,0.0439508594573,0.0102818692103,0.0,33.7000007629,0.004236091140133779,0.014699284099431437,0.0034387522442474914,33.7000007629,0.0,0.015873181449565732,0.04688091531933537
1648294500464791234,13628,3,1,0.0335735455155,0.0146502861753,-0.0292575843632,0.0,33.7000007629,0.011228610540301002,0.0048997612626421405,-0.009785145271973245,33.7000007629,0.0,0.016618394921363674,0.046880913880483405
1648294500464808458,13629,3,2,2.19055509567,-1.31266570091,0.60888582468,0.0,33.7000007629,0.7326271222976589,-0.4390186290668896,0.20364074404013374,33.7000007629,0.0,1.1252654608224981,2.6253313727999346
1648294500464820007,13630,3,3,0.899486124516,-0.761814832687,0.310305327177,-0.242756426334,33.7000007629,0.3008314797712374,-0.2547875694605351,0.10378104587859531,33.7000007629,-0.03280492247756756,0.4958990461720126,1.2189038204768905
1648294500659636180,13631,5,0,0.0126454373822,0.0439508594573,0.0103070409968,0.0,33.0,0.004229243271638795,0.014699284099431437,0.003447170901939799,33.0,0.0,0.015869528989141485,0.046880915389230546
1648294500659670508,13632,5,1,0.0335509069264,0.0146502861753,-0.0292835440487,0.0,33.0,0.011221039105819395,0.0048997612626421405,-0.009793827441036788,33.0,0.0,0.016608163584802046,0.0468809150151135
1648294500659866418,13633,5,2,1.4734416008,-1.68478298187,0.696439087391,0.0,33.0,0.49278983304347823,-0.5634725691872909,0.23292277170267559,33.0,0.0,0.8962058777583222,2.3440459145274533
1648294500660054490,13634,5,3,1.23108708858,-0.659262895584,-0.166839540005,-0.485512852669,33.0,0.4117348122341137,-0.22048926273712371,-0.05579917725919732,33.0,-0.06560984495527027,0.6226288028940534,1.4064275371562023
1648294500660096518,13635,5,4,0.907220542431,-0.732514321804,0.118369929492,-0.404594063759,33.0,0.30341824161571906,-0.24498806749297658,0.0395886051812709,33.0,-0.05467487348094594,0.4941097164641604,1.1720229453661362
1648294500660113288,13636,5,5,0.944684445858,-0.659262895584,0.215827420354,-0.161837622523,33.0,0.3159479752033445,-0.22048926273712371,0.07218308373043478,33.0,-0.021869948989594594,0.49825872902794865,1.1720229277264584
1648294500764638038,13637,6,0,0.00630713393912,0.0454158857465,0.00976921804249,0.0,28.8999996185,0.0021094093441872907,0.015189259446989964,0.0032672970041772577,28.8999996185,0.0,0.015479432099100509,0.04688091549689333
1648294500764657843,13638,6,1,0.0335509069264,0.0146502861753,-0.0292835440487,0.0,28.8999996185,0.011221039105819395,0.0048997612626421405,-0.009793827441036788,28.8999996185,0.0,0.016608163584802046,0.0468809150151135
1648294500764721386,13639,6,2,1.51598370075,-1.68478298187,0.598206460476,0.0,28.8999996185,0.5070179601170569,-0.5634725691872909,0.2000690503264214,28.8999996185,0.0,0.9119406559579682,2.344045913862111
1648294500764737962,13640,6,3,0.945246100426,-0.597731649876,0.123171575367,-0.404594063759,28.8999996185,0.3161358195404682,-0.19991025079464883,0.04119450681170569,28.8999996185,-0.05467487348094594,0.4897426070558149,1.1251420144197057
1648294500764867673,13641,6,4,1.23945260048,-0.55231577158,-0.0840916931629,-0.323675245047,28.8999996185,0.4145326423010033,-0.18472099383946486,-0.02812431209461538,28.8999996185,-0.04373989797932432,0.6146515017724619,1.3595465689823385
1648294500959679690,13642,8,0,0.00625035958365,0.0454158857465,0.00980563927442,0.0,21.0,0.0020904212654347825,0.015189259446989964,0.0032794780182006686,21.0,0.0,0.015474279455985594,0.046880915462948404
1648294500959720268,13643,8,1,0.033601410687,0.0146502861753,-0.0292255785316,0.0,21.0,0.011237929995652172,0.0048997612626421405,-0.009774440980468226,21.0,0.0,0.01663098919503125,0.04688091430082548
1648294500959731248,13644,8,2,1.50549459457,-1.68478298187,0.624134361744,0.0,21.0,0.5035098978494983,-0.5634725691872909,0.20874058921204014,21.0,0.0,0.9080450267973228,2.3440459406308247
1648294500959763261,13645,8,3,2.18560433388,-1.31266570091,0.626424133778,0.0,21.0,0.7309713491237458,-0.4390186290668896,0.20950639925685616,21.0,0.0,1.1231097823219907,2.6253313585145968
1648294500959814965,13646,8,4,0.944933891296,-0.386767566204,0.145793408155,-0.323675245047,21.0,0.31603140177123745,-0.1293537010715719,0.04876033717558528,21.0,-0.04373989797932432,0.465278490575161,1.0313801079372322
1648294501061218397,13647,9,0,0.012678119354,0.0439508594573,0.0102668134496,0.0,40.5,0.004240173696989966,0.014699284099431437,0.003433716872775919,40.5,0.0,0.015875361381621805,0.04688091526195381
1648294501061278017,13648,9,1,0.0335735455155,0.0146502861753,-0.0292575843632,0.0,40.5,0.011228610540301002,0.0048997612626421405,-0.009785145271973245,40.5,0.0,0.016618394921363674,0.046880913880483405
1648294501061300448,13649,9,2,0.983648300171,-0.175803437829,0.517178654671,0.0,40.5,0.3289793646056856,-0.05879713639765886,0.17296944972274245,40.5,0.0,0.468947702757233,1.125142030158459
1648294501061311196,13650,9,3,1.49597132206,-1.68478298187,0.646627545357,0.0,40.5,0.5003248568762542,-0.5634725691872909,0.21626339309598658,40.5,0.0,0.9045171424815645,2.344045877289762
1648294501061335000,13651,9,4,2.19395923615,-1.31266570091,0.596503794193,0.0,40.5,0.7337656308193979,-0.4390186290668896,0.1994995967200669,40.5,0.0,1.126748134505378,2.6253314359752897
1648294501061368473,13652,9,5,2.10914778709,-0.773535132408,-0.13006542623,0.0809188112617,40.5,0.7054005976889631,-0.2587074021431438,-0.04350014255183946,40.5,0.010934974494824324,1.030586981464227,2.250283982957817
1648294501061448339,13653,9,6,1.31111001968,-0.169943317771,-0.316980540752,0.161837622523,40.5,0.4384983343411371,-0.05683723002374581,-0.1060135587799331,40.5,0.021869948989594594,0.6227295152445206,1.3595465708006238
1648294501061458043,13654,9,7,2.15065073967,-1.06654083729,0.424379616976,0.242756426334,40.5,0.7192811838361204,-0.35670262116722407,0.14193298226622073,40.5,0.03280492247756756,1.0779460110733514,2.4378076259120753
1648294501061480983,13655,9,8,0.985863387585,-0.257845044136,0.159167721868,-0.0809188112617,40.5,0.3297201965167224,-0.08623580071438126,0.05323335179531772,40.5,-0.010934974494824324,0.474201886654727,1.0313801672762166
1648294501161260204,13656,10,0,0.00639544753358,0.0454158857465,0.00971163250506,0.0,33.2999992371,0.002138945663404682,0.015189259446989964,0.0032480376271103676,33.2999992371,0.0,0.015487536267914572,0.04688091544762382
1648294501161318440,13657,10,1,0.0335735455155,0.0146502861753,-0.0292575843632,0.0,33.2999992371,0.011228610540301002,0.0048997612626421405,-0.009785145271973245,33.2999992371,0.0,0.016618394921363674,0.046880913880483405
1648294501161361122,13658,10,2,1.50100123882,-1.68478298187,0.63486456871,0.0,33.2999992371,0.5020071032842809,-0.5634725691872909,0.2123292871939799,33.2999992371,0.0,0.906379390609846,2.344045954229839
1648294501161378128,13659,10,3,2.24002742767,-1.2306240797,0.600171923637,0.0,33.2999992371,0.7491730527324414,-0.4115799597658863,0.20072639586521737,33.2999992371,0.0,1.1366259671333308,2.6253313772119293
1648294501161405091,13660,10,4,1.09612953663,-0.0703213736415,0.243925184011,0.0809188112617,33.2999992371,0.36659850723411364,-0.023518854060702338,0.08158032910066888,33.2999992371,0.010934974494824324,0.5189817602853587,1.125142014173467
1648294501161444215,13661,10,5,1.28435063362,-0.0,-0.271172702312,0.161837622523,33.2999992371,0.429548706896321,-0.0,-0.09069321147558529,33.2999992371,0.021869948989594594,0.6074736069926026,1.3126656788989677
1648294501161462783,13662,10,6,2.48169946671,-0.835066318512,0.533431589603,0.242756426334,33.2999992371,0.8299998216421404,-0.2792863941511705,0.1784052139140468,33.2999992371,0.03280492247756756,1.2065654966929613,2.6722120537427916
1648294501161472269,13663,10,7,0.461851596832,-0.083506628871,-2.63067245483,0.242756426334,33.2999992371,0.15446541700066888,-0.027928638418394644,-0.8798235634882943,33.2999992371,0.03280492247756756,0.22022520051594113,2.67221215833679
1648294501161480467,13664,10,8,2.33219575882,-0.854111671448,0.070945315063,0.404594063759,33.2999992371,0.7799985815451506,-0.2856560774073579,0.02372753012140468,33.2999992371,0.05467487348094594,1.1394713550522682,2.4846885202155784
1648294501161486363,13665,10,9,0.997136235237,1.80491530895,-0.0545903369784,0.485512852669,33.2999992371,0.3334903796779264,0.603650605,-0.01825763778541806,33.2999992371,0.06560984495527027,0.7660455075204873,2.06276029848262
1648294501161544118,13666,10,10,1.012196064,-0.193383783102,0.042508084327,-0.161837622523,33.2999992371,0.3385271117056856,-0.06467685053578595,0.014216750611036787,33.2999992371,-0.021869948989594594,0.4830986500858969,1.0313801902194384
1648294501261178387,13667,11,0,0.0126454373822,0.0439508594573,0.0103070409968,0.0,42.0,0.004229243271638795,0.014699284099431437,0.003447170901939799,42.0,0.0,0.015869528989141485,0.046880915389230546
1648294501261214707,13668,11,1,0.0335509069264,0.0146502861753,-0.0292835440487,0.0,42.0,0.011221039105819395,0.0048997612626421405,-0.009793827441036788,42.0,0.0,0.016608163584802046,0.0468809150151135
1648294501261301764,13669,11,2,1.02711379528,-0.064461261034,-0.0680221095681,0.0,42.0,0.3435163194916388,-0.021558950178595316,-0.022749869420769227,42.0,0.0,0.48628357143437045,1.0313801481600633
1648294501261312972,13670,11,3,1.50369000435,-1.68478298187,0.628469467163,0.0,42.0,0.5029063559698996,-0.5634725691872909,0.21019045724515048,42.0,0.0,0.9073758548563947,2.3440459032060397
1648294501261328350,13671,11,4,2.24059581757,-1.2306240797,0.5980463624,0.0,42.0,0.7493631496889631,-0.4115799597658863,0.20001550581939798,42.0,0.0,1.1368765647617227,2.625331349530859
1648294501261376003,13672,11,5,1.06529140472,-0.0,0.362075507641,0.161837622523,42.0,0.3562847507424749,-0.0,0.12109548750535117,42.0,0.021869948989594594,0.5038627265667257,1.125141968910501
1648294501261405124,13673,11,6,1.01103746891,-0.0,0.374766677618,0.242756426334,42.0,0.33813962170903006,-0.0,0.1253400259591973,42.0,0.03280492247756756,0.47820163899661816,1.0782610195090858
1648294501261438718,13674,11,7,2.60503649712,-0.679773271084,0.380999028683,0.323675245047,42.0,0.8712496645886287,-0.22734892009498325,0.12742442430869563,42.0,0.04373989797932432,1.2529323555403744,2.719093067782872
1648294501261457695,13675,11,8,1.65197098255,-0.237334638834,-1.90355145931,0.566431701183,42.0,0.5524986563712374,-0.07937613338929765,-0.6366392840501672,42.0,0.07654482448418919,0.7853725874614423,2.531569476869815
1648294501261644245,13676,11,9,1.31537902355,-1.64815723896,-0.0627849474549,-0.647350490093,42.0,0.4399260948327759,-0.5512231568428093,-0.020998310185585282,42.0,-0.08747979595851352,0.8312141158987769,2.10964125138814
1648294501364560666,13677,12,0,0.0126454373822,0.0439508594573,0.0103070409968,0.0,14.5,0.004229243271638795,0.014699284099431437,0.003447170901939799,14.5,0.0,0.015869528989141485,0.046880915389230546
1648294501364607239,13678,12,1,0.0335509069264,0.0146502861753,-0.0292835440487,0.0,14.5,0.011221039105819395,0.0048997612626421405,-0.009793827441036788,14.5,0.0,0.016608163584802046,0.0468809150151135
1648294501364647475,13679,12,2,1.48553717136,-1.68478298187,0.670251309872,0.0,14.5,0.496835174367893,-0.5634725691872909,0.22416431768294312,14.5,0.0,0.900661821776007,2.3440459043875763
1648294501364693749,13680,12,3,2.24062752724,-1.2306240797,0.597927868366,0.0,14.5,0.7493737549297659,-0.4115799597658863,0.1999758757076923,14.5,0.0,1.1368905454950191,2.6253314223411524
1648294501364715662,13681,12,4,1.35540258884,0.096691891551,-0.739567995071,0.161837622523,14.5,0.4533119026220736,0.032338425267892976,-0.24734715554214046,14.5,0.021869948989594594,0.6418949570346348,1.5470702372740623
1648294501364723737,13682,12,5,1.08626437187,0.0703213736415,0.284656018019,0.323675245047,14.5,0.3632991210267558,0.023518854060702338,0.09520268161170567,14.5,0.04373989797932432,0.51432056071477,1.1251419598341297
1648294501364865953,13683,12,6,1.0220887661,0.096691891551,0.0986425131559,0.404594063759,14.5,0.3418357077257525,0.032338425267892976,0.03299080707555184,14.5,0.05467487348094594,0.4845091081719097,1.0313801981234867
1648294501364877512,13684,12,7,0.914839446545,-1.2101136446,-2.31285667419,0.404594063759,14.5,0.3059663700819398,-0.40472028247491637,-0.7735306602642139,14.5,0.05467487348094594,0.5924772960112591,2.7659740131004638
1648294501364883536,13685,12,8,2.30264210701,-0.0,-1.53246605396,0.404594063759,14.5,0.7701144170602007,-0.0,-0.5125304528294313,14.5,0.05467487348094594,1.0891062531855857,2.765974128497081
1648294501364892835,13686,12,9,1.15340542793,0.190453708172,0.34512296319,0.485512852669,14.5,0.385754323722408,0.06369689236521739,0.11542574019732442,14.5,0.06560984495527027,0.5492450187648957,1.2189038337194193
1648294501364898492,13687,12,10,1.93949282169,-1.6921081543,0.153441101313,-0.647350490093,14.5,0.6486598065852842,-0.565922459632107,0.051318094084615386,14.5,-0.08747979595851352,1.077862384386138,2.578450422794229
1648294501461244864,13688,13,0,0.00625035958365,0.0454158857465,0.00980563927442,0.0,25.7000007629,0.0020904212654347825,0.015189259446989964,0.0032794780182006686,25.7000007629,0.0,0.015474279455985594,0.046880915462948404
1648294501461271175,13689,13,1,0.0335735455155,0.0146502861753,-0.0292575843632,0.0,25.7000007629,0.011228610540301002,0.0048997612626421405,-0.009785145271973245,25.7000007629,0.0,0.016618394921363674,0.046880913880483405
1648294501461295952,13690,13,2,1.50955283642,-1.68478298187,0.614253640175,0.0,25.7000007629,0.5048671693712374,-0.5634725691872909,0.20543600005852838,25.7000007629,0.0,0.9095510176149427,2.34404586056047
1648294501461345861,13691,13,3,2.24166703224,-1.2306240797,0.594019114971,0.0,25.7000007629,0.7497214154648829,-0.4115799597658863,0.19866860032474914,25.7000007629,0.0,1.1373488756288563,2.6253314872450093
1648294501461370131,13692,13,4,1.05486631393,0.202173948288,0.0950229465961,0.161837622523,25.7000007629,0.35279809830434783,0.06761670511304348,0.0317802496976923,25.7000007629,0.021869948989594594,0.5034928153853566,1.0782609174084117
1648294501461765235,13693,13,5,1.12983298302,0.219754308462,0.220960095525,0.242756426334,25.7000007629,0.37787056288294313,0.0734964242347826,0.0738996975,25.7000007629,0.03280492247756756,0.5394201043363546,1.172022990142216
1648294501461820127,13694,13,6,0.558303892612,-0.966918885708,-2.58176636696,0.323675245047,25.7000007629,0.1867237099036789,-0.3233842427117057,-0.863467012361204,25.7000007629,0.04373989797932432,0.41750312108367504,2.8128549449998927
1648294501461848858,13695,13,7,1.08656013012,0.263705164194,-2.58108496666,0.323675245047,25.7000007629,0.36339803682943145,0.0881957070882943,-0.863239119284281,25.7000007629,0.04373989797932432,0.5214352779509398,2.8128549438439285
1648294501564546705,13696,14,0,0.0126351611689,0.0439508594573,0.0103196371347,0.0,16.1000003815,0.0042258064110033446,0.014699284099431437,0.003451383657090301,16.1000003815,0.0,0.015867697775113813,0.04688091568422373
1648294501564578995,13697,14,1,0.0335509069264,0.0146502861753,-0.0292835440487,0.0,16.1000003815,0.011221039105819395,0.0048997612626421405,-0.009793827441036788,16.1000003815,0.0,0.016608163584802046,0.0468809150151135
1648294501564612745,13698,14,2,1.51028203964,-1.68478298187,0.612458586693,0.0,16.1000003815,0.5051110500468228,-0.5634725691872909,0.20483564772341137,16.1000003815,0.0,0.9098217858379377,2.344045873201272
1648294501564636613,13699,14,3,2.24082756042,-1.2306240797,0.59717720747,0.0,16.1000003815,0.7494406556588629,-0.4115799597658863,0.19972481855183946,16.1000003815,0.0,1.136978740341991,2.6253312930365547
1648294501564655355,13700,14,4,1.04170739651,0.26956525445,0.0694758668542,0.161837622523,16.1000003815,0.34839712257859534,0.09015560349498328,0.0232360758709699,16.1000003815,0.021869948989594594,0.5008883537113178,1.0782609250202282
1648294501564678791,13701,14,5,1.04524171352,0.34281668067,0.525045752525,0.242756426334,16.1000003815,0.3495791684013378,0.1146544082508361,0.1756005861287625,16.1000003815,0.03280492247756756,0.5075005648190859,1.2189038347927066
1648294501564843963,13702,14,6,1.33383858204,0.448298752308,-0.748720943928,0.485512852669,16.1000003815,0.4460998602140468,0.14993269307959864,-0.2504083424508361,16.1000003815,0.06560984495527027,0.6484519897572104,1.5939511241364408
1648294501564866579,13703,14,7,0.74473118782,1.04603040218,0.944391846657,0.485512852669,16.1000003815,0.24907397585953175,0.34984294387290965,0.315850115938796,16.1000003815,0.06560984495527027,0.49645319646328495,1.5939510985061178
1648294501564874751,13704,14,8,1.78633511066,-2.03931975365,0.208923891187,0.566431701183,16.1000003815,0.5974364918595317,-0.6820467403511705,0.0698742110993311,16.1000003815,0.07654482448418919,1.085839988043591,2.719093116741773
1648294501564890170,13705,14,9,0.369369834661,-1.01965987682,-2.49345684052,0.566431701183,16.1000003815,0.12353506175953176,-0.34102337017391304,-0.8339320536856186,16.1000003815,0.07654482448418919,0.38316936460609213,2.719093112545073
1648294501759678889,13706,16,0,0.012665912509,0.0439508594573,0.0102818692103,0.0,16.5,0.004236091140133779,0.014699284099431437,0.0034387522442474914,16.5,0.0,0.015873181449565732,0.04688091531933537
1648294501759702645,13707,16,1,0.0335509069264,0.0146502861753,-0.0292835440487,0.0,16.5,0.011221039105819395,0.0048997612626421405,-0.009793827441036788,16.5,0.0,0.016608163584802046,0.0468809150151135
1648294501759716984,13708,16,2,1.51446068287,-1.68478298187,0.602051973343,0.0,16.5,0.5065085895886288,-0.5634725691872909,0.20135517503110364,16.5,0.0,0.9113743681279666,2.344045954021387
1648294501759757540,13709,16,3,2.24173808098,-1.2306240797,0.593750536442,0.0,16.5,0.7497451775852841,-0.4115799597658863,0.1985787747297659,16.5,0.0,1.1373802028810185,2.6253313978959927
1648294501759966602,13710,16,4,0.991877675056,0.49224960804,0.199533253908,0.242756426334,16.5,0.33173166389832776,0.16463197593311035,0.06673352973511705,16.5,0.03280492247756756,0.4971875714105758,1.125141999173946
1648294501760002319,13711,16,5,1.13490653038,0.553780794144,0.0867463126779,0.323675245047,16.5,0.3795674014648829,0.18521096794113712,0.029012144708327758,16.5,0.04373989797932432,0.5678432240991347,1.2657847065852632
1648294501760037482,13712,16,6,1.21991443634,0.451228827238,0.176896929741,0.404594063759,16.5,0.40799813924414713,0.15091265125016723,0.05916285275618728,16.5,0.05467487348094594,0.5964055596326442,1.3126656886934742
