%time,field.header.seq,field.header.frame_id,field.point_id,field.x,field.y,field.z,field.velocity,field.intensity,normalized_x,normalized_y,normalized_z,normalized_intensity,normalized_velocity,normalized_range,range
1648126020695940120,50925,0,0,0.0126559222117,0.0439508594573,0.0102941645309,0.0,25.5,0.004232749903578595,0.014699284099431437,0.0034428643916053514,25.5,0.0,0.015871398694768116,0.04688091549290796
1648126020695955112,50926,0,1,0.0327914953232,0.0146502861753,-0.0301314946264,0.0,25.5,0.010967055292040133,0.0048997612626421405,-0.010077422951973244,25.5,0.0,0.01626530860414949,0.046880913162719064
1648126020695957929,50927,0,2,0.102426812053,-0.399952799082,-0.448305845261,0.0,25.5,0.034256458880602005,-0.13376347795384613,-0.14993506530468226,25.5,0.0,0.14226622221871862,0.6094519047603731
1648126020695966917,50928,0,3,2.39024829865,-0.984499275684,0.458081841469,0.0,25.5,0.7994141467056856,-0.32926397180066885,0.15320462925384615,25.5,0.0,1.1775146364408005,2.6253313555635542
1648126020695968914,50929,0,4,0.758711457253,-1.10463154316,0.229157105088,-0.242756426334,25.5,0.25374965125518395,-0.3694419876789297,0.0766411722702341,25.5,-0.03280492247756756,0.5150389822959165,1.359546578945836
1648126020696073182,50930,0,5,0.81246817112,-0.83799636364,0.351260632277,-0.0809188112617,25.5,0.2717284853244147,-0.28026634235451503,0.1174784723334448,25.5,-0.010934974494824324,0.4756279660934369,1.218903797001461
1648126020696076390,50931,0,6,1.13100254536,-0.835066318512,-0.0391886681318,-0.0809188112617,25.5,0.3782617208561872,-0.2792863941511705,-0.01310657797050167,25.5,-0.010934974494824324,0.6034606440258811,1.406427483247511
1648126020696078729,50932,0,7,1.28338301182,-0.896597504616,0.299534916878,-0.0809188112617,25.5,0.4292250875652174,-0.2998653861591973,0.10017890196588627,25.5,-0.010934974494824324,0.6770432788287183,1.59395113059997
1648126020890666292,50933,2,0,0.0126355709508,0.0439508594573,0.0103191342205,0.0,18.3999996185,0.00422594346180602,0.014699284099431437,0.003451215458361204,18.3999996185,0.0,0.015867770773506908,0.04688091542780209
1648126020890676952,50934,2,1,0.0327914953232,0.0146502861753,-0.0301314946264,0.0,18.3999996185,0.010967055292040133,0.0048997612626421405,-0.010077422951973244,18.3999996185,0.0,0.01626530860414949,0.046880913162719064
1648126020890794584,50935,2,2,0.508328616619,-1.53828001022,0.260051071644,0.0,18.3999996185,0.17000957077558526,-0.51447491980602,0.08697360255652173,18.3999996185,0.0,0.5678828676936892,1.640832085308982
1648126020890799679,50936,2,3,2.42098045349,-0.902457654476,0.465606212616,0.0,18.3999996185,0.8096924593612039,-0.30182530250033446,0.1557211413431438,18.3999996185,0.0,1.1841884439236046,2.6253314685063267
1648126020890885946,50937,2,4,1.27412378788,-0.821881055832,0.307484149933,-0.404594063759,18.3999996185,0.4261283571505016,-0.27487660730167224,0.10283750833879597,18.3999996185,-0.05467487348094594,0.6623653846460039,1.5470702631869124
1648126020890890265,50938,2,5,0.846821367741,-0.83799636364,0.257647246122,-0.323675245047,18.3999996185,0.28321784874280936,-0.28026634235451503,0.08616964753244147,18.3999996185,-0.04373989797932432,0.4888495907227375,1.2189037852803852
1648126020890893008,50939,2,6,0.596026301384,-1.1075617075,0.375700622797,-0.161837622523,18.3999996185,0.1993399001284281,-0.3704219757525083,0.1256523822063545,18.3999996185,-0.021869948989594594,0.46549460972906576,1.3126657022379535
1648126020890901142,50940,2,7,0.806709945202,-0.656332850456,-0.800960361958,-0.161837622523,18.3999996185,0.26980265725819397,-0.21950931453377925,-0.26787971971839464,18.3999996185,-0.021869948989594594,0.44019460116436526,1.3126657029508322
1648126020995720067,50941,3,0,0.0126355709508,0.0439508594573,0.0103191342205,0.0,32.0,0.00422594346180602,0.014699284099431437,0.003451215458361204,32.0,0.0,0.015867770773506908,0.04688091542780209
1648126020995731310,50942,3,1,0.0327914953232,0.0146502861753,-0.0301314946264,0.0,32.0,0.010967055292040133,0.0048997612626421405,-0.010077422951973244,32.0,0.0,0.01626530860414949,0.046880913162719064
1648126020995735726,50943,3,2,0.0995292365551,-0.399952799082,-0.448958039284,0.0,32.0,0.03328737008531772,-0.13376347795384613,-0.15015319039598662,32.0,0.0,0.1418053808876902,0.6094519107037908
1648126020995738286,50944,3,3,0.275165557861,-1.58955609798,0.299875348806,0.0,32.0,0.09202861466923076,-0.5316241130367892,0.10029275879799329,32.0,0.0,0.5473232403233288,1.6408320747961622
1648126020995741467,50945,3,4,2.41715192795,-0.902457654476,0.485089302063,0.0,32.0,0.8084120160367892,-0.30182530250033446,0.1622372247702341,32.0,0.0,1.1824375199454518,2.625331387061583
1648126020995747543,50946,3,5,0.37574377656,-1.47674882412,1.65584039688,-0.485512852669,32.0,0.12566681490301004,-0.49389592779933106,0.5537927748762541,32.0,-0.06560984495527027,0.5248975940433495,2.2502839587712233
1648126020995773864,50947,3,6,1.28572654724,-0.750094652176,0.186636090279,-0.404594063759,32.0,0.43000887867558524,-0.2508677766474916,0.06242009708327759,32.0,-0.05467487348094594,0.6578372996719812,1.5001892452938586
1648126020995856214,50948,3,7,0.882952988148,-0.732514321804,0.239696800709,-0.323675245047,32.0,0.2953020027250836,-0.24498806749297658,0.0801661540832776,32.0,-0.04373989797932432,0.4841752769822452,1.1720229379997589
1648126021190719099,50949,5,0,0.0126355709508,0.0439508594573,0.0103191342205,0.0,38.2999992371,0.00422594346180602,0.014699284099431437,0.003451215458361204,38.2999992371,0.0,0.015867770773506908,0.04688091542780209
1648126021190724773,50950,5,1,0.0327914953232,0.0146502861753,-0.0301314946264,0.0,38.2999992371,0.010967055292040133,0.0048997612626421405,-0.010077422951973244,38.2999992371,0.0,0.01626530860414949,0.046880913162719064
1648126021190749186,50951,5,2,2.41941666603,-0.902457654476,0.473664909601,0.0,38.2999992371,0.8091694535217391,-0.30182530250033446,0.15841635772608695,38.2999992371,0.0,1.1834732452636005,2.6253314588016057
1648126021190778904,50952,5,3,1.31741762161,-0.483459442854,0.0933601483703,-0.242756426334,38.2999992371,0.44060790020401336,-0.16169212135585284,0.03122412988973244,38.2999992371,-0.03280492247756756,0.6437507169339196,1.4064275096559273
1648126021190821501,50953,5,4,0.909398496151,-0.83067125082,0.291874408722,-0.161837622523,38.2999992371,0.30414665423110365,-0.2778164718461538,0.09761685910434782,38.2999992371,-0.021869948989594594,0.5120472308185973,1.2657847456054212
1648126021190829923,50954,5,5,1.35936939716,-0.499574750662,0.121016852558,-0.161837622523,38.2999992371,0.45463859436789295,-0.16708185640869566,0.04047386373177257,38.2999992371,-0.021869948989594594,0.6643108080699899,1.4533083527033024
1648126021190889539,50955,5,6,0.90844219923,-0.597731649876,0.288780540228,-0.0809188112617,38.2999992371,0.3038268224849498,-0.19991025079464883,0.09658212047759196,38.2999992371,-0.010934974494824324,0.47390461539784756,1.125142015489467
1648126021295795008,50956,6,0,0.0126355709508,0.0439508594573,0.0103191342205,0.0,26.1000003815,0.00422594346180602,0.014699284099431437,0.003451215458361204,26.1000003815,0.0,0.015867770773506908,0.04688091542780209
1648126021295801819,50957,6,1,0.0327914953232,0.0146502861753,-0.0301314946264,0.0,26.1000003815,0.010967055292040133,0.0048997612626421405,-0.010077422951973244,26.1000003815,0.0,0.01626530860414949,0.046880913162719064
1648126021295804476,50958,6,2,1.28000164032,-1.22476398945,0.187621071935,0.0809188112617,26.1000003815,0.42809419408695654,-0.409620063361204,0.06274952238628762,26.1000003815,0.010934974494824324,0.730970501682495,1.7814748653038608
1648126021295806838,50959,6,3,0.836498916149,-0.83067125082,0.460940182209,-0.242756426334,26.1000003815,0.2797655237956521,-0.2778164718461538,0.15416059605652174,26.1000003815,-0.03280492247756756,0.4834454350165652,1.2657847428501345
1648126021295809059,50960,6,4,0.854597985744,-0.356001973152,-0.863212585449,-0.242756426334,26.1000003815,0.285818724329097,-0.11906420506755852,-0.2886998613541806,26.1000003815,-0.03280492247756756,0.42137984204586043,1.2657847723066378
1648126021295816709,50961,6,5,0.970097541809,-0.527410328388,0.216087117791,-0.161837622523,26.1000003815,0.3244473383976588,-0.1763914141765886,0.07226993906053511,26.1000003815,-0.021869948989594594,0.49157510289056205,1.1251420077436554
1648126021295820007,50962,6,6,1.31378924847,-0.439508587122,0.242545560002,-0.0809188112617,26.1000003815,0.4393943974816053,-0.14699283850234113,0.08111891638862875,26.1000003815,-0.010934974494824324,0.6385466056972046,1.4064275083437567
1648126021490709506,50963,8,0,0.0126355709508,0.0439508594573,0.0103191342205,0.0,13.5,0.00422594346180602,0.014699284099431437,0.003451215458361204,13.5,0.0,0.015867770773506908,0.04688091542780209
1648126021490718452,50964,8,1,0.0327914953232,0.0146502861753,-0.0301314946264,0.0,13.5,0.010967055292040133,0.0048997612626421405,-0.010077422951973244,13.5,0.0,0.01626530860414949,0.046880913162719064
1648126021490900861,50965,8,2,1.12040877342,-1.19253325462,0.575642824173,0.161837622523,13.5,0.3747186533177257,-0.3988405533846154,0.19252268366989964,13.5,0.021869948989594594,0.6632510273739846,1.7345939132698887
1648126021490905731,50966,8,3,1.40970790386,-1.2306240797,-0.12165620923,0.161837622523,13.5,0.4714742153377926,-0.4115799597658863,-0.04068769539464883,13.5,0.021869948989594594,0.783564888658025,1.875236580537784
1648126021490907528,50967,8,4,0.907092571259,-0.659262895584,0.340871393681,-0.404594063759,13.5,0.3033754418926421,-0.22048926273712371,0.11400381059565216,13.5,-0.05467487348094594,0.4823783084566221,1.1720229542790923
1648126021490911892,50968,8,5,0.953655004501,-0.471739202738,0.175074219704,-0.242756426334,13.5,0.3189481620404682,-0.15777230860802674,0.058553250737123745,13.5,-0.03280492247756756,0.4778576791278884,1.0782609727773007
1648126021491024849,50969,8,6,1.33471000195,-0.212429150939,0.147613689303,-0.161837622523,13.5,0.44639130499999996,-0.07104653877558528,0.04936912685719064,13.5,-0.021869948989594594,0.6352778959094962,1.359546518050661
1648126021595786921,50970,9,0,0.0126355709508,0.0439508594573,0.0103191342205,0.0,26.6000003815,0.00422594346180602,0.014699284099431437,0.003451215458361204,26.6000003815,0.0,0.015867770773506908,0.04688091542780209
1648126021595795738,50971,9,1,0.0327914953232,0.0146502861753,-0.0301314946264,0.0,26.6000003815,0.010967055292040133,0.0048997612626421405,-0.010077422951973244,26.6000003815,0.0,0.01626530860414949,0.046880913162719064
1648126021595800926,50972,9,2,1.33252513409,-0.127457484603,0.237693920732,0.0,26.6000003815,0.4456605799632107,-0.04262792127190635,0.07949629455919732,26.6000003815,0.0,0.6316991726591499,1.3595466315341473
1648126021595824622,50973,9,3,1.76227855682,-1.43572807312,0.33170157671,0.0,26.6000003815,0.5893908216789296,-0.480176613083612,0.11093698217725752,26.6000003815,0.0,0.9619421298140427,2.297164936996112
1648126021595898013,50974,9,4,0.867299318314,-0.547920703888,0.106394745409,-0.647350490093,26.6000003815,0.2900666616434782,-0.18325107153444814,0.03558352689264214,26.6000003815,-0.08747979595851352,0.4492864249145611,1.0313801661597417
1648126021595902186,50975,9,5,0.941847503185,-0.49224960804,0.369537681341,-0.404594063759,26.6000003815,0.314999164944816,-0.16463197593311035,0.1235911977729097,26.6000003815,-0.05467487348094594,0.4749238205559951,1.1251419882851383
1648126021595913303,50976,9,6,0.963218808174,-0.533270418644,0.714789032936,-0.323675245047,26.6000003815,0.32214675858662206,-0.1783513105832776,0.2390598772361204,26.6000003815,-0.04373989797932432,0.48925071090649164,1.3126656746584295
1648126021595922252,50977,9,7,0.952469170094,-0.471739202738,0.181414946914,-0.242756426334,26.6000003815,0.3185515619043478,-0.15777230860802674,0.060673895288963206,26.6000003815,-0.03280492247756756,0.47732829011792866,1.0782609973208
1648126021596023413,50978,9,8,0.980098843575,-0.404347896576,0.196356475353,-0.242756426334,26.6000003815,0.32779225537625417,-0.13523341022608695,0.06567106199096989,26.6000003815,-0.03280492247756756,0.48289087857473556,1.0782610213002886
1648126021790782412,50979,11,0,0.0126355709508,0.0439508594573,0.0103191342205,0.0,46.5999984741,0.00422594346180602,0.014699284099431437,0.003451215458361204,46.5999984741,0.0,0.015867770773506908,0.04688091542780209
1648126021790792242,50980,11,1,0.0327914953232,0.0146502861753,-0.0301314946264,0.0,46.5999984741,0.010967055292040133,0.0048997612626421405,-0.010077422951973244,46.5999984741,0.0,0.01626530860414949,0.046880913162719064
1648126021790801217,50981,11,2,0.263660281897,-1.58955609798,0.310039609671,0.0,46.5999984741,0.08818069628662208,-0.5316241130367892,0.10369217714749164,46.5999984741,0.0,0.5460548213845747,1.6408320731995565
1648126021790803392,50982,11,3,1.8240801096,-1.39177727699,0.479831874371,0.0,46.5999984741,0.6100602373244147,-0.4654773501638796,0.1604788877494983,46.5999984741,0.0,0.980314311761401,2.3440458320277004
1648126021790805412,50983,11,4,1.35427105427,-0.0849716588855,0.0842418447137,0.242756426334,46.5999984741,0.4529334629665552,-0.028418615011872907,0.02817453000458194,46.5999984741,0.03280492247756756,0.6411747510850256,1.3595466007636878
1648126021790808000,50984,11,5,0.808134138584,-0.361862063408,0.0968929380178,-0.647350490093,46.5999984741,0.27027897611505014,-0.12102410147424747,0.03240566488889632,46.5999984741,-0.08747979595851352,0.40093426268809784,0.890737436238379
1648126021790911360,50985,11,6,1.03257393837,1.59981119633,0.50134819746,-0.647350490093,46.5999984741,0.34534245430434785,0.5350539118160534,0.16767498242809364,46.5999984741,-0.08747979595851352,0.724434614053996,1.968998429963861
1648126021790915995,50986,11,7,0.872769415379,-0.354536950588,0.419907301664,-0.485512852669,46.5999984741,0.29189612554481603,-0.11857423096588628,0.1404372246367893,46.5999984741,-0.06560984495527027,0.429495686201039,1.0313801645096636
1648126021790920045,50987,11,8,0.983751416206,-0.34281668067,0.632800340652,-0.404594063759,46.5999984741,0.32901385157391305,-0.1146544082508361,0.21163890991705683,46.5999984741,-0.05467487348094594,0.4792137961143764,1.2189037683764026
1648126021895764266,50988,12,0,0.0126355709508,0.0439508594573,0.0103191342205,0.0,27.5,0.00422594346180602,0.014699284099431437,0.003451215458361204,27.5,0.0,0.015867770773506908,0.04688091542780209
1648126021895769512,50989,12,1,0.0327914953232,0.0146502861753,-0.0301314946264,0.0,27.5,0.010967055292040133,0.0048997612626421405,-0.010077422951973244,27.5,0.0,0.01626530860414949,0.046880913162719064
1648126021895771579,50990,12,2,0.273792028427,-1.58955609798,0.301129937172,0.0,27.5,0.09156924027658862,-0.5316241130367892,0.10071235356923075,27.5,0.0,0.5471691229335004,1.6408320762700819
1648126021895774953,50991,12,3,1.93193745613,-1.17202293873,0.623322546482,0.0,27.5,0.6461329284715719,-0.3919809159632107,0.2084690790909699,27.5,0.0,0.9942960127597096,2.344045882712232
1648126021895779704,50992,12,4,0.75560438633,-0.249054864049,0.046943731606,-0.647350490093,27.5,0.25271049710033444,-0.0832959411535117,0.015700244684280936,27.5,-0.08747979595851352,0.3669651270925421,0.7969755503682017
1648126021895785410,50993,12,5,0.883496522903,-0.263705164194,0.170357197523,-0.485512852669,27.5,0.2954837869240802,-0.0881957070882943,0.05697565134548494,27.5,-0.06560984495527027,0.4270829186689567,0.9376183095226789
1648126021895787439,50994,12,6,0.831616580486,-0.256380021572,0.785061120987,-0.242756426334,27.5,0.2781326356140468,-0.08574582661270903,0.2625622478217391,27.5,-0.03280492247756756,0.40257654274526355,1.1720229588561188
1648126021895791214,50995,12,7,1.09951674938,0.109877154231,-0.390675902367,-0.242756426334,27.5,0.36773135430769227,0.0367482121173913,-0.1306608369120401,27.5,-0.03280492247756756,0.5213474167728883,1.1720229229325398
1648126022090809212,50996,14,0,0.0126355709508,0.0439508594573,0.0103191342205,0.0,11.3999996185,0.00422594346180602,0.014699284099431437,0.003451215458361204,11.3999996185,0.0,0.015867770773506908,0.04688091542780209
1648126022090821392,50997,14,1,0.0327914953232,0.0146502861753,-0.0301314946264,0.0,11.3999996185,0.010967055292040133,0.0048997612626421405,-0.010077422951973244,11.3999996185,0.0,0.01626530860414949,0.046880913162719064
1648126022090824301,50998,14,2,0.282119899988,-1.58955609798,0.293342232704,0.0,11.3999996185,0.09435448160133779,-0.5316241130367892,0.09810777013511705,11.3999996185,0.0,0.5481147087596421,1.6408320730904824
1648126022091029814,50999,14,3,1.8779052496,-1.31852579117,0.479075014591,0.0,11.3999996185,0.6280619563879598,-0.44097852547491634,0.1602257573882943,11.3999996185,0.0,0.9916580570205511,2.344045916372177
1648126022091033551,51000,14,4,2.41890335083,-0.902457654476,0.476278811693,0.0,11.3999996185,0.8089977761973244,-0.30182530250033446,0.15929057247257525,11.3999996185,0.0,1.183238486955969,2.625331359132904
1648126022091036287,51001,14,5,0.867753148079,-0.111342176795,0.167393386364,-0.161837622523,11.3999996185,0.29021844417357856,-0.037238186219063545,0.05598441015518394,11.3999996185,-0.021869948989594594,0.4121166985089912,0.8907374204179767
1648126022091037446,51002,14,6,0.736007332802,0.0234404578805,0.142778679729,-0.0809188112617,11.3999996185,0.24615629859598662,0.007839618020234113,0.04775206679899665,11.3999996185,-0.010934974494824324,0.34820583896261165,0.7500946609522813
1648126022195795491,51003,15,0,0.0126355709508,0.0439508594573,0.0103191342205,0.0,27.2000007629,0.00422594346180602,0.014699284099431437,0.003451215458361204,27.2000007629,0.0,0.015867770773506908,0.04688091542780209
1648126022195800131,51004,15,1,0.0327914953232,0.0146502861753,-0.0301314946264,0.0,27.2000007629,0.010967055292040133,0.0048997612626421405,-0.010077422951973244,27.2000007629,0.0,0.01626530860414949,0.046880913162719064
1648126022195811096,51005,15,2,0.271248400211,-1.58955609798,0.303423166275,0.0,27.2000007629,0.0907185284986622,-0.5316241130367892,0.1014793198244147,27.2000007629,0.0,0.546885637394216,1.6408320758306674
1648126022195831500,51006,15,3,1.87949717045,-1.31852579117,0.472790807486,0.0,27.2000007629,0.6285943713879598,-0.44097852547491634,0.15812401588160535,27.2000007629,0.0,0.9923325185698996,2.3440458663075034
1648126022195834312,51007,15,4,2.41621565819,-0.902457654476,0.4897313416,0.0,27.2000007629,0.8080988823377926,-0.30182530250033446,0.16378974635451504,27.2000007629,0.0,1.1820093571967176,2.625331352791528
1648126022195836702,51008,15,5,2.27042269707,-0.747164547443,-0.0587872453034,0.161837622523,27.2000007629,0.7593386946722407,-0.2498878085093645,-0.019661286054648827,27.2000007629,0.021869948989594594,1.1025581269460116,2.39092660375359
1648126022195842818,51009,15,6,0.713999032974,0.117202289402,0.19776506722,0.242756426334,27.2000007629,0.23879566320200668,0.03919809010100334,0.06614216294983277,27.2000007629,0.03280492247756756,0.3399753340990178,0.7500946723856986
1648126022195940852,51010,15,7,0.54900175333,1.80198526382,0.382076114416,0.242756426334,27.2000007629,0.18361262653177257,0.6026706567959866,0.1277846536508361,27.2000007629,0.03280492247756756,0.6562309911964676,1.9221175753296356
1648126022195944786,51011,15,8,0.878429472446,-0.0278355441988,0.144913852215,-0.0809188112617,27.2000007629,0.293789121219398,-0.009309546554782609,0.04846617130936454,27.2000007629,-0.010934974494824324,0.41558484470777796,0.8907374361428805
1648126022390748869,51012,17,0,0.0126051837578,0.0439508594573,0.0103562315926,0.0,30.2999992371,0.004215780521003344,0.014699284099431437,0.003463622606220736,30.2999992371,0.0,0.015862363122761385,0.04688091549237075
1648126022390753224,51013,17,1,0.0328296348453,0.0146502861753,-0.0300899371505,0.0,30.2999992371,0.010979810985050166,0.0048997612626421405,-0.010063524130602006,30.2999992371,0.0,0.016282510831126296,0.04688091431291589
1648126022390755525,51014,17,2,0.284747481346,-1.58955609798,0.290792346001,0.0,30.2999992371,0.09523327135317725,-0.5316241130367892,0.09725496521772575,30.2999992371,0.0,0.5484185896807371,1.6408320771032785
1648126022390762697,51015,17,3,1.87665057182,-1.31852579117,0.483966708183,0.0,30.2999992371,0.6276423317123745,-0.44097852547491634,0.16186177531204013,30.2999992371,0.0,0.9911265575317433,2.344045947783937
1648126022390769319,51016,17,4,2.4189581871,-0.902457654476,0.476000756025,0.0,30.2999992371,0.8090161160869564,-0.30182530250033446,0.1591975772658863,30.2999992371,0.0,1.1832635654858414,2.6253314550351186
1648126022390945325,51017,17,5,0.807514488697,0.079111546278,0.231852248311,0.0809188112617,30.2999992371,0.2700717353501672,0.026458711129765885,0.07754255796354514,30.2999992371,0.010934974494824324,0.38285447348143903,0.843856475508092
1648126022390951530,51018,17,6,0.697524487972,0.224149376154,0.313666433096,0.242756426334,30.2999992371,0.23328578193043475,0.07496634653979932,0.10490516157056856,30.2999992371,0.03280492247756756,0.33832597478661613,0.796975523715751
1648126022390954387,51019,17,7,0.482952445745,-1.88988697529,0.508777022362,0.404594063759,30.2999992371,0.16152255710535116,-0.6320692225050167,0.17015953925150498,30.2999992371,0.05467487348094594,0.6720792921566615,2.0158794365500645
1648126022390959273,51020,17,8,0.598790705204,-1.19692838192,-1.50750851631,0.404594063759,30.2999992371,0.20026444990100334,-0.40031049562541804,-0.5041834502709029,30.2999992371,0.05467487348094594,0.4903674058256429,2.0158794078097806
1648126022495404103,51021,18,0,0.0126355709508,0.0439508594573,0.0103191342205,0.0,26.2000007629,0.00422594346180602,0.014699284099431437,0.003451215458361204,26.2000007629,0.0,0.015867770773506908,0.04688091542780209
1648126022495410276,51022,18,1,0.0327914953232,0.0146502861753,-0.0301314946264,0.0,26.2000007629,0.010967055292040133,0.0048997612626421405,-0.010077422951973244,26.2000007629,0.0,0.01626530860414949,0.046880913162719064
1648126022495418843,51023,18,2,0.288050204515,-1.58955609798,0.287521094084,0.0,26.2000007629,0.09633786104180601,-0.5316241130367892,0.09616090103143812,26.2000007629,0.0,0.5488043043766817,1.640832071995729
1648126022495426784,51024,18,3,1.87868058681,-1.31852579117,0.476025640965,0.0,26.2000007629,0.6283212664916388,-0.44097852547491634,0.1592058999882943,26.2000007629,0.0,0.9919865360887442,2.344045950934704
1648126022495439183,51025,18,4,2.38838982582,-0.984499275684,0.467674940825,0.0,26.2000007629,0.7987925838862876,-0.32926397180066885,0.15641302368729096,26.2000007629,0.0,1.176670704687346,2.625331337979737
1648126022495500395,51026,18,5,0.916508316994,0.276890397072,0.229309484363,0.0809188112617,26.2000007629,0.3065245207337793,0.09260548397056856,0.07669213523846154,26.2000007629,0.010934974494824324,0.44327230827513847,0.9844991755855813
1648126022495518211,51027,18,6,0.749628722668,0.237334623933,0.306305021048,0.242756426334,26.2000007629,0.250711947380602,0.07937612840568561,0.10244315085217391,26.2000007629,0.03280492247756756,0.3633366632744669,0.8438564519428001
1648126022495524017,51028,18,7,0.705711841583,0.197778865695,1.0320199728,0.242756426334,26.2000007629,0.23602402728528427,0.06614677782441471,0.3451571815384615,26.2000007629,0.03280492247756756,0.3402794133186457,1.2657847002251934
1648126022495545721,51029,18,8,2.63931417465,-0.254914969206,0.602085471153,0.242756426334,26.2000007629,0.8827137707859531,-0.0852558425438127,0.20136637831204013,26.2000007629,0.03280492247756756,1.2512536757021606,2.71909320704665
1648126022495548256,51030,18,9,1.40764451027,-1.1896032095,-1.99921190739,0.242756426334,26.2000007629,0.4707841171471571,-0.39786060518394645,-0.6686327449464883,26.2000007629,0.03280492247756756,0.7756084263811169,2.7190930682850727
1648126022495565863,51031,18,10,1.06579101086,0.351606875658,-0.0800409987569,0.404594063759,26.2000007629,0.3564518430969899,0.11759427279531771,-0.026769564801638796,26.2000007629,0.05467487348094594,0.5176333121899535,1.1251419622971863
1648126022495578808,51032,18,11,0.72946023941,-1.86937654018,0.477806717157,0.566431701183,26.2000007629,0.2439666352541806,-0.6252095452107023,0.1598015776444816,26.2000007629,0.07654482448418919,0.7140913202504746,2.0627603226782774
1648126022595466480,51033,19,0,0.0126355709508,0.0439508594573,0.0103191342205,0.0,27.6000003815,0.00422594346180602,0.014699284099431437,0.003451215458361204,27.6000003815,0.0,0.015867770773506908,0.04688091542780209
1648126022595475776,51034,19,1,0.032842002809,0.0146502861753,-0.0300764385611,0.0,27.6000003815,0.010983947427759197,0.0048997612626421405,-0.010059009552207357,27.6000003815,0.0,0.016288089594008386,0.04688091498727572
1648126022595480238,51035,19,2,0.489563643932,-1.53828001022,0.293857038021,0.0,27.6000003815,0.16373366017792643,-0.51447491980602,0.0982799458264214,27.6000003815,0.0,0.5641824758532757,1.6408320785799189
1648126022595482549,51036,19,3,1.87573480606,-1.31852579117,0.487503767014,0.0,27.6000003815,0.6273360555384615,-0.44097852547491634,0.16304473813177256,27.6000003815,0.0,0.9907386704308774,2.3440459141190604
1648126022595509893,51037,19,4,2.39145994186,-0.984499275684,0.45171391964,0.0,27.6000003815,0.7998193785484949,-0.32926397180066885,0.15107488951170567,27.6000003815,0.0,1.1780648707644892,2.6253313967078302
1648126022595598478,51038,19,5,0.736451268196,0.316446185112,0.26380866766,0.161837622523,27.6000003815,0.24630477197190634,0.10583484451906354,0.08823032363210702,27.6000003815,0.021869948989594594,0.3640509520748983,0.8438564283288831
1648126022595651622,51039,19,6,1.50999140739,-1.01965987682,-2.01833772659,0.242756426334,27.6000003815,0.505013848625418,-0.34102337017391304,-0.6750293399966555,27.6000003815,0.03280492247756756,0.7914385090527798,2.719093138045238
1648126022595673208,51040,19,7,1.63067162037,0.679773271084,-2.06695079803,0.242756426334,27.6000003815,0.5453751238695652,0.22734892009498325,-0.6912878923177258,27.6000003815,0.03280492247756756,0.8040868006253071,2.7190930905427306
1648126022595678109,51041,19,8,0.718574762344,0.263705134392,0.35525149107,0.323675245047,27.6000003815,0.24032600747290966,0.08819569712107023,0.11881320771571904,27.6000003815,0.04373989797932432,0.3511291225837151,0.8438564504048642
1648126022595687186,51042,19,9,0.889761090279,0.293005734682,0.0400113798678,0.323675245047,27.6000003815,0.29757895995953176,0.09799522899063544,0.013381732397257524,27.6000003815,0.04373989797932432,0.4320989929705001,0.937618295923207
1648126022595769778,51043,19,10,1.54485726357,-1.02845013142,-1.72178697586,0.323675245047,27.6000003815,0.516674670090301,-0.3439632546555184,-0.5758484869096989,27.6000003815,0.04373989797932432,0.8075990032058359,2.531569479169775
1648126022595774899,51044,19,11,0.797906756401,0.22268435359,0.327367812395,0.404594063759,27.6000003815,0.2668584469568562,0.07447637243812709,0.10948756267391303,27.6000003815,0.05467487348094594,0.3846733568574682,0.8907374460728866
1648126022595777542,51045,19,12,0.839463472366,0.234404578805,0.34566411376,0.485512852669,27.6000003815,0.28075701416923077,0.07839618020234114,0.11560672701003344,27.6000003815,0.06560984495527027,0.40471590416088327,0.9376183165569121
1648126022695525751,51046,20,0,0.0126355709508,0.0439508594573,0.0103191342205,0.0,37.0,0.00422594346180602,0.014699284099431437,0.003451215458361204,37.0,0.0,0.015867770773506908,0.04688091542780209
1648126022695534972,51047,20,1,0.0327914953232,0.0146502861753,-0.0301314946264,0.0,37.0,0.010967055292040133,0.0048997612626421405,-0.010077422951973244,37.0,0.0,0.01626530860414949,0.046880913162719064
1648126022695564455,51048,20,2,0.74320846796,0.34281668067,0.205454796553,0.0,37.0,0.24856470500334446,0.1146544082508361,0.06871397878026755,37.0,0.0,0.36974918320146255,0.8438564906544724
1648126022695647888,51049,20,3,0.260025709867,-1.58955609798,0.313094139099,0.0,37.0,0.08696512035685619,-0.5316241130367892,0.10471375889598662,37.0,0.0,0.5456647889313712,1.640832075002005
1648126022695652128,51050,20,4,1.875841856,-1.31852579117,0.487091630697,0.0,37.0,0.6273718581939799,-0.44097852547491634,0.1629068998986622,37.0,0.0,0.9907840111939462,2.3440459012990895
1648126022695657779,51051,20,5,2.39151072502,-0.984499275684,0.451444596052,0.0,37.0,0.799836362882943,-0.32926397180066885,0.15098481473311035,37.0,0.0,1.178087933010767,2.625331330520504
1648126022695662752,51052,20,6,1.95034563541,0.509829938412,-1.82474458218,0.161837622523,37.0,0.6522895101705685,0.1705116850876254,-0.6102824689565217,37.0,0.021869948989594594,0.9381031099556923,2.7190931307807906
1648126022695680891,51053,20,7,1.30561947823,-0.76474493742,-2.25920128822,0.161837622523,37.0,0.4366620328528428,-0.2557675375986622,-0.7555857151237457,37.0,0.021869948989594594,0.6684044398114344,2.7190931396217386
1648126022695697010,51054,20,8,0.916043281555,0.307655990124,0.18828484416,0.323675245047,37.0,0.3063689904866221,0.10289497997458194,0.06297151978595317,37.0,0.04373989797932432,0.44532156198364514,0.9844992049166862
1648126022695701493,51055,20,9,0.788912892342,-1.75217413902,0.978820383549,0.404594063759,37.0,0.2638504656662207,-0.5860114177324415,0.3273646767722408,37.0,0.05467487348094594,0.6947254984361443,2.156521993489728
1648126022695707169,51056,20,10,2.07612323761,0.26956525445,0.517334103584,0.404594063759,37.0,0.6943555978628763,0.09015560349498328,0.1730214393257525,37.0,0.05467487348094594,0.9860970669303145,2.1565221303946736
1648126022795517559,51057,21,0,0.0126355709508,0.0439508594573,0.0103191342205,0.0,23.6000003815,0.00422594346180602,0.014699284099431437,0.003451215458361204,23.6000003815,0.0,0.015867770773506908,0.04688091542780209
1648126022795524978,51058,21,1,0.0327914953232,0.0146502861753,-0.0301314946264,0.0,23.6000003815,0.010967055292040133,0.0048997612626421405,-0.010077422951973244,23.6000003815,0.0,0.01626530860414949,0.046880913162719064
1648126022795546028,51059,21,2,0.723044216633,0.395557701588,0.18120393157,0.0,23.6000003815,0.24182080823846153,0.13229354568160534,0.06060332159531772,23.6000003815,0.0,0.3666826813788955,0.8438564447276772
1648126022795551348,51060,21,3,0.282935231924,-1.58955609798,0.292555898428,0.0,23.6000003815,0.09462716786755852,-0.5316241130367892,0.09784478208294314,23.6000003815,0.0,0.5482087187918695,1.6408320717837963
1648126022795555395,51061,21,4,1.87777817249,-1.31852579117,0.479572623968,0.0,23.6000003815,0.6280194556822742,-0.44097852547491634,0.160392181929097,23.6000003815,0.0,0.9916042221375176,2.344045867452237
1648126022795640430,51062,21,5,2.38807725906,-0.984499275684,0.469268858433,0.0,23.6000003815,0.7986880465083612,-0.32926397180066885,0.15694610649933108,23.6000003815,0.0,1.1765287732973793,2.6253314229934577
1648126022795676321,51063,21,6,0.979420602322,0.5186201334,-2.53424167633,0.161837622523,23.6000003815,0.3275654188367893,0.17345154963210702,-0.847572467,23.6000003815,0.021869948989594594,0.49465507912607315,2.765974047793745
1648126022795687411,51064,21,7,1.73421704769,-0.6050568223,-2.06809329987,0.161837622523,23.6000003815,0.5800057015685619,-0.20236014123745819,-0.6916699999565218,23.6000003815,0.021869948989594594,0.844844870059423,2.7659740460961633
1648126022795713667,51065,21,8,0.904528081417,0.36918720603,0.12152569741,0.242756426334,23.6000003815,0.30251775298227424,0.12347398194983276,0.040644045956521734,23.6000003815,0.03280492247756756,0.44528620679001074,0.9844992322491387
1648126022795718476,51066,21,9,1.19839441776,-0.805765748024,-2.13611769676,0.242756426334,23.6000003815,0.40080080861538464,-0.26948687224882945,-0.7144206343678929,23.6000003815,0.03280492247756756,0.6276191127490856,2.578450394251992
1648126022795725943,51067,21,10,1.75180184841,-1.77268469334,0.661200404167,0.242756426334,23.6000003815,0.5858869058227424,-0.592871134896321,0.22113725891872907,23.6000003815,0.03280492247756756,1.0188341942741939,2.5784504479561416
1648126022795729755,51068,21,11,0.985368490219,0.527410328388,-0.129737511277,0.323675245047,23.6000003815,0.32955467900301,0.1763914141765886,-0.043390471998996656,23.6000003815,0.04373989797932432,0.49832369389862524,1.1251420078546348
1648126022795732116,51069,21,12,0.462995439768,0.175803437829,1.01028358936,0.323675245047,23.6000003815,0.1548479731665552,0.05879713639765886,0.33788748808026753,23.6000003815,0.04373989797932432,0.2267441131234619,1.1251420163377528
1648126022795735221,51070,21,13,1.43756222725,-1.58369588852,0.529440283775,0.323675245047,23.6000003815,0.48079004255852836,-0.5296641767625418,0.1770703290217391,23.6000003815,0.04373989797932432,0.8618945818326068,2.2034030132081797
1648126022795746645,51071,21,14,2.13486027718,0.344281733036,0.422878593206,0.323675245047,23.6000003815,0.7140000927023411,0.11514439231973243,0.14143096762742474,23.6000003815,0.04373989797932432,1.0162925247391048,2.203402963457938
1648126022895468752,51072,22,0,0.0126355709508,0.0439508594573,0.0103191342205,0.0,18.7999992371,0.00422594346180602,0.014699284099431437,0.003451215458361204,18.7999992371,0.0,0.015867770773506908,0.04688091542780209
1648126022895481131,51073,22,1,0.0327914953232,0.0146502861753,-0.0301314946264,0.0,18.7999992371,0.010967055292040133,0.0048997612626421405,-0.010077422951973244,18.7999992371,0.0,0.01626530860414949,0.046880913162719064
1648126022895629428,51074,22,2,0.239699929953,-1.58955609798,0.328915268183,0.0,18.7999992371,0.08016720065317724,-0.5316241130367892,0.11000510641571905,18.7999992371,0.0,0.5435786582301465,1.6408320751035956
1648126022895641291,51075,22,3,1.87388193607,-1.31852579117,0.494577974081,0.0,18.7999992371,0.6267163665785953,-0.44097852547491634,0.16541069367257524,18.7999992371,0.0,0.9899539727709485,2.3440458922034764
1648126022895643729,51076,22,4,2.38999032974,-0.984499275684,0.459426522255,0.0,18.7999992371,0.7993278694782607,-0.32926397180066885,0.15365435526923077,18.7999992371,0.0,1.1773974897948707,2.625331470390807
1648126022895651165,51077,22,5,0.761001348495,0.417533159256,0.199890330434,0.0809188112617,18.7999992371,0.2545155011688963,0.13964319707558526,0.06685295332240802,18.7999992371,0.010934974494824324,0.3860783640143535,0.8907374111883469
1648126022895657870,51078,22,6,0.890473425388,0.515690088272,-0.0697557926178,0.161837622523,18.7999992371,0.2978171991264214,0.17247160142876253,-0.023329696527692307,18.7999992371,0.021869948989594594,0.4551226444491803,1.0313801719385334
1648126022895725904,51079,22,7,1.45215547085,-1.48260891438,0.586261570454,0.161837622523,18.7999992371,0.48567072603678924,-0.49585582420735785,0.1960741038307692,18.7999992371,0.021869948989594594,0.8471275622115965,2.1565220456813834
1648126022895751063,51080,22,8,0.856914818287,0.7779302001,-2.51219701767,0.161837622523,18.7999992371,0.2865935847113712,0.26017732444816055,-0.8401996714615384,18.7999992371,0.021869948989594594,0.48162641720780974,2.7659740160777924
1648126022895756948,51081,22,9,1.64331865311,-0.5186201334,-2.16359639168,0.161837622523,18.7999992371,0.5496049007056856,-0.17345154963210702,-0.7236108333377926,18.7999992371,0.021869948989594594,0.7963771304031729,2.765974039017325
1648126022995510543,51082,23,0,0.0126355709508,0.0439508594573,0.0103191342205,0.0,15.5,0.00422594346180602,0.014699284099431437,0.003451215458361204,15.5,0.0,0.015867770773506908,0.04688091542780209
1648126022995669891,51083,23,1,0.0327914953232,0.0146502861753,-0.0301314946264,0.0,15.5,0.010967055292040133,0.0048997612626421405,-0.010077422951973244,15.5,0.0,0.01626530860414949,0.046880913162719064
1648126022995690090,51084,23,2,0.234718903899,-1.58955609798,0.332488119602,0.0,15.5,0.07850130565183945,-0.5316241130367892,0.11120004000066888,15.5,0.0,0.5430921722325225,1.6408320761581379
1648126022995696184,51085,23,3,1.87461853027,-1.31852579117,0.491778850555,0.0,15.5,0.6269627191538462,-0.44097852547491634,0.16447453195819395,15.5,0.0,0.9902659048697984,2.3440459325417082
1648126022995717324,51086,23,4,2.38980031013,-0.984499275684,0.460413455963,0.0,15.5,0.7992643177692307,-0.32926397180066885,0.15398443343244145,15.5,0.0,1.1773112003392219,2.625331387949254
1648126022995931262,51087,23,5,0.73640537262,0.417533159256,0.277103632689,0.161837622523,15.5,0.24628942228093645,0.13964319707558526,0.09267680023043479,15.5,0.021869948989594594,0.3752561545723742,0.8907374670189515
1648126022995976737,51088,23,6,0.848649442196,0.732514321804,0.34184011817,0.161837622523,15.5,0.2838292448816053,0.24498806749297658,0.11432779871906353,15.5,0.021869948989594594,0.47025230856856814,1.1720229408070628
1648126022995996265,51089,23,7,1.39831531048,0.966918885708,-2.24096751213,0.161837622523,15.5,0.46766398343812704,0.3233842427117057,-0.7494874622508361,15.5,0.021869948989594594,0.736204164104399,2.8128549961709193
1648126022996002766,51090,23,8,1.96004188061,1.93383777142,0.575031220913,0.161837622523,15.5,0.6555324015418059,0.6467684854247491,0.19231813408461537,15.5,0.021869948989594594,1.130378225498421,2.812855062910379
1648126022996030680,51091,23,9,1.56806385517,-1.44598317146,0.552533388138,0.242756426334,15.5,0.5244360719632106,-0.48360641185953174,0.18479377529698995,15.5,0.03280492247756756,0.8854047372496121,2.2034029887978686
1648126023095991802,51092,24,0,0.0126355709508,0.0439508594573,0.0103191342205,0.0,20.2000007629,0.00422594346180602,0.014699284099431437,0.003451215458361204,20.2000007629,0.0,0.015867770773506908,0.04688091542780209
1648126023095999645,51093,24,1,0.0328296348453,0.0146502861753,-0.0300899371505,0.0,20.2000007629,0.010979810985050166,0.0048997612626421405,-0.010063524130602006,20.2000007629,0.0,0.016282510831126296,0.04688091431291589
1648126023096004376,51094,24,2,0.280910491943,-1.58955609798,0.294500589371,0.0,20.2000007629,0.09394999730535117,-0.5316241130367892,0.09849518039163878,20.2000007629,0.0,0.5479757308033849,1.6408320725317773
1648126023096011933,51095,24,3,1.87839400768,-1.31852579117,0.47715523839,0.0,20.2000007629,0.6282254206287625,-0.44097852547491634,0.15958369176923076,20.2000007629,0.0,0.9918651209607093,2.344045953387353
1648126023096020526,51096,24,4,2.42003822327,-0.902457654476,0.470478177071,0.0,20.2000007629,0.8093773321973244,-0.30182530250033446,0.157350560893311,20.2000007629,0.0,1.1837575110550027,2.62533131915006
1648126023096026543,51097,24,5,0.714947402477,0.473204255104,0.241539046168,0.0809188112617,20.2000007629,0.23911284363779262,0.15826229267692307,0.08078228968829432,20.2000007629,0.010934974494824324,0.37335888534821154,0.8907374283035872
1648126023096046259,51098,24,6,0.72555655241,0.501039803028,0.126253724098,0.323675245047,20.2000007629,0.24266105431772575,0.16757184047759197,0.04222532578528428,20.2000007629,0.04373989797932432,0.3819019459052651,0.890737446059183
1648126023096132269,51099,24,7,2.04448914528,-1.58662593365,0.66588306427,0.323675245047,20.2000007629,0.6837756338729096,-0.5306441249665551,0.2227033659765886,20.2000007629,0.04373989797932432,1.1030328292114064,2.672212187267337
1648126023096137386,51100,24,8,2.30519175529,1.33610606194,0.204033836722,0.323675245047,20.2000007629,0.7709671422374582,0.4468582146956522,0.06823874137859531,20.2000007629,0.04373989797932432,1.1783305702817746,2.6722122378166944
1648126023096140060,51101,24,9,0.829913318157,0.404347896576,0.55712968111,-0.161837622523,20.2000007629,0.277562982661204,0.13523341022608695,0.18633099702675585,20.2000007629,-0.021869948989594594,0.41517525688430035,1.0782610160316137
1648126023290780352,51102,26,0,0.01262213476,0.0439508594573,0.0103355646133,0.0,23.2000007629,0.004221449752508361,0.014699284099431437,0.003456710573010033,23.2000007629,0.0,0.015865378314484143,0.04688091540073248
1648126023290788142,51103,26,1,0.0327914953232,0.0146502861753,-0.0301314946264,0.0,23.2000007629,0.010967055292040133,0.0048997612626421405,-0.010077422951973244,23.2000007629,0.0,0.01626530860414949,0.046880913162719064
1648126023290809892,51104,26,2,0.725667238235,0.615311980247,0.253055244684,0.0,23.2000007629,0.2426980729882943,0.2057899599488294,0.08463386109832775,23.2000007629,0.0,0.4001927246717557,0.9844992283111125
1648126023290817775,51105,26,3,0.277764737606,-1.58955609798,0.297469437122,0.0,23.2000007629,0.09289790555384615,-0.5316241130367892,0.09948810606086957,23.2000007629,0.0,0.5476168727082242,1.6408320767538684
1648126023290840250,51106,26,4,1.86642360687,-1.31852579117,0.522018969059,0.0,23.2000007629,0.6242219420969899,-0.44097852547491634,0.17458828396622073,23.2000007629,0.0,0.9867969020627837,2.344045892536986
1648126023290897717,51107,26,5,2.42031979561,-0.902457654476,0.469028413296,0.0,23.2000007629,0.809471503548495,-0.30182530250033446,0.15686569006555182,23.2000007629,0.0,1.1838862881812342,2.6253314807130392
1648126023290900239,51108,26,6,0.641626894474,0.615312039852,0.2980504632,0.242756426334,23.2000007629,0.21459093460668896,0.20578997988361203,0.0996824291638796,23.2000007629,0.03280492247756756,0.3666715890974401,0.9376182894509436
1648126023290913765,51109,26,7,1.08337771893,0.738374471664,-0.064707159996,0.323675245047,23.2000007629,0.36233368526086956,0.2469479838341137,-0.021641190634113714,23.2000007629,0.04373989797932432,0.5688186931432365,1.3126656691000222
