%time,field.header.seq,field.header.frame_id,field.point_id,field.x,field.y,field.z,field.velocity,field.intensity,normalized_x,normalized_y,normalized_z,normalized_intensity,normalized_velocity,normalized_range,range
1648127711193023024,125208,0,0,0.0126038333401,0.0439508594573,0.0103578744456,0.0,36.0999984741,0.004215328876287625,0.014699284099431437,0.003464172055384615,36.0999984741,0.0,0.01586212306427883,0.04688091535935669
1648127711193032164,125209,0,1,0.0328607447445,0.0146502861753,-0.0300559606403,0.0,36.0999984741,0.010990215633612039,0.0048997612626421405,-0.010052160749264214,36.0999984741,0.0,0.016296543798531928,0.04688091509551231
1648127711193035040,125210,0,2,0.868157565594,-0.430718421936,0.173271030188,-0.566431701183,36.0999984741,0.2903537008675585,-0.14405298392508362,0.057950177320401336,36.0999984741,-0.07654482448418919,0.4351572191664706,0.9844992471279749
1648127711193066153,125211,0,3,1.62839186192,1.74045395851,0.853231310844,-0.566431701183,36.0999984741,0.5446126628494983,0.5820916249197324,0.2853616424227424,36.0999984741,-0.07654482448418919,0.9654204083577977,2.531569415889081
1648127711193121460,125212,0,4,2.13240170479,-1.10756158829,0.796877563,-0.566431701183,36.0999984741,0.7131778276889631,-0.37042193588294314,0.26651423511705685,36.0999984741,-0.07654482448418919,1.0744569039275442,2.531569385353596
1648127711193133977,125213,0,5,0.741433143616,-0.44536870718,0.212924212217,-0.485512852669,36.0999984741,0.24797095104214045,-0.14895274487625418,0.07121211110936454,36.0999984741,-0.06560984495527027,0.38100669984615454,0.8907373978540021
1648127711193137075,125214,0,6,2.05631804466,-0.064461261034,-0.149602249265,-0.242756426334,36.0999984741,0.6877317875117056,-0.021558950178595316,-0.050034197078595306,36.0999984741,-0.03280492247756756,0.9728385330777635,2.0627602836862953
1648127711289928472,125215,1,0,0.0126038333401,0.0439508594573,0.0103578744456,0.0,18.5,0.004215328876287625,0.014699284099431437,0.003464172055384615,18.5,0.0,0.01586212306427883,0.04688091535935669
1648127711289938859,125216,1,1,0.032885145396,0.0146502861753,-0.0300292614847,0.0,18.5,0.010998376386622074,0.0048997612626421405,-0.010043231265785952,18.5,0.0,0.016307551217595504,0.04688091528597467
1648127711289943810,125217,1,2,1.78503489494,-1.46502864361,0.402359217405,0.0,18.5,0.5970016371036788,-0.489976134986622,0.1345683001354515,18.5,0.0,0.9761652125871797,2.3440459557316653
1648127711289946779,125218,1,3,0.724339962006,-0.36918720603,0.226110905409,-0.647350490093,18.5,0.24225416789498327,-0.12347398194983276,0.0756223763909699,18.5,-0.08747979595851352,0.36417027328370605,0.8438564541436944
1648127711289950017,125219,1,4,0.997714459896,-0.404347896576,-0.0609547607601,-0.647350490093,18.5,0.333683765851505,-0.13523341022608695,-0.020386207612073576,18.5,-0.08747979595851352,0.4908948832765128,1.078261029533352
1648127711289952609,125220,1,5,0.497740894556,-0.439508616924,0.965776383877,-0.566431701183,18.5,0.16646852660735786,-0.1469928484695652,0.32300213507591974,18.5,-0.07654482448418919,0.2775435789256271,1.1720229716683839
1648127711289959187,125221,1,6,1.18701553345,-0.131852582097,-0.74272954464,-0.161837622523,18.5,0.3969951616889632,-0.04409785354414715,-0.2484045299799331,18.5,-0.021869948989594594,0.5631651067813889,1.406427444462876
1648127711393235848,125222,2,0,0.0125787733123,0.0439508594573,0.0103882942349,0.0,17.5,0.004206947596086956,0.014699284099431437,0.003474345897959866,17.5,0.0,0.01585767224999437,0.04688091554341088
1648127711393243743,125223,2,1,0.032885145396,0.0146502861753,-0.0300292614847,0.0,17.5,0.010998376386622074,0.0048997612626421405,-0.010043231265785952,17.5,0.0,0.016307551217595504,0.04688091528597467
1648127711393246826,125224,2,2,1.71806848049,-1.53828012943,0.420102596283,0.0,17.5,0.5746048429732441,-0.5144749596755852,0.14050254056287625,17.5,0.0,0.9617826860938016,2.3440459150059563
1648127711393249917,125225,2,3,1.16864836216,-1.31413066387,0.500206053257,0.566431701183,17.5,0.39085229503678925,-0.43950858323411374,0.16729299440033443,17.5,0.07654482448418919,0.7061861141423758,1.8283556797892477
1648127711393259675,125226,2,4,0.65007352829,-0.328166425228,0.179869890213,-0.647350490093,17.5,0.21741589574916387,-0.10975465726688963,0.06015715391739131,17.5,-0.08747979595851352,0.32647423824950567,0.7500946421856183
1648127711393263928,125227,2,5,0.95464605093,-0.386767566204,0.052979208529,-0.647350490093,17.5,0.31927961569565216,-0.1293537010715719,0.017718798839130436,17.5,-0.08747979595851352,0.4696927995812159,1.0313801575364774
1648127711393266704,125228,2,6,1.32474756241,1.7580344677,0.805549502373,-0.566431701183,17.5,0.44305938542140466,0.5879713938795986,0.26941454928862874,17.5,-0.07654482448418919,0.8592517663878868,2.3440459241460796
1648127711393377327,125229,2,7,1.47023367882,0.219754308462,-1.81236636639,-0.566431701183,17.5,0.491716949438127,0.0734964242347826,-0.6061425974548494,17.5,-0.07654482448418919,0.6992659301759054,2.344045834117988
1648127711393380748,125230,2,8,0.859884440899,-0.22268435359,0.0665104389191,-0.485512852669,17.5,0.2875867695314381,-0.07447637243812709,0.022244293952876252,17.5,-0.06560984495527027,0.41347192174390707,0.8907374537534577
1648127711393388651,125231,2,9,0.637394964695,-0.281285494566,0.883487701416,-0.404594063759,17.5,0.2131755734765886,-0.09407541624280935,0.2954808365939799,17.5,-0.05467487348094594,0.31581297344378156,1.1251419417234017
1648127711393391827,125232,2,10,0.313032090664,0.307655990124,1.91945660114,-0.161837622523,17.5,0.10469300691103678,0.10289497997458194,0.6419587294782608,17.5,-0.021869948989594594,0.1803014927728509,1.9689984615800427
1648127711588071118,125233,4,0,0.0126877604052,0.0439508594573,0.0102548981085,0.0,16.0,0.004243398128829431,0.014699284099431437,0.003429731808862876,16.0,0.0,0.015877084379548535,0.04688091558780411
1648127711588229152,125234,4,1,0.032885145396,0.0146502861753,-0.0300292614847,0.0,16.0,0.010998376386622074,0.0048997612626421405,-0.010043231265785952,16.0,0.0,0.016307551217595504,0.04688091528597467
1648127711588233082,125235,4,2,0.79167765379,-0.0747164562345,0.0532348901033,0.0,16.0,0.2647751350468227,-0.024988781349331104,0.017804311071337793,16.0,0.0,0.3752814723263741,0.7969755390644003
1648127711588238585,125236,4,3,1.86761438847,-1.31852579117,0.517742574215,0.0,16.0,0.624620196812709,-0.44097852547491634,0.17315805157692307,16.0,0.0,0.9873007852031346,2.3440458910088386
1648127711588367603,125237,4,4,0.623661994934,-0.143572807312,0.145620673895,-0.485512852669,16.0,0.20858260700133777,-0.0480176613083612,0.04870256652006689,16.0,-0.06560984495527027,0.29886301826166706,0.6563328542669026
1648127711588381471,125238,4,5,0.863093018532,-0.351606875658,0.102816037834,-0.323675245047,16.0,0.2886598724187291,-0.11759427279531771,0.0343866347270903,16.0,-0.04373989797932432,0.4248263844017383,0.9376183078868192
1648127711690021308,125239,5,0,0.0125994505361,0.0439508594573,0.0103632062674,0.0,19.3999996185,0.004213863055551839,0.014699284099431437,0.003465955273377926,19.3999996185,0.0,0.01586134410249293,0.04688091557326548
1648127711690028110,125240,5,1,0.032885145396,0.0146502861753,-0.0300292614847,0.0,19.3999996185,0.010998376386622074,0.0048997612626421405,-0.010043231265785952,19.3999996185,0.0,0.016307551217595504,0.04688091528597467
1648127711690070187,125241,5,2,0.604856133461,-0.0,0.0747039318085,0.0,19.3999996185,0.2022930212244147,-0.0,0.024984592578093646,19.3999996185,0.0,0.2860855341889956,0.6094519009840235
1648127711690075069,125242,5,3,0.714760959148,-0.046880915761,0.222622871399,0.0,19.3999996185,0.23905048800936451,-0.015679236040468225,0.07445580983244146,19.3999996185,0.0,0.33843183963368956,0.7500946552633838
1648127711690078637,125243,5,4,1.46859109402,-0.480529397726,1.14318323135,0.242756426334,19.3999996185,0.4911675899732441,-0.16071217315250835,0.38233552887959865,19.3999996185,0.03280492247756756,0.7129653606449976,1.9221176353058103
1648127711690100492,125244,5,5,0.642957389355,-0.0615312047303,0.116586796939,-0.161837622523,19.3999996185,0.2150359161722408,-0.020578998237558526,0.03899223977892976,19.3999996185,-0.021869948989594594,0.3048022074338232,0.6563328232705224
1648127711690221645,125245,5,6,0.778714120388,-0.0996219441295,0.137294769287,-0.0809188112617,19.3999996185,0.2604395051464883,-0.033318375963043476,0.04591798303913043,19.3999996185,-0.010934974494824324,0.36982101868161865,0.7969755747307243
1648127711789862215,125246,6,0,0.0125890737399,0.0439508594573,0.0103758089244,0.0,16.7999992371,0.004210392555150501,0.014699284099431437,0.003470170208829431,16.7999992371,0.0,0.01585950074790286,0.0468809154720728
1648127711789870174,125247,6,1,0.032885145396,0.0146502861753,-0.0300292614847,0.0,16.7999992371,0.010998376386622074,0.0048997612626421405,-0.010043231265785952,16.7999992371,0.0,0.016307551217595504,0.04688091528597467
1648127711789875675,125248,6,2,1.82819747925,-1.39177727699,0.46389773488,0.0,16.7999992371,0.6114372840301003,-0.4654773501638796,0.1551497441070234,16.7999992371,0.0,0.9820286493375833,2.34404588698868
1648127711789891535,125249,6,3,2.42726612091,-0.902457654476,0.431641936302,0.0,16.7999992371,0.8117946892675585,-0.30182530250033446,0.14436185160602005,16.7999992371,0.0,1.187063497996397,2.625331484025273
1648127711789923545,125250,6,4,0.77637809515,0.0249054860324,0.178288593888,0.0809188112617,16.7999992371,0.25965822580267556,0.00832959399076923,0.05962829227023411,16.7999992371,0.010934974494824324,0.3673066438141808,0.7969755658574563
1648127711789984377,125251,6,5,1.49554300308,0.046880915761,0.108265474439,0.161837622523,16.7999992371,0.5001816063812708,0.015679236040468225,0.03620918877558528,16.7999992371,0.021869948989594594,0.7075373609690939,1.50018935714117
1648127711790011824,125252,6,6,0.782474637032,0.105482056737,0.297826617956,0.323675245047,16.7999992371,0.2616972030207358,0.035278279845150494,0.09960756453377927,16.7999992371,0.04373989797932432,0.37177333035948823,0.8438564547687818
1648127711790037156,125253,6,7,0.667483210564,1.80198526382,0.0430256873369,0.323675245047,16.7999992371,0.22323853196120397,0.6026706567959866,0.014389861985585284,16.7999992371,0.04373989797932432,0.680354910959929,1.9221175659100753
1648127711790042413,125254,6,8,0.587942481041,0.133317604661,-0.0893400683999,0.566431701183,16.7999992371,0.19663628128461538,0.0445878276458194,-0.02987962153842809,16.7999992371,0.07654482448418919,0.2816375838006321,0.609451878778704
1648127711790045297,125255,6,9,1.47359311581,-1.35368645191,0.501035392284,-0.647350490093,16.7999992371,0.4928405069598662,-0.4527379437826087,0.16757036531237457,16.7999992371,-0.08747979595851352,0.8311168247252732,2.0627603218426738
1648127711790047954,125256,6,10,2.06437182426,-1.29508531094,0.0634725615382,-0.647350490093,16.7999992371,0.690425359284281,-0.4331388999799331,0.021228281450903008,16.7999992371,-0.08747979595851352,1.0681683669541442,2.437807571872591
1648127711790160670,125257,6,11,0.620969355106,0.304725944996,-2.33761525154,-0.647350490093,16.7999992371,0.20768205856387958,0.10191503177123744,-0.7818111209163879,16.7999992371,-0.08747979595851352,0.31088639178901634,2.4378076022867115
1648127711790167367,125258,6,12,1.22496891022,-0.316446185112,0.03903728351,-0.485512852669,16.7999992371,0.40968859873578595,-0.10583484451906354,0.013055947662207357,16.7999992371,-0.06560984495527027,0.5889741167339682,1.2657847086220282
1648127711889872040,125259,7,0,0.0125994505361,0.0439508594573,0.0103632062674,0.0,18.7000007629,0.004213863055551839,0.014699284099431437,0.003465955273377926,18.7000007629,0.0,0.01586134410249293,0.04688091557326548
1648127711889878382,125260,7,1,0.0329502373934,0.0146502861753,-0.0299578215927,0.0,18.7000007629,0.011020146285418059,0.0048997612626421405,-0.010019338325317725,18.7000007629,0.0,0.016336918581388457,0.046880914068303366
1648127711889880920,125261,7,2,2.42486548424,-0.902457654476,0.444930166006,0.0,18.7000007629,0.8109918007491639,-0.30182530250033446,0.14880607558729095,18.7000007629,0.0,1.1859653936747738,2.6253314623877384
1648127711889890473,125262,7,3,0.796221971512,0.101086974144,0.720040798187,0.161837622523,18.7000007629,0.26629497374983274,0.03380835255652174,0.24081632046387957,18.7000007629,0.021869948989594594,0.3781124578633112,1.0782609866418325
1648127711889893193,125263,7,4,0.757244765759,0.0747164562345,0.236997589469,0.323675245047,18.7000007629,0.2532591189829431,0.024988781349331104,0.07926340784916387,18.7000007629,0.04373989797932432,0.3590331487333137,0.7969755589199466
1648127711889912202,125264,7,5,0.691407561302,0.167013257742,0.536167263985,0.323675245047,18.7000007629,0.23123998705752505,0.05585727683678929,0.17932015517892977,18.7000007629,0.04373989797932432,0.3317587958206239,0.8907374355309959
1648127711889979699,125265,7,6,1.81422305107,-0.380907416344,-1.58316457272,0.404594063759,18.7000007629,0.6067635622307692,-0.12739378473043478,-0.5294864791705686,18.7000007629,0.05467487348094594,0.867498252038521,2.4378075812449396
1648127711890017185,125266,7,7,0.288491696119,0.175803437829,-0.616745710373,-0.566431701183,18.7000007629,0.09648551709665551,0.05879713639765886,-0.20626946835217388,18.7000007629,-0.07654482448418919,0.14857998945814643,0.7032137503957163
1648127711890123980,125267,7,8,0.539810717106,0.439508587122,0.0997303277254,-0.566431701183,18.7000007629,0.18053870137324415,0.14699283850234113,0.03335462465732441,18.7000007629,-0.07654482448418919,0.29461048854046284,0.703213727628156
1648127711890130936,125268,7,9,1.15187966824,-0.34281668067,0.203412160277,-0.404594063759,18.7000007629,0.3852440362006689,-0.1146544082508361,0.06803082283511705,18.7000007629,-0.05467487348094594,0.5567509031763792,1.218903832793566
1648127711890139193,125269,7,10,1.1666020155,-0.190453708172,0.297478824854,-0.161837622523,18.7000007629,0.3901678981605351,-0.06369689236521739,0.09949124577056856,18.7000007629,-0.021869948989594594,0.5554451112459317,1.2189038226052311
1648127711989761109,125270,8,0,0.0125994505361,0.0439508594573,0.0103632062674,0.0,28.6000003815,0.004213863055551839,0.014699284099431437,0.003465955273377926,28.6000003815,0.0,0.01586134410249293,0.04688091557326548
1648127711989815143,125271,8,1,0.0328737124801,0.0146502861753,-0.0300417765975,0.0,28.6000003815,0.010994552668929765,0.0048997612626421405,-0.010047416922240803,28.6000003815,0.0,0.016302393603720582,0.04688091507614338
1648127711989837952,125272,8,2,2.42449712753,-0.902457654476,0.446933060884,0.0,28.6000003815,0.8108686045250836,-0.30182530250033446,0.14947594009498327,28.6000003815,0.0,1.1857969053924584,2.625331464869662
1648127711989896572,125273,8,3,1.18517303467,-0.0380907431245,0.282206565142,0.0809188112617,28.6000003815,0.396378941361204,-0.01273937897140468,0.09438346660267558,28.6000003815,0.010934974494824324,0.5607092134839899,1.2189038404361188
1648127711989905664,125274,8,4,0.872791349888,0.167013257742,0.0612780712545,0.161837622523,28.6000003815,0.2919034615010033,0.05585727683678929,0.020494338212207357,28.6000003815,0.021869948989594594,0.41657567985680244,0.890737430850183
1648127711989931194,125275,8,5,0.671343564987,0.202173948288,0.819188773632,0.323675245047,28.6000003815,0.22452962039698995,0.06761670511304348,0.2739761784722408,28.6000003815,0.04373989797932432,0.3246523058312956,1.0782609769719542
1648127711989938599,125276,8,6,0.806372404099,0.22268435359,0.305922150612,0.404594063759,28.6000003815,0.2696897672571906,0.07447637243812709,0.10231510053913043,28.6000003815,0.05467487348094594,0.3886024590478268,0.8907374122945934
1648127711989946773,125277,8,7,1.73195040226,-0.0,-1.78157925606,0.485512852669,28.6000003815,0.579247626173913,-0.0,-0.5958459050367892,28.6000003815,0.06560984495527027,0.8191798489075683,2.4846884797720374
1648127711989953639,125278,8,8,0.526367545128,0.597731649876,-0.0287074726075,-0.647350490093,28.6000003815,0.1760426572334448,0.19991025079464883,-0.009601161407190634,28.6000003815,-0.08747979595851352,0.3192900604535063,0.7969755559683575
1648127711989958457,125279,8,9,1.41642129421,-1.32292079926,0.554437696934,-0.566431701183,28.6000003815,0.47371949639130434,-0.44244842784615385,0.185430667870903,28.6000003815,-0.07654482448418919,0.8028579786151442,2.015879431808293
1648127711989965742,125280,8,10,1.14481937885,-0.183128580451,0.171727463603,-0.0809188112617,28.6000003815,0.38288273540133777,-0.061247016873244145,0.05743393431538461,28.6000003815,-0.010934974494824324,0.5449307985539935,1.172022955800789
1648127712089798221,125281,9,0,0.0125890737399,0.0439508594573,0.0103758089244,0.0,14.6999998093,0.004210392555150501,0.014699284099431437,0.003470170208829431,14.6999998093,0.0,0.01585950074790286,0.0468809154720728
1648127712089804882,125282,9,1,0.0328607447445,0.0146502861753,-0.0300559606403,0.0,14.6999998093,0.010990215633612039,0.0048997612626421405,-0.010052160749264214,14.6999998093,0.0,0.016296543798531928,0.04688091509551231
1648127712089812565,125283,9,2,2.42361760139,-0.902457654476,0.451678276062,0.0,14.6999998093,0.810574448625418,-0.30182530250033446,0.15106296858260868,14.6999998093,0.0,1.1853946122529069,2.6253314763960915
1648127712089817718,125284,9,3,0.846116244793,0.278355449438,0.0043228729628,0.161837622523,14.6999998093,0.2829820216698996,0.09309546803946488,0.0014457769106354513,14.6999998093,0.021869948989594594,0.4108824836206261,0.8907374153840689
1648127712089820579,125285,9,4,1.58371925354,0.594801604748,-2.12873482704,0.242756426334,14.6999998093,0.5296719911505017,0.19893030259130434,-0.7119514471705686,14.6999998093,0.03280492247756756,0.7750342584090991,2.71909315524443
1648127712089825664,125286,9,5,1.46403121948,-1.10463154316,-2.00745344162,0.242756426334,14.6999998093,0.48964254832107024,-0.3694419876789297,-0.671389110909699,14.6999998093,0.03280492247756756,0.7848484137162167,2.7190931536135574
1648127712089924141,125287,9,6,0.778926849365,0.263705134392,0.189278244972,0.323675245047,14.6999998093,0.26051065196153844,0.08819569712107023,0.06330376086020066,14.6999998093,0.04373989797932432,0.37882724368968396,0.8438564383744835
1648127712089927504,125288,9,7,0.261851370335,0.553780794144,-0.580391585827,0.323675245047,14.6999998093,0.08757570914214047,0.18521096794113712,-0.19411089826989966,14.6999998093,0.04373989797932432,0.22280509937878554,0.8438564457346146
1648127712089941777,125289,9,8,1.21928358078,0.039555773139,0.337629795074,0.323675245047,14.6999998093,0.4077871507625418,0.013229355564882942,0.11291966390434781,14.6999998093,0.04373989797932432,0.5768498387819191,1.2657847321207638
1648127712089997324,125290,9,9,1.46079814434,-2.05690026283,0.209938451648,0.323675245047,14.6999998093,0.48856125228762537,-0.6879265093076923,0.07021352897926421,14.6999998093,0.04373989797932432,0.9750010649645322,2.5315694861523497
1648127712090008544,125291,9,10,0.698061347008,0.263705164194,0.567713022232,0.404594063759,14.6999998093,0.23346533344749162,0.0881957070882943,0.1898705759973244,14.6999998093,0.05467487348094594,0.3417464068462185,0.9376183303567605
1648127712090118283,125292,9,11,0.807015001774,-1.80491530895,0.588207066059,0.485512852669,14.6999998093,0.2699046828675585,-0.603650605,0.19672477125719062,14.6999998093,0.06560984495527027,0.714206642775423,2.0627602958492535
1648127712193176272,125293,10,0,0.0126141794026,0.0439508594573,0.0103452727199,0.0,21.8999996185,0.004218789097859532,0.014699284099431437,0.003459957431404682,21.8999996185,0.0,0.015863962806948167,0.0468809154847196
1648127712193178935,125294,10,1,0.032885145396,0.0146502861753,-0.0300292614847,0.0,21.8999996185,0.010998376386622074,0.0048997612626421405,-0.010043231265785952,21.8999996185,0.0,0.016307551217595504,0.04688091528597467
1648127712193183031,125295,10,2,2.42426943779,-0.902457654476,0.448165625334,0.0,21.8999996185,0.8107924541103678,-0.30182530250033446,0.14988816900802673,21.8999996185,0.0,1.1856927597459825,2.625331322491693
1648127712193341620,125296,10,3,0.816532313824,0.334026515484,0.122941032052,0.161837622523,21.8999996185,0.2730877303759197,0.11171455367357858,0.04111740202408026,21.8999996185,0.021869948989594594,0.40203726004716145,0.8907374640864552
1648127712193345212,125297,10,4,0.830854535103,0.483459472656,0.373754888773,0.161837622523,21.8999996185,0.2778777709374582,0.16169213132307692,0.12500163504113712,21.8999996185,0.021869948989594594,0.42494288615546927,1.031380161280872
1648127712193346520,125298,10,5,0.749796628952,0.338421612978,0.540846168995,0.323675245047,21.8999996185,0.2507681033284281,0.11318448594581938,0.1808850063528428,21.8999996185,0.04373989797932432,0.37226336262476023,0.984499238920469
1648127712193347599,125299,10,6,1.24201858044,-1.64815723896,0.437668532133,0.404594063759,21.8999996185,0.41539082957859524,-0.5512231568428093,0.1463774354959866,21.8999996185,0.05467487348094594,0.8055718783794152,2.1096412449783726
1648127712193348837,125300,10,7,2.07716989517,0.329631447792,0.165210425854,0.404594063759,21.8999996185,0.6947056505585284,0.11024463136856186,0.05525432302809364,21.8999996185,0.05467487348094594,0.9886282216189696,2.109641237173956
1648127712193354011,125301,10,8,0.691240608692,0.474669247866,0.0947059616446,-0.242756426334,21.8999996185,0.23118415006421403,0.15875225681137123,0.03167423466374582,21.8999996185,-0.03280492247756756,0.3634480726658619,0.8438564410760809
1648127712193355534,125302,10,9,0.806909501553,0.46880915761,0.0907919406891,-0.0809188112617,21.8999996185,0.269869398512709,0.15679236040468228,0.03036519755488294,21.8999996185,-0.010934974494824324,0.412604930640067,0.9376183373044715
1648127712289795152,125303,11,0,0.0126038333401,0.0439508594573,0.0103578744456,0.0,15.0,0.004215328876287625,0.014699284099431437,0.003464172055384615,15.0,0.0,0.01586212306427883,0.04688091535935669
1648127712289802285,125304,11,1,0.032885145396,0.0146502861753,-0.0300292614847,0.0,15.0,0.010998376386622074,0.0048997612626421405,-0.010043231265785952,15.0,0.0,0.016307551217595504,0.04688091528597467
1648127712289805723,125305,11,2,2.42297816277,-0.902457654476,0.455096065998,0.0,15.0,0.810360589555184,-0.30182530250033446,0.15220604213979932,15.0,0.0,1.1851021405085171,2.6253314885304415
1648127712289965626,125306,11,3,0.79614508152,0.389697611332,0.0877607986331,0.161837622523,15.0,0.2662692580334448,0.13033364927491636,0.02935143766993311,15.0,0.021869948989594594,0.3984789777148593,0.8907374343110732
1648127712289970419,125307,11,4,1.40286064148,-1.55000019073,0.529215037823,0.323675245047,15.0,0.4691841610301003,-0.518394712618729,0.1769949959274247,15.0,0.04373989797932432,0.8420217526846281,2.1565219977859518
1648127712289972657,125308,11,5,2.10090780258,0.404347896576,0.270694285631,0.323675245047,15.0,0.7026447500267559,0.13523341022608695,0.09053320589665552,15.0,0.04373989797932432,1.002849622187545,2.156521785811643
1648127712289995272,125309,11,6,1.94454228878,-1.6921081543,-0.0627048537135,0.485512852669,15.0,0.6503485915652173,-0.565922459632107,-0.020971522981103677,15.0,0.06560984495527027,1.079895740994369,2.5784504294986057
1648127712290090890,125310,11,7,0.623759508133,0.473204225302,0.148902207613,-0.161837622523,15.0,0.2086152201113712,0.158262282709699,0.049800069435785944,15.0,-0.021869948989594594,0.33479481813898554,0.7969755518596622
1648127712393117133,125311,12,0,0.0126038333401,0.0439508594573,0.0103578744456,0.0,26.6000003815,0.004215328876287625,0.014699284099431437,0.003464172055384615,26.6000003815,0.0,0.01586212306427883,0.04688091535935669
1648127712393123731,125312,12,1,0.0329862907529,0.0146502861753,-0.0299181193113,0.0,26.6000003815,0.011032204265183946,0.0048997612626421405,-0.010006059970334448,26.6000003815,0.0,0.016353186916572997,0.04688091430185875
1648127712393125888,125313,12,2,0.895549118519,0.483459472656,0.167343199253,0.0,26.6000003815,0.29951475535752503,0.16169213132307692,0.055967625168227425,26.6000003815,0.0,0.45339003372985087,1.0313801586792355
1648127712393268769,125314,12,3,1.86830997467,-1.31852579117,0.515227019787,0.0,26.6000003815,0.6248528343377926,-0.44097852547491634,0.1723167290257525,26.6000003815,0.0,0.9875951544484092,2.3440459264593096
1648127712393272913,125315,12,4,2.42307019234,-0.902457654476,0.454605937004,0.0,26.6000003815,0.8103913686755853,-0.30182530250033446,0.1520421193993311,26.6000003815,0.0,1.1851442334489062,2.6253315091790244
1648127712393279514,125316,12,5,0.808171212673,0.439508587122,0.181161820889,0.161837622523,26.6000003815,0.2702913754759197,0.14699283850234113,0.060589237755518395,26.6000003815,0.021869948989594594,0.4095384595911653,0.9376183191977118
1648127712393283593,125317,12,6,1.54100322723,-0.5186201334,-2.23762249947,0.242756426334,26.6000003815,0.5153856947257525,-0.17345154963210702,-0.7483687289197324,26.6000003815,0.03280492247756756,0.7492197733146613,2.7659740127549064
1648127712393371750,125318,12,7,1.28811705112,0.6050568223,-2.37176585197,0.242756426334,26.6000003815,0.4308083783010033,0.20236014123745819,-0.7932327264113711,26.6000003815,0.03280492247756756,0.6419823552017024,2.7659740693232897
1648127712393393947,125319,12,8,1.4149389267,-1.55000019073,0.496018618345,0.323675245047,26.6000003815,0.4732237213043478,-0.518394712618729,0.1658925144966555,26.6000003815,0.04373989797932432,0.846530837525323,2.156522021055864
1648127712393406935,125320,12,9,1.09122216702,0.57136118412,0.678836464882,-0.647350490093,26.6000003815,0.36495724649498323,0.19109069703010034,0.22703560698394648,26.6000003815,-0.08747979595851352,0.5503664579440225,1.4064275191307671
1648127712393411344,125321,12,10,1.84631049633,1.17055785656,0.275529652834,-0.647350490093,26.6000003815,0.6174951492742475,0.39149092192642143,0.09215038556321069,26.6000003815,-0.08747979595851352,0.9570087046131033,2.2034029894695837
1648127712393496791,125322,12,11,0.593752384186,0.523015201092,0.0953062549233,-0.0809188112617,26.6000003815,0.1985793927043478,0.1749214719371237,0.03187500164658862,26.6000003815,-0.010934974494824324,0.330855061557633,0.7969755808852425
