%time,field.header.seq,field.header.frame_id,field.point_id,field.x,field.y,field.z,field.velocity,field.intensity,normalized_x,normalized_y,normalized_z,normalized_intensity,normalized_velocity,normalized_range,range
1648218235435056263,25713,0,0,0.00493015442044,0.0454158857465,0.0105314357206,0.0,29.2000007629,0.001648881077070234,0.015189259446989964,0.003522219304548495,29.2000007629,0.0,0.015367212504570061,0.04688091551031885
1648218235435063021,25714,0,1,0.0334662795067,0.0146502861753,-0.0293802209198,0.0,29.2000007629,0.0111927356209699,0.0048997612626421405,-0.009826160842742473,29.2000007629,0.0,0.01656992220237456,0.04688091435045831
1648218235435065027,25715,0,2,0.952992379665,-0.659262895584,0.175544172525,0.242756426334,29.2000007629,0.3187265483829431,-0.22048926273712371,0.05871042559364548,29.2000007629,0.03280492247756756,0.5017855520743593,1.1720229510128402
1648218235435114031,25716,0,3,0.70686262846,-0.709073901176,0.247597396374,-0.0809188112617,29.2000007629,0.2364089058394649,-0.23714846193177255,0.08280849377056855,29.2000007629,-0.010934974494824324,0.4098996639630622,1.0313801644076326
1648218235540224063,25717,1,0,0.00493015442044,0.0454158857465,0.0105314357206,0.0,28.8999996185,0.001648881077070234,0.015189259446989964,0.003522219304548495,28.8999996185,0.0,0.015367212504570061,0.04688091551031885
1648218235540226575,25718,1,1,0.0334805957973,0.0146502861753,-0.029363906011,0.0,28.8999996185,0.011197523678026755,0.0048997612626421405,-0.009820704351505017,28.8999996185,0.0,0.016576390845742875,0.046880914626137686
1648218235540237510,25719,1,2,0.715225815773,-0.709073901176,0.222286403179,0.0,28.8999996185,0.23920595845250836,-0.23714846193177255,0.07434327865518395,28.8999996185,0.0,0.4131323929625607,1.031380148109979
1648218235540240795,25720,1,3,2.02633905411,-1.19546329975,0.425849169493,0.0,28.8999996185,0.6777053692675585,-0.39982050158862875,0.14242447140234113,28.8999996185,0.0,1.0384727095878536,2.390926594109164
1648218235540242372,25721,1,4,0.917349934578,-0.695888638496,0.218736886978,0.0809188112617,28.8999996185,0.306805998186622,-0.23273867508227425,0.0731561494909699,28.8999996185,0.010934974494824324,0.4923688982111192,1.1720229201610795
1648218235735021694,25722,3,0,0.00493015442044,0.0454158857465,0.0105314357206,0.0,19.1000003815,0.001648881077070234,0.015189259446989964,0.003522219304548495,19.1000003815,0.0,0.015367212504570061,0.04688091551031885
1648218235735030721,25723,3,1,0.0334805957973,0.0146502861753,-0.029363906011,0.0,19.1000003815,0.011197523678026755,0.0048997612626421405,-0.009820704351505017,19.1000003815,0.0,0.016576390845742875,0.046880914626137686
1648218235735189448,25724,3,2,0.696394324303,-0.709073901176,0.275670349598,0.0,19.1000003815,0.2329078007702341,-0.23714846193177255,0.09219744133712375,19.1000003815,0.0,0.40587126076609503,1.0313801403449008
1648218235735193498,25725,3,3,2.02738499641,-1.19546329975,0.42084145546,0.0,19.1000003815,0.6780551827458193,-0.39982050158862875,0.1407496506555184,19.1000003815,0.0,1.038929302304789,2.3909265892852556
1648218235735337475,25726,3,4,0.917594790459,-0.695888638496,0.217707455158,-0.323675245047,19.1000003815,0.3068878897856187,-0.23273867508227425,0.07281185791237457,19.1000003815,-0.04373989797932432,0.4924709582028086,1.1720229232812325
1648218235735340908,25727,3,5,0.843968272209,-0.805765748024,0.109986126423,-0.0809188112617,19.1000003815,0.282263636190301,-0.26948687224882945,0.036784657666555184,19.1000003815,-0.010934974494824324,0.48163128526415105,1.1720229661528212
1648218235840120916,25728,4,0,0.00493015442044,0.0454158857465,0.0105314357206,0.0,18.0,0.001648881077070234,0.015189259446989964,0.003522219304548495,18.0,0.0,0.015367212504570061,0.04688091551031885
1648218235840127522,25729,4,1,0.0335031487048,0.0146502861753,-0.029338169843,0.0,18.0,0.01120506645645485,0.0048997612626421405,-0.009812096937458194,18.0,0.0,0.01658658159531456,0.04688091368447124
1648218235840130346,25730,4,2,0.825319886208,-0.703213751316,0.300469636917,-0.485512852669,18.0,0.27602671779531773,-0.23518854559063543,0.10049151736354515,18.0,-0.06560984495527027,0.45573583340653645,1.1251419898480997
1648218235840132970,25731,4,3,0.764037251472,-0.738374471664,0.770805716515,-0.485512852669,18.0,0.25553085333511705,-0.2469479838341137,0.25779455401839463,18.0,-0.06560984495527027,0.4376932038906703,1.312665697980328
1648218235840178120,25732,4,4,0.666110038757,-0.741304516792,0.265537291765,-0.0809188112617,18.0,0.22277927717625418,-0.2479279320374582,0.08880845878428094,18.0,-0.010934974494824324,0.4009108032501981,1.0313801547765808
1648218236035115117,25733,6,0,0.00493015442044,0.0454158857465,0.0105314357206,0.0,26.1000003815,0.001648881077070234,0.015189259446989964,0.003522219304548495,26.1000003815,0.0,0.015367212504570061,0.04688091551031885
1648218236035168373,25734,6,1,0.0334805957973,0.0146502861753,-0.029363906011,0.0,26.1000003815,0.011197523678026755,0.0048997612626421405,-0.009820704351505017,26.1000003815,0.0,0.016576390845742875,0.046880914626137686
1648218236035207402,25735,6,2,0.499795526266,0.105482056737,-1.00250804424,0.0,26.1000003815,0.16715569440334446,0.035278279845150494,-0.3352869713177257,26.1000003815,0.0,0.23901173479927995,1.1251419515487304
1648218236035212537,25736,6,3,1.24034976959,1.40642750263,-0.00259312917478,0.0,26.1000003815,0.4148326988595318,0.47037709118060195,-0.000867267282535117,26.1000003815,0.0,0.7519487642078351,1.8752366771676963
1648218236035216512,25737,6,4,1.17310762405,-1.2804350853,0.397438436747,0.0809188112617,26.1000003815,0.3923436869732441,-0.42823915896321063,0.13292255409598663,26.1000003815,0.010934974494824324,0.7008965078276792,1.7814748991426608
1648218236035254181,25738,6,5,0.751486182213,-0.584546387196,0.250624716282,-0.647350490093,26.1000003815,0.25133317130869565,-0.1955004639451505,0.0838209753451505,26.1000003815,-0.08747979595851352,0.4056564524359762,0.9844992174970986
