%time,field.header.seq,field.header.frame_id,field.point_id,field.x,field.y,field.z,field.velocity,field.intensity,normalized_x,normalized_y,normalized_z,normalized_intensity,normalized_velocity,normalized_range,range
1648295678269420805,59146,0,0,0.0127121871337,0.0439508594573,0.0102246021852,0.0,12.0,0.004251567603244147,0.014699284099431437,0.003419599393043478,12.0,0.0,0.01588145482018912,0.04688091550517269
1648295678269426682,59147,0,1,0.0334914848208,0.0146502861753,-0.0293514840305,0.0,12.0,0.011201165491906353,0.0048997612626421405,-0.009816549842976587,12.0,0.0,0.016581311081607385,0.04688091355032194
1648295678269428519,59148,0,2,0.472681760788,1.27457487583,0.0199406780303,0.0,12.0,0.15808754541404682,0.4262792226856187,0.0066691230870568555,12.0,0.0,0.4813494777430759,1.3595465390044623
1648295678269432051,59149,0,3,1.91415452957,-0.0,-0.174780651927,0.0,12.0,0.6401854613946488,-0.0,-0.05845506753411371,12.0,0.0,0.9053589619383898,1.9221175404645199
1648295678269444411,59150,0,4,2.24384403229,-1.2306240797,0.585741519928,0.0,12.0,0.7504495091270903,-0.4115799597658863,0.19590017388896322,12.0,0.0,1.1383088310204177,2.6253313685987303
1648295678269739214,59151,0,5,0.288075596094,-1.05482065678,0.26516097784,0.0809188112617,12.0,0.09634635320869565,-0.352782828354515,0.08868260128428092,12.0,0.010934974494824324,0.37818112530246756,1.1251419960181777
1648295678464700498,59152,2,0,0.0126335490495,0.0439508594573,0.0103216096759,0.0,25.0,0.004225267240635451,0.014699284099431437,0.0034520433698662202,25.0,0.0,0.015867410612490373,0.04688091546592378
1648295678464704807,59153,2,1,0.0335142984986,0.0146502861753,-0.0293254330754,0.0,25.0,0.011208795484481605,0.0048997612626421405,-0.00980783714896321,25.0,0.0,0.016591619958785185,0.04688091417550657
1648295678464726820,59154,2,2,1.87140369415,-0.0586011447012,0.104528792202,0.0,25.0,0.6258875231270903,-0.019599045050568562,0.034959462274916385,25.0,0.0,0.8853555815485789,1.8752365581541353
1648295678464812030,59155,2,3,2.24271965027,-1.2306240797,0.590032219887,0.0,25.0,0.7500734616287625,-0.4115799597658863,0.19733519059765886,25.0,0.0,1.1378130158160427,2.6253314220778767
1648295678464814066,59156,2,4,0.190307378769,-1.05482065678,0.342171013355,-0.0809188112617,25.0,0.06364795276555184,-0.352782828354515,0.11443846600501671,25.0,-0.010934974494824324,0.3640849458083965,1.1251419993779035
1648295678569710438,59157,3,0,0.0127323288471,0.0439508594573,0.0101995095611,0.0,25.7999992371,0.004258303962240802,0.014699284099431437,0.003411207211070234,25.7999992371,0.0,0.015885064000672747,0.046880915522129064
1648295678569714706,59158,3,1,0.0335142984986,0.0146502861753,-0.0293254330754,0.0,25.7999992371,0.011208795484481605,0.0048997612626421405,-0.00980783714896321,25.7999992371,0.0,0.016591619958785185,0.04688091417550657
1648295678569733593,59159,3,2,0.567971646786,-1.02845001221,0.324692547321,0.0,25.7999992371,0.1899570725036789,-0.34396321478595315,0.1085928251909699,25.7999992371,0.0,0.43643793592471264,1.2189037982766933
1648295678569745545,59160,3,3,2.2455034256,-1.2306240797,0.57934731245,0.0,25.7999992371,0.751004490167224,-0.4115799597658863,0.19376164295986623,25.7999992371,0.0,1.1390406278019904,2.6253313254448183
1648295678569750703,59161,3,4,1.89822399616,-0.300330877304,0.0329058170319,-0.161837622523,25.7999992371,0.634857523799331,-0.10044510946622072,0.011005289977224079,25.7999992371,-0.021869948989594594,0.9034253544510014,1.92211752196747
1648295678569865991,59162,3,5,0.438720345497,-0.977174043655,0.123701818287,-0.0809188112617,25.7999992371,0.14672921254080268,-0.3268140614230769,0.04137184558093645,25.7999992371,-0.010934974494824324,0.3871257604054977,1.078261004114301
1648295678569872768,59163,3,6,1.86967635155,-0.117202289402,0.084178045392,-0.0809188112617,25.7999992371,0.6253098165719063,-0.03919809010100334,0.028153192438795983,25.7999992371,-0.010934974494824324,0.8851899364938287,1.8752365129530746
1648295678764748667,59164,5,0,0.0127438921481,0.0439508594573,0.0101850572973,0.0,12.3999996185,0.004262171286989967,0.014699284099431437,0.0034063736780267557,12.3999996185,0.0,0.015887138231760977,0.04688091537360406
1648295678764760687,59165,5,1,0.0334292426705,0.0146502861753,-0.0294223539531,0.0,12.3999996185,0.011180348719230768,0.0048997612626421405,-0.009840252158227423,12.3999996185,0.0,0.0165531886776566,0.04688091362892647
1648295678764772611,59166,5,2,0.723868131638,-0.952268600464,0.234362751245,0.0,12.3999996185,0.24209636509632107,-0.31848448176053507,0.07838219105183945,12.3999996185,0.0,0.467604175674233,1.21890379382537
1648295678764969598,59167,5,3,0.574545264244,1.23208904266,0.0148725686595,0.0,12.3999996185,0.19215560677056853,0.4120699139331103,0.004974103230602007,12.3999996185,0.0,0.4936083147553044,1.3595465652218663
1648295678764973074,59168,5,4,2.24455785751,-1.2306240797,0.583000481129,0.0,12.3999996185,0.7506882466588628,-0.4115799597658863,0.19498343850468228,12.3999996185,0.0,1.138623621142827,2.6253314385509494
1648295678765016412,59169,5,5,0.263943433762,-0.879017174244,0.191809296608,-0.404594063759,12.3999996185,0.08827539590702341,-0.29398567700468226,0.06415026642408027,12.3999996185,-0.05467487348094594,0.31939422244146,0.9376183312559743
1648295678765019675,59170,5,6,0.56255120039,-0.909782707691,0.135935112834,-0.161837622523,12.3999996185,0.1881442141772575,-0.304275153073913,0.04546324843946488,12.3999996185,-0.021869948989594594,0.40420274545691626,1.078260999561326
1648295678765021685,59171,5,7,1.8732984066,-0.0586011447012,0.0618982054293,-0.0809188112617,12.3999996185,0.6265212062207357,-0.019599045050568562,0.02070174094625418,12.3999996185,-0.010934974494824324,0.886251525389641,1.8752366256464164
1648295678868018001,59172,6,0,0.0127438921481,0.0439508594573,0.0101850572973,0.0,15.8999996185,0.004262171286989967,0.014699284099431437,0.0034063736780267557,15.8999996185,0.0,0.015887138231760977,0.04688091537360406
1648295678868019935,59173,6,1,0.0334292426705,0.0146502861753,-0.0294223539531,0.0,15.8999996185,0.011180348719230768,0.0048997612626421405,-0.009840252158227423,15.8999996185,0.0,0.0165531886776566,0.04688091362892647
1648295678868022588,59174,6,2,0.614386260509,0.0703213736415,0.939962208271,0.0,15.8999996185,0.20548035468528428,0.023518854060702338,0.3143686315287625,15.8999996185,0.0,0.29154328807144414,1.125142002447138
1648295678868036935,59175,6,3,0.473040133715,1.27457487583,0.00766302086413,0.0,15.8999996185,0.15820740258026755,0.4262792226856187,0.0025628832321505013,15.8999996185,0.0,0.4814282294961991,1.3595465435544782
1648295678868139630,59176,6,4,1.91774940491,-0.120132349432,-0.0483858808875,0.0,15.8999996185,0.6413877608394648,-0.040178043288294316,-0.01618256885869565,15.8999996185,0.0,0.9079486740294305,1.9221175184889114
1648295678868146592,59177,6,5,2.24641656876,-1.2306240797,0.575796604156,0.0,15.8999996185,0.7513098892173913,-0.4115799597658863,0.19257411510234113,15.8999996185,0.0,1.139443356447606,2.625331361046545
1648295678868149772,59178,6,6,0.333756506443,-1.63497185707,0.252682685852,0.161837622523,15.8999996185,0.11162424964648827,-0.5468133301237458,0.08450925948227424,15.8999996185,0.021869948989594594,0.5691438870964913,1.6877129254506944
1648295678868157129,59179,6,7,0.420093029737,-0.779395222664,0.0973553881049,-0.404594063759,15.8999996185,0.14049934104916387,-0.2606672985498327,0.03256033046986622,15.8999996185,-0.05467487348094594,0.3277614531999853,0.89073741267454
1648295678868159811,59180,6,8,0.568009912968,-0.83799636364,0.197159573436,-0.161837622523,15.8999996185,0.1899698705578595,-0.28026634235451503,0.06593965666755852,15.8999996185,-0.021869948989594594,0.3882348852129572,1.0313801743786057
1648295678868299889,59181,6,9,0.682495355606,-0.914177834988,0.429191589355,-0.0809188112617,15.8999996185,0.22825931625618728,-0.30574509531371236,0.14354233757692308,15.8999996185,-0.010934974494824324,0.44461746954418613,1.2189037881556437
1648295678967753458,59182,7,0,0.0127438921481,0.0439508594573,0.0101850572973,0.0,14.8999996185,0.004262171286989967,0.014699284099431437,0.0034063736780267557,14.8999996185,0.0,0.015887138231760977,0.04688091537360406
1648295678967782532,59183,7,1,0.033392906189,0.0146502861753,-0.0294635873288,0.0,14.8999996185,0.011168196049832777,0.0048997612626421405,-0.009854042584882943,14.8999996185,0.0,0.016536773156994367,0.046880913462168855
1648295678967784520,59184,7,2,0.729774832726,-0.842391490936,0.362550795078,0.0,14.8999996185,0.2440718504100334,-0.2817362845939799,0.12125444651438125,14.8999996185,0.0,0.44555299390978786,1.172022956043664
1648295678967790944,59185,7,3,0.779937982559,-0.0732514336705,-0.871761918068,0.0,14.8999996185,0.26084882359832773,-0.02449880724765886,-0.291559169922408,14.8999996185,0.0,0.36970854615740345,1.172022982268942
1648295678967795783,59186,7,4,1.91453945637,-0.120132349432,-0.121007829905,0.0,14.8999996185,0.6403141994548495,-0.040178043288294316,-0.04047084612207358,14.8999996185,0.0,0.9064319186841809,1.9221175838839581
1648295678967800350,59187,7,5,2.19882655144,-1.31266570091,0.578304409981,0.0,14.8999996185,0.7353934954648829,-0.4390186290668896,0.1934128461474916,14.8999996185,0.0,1.1288687005191917,2.6253314907391285
1648295678967875169,59188,7,6,0.7997854352,-1.51776957512,0.255997806787,0.323675245047,14.8999996185,0.26748676762541806,-0.5076152425150501,0.08561799558093645,14.8999996185,0.04373989797932432,0.6330652226611425,1.7345939301743658
1648295678967904015,59189,7,7,0.923077046871,-1.38445210457,-1.29684519768,-0.485512852669,14.8999996185,0.30872142035819394,-0.463027459722408,-0.4337274908628762,14.8999996185,-0.06560984495527027,0.6364057347580611,2.1096412801834505
1648295678967909240,59190,7,8,0.506295323372,-0.723724126816,0.115332789719,-0.323675245047,14.8999996185,0.16932953958929764,-0.24204820294849494,0.03857283937090301,14.8999996185,-0.04373989797932432,0.3404883529662106,0.8907374577215817
1648295678967914684,59191,7,9,0.633318424225,-0.805765748024,0.115734159946,-0.242756426334,14.8999996185,0.21181218201505014,-0.26948687224882945,0.03870707690501672,14.8999996185,-0.03280492247756756,0.4029292434341424,1.031380173810763
1648295678967917526,59192,7,10,0.559865355492,-0.741304516792,0.448066294193,-0.0809188112617,14.8999996185,0.1872459382916388,-0.2479279320374582,0.14985494789063544,14.8999996185,-0.010934974494824324,0.36275383154117463,1.0313801466424746
1648295679069782890,59193,8,0,0.0127238156274,0.0439508594573,0.0102101275697,0.0,25.7000007629,0.004255456731571906,0.014699284099431437,0.00341475838451505,25.7000007629,0.0,0.01588353792529735,0.04688091547895533
1648295679069813259,59194,8,1,0.0335142984986,0.0146502861753,-0.0293254330754,0.0,25.7000007629,0.011208795484481605,0.0048997612626421405,-0.00980783714896321,25.7000007629,0.0,0.016591619958785185,0.04688091417550657
1648295679069939103,59195,8,2,0.18411667645,-0.0,1.10997545719,0.0,25.7000007629,0.061577483762541796,-0.0,0.37122924989632106,25.7000007629,0.0,0.08708371267379565,1.12514197597954
1648295679069943386,59196,8,3,1.87367665768,-0.0586011447012,0.0491318739951,0.0,25.7000007629,0.6266477115986622,-0.019599045050568562,0.01643206488130435,25.7000007629,0.0,0.8864303872671414,1.8752365858038973
1648295679069945754,59197,8,4,2.24070119858,-1.2306240797,0.597651422024,0.0,25.7000007629,0.749398394173913,-0.4115799597658863,0.19988341873712373,25.7000007629,0.0,1.1369230271490536,2.625331352249203
1648295679069948807,59198,8,5,0.889080226421,-1.46356356144,0.27628621459,0.242756426334,25.7000007629,0.2973512462946488,-0.4894861409498327,0.09240341625083612,25.7000007629,0.03280492247756756,0.6453155890941434,1.7345939062962907
1648295679069951431,59199,8,6,0.516617655754,-0.659262835979,0.102822311223,-0.323675245047,25.7000007629,0.17278182466688963,-0.22048924280234114,0.034388732850501674,25.7000007629,-0.04373989797932432,0.32912402534909135,0.8438564551065968
1648295679069953484,59200,8,7,0.745705366135,-0.709073901176,-0.0698768422008,-0.323675245047,25.7000007629,0.24939978800501672,-0.23714846193177255,-0.023370181338060198,25.7000007629,-0.04373989797932432,0.42501753082725885,1.0313801740810427
1648295679069956969,59201,8,8,0.830935001373,-0.83799636364,0.305017411709,-0.161837622523,25.7000007629,0.2779046827334448,-0.28026634235451503,0.10201251227725751,25.7000007629,-0.021869948989594594,0.4827123864446939,1.2189038122125422
1648295679069960081,59202,8,9,0.70320636034,-0.741304516792,0.140404582024,-0.0809188112617,25.7000007629,0.23518607369230765,-0.2479279320374582,0.04695805418862876,25.7000007629,-0.010934974494824324,0.414841220230075,1.0313801522679138
1648295679264777627,59203,10,0,0.0127438921481,0.0439508594573,0.0101850572973,0.0,16.1000003815,0.004262171286989967,0.014699284099431437,0.0034063736780267557,16.1000003815,0.0,0.015887138231760977,0.04688091537360406
1648295679264876411,59204,10,1,0.0335506536067,0.0146502861753,-0.0292838346213,0.0,16.1000003815,0.011220954383511705,0.0048997612626421405,-0.00979392462250836,16.1000003815,0.0,0.016608049102305473,0.04688091522765534
1648295679264880937,59205,10,2,0.348302692175,-0.0,1.06987369061,0.0,16.1000003815,0.11648919470735784,-0.0,0.3578172878294314,16.1000003815,0.0,0.16474059902506563,1.125141981811991
1648295679264883578,59206,10,3,0.569437682629,0.0703213736415,0.967853367329,0.0,16.1000003815,0.1904473854946488,0.023518854060702338,0.323696778370903,16.1000003815,0.0,0.2703581879282063,1.1251419957671107
1648295679264886296,59207,10,4,0.473044931889,1.27457487583,0.00736124580726,0.0,16.1000003815,0.15820900732073578,0.4262792226856187,0.0024619551194849498,16.1000003815,0.0,0.48142928420307024,1.3595465455889193
1648295679264916178,59208,10,5,1.8711373806,-0.117202289402,0.0402617864311,0.0,16.1000003815,0.6257984550501672,-0.03919809010100334,0.013465480411739129,16.1000003815,0.0,0.8858802983213468,1.8752366477771072
1648295679264918359,59209,10,6,0.497838437557,-0.597731649876,0.173331514001,-0.404594063759,16.1000003815,0.16650114968461538,-0.19991025079464883,0.057970406020401336,16.1000003815,-0.05467487348094594,0.30888407868547835,0.7969755635642531
1648295679264919406,59210,10,7,0.705940902233,-0.615312039852,0.046546895057,-0.404594063759,16.1000003815,0.23610063619832775,-0.20578997988361203,0.015567523430434781,16.1000003815,-0.05467487348094594,0.39222001051324196,0.9376183004143096
1648295679264921537,59211,10,8,0.814825057983,-0.622637212276,0.567468822002,-0.242756426334,16.1000003815,0.2725167418003344,-0.20823987032642138,0.18978890367959864,16.1000003815,-0.03280492247756756,0.4380577504353793,1.1720229678518104
1648295679369836540,59212,11,0,0.0127438921481,0.0439508594573,0.0101850572973,0.0,15.8000001907,0.004262171286989967,0.014699284099431437,0.0034063736780267557,15.8000001907,0.0,0.015887138231760977,0.04688091537360406
1648295679369843805,59213,11,1,0.0334914848208,0.0146502861753,-0.0293514840305,0.0,15.8000001907,0.011201165491906353,0.0048997612626421405,-0.009816549842976587,15.8000001907,0.0,0.016581311081607385,0.04688091355032194
1648295679369856425,59214,11,2,0.387357085943,-0.0,1.05636119843,0.0,15.8000001907,0.1295508648638796,-0.0,0.3532980596755853,15.8000001907,0.0,0.18321259010766258,1.1251419881858107
1648295679369865483,59215,11,3,0.473002016544,1.27457487583,0.00973476935178,0.0,15.8000001907,0.1581946543625418,0.4262792226856187,0.0032557757029364545,15.8000001907,0.0,0.48141985109800306,1.3595465374477194
1648295679369867733,59216,11,4,1.87105441093,-0.117202289402,-0.0439479649067,0.0,15.8000001907,0.6257707059966555,-0.03919809010100334,-0.014698316022307692,15.8000001907,0.0,0.8858410936701185,1.8752366274476189
1648295679369869295,59217,11,5,0.478270918131,-0.562570989132,0.131957545877,-0.485512852669,15.8000001907,0.1599568288063545,-0.1881508324856187,0.04413295848729097,15.8000001907,-0.06560984495527027,0.29423308775289386,0.7500946492654823
1648295679370010546,59218,11,6,0.636689484119,-0.527410268784,0.168993040919,-0.485512852669,15.8000001907,0.21293962679565215,-0.17639139424214045,0.05651941167859531,15.8000001907,-0.06560984495527027,0.34899927404284015,0.8438564680593378
1648295679370014363,59219,11,7,0.661448895931,-0.556710898876,0.214409634471,-0.404594063759,15.8000001907,0.221220366532107,-0.18619093607892975,0.07170890784983278,15.8000001907,-0.05467487348094594,0.3640658811467337,0.8907374238290713
1648295679564740022,59220,13,0,0.0127438921481,0.0439508594573,0.0101850572973,0.0,33.5999984741,0.004262171286989967,0.014699284099431437,0.0034063736780267557,33.5999984741,0.0,0.015887138231760977,0.04688091537360406
1648295679564744045,59221,13,1,0.0334292426705,0.0146502861753,-0.0294223539531,0.0,33.5999984741,0.011180348719230768,0.0048997612626421405,-0.009840252158227423,33.5999984741,0.0,0.0165531886776566,0.04688091362892647
1648295679564759127,59222,13,2,0.438160806894,-0.0,1.0363202095,0.0,33.5999984741,0.14654207588428092,-0.0,0.3465953877926421,33.5999984741,0.0,0.20724179117385735,1.1251419774037963
1648295679564769601,59223,13,3,1.87156116962,-0.117202289402,-0.00590087706223,0.0,33.5999984741,0.6259401905083611,-0.03919809010100334,-0.001973537479006689,33.5999984741,0.0,0.8860805462568588,1.8752366273674788
1648295679564886735,59224,13,4,0.451813042164,-0.451228827238,0.151757448912,-0.566431701183,33.5999984741,0.15110804085752508,-0.15091265125016723,0.050754999636120395,33.5999984741,-0.07654482448418919,0.2616140445980558,0.6563328445997103
1648295679564900617,59225,13,5,0.637413144112,-0.351606875658,0.180884256959,-0.566431701183,33.5999984741,0.21318165354916388,-0.11759427279531771,0.060496407009698994,33.5999984741,-0.07654482448418919,0.32360662510858934,0.7500946778322954
1648295679564945050,59226,13,6,0.718585669994,-0.273960351944,0.209165930748,-0.404594063759,33.5999984741,0.24032965551638794,-0.09162553576722407,0.06995516078528427,33.5999984741,-0.05467487348094594,0.35201125755561036,0.7969755492759381
1648295679565109464,59227,13,7,0.774628520012,-0.386767566204,0.718544363976,-0.404594063759,33.5999984741,0.25907308361605347,-0.1293537010715719,0.2403158407946488,33.5999984741,-0.05467487348094594,0.38854871675193425,1.1251419898328483
1648295679669790493,59228,14,0,0.0127238156274,0.0439508594573,0.0102101275697,0.0,14.1000003815,0.004255456731571906,0.014699284099431437,0.00341475838451505,14.1000003815,0.0,0.01588353792529735,0.04688091547895533
1648295679669794813,59229,14,1,0.0335142984986,0.0146502861753,-0.0293254330754,0.0,14.1000003815,0.011208795484481605,0.0048997612626421405,-0.00980783714896321,14.1000003815,0.0,0.016591619958785185,0.04688091417550657
1648295679669801586,59230,14,2,0.299247503281,-0.0,1.08461761475,0.0,14.1000003815,0.10008277701705685,-0.0,0.3627483661371237,14.1000003815,0.0,0.1415384206174841,1.1251419636854236
1648295679669873736,59231,14,3,0.472912341356,1.27457487583,-0.0134022645652,0.0,14.1000003815,0.15816466266086956,0.4262792226856187,-0.00448236273083612,14.1000003815,0.0,0.4814001420052851,1.3595465484489118
1648295679669883860,59232,14,4,0.713700532913,-0.323771327734,0.144823223352,-0.566431701183,14.1000003815,0.2386958304056856,-0.10828472499464883,0.04843586065284281,14.1000003815,-0.07654482448418919,0.35450949292407724,0.7969755889392101
1648295679670028989,59233,14,5,0.455798119307,-0.298865824938,0.139332085848,-0.485512852669,14.1000003815,0.15244084257759197,-0.09995512539732442,0.046599359815384614,14.1000003815,-0.06560984495527027,0.23762880310418433,0.562571006208482
1648295679670033484,59234,14,6,0.657844483852,-0.219754293561,0.11600972712,-0.323675245047,14.1000003815,0.2200148775424749,-0.07349641925117056,0.03879923983946488,14.1000003815,-0.04373989797932432,0.3197105195685689,0.7032137450729012
1648295679864777301,59235,16,0,0.0127438921481,0.0439508594573,0.0101850572973,0.0,45.0,0.004262171286989967,0.014699284099431437,0.0034063736780267557,45.0,0.0,0.015887138231760977,0.04688091537360406
1648295679864906315,59236,16,1,0.0334566496313,0.0146502861753,-0.0293911863118,0.0,45.0,0.011189514926856188,0.0048997612626421405,-0.00982982819792642,45.0,0.0,0.016565571195330496,0.046880914265665645
1648295679864922529,59237,16,2,0.50350946188,-0.0805765762925,0.0769537761807,0.0,45.0,0.16839781333779263,-0.026948687723244144,0.025737048889866217,45.0,0.0,0.2396703545370287,0.515690068275682
1648295679864924767,59238,16,3,1.32772564888,-1.7580344677,0.800631463528,0.0,45.0,0.44405540096321067,-0.5879713938795986,0.2677697202434782,45.0,0.0,0.8602794652145974,2.3440459314411966
1648295679865007433,59239,16,4,2.19874048233,-1.31266570091,0.578631103039,0.0,45.0,0.7353647098093644,-0.4390186290668896,0.19352210803979933,45.0,0.0,1.128831196208624,2.6253313894414227
1648295679865010949,59240,16,5,0.629482626915,-1.71408343315,-0.0924887359142,-0.566431701183,45.0,0.2105293066605351,-0.5732720512207357,-0.030932687596722405,45.0,-0.07654482448418919,0.6459767972897796,1.828355698341574
1648295679967827086,59241,17,0,0.0127438921481,0.0439508594573,0.0101850572973,0.0,21.2000007629,0.004262171286989967,0.014699284099431437,0.0034063736780267557,21.2000007629,0.0,0.015887138231760977,0.04688091537360406
1648295679967829984,59242,17,1,0.0334292426705,0.0146502861753,-0.0294223539531,0.0,21.2000007629,0.011180348719230768,0.0048997612626421405,-0.009840252158227423,21.2000007629,0.0,0.0165531886776566,0.04688091362892647
1648295679967834470,59243,17,2,1.40040433407,-1.68478298187,0.833621799946,0.0,21.2000007629,0.4683626535351171,-0.5634725691872909,0.27880327757391304,21.2000007629,0.0,0.8696139871686969,2.3440459253662285
1648295679967837511,59244,17,3,2.19482851028,-1.31266570091,0.5932970047,0.0,21.2000007629,0.7340563579531771,-0.4390186290668896,0.1984270918729097,21.2000007629,0.0,1.1271268029688306,2.6253313634033812
1648295679967842242,59245,17,4,0.687259018421,-0.0659262910485,0.133560076356,0.161837622523,21.2000007629,0.22985251452207356,-0.022048926772073575,0.04466892185819398,21.2000007629,0.021869948989594594,0.32580747694925655,0.7032137144912836
1648295679967930802,59246,17,5,0.613910913467,-0.061531201005,0.767180562019,0.161837622523,21.2000007629,0.20532137574147155,-0.020578996991638794,0.25658212776555184,21.2000007629,0.021869948989594594,0.2910965987261324,0.9844992194566701
1648295679967933621,59247,17,6,0.554459393024,0.0703213736415,0.0641547515988,0.485512852669,21.2000007629,0.18543792408829432,0.023518854060702338,0.02145643866180602,21.2000007629,0.06560984495527027,0.26330131765086295,0.5625710144115796
1648295679967937798,59248,17,7,1.17445218563,-0.98449921608,-1.64778673649,-0.566431701183,21.2000007629,0.39279337312040136,-0.3292639518662207,-0.5510992429732441,21.2000007629,-0.07654482448418919,0.6457460940130931,2.2502839313619036
1648295679967939030,59249,17,8,2.17515158653,-0.140642747283,0.559208095074,-0.566431701183,21.2000007629,0.727475447,-0.047037708121404675,0.18702611875384614,21.2000007629,-0.07654482448418919,1.0298803804136742,2.2502840932521337
