%time,field.header.seq,field.header.frame_id,field.point_id,field.x,field.y,field.z,field.velocity,field.intensity,normalized_x,normalized_y,normalized_z,normalized_intensity,normalized_velocity,normalized_range,range
1648219110247721975,63574,0,0,0.00544372200966,0.0454158857465,0.0102753806859,0.0,18.6000003815,0.0018206428125953176,0.015189259446989964,0.003436582169197324,18.6000003815,0.0,0.01540594310810227,0.04688091547418592
1648219110247724255,63575,0,1,0.0334518700838,0.0146502861753,-0.0293966270983,0.0,18.6000003815,0.011187916415986623,0.0048997612626421405,-0.00983164785896321,18.6000003815,0.0,0.016563411722622077,0.0468809149001822
1648219110247726325,63576,0,2,0.971122920513,-1.01086974144,0.114459276199,-0.161837622523,18.6000003815,0.3247902744190635,-0.33808352556521737,0.03828069438093645,18.6000003815,-0.021869948989594594,0.5703314080190817,1.4064274907767802
1648219110352717494,63577,1,0,0.00550753669813,0.0454158857465,0.0102413184941,0.0,30.5,0.0018419855177692307,0.015189259446989964,0.00342519013180602,30.5,0.0,0.015411016314419924,0.04688091555332495
1648219110352748529,63578,1,1,0.0334378667176,0.0146502861753,-0.029412554577,0.0,30.5,0.01118323301591973,0.0048997612626421405,-0.009836974774916388,30.5,0.0,0.016557084942936142,0.04688091490561134
1648219110352750400,63579,1,2,0.46271187067,-0.474669247866,-0.52218824625,0.0,30.5,0.15475313400334448,-0.15875225681137123,-0.17464489841137124,30.5,0.0,0.2703689035566364,0.843856465668336
1648219110352753317,63580,1,3,1.13425850868,-0.908317685127,0.0228437688202,0.0,30.5,0.37935067179933113,-0.3037851789722408,0.00764005646160535,30.5,0.0,0.6165219374461902,1.4533083703747667
1648219110352832942,63581,1,4,2.11197519302,-1.12074685097,-0.00420985277742,0.0,30.5,0.7063462184013378,-0.3748317227324415,-0.0014079775175317724,30.5,0.0,1.066934290791289,2.3909266912123104
1648219110547699899,63582,3,0,0.00550339836627,0.0454158857465,0.0102435424924,0.0,13.1000003815,0.0018406014602909697,0.015189259446989964,0.003425933943946488,13.1000003815,0.0,0.015410685579143596,0.04688091546152453
1648219110547704151,63583,3,1,0.0334378667176,0.0146502861753,-0.029412554577,0.0,13.1000003815,0.01118323301591973,0.0048997612626421405,-0.009836974774916388,13.1000003815,0.0,0.016557084942936142,0.04688091490561134
1648219110547709731,63584,3,2,2.07857847214,-1.21890377998,0.369717478752,0.0,13.1000003815,0.695176746535117,-0.407660127083612,0.12365133068628761,13.1000003815,0.0,1.0642970436208714,2.4378076018808628
1648219110547850211,63585,3,3,0.980067908764,-0.934688270092,0.119128681719,-0.485512852669,13.1000003815,0.3277819092856187,-0.31260477260602004,0.03984236846789297,13.1000003815,-0.06560984495527027,0.559109742327848,1.3595465828152864
1648219110652747810,63586,4,0,0.00554364221171,0.0454158857465,0.0102218193933,0.0,36.0,0.0018540609403712373,0.015189259446989964,0.003418668693411371,36.0,0.0,0.015413912108520486,0.046880915507483835
1648219110652751997,63587,4,1,0.0334378667176,0.0146502861753,-0.029412554577,0.0,36.0,0.01118323301591973,0.0048997612626421405,-0.009836974774916388,36.0,0.0,0.016557084942936142,0.04688091490561134
1648219110652758257,63588,4,2,0.847853541374,1.55879044533,-0.15801692009,0.0,36.0,0.28356305731571907,0.5213345971003345,-0.05284846825752509,36.0,0.0,0.657727737808163,1.7814748460495486
1648219110652760243,63589,4,3,0.952805995941,-0.83067125082,0.0660079717636,-0.485512852669,36.0,0.3186642126892976,-0.2778164718461538,0.022076244736989964,36.0,-0.06560984495527027,0.5294107601162112,1.2657847546784282
1648219110847778946,63590,6,0,0.00554364221171,0.0454158857465,0.0102218193933,0.0,37.5,0.0018540609403712373,0.015189259446989964,0.003418668693411371,37.5,0.0,0.015413912108520486,0.046880915507483835
1648219110847789444,63591,6,1,0.0334378667176,0.0146502861753,-0.029412554577,0.0,37.5,0.01118323301591973,0.0048997612626421405,-0.009836974774916388,37.5,0.0,0.016557084942936142,0.04688091490561134
1648219110847795154,63592,6,2,0.452285468578,-0.527410268784,-0.478925853968,0.0,37.5,0.15126604300267557,-0.17639139424214045,-0.1601758708923077,37.5,0.0,0.2772665783935395,0.843856451243107
1648219110847799248,63593,6,3,1.74640107155,-1.46502864361,0.546191871166,0.0,37.5,0.5840806259364548,-0.489976134986622,0.1826728666107023,37.5,0.0,0.9604045856018547,2.3440459017341277
1648219110847969551,63594,6,4,0.942924261093,-0.695888638496,0.0164482090622,-0.404594063759,37.5,0.31535928464648827,-0.23273867508227425,0.0055010732649498325,37.5,-0.05467487348094594,0.5030608787259669,1.1720229105810818
1648219110847972946,63595,6,5,0.989808380604,-0.68563336134,0.189506545663,-0.323675245047,37.5,0.3310395921752508,-0.2293088165016722,0.06338011560635451,37.5,-0.04373989797932432,0.5213031330238773,1.2189037974120116
1648219110847977557,63596,6,6,0.944142222404,-0.622637212276,0.307499974966,-0.242756426334,37.5,0.31576662956655516,-0.20823987032642138,0.10284280099197324,37.5,-0.03280492247756756,0.49272809163798337,1.1720229813620908
1648219110952694910,63597,7,0,0.00554364221171,0.0454158857465,0.0102218193933,0.0,34.2999992371,0.0018540609403712373,0.015189259446989964,0.003418668693411371,34.2999992371,0.0,0.015413912108520486,0.046880915507483835
1648219110952699226,63598,7,1,0.0334378667176,0.0146502861753,-0.029412554577,0.0,34.2999992371,0.01118323301591973,0.0048997612626421405,-0.009836974774916388,34.2999992371,0.0,0.016557084942936142,0.04688091490561134
1648219110952703414,63599,7,2,0.461997568607,-0.527410268784,-0.469564020634,0.0,34.2999992371,0.15451423699230768,-0.17639139424214045,-0.15704482295451502,34.2999992371,0.0,0.2808259653759179,0.8438564537239485
1648219110952705076,63600,7,3,1.68463945389,-1.53828012943,0.538734912872,0.0,34.2999992371,0.5634245665183946,-0.5144749596755852,0.18017890062608696,34.2999992371,0.0,0.9484613689792941,2.3440458938658124
1648219110952709631,63601,7,4,1.51583528519,-0.586011469364,-1.68919658661,0.0,34.2999992371,0.5069683228060201,-0.19599045798127088,-0.564948691173913,34.2999992371,0.0,0.7432671257880348,2.3440458959389168
1648219110952711448,63602,7,5,1.31606662273,-1.25699448586,0.175550833344,0.161837622523,34.2999992371,0.44015606111371236,-0.4203994935986622,0.058712653292307695,34.2999992371,0.021869948989594594,0.7511394347844399,1.828355706101569
1648219110952716784,63603,7,6,0.963117063046,-0.622637212276,0.241591095924,-0.323675245047,34.2999992371,0.32211273011571906,-0.20823987032642138,0.08079969763344481,34.2999992371,-0.04373989797932432,0.5008762975014579,1.1720229660168529
1648219111147841912,63604,9,0,0.00548036815599,0.0454158857465,0.0102558825165,0.0,38.5,0.0018328990488260866,0.015189259446989964,0.003430061042307692,38.5,0.0,0.015408849418251483,0.0468809155142749
1648219111147843888,63605,9,1,0.033385772258,0.0146502861753,-0.0294716712087,0.0,38.5,0.01116581011973244,0.0048997612626421405,-0.009856746223645484,38.5,0.0,0.016533550486532746,0.04688091379351458
1648219111147845790,63606,9,2,0.371359229088,-0.527410268784,-0.544081270695,0.0,38.5,0.12420041106622073,-0.17639139424214045,-0.18196698016555182,38.5,0.0,0.24892852022362288,0.8438564438153747
1648219111147846866,63607,9,3,1.0319275856,1.44744825363,-0.116925768554,0.0,38.5,0.3451262828093645,0.484096405896321,-0.03910560821204013,38.5,0.0,0.6874399118274662,1.781474845236588
1648219111147848007,63608,9,4,1.43135595322,-0.996219456196,-0.689405083656,0.242756426334,38.5,0.478714365625418,-0.3331837646140468,-0.23057026209230766,38.5,0.03280492247756756,0.7545504017059969,1.8752366354923118
1648219111147849044,63609,9,5,0.972967147827,-0.336956560612,0.320065647364,-0.404594063759,38.5,0.32540707285183945,-0.11269450187692308,0.10704536701137123,38.5,-0.05467487348094594,0.47379275730776266,1.0782610134436894
1648219111252761077,63610,10,0,0.00554364221171,0.0454158857465,0.0102218193933,0.0,35.0,0.0018540609403712373,0.015189259446989964,0.003418668693411371,35.0,0.0,0.015413912108520486,0.046880915507483835
1648219111252765081,63611,10,1,0.033385772258,0.0146502861753,-0.0294716712087,0.0,35.0,0.01116581011973244,0.0048997612626421405,-0.009856746223645484,35.0,0.0,0.016533550486532746,0.04688091379351458
1648219111252767710,63612,10,2,0.387306541204,-0.501039743423,-0.557715475559,0.0,35.0,0.1295339602688963,-0.16757182054280934,-0.1865269149026756,35.0,0.0,0.24827083752611684,0.8438564647064054
1648219111252770333,63613,10,3,2.0696618557,-1.19546329975,-0.0624255090952,0.0,35.0,0.6921946005685619,-0.39982050158862875,-0.020878096687357857,35.0,0.0,1.0574134307843477,2.390926523792507
1648219111252773321,63614,10,4,0.958586454391,-0.290075659752,0.246400475502,-0.404594063759,35.0,0.3205974763849498,-0.09701527082006689,0.08240818578662207,35.0,-0.05467487348094594,0.4636566040736267,1.0313801788138448
1648219111252923974,63615,10,5,1.48837256432,-0.140642747283,-0.124637618661,-0.323675245047,35.0,0.4977834663277592,-0.047037708121404675,-0.04168482229464882,35.0,-0.04373989797932432,0.7055418518301187,1.5001892575836182
1648219111447763459,63616,12,0,0.00554364221171,0.0454158857465,0.0102218193933,0.0,15.8000001907,0.0018540609403712373,0.015189259446989964,0.003418668693411371,15.8000001907,0.0,0.015413912108520486,0.046880915507483835
1648219111447769242,63617,12,1,0.0334378667176,0.0146502861753,-0.029412554577,0.0,15.8000001907,0.01118323301591973,0.0048997612626421405,-0.009836974774916388,15.8000001907,0.0,0.016557084942936142,0.04688091490561134
1648219111447772081,63618,12,2,0.366171211004,-0.501039743423,-0.571814239025,0.0,15.8000001907,0.12246528796120401,-0.16757182054280934,-0.19124222040969896,15.8000001907,0.0,0.24098922911796855,0.843856447631504
1648219111447776728,63619,12,3,2.06992387772,-1.19546329975,-0.0530349351466,0.0,15.8000001907,0.6922822333511706,-0.39982050158862875,-0.017737436503879597,15.8000001907,0.0,1.0575281626122075,2.3909266122051016
1648219111447893456,63620,12,4,0.874028325081,-0.111342176795,0.130730986595,-0.404594063759,15.8000001907,0.2923171655789298,-0.037238186219063545,0.04372273799163879,15.8000001907,-0.05467487348094594,0.41507268411337855,0.8907374384370792
1648219111447906481,63621,12,5,1.39494562149,0.0439508594573,-0.173877730966,-0.404594063759,15.8000001907,0.4665369971538461,0.014699284099431437,-0.05815308727959866,15.8000001907,-0.05467487348094594,0.6599466708603745,1.4064275417834515
1648219111447909634,63622,12,6,1.02951049805,-0.134782627225,0.290841341019,-0.242756426334,15.8000001907,0.34431789232441473,-0.04507780174749164,0.09727135151137123,15.8000001907,-0.03280492247756756,0.4890210937780094,1.0782610573708775
1648219111447914065,63623,12,7,0.902871847153,-0.0586011447012,0.246000871062,-0.161837622523,15.8000001907,0.3019638284792642,-0.019599045050568562,0.0822745388167224,15.8000001907,-0.021869948989594594,0.4274908536876586,0.9376183099241524
1648219111448081218,63624,12,8,1.307289958,0.093761831522,-0.729910671711,-0.161837622523,15.8000001907,0.4372207217391304,0.03135847208093645,-0.24411728150869563,15.8000001907,-0.021869948989594594,0.619118141235922,1.5001892893950433
1648219111552727590,63625,13,0,0.00554364221171,0.0454158857465,0.0102218193933,0.0,12.1999998093,0.0018540609403712373,0.015189259446989964,0.003418668693411371,12.1999998093,0.0,0.015413912108520486,0.046880915507483835
1648219111552734344,63626,13,1,0.0334378667176,0.0146502861753,-0.029412554577,0.0,12.1999998093,0.01118323301591973,0.0048997612626421405,-0.009836974774916388,12.1999998093,0.0,0.016557084942936142,0.04688091490561134
1648219111552740348,63627,13,2,0.946347773075,0.0307656005025,0.269662946463,0.0,12.1999998093,0.3165042719314381,0.010289498495819397,0.09018827640903009,12.1999998093,0.0,0.44772288536660143,0.9844992303061479
1648219111552753390,63628,13,3,2.09881210327,-1.21890377998,0.228401824832,0.0,12.1999998093,0.7019438472474915,-0.407660127083612,0.07638857017792641,12.1999998093,0.0,1.0731435638306024,2.4378076345907114
1648219111552856957,63629,13,4,0.872693419456,-0.0,0.342832744122,0.0809188112617,12.1999998093,0.2918707088481605,-0.0,0.11465978064280935,12.1999998093,0.010934974494824324,0.4127675149125175,0.9376183097636408
1648219111552861576,63630,13,5,0.878583669662,-0.083506628871,-0.120542541146,-0.485512852669,12.1999998093,0.2938406921946488,-0.027928638418394644,-0.04031523115250836,12.1999998093,-0.06560984495527027,0.4164909526301455,0.8907374056859184
1648219111552865483,63631,13,6,0.882339537144,-0.0278355441988,0.118808090687,-0.242756426334,12.1999998093,0.2950968351652174,-0.009309546554782609,0.03973514738695652,12.1999998093,-0.03280492247756756,0.41743376948458616,0.8907374690339583
1648219111747703458,63632,15,0,0.0121834650636,0.0439508594573,0.010849211365,0.0,43.4000015259,0.004074737479464883,0.014699284099431437,0.003628498784280936,43.4000015259,0.0,0.015788474406633134,0.0468809156825434
1648219111747707575,63633,15,1,0.033385772258,0.0146502861753,-0.0294716712087,0.0,43.4000015259,0.01116581011973244,0.0048997612626421405,-0.009856746223645484,43.4000015259,0.0,0.016533550486532746,0.04688091379351458
1648219111747709548,63634,15,2,2.10145664215,-1.21890377998,0.202632680535,0.0,43.4000015259,0.7028283084113712,-0.407660127083612,0.06777012726923076,43.4000015259,0.0,1.074300722061847,2.4378077132757383
1648219111747719747,63635,15,3,0.822098791599,0.184593603015,0.0466099306941,0.0809188112617,43.4000015259,0.2749494286284281,0.06173699097491638,0.015588605583311035,43.4000015259,0.010934974494824324,0.3937078011175738,0.843856449321746
1648219111747721601,63636,15,4,2.45065808296,0.632892370224,0.0506560318172,0.485512852669,43.4000015259,0.8196180879464883,0.21166968903812708,0.0169418166612709,43.4000015259,0.06560984495527027,1.1782833604170144,2.5315694391867667
1648219111747724680,63637,15,5,1.5802116394,-1.97778868675,0.0112687116489,0.485512852669,43.4000015259,0.5284988760535116,-0.6614677882107023,0.0037687998825752505,43.4000015259,0.06560984495527027,0.9980790343555007,2.531569453638148
1648219111747834827,63638,15,6,1.69277381897,-1.16030263901,0.207833364606,-0.647350490093,43.4000015259,0.5661450899565217,-0.3880610832809364,0.06950948649030099,43.4000015259,-0.08747979595851352,0.8897370005349501,2.0627603165969863
1648219111852776113,63639,16,0,0.00554364221171,0.0454158857465,0.0102218193933,0.0,25.2999992371,0.0018540609403712373,0.015189259446989964,0.003418668693411371,25.2999992371,0.0,0.015413912108520486,0.046880915507483835
1648219111852782195,63640,16,1,0.0334694497287,0.0146502861753,-0.0293766111135,0.0,25.2999992371,0.011193795895886286,0.0048997612626421405,-0.009824953549665552,25.2999992371,0.0,0.016571354608130556,0.04688091542060558
1648219111852784709,63641,16,2,0.869402468204,0.307655990124,0.344566136599,0.161837622523,25.2999992371,0.2907700562555184,0.10289497997458194,0.11523951056822741,25.2999992371,0.021869948989594594,0.42388893372397,0.9844992038946231
1648219111852787191,63642,16,3,0.834945380688,0.306190997362,0.0502640493214,0.323675245047,25.2999992371,0.2792459467183946,0.10240501584013377,0.016810718836588627,25.2999992371,0.04373989797932432,0.4079747354757681,0.8907374418154598
1648219111852789919,63643,16,4,2.13380646706,-1.04749548435,0.999014675617,-0.647350490093,25.2999992371,0.7136476478461538,-0.35033293790969894,0.33411862060769226,25.2999992371,-0.08747979595851352,1.0683253708197409,2.5784505329167864
1648219111852948972,63644,16,5,1.90080034733,1.01086974144,0.125249326229,-0.566431701183,25.2999992371,0.63571917970903,0.33808352556521737,0.04188940676555184,25.2999992371,-0.07654482448418919,0.9605093550603507,2.1565219656404246
1648219112047881602,63645,18,0,0.00554364221171,0.0454158857465,0.0102218193933,0.0,19.2999992371,0.0018540609403712373,0.015189259446989964,0.003418668693411371,19.2999992371,0.0,0.015413912108520486,0.046880915507483835
1648219112047884835,63646,18,1,0.0335209183395,0.0146502861753,-0.0293178688735,0.0,19.2999992371,0.011211009478093645,0.0048997612626421405,-0.009805307315551839,19.2999992371,0.0,0.016594611398484137,0.04688091601734499
1648219112047886556,63647,18,2,2.14135456085,-1.14272224903,0.227359712124,0.0,19.2999992371,0.7161720939297658,-0.3821813541906354,0.07604003749966555,19.2999992371,0.0,1.0825283015877591,2.437807607748894
1648219112047983035,63648,18,3,0.753119468689,0.556710898876,0.0448574461043,0.242756426334,19.2999992371,0.25187942096622074,0.18619093607892975,0.015002490335886288,19.2999992371,0.03280492247756756,0.40193724645833134,0.9376183389400645
1648219112047984825,63649,18,4,1.08342659473,0.435113489628,-0.488952070475,0.242756426334,19.2999992371,0.3623500316822742,0.14552290623010034,-0.16352912056020066,19.2999992371,0.03280492247756756,0.5327025503580256,1.265784761421265
1648219112047985874,63650,18,5,0.891948580742,0.5391305089,0.276428699493,0.323675245047,19.2999992371,0.2983105621210702,0.18031120698996655,0.09245107006454847,19.2999992371,0.04373989797932432,0.45879245232692784,1.0782610083916753
1648219112047986899,63651,18,6,2.41694116592,1.10463154316,0.57589250803,0.566431701183,19.2999992371,0.8083415270635451,0.3694419876789297,0.19260618997658863,19.2999992371,0.07654482448418919,1.2013823001072583,2.71909316252089
1648219112047987837,63652,18,7,1.10232591629,0.681238293648,0.657949268818,-0.647350490093,19.2999992371,0.3686708750133779,0.2278388941966555,0.22004992268160534,19.2999992371,-0.08747979595851352,0.568987688684926,1.453308390808767
1648219112047988984,63653,18,8,1.3281763792,-0.227079421282,-0.544506728649,-0.647350490093,19.2999992371,0.4442061468896321,-0.07594629474314381,-0.18210927379565214,19.2999992371,-0.08747979595851352,0.6327764546459352,1.453308341467366
1648219112152799738,63654,19,0,0.00554364221171,0.0454158857465,0.0102218193933,0.0,17.3999996185,0.0018540609403712373,0.015189259446989964,0.003418668693411371,17.3999996185,0.0,0.015413912108520486,0.046880915507483835
1648219112152808603,63655,19,1,0.0333717577159,0.0146502861753,-0.0294875428081,0.0,17.3999996185,0.011161122981906354,0.0048997612626421405,-0.009862054450869564,17.3999996185,0.0,0.016527219756068013,0.046880915935233684
1648219112152816076,63656,19,2,0.482073754072,-0.501039743423,-0.478181749582,0.0,17.3999996185,0.16122868029163878,-0.16757182054280934,-0.15992700654916386,17.3999996185,0.0,0.28296588087117225,0.8438564537216974
1648219112152986745,63657,19,3,2.10855078697,-1.12074685097,-0.120291858912,0.0,17.3999996185,0.7052009320969899,-0.3748317227324415,-0.04023139094046822,17.3999996185,0.0,1.0654180069942014,2.3909266104402875
1648219112152990844,63658,19,4,0.760348021984,0.640217483044,0.417898565531,0.323675245047,17.3999996185,0.2542969973190635,0.21411955954648826,0.13976540653210703,17.3999996185,0.04373989797932432,0.41854642690072713,1.0782609847356266
1648219112152992022,63659,19,5,0.706041455269,0.615312039852,0.0449957102537,0.404594063759,17.3999996185,0.23613426597625414,0.20578997988361203,0.015048732526321069,17.3999996185,0.05467487348094594,0.3922604988483879,0.9376182895434748
