%time,field.header.seq,field.header.frame_id,field.point_id,field.x,field.y,field.z,field.velocity,field.intensity,normalized_x,normalized_y,normalized_z,normalized_intensity,normalized_velocity,normalized_range,range
1648218605144032320,41644,0,0,0.00534802582115,0.0454158857465,0.0103255109861,0.0,22.2000007629,0.0017886373983779262,0.015189259446989964,0.003453348155886287,22.2000007629,0.0,0.01539844310421434,0.04688091547151037
1648218605144040542,41645,0,1,0.0335481353104,0.0146502861753,-0.029286717996,0.0,22.2000007629,0.011220112143946486,0.0048997612626421405,-0.00979488896187291,22.2000007629,0.0,0.016606911015488682,0.046880914227437204
1648218605144070515,41646,0,2,0.884951174259,-0.83799636364,-0.0187085550278,0.0809188112617,22.2000007629,0.2959702923943144,-0.28026634235451503,-0.006257041815317725,22.2000007629,0.010934974494824324,0.5037321218829808,1.218903809300584
1648218605144073746,41647,0,3,1.03708744049,-0.779395282269,0.200209572911,-0.0809188112617,22.2000007629,0.34685198678595314,-0.2606673184846154,0.06695972338160534,22.2000007629,-0.010934974494824324,0.5554818200451622,1.3126656993806454
1648218605338893320,41648,2,0,0.00531032914296,0.0454158857465,0.0103449486196,0.0,14.8000001907,0.0017760298136989964,0.015189259446989964,0.003459849036655518,14.8000001907,0.0,0.01539552423096626,0.04688091547408045
1648218605338911891,41649,2,1,0.0334658920765,0.0146502861753,-0.0293806623667,0.0,14.8000001907,0.011192606045652172,0.0048997612626421405,-0.009826308483846153,14.8000001907,0.0,0.016569747150069238,0.046880914438608735
1648218605338914167,41650,2,2,2.07016468048,-1.21890377998,0.414243817329,0.0,14.8000001907,0.6923627693913043,-0.407660127083612,0.1385430827187291,14.8000001907,0.0,1.0606220759970157,2.4378076563485673
1648218605339072705,41651,2,3,1.21775519848,-0.87022703886,0.391412347555,-0.161837622523,14.8000001907,0.4072759861137123,-0.2910458323946488,0.13090713965050166,14.8000001907,-0.021869948989594594,0.645333351287602,1.5470702790780464
1648218605339103282,41652,2,4,0.942604720592,-0.83067125082,0.153924137354,-0.0809188112617,14.8000001907,0.31525241491371236,-0.2778164718461538,0.0514796446,14.8000001907,-0.010934974494824324,0.5253095870502457,1.2657847472146908
1648218605443963894,41653,3,0,0.00531032914296,0.0454158857465,0.0103449486196,0.0,25.8999996185,0.0017760298136989964,0.015189259446989964,0.003459849036655518,25.8999996185,0.0,0.01539552423096626,0.04688091547408045
1648218605444003524,41654,3,1,0.0334658920765,0.0146502861753,-0.0293806623667,0.0,25.8999996185,0.011192606045652172,0.0048997612626421405,-0.009826308483846153,25.8999996185,0.0,0.016569747150069238,0.046880914438608735
1648218605444020849,41655,3,2,0.979214251041,-0.79111546278,-0.132237762213,-0.161837622523,25.8999996185,0.32749640503043476,-0.26458711129765883,-0.04422667632541805,25.8999996185,-0.021869948989594594,0.5333986596163857,1.2657847568392115
1648218605444023312,41656,3,3,1.11263751984,-0.89073741436,0.468179911375,-0.161837622523,25.8999996185,0.3721195718528428,-0.29790548975250836,0.15658191015886286,25.8999996185,-0.021869948989594594,0.6047260804170496,1.5001892618305024
1648218605444033895,41657,3,4,0.919612765312,-0.799905598164,-0.0137772057205,-0.0809188112617,25.8999996185,0.30756279776321066,-0.26752695590769227,-0.004607761110535117,25.8999996185,-0.010934974494824324,0.5106470613575521,1.2189037761432833
1648218605638917923,41658,5,0,0.00531032914296,0.0454158857465,0.0103449486196,0.0,14.8999996185,0.0017760298136989964,0.015189259446989964,0.003459849036655518,14.8999996185,0.0,0.01539552423096626,0.04688091547408045
1648218605638921950,41659,5,1,0.0334800891578,0.0146502861753,-0.029364483431,0.0,14.8999996185,0.011197354233377926,0.0048997612626421405,-0.009820897468561872,14.8999996185,0.0,0.016576161922664173,0.046880914477022494
1648218605638927795,41660,5,2,0.936780452728,-0.83067125082,0.186114817858,-0.161837622523,14.8999996185,0.31330449924013376,-0.2778164718461538,0.06224575848093645,14.8999996185,-0.021869948989594594,0.5229736231563373,1.2657847640805513
1648218605638929577,41661,5,3,0.996005058289,-0.953733623028,0.458771407604,-0.161837622523,14.8999996185,0.33311205962842805,-0.31897445586220735,0.1534352533792642,14.8999996185,-0.021869948989594594,0.5689217802408149,1.4533083307634154
1648218605743879198,41662,6,0,0.00537798041478,0.0454158857465,0.0103099411353,0.0,22.7000007629,0.0017986556571170569,0.015189259446989964,0.003448140847926421,22.7000007629,0.0,0.015400776827606205,0.04688091549547907
1648218605743894408,41663,6,1,0.0334658920765,0.0146502861753,-0.0293806623667,0.0,22.7000007629,0.011192606045652172,0.0048997612626421405,-0.009826308483846153,22.7000007629,0.0,0.016569747150069238,0.046880914438608735
1648218605743896445,41664,6,2,0.937887728214,-0.761814832687,0.160409659147,-0.161837622523,22.7000007629,0.3136748254896321,-0.2547875694605351,0.05364871543377926,22.7000007629,-0.021869948989594594,0.5115667090844647,1.2189038062062145
1648218605743898719,41665,6,3,1.10379266739,-0.835066318512,0.249688506126,-0.161837622523,22.7000007629,0.36916142722073575,-0.2792863941511705,0.083507861580602,22.7000007629,-0.021869948989594594,0.5920820962107063,1.4064275164360762
1648218605938921071,41666,8,0,0.00541508058086,0.0454158857465,0.0102905035019,0.0,18.8999996185,0.0018110637394180601,0.015189259446989964,0.003441639967190635,18.8999996185,0.0,0.015403684828132641,0.046880915500435404
1648218605938933245,41667,8,1,0.0334658920765,0.0146502861753,-0.0293806623667,0.0,18.8999996185,0.011192606045652172,0.0048997612626421405,-0.009826308483846153,18.8999996185,0.0,0.016569747150069238,0.046880914438608735
1648218605938943896,41668,8,2,1.29357659817,-1.22476398945,0.0162861030549,0.242756426334,18.8999996185,0.4326343137692307,-0.409620063361204,0.005446857208996655,18.8999996185,0.03280492247756756,0.7362971514335657,1.7814748054180458
1648218605939078770,41669,8,3,0.949079632759,-0.902457654476,0.0889343246818,-0.404594063759,18.8999996185,0.31741793737759194,-0.30182530250033446,0.029743921298260867,18.8999996185,-0.05467487348094594,0.5409314255684431,1.3126657158419615
1648218605939149978,41670,8,4,0.914791166782,-0.732514321804,0.0147542916238,-0.242756426334,18.8999996185,0.30595022300401337,-0.24498806749297658,0.004934545693578595,18.8999996185,-0.03280492247756756,0.49722251671294443,1.1720229518194885
1648218605939172141,41671,8,5,0.797762513161,-0.879017174244,0.754282474518,-0.161837622523,18.8999996185,0.2668102050705685,-0.29398567700468226,0.2522683861264214,18.8999996185,-0.021869948989594594,0.47833351267029056,1.406427485292384
1648218605939182181,41672,8,6,1.19910764694,-0.351606875658,-0.645408213139,-0.161837622523,18.8999996185,0.40103934680267556,-0.11759427279531771,-0.2158555896785953,18.8999996185,-0.021869948989594594,0.5792180317998509,1.40642749743712
1648218606043937208,41673,9,0,0.00531032914296,0.0454158857465,0.0103449486196,0.0,19.7999992371,0.0017760298136989964,0.015189259446989964,0.003459849036655518,19.7999992371,0.0,0.01539552423096626,0.04688091547408045
1648218606043957895,41674,9,1,0.0334658920765,0.0146502861753,-0.0293806623667,0.0,19.7999992371,0.011192606045652172,0.0048997612626421405,-0.009826308483846153,19.7999992371,0.0,0.016569747150069238,0.046880914438608735
1648218606043972644,41675,9,2,2.02151823044,1.00500965118,0.424718499184,0.0,19.7999992371,0.6760930536588627,0.3361236291571906,0.1420463207973244,19.7999992371,0.0,1.013500236057857,2.297164808740401
1648218606044010091,41676,9,3,1.66638660431,-1.57930088043,0.0770124346018,0.0,19.7999992371,0.5573199345518394,-0.5281942743913043,0.025756667090903008,19.7999992371,0.0,0.9487888123273215,2.2971648832928997
1648218606044021852,41677,9,4,1.26520800591,-1.31413066387,0.123263828456,0.242756426334,19.7999992371,0.42314649027090295,-0.43950858323411374,0.04122536068762541,19.7999992371,0.03280492247756756,0.7424780799415055,1.8283557288853272
1648218606044095757,41678,9,5,0.985627889633,-0.861436843872,0.0977520793676,-0.323675245047,19.7999992371,0.3296414346598662,-0.28810596785016723,0.032693003132976586,19.7999992371,-0.04373989797932432,0.5480255464849346,1.3126657007110543
1648218606044097767,41679,9,6,0.978172957897,-0.622637212276,0.170699641109,-0.161837622523,19.7999992371,0.3271481464538461,-0.20823987032642138,0.057090180972909695,19.7999992371,-0.021869948989594594,0.5073614717831253,1.1720229524828156
1648218606044103197,41680,9,7,0.984069228172,-0.76474493742,0.543267726898,-0.0809188112617,19.7999992371,0.3291201432013378,-0.2557675375986622,0.1816948919391304,19.7999992371,-0.010934974494824324,0.5310905484105524,1.3595465744995556
1648218606238930848,41681,11,0,0.00527240289375,0.0454158857465,0.0103643294424,0.0,13.8999996185,0.0017633454494147157,0.015189259446989964,0.003466330917190635,13.8999996185,0.0,0.015392607865333186,0.04688091546891724
1648218606238956762,41682,11,1,0.0334135852754,0.0146502861753,-0.0294401347637,0.0,13.8999996185,0.0111751121322408,0.0048997612626421405,-0.009846198917625417,13.8999996185,0.0,0.016546115035475838,0.04688091403630512
1648218606239108716,41683,11,2,1.4269477129,-1.14272224903,-0.0298428870738,0.161837622523,13.8999996185,0.4772400377591973,-0.3821813541906354,-0.00998089868688963,13.8999996185,0.021869948989594594,0.7756150428993678,1.8283556852230975
1648218606239112863,41684,11,3,0.877187669277,-0.515690088272,0.168376371264,-0.323675245047,13.8999996185,0.29337380243377925,-0.17247160142876253,0.056313167646822745,13.8999996185,-0.04373989797932432,0.44931373138188224,1.0313801804735396
1648218606239115323,41685,11,4,0.997337639332,-0.712003946304,0.317141979933,-0.323675245047,13.8999996185,0.3335577389070234,-0.23812841013511704,0.10606755181705683,13.8999996185,-0.04373989797932432,0.5284190288804999,1.2657847454510658
1648218606239163418,41686,11,5,0.129978194833,-0.817485928535,0.164061442018,-0.161837622523,13.8999996185,0.0434709681715719,-0.2734066650618729,0.05487004749765886,13.8999996185,-0.021869948989594594,0.28023321474765045,0.8438564636487665
1648218606239167854,41687,11,6,1.0149461031,-0.476134330034,0.341787070036,-0.0809188112617,13.8999996185,0.33944685722408025,-0.15924225084749163,0.11431005686822741,13.8999996185,-0.010934974494824324,0.5057731034896831,1.1720229919581764
1648218606239275146,41688,11,7,1.02448058128,-0.637287437916,0.626634597778,-0.0809188112617,13.8999996185,0.34263564591304346,-0.21313961134314377,0.20957678855451503,13.8999996185,-0.010934974494824324,0.5293645866734981,1.3595464902230237
1648218606344044219,41689,12,0,0.00537798041478,0.0454158857465,0.0103099411353,0.0,14.0,0.0017986556571170569,0.015189259446989964,0.003448140847926421,14.0,0.0,0.015400776827606205,0.04688091549547907
1648218606344046522,41690,12,1,0.0335481353104,0.0146502861753,-0.029286717996,0.0,14.0,0.011220112143946486,0.0048997612626421405,-0.00979488896187291,14.0,0.0,0.016606911015488682,0.046880914227437204
1648218606344075913,41691,12,2,1.48852229118,-1.11342179775,-0.247195854783,0.0809188112617,14.0,0.4978335422006689,-0.37238187215719065,-0.08267419892408026,14.0,0.010934974494824324,0.7964576135560665,1.8752366521765984
1648218606344088591,41692,12,3,0.973477840424,-0.438043534756,0.152004927397,-0.242756426334,14.0,0.325577873051505,-0.1465028544334448,0.050837768360200666,14.0,-0.03280492247756756,0.483182149089379,1.0782609805103183
1648218606344111260,41693,12,4,1.02253866196,-0.594801604748,0.670069038868,-0.161837622523,14.0,0.3419861745685619,-0.19893030259130434,0.22410335748093643,14.0,-0.021869948989594594,0.5229554020001569,1.3595465350855882
1648218606538991299,41694,14,0,0.00518737966195,0.0454158857465,0.0104071442038,0.0,23.3999996185,0.0017349095859364547,0.015189259446989964,0.003480650235384615,23.3999996185,0.0,0.015386143931821328,0.0468809154814093
1648218606538993001,41695,14,1,0.0334658920765,0.0146502861753,-0.0293806623667,0.0,23.3999996185,0.011192606045652172,0.0048997612626421405,-0.009826308483846153,23.3999996185,0.0,0.016569747150069238,0.046880914438608735
1648218606539046815,41696,14,2,1.73674845695,-1.53828012943,0.33458968997,0.0,23.3999996185,0.5808523267391305,-0.5144749596755852,0.11190290634448159,23.3999996185,0.0,0.9692591681741877,2.344045908243182
1648218606539049536,41697,14,3,1.38896417618,-0.219754293561,0.022911882028,-0.404594063759,23.3999996185,0.4645365137725752,-0.07349641925117056,0.007662836798662207,23.3999996185,-0.05467487348094594,0.6610522436984082,1.406427526247956
1648218606539050704,41698,14,4,0.903440237045,-0.36918720603,0.129364535213,-0.323675245047,23.3999996185,0.3021539254331103,-0.12347398194983276,0.043265730840468225,23.3999996185,-0.04373989797932432,0.44479187664324854,0.9844991812993239
1648218606640891526,41699,15,0,0.00534067070112,0.0454158857465,0.0103293173015,0.0,43.4000015259,0.0017861774920133779,0.015189259446989964,0.0034546211710702337,43.4000015259,0.0,0.015397872015766473,0.04688091549438866
1648218606640894022,41700,15,1,0.0334658920765,0.0146502861753,-0.0293806623667,0.0,43.4000015259,0.011192606045652172,0.0048997612626421405,-0.009826308483846153,43.4000015259,0.0,0.016569747150069238,0.046880914438608735
1648218606640909381,41701,15,2,2.09189987183,-1.21890377998,0.28484082222,0.0,43.4000015259,0.6996320641571906,-0.407660127083612,0.0952644890367893,43.4000015259,0.0,1.0701200071055252,2.43780757907897
1648218606640911006,41702,15,3,0.998288691044,-0.225614413619,0.127525568008,-0.485512852669,43.4000015259,0.33387581640267555,-0.07545632562508361,0.04265069164147157,43.4000015259,-0.06560984495527027,0.47816292059709614,1.031380116540333
1648218606640915422,41703,15,4,1.09704208374,-0.41899818182,0.326597243547,-0.485512852669,43.4000015259,0.3669037069364548,-0.14013317117725752,0.10922984734013376,43.4000015259,-0.06560984495527027,0.5374699675252733,1.2189038392578657
1648218606641026626,41704,15,5,0.879443585873,-0.293005734682,0.140906557441,-0.404594063759,43.4000015259,0.29412828958963205,-0.09799522899063544,0.04712593894347826,43.4000015259,-0.05467487348094594,0.42734759432898645,0.937618280122339
1648218606743960863,41705,16,0,0.00519300391898,0.0454158857465,0.0104043390602,0.0,36.4000015259,0.0017367906083545148,0.015189259446989964,0.003479712060267558,36.4000015259,0.0,0.015386568356281096,0.046880915510698874
1648218606744163680,41706,16,1,0.0334658920765,0.0146502861753,-0.0293806623667,0.0,36.4000015259,0.011192606045652172,0.0048997612626421405,-0.009826308483846153,36.4000015259,0.0,0.016569747150069238,0.046880914438608735
1648218606744182824,41707,16,2,2.07060313225,-1.19546329975,-0.000482825009385,0.0,36.4000015259,0.6925094087792641,-0.39982050158862875,-0.00016147993624916385,36.4000015259,0.0,1.0578255980955438,2.3909266123101016
1648218606744196609,41708,16,3,0.658340454102,1.84593605995,0.18990162015,0.161837622523,36.4000015259,0.22018075388026756,0.6173699197157191,0.06351224754180601,36.4000015259,0.021869948989594594,0.6914511888256172,1.9689984043331656
1648218606744199081,41709,16,4,0.950352728367,-0.32230630517,0.23810352385,-0.485512852669,36.4000015259,0.3178437218618729,-0.10779475089297658,0.07963328556856186,36.4000015259,-0.06560984495527027,0.4622434113906807,1.0313801194209269
1648218606744202905,41710,16,5,1.11984360218,-0.266635209322,0.400727301836,-0.404594063759,36.4000015259,0.3745296328361204,-0.0891756552916388,0.13402250897525084,36.4000015259,-0.05467487348094594,0.5371193435740436,1.2189037692248004
1648218606744206891,41711,16,6,0.970630228519,-0.0922968015075,0.13637085259,-0.323675245047,36.4000015259,0.32462549448795985,-0.03086849548745819,0.0456089807993311,36.4000015259,-0.04373989797932432,0.46012638193953204,0.9844992379476404
1648218606744211327,41712,16,7,1.3060041666,0.317911207676,-0.552621722221,-0.161837622523,36.4000015259,0.4367906911705685,0.10632481862073578,-0.18482331846856187,36.4000015259,-0.021869948989594594,0.6267991567011384,1.4533083592318174
1648218606744231531,41713,16,8,1.37907612324,-0.227079421282,0.398358076811,-0.161837622523,36.4000015259,0.46122947265551834,-0.07594629474314381,0.13323012602374582,36.4000015259,-0.021869948989594594,0.6566834036104365,1.453308354968413
1648218606744360177,41714,16,9,1.32567155361,-0.145037829876,-0.784210145473,-0.161837622523,36.4000015259,0.44336841257859533,-0.048507635410033445,-0.2622776406264214,36.4000015259,-0.021869948989594594,0.6288911584988295,1.5470703256182878
1648218606939108651,41715,18,0,0.00537798041478,0.0454158857465,0.0103099411353,0.0,15.6000003815,0.0017986556571170569,0.015189259446989964,0.003448140847926421,15.6000003815,0.0,0.015400776827606205,0.04688091549547907
1648218606939109734,41716,18,1,0.0334135852754,0.0146502861753,-0.0294401347637,0.0,15.6000003815,0.0111751121322408,0.0048997612626421405,-0.009846198917625417,15.6000003815,0.0,0.016546115035475838,0.04688091403630512
1648218606939110823,41717,18,2,2.10126161575,-1.21890377998,0.204643219709,0.0,15.6000003815,0.7027630821906353,-0.407660127083612,0.06844254839765886,15.6000003815,0.0,1.0742153781220924,2.4378075498379066
1648218606939112032,41718,18,3,2.27042603493,-0.609451889992,-0.645476102829,0.242756426334,15.6000003815,0.7593398110133778,-0.20383006354247488,-0.21587829526053512,15.6000003815,0.03280492247756756,1.0930418985489045,2.4378074956046256
1648218606939112967,41719,18,4,0.812460482121,1.74191904068,0.0127258887514,0.323675245047,15.6000003815,0.2717259137528428,0.5825816189565217,0.004256150084080267,15.6000003815,0.04373989797932432,0.6979049270177398,1.9221175634014513
1648218606939119075,41720,18,5,0.956056416035,-0.215359210968,0.0938893482089,-0.323675245047,15.6000003815,0.3197513097107023,-0.07202649196254181,0.03140111980230769,15.6000003815,-0.04373989797932432,0.45789694874267184,0.9844991976114255
1648218606939227305,41721,18,6,0.876252651215,-0.175803437829,0.68353420496,-0.161837622523,15.6000003815,0.2930610873628762,-0.05879713639765886,0.22860675751170564,15.6000003815,-0.021869948989594594,0.4186008899909168,1.1251420207529852
1648218606939230477,41722,18,7,0.896018385887,-0.105482056737,0.672286450863,-0.161837622523,15.6000003815,0.29967170096555185,-0.035278279845150494,0.2248449668438127,15.6000003815,-0.021869948989594594,0.4252655802531014,1.1251419839980115
1648218606939231550,41723,18,8,0.903885185719,-0.0,-0.24923825264,-0.0809188112617,15.6000003815,0.30230273769866217,-0.0,-0.08335727513043477,15.6000003815,-0.010934974494824324,0.4275206315959644,0.937618331487451
1648218607043993608,41724,19,0,0.00537259923294,0.0454158857465,0.0103127462789,0.0,21.0,0.001796855930749164,0.015189259446989964,0.003449079023043478,21.0,0.0,0.015400356652354216,0.04688091548242093
1648218607043999805,41725,19,1,0.0334658920765,0.0146502861753,-0.0293806623667,0.0,21.0,0.011192606045652172,0.0048997612626421405,-0.009826308483846153,21.0,0.0,0.016569747150069238,0.046880914438608735
1648218607044001294,41726,19,2,0.789421796799,-0.0,0.109468139708,0.0,21.0,0.2640206678257525,-0.0,0.036611417962541803,21.0,0.0,0.373381609185981,0.7969755622806084
1648218607044002592,41727,19,3,2.10480475426,-1.21890377998,0.164243459702,0.0,21.0,0.703948078347826,-0.407660127083612,0.05493092297725752,21.0,0.0,1.0757660401932294,2.4378074970062573
1648218607044003661,41728,19,4,0.917677462101,0.0879017189145,0.171083122492,0.161837622523,21.0,0.30691553916421405,0.02939856819882943,0.057218435616053505,21.0,0.021869948989594594,0.43503858699322484,0.9376182973032623
1648218607044004780,41729,19,5,0.991889059544,0.210964113474,0.487436890602,0.161837622523,21.0,0.33173547141939796,0.07055655969030099,0.16302237143879597,21.0,0.021869948989594594,0.4744207774866436,1.1251419847897852
1648218607044005993,41730,19,6,1.57514178753,-0.228544458747,-1.84651064873,0.323675245047,21.0,0.5268032734214046,-0.07643627382842809,-0.6175620898762542,21.0,0.04373989797932432,0.7489231480811558,2.437807579838993
1648218607044007105,41731,19,7,0.48080983758,1.90746724606,0.0857053101063,0.404594063759,21.0,0.1608059657458194,0.6379489117257524,0.028663983313143813,21.0,0.05467487348094594,0.6772709437226457,1.9689984242974508
1648218607044008256,41732,19,8,0.904376208782,-0.0879017189145,0.231311574578,-0.0809188112617,21.0,0.30246695945886287,-0.02939856819882943,0.07736173062809364,21.0,-0.010934974494824324,0.42876193737401647,0.9376183038597216
1648218607044009362,41733,19,9,1.04925990105,-0.0351606868207,0.404674947262,-0.0809188112617,21.0,0.35092304382943146,-0.011759427030334446,0.13534279172642139,21.0,-0.010934974494824324,0.4964194290165403,1.1251419585059754
1648218607140954606,41734,20,0,0.00531032914296,0.0454158857465,0.0103449486196,0.0,15.5,0.0017760298136989964,0.015189259446989964,0.003459849036655518,15.5,0.0,0.01539552423096626,0.04688091547408045
1648218607140961782,41735,20,1,0.0334658920765,0.0146502861753,-0.0293806623667,0.0,15.5,0.011192606045652172,0.0048997612626421405,-0.009826308483846153,15.5,0.0,0.016569747150069238,0.046880914438608735
1648218607140963860,41736,20,2,0.927976191044,-0.0586011447012,0.120640464127,0.0,15.5,0.31035993011505014,-0.019599045050568562,0.040347981313377926,15.5,0.0,0.43935258620944956,0.9376182735471825
1648218607141075505,41737,20,3,2.07044529915,-1.19546329975,0.0255638621747,0.0,15.5,0.6924566217892977,-0.39982050158862875,0.008549786680501673,15.5,0.0,1.0577564840785783,2.39092654610525
1648218607141081835,41738,20,4,0.961884856224,0.0351606868207,0.582653999329,0.0809188112617,15.5,0.32170062081070233,0.011759427030334446,0.19486755830401337,15.5,0.010934974494824324,0.45510533174646983,1.1251419614719056
1648218607141085285,41739,20,5,0.841038942337,0.139177724719,0.258256137371,0.242756426334,15.5,0.28128392720301004,0.04654773401973244,0.08637329009063545,15.5,0.03280492247756756,0.400509658994472,0.8907374327348583
1648218607141087305,41740,20,6,2.43420338631,0.155293032527,0.473513424397,0.404594063759,15.5,0.8141148449197324,0.051937469072575244,0.15836569377826085,15.5,0.05467487348094594,1.1525031289029217,2.484688514675165
1648218607141158554,41741,20,7,0.48362532258,-1.95288312435,0.126980140805,0.485512852669,15.5,0.1617475995250836,-0.6531381686789297,0.04246827451672241,15.5,0.06560984495527027,0.6920361546115346,2.0158794374095104
1648218607141161198,41742,20,8,1.01326596737,-0.096691891551,0.166396334767,-0.0809188112617,15.5,0.3388849389197324,-0.032338425267892976,0.05565094808260869,15.5,-0.010934974494824324,0.48034547713293674,1.031380134938551
1648218607243980669,41743,21,0,0.00527240289375,0.0454158857465,0.0103643294424,0.0,21.1000003815,0.0017633454494147157,0.015189259446989964,0.003466330917190635,21.1000003815,0.0,0.015392607865333186,0.04688091546891724
1648218607243982558,41744,21,1,0.0334658920765,0.0146502861753,-0.0293806623667,0.0,21.1000003815,0.011192606045652172,0.0048997612626421405,-0.009826308483846153,21.1000003815,0.0,0.016569747150069238,0.046880914438608735
1648218607243989133,41745,21,2,2.07038378716,-1.19546329975,-0.0301286783069,0.0,21.1000003815,0.6924360492173912,-0.39982050158862875,-0.01007648103909699,21.1000003815,0.0,1.0577295486097387,2.390926444799309
1648218607243994283,41746,21,3,0.960176765919,0.0307656005025,0.215296894312,0.161837622523,21.1000003815,0.3211293531501672,0.010289498495819397,0.0720056502715719,21.1000003815,0.021869948989594594,0.45426203527103726,0.9844992111146367
1648218607243995502,41747,21,4,1.00245785713,0.0351606868207,0.509692430496,0.161837622523,21.1000003815,0.33527018633110367,0.011759427030334446,0.17046569581806018,21.1000003815,0.021869948989594594,0.47428944728832806,1.1251419479000393
1648218607243996591,41748,21,5,0.874196648598,0.111342176795,0.129600644112,0.242756426334,21.1000003815,0.2923734610695652,0.037238186219063545,0.04334469702742475,21.1000003815,0.03280492247756756,0.41515197697768313,0.8907374403872722
1648218607244006497,41749,21,6,0.828821361065,0.158223092556,0.010692386888,0.323675245047,21.1000003815,0.2771977796204013,0.05291742225953177,0.0035760491264214046,21.1000003815,0.04373989797932432,0.39557233425955707,0.8438564585952912
1648218607244007623,41750,21,7,0.520469605923,-2.04371500015,0.0540972612798,0.404594063759,21.1000003815,0.17407010231538458,-0.683516722458194,0.018092729525016723,21.1000003815,0.05467487348094594,0.7264956372340915,2.1096412316329367
1648218607244008657,41751,21,8,1.67403769493,-1.89867711067,0.038303360343,0.404594063759,21.1000003815,0.5598788277357859,-0.6350090671137123,0.012810488409030098,21.1000003815,0.05467487348094594,1.0149705014483046,2.5315694977705614
1648218607244009719,41752,21,9,2.4496948719,0.632892370224,0.0853613466024,0.404594063759,21.1000003815,0.8192959437792641,0.21166968903812708,0.02854894535197324,21.1000003815,0.05467487348094594,1.1778351940079763,2.5315695284140793
1648218607244012675,41753,21,10,1.08835792542,-1.74045407772,0.203167170286,0.566431701183,21.1000003815,0.3639993061605351,-0.5820916647892976,0.06794888638327759,21.1000003815,0.07654482448418919,0.7770596476383765,2.062760351945597
1648218607341126212,41754,22,0,0.00537798041478,0.0454158857465,0.0103099411353,0.0,25.2999992371,0.0017986556571170569,0.015189259446989964,0.003448140847926421,25.2999992371,0.0,0.015400776827606205,0.04688091549547907
1648218607341131120,41755,22,1,0.0334658920765,0.0146502861753,-0.0293806623667,0.0,25.2999992371,0.011192606045652172,0.0048997612626421405,-0.009826308483846153,25.2999992371,0.0,0.016569747150069238,0.046880914438608735
1648218607341198191,41756,22,2,2.10776209831,-1.21890377998,0.12049331516,0.0,25.2999992371,0.704937156625418,-0.407660127083612,0.04029876761204013,25.2999992371,0.0,1.0770606151912179,2.4378076476457187
1648218607341206112,41757,22,3,0.792927980423,0.109877154231,0.856054902077,0.242756426334,25.2999992371,0.2651933044892976,0.0367482121173913,0.28630598731672235,25.2999992371,0.03280492247756756,0.3768360500081321,1.172022937714814
1648218607341208161,41758,22,4,1.95642590523,0.0849716588855,-1.88643705845,0.242756426334,25.2999992371,0.6543230452274247,0.028418615011872907,-0.6309154041638796,25.2999992371,0.03280492247756756,0.9257888056736125,2.719093098987651
1648218607341213025,41759,22,5,0.908347129822,0.184593603015,0.331767112017,0.323675245047,25.2999992371,0.3037950266963211,0.06173699097491638,0.11095890034013377,25.2999992371,0.04373989797932432,0.43404411359385325,0.984499224553288
1648218607341214838,41760,22,6,0.85427492857,0.250519901514,0.0294505655766,0.404594063759,25.2999992371,0.285710678451505,0.08378592023879598,0.009849687483812708,25.2999992371,0.05467487348094594,0.4126515042898795,0.8907374531536464
1648218607341216677,41761,22,7,1.58016240597,-1.97778868675,-0.0168170575052,0.404594063759,25.2999992371,0.5284824100234113,-0.6614677882107023,-0.005624433948227424,25.2999992371,0.05467487348094594,0.998061596420113,2.531569499757082
1648218607341217990,41762,22,8,1.23220586777,-1.75217413902,0.249282360077,0.566431701183,25.2999992371,0.41210898587625416,-0.5860114177324415,0.08337202678160534,25.2999992371,0.07654482448418919,0.8264847331879127,2.156522016827757
