%time,field.header.seq,field.header.frame_id,field.point_id,field.x,field.y,field.z,field.velocity,field.intensity,normalized_x,normalized_y,normalized_z,normalized_intensity,normalized_velocity,normalized_range,range
1648294331658291656,5184,0,0,0.0062171574682,0.0454158857465,0.00982672441751,0.0,18.1000003815,0.0020793168789966553,0.015189259446989964,0.003286529905521739,18.1000003815,0.0,0.015471286950817462,0.04688091549768652
1648294331658297411,5185,0,1,0.033480156213,0.0146502861753,-0.0293644089252,0.0,18.1000003815,0.01119737665986622,0.0048997612626421405,-0.009820872550234113,18.1000003815,0.0,0.016576192221276938,0.04688091569702361
1648294331658301669,5186,0,2,2.30977654457,-1.1485824585,0.48790922761,0.0,18.1000003815,0.7725005165785953,-0.38414129046822737,0.16318034368227424,18.1000003815,0.0,1.1580494925826739,2.625331362743877
1648294331658310392,5187,0,3,0.835031270981,-0.83799636364,0.29361769557,-0.0809188112617,18.1000003815,0.2792746725688963,-0.28026634235451503,0.09819989818394648,18.1000003815,-0.010934974494824324,0.4842911398463808,1.2189038026611634
1648294331763038463,5188,1,0,0.0126330824569,0.0439508594573,0.0103221805766,0.0,12.8000001907,0.0042251111895986624,0.014699284099431437,0.003452234306555184,12.8000001907,0.0,0.015867327505435232,0.046880915426792916
1648294331763042991,5189,1,1,0.0334891453385,0.0146502861753,-0.0293541569263,0.0,12.8000001907,0.011200383056354513,0.0048997612626421405,-0.0098174437880602,12.8000001907,0.0,0.016580253968170543,0.04688091583336666
1648294331763051137,5190,1,2,2.0061841011,-1.39763724804,0.442168354988,0.0,12.8000001907,0.6709645823076923,-0.46743720670234107,0.14788239297257524,12.8000001907,0.0,1.0577733611848803,2.4846885878854184
1648294331763055558,5191,1,3,2.33975315094,-1.06654083729,0.529537975788,0.0,12.8000001907,0.782526137438127,-0.35670262116722407,0.17710300193578593,12.8000001907,0.0,1.1627257077639752,2.625331337706265
1648294331763061345,5192,1,4,0.882766366005,-0.83799636364,0.0649006143212,-0.161837622523,12.8000001907,0.2952395872926421,-0.28026634235451503,0.021705891077324416,12.8000001907,-0.021869948989594594,0.5028737917870024,1.218903791184032
1648294331958468229,5193,3,0,0.0126104149967,0.0439508594573,0.0103498604149,0.0,32.5999984741,0.004217530099230769,0.014699284099431437,0.003461491777558528,32.5999984741,0.0,0.01586329326815945,0.04688091534976943
1648294331958514960,5194,3,1,0.033480156213,0.0146502861753,-0.0293644089252,0.0,32.5999984741,0.01119737665986622,0.0048997612626421405,-0.009820872550234113,32.5999984741,0.0,0.016576192221276938,0.04688091569702361
1648294331958518975,5195,3,2,2.33746623993,-1.06654083729,0.539542913437,0.0,32.5999984741,0.781761284257525,-0.35670262116722407,0.18044913492876252,32.5999984741,0.0,1.1616962473364187,2.625331281164309
1648294331958527041,5196,3,3,1.19911134243,-1.2804350853,0.310275256634,0.0809188112617,32.5999984741,0.4010405827525083,-0.42823915896321063,0.10377098884080267,32.5999984741,0.010934974494824324,0.7106728328130048,1.781474881689548
1648294331958549397,5197,3,4,1.11599636078,-0.656332850456,0.216496378183,-0.485512852669,32.5999984741,0.37324293002675585,-0.21950931453377925,0.0724068154458194,32.5999984741,-0.06560984495527027,0.5716685305288417,1.3126657493925324
1648294331958566033,5198,3,5,0.873522281647,-0.668053030968,0.237925454974,-0.404594063759,32.5999984741,0.2921479202832776,-0.22342910734715715,0.07957373076053512,32.5999984741,-0.05467487348094594,0.46970350292672514,1.1251420136337889
1648294332063127549,5199,4,0,0.00618360564113,0.0454158857465,0.00984787195921,0.0,34.2000007629,0.0020680955321505014,0.015189259446989964,0.0032936026619431436,34.2000007629,0.0,0.015468278534089552,0.046880915509289606
1648294332063136280,5200,4,1,0.0335029289126,0.0146502861753,-0.0293384213001,0.0,34.2000007629,0.011204992947357858,0.0048997612626421405,-0.009812181036822742,34.2000007629,0.0,0.01658648227719088,0.04688091397491176
1648294332063145325,5201,4,2,2.36521601677,-0.984499275684,0.573479831219,0.0,34.2000007629,0.7910421460769229,-0.32926397180066885,0.19179927465518395,34.2000007629,0.0,1.1661518412564975,2.6253313593949694
1648294332063149155,5202,4,3,1.16763782501,-1.33610606194,0.158414900303,0.0809188112617,34.2000007629,0.3905143227458193,-0.4468582146956522,0.05298157200769231,34.2000007629,0.010934974494824324,0.7104119485061026,1.7814748889010217
1648294332063159214,5203,4,4,0.857391655445,-0.640217483044,0.132845297456,-0.566431701183,34.2000007629,0.2867530620217391,-0.21411955954648826,0.04442986536989966,34.2000007629,-0.07654482448418919,0.45858676707692825,1.0782609839357469
1648294332258422041,5204,6,0,0.00624768529087,0.0454158857465,0.00980734359473,0.0,35.9000015259,0.0020895268531337793,0.015189259446989964,0.0032800480249933106,35.9000015259,0.0,0.015474037853382295,0.04688091549893182
1648294332258425262,5205,6,1,0.0334663726389,0.0146502861753,-0.0293801147491,0.0,35.9000015259,0.011192766768862874,0.0048997612626421405,-0.009826125334147156,35.9000015259,0.0,0.01656996428225513,0.0468809142966963
1648294332258427577,5206,6,2,1.72326111794,-1.43572807312,0.496006518602,0.0,35.9000015259,0.5763415110167224,-0.480176613083612,0.1658884677598662,35.9000015259,0.0,0.9459961175367085,2.297164871541519
1648294332258436591,5207,6,3,1.35972678661,-0.93761831522,-0.88799071312,0.161837622523,35.9000015259,0.4547581226120401,-0.31358472080936456,-0.2969868605752508,35.9000015259,0.021869948989594594,0.7155035131208943,1.875236663956876
1648294332258445064,5208,6,4,0.39195689559,-0.399952799082,0.809719860554,0.566431701183,35.9000015259,0.13108926273913044,-0.13376347795384613,0.2708093179110368,35.9000015259,0.07654482448418919,0.22860765001479416,0.9844992138491865
1648294332258521446,5209,6,5,0.78672683239,-0.498109728098,0.109889701009,-0.566431701183,35.9000015259,0.2631193419364548,-0.1665918823070234,0.03675240836421405,35.9000015259,-0.07654482448418919,0.4076964942855692,0.9376183426192738
1648294332258533046,5210,6,6,0.941068768501,-0.50543487072,-0.146873623133,-0.566431701183,35.9000015259,0.3147387185622073,-0.16904176278260868,-0.04912161308795986,35.9000015259,-0.07654482448418919,0.4761260752038397,1.078260959489838
1648294332258548898,5211,6,7,0.86136496067,-0.399952799082,0.259474217892,-0.404594063759,35.9000015259,0.28808192664548493,-0.13376347795384613,0.08678067488026754,35.9000015259,-0.05467487348094594,0.4288065542337922,0.9844992162080285
1648294332258555080,5212,6,8,1.07867836952,-0.402882874012,0.218577444553,-0.323675245047,35.9000015259,0.36076199649498325,-0.13474343612441472,0.07310282426521739,35.9000015259,-0.04373989797932432,0.5276876252184685,1.1720229239694138
1648294332363143120,5213,7,0,0.00618360564113,0.0454158857465,0.00984787195921,0.0,17.0,0.0020680955321505014,0.015189259446989964,0.0032936026619431436,17.0,0.0,0.015468278534089552,0.046880915509289606
1648294332363155629,5214,7,1,0.033480156213,0.0146502861753,-0.0293644089252,0.0,17.0,0.01119737665986622,0.0048997612626421405,-0.009820872550234113,17.0,0.0,0.016576192221276938,0.04688091569702361
1648294332363160707,5215,7,2,1.71878314018,-1.43572807312,0.511308372021,0.0,17.0,0.5748438595919731,-0.480176613083612,0.17100614448862875,17.0,0.0,0.9441718623077269,2.2971649558119798
1648294332363166902,5216,7,3,0.995277941227,-0.879017174244,-1.3241083622,0.242756426334,17.0,0.33286887666454845,-0.29398567700468226,-0.4428456060869565,17.0,0.03280492247756756,0.5550053660891381,1.8752366058065657
1648294332363171082,5217,7,4,0.800750315189,-0.389697611332,0.0186506360769,-0.485512852669,17.0,0.26780946996287625,-0.13033364927491636,0.006237670928729096,17.0,-0.06560984495527027,0.40053799387437683,0.8907374146061353
1648294332363173170,5218,7,5,0.841168045998,-0.351606875658,0.218945279717,-0.323675245047,17.0,0.2813271056849498,-0.11759427279531771,0.07322584605919732,17.0,-0.04373989797932432,0.41487141837007935,0.9376183190021561
1648294332558470921,5219,9,0,0.0062171574682,0.0454158857465,0.00982672441751,0.0,41.5999984741,0.0020793168789966553,0.015189259446989964,0.003286529905521739,41.5999984741,0.0,0.015471286950817462,0.04688091549768652
1648294332558571387,5220,9,1,0.0334663726389,0.0146502861753,-0.0293801147491,0.0,41.5999984741,0.011192766768862874,0.0048997612626421405,-0.009826125334147156,41.5999984741,0.0,0.01656996428225513,0.0468809142966963
1648294332558581704,5221,9,2,1.70911407471,-1.43572807312,0.542752683163,0.0,41.5999984741,0.5716100584314381,-0.480176613083612,0.1815226365093645,41.5999984741,0.0,0.9402370432781475,2.297164882066005
1648294332558589523,5222,9,3,1.87455511093,-1.47528386116,0.69516736269,0.0,41.5999984741,0.6269415086722407,-0.49340597363210703,0.23249744571571906,41.5999984741,0.0,1.014672738082727,2.4846885110738355
1648294332558593083,5223,9,4,2.36518001556,-1.06654083729,0.400972634554,0.0,41.5999984741,0.7910301055384615,-0.35670262116722407,0.134104560051505,41.5999984741,0.0,1.17417801703317,2.6253313918956653
1648294332558598491,5224,9,5,2.14447236061,-1.04603040218,0.15358582139,0.242756426334,41.5999984741,0.7172148363244146,-0.34984294387290965,0.05136649544816053,41.5999984741,0.03280492247756756,1.0729325832806913,2.390926580269064
1648294332558611621,5225,9,6,0.807419896126,-0.184593603015,0.161530137062,-0.161837622523,41.5999984741,0.27004009903879594,-0.06173699097491638,0.05402345721137124,41.5999984741,-0.021869948989594594,0.38685238299951363,0.8438564286141621
1648294332558620750,5226,9,7,0.906399548054,-0.205104008317,0.124500215054,-0.161837622523,41.5999984741,0.3031436615565217,-0.06859665829999999,0.041638867911036784,41.5999984741,-0.021869948989594594,0.4341631727976441,0.9376183117285454
1648294332663297035,5227,10,0,0.0062171574682,0.0454158857465,0.00982672441751,0.0,36.9000015259,0.0020793168789966553,0.015189259446989964,0.003286529905521739,36.9000015259,0.0,0.015471286950817462,0.04688091549768652
1648294332663306915,5228,10,1,0.033480156213,0.0146502861753,-0.0293644089252,0.0,36.9000015259,0.01119737665986622,0.0048997612626421405,-0.009820872550234113,36.9000015259,0.0,0.016576192221276938,0.04688091569702361
1648294332663310739,5229,10,2,0.86378967762,-0.0556710883975,0.210193380713,0.0,36.9000015259,0.28889286876923076,-0.018619093109531772,0.0702987895361204,36.9000015259,0.0,0.40898025610003885,0.8907374105435261
1648294332663320077,5230,10,3,1.69939768314,-1.43572807312,0.572449922562,0.0,36.9000015259,0.5683604291438127,-0.480176613083612,0.19145482359933108,36.9000015259,0.0,0.9362888093881752,2.2971648829040783
1648294332663325289,5231,10,4,1.9387499094,-1.39763724804,0.679364562035,0.0,36.9000015259,0.6484113409364548,-0.46743720670234107,0.22721222810535113,36.9000015259,0.0,1.029258022227522,2.4846885713216333
1648294332663331082,5232,10,5,2.33721613884,-1.06654083729,0.540625751019,0.0,36.9000015259,0.7816776384080267,-0.35670262116722407,0.18081128796622073,36.9000015259,0.0,1.1615836692730608,2.6253313771648465
1648294332663346102,5233,10,6,2.17461800575,-0.747164547443,-0.655218482018,0.242756426334,36.9000015259,0.7272969918896321,-0.2498878085093645,-0.21913661605953177,36.9000015259,0.03280492247756756,1.0584733089053442,2.390926513104446
1648294332663394390,5234,10,7,0.36338365078,1.84593605995,0.580884754658,0.404594063759,36.9000015259,0.12153299357190635,0.6173699197157191,0.19427583767826087,36.9000015259,0.05467487348094594,0.6408479966598097,1.9689984035727444
1648294332858356672,5235,12,0,0.0062171574682,0.0454158857465,0.00982672441751,0.0,29.1000003815,0.0020793168789966553,0.015189259446989964,0.003286529905521739,29.1000003815,0.0,0.015471286950817462,0.04688091549768652
1648294332858381497,5236,12,1,0.033480156213,0.0146502861753,-0.0293644089252,0.0,29.1000003815,0.01119737665986622,0.0048997612626421405,-0.009820872550234113,29.1000003815,0.0,0.016576192221276938,0.04688091569702361
1648294332858465647,5237,12,2,1.77820181847,-1.46502864361,0.431555956602,0.0,29.1000003815,0.5947163272474916,-0.489976134986622,0.1443330958535117,29.1000003815,0.0,0.9733712717385486,2.3440458991850903
1648294332858467758,5238,12,3,1.95122349262,-1.39763724804,0.64266204834,0.0,29.1000003815,0.6525831078996656,-0.46743720670234107,0.21493713991304345,29.1000003815,0.0,1.0345177464121436,2.4846886130132244
1648294332858471862,5239,12,4,2.3684694767,-0.984499275684,0.559891521931,0.0,29.1000003815,0.7921302597658862,-0.32926397180066885,0.18725468960903008,29.1000003815,0.0,1.167628134295972,2.6253314080725323
1648294332858500820,5240,12,5,0.795928120613,0.0249054860324,0.0323763154447,0.0809188112617,29.1000003815,0.26619669585719063,0.00832959399076923,0.010828199145384616,29.1000003815,0.010934974494824324,0.37655111725584134,0.7969755844559023
1648294332858507812,5241,12,6,0.842124998569,-0.0,0.412254244089,0.0809188112617,29.1000003815,0.2816471567120401,-0.0,0.1378776736083612,29.1000003815,0.010934974494824324,0.39830922882598757,0.9376182991944169
1648294332959796050,5242,13,0,0.0126104149967,0.0439508594573,0.0103498604149,0.0,25.3999996185,0.004217530099230769,0.014699284099431437,0.003461491777558528,25.3999996185,0.0,0.01586329326815945,0.04688091534976943
1648294332959803418,5243,13,1,0.033480156213,0.0146502861753,-0.0293644089252,0.0,25.3999996185,0.01119737665986622,0.0048997612626421405,-0.009820872550234113,25.3999996185,0.0,0.016576192221276938,0.04688091569702361
1648294332959815914,5244,13,2,1.72482991219,-1.43572807312,0.490523636341,0.0,25.3999996185,0.5768661913678929,-0.480176613083612,0.16405472787324413,25.3999996185,0.0,0.9466355081228707,2.2971649404732406
1648294332959823701,5245,13,3,2.3687722683,-0.984499275684,0.558609366417,0.0,25.3999996185,0.7922315278595317,-0.32926397180066885,0.18682587505585282,25.3999996185,0.0,1.1677655375096696,2.62533146614637
1648294332959851945,5246,13,4,0.787182271481,0.124527432024,0.00264288159087,0.0809188112617,25.3999996185,0.26327166270267555,0.04164797057658863,0.0008839068865785953,25.3999996185,0.010934974494824324,0.3746444851023582,0.7969755295387568
1648294332959855906,5247,13,5,0.905248403549,0.184593603015,0.340131282806,0.161837622523,25.3999996185,0.3027586633943144,0.06173699097491638,0.11375628187491639,25.3999996185,0.021869948989594594,0.43259342641244614,0.9844992432426385
1648294332959945299,5248,13,6,0.777089774609,-1.1896032095,-2.31828451157,0.242756426334,25.3999996185,0.25989624568862874,-0.39786060518394645,-0.7753459904916388,25.3999996185,0.03280492247756756,0.5416504206620948,2.7190931191189316
1648294332960004076,5249,13,7,2.65087556839,-0.0849716588855,-0.599254310131,0.242756426334,25.3999996185,0.8865804576555183,-0.028418615011872907,-0.20041950171605347,25.3999996185,0.03280492247756756,1.2541361303592722,2.719093082281543
1648294332960024708,5250,13,8,0.695442318916,-1.88988697529,0.0919624269009,0.404594063759,25.3999996185,0.2325894043197324,-0.6320692225050167,0.030756664515351168,25.3999996185,0.05467487348094594,0.7125357282562835,2.0158794324739646
1648294332960047018,5251,13,9,1.30487835407,-2.09645605087,0.275393605232,0.404594063759,25.3999996185,0.4364141652408026,-0.7011558698561873,0.09210488469297659,25.3999996185,0.05467487348094594,0.9340953918521597,2.484688537815665
1648294333059952632,5252,14,0,0.00636331317946,0.0454158857465,0.00973271857947,0.0,16.3999996185,0.002128198387779264,0.015189259446989964,0.0032550898259096983,16.3999996185,0.0,0.015484574882878329,0.046880915559598356
1648294333059974595,5253,14,1,0.0335646085441,0.0146502861753,-0.0292678363621,0.0,16.3999996185,0.011225621586655517,0.0048997612626421405,-0.009788574034147157,16.3999996185,0.0,0.01661435585403362,0.04688091378221547
1648294333059978829,5254,14,2,1.78483951092,-1.46502864361,0.403224915266,0.0,16.3999996185,0.596936291277592,-0.489976134986622,0.13485783119264214,16.3999996185,0.0,0.9760852854873496,2.3440459335580806
1648294333059985477,5255,14,3,1.79450249672,-1.52362966537,0.633418560028,0.0,16.3999996185,0.6001680591036789,-0.5095751389197325,0.2118456722501672,16.3999996185,0.0,0.9899849597552575,2.437807547801458
1648294333060111079,5256,14,4,2.36837244034,-0.984499275684,0.560301661491,0.0,16.3999996185,0.7920978061337792,-0.32926397180066885,0.1873918600304348,16.3999996185,0.0,1.1675841006496464,2.6253313680093684
1648294333060115203,5257,14,5,2.31179761887,-1.1485824585,0.478241413832,0.0,16.3999996185,0.7731764611605351,-0.38414129046822737,0.15994696114782606,16.3999996185,0.0,1.1589513411822137,2.625331358988982
1648294333060116508,5258,14,6,1.00716614723,0.128922522068,-0.180943325162,0.0809188112617,16.3999996185,0.33684486529431434,0.04311790035719063,-0.06051616226153846,16.3999996185,0.010934974494824324,0.4783179694319482,1.0313802168663007
1648294333060126984,5259,14,7,0.816817045212,0.210964113474,-0.0199452508241,0.161837622523,16.3999996185,0.2731829582648829,0.07055655969030099,-0.006670652449531773,16.3999996185,0.021869948989594594,0.3927290229764494,0.8438564780536851
1648294333060321138,5260,14,8,0.885110676289,0.338421612978,0.266999274492,0.242756426334,16.3999996185,0.29602363755484945,0.11318448594581938,0.0892974162180602,16.3999996185,0.03280492247756756,0.43367120706962914,0.984499217872039
1648294333060327719,5261,14,9,0.868084132671,-0.934688270092,-2.40130281448,0.323675245047,16.3999996185,0.2903291413615385,-0.31260477260602004,-0.8031113091906354,16.3999996185,0.04373989797932432,0.5160462813580947,2.719093126480281
1648294333060330831,5262,14,10,1.79284095764,0.254914969206,2.02835083008,0.323675245047,16.3999996185,0.5996123604147157,0.0852558425438127,0.6783782040401337,16.3999996185,0.04373989797932432,0.8522549643223377,2.7190931265410963
1648294333060339133,5263,14,11,0.536885142326,-0.949338555336,-2.28459072113,0.404594063759,16.3999996185,0.1795602482695652,-0.3175045335571906,-0.7640771642575249,16.3999996185,0.05467487348094594,0.4065622883970241,2.531569495741949
1648294333060449328,5264,14,12,1.38155937195,0.316446185112,2.09761762619,0.404594063759,16.3999996185,0.46205999061872904,0.10583484451906354,0.7015443565852842,16.3999996185,0.05467487348094594,0.6619666790523027,2.5315695115871866
1648294333060467593,5265,14,13,1.13494169712,-1.68478286266,0.723879218102,0.485512852669,16.3999996185,0.37957916291638794,-0.5634725293177257,0.24210007294381267,16.3999996185,0.06560984495527027,0.7782428754163618,2.156521985182255
1648294333060477034,5266,14,14,2.12302851677,0.26956525445,0.265841126442,0.485512852669,16.3999996185,0.7100429821973243,0.09015560349498328,0.08891007573311036,16.3999996185,0.06560984495527027,1.0081915026307673,2.1565219715860238
1648294333159883962,5267,15,0,0.00633364822716,0.0454158857465,0.00975204911083,0.0,30.3999996185,0.002118276999050167,0.015189259446989964,0.0032615548865652173,30.3999996185,0.0,0.015481853811394289,0.046880915518626436
1648294333159898746,5268,15,1,0.0335029289126,0.0146502861753,-0.0293384213001,0.0,30.3999996185,0.011204992947357858,0.0048997612626421405,-0.009812181036822742,30.3999996185,0.0,0.01658648227719088,0.04688091397491176
1648294333159939898,5269,15,2,1.72092854977,-1.43572807312,0.504040002823,0.0,30.3999996185,0.5755613878829431,-0.480176613083612,0.16857525178026755,30.3999996185,0.0,0.9450457143418662,2.297164882589875
1648294333159944757,5270,15,3,1.87806081772,-1.47528386116,0.68564003706,0.0,30.3999996185,0.6281139858595317,-0.49340597363210703,0.22931104918394646,30.3999996185,0.0,1.0161219480360335,2.484688545164949
1648294333159947148,5271,15,4,2.36858773232,-0.984499275684,0.559391498566,0.0,30.3999996185,0.7921698101404682,-0.32926397180066885,0.18708745771438126,30.3999996185,0.0,1.167681797118514,2.625331506341063
1648294333159952724,5272,15,5,2.31206417084,-1.1485824585,0.476951658726,0.0,30.3999996185,0.7732656089765885,-0.38414129046822737,0.1595156049250836,30.3999996185,0.0,1.1590702891086733,2.6253314607526117
1648294333159966489,5273,15,6,0.739028811455,0.32230630517,0.478626281023,0.242756426334,30.3999996185,0.24716682657357858,0.10779475089297658,0.16007567927190633,30.3999996185,0.03280492247756756,0.3657903615966197,0.9376182887501902
1648294333159969271,5274,15,7,0.777192354202,0.316446185112,0.0890367105603,0.323675245047,30.3999996185,0.259930553244816,0.10583484451906354,0.029778164066989965,30.3999996185,0.04373989797932432,0.38252947511882873,0.8438564328897327
1648294333159971704,5275,15,8,0.393594682217,-0.79111546278,2.67046308517,0.404594063759,30.3999996185,0.1316370174638796,-0.26458711129765883,0.8931314666120401,30.3999996185,0.05467487348094594,0.32351653465999414,2.8128550511135106
1648294333159976228,5276,15,9,1.4263753891,0.703213751316,-2.32015013695,0.404594063759,30.3999996185,0.4770486251170568,0.23518854559063543,-0.7759699454682274,30.3999996185,0.05467487348094594,0.7144679372996291,2.8128549533630776
1648294333159978227,5277,15,10,0.819678425789,-1.72140860558,1.10447478294,0.566431701183,30.3999996185,0.2741399417354515,-0.5757219416655518,0.3693895595117056,30.3999996185,0.07654482448418919,0.6940901738424097,2.2034030169760532
1648294333159979803,5278,15,11,2.12350225449,0.481994390488,0.336755931377,0.566431701183,30.3999996185,0.7102014229063545,0.1612021372869565,0.11262740179832775,30.3999996185,0.07654482448418919,1.0172306775074689,2.2034030440669725
1648294333159984015,5279,15,12,1.97517621517,-1.72287368774,-0.150832638144,0.566431701183,30.3999996185,0.660594051896321,-0.5762119356989966,-0.05044569837591973,30.3999996185,0.07654482448418919,1.0976288979630515,2.6253314666170424
1648294333160003564,5280,15,13,2.46268105507,0.902457654476,0.114615604281,0.566431701183,30.3999996185,0.8236391488528427,0.30182530250033446,0.03833297802040134,30.3999996185,0.07654482448418919,1.2032711283312205,2.6253313188753356
1648294333160006263,5281,15,14,1.86330008507,1.0782610178,0.126700624824,-0.566431701183,30.3999996185,0.6231772859765885,0.3606224139799331,0.04237479091103678,30.3999996185,-0.07654482448418919,0.9522333668691766,2.1565219864076863
1648294333160008263,5282,15,15,1.70594143867,0.761814892292,0.160979911685,-0.161837622523,30.3999996185,0.5705489761438127,0.2547875893953177,0.05383943534615385,30.3999996185,-0.021869948989594594,0.8461495045601475,1.875236692861851
1648294333263176808,5283,16,0,0.0126022109762,0.0439508594573,0.0103598479182,0.0,17.1000003815,0.004214786279665552,0.014699284099431437,0.0034648320796655517,17.1000003815,0.0,0.015861834692188412,0.04688091527916478
1648294333263181195,5284,16,1,0.0335872508585,0.0146502861753,-0.0292418505996,0.0,17.1000003815,0.011233194267056856,0.0048997612626421405,-0.00977988314367893,17.1000003815,0.0,0.01662458923744483,0.046880914365435775
1648294333263195175,5285,16,2,1.72103714943,-1.43572807312,0.503669202328,0.0,17.1000003815,0.5755977088394648,-0.480176613083612,0.1684512382367893,17.1000003815,0.0,0.9450899558216305,2.2971649124598637
1648294333263219370,5286,16,3,2.34184288979,-1.06654083729,0.520218908787,0.0,17.1000003815,0.7832250467525084,-0.35670262116722407,0.17398625711939797,17.1000003815,0.0,1.1636664933169236,2.6253314440517355
1648294333263234749,5287,16,4,0.830297291279,0.410208016634,0.146505430341,0.323675245047,17.1000003815,0.2776914017655518,0.13719331659999998,0.04899847168595317,17.1000003815,0.04373989797932432,0.41598922503923347,0.9376182858367503
1648294333263332512,5288,16,5,0.834912955761,0.430718421936,0.294347912073,0.404594063759,17.1000003815,0.279235102261204,0.14405298392508362,0.09844411775016722,17.1000003815,0.05467487348094594,0.42035193213231525,0.9844992107840118
1648294333263336976,5289,16,6,1.76587569714,-0.527410328388,-2.12501168251,0.404594063759,17.1000003815,0.5905938786421404,-0.1763914141765886,-0.7107062483311035,17.1000003815,0.05467487348094594,0.8536487509358585,2.812855005691548
1648294333263385084,5290,16,7,2.19554305077,1.75803434849,0.0325443334877,0.404594063759,17.1000003815,0.7342953347056855,0.5879713540100334,0.010884392470802674,17.1000003815,0.05467487348094594,1.1933522490352384,2.8128549894897277
1648294333263389816,5291,16,8,2.12092733383,-1.58662593365,0.353557616472,0.566431701183,17.1000003815,0.7093402454280936,-0.5306441249665551,0.1182466944722408,17.1000003815,0.07654482448418919,1.1348613813719706,2.6722121167458486
1648294333263393883,5292,16,9,1.97908699512,1.1485824585,0.202336043119,-0.647350490093,17.1000003815,0.6619020050568561,0.38414129046822737,0.06767091743110368,17.1000003815,-0.08747979595851352,1.0118265956373986,2.29716496416171
