%time,field.header.seq,field.header.frame_id,field.point_id,field.x,field.y,field.z,field.velocity,field.intensity,normalized_x,normalized_y,normalized_z,normalized_intensity,normalized_velocity,normalized_range,range
1648219391952718887,72939,0,0,0.0122471889481,0.0439508594573,0.0107772238553,0.0,23.2000007629,0.00409604981541806,0.014699284099431437,0.003604422694080267,23.2000007629,0.0,0.015799500030588644,0.0468809155007989
1648219391952724878,72940,0,1,0.0334614515305,0.0146502861753,-0.0293857175857,0.0,23.2000007629,0.011191120913210702,0.0048997612626421405,-0.009827999192541806,23.2000007629,0.0,0.016567740794057963,0.04688091319047343
1648219391952734156,72941,0,2,1.04281568527,-0.712003946304,-0.0882992893457,-0.0809188112617,23.2000007629,0.348767787715719,-0.23812841013511704,-0.02953153489822742,23.2000007629,-0.010934974494824324,0.5477071107898017,1.2657847121436427
1648219392057908414,72942,1,0,0.00560000818223,0.0454158857465,0.0101910484955,0.0,18.3999996185,0.001872912435528428,0.015189259446989964,0.003408377423244147,18.3999996185,0.0,0.015418469591055006,0.046880915511728405
1648219392057924896,72943,1,1,0.0334326848388,0.0146502861753,-0.029418444261,0.0,18.3999996185,0.011181499946086955,0.0048997612626421405,-0.009838944568896321,18.3999996185,0.0,0.016554743807125908,0.04688091470189418
1648219392057928450,72944,1,2,1.70018589497,-1.53828012943,0.487455785275,0.0,18.3999996185,0.5686240451404682,-0.5144749596755852,0.16302869072742474,18.3999996185,0.0,0.9546471041997735,2.3440458563458573
1648219392057933298,72945,1,3,1.07834744453,-0.632892370224,0.197040945292,-0.242756426334,18.3999996185,0.3606513192408027,-0.21166968903812708,0.06589998170301004,18.3999996185,-0.03280492247756756,0.5522162668717394,1.2657847753602107
1648219392252946066,72946,3,0,0.00566155510023,0.0454158857465,0.0101569853723,0.0,38.2000007629,0.0018934966890401337,0.015189259446989964,0.003396985074347826,38.2000007629,0.0,0.015423497073322436,0.04688091547895794
1648219392252956050,72947,3,1,0.0334614515305,0.0146502861753,-0.0293857175857,0.0,38.2000007629,0.011191120913210702,0.0048997612626421405,-0.009827999192541806,38.2000007629,0.0,0.016567740794057963,0.04688091319047343
1648219392252958319,72948,3,2,0.309014171362,-0.461484014988,-0.431337803602,0.0,38.2000007629,0.10334922119130434,-0.15434247992909697,-0.1442601349839465,38.2000007629,0.0,0.21256463523446698,0.7032137335179012
1648219392252960119,72949,3,3,0.256879806519,-0.501039743423,-0.628542482853,0.0,38.2000007629,0.08591297876889631,-0.16757182054280934,-0.21021487720836118,38.2000007629,0.0,0.20698404499362058,0.8438564523884606
1648219392252964813,72950,3,4,0.148211151361,-0.817485928535,0.147796958685,0.0,38.2000007629,0.049568946943478256,-0.2734066650618729,0.04943042096488294,38.2000007629,0.0,0.2822505367619801,0.8438564627571563
1648219392253101955,72951,3,5,1.41974473,1.17202293873,0.35665050149,0.0,38.2000007629,0.4748310133779264,0.3919809159632107,0.11928110417725751,38.2000007629,0.0,0.7775461536207189,1.8752366377300616
1648219392253112265,72952,3,6,1.0352884531,-0.476134330034,0.274064958096,-0.485512852669,38.2000007629,0.34625031876254175,-0.15924225084749163,0.09166052110234113,38.2000007629,-0.06560984495527027,0.514914226780829,1.1720229019158623
1648219392358045580,72953,4,0,0.0121482191607,0.0439508594573,0.0108886612579,0.0,36.2000007629,0.004062949552073578,0.014699284099431437,0.003641692728394649,36.2000007629,0.0,0.01578239750992186,0.04688091530464212
1648219392358058665,72954,4,1,0.0334614515305,0.0146502861753,-0.0293857175857,0.0,36.2000007629,0.011191120913210702,0.0048997612626421405,-0.009827999192541806,36.2000007629,0.0,0.016567740794057963,0.04688091319047343
1648219392358064316,72955,4,2,0.293312072754,-0.461484014988,-0.442165225744,0.0,36.2000007629,0.09809768319531773,-0.15434247992909697,-0.14788134640267558,36.2000007629,0.0,0.20752809931968622,0.703213733490704
1648219392358066966,72956,4,3,0.398457586765,-0.421928226948,-0.612618803978,0.0,36.2000007629,0.13326340694481603,-0.14111311938060198,-0.20488923209966553,36.2000007629,0.0,0.23543828007017745,0.8438564309961176
1648219392358070361,72957,4,4,0.182347103953,0.817485928535,0.102761954069,0.0,36.2000007629,0.060985653495986614,0.2734066650618729,0.03436854651137124,36.2000007629,0.0,0.28668746809883444,0.8438564622474941
1648219392358075969,72958,4,5,0.999026656151,-0.421928226948,0.299777835608,-0.485512852669,36.2000007629,0.3341226274752508,-0.14111311938060198,0.1002601456882943,36.2000007629,-0.06560984495527027,0.4931417370728769,1.1251419639839004
1648219392358082781,72959,4,6,1.32624912262,1.25699448586,0.0625514760613,-0.0809188112617,36.2000007629,0.4435615794715719,0.4203994935986622,0.020920226107458192,36.2000007629,-0.010934974494824324,0.7551354075824036,1.8283556984050484
1648219392552844842,72960,6,0,0.00546636199579,0.0454158857465,0.0102633545175,0.0,11.5,0.0018282147143110366,0.015189259446989964,0.0034325600392976587,11.5,0.0,0.015407736388945024,0.04688091549404775
1648219392552850222,72961,6,1,0.0334614515305,0.0146502861753,-0.0293857175857,0.0,11.5,0.011191120913210702,0.0048997612626421405,-0.009827999192541806,11.5,0.0,0.016567740794057963,0.04688091319047343
1648219392552856308,72962,6,2,0.311643987894,-0.483459442854,-0.404542416334,0.0,11.5,0.10422875849297658,-0.16169212135585284,-0.1352984670013378,11.5,0.0,0.21879581875010848,0.7032137475110445
1648219392552859380,72963,6,3,1.45729100704,1.11342179775,0.391289353371,0.0,11.5,0.48738829666889627,0.37238187215719065,0.13086600447190636,11.5,0.0,0.7834302535458472,1.87523666158861
1648219392552868821,72964,6,4,0.374289155006,-0.720794081688,1.74209630489,0.161837622523,11.5,0.1251803194,-0.24106825474515048,0.5826409046454849,11.5,0.021869948989594594,0.2990888299085153,1.9221175862217548
1648219392553030031,72965,6,5,0.922867298126,-0.338421612978,-0.0550034828484,-0.647350490093,11.5,0.30865127027625416,-0.11318448594581938,-0.018395813661672242,11.5,-0.08747979595851352,0.45093451979761984,0.9844991727809977
1648219392553034577,72966,6,6,0.965336203575,-0.290075659752,0.218465492129,-0.404594063759,11.5,0.322854917583612,-0.09701527082006689,0.07306538198294313,11.5,-0.05467487348094594,0.46677891810591954,1.0313801653921402
1648219392658080818,72967,7,0,0.00548892607912,0.0454158857465,0.010251305066,0.0,37.4000015259,0.0018357612304749163,0.015189259446989964,0.0034285301224080264,37.4000015259,0.0,0.01540953085394242,0.046880915554171745
1648219392658084998,72968,7,1,0.0334842801094,0.0146502861753,-0.0293597038835,0.0,37.4000015259,0.011198755889431438,0.0048997612626421405,-0.009819298957692306,37.4000015259,0.0,0.016578055596873812,0.046880914150534136
1648219392658087103,72969,7,2,0.345483243465,-0.483459442854,-0.376055687666,0.0,37.4000015259,0.11554623527257524,-0.16169212135585284,-0.1257711329986622,37.4000015259,0.0,0.2298830291254369,0.7032137545766185
1648219392658243586,72970,7,3,1.49511730671,1.11342179775,0.203540310264,0.0,37.4000015259,0.5000392330133779,0.37238187215719065,0.0680736823625418,37.4000015259,0.0,0.7992163210398727,1.8752366566465608
1648219392658248231,72971,7,4,2.10974526405,-1.12074685097,-0.0971144735813,0.0,37.4000015259,0.7056004227591972,-0.3748317227324415,-0.03247975705060201,37.4000015259,0.0,1.0659468718292135,2.3909265576590903
1648219392658250163,72972,7,5,1.00607860088,-0.373582273722,-2.13653278351,0.242756426334,37.4000015259,0.3364811374180602,-0.12494390425484948,-0.7145594593678929,37.4000015259,0.03280492247756756,0.4919858645192441,2.390926640740143
1648219392658252499,72973,7,6,1.42172420025,1.6173915863,0.115464285016,-0.566431701183,37.4000015259,0.47549304356187283,0.54093364090301,0.038616817731103675,37.4000015259,-0.07654482448418919,0.8630159168938037,2.156522025420744
1648219392658256565,72974,7,7,0.896695971489,-0.263705164194,0.0743238851428,-0.485512852669,37.4000015259,0.2998983182237458,-0.0881957070882943,0.024857486669832774,37.4000015259,-0.06560984495527027,0.433193357861898,0.937618322565161
1648219392658258972,72975,7,8,1.10973906517,-0.140642747283,0.121008977294,-0.161837622523,37.4000015259,0.3711501890200669,-0.047037708121404675,0.040471229864214045,37.4000015259,-0.021869948989594594,0.5269890621299244,1.125141923364975
1648219392852967104,72976,9,0,0.00569995492697,0.0454158857465,0.0101354857907,0.0,17.1000003815,0.001906339440458194,0.015189259446989964,0.0033897945788294312,17.1000003815,0.0,0.015426660775179662,0.046880915482977854
1648219392852973467,72977,9,1,0.0334614515305,0.0146502861753,-0.0293857175857,0.0,17.1000003815,0.011191120913210702,0.0048997612626421405,-0.009827999192541806,17.1000003815,0.0,0.016567740794057963,0.04688091319047343
1648219392852978402,72978,9,2,1.30281639099,1.34782636166,0.0504591651261,0.0809188112617,17.1000003815,0.4357245454816053,0.45077804737792637,0.01687597495856187,17.1000003815,0.010934974494824324,0.7634871361510678,1.8752366723064755
1648219392853192932,72979,9,3,0.447716236115,-0.779395282269,-0.956652700901,0.242756426334,17.1000003815,0.1497378716103679,-0.2606673184846154,-0.3199507360872909,17.1000003815,0.03280492247756756,0.33584268834495407,1.3126656940155537
1648219392853197464,72980,9,4,1.25383472443,-0.380907416344,-2.05565404892,0.323675245047,17.1000003815,0.4193427172006689,-0.12739378473043478,-0.6875097153578595,17.1000003815,0.04373989797932432,0.6065688792927186,2.437807528262538
1648219392853212637,72981,9,5,0.926747024059,-0.0293005723506,0.139317885041,-0.161837622523,17.1000003815,0.3099488374779264,-0.009799522525284281,0.04659461038160535,17.1000003815,-0.021869948989594594,0.4384433764462175,0.9376182822634075
1648219392956075812,72982,10,0,0.00563895702362,0.0454158857465,0.0101695489138,0.0,37.4000015259,0.0018859388038862876,0.015189259446989964,0.003401186927692307,37.4000015259,0.0,0.015421644947669556,0.046880915515415705
1648219392956078734,72983,10,1,0.0334614515305,0.0146502861753,-0.0293857175857,0.0,37.4000015259,0.011191120913210702,0.0048997612626421405,-0.009827999192541806,37.4000015259,0.0,0.016567740794057963,0.04688091319047343
1648219392956228600,72984,10,2,1.44734573364,1.17202293873,0.219237014651,0.0,37.4000015259,0.48406211827424744,0.3919809159632107,0.07332341627123745,37.4000015259,0.0,0.7888480887824099,1.8752366011221886
1648219392956233592,72985,10,3,0.42412224412,-1.14272224903,0.00571541301906,0.161837622523,37.4000015259,0.14184690438795985,-0.3821813541906354,0.0019115093709230768,37.4000015259,0.021869948989594594,0.4316290954742069,1.2189038035593884
1648219392956234719,72986,10,4,0.696053087711,-1.88988697529,0.087219633162,0.323675245047,37.4000015259,0.23279367481973245,-0.6320692225050167,0.029170445873578595,37.4000015259,0.04373989797932432,0.712669132283872,2.0158794469639587
1648219392956235657,72987,10,5,0.722414791584,-1.61446154118,0.212799027562,-0.485512852669,37.4000015259,0.24161029818862875,-0.5399536927023412,0.07117024333177258,37.4000015259,-0.06560984495527027,0.6389843993748913,1.7814748455086273
1648219392956238899,72988,10,6,0.885193884373,0.083506628871,-0.0535873286426,-0.161837622523,37.4000015259,0.2960514663454849,0.027928638418394644,-0.01792218349250836,37.4000015259,-0.021869948989594594,0.41961047448142785,0.890737431450935
1648219392956240802,72989,10,7,0.949161291122,0.0307656005025,0.259586215019,-0.0809188112617,37.4000015259,0.3174452478668896,0.010289498495819397,0.08681813211337791,37.4000015259,-0.010934974494824324,0.4490532758658347,0.9844992035377946
1648219393057971450,72990,11,0,0.0122471889481,0.0439508594573,0.0107772238553,0.0,24.0,0.00409604981541806,0.014699284099431437,0.003604422694080267,24.0,0.0,0.015799500030588644,0.0468809155007989
1648219393058138301,72991,11,1,0.0334753356874,0.0146502861753,-0.0293699018657,0.0,24.0,0.011195764443946488,0.0048997612626421405,-0.009822709654080268,24.0,0.0,0.016574014100378984,0.046880914240265734
1648219393058145294,72992,11,2,0.825637817383,0.158223092556,0.0733580738306,0.0,24.0,0.27613304929197324,0.05291742225953177,0.024534472853043478,24.0,0.0,0.3940801636737889,0.8438564803964501
1648219393058152614,72993,11,3,1.4767421484,1.11342179775,0.309898406267,0.0,24.0,0.49389369511705683,0.37238187215719065,0.10364495192876254,24.0,0.0,0.7915366213031807,1.875236650338489
1648219393058180478,72994,11,4,0.678808569908,-1.06800591946,0.0281645357609,0.242756426334,24.0,0.227026277561204,-0.35719261520401335,0.009419577177558527,24.0,0.03280492247756756,0.4802795287776443,1.2657847208971875
1648219393058181691,72995,11,5,0.244535818696,-1.02845013142,-2.30029058456,0.323675245047,24.0,0.08178455474782607,-0.3439632546555184,-0.769327954702341,24.0,0.04373989797932432,0.3628886156161658,2.5315695157073064
1648219393058182740,72996,11,6,2.11163949966,0.169943317771,-1.70457196236,0.323675245047,24.0,0.7062339463745818,0.05683723002374581,-0.5700909573110368,24.0,0.04373989797932432,1.0003815495801607,2.7190931728506786
1648219393058183844,72997,11,7,1.45178031921,-1.01965987682,-2.06060552597,0.323675245047,24.0,0.48554525726086956,-0.34102337017391304,-0.6891657277491637,24.0,0.04373989797932432,0.7666846370586943,2.7190931380333714
1648219393058184760,72998,11,8,1.03745424747,-1.44744825363,0.0472761690617,-0.485512852669,24.0,0.34697466470568555,-0.484096405896321,0.015811427779832774,24.0,-0.06560984495527027,0.689298314300116,1.7814748942073897
1648219393058185870,72999,11,9,0.868814468384,0.175803437829,0.305585801601,-0.0809188112617,24.0,0.2905734007973244,0.05879713639765886,0.10220260923110368,24.0,-0.010934974494824324,0.41511794197602436,0.937618318595575
1648219393253194815,73000,13,0,0.0122471889481,0.0439508594573,0.0107772238553,0.0,27.0,0.00409604981541806,0.014699284099431437,0.003604422694080267,27.0,0.0,0.015799500030588644,0.0468809155007989
1648219393253201043,73001,13,1,0.0334614515305,0.0146502861753,-0.0293857175857,0.0,27.0,0.011191120913210702,0.0048997612626421405,-0.009827999192541806,27.0,0.0,0.016567740794057963,0.04688091319047343
1648219393253202261,73002,13,2,0.813306987286,0.410208016634,0.222237095237,0.0809188112617,27.0,0.2720090258481605,0.13719331659999998,0.07432678770468226,27.0,0.010934974494824324,0.408411344609131,0.9376183653162993
1648219393253206751,73003,13,3,0.99850922823,0.257845044136,0.0154986418784,0.323675245047,27.0,0.3339495746588628,0.08623580071438126,0.005183492267023412,27.0,0.04373989797932432,0.4800846281172948,1.0313801207828475
1648219393253211467,73004,13,4,1.05569291115,0.380907416344,0.475550591946,0.485512852669,27.0,0.35307455222408024,0.12739378473043478,0.15904702071772575,27.0,0.06560984495527027,0.5153178196457152,1.2189037484471092
1648219393253213471,73005,13,5,1.52822244167,-1.58369588852,0.106903001666,0.566431701183,27.0,0.5111111845050167,-0.5296641767625418,0.03575351226287625,27.0,0.07654482448418919,0.8961101639853124,2.2034029931685604
1648219393253214627,73006,13,6,2.02650141716,-1.64083218575,0.305494070053,0.566431701183,27.0,0.6777596712909698,-0.5487733062709029,0.10217192978361203,27.0,0.07654482448418919,1.1044765664025584,2.6253313852506617
1648219393253217259,73007,13,7,2.2740855217,1.2306240797,0.454382896423,0.566431701183,27.0,0.760563719632107,0.4115799597658863,0.15196752388729096,27.0,0.07654482448418919,1.151656375192766,2.6253312937808038
1648219393253222704,73008,13,8,1.34704303741,1.28922522068,0.199714541435,-0.0809188112617,27.0,0.4505160660234113,0.4311790035719063,0.06679416101505016,27.0,-0.010934974494824324,0.7693144900570139,1.8752366550205726
1648219393358104039,73009,14,0,0.00563895702362,0.0454158857465,0.0101695489138,0.0,15.3000001907,0.0018859388038862876,0.015189259446989964,0.003401186927692307,15.3000001907,0.0,0.015421644947669556,0.046880915515415705
1648219393358110188,73010,14,1,0.0334614515305,0.0146502861753,-0.0293857175857,0.0,15.3000001907,0.011191120913210702,0.0048997612626421405,-0.009827999192541806,15.3000001907,0.0,0.016567740794057963,0.04688091319047343
1648219393358115479,73011,14,2,0.754642486572,0.473204255104,0.00236610206775,0.161837622523,15.3000001907,0.25238879149565213,0.15826229267692307,0.0007913384841973244,15.3000001907,0.021869948989594594,0.39044481995363645,0.8907374181132718
1648219393358215275,73012,14,3,0.813087522984,0.461484014988,0.308479994535,0.161837622523,15.3000001907,0.2719356264160535,0.15434247992909697,0.10317056673411372,15.3000001907,0.021869948989594594,0.41439060189541765,0.9844992245553142
1648219393358219885,73013,14,4,1.15472579002,1.26578474045,-1.86366343498,0.323675245047,15.3000001907,0.38619591639464884,0.42333937807692307,-0.6232988076856187,15.3000001907,0.04373989797932432,0.6910215631298066,2.5315694851563606
1648219393358314756,73014,14,5,1.82081222534,-0.079111546278,-1.75705111027,0.323675245047,15.3000001907,0.6089672994448161,-0.026458711129765885,-0.5876425117959866,15.3000001907,0.04373989797932432,0.8616161598884233,2.531569552827482
1648219393358317971,73015,14,6,1.71725702286,-1.40642750263,0.369821369648,0.485512852669,15.3000001907,0.5743334524615384,-0.47037709118060195,0.12368607680535117,15.3000001907,0.06560984495527027,0.9386013195922456,2.2502839483417136
1648219393358319747,73016,14,7,2.21866989136,-1.4196126461,0.450468063354,0.485512852669,15.3000001907,0.7420300639999999,-0.4747868381605351,0.15065821516856187,15.3000001907,0.06560984495527027,1.1517984951588391,2.672212122548721
1648219393358322330,73017,14,8,1.4180380106,1.0577507019,0.209724783897,-0.647350490093,15.3000001907,0.47426020421404674,0.35376277655518396,0.07014206819297658,15.3000001907,-0.08747979595851352,0.7582833142555173,1.7814749035159019
1648219393358323979,73018,14,9,1.40033781528,1.2306240797,0.202806845307,-0.0809188112617,15.3000001907,0.46834040644816044,0.4115799597658863,0.06782837635685618,15.3000001907,-0.010934974494824324,0.7797971120137243,1.8752365821261094
1648219393553058038,73019,16,0,0.0121482191607,0.0439508594573,0.0108886612579,0.0,16.7999992371,0.004062949552073578,0.014699284099431437,0.003641692728394649,16.7999992371,0.0,0.01578239750992186,0.04688091530464212
1648219393553061007,73020,16,1,0.0333780609071,0.0146502861753,-0.0294804070145,0.0,16.7999992371,0.011163231072608694,0.0048997612626421405,-0.009859667897826085,16.7999992371,0.0,0.016530067041358332,0.04688091544196683
1648219393553161547,73021,16,2,2.14299631119,-1.14272224903,0.211324751377,0.0,16.7999992371,0.7167211743110368,-0.3821813541906354,0.0706771743735786,16.7999992371,0.0,1.0832548503942048,2.437807514703874
1648219393553163983,73022,16,3,0.692523062229,0.615312039852,0.14467549324,0.242756426334,16.7999992371,0.2316130642906354,0.20578997988361203,0.04838645258862876,16.7999992371,0.03280492247756756,0.3868316674222697,0.9376183106414347
1648219393553165650,73023,16,4,2.42517924309,-1.2101136446,0.552035689354,0.485512852669,16.7999992371,0.811096736819398,-0.40472028247491637,0.1846273208541806,16.7999992371,0.06560984495527027,1.2163693271390592,2.7659741134512137
1648219393658009464,73024,17,0,0.0121482191607,0.0439508594573,0.0108886612579,0.0,11.8000001907,0.004062949552073578,0.014699284099431437,0.003641692728394649,11.8000001907,0.0,0.01578239750992186,0.04688091530464212
1648219393658012789,73025,17,1,0.0334842801094,0.0146502861753,-0.0293597038835,0.0,11.8000001907,0.011198755889431438,0.0048997612626421405,-0.009819298957692306,11.8000001907,0.0,0.016578055596873812,0.046880914150534136
1648219393658015866,73026,17,2,2.14403223991,-1.14272224903,0.200541600585,0.0,11.8000001907,0.7170676387658862,-0.3821813541906354,0.0670707694264214,11.8000001907,0.0,1.0837133313849907,2.4378074816865394
1648219393658022378,73027,17,3,0.623933792114,0.676843225956,0.465118139982,0.242756426334,11.8000001907,0.2086735090682274,0.22636897189163876,0.15555790634849498,11.8000001907,0.03280492247756756,0.37193034053297225,1.031380149898473
1648219393658028970,73028,17,4,0.670344650745,0.707608819008,0.138443082571,0.404594063759,11.8000001907,0.22419553536622075,0.23665846789565215,0.04630203430468227,11.8000001907,0.05467487348094594,0.39564441937554246,0.9844992019458895
1648219393658031612,73029,17,5,0.775753259659,0.676843225956,0.0619287341833,0.566431701183,11.8000001907,0.25944925072207353,0.22636897189163876,0.02071195123187291,11.8000001907,0.07654482448418919,0.4311272884378444,1.0313801629426633
1648219393853061111,73030,19,0,0.00552889145911,0.0454158857465,0.0102298054844,0.0,26.3999996185,0.0018491275782976588,0.015189259446989964,0.003421339626889632,26.3999996185,0.0,0.015412726823947015,0.046880915511052265
1648219393853067167,73031,19,1,0.0334614515305,0.0146502861753,-0.0293857175857,0.0,26.3999996185,0.011191120913210702,0.0048997612626421405,-0.009827999192541806,26.3999996185,0.0,0.016567740794057963,0.04688091319047343
1648219393853069123,73032,19,2,1.37827134132,1.2306240797,0.320070177317,-0.0809188112617,26.3999996185,0.46096031482274247,0.4115799597658863,0.10704688204581939,26.3999996185,-0.010934974494824324,0.770951935573063,1.8752366342009321
1648219393958040766,73033,20,0,0.0122607154772,0.0439508594573,0.0107618328184,0.0,18.7000007629,0.00410057373819398,0.014699284099431437,0.003599275190100334,18.7000007629,0.0,0.015801846822461295,0.04688091548444185
1648219393958045960,73034,20,1,0.0334614515305,0.0146502861753,-0.0293857175857,0.0,18.7000007629,0.011191120913210702,0.0048997612626421405,-0.009827999192541806,18.7000007629,0.0,0.016567740794057963,0.04688091319047343
1648219393958048665,73035,20,2,0.283990055323,-1.13539719582,0.0621345080435,-0.647350490093,18.7000007629,0.09497995161304347,-0.37973150361872904,0.02078077192090301,18.7000007629,-0.08747979595851352,0.4027882784508171,1.1720229694370703
1648219393958051193,73036,20,3,0.726538479328,1.14711737633,0.0680471137166,-0.161837622523,18.7000007629,0.24298945796923074,0.3836512964314381,0.0227582320122408,18.7000007629,-0.021869948989594594,0.5150495807413926,1.359546559227607
1648219394153047441,73037,22,0,0.00552889145911,0.0454158857465,0.0102298054844,0.0,23.8999996185,0.0018491275782976588,0.015189259446989964,0.003421339626889632,23.8999996185,0.0,0.015412726823947015,0.046880915511052265
1648219394153055904,73038,22,1,0.0334614515305,0.0146502861753,-0.0293857175857,0.0,23.8999996185,0.011191120913210702,0.0048997612626421405,-0.009827999192541806,23.8999996185,0.0,0.016567740794057963,0.04688091319047343
1648219394153246444,73039,22,2,1.29973638058,1.34782636166,0.102771528065,0.0809188112617,23.8999996185,0.4346944416655518,0.45077804737792637,0.03437174851672241,23.8999996185,0.010934974494824324,0.7623118543140384,1.8752366643092402
1648219394153256764,73040,22,3,0.674450933933,1.06800591946,0.0817939788103,0.242756426334,23.8999996185,0.22556887422508362,0.35719261520401335,0.027355845755953175,23.8999996185,0.03280492247756756,0.4789041641024074,1.2657847215282367
1648219394153313829,73041,22,4,0.577842175961,1.02845001221,0.306782454252,0.404594063759,23.8999996185,0.19325825282976586,0.34396321478595315,0.1026028275090301,23.8999996185,0.05467487348094594,0.4393269826672556,1.2189038034935213
