%time,field.header.seq,field.header.frame_id,field.point_id,field.x,field.y,field.z,field.velocity,field.intensity,normalized_x,normalized_y,normalized_z,normalized_intensity,normalized_velocity,normalized_range,range
1648126012290780974,50391,0,0,0.0126256523654,0.0439508594573,0.010331267491,0.0,26.5,0.004222626209163879,0.014699284099431437,0.0034552734083612034,26.5,0.0,0.015866004451040385,0.04688091544176436
1648126012290790324,50392,0,1,0.0327914953232,0.0146502861753,-0.0301314946264,0.0,26.5,0.010967055292040133,0.0048997612626421405,-0.010077422951973244,26.5,0.0,0.01626530860414949,0.046880913162719064
1648126012290811720,50393,0,2,0.0985101386905,-0.399952799082,-0.449182748795,0.0,26.5,0.032946534679096987,-0.13376347795384613,-0.1502283440785953,26.5,0.0,0.14164609535398764,0.6094519101072539
1648126012290815786,50394,0,3,0.499960511923,-1.53828001022,0.275797069073,0.0,26.5,0.1672108735528428,-0.51447491980602,0.09223982243244147,26.5,0.0,0.5662185051532846,1.6408320836191645
1648126012290818452,50395,0,4,2.4214951992,-0.902457654476,0.462920814753,0.0,26.5,0.8098646151170568,-0.30182530250033446,0.15482301496755851,26.5,0.0,1.184423869595178,2.6253313121590103
1648126012290927011,50396,0,5,0.830430448055,-0.769140064716,0.304050296545,-0.242756426334,26.5,0.2777359358043478,-0.2572374798381271,0.1016890623896321,26.5,-0.03280492247756756,0.46951636937140373,1.1720229311055579
1648126012290999418,50397,0,6,1.24154114723,-0.87022703886,0.307744830847,-0.161837622523,26.5,0.4152311529197324,-0.2910458323946488,0.1029246925909699,26.5,-0.021869948989594594,0.6553941541274185,1.5470702635437337
1648126012395335467,50398,1,0,0.0126355709508,0.0439508594573,0.0103191342205,0.0,34.7999992371,0.00422594346180602,0.014699284099431437,0.003451215458361204,34.7999992371,0.0,0.015867770773506908,0.04688091542780209
1648126012395339769,50399,1,1,0.0327914953232,0.0146502861753,-0.0301314946264,0.0,34.7999992371,0.010967055292040133,0.0048997612626421405,-0.010077422951973244,34.7999992371,0.0,0.01626530860414949,0.046880913162719064
1648126012395346994,50400,1,2,0.0900799483061,-0.399952799082,-0.450948983431,0.0,34.7999992371,0.030127073012073576,-0.13376347795384613,-0.15081905800367892,34.7999992371,0.0,0.14038500308387183,0.6094519047782266
1648126012395372406,50401,1,3,0.295996725559,-1.58955609798,0.279333561659,0.0,34.7999992371,0.0989955603876254,-0.5316241130367892,0.09342259587257523,34.7999992371,0.0,0.5497494333922254,1.6408320721012726
1648126012395375298,50402,1,4,2.42043423653,-0.902457654476,0.468437671661,0.0,34.7999992371,0.8095097781036787,-0.30182530250033446,0.15666811761237456,34.7999992371,0.0,1.1839386280210442,2.625331515012926
1648126012395399887,50403,1,5,1.27111327648,-0.750094652176,0.268694639206,-0.323675245047,34.7999992371,0.4251214971505016,-0.2508677766474916,0.08986442782809365,34.7999992371,-0.04373989797932432,0.6514531572101125,1.5001892407309145
1648126012395402306,50404,1,6,0.843166410923,-0.769140064716,0.266705304384,-0.242756426334,34.7999992371,0.28199545515819396,-0.2572374798381271,0.08919909845618727,34.7999992371,-0.03280492247756756,0.4745671654183682,1.1720229328160214
1648126012495746522,50405,2,0,0.0126151693985,0.0439508594573,0.0103440657258,0.0,39.7999992371,0.004219120200167224,0.014699284099431437,0.00345955375444816,39.7999992371,0.0,0.01586413891652226,0.046880915538498796
1648126012495759602,50406,2,1,0.0327914953232,0.0146502861753,-0.0301314946264,0.0,39.7999992371,0.010967055292040133,0.0048997612626421405,-0.010077422951973244,39.7999992371,0.0,0.01626530860414949,0.046880913162719064
1648126012495764061,50407,2,2,0.125640660524,-0.399952799082,-0.442361623049,0.0,39.7999992371,0.042020287800668896,-0.13376347795384613,-0.14794703112006688,39.7999992371,0.0,0.14636965945171548,0.6094519034484832
1648126012495799204,50408,2,3,0.277880728245,-1.58955609798,0.297361075878,0.0,39.7999992371,0.09293669840969898,-0.5316241130367892,0.09945186484214046,39.7999992371,0.0,0.5476300369635906,1.6408320746507536
1648126012495811069,50409,2,4,2.41888427734,-0.902457654476,0.476376116276,0.0,39.7999992371,0.808991397103679,-0.30182530250033446,0.15932311581137124,39.7999992371,0.0,1.1832297639955407,2.6253314399220495
1648126012495939643,50410,2,5,0.954659283161,-0.83067125082,-0.028669424355,-0.404594063759,39.7999992371,0.31928404119096987,-0.2778164718461538,-0.009588436239130435,39.7999992371,-0.05467487348094594,0.5301571370334636,1.265784740687446
1648126012495945806,50411,2,6,1.34222626686,-0.609451889992,0.278504699469,-0.404594063759,39.7999992371,0.4489051059732441,-0.20383006354247488,0.09314538443779265,39.7999992371,-0.05467487348094594,0.6667670381335812,1.5001892631565095
1648126012495947945,50412,2,7,0.784232378006,-0.94347846508,0.466818183661,-0.242756426334,39.7999992371,0.26228507625618724,-0.31554463715050163,0.15612648282976588,39.7999992371,-0.03280492247756756,0.48698597565830337,1.312665705112773
1648126012496023489,50413,2,8,0.908567249775,-0.695888638496,0.252749413252,-0.161837622523,39.7999992371,0.303868645409699,-0.23273867508227425,0.08453157633846153,39.7999992371,-0.021869948989594594,0.4887121834017474,1.172022913790833
1648126012496046004,50414,2,9,1.14020562172,-0.722259104252,0.163216531277,-0.0809188112617,39.7999992371,0.3813396728160535,-0.24155822884682274,0.054587468654515046,39.7999992371,-0.010934974494824324,0.5909232353280107,1.3595465087884597
1648126012690756342,50415,4,0,0.0126256523654,0.0439508594573,0.010331267491,0.0,13.6000003815,0.004222626209163879,0.014699284099431437,0.0034552734083612034,13.6000003815,0.0,0.015866004451040385,0.04688091544176436
1648126012690761818,50416,4,1,0.0327914953232,0.0146502861753,-0.0301314946264,0.0,13.6000003815,0.010967055292040133,0.0048997612626421405,-0.010077422951973244,13.6000003815,0.0,0.01626530860414949,0.046880913162719064
1648126012690918373,50417,4,2,1.30364024639,-1.1690928936,0.327714085579,0.0809188112617,13.6000003815,0.4360000824046823,-0.3910009677591973,0.10960337310334448,13.6000003815,0.010934974494824324,0.7301191002174976,1.7814748406196146
1648126012690923203,50418,4,3,1.33439981937,-0.39555773139,0.202360197902,-0.242756426334,13.6000003815,0.4462875650066889,-0.13229355564882941,0.06767899595384615,13.6000003815,-0.03280492247756756,0.6448618194818244,1.406427547544497
1648126012690924859,50419,4,4,0.96160119772,-0.527410328388,0.25120896101,-0.0809188112617,13.6000003815,0.32160575174581935,-0.1763914141765886,0.08401637491973243,13.6000003815,-0.010934974494824324,0.4878262499160987,1.1251419732809722
1648126012795830946,50420,5,0,0.0126151693985,0.0439508594573,0.0103440657258,0.0,27.2000007629,0.004219120200167224,0.014699284099431437,0.00345955375444816,27.2000007629,0.0,0.01586413891652226,0.046880915538498796
1648126012795834448,50421,5,1,0.0327914953232,0.0146502861753,-0.0301314946264,0.0,27.2000007629,0.010967055292040133,0.0048997612626421405,-0.010077422951973244,27.2000007629,0.0,0.01626530860414949,0.046880913162719064
1648126012795863637,50422,5,2,0.904020547867,-0.732514321804,0.140739023685,-0.404594063759,27.2000007629,0.3023480093200669,-0.24498806749297658,0.04706990758695651,27.2000007629,-0.05467487348094594,0.4927958915144867,1.1720229756286913
1648126012795868473,50423,5,3,0.976825237274,-0.457088917494,-0.320665955544,-0.323675245047,27.2000007629,0.3266974037705685,-0.15287254765685618,-0.10724613897792643,27.2000007629,-0.04373989797932432,0.4866542952527569,1.1251419811366874
1648126012795871120,50424,5,4,0.621694147587,-0.808695793152,0.474817872047,-0.323675245047,27.2000007629,0.20792446407591972,-0.2704668204521739,0.1588019638953177,27.2000007629,-0.04373989797932432,0.3995215469633964,1.125141995759162
1648126012795883381,50425,5,5,0.89934015274,-0.723724126816,0.391327440739,-0.242756426334,27.2000007629,0.3007826597792642,-0.24204820294849494,0.13087874272207356,27.2000007629,-0.03280492247756756,0.48941572246748777,1.218903805860546
1648126012796177311,50426,5,6,0.996411681175,-0.659262895584,0.74200707674,-0.161837622523,27.2000007629,0.33324805390468226,-0.22048926273712371,0.24816290191973242,27.2000007629,-0.021869948989594594,0.52031148924935,1.4064274975298336
1648126012796205827,50427,5,7,0.962177395821,-0.527410328388,0.248992994428,-0.0809188112617,27.2000007629,0.32179846014080266,-0.1763914141765886,0.08327524897257524,27.2000007629,-0.010934974494824324,0.48808035085752055,1.1251419940582794
1648126012990696844,50428,7,0,0.0126923779026,0.0439508594573,0.0102491816506,0.0,29.2999992371,0.004244942442341137,0.014699284099431437,0.0034278199500334446,29.2999992371,0.0,0.015877909991978672,0.04688091539597687
1648126012990858301,50429,7,1,0.0327914953232,0.0146502861753,-0.0301314946264,0.0,29.2999992371,0.010967055292040133,0.0048997612626421405,-0.010077422951973244,29.2999992371,0.0,0.01626530860414949,0.046880913162719064
1648126012990860964,50430,7,2,1.3990418911,-0.317911207676,0.231774374843,0.0809188112617,29.2999992371,0.4679069869899665,-0.10632481862073578,0.07751651332541806,29.2999992371,0.010934974494824324,0.6702080751548654,1.4533083326853047
1648126012990862594,50431,7,3,0.793055176735,-0.612381994724,0.244533911347,-0.647350490093,29.2999992371,0.2652358450618729,-0.20481003168026754,0.08178391683846153,29.2999992371,-0.08747979595851352,0.42737250272829197,1.0313801697759124
1648126012990996344,50432,7,4,0.975910425186,-0.49224960804,0.266896426678,-0.323675245047,29.2999992371,0.3263914465505017,-0.16463197593311035,0.08926301895585284,29.2999992371,-0.04373989797932432,0.49006779149654206,1.1251420075598182
1648126012990999194,50433,7,5,1.04036605358,-0.451228827238,0.66115218401,-0.323675245047,29.2999992371,0.34794851290301,-0.15091265125016723,0.22112113177591972,29.2999992371,-0.04373989797932432,0.514695019958603,1.312665681121205
1648126013095873659,50434,8,0,0.0126151693985,0.0439508594573,0.0103440657258,0.0,24.0,0.004219120200167224,0.014699284099431437,0.00345955375444816,24.0,0.0,0.01586413891652226,0.046880915538498796
1648126013096012770,50435,8,1,0.0327914953232,0.0146502861753,-0.0301314946264,0.0,24.0,0.010967055292040133,0.0048997612626421405,-0.010077422951973244,24.0,0.0,0.01626530860414949,0.046880913162719064
1648126013096016838,50436,8,2,0.107547201216,-0.399952799082,-0.447105109692,0.0,24.0,0.035968963617391304,-0.13376347795384613,-0.14953348150234114,24.0,0.0,0.14310905185112338,0.6094519022003433
1648126013096018632,50437,8,3,0.290742576122,-1.58955609798,0.284798294306,0.0,24.0,0.09723831977324414,-0.5316241130367892,0.0952502656541806,24.0,0.0,0.5491218254875689,1.6408320763061246
1648126013096027009,50438,8,4,1.73953437805,-1.53828012943,0.319789856672,0.0,24.0,0.5817840729264214,-0.5144749596755852,0.10695312932173912,24.0,0.0,0.9703761637400756,2.344045895763834
1648126013096030988,50439,8,5,1.42646980286,-1.14272224903,0.0474762618542,0.161837622523,24.0,0.47708020162541803,-0.3821813541906354,0.015878348446220734,24.0,0.021869948989594594,0.7754183548619977,1.8283556088297694
1648126013096033475,50440,8,6,1.42523479462,-0.27249532938,0.0809767991304,0.323675245047,24.0,0.4766671553913043,-0.09113556166555183,0.027082541515183946,24.0,0.04373989797932432,0.6802417545680147,1.453308352114868
1648126013096034989,50441,8,7,0.852378189564,-0.49224960804,-0.019504416734,-0.566431701183,24.0,0.2850763175799331,-0.16463197593311035,-0.006523216298996655,24.0,-0.07654482448418919,0.43547755532232657,0.9844992010824943
1648126013096040495,50442,8,8,0.949755847454,-0.438043534756,0.26216122508,-0.404594063759,24.0,0.3176440961384615,-0.1465028544334448,0.0876793394916388,24.0,-0.05467487348094594,0.47250251849105257,1.0782610148058045
1648126013096045957,50443,8,9,0.9479585886,-0.410208046436,0.810058653355,-0.404594063759,24.0,0.3170430062207358,-0.13719332656722408,0.27092262654013377,24.0,-0.05467487348094594,0.4688864941982697,1.3126656653301556
1648126013096067250,50444,8,10,1.00975990295,-0.370652228594,-0.0751562342048,-0.242756426334,24.0,0.3377123421237458,-0.12396395605150501,-0.025135864282541803,24.0,-0.03280492247756756,0.49342305828300254,1.0782609126306761
1648126013195498400,50445,9,0,0.0126051837578,0.0439508594573,0.0103562315926,0.0,39.4000015259,0.004215780521003344,0.014699284099431437,0.003463622606220736,39.4000015259,0.0,0.015862363122761385,0.04688091549237075
1648126013195502620,50446,9,1,0.0327914953232,0.0146502861753,-0.0301314946264,0.0,39.4000015259,0.010967055292040133,0.0048997612626421405,-0.010077422951973244,39.4000015259,0.0,0.01626530860414949,0.046880913162719064
1648126013195635368,50447,9,2,0.0963126271963,-0.399952799082,-0.449659049511,0.0,39.4000015259,0.03221158100210702,-0.13376347795384613,-0.15038764197692306,39.4000015259,0.0,0.14130760749379237,0.609451904958969
1648126013195638078,50448,9,3,0.255909383297,-1.58955609798,0.316467523575,0.0,39.4000015259,0.08558842250735786,-0.5316241130367892,0.10584198112876254,39.4000015259,0.0,0.5452292670948148,1.6408320738462385
1648126013195639299,50449,9,4,1.77750456333,-1.46502864361,0.434419035912,0.0,39.4000015259,0.594483131548495,-0.489976134986622,0.14529064746220735,39.4000015259,0.0,0.9730863272330154,2.3440459248955516
1648126013195641943,50450,9,5,1.19404125214,-0.820416033268,-1.19067013264,0.242756426334,39.4000015259,0.39934490038127085,-0.27438663319999995,-0.3982174356655518,39.4000015259,0.03280492247756756,0.6278859159113904,1.8752366101951545
1648126013195650582,50451,9,6,0.907535076141,-0.32230630517,0.369112104177,-0.485512852669,39.4000015259,0.30352343683645483,-0.10779475089297658,0.12344886427324414,39.4000015259,-0.06560984495527027,0.4425750351500925,1.0313801502009627
1648126013195690328,50452,9,7,1.01206254959,-0.39555773139,0.649210751057,-0.485512852669,39.4000015259,0.3384824580568562,-0.13229355564882941,0.21712734149063542,39.4000015259,-0.06560984495527027,0.49663098341790224,1.2657847851957331
1648126013295789677,50453,10,0,0.0126392701641,0.0439508594573,0.0103146024048,0.0,23.8999996185,0.004227180656889632,0.014699284099431437,0.0034496998009364544,23.8999996185,0.0,0.015868429841914465,0.04688091530767665
1648126013295794332,50454,10,1,0.0327039584517,0.0146502861753,-0.0302264820784,0.0,23.8999996185,0.01093777874638796,0.0048997612626421405,-0.010109191330568562,23.8999996185,0.0,0.01622583336043979,0.04688091298454567
1648126013295796635,50455,10,2,0.0708142518997,-0.399952799082,-0.454372882843,0.0,23.8999996185,0.023683696287525084,-0.13376347795384613,-0.1519641748638796,23.8999996185,0.0,0.137893085301579,0.6094518983715609
1648126013295801040,50456,10,3,0.279627382755,-1.58955609798,0.295719176531,0.0,23.8999996185,0.09352086379765885,-0.5316241130367892,0.0989027346257525,23.8999996185,0.0,0.5478288980083775,1.64083207342494
1648126013295803110,50457,10,4,1.90767753124,-1.24527442455,0.551914274693,0.0,23.8999996185,0.6380192412173913,-0.4164797406521739,0.18458671394414716,23.8999996185,0.0,0.993776875712518,2.344045930063269
1648126013295808744,50458,10,5,0.721325099468,-0.799905598164,-1.47740507126,0.323675245047,23.8999996185,0.24124585266488294,-0.26752695590769227,-0.4941154084481605,23.8999996185,0.04373989797932432,0.4335548350477124,1.8283557120214304
1648126013295813653,50459,10,6,0.791239738464,-0.290075659752,0.0434689447284,-0.566431701183,23.8999996185,0.2646286750715719,-0.09701527082006689,0.014538108604816054,23.8999996185,-0.07654482448418919,0.3866117356115332,0.8438564814356395
1648126013295819192,50460,10,7,0.815784215927,2.33672070503,0.722937643528,-0.566431701183,23.8999996185,0.2728375304103679,0.7815119414816053,0.24178516505953176,23.8999996185,-0.07654482448418919,0.8715741796767529,2.578450382827125
1648126013296096690,50461,10,8,0.931632697582,-0.24612480402,0.20179644227,-0.404594063759,23.8999996185,0.3115828420006689,-0.08231598796655518,0.06749044891973244,23.8999996185,-0.05467487348094594,0.448267394233997,0.9844992160843131
1648126013296118694,50462,10,9,0.950532257557,-0.228544458747,0.727998793125,-0.161837622523,23.8999996185,0.31790376506923074,-0.07643627382842809,0.24347785723244147,23.8999996185,-0.021869948989594594,0.4560352087801552,1.2189037636629985
1648126013490865392,50463,12,0,0.0126392701641,0.0439508594573,0.0103146024048,0.0,21.2999992371,0.004227180656889632,0.014699284099431437,0.0034496998009364544,21.2999992371,0.0,0.015868429841914465,0.04688091530767665
1648126013490876881,50464,12,1,0.0327914953232,0.0146502861753,-0.0301314946264,0.0,21.2999992371,0.010967055292040133,0.0048997612626421405,-0.010077422951973244,21.2999992371,0.0,0.01626530860414949,0.046880913162719064
1648126013490975779,50465,12,2,0.275163024664,-1.58955609798,0.299877673388,0.0,21.2999992371,0.09202776744615385,-0.5316241130367892,0.10029353625016721,21.2999992371,0.0,0.5473229554151732,1.6408320748218705
1648126013491032017,50466,12,3,1.87850093842,-1.31852579117,0.476733744144,0.0,21.2999992371,0.6282611834180601,-0.44097852547491634,0.15944272379397992,21.2999992371,0.0,0.9919104239344166,2.3440458827486403
1648126013491033651,50467,12,4,2.38507699966,-0.984499275684,0.484287053347,0.0,21.2999992371,0.797684615270903,-0.32926397180066885,0.16196891416287623,21.2999992371,0.0,1.1751664792725023,2.6253314206341622
1648126013491034619,50468,12,5,0.755820274353,-0.0996219441295,0.232338607311,-0.404594063759,21.2999992371,0.25278270045250834,-0.033318375963043476,0.07770521983645484,21.2999992371,-0.05467487348094594,0.3590380223220652,0.7969755625628684
1648126013491035648,50469,12,6,1.46258413792,-0.0,0.333789855242,-0.242756426334,21.2999992371,0.4891585745551839,-0.0,0.11163540309096989,21.2999992371,-0.03280492247756756,0.6917746902870319,1.5001893307038496
1648126013491248812,50470,12,7,0.745198249817,-0.0249054860324,0.281477034092,-0.161837622523,21.2999992371,0.24923018388528426,-0.00832959399076923,0.09413947628494981,21.2999992371,-0.021869948989594594,0.35256311669690615,0.7969755551370813
1648126013491253870,50471,12,8,0.927405416965,-0.0879017189145,0.10639821738,-0.161837622523,21.2999992371,0.3101690357742475,-0.02939856819882943,0.035584688086956515,21.2999992371,-0.021869948989594594,0.4396293180833076,0.9376183126762143
1648126013595518239,50472,13,0,0.0126051837578,0.0439508594573,0.0103562315926,0.0,35.2000007629,0.004215780521003344,0.014699284099431437,0.003463622606220736,35.2000007629,0.0,0.015862363122761385,0.04688091549237075
1648126013595549172,50473,13,1,0.0328158736229,0.0146502861753,-0.0301049444824,0.0,35.2000007629,0.010975208569531771,0.0048997612626421405,-0.010068543305150501,35.2000007629,0.0,0.016276303840870497,0.04688091433558774
1648126013595562624,50474,13,2,0.273987680674,-1.58955609798,0.3009519279,0.0,35.2000007629,0.09163467581070232,-0.5316241130367892,0.10065281869565218,35.2000007629,0.0,0.5471910317101495,1.6408320757144066
1648126013595568372,50475,13,3,1.87464034557,-1.31852579117,0.491695463657,0.0,35.2000007629,0.6269700152408026,-0.44097852547491634,0.16444664336354514,35.2000007629,0.0,0.9902751435596755,2.3440458861123337
1648126013595570135,50476,13,4,2.41591215134,-0.902457654476,0.491226673126,0.0,35.2000007629,0.8079973750301003,-0.30182530250033446,0.1642898572327759,35.2000007629,0.0,1.1818705636999693,2.625331404890634
1648126013595587232,50477,13,5,0.743215084076,0.0747164562345,0.277882754803,0.0809188112617,35.2000007629,0.24856691775117054,0.024988781349331104,0.09293737618829431,35.2000007629,0.010934974494824324,0.3524137687349333,0.7969755551127287
1648126013595596230,50478,13,6,0.865810990334,-0.0556710883975,0.201705858111,-0.161837622523,35.2000007629,0.2895688930882943,-0.018619093109531772,0.06746015321438127,35.2000007629,-0.021869948989594594,0.40993530991728616,0.8907374440668805
1648126013695491428,50479,14,0,0.0126355709508,0.0439508594573,0.0103191342205,0.0,44.7999992371,0.00422594346180602,0.014699284099431437,0.003451215458361204,44.7999992371,0.0,0.015867770773506908,0.04688091542780209
1648126013695508016,50480,14,1,0.0328158736229,0.0146502861753,-0.0301049444824,0.0,44.7999992371,0.010975208569531771,0.0048997612626421405,-0.010068543305150501,44.7999992371,0.0,0.016276303840870497,0.04688091433558774
1648126013695517146,50481,14,2,0.801673293114,0.0527410283685,0.25813165307,0.0,44.7999992371,0.268118158232107,0.017639139922575247,0.0863316565451505,44.7999992371,0.0,0.3795863970228155,0.8438564067910269
1648126013695545627,50482,14,3,0.269660264254,-1.58955609798,0.304835438728,0.0,44.7999992371,0.09018737934916388,-0.5316241130367892,0.10195165174849498,44.7999992371,0.0,0.5467099087723698,1.64083207289699
1648126013695550034,50483,14,4,1.87420880795,-1.31852579117,0.493338048458,0.0,44.7999992371,0.626825688277592,-0.44097852547491634,0.16499600282876253,44.7999992371,0.0,0.9900923931125747,2.3440459355213545
1648126013695652977,50484,14,5,2.4161863327,-0.902457654476,0.48987698555,0.0,44.7999992371,0.8080890744816054,-0.30182530250033446,0.1638384567056856,44.7999992371,0.0,1.1819959466184704,2.6253315359055422
1648126013695663194,50485,14,6,0.707193911076,0.149432912469,0.33573281765,0.0809188112617,44.7999992371,0.23651970270100334,0.04997756269866221,0.11228522329431438,44.7999992371,0.010934974494824324,0.3382024486972865,0.7969755002753507
1648126013695668067,50486,14,7,2.33491754532,-0.609451889992,-0.345880866051,0.161837622523,44.7999992371,0.7809088780334448,-0.20383006354247488,-0.11567921941505016,44.7999992371,0.021869948989594594,1.1230245083641925,2.4378074417718447
1648126013695670843,50487,14,8,0.755361258984,0.34281668067,0.154918804765,0.242756426334,44.7999992371,0.25262918360668896,0.1146544082508361,0.05181230928595317,44.7999992371,0.03280492247756756,0.37521812609589333,0.8438564713203937
1648126013695672741,50488,14,9,0.618849754333,-0.32230630517,-0.759531855583,0.242756426334,44.7999992371,0.20697316198428092,-0.10779475089297658,-0.2540240319675585,44.7999992371,0.03280492247756756,0.31192224653528905,1.03138014933181
1648126013695674551,50489,14,10,0.998003721237,0.225614413619,0.129736945033,0.242756426334,44.7999992371,0.3337805087749164,0.07545632562508361,0.04339028261973244,44.7999992371,0.03280492247756756,0.47802982454332565,1.0313801268892282
1648126013695718542,50490,14,11,0.366277366877,1.90746724606,0.323054760695,0.242756426334,44.7999992371,0.12250079159765886,0.6379489117257524,0.10804507046655518,44.7999992371,0.03280492247756756,0.6610534788170908,1.968998421199411
1648126013695726767,50491,14,12,2.57494592667,0.339886635542,0.804734885693,-0.647350490093,44.7999992371,0.8611859286521738,0.11367446004749163,0.2691421022384615,44.7999992371,-0.08747979595851352,1.2231942978464634,2.719093173568315
1648126013795623649,50492,15,0,0.0126256523654,0.0439508594573,0.010331267491,0.0,19.3999996185,0.004222626209163879,0.014699284099431437,0.0034552734083612034,19.3999996185,0.0,0.015866004451040385,0.04688091544176436
1648126013795631340,50493,15,1,0.0327914953232,0.0146502861753,-0.0301314946264,0.0,19.3999996185,0.010967055292040133,0.0048997612626421405,-0.010077422951973244,19.3999996185,0.0,0.01626530860414949,0.046880913162719064
1648126013795644284,50494,15,2,0.290434509516,-1.58955609798,0.285112440586,0.0,19.3999996185,0.09713528746354513,-0.5316241130367892,0.09535533129966554,19.3999996185,0.0,0.549085353750584,1.6408320745036977
1648126013795821654,50495,15,3,1.87837934494,-1.31852579117,0.477212965488,0.0,19.3999996185,0.628220516702341,-0.44097852547491634,0.1596029984909699,19.3999996185,0.0,0.9918589088885295,2.3440459551611927
1648126013795825875,50496,15,4,2.42064380646,-0.902457654476,0.467353075743,0.0,19.3999996185,0.8095798683812709,-0.30182530250033446,0.15630537650267556,19.3999996185,0.0,1.184034475767446,2.6253314368441036
1648126013795831145,50497,15,5,0.697051823139,0.199243888259,0.331044793129,0.0809188112617,19.3999996185,0.2331277000464883,0.06663675192608695,0.11071732211672239,19.3999996185,0.010934974494824324,0.3363591915871925,0.7969755493161575
1648126013795835908,50498,15,6,0.898202896118,0.0879017189145,0.254230171442,0.0809188112617,19.3999996185,0.3004023063939799,0.02939856819882943,0.08502681319130434,19.3999996185,0.010934974494824324,0.42584899575528695,0.9376183311210992
1648126013795840790,50499,15,7,2.2979414463,-0.457088917494,0.673379957676,0.242756426334,19.3999996185,0.7685422897324413,-0.15287254765685618,0.22521068818595316,19.3999996185,0.03280492247756756,1.09758121250387,2.4378075675735573
1648126013795842970,50500,15,8,0.850208640099,-1.82689070702,-0.0581842325628,0.323675245047,19.3999996185,0.2843507157521739,-0.6110002364615384,-0.019459609552775918,19.3999996185,0.04373989797932432,0.7314587808302003,2.015879409095184
1648126013795994649,50501,15,9,1.95726943016,0.377977371216,0.299999207258,0.323675245047,19.3999996185,0.6546051605886287,0.1264138365270903,0.10033418302943144,19.3999996185,0.04373989797932432,0.9343427051162901,2.01587947054025
1648126013895628580,50502,16,0,0.0126355709508,0.0439508594573,0.0103191342205,0.0,23.2999992371,0.00422594346180602,0.014699284099431437,0.003451215458361204,23.2999992371,0.0,0.015867770773506908,0.04688091542780209
1648126013895635034,50503,16,1,0.0327914953232,0.0146502861753,-0.0301314946264,0.0,23.2999992371,0.010967055292040133,0.0048997612626421405,-0.010077422951973244,23.2999992371,0.0,0.01626530860414949,0.046880913162719064
1648126013895643652,50504,16,2,0.269098490477,-1.58955609798,0.305331468582,0.0,23.2999992371,0.08999949514280936,-0.5316241130367892,0.10211754802073578,23.2999992371,0.0,0.54664798162444,1.640832073037593
1648126013895651221,50505,16,3,1.87888741493,-1.31852579117,0.475208312273,0.0,23.2999992371,0.6283904397759197,-0.44097852547491634,0.15893254591070233,23.2999992371,0.0,0.9920741653392547,2.344045886926313
1648126013895819871,50506,16,4,2.416847229,-0.902457654476,0.486604839563,0.0,23.2999992371,0.8083101100334448,-0.30182530250033446,0.16274409349933108,23.2999992371,0.0,1.182298177785104,2.6253313345811105
1648126013895877945,50507,16,5,0.721297860146,0.249054864049,0.229937076569,0.0809188112617,23.2999992371,0.24123674252374577,0.0832959411535117,0.07690203229732441,23.2999992371,0.010934974494824324,0.35118164203099417,0.7969755250562984
1648126013895934054,50508,16,6,0.833672225475,0.139177724719,0.281128615141,0.161837622523,23.2999992371,0.27882014229933105,0.04654773401973244,0.0940229482076923,23.2999992371,0.021869948989594594,0.39704915948281544,0.8907374006055283
1648126013895955012,50509,16,7,2.66688680649,-0.254914969206,0.464973896742,0.242756426334,23.2999992371,0.8919353867859531,-0.0852558425438127,0.15550966446220735,23.2999992371,0.03280492247756756,1.2642650145795662,2.719093158537818
1648126013895959831,50510,16,8,1.16700589657,-1.1896032095,-2.14858293533,0.242756426334,23.2999992371,0.3903029754414716,-0.39786060518394645,-0.7185896104782608,23.2999992371,0.03280492247756756,0.6804159657402727,2.7190930820170776
1648126013895966468,50511,16,9,0.881739675999,-0.0776465162635,-2.32167673111,0.404594063759,23.2999992371,0.29489621270869565,-0.025968734536287622,-0.776480512076923,23.2999992371,0.05467487348094594,0.4178539550049523,2.484688447571706
1648126013895979266,50512,16,10,2.01234793663,-1.08705127239,-0.970800042152,0.404594063759,23.2999992371,0.6730260657625418,-0.363562298458194,-0.3246822883451505,23.2999992371,0.05467487348094594,1.0188747299112955,2.484688593909921
1648126013895988930,50513,16,11,0.713445723057,-1.86937654018,0.501404762268,0.485512852669,23.2999992371,0.2386106097180602,-0.6252095452107023,0.16769390042408025,23.2999992371,0.06560984495527027,0.7104625405766458,2.0627603312912295
1648126013895993990,50514,16,12,2.02041959763,0.386767566204,0.152630537748,0.485512852669,23.2999992371,0.6757256179364548,0.1293537010715719,0.05104700259130435,23.2999992371,0.06560984495527027,0.9643353158793475,2.0627604276328313
1648126013995543917,50515,17,0,0.0126256523654,0.0439508594573,0.010331267491,0.0,23.7999992371,0.004222626209163879,0.014699284099431437,0.0034552734083612034,23.7999992371,0.0,0.015866004451040385,0.04688091544176436
1648126013995552700,50516,17,1,0.0327914953232,0.0146502861753,-0.0301314946264,0.0,23.7999992371,0.010967055292040133,0.0048997612626421405,-0.010077422951973244,23.7999992371,0.0,0.01626530860414949,0.046880913162719064
1648126013995557364,50517,17,2,0.268753200769,-1.58955609798,0.305635452271,0.0,23.7999992371,0.08988401363511705,-0.5316241130367892,0.1022192148063545,23.7999992371,0.0,0.5466099792141274,1.640832075879151
1648126013995561039,50518,17,3,1.8768632412,-1.31852579117,0.483141064644,0.0,23.7999992371,0.6277134585953177,-0.44097852547491634,0.16158564034916387,23.7999992371,0.0,0.9912166423811812,2.3440458989733073
1648126013995636833,50519,17,4,2.39020514488,-0.984499275684,0.458306968212,0.0,23.7999992371,0.7993997140066889,-0.32926397180066885,0.15327992247892977,23.7999992371,0.0,1.1774950397491717,2.6253313572851744
1648126013995640118,50520,17,5,0.713702082634,0.298865824938,0.19099368155,0.0809188112617,23.7999992371,0.23869634870702341,0.09995512539732442,0.06387748546822741,23.7999992371,0.010934974494824324,0.3520552809791733,0.796975551986385
1648126013995642777,50521,17,6,0.952734827995,0.24612480402,-0.0309455413371,0.242756426334,23.7999992371,0.31864041070066884,0.08231598796655518,-0.010349679376956522,23.7999992371,0.03280492247756756,0.45808224647752055,0.9844992118621486
1648126013995646858,50522,17,7,0.728355109692,0.276890397072,0.997517704964,0.242756426334,23.7999992371,0.2435970266528428,0.09260548397056856,0.3336179615264214,23.7999992371,0.03280492247756756,0.35672790534192145,1.265784748494696
1648126013995651404,50523,17,8,1.5372620821,-1.01965987682,-1.9976452589,0.242756426334,23.7999992371,0.514134475618729,-0.34102337017391304,-0.6681087822408026,23.7999992371,0.03280492247756756,0.8030974144176188,2.719093149170262
1648126013995656803,50524,17,9,1.67850077152,0.594801604748,-2.05482697487,0.242756426334,23.7999992371,0.5613714954916388,0.19893030259130434,-0.6872331019632106,23.7999992371,0.03280492247756756,0.818443142307458,2.719093173404955
1648126013995874713,50525,17,10,0.821990549564,0.250519901514,0.234487757087,0.404594063759,23.7999992371,0.27491322727892975,0.08378592023879598,0.0784239990257525,23.7999992371,0.05467487348094594,0.39771176182770207,0.890737443274281
1648126013995914149,50526,17,11,0.879572212696,-1.78000986576,0.713094592094,0.485512852669,23.7999992371,0.29417130859397994,-0.5953210253377926,0.23849317461337788,23.7999992371,0.06560984495527027,0.7262786247777294,2.109641272070581
1648126014095560310,50527,18,0,0.0126151693985,0.0439508594573,0.0103440657258,0.0,26.3999996185,0.004219120200167224,0.014699284099431437,0.00345955375444816,26.3999996185,0.0,0.01586413891652226,0.046880915538498796
1648126014095587914,50528,18,1,0.0327914953232,0.0146502861753,-0.0301314946264,0.0,26.3999996185,0.010967055292040133,0.0048997612626421405,-0.010077422951973244,26.3999996185,0.0,0.01626530860414949,0.046880913162719064
1648126014095597967,50529,18,2,0.701423227787,0.323771327734,0.195825442672,0.0,26.3999996185,0.23458970828996653,0.10828472499464883,0.06549345908762541,26.3999996185,0.0,0.34898459011582433,0.7969755461364267
1648126014095836515,50530,18,3,0.273444384336,-1.58955609798,0.301445633173,0.0,26.3999996185,0.09145297134983277,-0.5316241130367892,0.1008179375160535,26.3999996185,0.0,0.5471302308405006,1.6408320723673608
1648126014095842344,50531,18,4,1.8759778738,-1.31852579117,0.486567467451,0.0,26.3999996185,0.6274173490969899,-0.44097852547491634,0.16273159446521737,26.3999996185,0.0,0.9908416219688289,2.344045892330038
1648126014095844435,50532,18,5,2.39034843445,-0.984499275684,0.457559168339,0.0,26.3999996185,0.7994476369397993,-0.32926397180066885,0.15302982218695652,26.3999996185,0.0,1.1775601095244395,2.6253313799272964
1648126014095851834,50533,18,6,0.874935150146,0.293005734682,0.166625887156,0.161837622523,26.3999996185,0.29262045155384614,0.09799522899063544,0.05572772145685618,26.3999996185,0.021869948989594594,0.42527229187907445,0.9376182932238822
1648126014095871170,50534,18,7,2.26481890678,1.10756158829,0.229667142034,0.323675245047,26.3999996185,0.7574645173177257,0.37042193588294314,0.07681175318862875,26.3999996185,0.04373989797932432,1.1334537487582004,2.5315695424960554
1648126014095873563,50535,18,8,1.10837590694,-0.870226979256,-2.10310530663,0.323675245047,26.3999996185,0.37069428325752507,-0.29104581246020067,-0.7033797012140467,26.3999996185,0.04373989797932432,0.5996133489426655,2.531569488930801
1648126014095881037,50536,18,9,1.11549115181,-1.68478286266,0.753507375717,0.404594063759,26.3999996185,0.37307396381605346,-0.5634725293177257,0.25200915575819394,26.3999996185,0.05467487348094594,0.771925939615038,2.1565220076176232
1648126014095910978,50537,18,10,2.09531855583,0.336956560612,0.382998794317,0.404594063759,26.3999996185,0.7007754367324415,0.11269450187692308,0.1280932422464883,26.3999996185,0.05467487348094594,0.9974329432139165,2.156522119198702
1648126014195993682,50538,19,0,0.0126256523654,0.0439508594573,0.010331267491,0.0,26.5,0.004222626209163879,0.014699284099431437,0.0034552734083612034,26.5,0.0,0.015866004451040385,0.04688091544176436
1648126014195999717,50539,19,1,0.0327914953232,0.0146502861753,-0.0301314946264,0.0,26.5,0.010967055292040133,0.0048997612626421405,-0.010077422951973244,26.5,0.0,0.01626530860414949,0.046880913162719064
1648126014196054846,50540,19,2,0.257154464722,-1.58955609798,0.315456628799,0.0,26.5,0.08600483769966553,-0.5316241130367892,0.10550388923043477,26.5,0.0,0.5453603045488776,1.6408320730669217
1648126014196070780,50541,19,3,1.87544226646,-1.31852579117,0.488627761602,0.0,26.5,0.6272382162073578,-0.44097852547491634,0.1634206560541806,26.5,0.0,0.9906147685513312,2.3440458711836842
1648126014196079618,50542,19,4,2.38864850998,-0.984499275684,0.466352939606,0.0,26.5,0.7988791003277591,-0.32926397180066885,0.15597088281137123,26.5,0.0,1.1767881699808727,2.6253315204619683
1648126014196088777,50543,19,5,0.699224054813,0.348676800728,0.157099500299,0.0809188112617,26.5,0.2338541989341137,0.11661431462474915,0.05254163889598662,26.5,0.010934974494824324,0.35067716078129757,0.7969755599698413
1648126014196251784,50544,19,6,0.884536385536,0.430718421936,0.0362735390663,0.0809188112617,26.5,0.2958315670688963,0.14405298392508362,0.012131618416822742,26.5,0.010934974494824324,0.4424747386310298,0.9844992361442053
1648126014196257509,50545,19,7,1.32825255394,-1.51630473137,0.622215092182,0.242756426334,26.5,0.44423162339130434,-0.5071253282173913,0.20809869303745818,26.5,0.03280492247756756,0.8073782068902678,2.1096413217327337
1648126014196260368,50546,19,8,1.20748269558,0.6050568223,-2.41381525993,0.242756426334,26.5,0.4038403664147157,0.20236014123745819,-0.8072960735551838,26.5,0.03280492247756756,0.6059073442809451,2.7659740286936625
1648126014196263322,50547,19,9,1.63704907894,-0.5186201334,-2.16834402084,0.242756426334,26.5,0.5475080531571906,-0.17345154963210702,-0.7251986691772575,26.5,0.03280492247756756,0.793483192395235,2.765974027777325
1648126014196265756,50548,19,10,1.50280535221,-1.51483952999,0.54938352108,0.323675245047,26.5,0.5026104856889632,-0.5066352943110367,0.1837403080535117,26.5,0.04373989797932432,0.8728768080838336,2.2034030456286486
1648126014196267789,50549,19,11,2.31603717804,1.04749548435,0.432587116957,0.323675245047,26.5,0.7745943739264214,0.35033293790969894,0.14467796553745818,26.5,0.04373989797932432,1.1500982808531497,2.5784504287564456
1648126014196272723,50550,19,12,1.6799467802,-0.725189208984,-1.81666886806,0.323675245047,26.5,0.5618551104347826,-0.24253819698461535,-0.6075815612240802,26.5,0.04373989797932432,0.8307750039811692,2.578450377515454
1648126014295704764,50551,20,0,0.0126355709508,0.0439508594573,0.0103191342205,0.0,12.6000003815,0.00422594346180602,0.014699284099431437,0.003451215458361204,12.6000003815,0.0,0.015867770773506908,0.04688091542780209
1648126014295711081,50552,20,1,0.0327914953232,0.0146502861753,-0.0301314946264,0.0,12.6000003815,0.010967055292040133,0.0048997612626421405,-0.010077422951973244,12.6000003815,0.0,0.01626530860414949,0.046880913162719064
1648126014295712174,50553,20,2,0.311082005501,-1.58955609798,0.262429594994,0.0,12.6000003815,0.10404080451538461,-0.5316241130367892,0.08776909531571905,12.6000003815,0.0,0.5516096224419673,1.6408320740102085
1648126014295713148,50554,20,3,2.41950702667,-0.902457654476,0.473203092813,0.0,12.6000003815,0.8091996744715718,-0.30182530250033446,0.1582619039508361,12.6000003815,0.0,1.183514570911239,2.6253314528408818
1648126014295714338,50555,20,4,0.859673857689,0.399952799082,0.265023171902,0.0809188112617,12.6000003815,0.28751634036421403,0.13376347795384613,0.088636512341806,12.6000003815,0.010934974494824324,0.4280466796824503,0.9844991948866239
1648126014295715470,50556,20,5,0.719360053539,0.395557701588,0.195317491889,0.161837622523,12.6000003815,0.24058864666856186,0.13229354568160534,0.06532357588260869,12.6000003815,0.021869948989594594,0.36505804475539394,0.8438564478340044
1648126014295716444,50557,20,6,0.882456183434,0.515690088272,-0.138129845262,0.161837622523,12.6000003815,0.2951358473023411,0.17247160142876253,-0.04619727266287625,12.6000003815,0.021869948989594594,0.4516157548460234,1.0313801612281421
1648126014295719515,50558,20,7,1.23643994331,0.703213751316,-2.42669725418,0.242756426334,12.6000003815,0.41352506465217387,0.23518854559063543,-0.8116044328361204,12.6000003815,0.03280492247756756,0.6303329359697203,2.812854933496768
1648126014295720563,50559,20,8,1.4747209549,-1.48260891438,0.526930630207,0.323675245047,12.6000003815,0.4932177106688963,-0.49585582420735785,0.17623098000234114,12.6000003815,0.04373989797932432,0.8558039603993969,2.156521962992855
1648126014395796247,50560,21,0,0.0126256523654,0.0439508594573,0.010331267491,0.0,23.5,0.004222626209163879,0.014699284099431437,0.0034552734083612034,23.5,0.0,0.015866004451040385,0.04688091544176436
1648126014395804053,50561,21,1,0.0327914953232,0.0146502861753,-0.0301314946264,0.0,23.5,0.010967055292040133,0.0048997612626421405,-0.010077422951973244,23.5,0.0,0.01626530860414949,0.046880913162719064
1648126014395813048,50562,21,2,0.29477456212,-1.58955609798,0.280622988939,0.0,23.5,0.0985868100735786,-0.5316241130367892,0.09385384245451504,23.5,0.0,0.5496025070931906,1.6408320733760353
1648126014395841327,50563,21,3,1.87788021564,-1.31852579117,0.479173272848,0.0,23.5,0.6280535838260869,-0.44097852547491634,0.16025861968160535,23.5,0.0,0.991647451589331,2.344045944874902
1648126014395885126,50564,21,4,2.41988945007,-0.902457654476,0.47124388814,0.0,23.5,0.8093275752742474,-0.30182530250033446,0.15760665155183945,23.5,0.0,1.1836894700165257,2.625331516359737
1648126014395889026,50565,21,5,0.833786964417,0.580151319504,0.178797960281,0.161837622523,23.5,0.2788585165274247,0.19403054164013378,0.05979864892341137,23.5,0.021869948989594594,0.43951336221884735,1.031380126895314
1648126014395897589,50566,21,6,0.709330677986,0.421928226948,0.175841480494,0.242756426334,23.5,0.23723434046354513,0.14111311938060198,0.058809859696989965,23.5,0.03280492247756756,0.363968648446086,0.843856424808085
1648126014395908940,50567,21,7,1.4932693243,-0.439508587122,-2.34288978577,0.242756426334,23.5,0.4994211786956521,-0.14699283850234113,-0.783575179187291,23.5,0.03280492247756756,0.7214221524395299,2.8128550658209805
1648126014395918018,50568,21,8,1.10276603699,0.966918885708,-2.40023493767,0.242756426334,23.5,0.36881807257190635,0.3233842427117057,-0.8027541597558528,23.5,0.03280492247756756,0.6137026232187177,2.812854923363297
1648126014395921686,50569,21,9,1.4883878231,-1.41521763802,0.657607734203,0.323675245047,23.5,0.4977885695986622,-0.47331693579264206,0.2199356970578595,23.5,0.04373989797932432,0.8483017398038862,2.1565220163492116
1648126014396015249,50570,21,10,2.16212201118,-1.50311934948,0.454508662224,0.323675245047,23.5,0.7231177294916388,-0.5027155014983277,0.15200958602809364,23.5,0.04373989797932432,1.1395268214732819,2.672212097504028
1648126014590826648,50571,23,0,0.0126256523654,0.0439508594573,0.010331267491,0.0,13.8999996185,0.004222626209163879,0.014699284099431437,0.0034552734083612034,13.8999996185,0.0,0.015866004451040385,0.04688091544176436
1648126014590830877,50572,23,1,0.0327914953232,0.0146502861753,-0.0301314946264,0.0,13.8999996185,0.010967055292040133,0.0048997612626421405,-0.010077422951973244,13.8999996185,0.0,0.01626530860414949,0.046880913162719064
1648126014590835080,50573,23,2,1.86479640007,-1.31852579117,0.527802407742,0.0,13.8999996185,0.6236777257759196,-0.44097852547491634,0.17652254439531773,13.8999996185,0.0,0.986108447985351,2.3440459162125555
1648126014590899743,50574,23,3,2.42044615746,-0.902457654476,0.468376100063,0.0,13.8999996185,0.8095137650367892,-0.30182530250033446,0.15664752510468227,13.8999996185,0.0,1.1839440800973222,2.6253315200933054
1648126014590907465,50575,23,4,0.647547781467,0.5845464468,0.180001392961,0.161837622523,13.8999996185,0.2165711643702341,0.19550048387959865,0.06020113476956522,13.8999996185,0.021869948989594594,0.363354616966009,0.8907374356213167
1648126014590909046,50576,23,5,0.676417350769,0.64461261034,0.0778604969382,0.323675245047,13.8999996185,0.22622653871872908,0.21558950178595315,0.026040299979331105,13.8999996185,0.04373989797932432,0.38579233652527206,0.9376183161682393
1648126014590917811,50577,23,6,0.796074271202,1.29215526581,1.72440338135,0.323675245047,13.8999996185,0.2662455756528428,0.4321589517759197,0.5767235389130434,13.8999996185,0.04373989797932432,0.5731795292135693,2.2971648825980298
1648126014590927552,50578,23,7,0.774317145348,0.676843225956,-0.0778537243605,-0.0809188112617,13.8999996185,0.25896894493244144,0.22636897189163876,-0.026038034903177257,13.8999996185,-0.010934974494824324,0.4305493471300605,1.0313801416059947
1648126014696064958,50579,24,0,0.0126256523654,0.0439508594573,0.010331267491,0.0,17.1000003815,0.004222626209163879,0.014699284099431437,0.0034552734083612034,17.1000003815,0.0,0.015866004451040385,0.04688091544176436
1648126014696067299,50580,24,1,0.0327914953232,0.0146502861753,-0.0301314946264,0.0,17.1000003815,0.010967055292040133,0.0048997612626421405,-0.010077422951973244,17.1000003815,0.0,0.01626530860414949,0.046880913162719064
1648126014696068466,50581,24,2,0.70769828558,0.646077632904,0.225799918175,0.0,17.1000003815,0.23668838982608695,0.2160794758876254,0.07551836728260869,17.1000003815,0.0,0.3984132624007417,0.9844992504819614
1648126014696069671,50582,24,3,0.286593019962,-1.58955609798,0.288973629475,0.0,17.1000003815,0.09585050834849497,-0.5316241130367892,0.09664669882107023,17.1000003815,0.0,0.5486336094913277,1.6408320774071605
1648126014696070748,50583,24,4,1.86661171913,-1.31852579117,0.521346151829,0.0,17.1000003815,0.624284855896321,-0.44097852547491634,0.1743632614812709,17.1000003815,0.0,0.9868764981156517,2.3440459428093203
1648126014696071874,50584,24,5,2.42078852654,-0.902457654476,0.466603159904,0.0,17.1000003815,0.8096282697458194,-0.30182530250033446,0.15605456852976587,17.1000003815,0.0,1.1841006644591654,2.625331487104519
1648126014696072849,50585,24,6,0.578823566437,0.668053030968,0.109916120768,0.242756426334,17.1000003815,0.19358647706923074,0.22342910734715715,0.03676124440401338,17.1000003815,0.03280492247756756,0.3533723450103291,0.8907374062275959
1648126014890856914,50586,26,0,0.0126923779026,0.0439508594573,0.0102491816506,0.0,32.7999992371,0.004244942442341137,0.014699284099431437,0.0034278199500334446,32.7999992371,0.0,0.015877909991978672,0.04688091539597687
1648126014890952065,50587,26,1,0.0327914953232,0.0146502861753,-0.0301314946264,0.0,32.7999992371,0.010967055292040133,0.0048997612626421405,-0.010077422951973244,32.7999992371,0.0,0.01626530860414949,0.046880913162719064
1648126014890955413,50588,26,2,0.282771736383,-1.58955609798,0.292713940144,0.0,32.7999992371,0.09457248708461538,-0.5316241130367892,0.09789763884414715,32.7999992371,0.0,0.5481898468495128,1.6408320737592514
1648126014891051697,50589,26,3,1.86418759823,-1.31852579117,0.529948830605,0.0,32.7999992371,0.6234741131204014,-0.44097852547491634,0.1772404115735786,32.7999992371,0.0,0.9858509011978299,2.3440459522873303
1648126014891053947,50590,26,4,2.4213488102,-0.902457654476,0.463686943054,0.0,32.7999992371,0.8098156555852842,-0.30182530250033446,0.15507924516856186,32.7999992371,0.0,1.18435691634383,2.625331495247418
1648126014891055483,50591,26,5,0.665368258953,0.741304516792,0.267390519381,0.0809188112617,32.7999992371,0.22253119028528426,0.2479279320374582,0.08942826735150501,32.7999992371,0.010934974494824324,0.4006351467157384,1.0313801416030892
1648126014891058220,50592,26,6,1.01766431332,0.879017174244,-0.411978691816,0.323675245047,32.7999992371,0.340355957632107,0.29398567700468226,-0.13778551565752506,32.7999992371,0.04373989797932432,0.5640141257763307,1.4064274918144186
