%time,field.header.seq,field.header.frame_id,field.point_id,field.x,field.y,field.z,field.velocity,field.intensity,normalized_x,normalized_y,normalized_z,normalized_intensity,normalized_velocity,normalized_range,range
1648295571662740083,52559,0,0,0.0127004906535,0.0439508594573,0.0102391270921,0.0,14.6000003815,0.004247655736956521,0.014699284099431437,0.003424457221438127,14.6000003815,0.0,0.01587936118221376,0.046880915450566385
1648295571662745207,52560,0,1,0.0335276499391,0.0146502861753,-0.0293101686984,0.0,14.6000003815,0.011213260849197323,0.0048997612626421405,-0.009802732006153845,14.6000003815,0.0,0.01659765339363283,0.0468809149290592
1648295571662751031,52561,0,2,2.20308232307,-1.31266570091,0.561873912811,0.0,14.6000003815,0.7368168304581939,-0.4390186290668896,0.18791769659230767,14.6000003815,0.0,1.1307234144390435,2.625331456876749
1648295571662759103,52562,0,3,0.26343524456,-1.04456532001,-0.0461732968688,0.566431701183,14.6000003815,0.0881054329632107,-0.34935294983612036,-0.01544257420361204,14.6000003815,0.07654482448418919,0.37090782978318004,1.0782610116236768
1648295571662769950,52563,0,4,0.594668805599,-0.769140005112,0.155020624399,-0.323675245047,14.6000003815,0.19888588816020067,-0.2572374599036789,0.05184636267525083,14.6000003815,-0.04373989797932432,0.38115915809047607,0.9844992279353421
1648295571662773106,52564,0,5,0.413089126348,-0.251984924078,-1.95694422722,-0.242756426334,14.6000003815,0.13815689844414714,-0.08427589434046821,-0.6544963970635451,14.6000003815,-0.03280492247756756,0.21278412427222698,2.0158793953803964
1648295571662778969,52565,0,6,0.720373988152,-0.709073901176,0.204989045858,-0.161837622523,14.6000003815,0.2409277552347826,-0.23714846193177255,0.06855820931705686,14.6000003815,-0.021869948989594594,0.41512860595428497,1.0313801379979852
1648295571662937143,52566,0,7,0.725500822067,-0.83067125082,0.621164083481,-0.161837622523,14.6000003815,0.2426424154070234,-0.2778164718461538,0.20774718511070234,14.6000003815,-0.021869948989594594,0.44151180679360524,1.265784732237495
1648295571765940227,52567,1,0,0.0128007447347,0.0439508594573,0.0101135112345,0.0,12.8999996185,0.0042811855299999995,0.014699284099431437,0.0033824452289297653,12.8999996185,0.0,0.015897359910386398,0.04688091533117335
1648295571765942227,52568,1,1,0.0335637778044,0.0146502861753,-0.0292687918991,0.0,12.8999996185,0.01122534374729097,0.0048997612626421405,-0.00978889361173913,12.8999996185,0.0,0.01661398040568778,0.04688091557077509
1648295571765944142,52569,1,2,2.24851059914,-1.2306240797,0.567564368248,0.0,12.8999996185,0.7520102338260869,-0.4115799597658863,0.1898208589458194,12.8999996185,0.0,1.1403669790200084,2.625331379480911
1648295571765950617,52570,1,3,0.673196613789,-0.676843225956,0.240682989359,-0.242756426334,12.8999996185,0.22514936916020065,-0.22636897189163876,0.0804959830632107,12.8999996185,-0.03280492247756756,0.39067555375496704,0.9844992304244251
1648295571765951840,52571,1,4,1.58182096481,-0.251984924078,-1.22397530079,-0.242756426334,12.8999996185,0.5290371119765885,-0.08427589434046821,-0.4093562878896321,12.8999996185,-0.03280492247756756,0.7529030203578312,2.0158793375643804
1648295571867844984,52572,2,0,0.0127121871337,0.0439508594573,0.0102246021852,0.0,17.7999992371,0.004251567603244147,0.014699284099431437,0.003419599393043478,17.7999992371,0.0,0.01588145482018912,0.04688091550517269
1648295571867853370,52573,2,1,0.0335410349071,0.0146502861753,-0.0292948503047,0.0,17.7999992371,0.011217737427123745,0.0048997612626421405,-0.009797608797558527,17.7999992371,0.0,0.016603702189532134,0.046880914688519765
1648295571867856660,52574,2,2,0.445971339941,-0.0,1.03298306465,0.0,17.7999992371,0.14915429429464883,-0.0,0.34547928583612036,17.7999992371,0.0,0.21093602587768032,1.1251419678878205
1648295571867860726,52575,2,3,0.625100433826,0.0703213736415,0.932871282101,0.0,17.7999992371,0.20906369024280935,0.023518854060702338,0.3119970843147157,17.7999992371,0.0,0.29659465546805003,1.1251419807868892
1648295571867867952,52576,2,4,0.55762398243,-0.640217542648,0.269425570965,-0.404594063759,17.7999992371,0.1864963151939799,-0.21411957948093643,0.0901088866103679,17.7999992371,-0.05467487348094594,0.3397189212848729,0.8907374169670617
1648295571867986713,52577,2,5,1.17268908024,-0.637287437916,0.258904844522,-0.404594063759,17.7999992371,0.39220370576588626,-0.21313961134314377,0.08659024900401338,17.7999992371,-0.05467487348094594,0.5942019753892561,1.3595464964305701
1648295571867988947,52578,2,6,0.661797642708,-0.75155967474,0.774204671383,-0.323675245047,17.7999992371,0.22133700425016722,-0.25135775074916383,0.2589313282217391,17.7999992371,-0.04373989797932432,0.40144844969504595,1.2657847122557688
1648295571867992233,52579,2,7,0.725749611855,-0.615311980247,0.252818763256,-0.242756426334,17.7999992371,0.2427256226939799,-0.2057899599488294,0.08455477031973244,17.7999992371,-0.03280492247756756,0.4002261403757898,0.9844991920755756
1648295571868005818,52580,2,8,1.8963227272,-0.377977371216,-0.56996768713,-0.242756426334,17.7999992371,0.6342216478929765,-0.1264138365270903,-0.1906246445250836,17.7999992371,-0.03280492247756756,0.9057895204613836,2.015879446598661
1648295571868056070,52581,2,9,0.992955446243,-0.622637212276,-0.000390226836316,-0.0809188112617,17.7999992371,0.33209212248929765,-0.20823987032642138,-0.0001305106475973244,17.7999992371,-0.010934974494824324,0.5137452668711003,1.1720229386029302
1648295571868057778,52582,2,10,0.341198205948,-0.146502867341,-1.11164677143,-0.0809188112617,17.7999992371,0.11411311235719063,-0.04899761449531772,-0.3717882178695652,17.7999992371,-0.010934974494824324,0.16865459095417887,1.1720229734574366
1648295572062767454,52583,4,0,0.0127323288471,0.0439508594573,0.0101995095611,0.0,11.1999998093,0.004258303962240802,0.014699284099431437,0.003411207211070234,11.1999998093,0.0,0.015885064000672747,0.046880915522129064
1648295572062779337,52584,4,1,0.0335276499391,0.0146502861753,-0.0293101686984,0.0,11.1999998093,0.011213260849197323,0.0048997612626421405,-0.009802732006153845,11.1999998093,0.0,0.01659765339363283,0.0468809149290592
1648295572062782422,52585,4,2,0.439962685108,-0.0,1.03555655479,0.0,11.1999998093,0.14714471073846153,-0.0,0.34633998487959866,11.1999998093,0.0,0.20809404555779829,1.1251420099062943
1648295572062785196,52586,4,3,1.74872398376,-0.167013257742,0.2961820364,0.0,11.1999998093,0.5848575196521738,-0.05585727683678929,0.09905753725752509,11.1999998093,0.0,0.828997389599634,1.7814748941046268
1648295572062808734,52587,4,4,0.617248535156,-0.556710898876,0.433826416731,-0.566431701183,11.1999998093,0.2064376371759197,-0.18619093607892975,0.14509244706722407,11.1999998093,-0.07654482448418919,0.34626588160473076,0.9376183332962357
1648295572062965138,52588,4,5,0.636150062084,-0.527410268784,0.171012401581,-0.485512852669,11.1999998093,0.21275921808829432,-0.17639139424214045,0.05719478313745819,11.1999998093,-0.06560984495527027,0.3487791474927522,0.8438564656402116
1648295572062972194,52589,4,6,1.1927087307,-0.356001973152,0.230042681098,-0.242756426334,11.1999998093,0.39889924103678925,-0.11906420506755852,0.07693735153779263,11.1999998093,-0.03280492247756756,0.5765565834571856,1.2657847985747332
1648295572063110985,52590,4,7,1.86974287033,-0.117202289402,0.0826888233423,-0.0809188112617,11.1999998093,0.6253320636555184,-0.03919809010100334,0.027655124863645485,11.1999998093,-0.010934974494824324,0.8852213677600113,1.8752365768874795
1648295572167966064,52591,5,0,0.0126422159374,0.0439508594573,0.0103109916672,0.0,11.3999996185,0.00422816586535117,0.014699284099431437,0.0034484921963879598,11.3999996185,0.0,0.015868954792475763,0.0468809153068096
1648295572167984359,52592,5,1,0.0335503853858,0.0146502861753,-0.0292841382325,0.0,11.3999996185,0.011220864677525082,0.0048997612626421405,-0.009794026164715718,11.3999996185,0.0,0.016607927885607783,0.0468809129238548
1648295572168038184,52593,5,2,0.519510746002,0.0351606868207,0.99740499258,0.0,11.3999996185,0.17374941337859529,0.011759427030334446,0.33358026507692307,11.3999996185,0.0,0.24600000289206042,1.1251419503035018
1648295572168094346,52594,5,3,1.23139560223,-0.276890397072,0.0959568023682,0.0809188112617,11.3999996185,0.41183799405685617,-0.09260548397056856,0.032092576042876256,11.3999996185,0.010934974494824324,0.5897430307845727,1.2657847878303816
1648295572168111355,52595,5,4,0.655512571335,-0.423393249512,0.161899492145,-0.566431701183,11.3999996185,0.2192349736906354,-0.14160309348227423,0.05414698733946487,11.3999996185,-0.07654482448418919,0.34085096957763944,0.7969755457147748
1648295572168113161,52596,5,5,0.874140501022,-0.49224960804,0.509424328804,-0.485512852669,11.3999996185,0.2923546826160535,-0.16463197593311035,0.17037602970033444,11.3999996185,-0.06560984495527027,0.44502382901897175,1.1251419638960822
1648295572362788506,52597,7,0,0.0127121871337,0.0439508594573,0.0102246021852,0.0,19.7000007629,0.004251567603244147,0.014699284099431437,0.003419599393043478,19.7000007629,0.0,0.01588145482018912,0.04688091550517269
1648295572362794744,52598,7,1,0.0335000641644,0.0146502861753,-0.0293416958302,0.0,19.7000007629,0.011204034837591971,0.0048997612626421405,-0.009813276197391304,19.7000007629,0.0,0.016585187780511792,0.04688091614110244
1648295572362815197,52599,7,2,0.814393937588,-0.158223092556,0.154342889786,0.0,19.7000007629,0.27237255437725755,-0.05291742225953177,0.051619695580602004,19.7000007629,0.0,0.38881084132850235,0.8438564808221628
1648295572362972774,52600,7,3,2.19941163063,-1.31266570091,0.576075077057,0.0,19.7000007629,0.7355891741237457,-0.4390186290668896,0.19266724985183944,19.7000007629,0.0,1.1291236525925228,2.6253314567311845
1648295572362976874,52601,7,4,1.87203204632,-1.39177727699,0.230224058032,0.161837622523,19.7000007629,0.626097674354515,-0.4654773501638796,0.07699801271973243,19.7000007629,0.021869948989594594,1.0003328242039504,2.3440458801165707
1648295572362978817,52602,7,5,0.559540212154,-0.225614413619,0.258429259062,-0.323675245047,19.7000007629,0.1871371947003344,-0.07545632562508361,0.08643119032173911,19.7000007629,-0.04373989797932432,0.27519868523933827,0.6563328382683002
1648295572362981011,52603,7,6,0.643523037434,-0.197778865695,0.203153118491,-0.242756426334,19.7000007629,0.21522509613177254,-0.06614677782441471,0.06794418678628762,19.7000007629,-0.03280492247756756,0.3114788599992204,0.7032137434496716
1648295572467866868,52604,8,0,0.0127004906535,0.0439508594573,0.0102391270921,0.0,39.0,0.004247655736956521,0.014699284099431437,0.003424457221438127,39.0,0.0,0.01587936118221376,0.046880915450566385
1648295572467876134,52605,8,1,0.033477243036,0.0146502861753,-0.0293677262962,0.0,39.0,0.011196402353177256,0.0048997612626421405,-0.009821982038862875,39.0,0.0,0.016574875919274777,0.046880913324274236
1648295572467887881,52606,8,2,0.556589484215,-0.123062409461,0.325325399637,0.0,39.0,0.1861503291688963,-0.041157996475250834,0.10880448148394649,39.0,0.0,0.266454256436698,0.6563328623572343
1648295572467889126,52607,8,3,1.39650917053,-1.68478298187,0.840130865574,0.0,39.0,0.46705992325418055,-0.5634725691872909,0.28098022259999994,39.0,0.0,0.8682115410698756,2.34404595318933
1648295572467890271,52608,8,4,2.24372911453,-1.2306240797,0.586181104183,0.0,39.0,0.7504110750936454,-0.4115799597658863,0.19604719203444812,39.0,0.0,1.1382581546061024,2.6253312651603133
1648295572467891371,52609,8,5,0.666903316975,-0.210964113474,0.270880192518,-0.0809188112617,39.0,0.22304458761705687,-0.07055655969030099,0.09059538211304347,39.0,-0.010934974494824324,0.32322748064769635,0.7500946407385649
1648295572467895663,52610,8,6,0.652357637882,0.046880915761,-0.367251574993,-0.0809188112617,39.0,0.21817981200066885,0.015679236040468225,-0.12282661371003344,39.0,-0.010934974494824324,0.30895096564359065,0.7500946788908796
1648295572565909154,52611,9,0,0.0126217054203,0.0439508594573,0.0103360898793,0.0,23.8999996185,0.004221306160635451,0.014699284099431437,0.003456886247257525,23.8999996185,0.0,0.015865301901931635,0.046880915613340304
1648295572565925568,52612,9,1,0.0335503853858,0.0146502861753,-0.0292841382325,0.0,23.8999996185,0.011220864677525082,0.0048997612626421405,-0.009794026164715718,23.8999996185,0.0,0.016607927885607783,0.0468809129238548
1648295572565931228,52613,9,2,1.38171756268,-1.68478298187,0.864241957664,0.0,23.8999996185,0.4621128972173913,-0.5634725691872909,0.2890441329979933,23.8999996185,0.0,0.8629009188637065,2.3440459211380715
1648295572565934558,52614,9,3,2.015396595,-0.879017233849,-0.812438309193,0.0,23.8999996185,0.6740456839464882,-0.29398569693946486,-0.2717184980578595,23.8999996185,0.0,0.9975483738139024,2.344045805607374
1648295572566080137,52615,9,4,2.24564576149,-1.2306240797,0.578795075417,0.0,23.8999996185,0.7510520941438127,-0.4115799597658863,0.1935769483,23.8999996185,0.0,1.139103401591138,2.6253312649954186
1648295572566083661,52616,9,5,0.562328100204,-0.0615312047303,0.332826972008,0.0809188112617,23.8999996185,0.18806959873043477,-0.020578998237558526,0.11131336856454849,23.8999996185,0.010934974494824324,0.26676552082627725,0.6563328231397665
1648295572566105218,52617,9,6,0.72067540884,-0.0703213736415,0.195764780045,0.0809188112617,23.8999996185,0.24102856482943144,-0.023518854060702338,0.06547317058361203,23.8999996185,0.010934974494824324,0.3416762716721773,0.7500946537628407
1648295572566151447,52618,9,7,0.0540946424007,-1.44158816338,-1.27020990849,0.404594063759,23.8999996185,0.018091853645719063,-0.4821365094916388,-0.42481936738795983,23.8999996185,0.05467487348094594,0.4828149170452973,1.9221175496727445
1648295572667857681,52619,10,0,0.0127207012847,0.0439508594573,0.0102140065283,0.0,22.3999996185,0.004254415145384615,0.014699284099431437,0.003416055695083612,22.3999996185,0.0,0.01588297986822227,0.04688091528084813
1648295572667860646,52620,10,1,0.033477243036,0.0146502861753,-0.0293677262962,0.0,22.3999996185,0.011196402353177256,0.0048997612626421405,-0.009821982038862875,22.3999996185,0.0,0.016574875919274777,0.046880913324274236
1648295572667862177,52621,10,2,1.38097965717,-1.68478298187,0.86542057991,0.0,22.3999996185,0.461866106076923,-0.5634725691872909,0.28943832104013373,22.3999996185,0.0,0.8626366188099398,2.344045923109848
1648295572667863410,52622,10,3,2.03810930252,-0.879017233849,-0.753651678562,0.0,22.3999996185,0.6816419071973244,-0.29398569693946486,-0.2520574175792642,22.3999996185,0.0,1.0078189169192027,2.344046006165713
1648295572667987771,52623,10,4,2.19866037369,-1.31266570091,0.578936040401,0.0,22.3999996185,0.7353379176220736,-0.4390186290668896,0.19362409377959866,22.3999996185,0.0,1.1287962893513188,2.6253315257421073
1648295572667989729,52624,10,5,0.707557141781,-0.0,0.249007791281,0.242756426334,22.3999996185,0.23664118454214048,-0.0,0.0832801977528428,22.3999996185,0.03280492247756756,0.33466117259552947,0.7500946533631208
1648295572667991032,52625,10,6,0.252500295639,1.84593605995,0.636960268021,0.485512852669,22.3999996185,0.08444825941103679,0.6173699197157191,0.2130301899735786,22.3999996185,0.06560984495527027,0.628815262859372,1.9689984052199985
1648295572667992132,52626,10,7,1.95068788528,-0.0,0.267902225256,0.485512852669,22.3999996185,0.6524039750100334,-0.0,0.08959940644013377,22.3999996185,0.06560984495527027,0.9226385496053071,1.968998432725449
1648295572667993129,52627,10,8,1.27879619598,-0.287145614624,0.0729295611382,-0.161837622523,22.3999996185,0.427691035444816,-0.0960353226167224,0.024391157571304344,22.3999996185,-0.021869948989594594,0.6124230782635609,1.3126656222124977
1648295572667994328,52628,10,9,1.11104750633,-0.219754308462,0.301528453827,-0.0809188112617,22.3999996185,0.3715877947591973,-0.0734964242347826,0.10084563673143812,22.3999996185,-0.010934974494824324,0.5306191692761446,1.172023005694438
1648295572766024979,52629,11,0,0.0127121871337,0.0439508594573,0.0102246021852,0.0,23.2000007629,0.004251567603244147,0.014699284099431437,0.003419599393043478,23.2000007629,0.0,0.01588145482018912,0.04688091550517269
1648295572766114447,52630,11,1,0.033477243036,0.0146502861753,-0.0293677262962,0.0,23.2000007629,0.011196402353177256,0.0048997612626421405,-0.009821982038862875,23.2000007629,0.0,0.016574875919274777,0.046880913324274236
1648295572766116503,52631,11,2,0.387357085943,-0.0,1.05636119843,0.0,23.2000007629,0.1295508648638796,-0.0,0.3532980596755853,23.2000007629,0.0,0.18321259010766258,1.1251419881858107
1648295572766119641,52632,11,3,2.19738769531,-1.31266570091,0.583747267723,0.0,23.2000007629,0.7349122726789298,-0.4390186290668896,0.19523319990735785,23.2000007629,0.0,1.1282417532319882,2.625331369259775
1648295572766120635,52633,11,4,1.11623692513,-0.146502867341,0.325867772102,0.323675245047,23.2000007629,0.3733233863311036,-0.04899761449531772,0.10898587695719063,23.2000007629,0.04373989797932432,0.5302277508671879,1.172022938366623
1648295572766126256,52634,11,5,2.51901650429,-0.76474493742,0.68058013916,0.323675245047,23.2000007629,0.8424804362173913,-0.2557675375986622,0.22761877563879598,23.2000007629,0.04373989797932432,1.2185908271882628,2.7190932852724963
1648295572766129690,52635,11,6,1.63240802288,0.169943317771,-2.16790938377,0.323675245047,23.2000007629,0.5459558604949832,0.05683723002374581,-0.7250533056086956,23.2000007629,0.04373989797932432,0.7741873635848155,2.719093190873757
1648295572766133720,52636,11,7,0.771287798882,0.0498109720647,0.194432556629,0.404594063759,23.2000007629,0.25795578557926424,0.016659187981505015,0.06502761091270902,23.2000007629,0.05467487348094594,0.3651847521075241,0.7969755458729961
1648295572766142520,52637,11,8,1.25539803505,-0.158223092556,0.0339431352913,0.404594063759,23.2000007629,0.4198655635618729,-0.05291742225953177,0.011352219160969897,23.2000007629,0.05467487348094594,0.5961329017164309,1.265784701226393
1648295572865872373,52638,12,0,0.0127323288471,0.0439508594573,0.0101995095611,0.0,23.1000003815,0.004258303962240802,0.014699284099431437,0.003411207211070234,23.1000003815,0.0,0.015885064000672747,0.046880915522129064
1648295572865877429,52639,12,1,0.0334426723421,0.0146502861753,-0.0294070895761,0.0,23.1000003815,0.011184840248193979,0.0048997612626421405,-0.009835147015418058,23.1000003815,0.0,0.016559256118139135,0.046880914408061795
1648295572865879538,52640,12,2,0.459692239761,-0.0,1.02695059776,0.0,23.1000003815,0.15374322400033444,-0.0,0.34346173838127086,23.1000003815,0.0,0.2174257525042377,1.1251419846117672
1648295572865885787,52641,12,3,2.24461126328,-1.2306240797,0.582794845104,0.0,23.1000003815,0.7507061081204013,-0.4115799597658863,0.19491466391438128,23.1000003815,0.0,1.1386471731047543,2.62533144198227
1648295572865967726,52642,12,4,1.34133851528,-1.2101136446,-2.09452819824,0.323675245047,23.1000003815,0.4486081990903009,-0.40472028247491637,-0.700511103090301,23.1000003815,0.04373989797932432,0.7525271686980226,2.765974045186099
1648295572865991119,52643,12,5,0.514218330383,-0.0864366889,2.71638011932,0.323675245047,23.1000003815,0.17197937471003344,-0.02890859160535117,0.9084883342207357,23.1000003815,0.04373989797932432,0.24492757566250714,2.7659741042039445
1648295572866026687,52644,12,6,0.225739136338,-1.3829870224,-2.38474345207,0.485512852669,23.1000003815,0.07549803890903009,-0.4625374656856187,-0.7975730608929765,23.1000003815,0.06560984495527027,0.474700763556468,2.765974076883618
1648295572866031009,52645,12,7,1.49992883205,0.2593100667,-2.30945539474,0.485512852669,23.1000003815,0.5016484388127089,0.08672577481605351,-0.7723931086086956,23.1000003815,0.06560984495527027,0.7147192961883017,2.76597404763684
1648295572866033407,52646,12,8,0.81614613533,0.158223092556,0.144791901112,0.566431701183,23.1000003815,0.2729585736889632,0.05291742225953177,0.048425384987290966,23.1000003815,0.07654482448418919,0.3896319025429256,0.8438564782353137
1648295572866036887,52647,12,9,1.11602783203,-0.0,-2.27229523659,0.566431701183,23.1000003815,0.3732534555284281,-0.0,-0.7599649620702341,23.1000003815,0.07654482448418919,0.5278600990109259,2.5315694270738827
1648295572866041038,52648,12,10,0.413865953684,-0.164083212614,-1.23486149311,-0.566431701183,23.1000003815,0.13841670691772573,-0.054877328633444813,-0.4129971548862876,23.1000003815,-0.07654482448418919,0.2032975423015199,1.3126656982820708
1648295572866044246,52649,12,11,1.26814091206,0.328166425228,0.0849513486028,-0.566431701183,23.1000003815,0.4241273953377926,0.10975465726688963,0.028411822275183945,23.1000003815,-0.07654482448418919,0.6097656760951807,1.3126657255816225
1648295572866051959,52650,12,12,1.52897322178,-1.38445210457,0.442854255438,-0.566431701183,23.1000003815,0.5113622815317725,-0.463027459722408,0.14811179111638795,23.1000003815,-0.07654482448418919,0.8587066987066921,2.109641352061568
1648295572968003767,52651,13,0,0.0127121871337,0.0439508594573,0.0102246021852,0.0,24.0,0.004251567603244147,0.014699284099431437,0.003419599393043478,24.0,0.0,0.01588145482018912,0.04688091550517269
1648295572968036796,52652,13,1,0.0335503853858,0.0146502861753,-0.0292841382325,0.0,24.0,0.011220864677525082,0.0048997612626421405,-0.009794026164715718,24.0,0.0,0.016607927885607783,0.0468809129238548
1648295572968132111,52653,13,2,1.8088927269,-0.171408340335,0.203496962786,0.0,24.0,0.6049808451170567,-0.05732720412541805,0.06805918487826086,24.0,0.0,0.8574905563619543,1.8283557450428634
1648295572968140283,52654,13,3,2.24516224861,-1.2306240797,0.58066791296,0.0,24.0,0.7508903841505016,-0.4115799597658863,0.19420331537123744,24.0,0.0,1.1388901620877512,2.6253312882876902
1648295572968299686,52655,13,4,0.82931804657,0.250519901514,0.207085639238,0.404594063759,24.0,0.277363895173913,0.08378592023879598,0.06925941111638795,24.0,0.05467487348094594,0.40110041276761693,0.89073739418522
1648295572968308629,52656,13,5,1.04258012772,0.105482056737,0.409688442945,0.485512852669,24.0,0.3486890059264214,0.035278279845150494,0.1370195461354515,24.0,0.06560984495527027,0.49438102991189353,1.12514194984136
1648295572968314072,52657,13,6,1.30618226528,-2.0949909687,0.743846237659,0.485512852669,24.0,0.43685025594648824,-0.7006658758193979,0.24877800590602006,24.0,0.06560984495527027,0.9341354086955426,2.5784504056401794
1648295572968318414,52658,13,7,1.42152273655,-1.04749548435,-1.87894463539,0.485512852669,24.0,0.4754256643979933,-0.35033293790969894,-0.6284095770535116,24.0,0.06560984495527027,0.7581505735149104,2.5784504306119795
1648295572968321055,52659,13,8,1.72786855698,-1.28043496609,0.159823507071,-0.647350490093,24.0,0.5778824605284281,-0.4282391190936455,0.05345267795016721,24.0,-0.08747979595851352,0.9226510822054467,2.156521969746314
1648295572968323177,52660,13,9,0.598021268845,-0.0,-1.32456624508,-0.242756426334,24.0,0.20000711332608692,-0.0,-0.442998744173913,24.0,-0.03280492247756756,0.28285277223684474,1.4533083553039645
1648295572968325220,52661,13,10,1.34344995022,0.54499065876,0.101156778634,-0.242756426334,24.0,0.4493143646220735,0.18227112333110365,0.033831698539799324,24.0,-0.03280492247756756,0.661051857959614,1.4533083914797256
1648295573162805429,52662,15,0,0.0127004906535,0.0439508594573,0.0102391270921,0.0,14.5,0.004247655736956521,0.014699284099431437,0.003424457221438127,14.5,0.0,0.01587936118221376,0.046880915450566385
1648295573162811762,52663,15,1,0.0335637778044,0.0146502861753,-0.0292687918991,0.0,14.5,0.01122534374729097,0.0048997612626421405,-0.00978889361173913,14.5,0.0,0.01661398040568778,0.04688091557077509
1648295573162815139,52664,15,2,0.553808867931,0.0703213736415,0.976880311966,0.0,14.5,0.18522035716755852,0.023518854060702338,0.3267158234,14.5,0.0,0.2629948629058836,1.1251419917933172
1648295573162817698,52665,15,3,1.8702391386,-0.117202289402,0.0705778226256,0.0,14.5,0.6254980396655517,-0.03919809010100334,0.023604622951705685,14.5,0.0,0.8854558631114612,1.8752365294113993
1648295573162820139,52666,15,4,2.23891496658,-1.2306240797,0.604308605194,0.0,14.5,0.748800992167224,-0.4115799597658863,0.20210990140267557,14.5,0.0,1.136135517894818,2.6253313587859557
1648295573162993581,52667,15,5,0.876936793327,0.399952799082,0.200644895434,0.323675245047,14.5,0.29328989743377926,0.13376347795384613,0.0671053161986622,14.5,0.04373989797932432,0.4358102751286878,0.9844992407553644
1648295573162997056,52668,15,6,1.43959653378,-1.72287368774,0.486039727926,0.485512852669,14.5,0.4814704126354515,-0.5762119356989966,0.16255509295183945,14.5,0.06560984495527027,0.8919908695321318,2.297164892013762
