%time,field.header.seq,field.header.frame_id,field.point_id,field.x,field.y,field.z,field.velocity,field.intensity,normalized_x,normalized_y,normalized_z,normalized_intensity,normalized_velocity,normalized_range,range
1648219098647467586,63175,0,0,0.00554364221171,0.0454158857465,0.0102218193933,0.0,36.5,0.0018540609403712373,0.015189259446989964,0.003418668693411371,36.5,0.0,0.015413912108520486,0.046880915507483835
1648219098647620296,63176,0,1,0.0334378667176,0.0146502861753,-0.029412554577,0.0,36.5,0.01118323301591973,0.0048997612626421405,-0.009836974774916388,36.5,0.0,0.016557084942936142,0.04688091490561134
1648219098647628957,63177,0,2,2.0854010582,-1.21890377998,0.329062014818,0.0,36.5,0.6974585478929766,-0.407660127083612,0.11005418555785954,36.5,0.0,1.0672786099570184,2.43780758223189
1648219098647635813,63178,0,3,1.02063000202,-0.892202436924,0.103227935731,-0.161837622523,36.5,0.34134782676254183,-0.2983954638541806,0.03452439322107023,36.5,-0.021869948989594594,0.567517868018067,1.359546540649401
1648219098752388893,63179,1,0,0.00554364221171,0.0454158857465,0.0102218193933,0.0,36.2000007629,0.0018540609403712373,0.015189259446989964,0.003418668693411371,36.2000007629,0.0,0.015413912108520486,0.046880915507483835
1648219098752393079,63180,1,1,0.0334378667176,0.0146502861753,-0.029412554577,0.0,36.2000007629,0.01118323301591973,0.0048997612626421405,-0.009836974774916388,36.2000007629,0.0,0.016557084942936142,0.04688091490561134
1648219098752401142,63181,1,2,2.08484339714,-1.21890377998,0.332577139139,0.0,36.2000007629,0.6972720391772576,-0.407660127083612,0.11122981242107023,36.2000007629,0.0,1.0670348506260932,2.437807615240725
1648219098752409691,63182,1,3,1.22711181641,-0.843856453896,-0.180750772357,-0.566431701183,36.2000007629,0.4104052897692307,-0.28222623876120395,-0.06045176333010033,36.2000007629,-0.07654482448418919,0.6453810142748456,1.5001893102080928
1648219098752411479,63183,1,4,1.09229314327,-0.807230770588,-0.0603413060308,-0.0809188112617,36.2000007629,0.36531543253177257,-0.2699768463505016,-0.020181038806287622,36.2000007629,-0.010934974494824324,0.5829221457940283,1.3595465792065586
1648219098947608693,63184,3,0,0.00546696037054,0.0454158857465,0.0102630360052,0.0,14.6999998093,0.0018284148396454846,0.015189259446989964,0.0034324535134448156,14.6999998093,0.0,0.015407783883467653,0.046880915540081204
1648219098947610771,63185,3,1,0.0334378667176,0.0146502861753,-0.029412554577,0.0,14.6999998093,0.01118323301591973,0.0048997612626421405,-0.009836974774916388,14.6999998093,0.0,0.016557084942936142,0.04688091490561134
1648219098947613104,63186,3,2,2.09281206131,-1.21890377998,0.278060644865,0.0,14.6999998093,0.6999371442508361,-0.407660127083612,0.09299687119230768,14.6999998093,0.0,1.0705189353850113,2.437807718224898
1648219098947614184,63187,3,3,0.940252006054,-0.83067125082,0.167697682977,-0.404594063759,14.6999998093,0.314465553864214,-0.2778164718461538,0.05608618159765886,14.6999998093,-0.05467487348094594,0.5243654843363534,1.265784766341928
1648219098947615399,63188,3,4,1.01883792877,-0.849716603756,0.2971829772,-0.404594063759,14.6999998093,0.3407484711605351,-0.28418615510234113,0.09939230006688962,14.6999998093,-0.05467487348094594,0.5594468803633961,1.3595465250356202
1648219098947617546,63189,3,5,2.18461441994,-0.805765748024,-0.269725739956,-0.242756426334,14.6999998093,0.7306402742274247,-0.26948687224882945,-0.09020927757725752,14.6999998093,-0.03280492247756756,1.0678453047893735,2.3440457715866536
1648219098947618659,63190,3,6,1.22839403152,-0.77207005024,0.0840293690562,-0.161837622523,14.6999998093,0.41083412425418053,-0.25821740810702337,0.02810346791177257,14.6999998093,-0.021869948989594594,0.6358031025033678,1.4533082928324388
1648219099052620892,63191,4,0,0.00554364221171,0.0454158857465,0.0102218193933,0.0,22.0,0.0018540609403712373,0.015189259446989964,0.003418668693411371,22.0,0.0,0.015413912108520486,0.046880915507483835
1648219099052624457,63192,4,1,0.0334378667176,0.0146502861753,-0.029412554577,0.0,22.0,0.01118323301591973,0.0048997612626421405,-0.009836974774916388,22.0,0.0,0.016557084942936142,0.04688091490561134
1648219099052626651,63193,4,2,0.956080794334,1.50311934948,0.0139436814934,0.0,22.0,0.3197594629879598,0.5027155014983277,0.004663438626555184,22.0,0.0,0.676176828786237,1.7814748637937894
1648219099052910127,63194,4,3,2.14078330994,-1.14272224903,0.232676103711,0.0,22.0,0.7159810401137124,-0.3821813541906354,0.07781809488662207,22.0,0.0,1.0822755134879543,2.4378075165574447
1648219099052998478,63195,4,4,1.23001074791,-0.35893201828,1.02497375011,0.404594063759,22.0,0.41137483207692305,-0.120044153270903,0.3428005853210702,22.0,0.05467487348094594,0.5940278643861425,1.640832051775936
1648219099053016992,63196,4,5,0.937024712563,-0.68563336134,0.370969086885,-0.404594063759,22.0,0.31338619149264213,-0.2293088165016722,0.12406992872408026,22.0,-0.05467487348094594,0.49900335005080226,1.2189038032430821
1648219099053037532,63197,4,6,1.05500364304,-0.849716603756,-0.115394085646,-0.323675245047,22.0,0.35284402777257523,-0.28418615510234113,-0.03859333968093645,22.0,-0.04373989797932432,0.5742469735413497,1.3595465378310443
1648219099053074295,63198,4,7,1.25826895237,-0.726654171944,0.0289472714067,-0.161837622523,22.0,0.42082573657859523,-0.24302815115183943,0.009681361674481605,22.0,-0.021869948989594594,0.6428462361919184,1.4533082902893697
1648219099247558946,63199,6,0,0.00544372200966,0.0454158857465,0.0102753806859,0.0,22.7999992371,0.0018206428125953176,0.015189259446989964,0.003436582169197324,22.7999992371,0.0,0.01540594310810227,0.04688091547418592
1648219099247743068,63200,6,1,0.033385772258,0.0146502861753,-0.0294716712087,0.0,22.7999992371,0.01116581011973244,0.0048997612626421405,-0.009856746223645484,22.7999992371,0.0,0.016533550486532746,0.04688091379351458
1648219099247747656,63201,6,2,1.03316009045,1.44744825363,0.105482295156,0.0,22.7999992371,0.34553849178929763,0.484096405896321,0.035278359583946484,22.7999992371,0.0,0.6878539298555912,1.7814748760581964
1648219099247849595,63202,6,3,1.37819683552,-1.19985842705,0.0616273358464,0.242756426334,22.7999992371,0.4609353964949833,-0.40129044382943135,0.02061114911250836,22.7999992371,0.03280492247756756,0.765478216406448,1.828355734238763
1648219099247852803,63203,6,4,0.929145276546,-0.632892370224,0.0456156469882,-0.566431701183,22.7999992371,0.3107509286107023,-0.21166968903812708,0.01525606922682274,22.7999992371,-0.07654482448418919,0.4877871836388539,1.125141984136068
1648219099247854084,63204,6,5,1.03106820583,-0.609451889992,0.226259618998,-0.485512852669,22.7999992371,0.34483886482608694,-0.20383006354247488,0.07567211337725753,22.7999992371,-0.06560984495527027,0.528558776478849,1.2189038790968862
1648219099247859759,63205,6,6,0.954892456532,-0.527410328388,0.275614261627,-0.323675245047,22.7999992371,0.3193620255959866,-0.1763914141765886,0.09217868281839464,22.7999992371,-0.04373989797932432,0.4848691965682704,1.1251419818157404
1648219099547697891,63206,9,0,0.00558340921998,0.0454158857465,0.0102001521736,0.0,36.2000007629,0.0018673609431371235,0.015189259446989964,0.0034114221316387957,36.2000007629,0.0,0.01541712282924028,0.04688091553096522
1648219099547821889,63207,9,1,0.0334378667176,0.0146502861753,-0.029412554577,0.0,36.2000007629,0.01118323301591973,0.0048997612626421405,-0.009836974774916388,36.2000007629,0.0,0.016557084942936142,0.04688091490561134
1648219099547827087,63208,9,2,2.07018303871,-1.19546329975,-0.0417107790709,0.0,36.2000007629,0.6923689092675586,-0.39982050158862875,-0.013950093334749163,36.2000007629,0.0,1.0576416437202538,2.3909266203508692
1648219099547828718,63209,9,3,2.03347373009,-1.19546329975,0.390361040831,0.242756426334,36.2000007629,0.6800915485250835,-0.39982050158862875,0.13055553205050166,36.2000007629,0.03280492247756756,1.0415879522349876,2.3909265263102415
1648219099547887240,63210,9,4,0.895779311657,-0.373582273722,-2.1850733757,0.242756426334,36.2000007629,0.29959174302909697,-0.12494390425484948,-0.7307937711371237,36.2000007629,0.03280492247756756,0.4417254851068364,2.390926587669513
1648219099547889446,63211,9,5,1.00175142288,-0.235869601369,0.321723967791,-0.242756426334,36.2000007629,0.33503392069565213,-0.07888615430401337,0.10759998922775918,36.2000007629,-0.03280492247756756,0.4803316368659029,1.0782609579982296
1648219099652571168,63212,10,0,0.00552072422579,0.0454158857465,0.0102342152968,0.0,41.2000007629,0.0018463960621371235,0.015189259446989964,0.0034228144805351166,41.2000007629,0.0,0.015412071871897198,0.04688091548655616
1648219099652579164,63213,10,1,0.033385772258,0.0146502861753,-0.0294716712087,0.0,41.2000007629,0.01116581011973244,0.0048997612626421405,-0.009856746223645484,41.2000007629,0.0,0.016533550486532746,0.04688091379351458
1648219099652595848,63214,10,2,2.07047843933,-1.19546329975,-0.0227209925652,0.0,41.2000007629,0.6924677054615384,-0.39982050158862875,-0.00759899416896321,41.2000007629,0.0,1.057770995870523,2.390926538453806
1648219099652599908,63215,10,3,2.14971971512,-1.04603040218,0.0324824154377,0.242756426334,41.2000007629,0.7189698043879598,-0.34984294387290965,0.010863684092876254,41.2000007629,0.03280492247756756,1.0752791473012886,2.3909265072714248
1648219099652614051,63216,10,4,1.01897108555,-0.480529397726,1.55734562874,0.323675245047,41.2000007629,0.3407930052006689,-0.16071217315250835,0.5208513808494983,41.2000007629,0.04373989797932432,0.5080434502941733,1.9221175777307287
1648219099652627611,63217,10,5,1.28393208981,1.7902649641,0.0381370186806,-0.647350490093,41.2000007629,0.42940872568896316,0.5987508241137123,0.012754855746020066,41.2000007629,-0.08747979595851352,0.852810797757913,2.2034029783772398
1648219099652630049,63218,10,6,2.14989519119,-0.481994390488,-0.0248394012451,-0.647350490093,41.2000007629,0.7190284920367893,-0.1612021372869565,-0.008307492055217391,41.2000007629,-0.08747979595851352,1.0295581934923743,2.203403031998005
1648219099652631216,63219,10,7,1.40053844452,-0.0879017189145,-0.0938284322619,-0.566431701183,41.2000007629,0.46840750652842805,-0.02939856819882943,-0.031380746575886284,41.2000007629,-0.07654482448418919,0.66308028183358,1.406427538647957
1648219099652742507,63220,10,8,0.982035338879,-0.161153152585,0.270889699459,-0.242756426334,41.2000007629,0.3284399126685618,-0.05389737544648829,0.09059856169197324,41.2000007629,-0.03280492247756756,0.4676007694042908,1.0313801310226332
1648219099847548040,63221,12,0,0.00548036815599,0.0454158857465,0.0102558825165,0.0,39.4000015259,0.0018328990488260866,0.015189259446989964,0.003430061042307692,39.4000015259,0.0,0.015408849418251483,0.0468809155142749
1648219099847559590,63222,12,1,0.033385772258,0.0146502861753,-0.0294716712087,0.0,39.4000015259,0.01116581011973244,0.0048997612626421405,-0.009856746223645484,39.4000015259,0.0,0.016533550486532746,0.04688091379351458
1648219099847564823,63223,12,2,0.920289576054,0.061531201005,0.344266861677,0.0,39.4000015259,0.307789155870903,0.020578996991638794,0.11513941862107022,39.4000015259,0.0,0.4357657903744028,0.9844991947887511
1648219099847724567,63224,12,3,2.09784317017,-1.21890377998,0.237136736512,0.0,39.4000015259,0.701619789354515,-0.407660127083612,0.07930994532173913,39.4000015259,0.0,1.0727196450338619,2.4378076674097997
1648219099847729593,63225,12,4,1.17638516426,-0.155293032527,-2.18304347992,0.485512852669,39.4000015259,0.3934398542675585,-0.051937469072575244,-0.7301148762274247,39.4000015259,0.06560984495527027,0.5588267518165357,2.4846884746107873
1648219099847836810,63226,12,5,0.569210469723,-1.75803434849,-0.319103777409,-0.647350490093,39.4000015259,0.1903713945561873,-0.5879713540100334,-0.10672367137424747,39.4000015259,-0.08747979595851352,0.6466783194656577,1.8752366650824717
1648219099847840644,63227,12,6,0.936260044575,-0.0,0.0504504367709,-0.161837622523,39.4000015259,0.3131304496906354,-0.0,0.016873055776220735,39.4000015259,-0.021869948989594594,0.4428333287444827,0.9376183219401996
1648219099950330167,63228,13,0,0.00548036815599,0.0454158857465,0.0102558825165,0.0,35.7999992371,0.0018328990488260866,0.015189259446989964,0.003430061042307692,35.7999992371,0.0,0.015408849418251483,0.0468809155142749
1648219099950380743,63229,13,1,0.0335209183395,0.0146502861753,-0.0293178688735,0.0,35.7999992371,0.011211009478093645,0.0048997612626421405,-0.009805307315551839,35.7999992371,0.0,0.016594611398484137,0.04688091601734499
1648219099950450199,63230,13,2,0.876325547695,0.111342176795,0.114322543144,0.0,35.7999992371,0.29308546745652175,0.037238186219063545,0.038234964262207356,35.7999992371,0.0,0.41615485697189863,0.8907374415321849
1648219099950465943,63231,13,3,2.09957170486,-1.21890377998,0.221309661865,0.0,35.7999992371,0.7021978946020068,-0.407660127083612,0.07401660931939799,35.7999992371,0.0,1.0734759175597788,2.4378075672893176
1648219099950472565,63232,13,4,0.9312672019,0.153827995062,0.279851913452,0.161837622523,35.7999992371,0.3114606026421404,0.05144748998729097,0.09359595767625417,35.7999992371,0.021869948989594594,0.4434661861093842,0.9844992365980767
1648219099950523871,63233,13,5,0.864154279232,-1.86937654018,0.116828657687,0.485512852669,35.7999992371,0.2890148091076923,-0.6252095452107023,0.03907312966120401,35.7999992371,0.06560984495527027,0.7469578938532512,2.0627603357024467
1648219099950618167,63234,13,6,0.525748074055,-1.26578474045,-2.12843179703,0.485512852669,35.7999992371,0.17583547627257523,-0.42333937807692307,-0.7118500993411372,35.7999992371,0.06560984495527027,0.49097093443763323,2.5315694659908052
1648219099950621568,63235,13,7,1.34425580502,-2.13601183891,0.198175415397,0.485512852669,35.7999992371,0.4495838812775919,-0.7143852304046823,0.06627940314280936,35.7999992371,0.06560984495527027,0.9563459572924426,2.5315694224258243
1648219100052649317,63236,14,0,0.00546696037054,0.0454158857465,0.0102630360052,0.0,11.6000003815,0.0018284148396454846,0.015189259446989964,0.0034324535134448156,11.6000003815,0.0,0.015407783883467653,0.046880915540081204
1648219100052671912,63237,14,1,0.0334694497287,0.0146502861753,-0.0293766111135,0.0,11.6000003815,0.011193795895886286,0.0048997612626421405,-0.009824953549665552,11.6000003815,0.0,0.016571354608130556,0.04688091542060558
1648219100052688230,63238,14,2,2.10158729553,-1.21890377998,0.201272845268,0.0,11.6000003815,0.7028720051939799,-0.407660127083612,0.06731533286555183,11.6000003815,0.0,1.0743578968782417,2.4378076921334273
1648219100052700222,63239,14,3,0.898215532303,0.234404578805,0.131876289845,0.0809188112617,11.6000003815,0.30040653254280936,0.07839618020234114,0.04410578255685618,11.6000003815,0.010934974494824324,0.43201172514077196,0.9376182617986883
1648219100052701999,63240,14,4,0.932839930058,0.225614413619,0.37769395113,0.242756426334,11.6000003815,0.31198659868160533,0.07545632562508361,0.1263190472006689,11.6000003815,0.03280492247756756,0.4476214165907087,1.0313801042600397
1648219100052719586,63241,14,5,1.34532260895,-1.68478286266,0.0469120107591,0.485512852669,11.6000003815,0.4499406718896321,-0.5634725293177257,0.015689635705384616,11.6000003815,0.06560984495527027,0.8499379434621698,2.1565219575089705
1648219100052724740,63242,14,6,1.03580856323,-0.966918945312,-2.1541993618,0.485512852669,11.6000003815,0.346424268638796,-0.32338426264615383,-0.720468013979933,11.6000003815,0.06560984495527027,0.5870237892377497,2.5784504100027585
1648219100052731008,63243,14,7,2.34077310562,1.04749548435,0.268218010664,0.485512852669,11.6000003815,0.7828672594046822,0.35033293790969894,0.0897050202889632,11.6000003815,0.06560984495527027,1.161247372044405,2.578450391799713
1648219100052839973,63244,14,8,1.27147817612,-1.64815723896,0.342793375254,0.566431701183,11.6000003815,0.4252435371638796,-0.5512231568428093,0.11464661379732441,11.6000003815,0.07654482448418919,0.8157886371107703,2.1096412810721454
1648219100052849073,63245,14,9,2.0921459198,0.263705164194,0.0630162209272,0.566431701183,11.6000003815,0.6997143544481605,0.0881957070882943,0.021075659172976585,11.6000003815,0.07654482448418919,0.993468086246567,2.109641203488953
1648219100247801760,63246,16,0,0.00550753669813,0.0454158857465,0.0102413184941,0.0,24.0,0.0018419855177692307,0.015189259446989964,0.00342519013180602,24.0,0.0,0.015411016314419924,0.04688091555332495
1648219100247814131,63247,16,1,0.0335209183395,0.0146502861753,-0.0293178688735,0.0,24.0,0.011211009478093645,0.0048997612626421405,-0.009805307315551839,24.0,0.0,0.016594611398484137,0.04688091601734499
1648219100247930150,63248,16,2,2.10425233841,-1.21890377998,0.171177685261,0.0,24.0,0.703763323882943,-0.407660127083612,0.05725006196020066,24.0,0.0,1.0755242495171196,2.437807647966672
1648219100247932844,63249,16,3,0.94515901804,0.438043534756,0.278278768063,0.404594063759,24.0,0.3161066949966555,0.1465028544334448,0.09306982209464883,24.0,0.05467487348094594,0.470435937828483,1.0782609983109512
1648219100247982436,63250,16,4,0.829025149345,0.399952799082,0.349276006222,0.485512852669,24.0,0.27726593623578594,0.13376347795384613,0.1168147178,24.0,0.06560984495527027,0.4143011788876818,0.9844991966794168
1648219100247983558,63251,16,5,1.10832512379,0.668053030968,-2.33795595169,-0.566431701183,24.0,0.3706772989264214,0.22342910734715715,-0.7819250674548495,24.0,-0.07654482448418919,0.5698454929967619,2.6722120919291465
1648219100247984623,63252,16,6,1.96383631229,1.75363922119,0.456961333752,-0.566431701183,24.0,0.6568014422374582,0.5865014117692308,0.1528298775090301,24.0,-0.07654482448418919,1.098526365208278,2.6722120499894957
1648219100352602194,63253,17,0,0.00550753669813,0.0454158857465,0.0102413184941,0.0,13.8999996185,0.0018419855177692307,0.015189259446989964,0.00342519013180602,13.8999996185,0.0,0.015411016314419924,0.04688091555332495
1648219100352760598,63254,17,1,0.0333998277783,0.0146502861753,-0.0294557418674,0.0,13.8999996185,0.01117051096264214,0.0048997612626421405,-0.009851418684749163,13.8999996185,0.0,0.016539899962330636,0.0468809141292828
1648219100352764124,63255,17,2,0.770959615707,1.65694737434,-0.0550568066537,0.0,13.8999996185,0.2578460253200669,0.554163001451505,-0.018413647710267555,13.8999996185,0.0,0.6633745380435202,1.8283557045449905
1648219100352767467,63256,17,3,2.10313606262,-1.21890377998,0.184385597706,0.0,13.8999996185,0.7033899874983277,-0.407660127083612,0.06166742398193979,13.8999996185,0.0,1.0750356869609594,2.4378075747244052
1648219100352908669,63257,17,4,0.93540763855,0.562570989132,0.272893548012,0.566431701183,13.8999996185,0.31284536406354513,0.1881508324856187,0.09126874515451504,13.8999996185,0.07654482448418919,0.4807756019154212,1.1251419717605518
1648219100352913060,63258,17,5,2.03835463524,1.8151705265,0.448194473982,-0.485512852669,13.8999996185,0.6817239582742475,0.6070804436454849,0.14989781738528427,13.8999996185,-0.06560984495527027,1.1393163632753698,2.7659739597087105
1648219100352914144,63259,17,6,1.62735426426,0.864366889,-2.06281375885,-0.485512852669,13.8999996185,0.5442656402207358,0.2890859160535117,-0.689904267173913,13.8999996185,-0.06560984495527027,0.8222048656571382,2.7659740822910126
1648219100547660439,63260,19,0,0.00554364221171,0.0454158857465,0.0102218193933,0.0,12.3000001907,0.0018540609403712373,0.015189259446989964,0.003418668693411371,12.3000001907,0.0,0.015413912108520486,0.046880915507483835
1648219100547666470,63261,19,1,0.0334378667176,0.0146502861753,-0.029412554577,0.0,12.3000001907,0.01118323301591973,0.0048997612626421405,-0.009836974774916388,12.3000001907,0.0,0.016557084942936142,0.04688091490561134
1648219100547679792,63262,19,2,2.10491991043,-1.21890377998,0.162763983011,0.0,12.3000001907,0.7039865921170568,-0.407660127083612,0.05443611471939799,12.3000001907,0.0,1.0758164448338765,2.4378076971614835
1648219100547817253,63263,19,3,0.992666065693,0.75155967474,0.22799795866,0.323675245047,12.3000001907,0.3319953396966555,0.25135775074916383,0.07625349787959866,12.3000001907,0.04373989797932432,0.5325622311263485,1.2657847099040345
1648219100547820838,63264,19,4,0.869135439396,0.703213751316,0.126643195748,0.404594063759,12.3000001907,0.2906807489618729,0.23518854559063543,0.042355583862207356,12.3000001907,0.05467487348094594,0.4736076937836939,1.1251419870768602
1648219100652710303,63265,20,0,0.00548036815599,0.0454158857465,0.0102558825165,0.0,35.9000015259,0.0018328990488260866,0.015189259446989964,0.003430061042307692,35.9000015259,0.0,0.015408849418251483,0.0468809155142749
1648219100652718151,63266,20,1,0.033385772258,0.0146502861753,-0.0294716712087,0.0,35.9000015259,0.01116581011973244,0.0048997612626421405,-0.009856746223645484,35.9000015259,0.0,0.016533550486532746,0.04688091379351458
1648219100652719854,63267,20,2,2.10384488106,-1.21890377998,0.176114961505,0.0,35.9000015259,0.7036270505217391,-0.407660127083612,0.058901324918060195,35.9000015259,0.0,1.0753459125628697,2.4378076601893364
1648219100652721399,63268,20,3,0.946121573448,0.761814832687,0.101087138057,0.323675245047,35.9000015259,0.3164286198822742,0.2547875694605351,0.033808407376923075,35.9000015259,0.04373989797932432,0.5149474230567705,1.2189038028188262
1648219100652722394,63269,20,4,0.802855730057,0.842391490936,0.139416888356,0.485512852669,35.9000015259,0.2685136220926421,0.2817362845939799,0.04662772185819398,35.9000015259,0.06560984495527027,0.47283661507484853,1.172022958838949
