%time,field.header.seq,field.header.frame_id,field.point_id,field.x,field.y,field.z,field.velocity,field.intensity,normalized_x,normalized_y,normalized_z,normalized_intensity,normalized_velocity,normalized_range,range
1648125481684631511,26065,0,0,0.0126664573327,0.0439508594573,0.010281198658,0.0,20.7000007629,0.00423627335541806,0.014699284099431437,0.003438527979264214,20.7000007629,0.0,0.015873278707294467,0.0468809154586566
1648125481684638228,26066,0,1,0.0328392535448,0.0146502861753,-0.0300794392824,0.0,20.7000007629,0.010983027941404683,0.0048997612626421405,-0.01006001313792642,20.7000007629,0.0,0.016286849479080982,0.04688091430359943
1648125481684642719,26067,0,2,0.717457473278,-0.843856453896,0.197751238942,0.0,20.7000007629,0.23995233219999998,-0.28222623876120395,0.06613753810769231,20.7000007629,0.0,0.44136820603860266,1.125141988038612
1648125481684650714,26068,0,3,0.96000957489,-0.892202436924,0.361556768417,0.0,20.7000007629,0.3210734364180602,-0.2983954638541806,0.12092199612608695,20.7000007629,0.0,0.543337975845013,1.3595465674708413
1648125481684680658,26069,0,4,2.42258548737,-0.902457654476,0.457181066275,0.0,20.7000007629,0.8102292599899665,-0.30182530250033446,0.15290336664715717,20.7000007629,0.0,1.184922537855195,2.6253313674845717
1648125481789696212,26070,1,0,0.0126767531037,0.0439508594573,0.0102685010061,0.0,14.1000003815,0.004239716757090301,0.014699284099431437,0.0034342812729431437,14.1000003815,0.0,0.01587511730339346,0.04688091540488284
1648125481789699780,26071,1,1,0.0328392535448,0.0146502861753,-0.0300794392824,0.0,14.1000003815,0.010983027941404683,0.0048997612626421405,-0.01006001313792642,14.1000003815,0.0,0.016286849479080982,0.04688091430359943
1648125481789702411,26072,1,2,0.915390849113,-0.892202436924,0.463034898043,0.0,14.1000003815,0.3061507856565217,-0.2983954638541806,0.15486116991404683,14.1000003815,0.0,0.5258293068715004,1.3595465832028835
1648125481789708941,26073,1,3,2.42513227463,-0.902457654476,0.443473577499,0.0,14.1000003815,0.8110810283043478,-0.30182530250033446,0.14831892224046822,14.1000003815,0.0,1.1860874260272278,2.6253314422209937
1648125481789716394,26074,1,4,0.916364848614,-0.799905598164,-0.0784408301115,0.0809188112617,14.1000003815,0.3064765379979933,-0.26752695590769227,-0.026234391341638796,14.1000003815,0.010934974494824324,0.5093391883840347,1.218903796687026
1648125481789729462,26075,1,5,0.718084335327,-0.843856453896,0.195462748408,-0.0809188112617,14.1000003815,0.2401619850591973,-0.28222623876120395,0.06537215665819397,14.1000003815,-0.010934974494824324,0.4415962046716936,1.1251419970115595
1648125481984819529,26076,3,0,0.0126664573327,0.0439508594573,0.010281198658,0.0,24.2000007629,0.00423627335541806,0.014699284099431437,0.003438527979264214,24.2000007629,0.0,0.015873278707294467,0.0468809154586566
1648125481984825139,26077,3,1,0.0328392535448,0.0146502861753,-0.0300794392824,0.0,24.2000007629,0.010983027941404683,0.0048997612626421405,-0.01006001313792642,24.2000007629,0.0,0.016286849479080982,0.04688091430359943
1648125481984828476,26078,3,2,0.524234294891,-1.53828001022,0.226280704141,0.0,24.2000007629,0.17532919561571905,-0.51447491980602,0.07567916526454849,24.2000007629,0.0,0.5711086558439828,1.640832088560208
1648125481984905969,26079,3,3,2.42226457596,-0.902457654476,0.458878755569,0.0,24.2000007629,0.8101219317591972,-0.30182530250033446,0.15347115570869563,24.2000007629,0.0,1.1847757601605147,2.6253314469578037
1648125481984933878,26080,3,4,1.0870796442,-0.76474493742,0.285989522934,0.0809188112617,24.2000007629,0.3635717873578595,-0.2557675375986622,0.09564866987759196,24.2000007629,0.010934974494824324,0.5742699038034819,1.3595466080173695
1648125481984952611,26081,3,5,0.674691021442,-1.14711737633,0.277993828058,-0.323675245047,24.2000007629,0.2256491710508361,-0.3836512964314381,0.0929745244341137,24.2000007629,-0.04373989797932432,0.49902245845791565,1.3595465486444416
1648125481984957752,26082,3,6,0.720096826553,-0.775000095367,0.208523750305,-0.161837622523,24.2000007629,0.24083505904782607,-0.25919735631003343,0.0697403847173913,24.2000007629,-0.021869948989594594,0.42800271126623735,1.0782609804086498
1648125482089768746,26083,4,0,0.0125987837091,0.0439508594573,0.010364016518,0.0,37.7999992371,0.0042136400364882936,0.014699284099431437,0.003466226260200669,37.7999992371,0.0,0.0158612256068058,0.046880915481349095
1648125482089922718,26084,4,1,0.0328392535448,0.0146502861753,-0.0300794392824,0.0,37.7999992371,0.010983027941404683,0.0048997612626421405,-0.01006001313792642,37.7999992371,0.0,0.016286849479080982,0.04688091430359943
1648125482089928670,26085,4,2,0.977716743946,-0.723724126816,-0.0775880366564,0.0,37.7999992371,0.32699556653712375,-0.24204820294849494,-0.025949176139264212,37.7999992371,0.0,0.5219574059446468,1.2189038299062582
1648125482089936069,26086,4,3,2.42041802406,-0.902457654476,0.468520432711,0.0,37.7999992371,0.8095043558729096,-0.30182530250033446,0.15669579689331103,37.7999992371,0.0,1.1839312131977293,2.6253313362668225
1648125482089941259,26087,4,4,1.07696306705,-0.835066318512,0.347639322281,0.0809188112617,37.7999992371,0.3601883167391304,-0.2792863941511705,0.11626733186655516,37.7999992371,0.010934974494824324,0.5809235207742058,1.4064274963534098
1648125482089943924,26088,4,5,0.608796060085,-1.06800591946,0.301565378904,-0.404594063759,37.7999992371,0.20361072243645484,-0.35719261520401335,0.10085798625551838,37.7999992371,-0.05467487348094594,0.45880411608710797,1.265784722822223
1648125482089948704,26089,4,6,0.744667351246,-0.741304457188,0.242043316364,-0.161837622523,37.7999992371,0.2490526258347826,-0.24792791210301002,0.08095094192775919,37.7999992371,-0.021869948989594594,0.4307234268880186,1.0782609745581133
1648125482284866516,26090,6,0,0.0126767531037,0.0439508594573,0.0102685010061,0.0,42.2999992371,0.004239716757090301,0.014699284099431437,0.0034342812729431437,42.2999992371,0.0,0.01587511730339346,0.04688091540488284
1648125482285054317,26091,6,1,0.0328392535448,0.0146502861753,-0.0300794392824,0.0,42.2999992371,0.010983027941404683,0.0048997612626421405,-0.01006001313792642,42.2999992371,0.0,0.016286849479080982,0.04688091430359943
1648125482285057986,26092,6,2,0.803385317326,-0.612381994724,0.208099290729,0.0,42.2999992371,0.268690741580602,-0.20481003168026754,0.06959842499297658,42.2999992371,0.0,0.4316672078107624,1.03138013862933
1648125482285058987,26093,6,3,2.41434669495,-0.902457654476,0.498864471912,0.0,42.2999992371,0.8074738110200668,-0.30182530250033446,0.16684430498729097,42.2999992371,0.0,1.1811546995190594,2.625331511042815
1648125482285062425,26094,6,4,1.20734596252,-0.594801604748,0.192077293992,0.404594063759,42.2999992371,0.4037946362943144,-0.19893030259130434,0.06423989765618729,42.2999992371,0.05467487348094594,0.6047094193818906,1.3595465821704786
1648125482285092968,26095,6,5,1.46694612503,-1.20132350922,0.315319925547,0.566431701183,42.2999992371,0.4906174331204013,-0.40178043786622075,0.10545816907926421,42.2999992371,0.07654482448418919,0.8017720696153459,1.9221175205986116
1648125482285100120,26096,6,6,1.74941837788,-1.30827057362,0.288007080555,-0.566431701183,42.2999992371,0.5850897584882943,-0.4375486868294314,0.09632343831270902,42.2999992371,-0.07654482448418919,0.9360068933089867,2.20340296657559
1648125482389772874,26097,7,0,0.0126866931096,0.0439508594573,0.0102562177926,0.0,18.7999992371,0.004243041173779264,0.014699284099431437,0.0034301731747826084,18.7999992371,0.0,0.015876893582831942,0.04688091544009944
1648125482389896719,26098,7,1,0.0328392535448,0.0146502861753,-0.0300794392824,0.0,18.7999992371,0.010983027941404683,0.0048997612626421405,-0.01006001313792642,18.7999992371,0.0,0.016286849479080982,0.04688091430359943
1648125482389904408,26099,7,2,2.41090369225,-0.902457654476,0.515246629715,0.0,18.7999992371,0.8063223051003343,-0.30182530250033446,0.17232328753010032,18.7999992371,0.0,1.179580362940165,2.625331506850072
1648125482389915725,26100,7,3,0.906226754189,-0.5391305089,0.225251272321,0.0809188112617,18.7999992371,0.3030858709662207,-0.18031120698996655,0.07533487368595318,18.7999992371,0.010934974494824324,0.46500991572748607,1.0782609940626307
1648125482389921936,26101,7,4,1.2370582819,-1.2804350853,0.0618505813181,0.161837622523,18.7999992371,0.41373186685618724,-0.42823915896321063,0.020685813149866217,18.7999992371,0.021869948989594594,0.7250771631861879,1.7814748650749987
1648125482389941039,26102,7,5,1.56191897392,-1.16909277439,0.265680044889,0.323675245047,18.7999992371,0.5223809277324414,-0.39100092788963203,0.08885620230401337,18.7999992371,0.04373989797932432,0.8358501019487677,1.9689983957521229
1648125482389945186,26103,7,6,1.30074453354,-0.527410328388,-0.0891087502241,0.404594063759,18.7999992371,0.4350316165685619,-0.1763914141765886,-0.029802257600033445,18.7999992371,0.05467487348094594,0.6400148012536345,1.4064275187122268
1648125482389948463,26104,7,7,0.852019250393,-0.769140064716,0.236906126142,-0.242756426334,18.7999992371,0.28495627103444815,-0.2572374798381271,0.0792328181076923,18.7999992371,-0.03280492247756756,0.47809128190878636,1.1720229327087381
1648125482390033841,26105,7,8,0.929531037807,-0.69735366106,0.610541641712,-0.0809188112617,18.7999992371,0.31087994575484945,-0.23322864918394645,0.20419452900066887,18.7999992371,-0.010934974494824324,0.49768291526356884,1.312665675297685
1648125482584932870,26106,9,0,0.0125987837091,0.0439508594573,0.010364016518,0.0,15.1999998093,0.0042136400364882936,0.014699284099431437,0.003466226260200669,15.1999998093,0.0,0.0158612256068058,0.046880915481349095
1648125482584939732,26107,9,1,0.0328392535448,0.0146502861753,-0.0300794392824,0.0,15.1999998093,0.010983027941404683,0.0048997612626421405,-0.01006001313792642,15.1999998093,0.0,0.016286849479080982,0.04688091430359943
1648125482585048120,26108,9,2,1.27849447727,-1.22476398945,0.197630405426,0.0809188112617,15.1999998093,0.4275901261772575,-0.409620063361204,0.06609712556053511,15.1999998093,0.010934974494824324,0.7303801943622258,1.7814748764471013
1648125482585051230,26109,9,3,0.904934465885,-0.50543487072,0.297112613916,-0.0809188112617,15.1999998093,0.3026536675200669,-0.16904176278260868,0.09936876719598663,15.1999998093,-0.010934974494824324,0.4601886596726892,1.0782609616573862
1648125482689951720,26110,10,0,0.0126767531037,0.0439508594573,0.0102685010061,0.0,40.0999984741,0.004239716757090301,0.014699284099431437,0.0034342812729431437,40.0999984741,0.0,0.01587511730339346,0.04688091540488284
1648125482689955721,26111,10,1,0.0328392535448,0.0146502861753,-0.0300794392824,0.0,40.0999984741,0.010983027941404683,0.0048997612626421405,-0.01006001313792642,40.0999984741,0.0,0.016286849479080982,0.04688091430359943
1648125482689965736,26112,10,2,0.284783005714,-1.58955609798,0.290757536888,0.0,40.0999984741,0.09524515241270902,-0.5316241130367892,0.09724332337391303,40.0999984741,0.0,0.5484227162311872,1.640832073743709
1648125482689968000,26113,10,3,1.69172799587,-1.50751447678,0.377389609814,0.0,40.0999984741,0.5657953163444815,-0.5041854437391304,0.12621726080735785,40.0999984741,0.0,0.9457545356344467,2.2971648672455283
1648125482689974173,26114,10,4,1.50437891483,1.65108728409,-0.536396801472,0.0,40.0999984741,0.503136760812709,0.5522031050468227,-0.17939692356923076,40.0999984741,0.0,0.9006783384680475,2.2971649195689396
1648125482689981476,26115,10,5,1.12197518349,-0.329631447792,0.07843773067,0.0809188112617,40.0999984741,0.3752425362842809,-0.11024463136856186,0.02623335473913043,40.0999984741,0.010934974494824324,0.5420035062799039,1.1720229013690513
1648125482690132023,26116,10,6,0.497160226107,0.109877154231,-1.05564975739,0.0809188112617,40.0999984741,0.166274323112709,0.0367482121173913,-0.3530601195284281,40.0999984741,0.010934974494824324,0.23800153811898758,1.1720229049477797
1648125482690135817,26117,10,7,1.12999260426,-1.33610606194,0.334050744772,0.0809188112617,40.0999984741,0.3779239479130434,-0.4468582146956522,0.11172265711438126,40.0999984741,0.010934974494824324,0.6966600927664417,1.781474836902795
1648125482690145712,26118,10,8,0.851998090744,-0.50543487072,0.425771713257,-0.242756426334,40.0999984741,0.2849491942287625,-0.16904176278260868,0.14239856630668896,40.0999984741,-0.03280492247756756,0.4369979452444757,1.0782609642294232
1648125482690176770,26119,10,9,1.39757764339,-0.363327085972,0.16393700242,-0.161837622523,40.0999984741,0.4674172720367893,-0.12151407557591971,0.05482842890301003,40.0999984741,-0.021869948989594594,0.6721037739513878,1.4533083573236982
1648125482690609071,26120,10,10,0.92338681221,-0.41899818182,-0.188526704907,-0.0809188112617,40.0999984741,0.30882502080602003,-0.14013317117725752,-0.06305240966789297,40.0999984741,-0.010934974494824324,0.45867536735241404,1.0313801432037086
1648125482789225026,26121,11,0,0.0126564446837,0.0439508594573,0.0102935219184,0.0,23.0,0.004232924643377926,0.014699284099431437,0.003442649471036789,23.0,0.0,0.015871491899277463,0.04688091544062974
1648125482789226094,26122,11,1,0.0329270213842,0.0146502861753,-0.0299833361059,0.0,23.0,0.011012381733846152,0.0048997612626421405,-0.010027871607324414,23.0,0.0,0.016326443683018825,0.04688091366743098
1648125482789227137,26123,11,2,0.264986723661,-1.58955609798,0.308906704187,0.0,23.0,0.08862432229464882,-0.5316241130367892,0.10331327899230769,23.0,0.0,0.5461984424790357,1.640832076793256
1648125482789228134,26124,11,3,1.25502836704,-1.22476398945,0.313862591982,0.0809188112617,23.0,0.4197419287759197,-0.409620063361204,0.10497076654916387,23.0,0.010934974494824324,0.7212178380025658,1.7814748829478984
1648125482789229067,26125,11,4,0.902698755264,-0.471739202738,0.353898048401,-0.323675245047,23.0,0.3019059382153846,-0.15777230860802674,0.11836055130468226,23.0,-0.04373989797932432,0.4551774296062247,1.0782609827018204
1648125482789231851,26126,11,5,0.929629743099,-0.474669277668,0.716022729874,-0.323675245047,23.0,0.310912957558194,-0.1587522667785953,0.23947248490769227,23.0,-0.04373989797932432,0.46747835945903304,1.2657847100168294
1648125482789233491,26127,11,6,0.903012812138,-0.41899818182,0.269728332758,-0.242756426334,23.0,0.3020109739591973,-0.14013317117725752,0.09021014473511706,23.0,-0.03280492247756756,0.4495092462316659,1.0313801378474645
1648125482789234604,26128,11,7,0.952950894833,-0.386767566204,-0.077720284462,-0.0809188112617,23.0,0.3187126738571906,-0.1293537010715719,-0.025993406174581936,23.0,-0.010934974494824324,0.4689220798121085,1.031380143713866
1648125482889011155,26129,12,0,0.0126767531037,0.0439508594573,0.0102685010061,0.0,25.3999996185,0.004239716757090301,0.014699284099431437,0.0034342812729431437,25.3999996185,0.0,0.01587511730339346,0.04688091540488284
1648125482889021010,26130,12,1,0.0328392535448,0.0146502861753,-0.0300794392824,0.0,25.3999996185,0.010983027941404683,0.0048997612626421405,-0.01006001313792642,25.3999996185,0.0,0.016286849479080982,0.04688091430359943
1648125482889024105,26131,12,2,0.257988661528,-1.58955609798,0.314774781466,0.0,25.3999996185,0.0862838332869565,-0.5316241130367892,0.10527584664414716,25.3999996185,0.0,0.5454484369173088,1.640832075853401
1648125482889044969,26132,12,3,1.78450167179,-1.46502864361,0.404717087746,0.0,25.3999996185,0.5968233016020066,-0.489976134986622,0.13535688553377925,25.3999996185,0.0,0.9759470884872129,2.344045875048666
1648125482889142680,26133,12,4,1.31269824505,-1.1690928936,0.289306014776,0.161837622523,25.3999996185,0.4390295133946488,-0.3910009677591973,0.09675786447357858,25.3999996185,0.021869948989594594,0.7337408153099519,1.7814749076562773
1648125482889144942,26134,12,5,1.95827531815,-0.679773271084,-1.75969684124,0.566431701183,25.3999996185,0.6549415779765886,-0.22734892009498325,-0.5885273716521738,25.3999996185,0.07654482448418919,0.9537213810087739,2.719093027983
1648125482889146840,26135,12,6,1.20943129063,1.57490575314,0.347444593906,-0.485512852669,25.3999996185,0.404492070444816,0.5267243321538461,0.11620220531973244,25.3999996185,-0.06560984495527027,0.7776028499101474,2.015879441797779
1648125482889250464,26136,12,7,0.986914515495,-0.380907416344,0.605504572392,-0.404594063759,25.3999996185,0.330071744312709,-0.12739378473043478,0.202509890432107,25.3999996185,-0.05467487348094594,0.48386350262776906,1.2189038140510557
1648125482889257575,26137,12,8,0.783577144146,-0.417533159256,0.071316562593,-0.323675245047,25.3999996185,0.26206593449698995,-0.13964319707558526,0.023851693174916384,25.3999996185,-0.04373989797932432,0.39605218158350297,0.8907374091203192
1648125482889261108,26138,12,9,0.921143054962,-0.338421612978,0.0787717849016,-0.242756426334,25.3999996185,0.3080746003217391,-0.11318448594581938,0.026345078562408024,25.3999996185,-0.03280492247756756,0.4501451394668368,0.9844992178422192
1648125482989821205,26139,13,0,0.0126664573327,0.0439508594573,0.010281198658,0.0,41.5,0.00423627335541806,0.014699284099431437,0.003438527979264214,41.5,0.0,0.015873278707294467,0.0468809154586566
1648125482989844951,26140,13,1,0.0328392535448,0.0146502861753,-0.0300794392824,0.0,41.5,0.010983027941404683,0.0048997612626421405,-0.01006001313792642,41.5,0.0,0.016286849479080982,0.04688091430359943
1648125482989848675,26141,13,2,0.278986781836,-1.58955609798,0.296323597431,0.0,41.5,0.0933066159986622,-0.5316241130367892,0.09910488208394648,41.5,0.0,0.5477558276644772,1.6408320716816396
1648125482989853277,26142,13,3,1.85149478912,-1.31852579117,0.572719812393,0.0,41.5,0.6192290264615384,-0.44097852547491634,0.19154508775685616,41.5,0.0,0.9804852035370247,2.344045903907699
1648125482989875385,26143,13,4,0.605221033096,-0.742769479752,-1.55720436573,0.161837622523,41.5,0.20241506123612038,-0.24841788620468228,-0.5208041356956522,41.5,0.021869948989594594,0.3790186805644904,1.828355664415821
1648125482989961373,26144,13,5,1.09824502468,-1.25699448586,0.746128201485,0.161837622523,41.5,0.3673060283210702,-0.4203994935986622,0.24954120451003345,41.5,0.021869948989594594,0.6682538223609419,1.8283556997389923
1648125482989968235,26145,13,6,0.884426951408,-0.307655990124,0.303933292627,-0.404594063759,41.5,0.29579496702608693,-0.10289497997458194,0.10164993064448159,41.5,-0.05467487348094594,0.4307861440899618,0.9844992061973017
1648125482989972859,26146,13,7,0.978464007378,-0.293005734682,0.574798703194,-0.404594063759,41.5,0.3272454874173913,-0.09799522899063544,0.19224036896120397,41.5,-0.05467487348094594,0.47305632114476504,1.1720229193510925
1648125482989983771,26147,13,8,1.0660302639,-0.105482056737,0.344089388847,-0.0809188112617,41.5,0.35653186083612043,-0.035278279845150494,0.11508006315953177,41.5,-0.010934974494824324,0.5054448462605651,1.1251419889779573
1648125482989989007,26148,13,9,0.419695973396,0.24612480402,-1.0145059824,-0.0809188112617,41.5,0.1403665462862876,0.08231598796655518,-0.3392996596655518,41.5,-0.010934974494824324,0.21489871220552045,1.1251419988446296
1648125483089072874,26149,14,0,0.0126564446837,0.0439508594573,0.0102935219184,0.0,13.6999998093,0.004232924643377926,0.014699284099431437,0.003442649471036789,13.6999998093,0.0,0.015871491899277463,0.04688091544062974
1648125483089084208,26150,14,1,0.0328635908663,0.0146502861753,-0.0300528481603,0.0,13.6999998093,0.010991167513812709,0.0048997612626421405,-0.010051119786053511,13.6999998093,0.0,0.016297827679303527,0.046880914796874326
1648125483089101347,26151,14,2,0.287514269352,-1.58955609798,0.288057029247,0.0,13.6999998093,0.09615861851237456,-0.5316241130367892,0.09634014356086956,13.6999998093,0.0,0.5487414303572946,1.6408320742248506
1648125483089193928,26152,14,3,1.87763500214,-1.31852579117,0.480133235455,0.0,13.6999998093,0.6279715726220735,-0.44097852547491634,0.16057967740969897,13.6999998093,0.0,0.9915435703855436,2.344045943882124
1648125483089197302,26153,14,4,1.10381424427,0.212429150939,-0.76474493742,0.0809188112617,13.6999998093,0.3691686435685619,0.07104653877558528,-0.2557675375986622,13.6999998093,0.010934974494824324,0.5268952319583985,1.3595465601926016
1648125483089201436,26154,14,5,0.772225022316,-0.263705134392,0.214992642403,-0.485512852669,13.6999998093,0.2582692382327759,-0.08819569712107023,0.07190389378026756,13.6999998093,-0.06560984495527027,0.37574523260495035,0.8438564565630068
1648125483089267330,26155,14,6,0.84817892313,-0.167013257742,0.214737609029,-0.323675245047,13.6999998093,0.28367188064548493,-0.05585727683678929,0.07181859833745818,13.6999998093,-0.04373989797932432,0.40504259913435553,0.8907374218225333
1648125483089268611,26156,14,7,0.886298418045,-0.183128580451,0.744699180126,-0.242756426334,13.6999998093,0.2964208756003344,-0.061247016873244145,0.2490632709451505,13.6999998093,-0.03280492247756756,0.4236530043080178,1.1720229655119412
1648125483189851770,26157,15,0,0.0126767531037,0.0439508594573,0.0102685010061,0.0,15.8000001907,0.004239716757090301,0.014699284099431437,0.0034342812729431437,15.8000001907,0.0,0.01587511730339346,0.04688091540488284
1648125483189866318,26158,15,1,0.0328392535448,0.0146502861753,-0.0300794392824,0.0,15.8000001907,0.010983027941404683,0.0048997612626421405,-0.01006001313792642,15.8000001907,0.0,0.016286849479080982,0.04688091430359943
1648125483189885634,26159,15,2,0.2906229496,-1.58955609798,0.284920364618,0.0,15.8000001907,0.09719831090301004,-0.5316241130367892,0.09529109184548495,15.8000001907,0.0,0.5491076587036,1.6408320760009727
1648125483189907800,26160,15,3,1.87021183968,-1.31852579117,0.508280396461,0.0,15.8000001907,0.6254889095919732,-0.44097852547491634,0.16999344363244145,15.8000001907,0.0,0.9884001274661708,2.344045978364391
1648125483189960084,26161,15,4,2.4205083847,-0.902457654476,0.468054294586,0.0,15.8000001907,0.8095345768227424,-0.30182530250033446,0.15653989785484948,15.8000001907,0.0,1.1839725399571444,2.625331499297894
1648125483189971257,26162,15,5,0.852966964245,-0.514225006104,1.5332659483,0.242756426334,15.8000001907,0.28527323218896317,-0.17198160739264212,0.5127979760200668,15.8000001907,0.03280492247756756,0.43856505479624464,1.8283556730604382
1648125483189977785,26163,15,6,0.869753360748,-0.46880915761,1.59381914139,0.323675245047,15.8000001907,0.2908874116214047,-0.15679236040468228,0.5330498800635451,15.8000001907,0.04373989797932432,0.440244042277545,1.875236622469974
1648125483189981174,26164,15,7,0.730343222618,-0.117202289402,0.124516569078,-0.404594063759,15.8000001907,0.24426194736387957,-0.03919809010100334,0.04164433748428093,15.8000001907,-0.05467487348094594,0.3476554157891916,0.7500946443216829
1648125483189983997,26165,15,8,0.888623654842,-0.0,0.0613283738494,-0.161837622523,15.8000001907,0.29719854676989965,-0.0,0.020511161822541805,15.8000001907,-0.021869948989594594,0.4203022155595667,0.890737430101467
1648125483189986135,26166,15,9,0.563442766666,-0.0,0.973897695541,-0.0809188112617,15.8000001907,0.18844239687826086,-0.0,0.3257182928230769,15.8000001907,-0.010934974494824324,0.2664977933913299,1.1251419789023547
1648125483289232839,26167,16,0,0.0126767531037,0.0439508594573,0.0102685010061,0.0,11.6000003815,0.004239716757090301,0.014699284099431437,0.0034342812729431437,11.6000003815,0.0,0.01587511730339346,0.04688091540488284
1648125483289237241,26168,16,1,0.0328392535448,0.0146502861753,-0.0300794392824,0.0,11.6000003815,0.010983027941404683,0.0048997612626421405,-0.01006001313792642,11.6000003815,0.0,0.016286849479080982,0.04688091430359943
1648125483289238888,26169,16,2,0.284926742315,-1.58955609798,0.290616691113,0.0,11.6000003815,0.09529322485451504,-0.5316241130367892,0.09719621776354513,11.6000003815,0.0,0.5484394177741961,1.6408320749744962
1648125483289240594,26170,16,3,1.88848102093,-1.24527442455,0.614395976067,0.0,11.6000003815,0.6315990036555184,-0.4164797406521739,0.20548360403578594,11.6000003815,0.0,0.9855404493023049,2.3440459411578245
1648125483289242000,26171,16,4,2.41906142235,-0.902457654476,0.475476294756,0.0,11.6000003815,0.8090506429264214,-0.30182530250033446,0.1590221721591973,11.6000003815,0.0,1.183310778649772,2.6253315390821066
1648125483289243356,26172,16,5,0.647835075855,-0.0703213736415,0.371492415667,-0.161837622523,11.6000003815,0.21666724944983276,-0.023518854060702338,0.12424495507257523,11.6000003815,-0.021869948989594594,0.3073150345567895,0.7500946580245617
1648125483289244810,26173,16,6,0.683641552925,0.164083212614,-0.261443942785,-0.161837622523,11.6000003815,0.2286426598411371,0.054877328633444813,-0.08743944574749163,11.6000003815,-0.021869948989594594,0.3279732504281454,0.7500946665364333
1648125483289248944,26174,16,7,0.884157299995,-0.0278355441988,0.104423567653,-0.0809188112617,11.6000003815,0.2957047826070234,-0.009309546554782609,0.034924270118060194,11.6000003815,-0.010934974494824324,0.4182933236024567,0.8907374642040563
1648125483388798269,26175,17,0,0.0126767531037,0.0439508594573,0.0102685010061,0.0,22.2999992371,0.004239716757090301,0.014699284099431437,0.0034342812729431437,22.2999992371,0.0,0.01587511730339346,0.04688091540488284
1648125483388803887,26176,17,1,0.0328392535448,0.0146502861753,-0.0300794392824,0.0,22.2999992371,0.010983027941404683,0.0048997612626421405,-0.01006001313792642,22.2999992371,0.0,0.016286849479080982,0.04688091430359943
1648125483388809323,26177,17,2,0.890241622925,0.0278355441988,-0.0104025742039,0.0,22.2999992371,0.2977396732190635,0.009309546554782609,-0.0034791218073244147,22.2999992371,0.0,0.4211703855617642,0.890737435083453
1648125483388812160,26178,17,3,0.280833005905,-1.58955609798,0.29457449913,0.0,22.2999992371,0.09392408224247491,-0.5316241130367892,0.09851989937458193,22.2999992371,0.0,0.547966845723658,1.6408320759202424
1648125483389031955,26179,17,4,1.89659440517,-1.24527442455,0.588874101639,0.0,22.2999992371,0.634312510090301,-0.4164797406521739,0.1969478600799331,22.2999992371,0.0,0.9890197648620671,2.3440459546991863
1648125483389039641,26180,17,5,2.41685128212,-0.902457654476,0.486584693193,0.0,22.2999992371,0.8083114655919732,-0.30182530250033446,0.16273735558294314,22.2999992371,0.0,1.1823000313136702,2.6253313317859783
1648125483389052887,26181,17,6,0.711932063103,0.117202289402,0.205081254244,0.0809188112617,22.2999992371,0.2381043689307692,0.03919809010100334,0.06858904824214046,22.2999992371,0.010934974494824324,0.33900423489302617,0.7500946340012414
1648125483389110047,26182,17,7,0.805671334267,-1.35368645191,-1.18126273155,0.242756426334,22.2999992371,0.26945529574147153,-0.4527379437826087,-0.3950711476755852,22.2999992371,0.03280492247756756,0.5917634312347734,1.9689984636594362
1648125483389114409,26183,17,8,0.611925601959,-1.67013263702,0.0992805063725,-0.242756426334,22.2999992371,0.20465739195953178,-0.5585727883010033,0.03320418273327759,22.2999992371,-0.03280492247756756,0.6291048052572101,1.7814748346574654
1648125483389187064,26184,17,9,0.799160301685,-0.0,0.270991683006,-0.161837622523,22.2999992371,0.2672776928712374,-0.0,0.09063266990167224,22.2999992371,-0.021869948989594594,0.3779877381782947,0.8438564333153387
1648125483489640740,26185,18,0,0.0126564446837,0.0439508594573,0.0102935219184,0.0,31.1000003815,0.004232924643377926,0.014699284099431437,0.003442649471036789,31.1000003815,0.0,0.015871491899277463,0.04688091544062974
1648125483489654398,26186,18,1,0.0328392535448,0.0146502861753,-0.0300794392824,0.0,31.1000003815,0.010983027941404683,0.0048997612626421405,-0.01006001313792642,31.1000003815,0.0,0.016286849479080982,0.04688091430359943
1648125483489659083,26187,18,2,0.598021626472,0.158223092556,0.573959350586,0.0,31.1000003815,0.20000723293377923,0.05291742225953177,0.19195964902541804,31.1000003815,0.0,0.2877603864854362,0.8438564740945605
1648125483489671988,26188,18,3,0.282448619604,-1.58955609798,0.29302573204,0.0,31.1000003815,0.09446442127224079,-0.5316241130367892,0.0980019170702341,31.1000003815,0.0,0.5481525803412327,1.6408320727543042
1648125483489678966,26189,18,4,1.87645304203,-1.31852579117,0.484732031822,0.0,31.1000003815,0.6275762682374582,-0.44097852547491634,0.1621177363953177,31.1000003815,0.0,0.9910428874875897,2.344045951682347
1648125483489689258,26190,18,5,2.41666603088,-0.902457654476,0.487504243851,0.0,31.1000003815,0.8082495086555184,-0.30182530250033446,0.1630448976090301,31.1000003815,0.0,1.1822153144470733,2.6253313906446842
1648125483489804437,26191,18,6,0.675287187099,0.0659262910485,0.184798613191,0.0809188112617,31.1000003815,0.22584855755819397,0.022048926772073575,0.06180555625117056,31.1000003815,0.010934974494824324,0.3201582375545473,0.7032137572237962
1648125483489812027,26192,18,7,0.251635283232,0.307656019926,0.580118119717,0.0809188112617,31.1000003815,0.08415895760267558,0.10289498994180601,0.19401943803244145,31.1000003815,0.010934974494824324,0.15733035067863496,0.7032137478661404
1648125483489821189,26193,18,8,0.68799996376,0.257845044136,0.151042878628,0.161837622523,31.1000003815,0.2301003223277592,0.08623580071438126,0.050516012919063547,31.1000003815,0.021869948989594594,0.33664362461738057,0.7500946394312453
1648125483489825773,26194,18,9,0.69845187664,-1.29215526581,-1.31127977371,0.242756426334,31.1000003815,0.23359594536454847,-0.4321589517759197,-0.438555108264214,31.1000003815,0.03280492247756756,0.5439627661720753,1.9689984509601315
1648125483588995508,26195,19,0,0.0126767531037,0.0439508594573,0.0102685010061,0.0,19.8999996185,0.004239716757090301,0.014699284099431437,0.0034342812729431437,19.8999996185,0.0,0.01587511730339346,0.04688091540488284
1648125483589022454,26196,19,1,0.0328519046307,0.0146502861753,-0.0300656240433,0.0,19.8999996185,0.010987259073812709,0.0048997612626421405,-0.010055392656622074,19.8999996185,0.0,0.01629255610212983,0.04688091586131667
1648125483589026818,26197,19,2,0.274709969759,-1.58955609798,0.300292760134,0.0,19.8999996185,0.09187624406655517,-0.5316241130367892,0.10043236124882943,19.8999996185,0.0,0.5472720402228742,1.6408320748630223
1648125483589035756,26198,19,3,2.4163081646,-0.902457654476,0.489275038242,0.0,19.8999996185,0.8081298209364549,-0.30182530250033446,0.16363713653578596,19.8999996185,0.0,1.1820516605474534,2.6253314128851724
1648125483589210967,26199,19,4,0.818189918995,0.105482056737,0.177574008703,0.0809188112617,19.8999996185,0.27364211337625416,0.035278279845150494,0.059389300569565213,19.8999996185,0.010934974494824324,0.3885930640848833,0.8438564667082699
1648125483589297859,26200,19,5,2.12578344345,-0.0,-1.19329404831,0.242756426334,19.8999996185,0.7109643623578595,-0.0,-0.3990949994347826,19.8999996185,0.03280492247756756,1.0054554436104246,2.43780760811394
1648125483589302369,26201,19,6,0.518867969513,-1.88988697529,0.472094446421,0.323675245047,19.8999996185,0.17353443796421403,-0.6320692225050167,0.1578911192043478,19.8999996185,0.04373989797932432,0.6780412261486817,2.0158794397232387
1648125483589305192,26202,19,7,1.97766566277,0.377977371216,0.0986979305744,0.323675245047,19.8999996185,0.6614266430668896,0.1264138365270903,0.033009341329230765,19.8999996185,0.04373989797932432,0.9439019368467082,2.015879373462244
1648125483589310933,26203,19,8,0.903943538666,-1.46356356144,0.222898587584,-0.161837622523,19.8999996185,0.30232225373444815,-0.4894861409498327,0.07454802260334448,19.8999996185,-0.021869948989594594,0.6499185890464371,1.7345939005478743
1648125483688888338,26204,20,0,0.012588663958,0.0439508594573,0.0103763062507,0.0,15.3999996185,0.004210255504347826,0.014699284099431437,0.003470336538695652,15.3999996185,0.0,0.015859427980213545,0.04688091550611081
1648125483688925460,26205,20,1,0.0328392535448,0.0146502861753,-0.0300794392824,0.0,15.3999996185,0.010983027941404683,0.0048997612626421405,-0.01006001313792642,15.3999996185,0.0,0.016286849479080982,0.04688091430359943
1648125483689129738,26206,20,2,0.304531276226,-1.58955609798,0.270003706217,0.0,15.3999996185,0.10184992515919732,-0.5316241130367892,0.09030224288193979,15.3999996185,0.0,0.5507912599815115,1.6408320719062495
1648125483689136329,26207,20,3,2.41804552078,-0.902457654476,0.480615526438,0.0,15.3999996185,0.80871087651505,-0.30182530250033446,0.160740978741806,15.3999996185,0.0,1.1828461763124145,2.6253314539196415
1648125483689138432,26208,20,4,0.694296717644,0.210964113474,0.189968958497,0.0809188112617,15.3999996185,0.23220626008160533,0.07055655969030099,0.06353476872809363,15.3999996185,0.010934974494824324,0.3358834955122137,0.7500946570250571
1648125483689148944,26209,20,5,2.66341495514,-0.254914969206,0.484464973211,0.161837622523,15.3999996185,0.8907742324882942,-0.0852558425438127,0.1620284191341137,15.3999996185,0.021869948989594594,1.2626266372994333,2.719093079513285
1648125483689151807,26210,20,6,1.14352464676,-1.1896032095,-2.16117167473,0.161837622523,15.3999996185,0.38244971463545147,-0.39786060518394645,-0.7227998912140468,15.3999996185,0.021869948989594594,0.6714377332313196,2.719093124822237
1648125483689153693,26211,20,7,0.852283716202,0.167013257742,0.197818532586,0.242756426334,15.3999996185,0.28504472113779267,0.05585727683678929,0.0661600443431438,15.3999996185,0.03280492247756756,0.4069656268933111,0.8907374096776026
1648125483689156133,26212,20,8,0.709403157234,0.256380021572,0.897025227547,0.242756426334,15.3999996185,0.23725858101471572,0.08574582661270903,0.3000084373066889,15.3999996185,0.03280492247756756,0.34631721775235147,1.1720229578854562
1648125483689161555,26213,20,9,1.39143538475,0.0776465162635,-2.05707454681,0.323675245047,15.3999996185,0.46536300493311034,0.025968734536287622,-0.687984798264214,15.3999996185,0.04373989797932432,0.6586348213495581,2.484688532302551
1648125483689209585,26214,20,10,0.175646916032,-1.00940465927,-2.26360940933,0.323675245047,15.3999996185,0.058744787970568556,-0.337593531528428,-0.7570600031204012,15.3999996185,0.04373989797932432,0.3476654897415759,2.4846885445211937
1648125483689214450,26215,20,11,0.868006944656,-1.86937654018,0.0835190191865,0.485512852669,15.3999996185,0.29030332597190633,-0.6252095452107023,0.02793278233662207,15.3999996185,0.06560984495527027,0.7479565612809844,2.062760318484013
1648125483788963824,26216,21,0,0.012588663958,0.0439508594573,0.0103763062507,0.0,19.2999992371,0.004210255504347826,0.014699284099431437,0.003470336538695652,19.2999992371,0.0,0.015859427980213545,0.04688091550611081
1648125483788975860,26217,21,1,0.0328392535448,0.0146502861753,-0.0300794392824,0.0,19.2999992371,0.010983027941404683,0.0048997612626421405,-0.01006001313792642,19.2999992371,0.0,0.016286849479080982,0.04688091430359943
1648125483788983742,26218,21,2,0.260009676218,-1.58955609798,0.313107460737,0.0,19.2999992371,0.08695975793244146,-0.5316241130367892,0.10471821429331103,19.2999992371,0.0,0.5456630797126469,1.640832076210593
1648125483788991601,26219,21,3,1.87108182907,-1.31852579117,0.505068182945,0.0,19.2999992371,0.6257798759431438,-0.44097852547491634,0.16891912473076923,19.2999992371,0.0,0.9887684087797629,2.344045934379225
1648125483788998581,26220,21,4,2.41922235489,-0.902457654476,0.47465595603,0.0,19.2999992371,0.8091044665183946,-0.30182530250033446,0.1587478113812709,19.2999992371,0.0,1.1833843791048835,2.6253313880568663
1648125483789151107,26221,21,5,0.696441590786,0.234404578805,0.150550976396,0.0809188112617,19.2999992371,0.2329236089585284,0.07839618020234114,0.05035149712240803,19.2999992371,0.010934974494824324,0.3386041587028264,0.7500946556502538
1648125483789166095,26222,21,6,1.16814935207,-1.57490575314,0.467834204435,0.242756426334,19.2999992371,0.39068540203010027,-0.5267243321538461,0.15646628910869564,19.2999992371,0.03280492247756756,0.7633535804604294,2.0158794316263955
1648125483789174315,26223,21,7,1.98104047775,0.314981162548,0.200088858604,0.242756426334,19.2999992371,0.662555343729097,0.1053448704173913,0.06691935070367892,19.2999992371,0.03280492247756756,0.9428980372931214,2.015879475212119
1648125483789178786,26224,21,8,1.59423565865,0.594801604748,-2.12087035179,0.242756426334,19.2999992371,0.5331891834949832,0.19893030259130434,-0.709321187889632,19.2999992371,0.03280492247756756,0.7798427252216704,2.7190931086345373
1648125483789180796,26225,21,9,1.2863266468,-0.934688270092,-2.20571732521,0.242756426334,19.2999992371,0.43020958086956523,-0.31260477260602004,-0.7376981020769231,19.2999992371,0.03280492247756756,0.684019232770538,2.7190931067631476
1648125483789214146,26226,21,10,0.710220038891,0.256380021572,0.896378576756,0.323675245047,19.2999992371,0.23753178558227425,0.08574582661270903,0.2997921661391304,19.2999992371,0.04373989797932432,0.34669157057145733,1.1720229400360322
1648125483789273469,26227,21,11,0.895497083664,0.263705164194,0.087594203651,0.404594063759,19.2999992371,0.2994973523959866,0.0881957070882943,0.02929572028461538,19.2999992371,0.05467487348094594,0.4326381986524257,0.9376183578549251
1648125483789278256,26228,21,12,1.02797853947,0.457088917494,-0.0165662821382,0.485512852669,19.2999992371,0.34380553159531774,0.15287254765685618,-0.005540562588026756,19.2999992371,0.06560984495527027,0.5096807853335025,1.1251420345052414
1648125483789280002,26229,21,13,1.57549071312,-1.97778868675,0.122577264905,0.566431701183,19.2999992371,0.5269199709431438,-0.6614677882107023,0.040995740770903004,19.2999992371,0.07654482448418919,0.996408022046092,2.5315695254990027
1648125483789281729,26230,21,14,1.6702350378,-1.25259947777,-0.303143382072,-0.647350490093,19.2999992371,0.5586070360535117,-0.41892959122742474,-0.10138574651237457,19.2999992371,-0.08747979595851352,0.8941955288766299,2.1096413067861786
1648125483888887518,26231,22,0,0.012588663958,0.0439508594573,0.0103763062507,0.0,19.6000003815,0.004210255504347826,0.014699284099431437,0.003470336538695652,19.6000003815,0.0,0.015859427980213545,0.04688091550611081
1648125483888897139,26232,22,1,0.0328392535448,0.0146502861753,-0.0300794392824,0.0,19.6000003815,0.010983027941404683,0.0048997612626421405,-0.01006001313792642,19.6000003815,0.0,0.016286849479080982,0.04688091430359943
1648125483888914164,26233,22,2,0.290766716003,-1.58955609798,0.284773647785,0.0,19.6000003815,0.09724639331204013,-0.5316241130367892,0.09524202267056854,19.6000003815,0.0,0.5491246849182368,1.6408320761837112
1648125483888942628,26234,22,3,2.39181518555,-0.984499275684,0.44982868433,0.0,19.6000003815,0.7999381891471572,-0.32926397180066885,0.15044437603010033,19.6000003815,0.0,1.1782261990118952,2.6253313221184027
1648125483888952738,26235,22,4,1.30263185501,0.6050568223,-2.36382508278,0.161837622523,19.6000003815,0.4356628277625418,0.20236014123745819,-0.7905769507625418,19.6000003815,0.021869948989594594,0.648501214917715,2.765974065293896
1648125483888960623,26236,22,5,1.98779129982,-0.5186201334,-1.85211539268,0.161837622523,19.6000003815,0.6648131437525083,-0.17345154963210702,-0.6194365861806019,19.6000003815,0.021869948989594594,0.9560535927875413,2.7659740639077057
1648125483888971569,26237,22,6,0.722987771034,0.249054864049,0.224567145109,0.323675245047,19.6000003815,0.24180193011170567,0.0832959411535117,0.07510606859832776,19.6000003815,0.04373989797932432,0.35195818022052233,0.7969755611269295
1648125483889014348,26238,22,7,0.837678670883,0.34281668067,0.816393017769,0.323675245047,19.6000003815,0.280160090596321,0.1146544082508361,0.27304114306655514,19.6000003815,0.04373989797932432,0.4124621025709235,1.2189037663654507
1648125483889016805,26239,22,8,1.25817406178,-1.54707026482,0.527779996395,0.323675245047,19.6000003815,0.4207940005953177,-0.5174148042876254,0.17651504896153844,19.6000003815,0.04373989797932432,0.7885767315677189,2.062760310511358
1648125483889022458,26240,22,9,2.02086520195,0.386767566204,0.146608933806,0.323675245047,19.6000003815,0.6758746494816052,0.1293537010715719,0.04903308822943144,19.6000003815,0.04373989797932432,0.9645441740038032,2.0627601640015043
1648125483889042927,26241,22,10,0.78432393074,0.276890397072,0.526693761349,0.404594063759,19.6000003815,0.2623156958996655,0.09260548397056856,0.17615175964849497,19.6000003815,0.05467487348094594,0.3823543177369321,0.9844991815974716
1648125483989840824,26242,23,0,0.012588663958,0.0439508594573,0.0103763062507,0.0,17.5,0.004210255504347826,0.014699284099431437,0.003470336538695652,17.5,0.0,0.015859427980213545,0.04688091550611081
1648125483989847053,26243,23,1,0.0328392535448,0.0146502861753,-0.0300794392824,0.0,17.5,0.010983027941404683,0.0048997612626421405,-0.01006001313792642,17.5,0.0,0.016286849479080982,0.04688091430359943
1648125483989859671,26244,23,2,0.252109050751,-1.58955609798,0.319503247738,0.0,17.5,0.08431740827792641,-0.5316241130367892,0.10685727349096989,17.5,0.0,0.5448330462073366,1.6408320716670257
1648125483989864748,26245,23,3,2.39098405838,-0.984499275684,0.454226523638,0.0,17.5,0.7996602201939799,-0.32926397180066885,0.15191522529698995,17.5,0.0,1.1778487588172433,2.6253314697435597
1648125483989868899,26246,23,4,0.837240874767,0.435113489628,0.843750536442,0.242756426334,17.5,0.28001367049063547,0.14552290623010034,0.28219081486354514,17.5,0.03280492247756756,0.4218912508703291,1.265784736431527
1648125483989875199,26247,23,5,0.72962975502,0.6050568223,-2.5984916687,0.242756426334,17.5,0.2440233294381271,0.20236014123745819,-0.8690607587625417,17.5,0.03280492247756756,0.40005549287790243,2.7659740219180713
1648125483989957642,26248,23,6,1.54258811474,-0.5186201334,-2.23653030396,0.242756426334,17.5,0.515915757438127,-0.17345154963210702,-0.7480034461404682,17.5,0.03280492247756756,0.7499490500131939,2.7659741023799103
1648125483989969212,26249,23,7,0.903155446053,0.41899818182,0.269250512123,0.323675245047,17.5,0.30205867760969896,0.14013317117725752,0.09005033850267558,17.5,0.04373989797932432,0.4495733478564256,1.031380179362662
1648125483989977204,26250,23,8,1.36189258099,-1.51630473137,0.544660449028,0.404594063759,17.5,0.4554824685585284,-0.5071253282173913,0.18216068529364549,17.5,0.05467487348094594,0.8198198929325504,2.1096413072524993
1648125483989985891,26251,23,9,0.760127484798,0.34281668067,0.129524752498,0.485512852669,17.5,0.25422323906287625,0.1146544082508361,0.0433193152167224,17.5,0.06560984495527027,0.37736526587722674,0.8438564636243527
1648125484184833906,26252,25,0,0.0126866931096,0.0439508594573,0.0102562177926,0.0,35.0999984741,0.004243041173779264,0.014699284099431437,0.0034301731747826084,35.0999984741,0.0,0.015876893582831942,0.04688091544009944
1648125484184839408,26253,25,1,0.0328392535448,0.0146502861753,-0.0300794392824,0.0,35.0999984741,0.010983027941404683,0.0048997612626421405,-0.01006001313792642,35.0999984741,0.0,0.016286849479080982,0.04688091430359943
1648125484184842531,26254,25,2,0.310427576303,-1.58955609798,0.263203412294,0.0,35.0999984741,0.10382193187391303,-0.5316241130367892,0.08802789708829431,35.0999984741,0.0,0.5515271386234913,1.6408320770261544
1648125484184849296,26255,25,3,2.39104557037,-0.984499275684,0.453902691603,0.0,35.0999984741,0.7996807927658863,-0.32926397180066885,0.15180692026856185,35.0999984741,0.0,1.1778766929366185,2.625331483232692
1648125484185027923,26256,25,4,0.855700433254,0.547920703888,0.176931217313,0.0809188112617,35.0999984741,0.286187435870903,0.18325107153444814,0.0591743201715719,35.0999984741,0.010934974494824324,0.4442830765618333,1.0313801359731845
1648125484185038614,26257,25,5,0.874586105347,0.471739202738,0.418578654528,0.161837622523,35.0999984741,0.29250371416287624,0.15777230860802674,0.13999286104615385,35.0999984741,0.021869948989594594,0.44272897687147345,1.0782610171439884
1648125484185113592,26258,25,6,0.79406619072,0.439508587122,0.23541277647,0.485512852669,35.0999984741,0.2655739768294314,0.14699283850234113,0.07873337005685618,35.0999984741,0.06560984495527027,0.4033186939741004,0.9376183065212955
1648125484289838941,26259,26,0,0.012588663958,0.0439508594573,0.0103763062507,0.0,42.7000007629,0.004210255504347826,0.014699284099431437,0.003470336538695652,42.7000007629,0.0,0.015859427980213545,0.04688091550611081
1648125484289847244,26260,26,1,0.0328392535448,0.0146502861753,-0.0300794392824,0.0,42.7000007629,0.010983027941404683,0.0048997612626421405,-0.01006001313792642,42.7000007629,0.0,0.016286849479080982,0.04688091430359943
1648125484289857537,26261,26,2,0.740101277828,0.439508587122,0.371766656637,0.0,42.7000007629,0.24752551097926417,0.14699283850234113,0.1243366744605351,42.7000007629,0.0,0.3796638667849062,0.9376183373759646
1648125484289869552,26262,26,3,0.274733483791,-1.58955609798,0.300271242857,0.0,42.7000007629,0.09188410829130433,-0.5316241130367892,0.10042516483511706,42.7000007629,0.0,0.5472746808277623,1.640832073988143
1648125484289884389,26263,26,4,2.39171218872,-0.984499275684,0.450376838446,0.0,42.7000007629,0.7999037420468227,-0.32926397180066885,0.15062770516588628,42.7000007629,0.0,1.1781794244540902,2.625331467472774
1648125484289891899,26264,26,5,0.573730766773,0.572826147079,0.710879743099,0.0809188112617,42.7000007629,0.19188319958963207,0.19158065119698997,0.23775242244113712,42.7000007629,0.010934974494824324,0.3321768662664092,1.078261005818075
1648125484289908759,26265,26,6,0.581626951694,1.03138017654,-0.921158492565,0.161837622523,42.7000007629,0.19452406411170567,0.34494320285618724,-0.30807976339966553,42.7000007629,0.021869948989594594,0.4412086085218133,1.5001893040283814
1648125484289916116,26266,26,7,2.43911504745,1.08558619022,-0.113745577633,0.242756426334,42.7000007629,0.8157575409531772,0.36307230442140465,-0.0380419992083612,42.7000007629,0.03280492247756756,1.2094388076632148,2.672212126221355
1648125484289924102,26267,26,8,2.13713145256,-1.50311934948,0.560373306274,0.242756426334,42.7000007629,0.7147596831304347,-0.5027155014983277,0.18741582149632105,42.7000007629,0.03280492247756756,1.1289312134510916,2.672211980118128
1648125484484795000,26268,28,0,0.0126866931096,0.0439508594573,0.0102562177926,0.0,12.0,0.004243041173779264,0.014699284099431437,0.0034301731747826084,12.0,0.0,0.015876893582831942,0.04688091544009944
1648125484484800833,26269,28,1,0.0328266397119,0.0146502861753,-0.0300932060927,0.0,12.0,0.01097880926819398,0.0048997612626421405,-0.010064617422307692,12.0,0.0,0.016281159858119832,0.0468809152292358
1648125484484960240,26270,28,2,0.488545030355,-1.53828001022,0.295547425747,0.0,12.0,0.16339298674080266,-0.51447491980602,0.09884529289197323,12.0,0.0,0.5639849105619502,1.640832080803118
1648125484484966083,26271,28,3,2.39169359207,-0.984499275684,0.45047467947,0.0,12.0,0.7998975224314382,-0.32926397180066885,0.15066042791638795,12.0,0.0,1.1781709790645236,2.6253313122374897
1648125484485116774,26272,28,4,0.779623985291,0.741304457188,0.0728071630001,0.0809188112617,12.0,0.2607438077896321,0.24792791210301002,0.024350221739163878,12.0,0.010934974494824324,0.4443454919328327,1.078260979388543
1648125484485121175,26273,28,5,0.960346400738,0.586011469364,0.328577578068,-0.161837622523,12.0,0.32118608720334446,0.19599045798127088,0.1098921665779264,12.0,-0.021869948989594594,0.4947052302590878,1.1720229846063677
1648125484485232377,26274,28,6,0.718878030777,0.556710898876,0.228944256902,-0.0809188112617,12.0,0.24042743504247488,0.18619093607892975,0.07656998558595317,12.0,-0.010934974494824324,0.3876567653481041,0.9376183236421683
1648125484589929055,26275,29,0,0.0126767531037,0.0439508594573,0.0102685010061,0.0,24.6000003815,0.004239716757090301,0.014699284099431437,0.0034342812729431437,24.6000003815,0.0,0.01587511730339346,0.04688091540488284
1648125484589948010,26276,29,1,0.0328392535448,0.0146502861753,-0.0300794392824,0.0,24.6000003815,0.010983027941404683,0.0048997612626421405,-0.01006001313792642,24.6000003815,0.0,0.016286849479080982,0.04688091430359943
1648125484589979107,26277,29,2,0.284872084856,-1.58955609798,0.290670275688,0.0,24.6000003815,0.09527494476789297,-0.5316241130367892,0.09721413902608696,24.6000003815,0.0,0.5484330658915479,1.640832076272324
1648125484589983968,26278,29,3,2.42139387131,-0.902457654476,0.46345102787,0.0,24.6000003815,0.8098307261906353,-0.30182530250033446,0.15500034376923075,24.6000003815,0.0,1.1843775257046725,2.6253313987711553
1648125484590049480,26279,29,4,0.698223471642,1.26578474045,0.401049792767,-0.323675245047,24.6000003815,0.23351955573311037,0.42333937807692307,0.13413036547391302,24.6000003815,-0.04373989797932432,0.536916189782106,1.5001893086495233
1648125484590052736,26280,29,5,0.718146502972,0.586011469364,0.141365781426,-0.0809188112617,24.6000003815,0.24018277691371237,0.19599045798127088,0.047279525560535114,24.6000003815,-0.010934974494824324,0.3921578665176469,0.9376183264608531
1648125484784865089,26281,31,0,0.0125987837091,0.0439508594573,0.010364016518,0.0,26.2999992371,0.0042136400364882936,0.014699284099431437,0.003466226260200669,26.2999992371,0.0,0.0158612256068058,0.046880915481349095
1648125484784873407,26282,31,1,0.0328392535448,0.0146502861753,-0.0300794392824,0.0,26.2999992371,0.010983027941404683,0.0048997612626421405,-0.01006001313792642,26.2999992371,0.0,0.016286849479080982,0.04688091430359943
1648125484784876171,26283,31,2,2.39191794395,-0.984499275684,0.449283212423,0.0,26.2999992371,0.7999725565050166,-0.32926397180066885,0.1502619439541806,26.2999992371,0.0,1.1782728654468353,2.6253315370401213
1648125484784994194,26284,31,3,0.541837513447,0.703213751316,0.301712810993,0.0809188112617,26.2999992371,0.1812165596812709,0.23518854559063543,0.10090729464648829,26.2999992371,0.010934974494824324,0.3478398122447596,0.9376183079140715
1648125484784997471,26285,31,4,0.731198012829,0.775000095367,0.165442064404,0.0809188112617,26.2999992371,0.24454783037759195,0.25919735631003343,0.05533179411505016,26.2999992371,0.010934974494824324,0.4321927257635017,1.0782609880999103
1648125484785000705,26286,31,5,0.542613446712,0.761814892292,0.0658546388149,0.242756426334,26.2999992371,0.18147606913444814,0.2547875893953177,0.022024962814347824,26.2999992371,0.03280492247756756,0.36164048867191156,0.9376183211328525
1648125484889837188,26287,32,0,0.0126767531037,0.0439508594573,0.0102685010061,0.0,27.3999996185,0.004239716757090301,0.014699284099431437,0.0034342812729431437,27.3999996185,0.0,0.01587511730339346,0.04688091540488284
1648125484889843213,26288,32,1,0.0328392535448,0.0146502861753,-0.0300794392824,0.0,27.3999996185,0.010983027941404683,0.0048997612626421405,-0.01006001313792642,27.3999996185,0.0,0.016286849479080982,0.04688091430359943
1648125484889846185,26289,32,2,0.284904390574,-1.58955609798,0.290638595819,0.0,27.3999996185,0.09528574935585285,-0.5316241130367892,0.0972035437521739,27.3999996185,0.0,0.5484368200830116,1.6408320736057624
1648125484889852341,26290,32,3,2.42158579826,-0.902457654476,0.462447464466,0.0,27.3999996185,0.80989491580602,-0.30182530250033446,0.1546647038347826,27.3999996185,0.0,1.184465306594625,2.6253314559971046
1648125484889857571,26291,32,4,0.67521327734,0.808695793152,0.229662597179,0.161837622523,27.3999996185,0.22582383857525082,0.2704668204521739,0.07681023317023411,27.3999996185,0.021869948989594594,0.41850342065893603,1.0782609908092613
1648125484889865814,26292,32,5,0.518154680729,0.761814892292,0.174016967416,0.242756426334,27.3999996185,0.17329587984247488,0.2547875893953177,0.0581996546541806,27.3999996185,0.03280492247756756,0.3535245955384604,0.937618316922139
1648125485084834947,26293,34,0,0.012578186579,0.0439508594573,0.0103890039027,0.0,33.2999992371,0.004206751364214047,0.014699284099431437,0.003474583245050167,33.2999992371,0.0,0.015857568133747096,0.04688091537866756
1648125485084839075,26294,34,1,0.0328392535448,0.0146502861753,-0.0300794392824,0.0,33.2999992371,0.010983027941404683,0.0048997612626421405,-0.01006001313792642,33.2999992371,0.0,0.016286849479080982,0.04688091430359943
1648125485084842133,26295,34,2,0.280611217022,-1.58955609798,0.294785767794,0.0,33.2999992371,0.09384990535852841,-0.5316241130367892,0.09859055779063544,33.2999992371,0.0,0.547941426645004,1.640832073259744
1648125485084847176,26296,34,3,2.39285993576,-0.984499275684,0.444237917662,0.0,33.2999992371,0.8002876039331103,-0.32926397180066885,0.14857455440200668,33.2999992371,0.0,1.1787006664730233,2.625331374031922
1648125485084933154,26297,34,4,0.579090595245,0.769140005112,0.20570962131,0.161837622523,33.2999992371,0.19367578436287622,0.2572374599036789,0.06879920445150502,33.2999992371,0.021869948989594594,0.37575487977516336,0.9844992195346827
1648125485189791498,26298,35,0,0.0126664573327,0.0439508594573,0.010281198658,0.0,38.0,0.00423627335541806,0.014699284099431437,0.003438527979264214,38.0,0.0,0.015873278707294467,0.0468809154586566
1648125485189797938,26299,35,1,0.0328635908663,0.0146502861753,-0.0300528481603,0.0,38.0,0.010991167513812709,0.0048997612626421405,-0.010051119786053511,38.0,0.0,0.016297827679303527,0.046880914796874326
1648125485189808394,26300,35,2,0.613929390907,0.769140005112,0.0274415723979,0.0,38.0,0.20532755548729098,0.2572374599036789,0.009177783410668895,38.0,0.0,0.3879303041300975,0.9844992048644817
1648125485189814858,26301,35,3,0.487573236227,-1.53828001022,0.297147870064,0.0,38.0,0.16306797198227424,-0.51447491980602,0.09938055854983277,38.0,0.0,0.5637967453632863,1.6408320777004834
1648125485189822216,26302,35,4,2.42184925079,-0.902457654476,0.461065024137,0.0,38.0,0.8099830270200667,-0.30182530250033446,0.154202349209699,38.0,0.0,1.1845858015992758,2.625331325405778
1648125485189899997,26303,35,5,0.610866725445,0.805765748024,0.203293934464,0.242756426334,38.0,0.20430325265719063,0.26948687224882945,0.06799128242943143,38.0,0.03280492247756756,0.39509848444036416,1.0313801533549238
1648125485189903665,26304,35,6,0.600093483925,0.73837441206,0.252843290567,0.323675245047,38.0,0.20070016184782605,0.24694796389966553,0.08456297343377926,38.0,0.04373989797932432,0.3762238785692339,0.984499208439978
1648125485189906965,26305,35,7,0.687627136707,0.842391490936,0.437245190144,0.404594063759,38.0,0.2299756310056856,0.2817362845939799,0.14623584954648827,38.0,0.05467487348094594,0.4302939876058537,1.1720229773521111
1648125485384905017,26306,37,0,0.0126866931096,0.0439508594573,0.0102562177926,0.0,34.4000015259,0.004243041173779264,0.014699284099431437,0.0034301731747826084,34.4000015259,0.0,0.015876893582831942,0.04688091544009944
1648125485385002073,26307,37,1,0.0328392535448,0.0146502861753,-0.0300794392824,0.0,34.4000015259,0.010983027941404683,0.0048997612626421405,-0.01006001313792642,34.4000015259,0.0,0.016286849479080982,0.04688091430359943
1648125485385014202,26308,37,2,0.483783751726,-1.53828001022,0.303278416395,0.0,34.4000015259,0.16180058586153845,-0.51447491980602,0.10143090849331102,34.4000015259,0.0,0.5630659839483156,1.6408320773703768
1648125485385020081,26309,37,3,1.90232622623,-1.24527442455,0.570085883141,0.0,34.4000015259,0.6362295071003344,-0.4164797406521739,0.19066417496354512,34.4000015259,0.0,0.9914793723441608,2.3440459418700526
1648125485385023029,26310,37,4,2.39249968529,-0.984499275684,0.446174353361,0.0,34.4000015259,0.8001671188260868,-0.32926397180066885,0.14922219175953175,34.4000015259,0.0,1.1785370589111035,2.6253314307972957
1648125485385099330,26311,37,5,0.725811362267,0.952268600464,0.228273749352,0.404594063759,34.4000015259,0.24274627500568563,0.31848448176053507,0.07634573556923077,34.4000015259,0.05467487348094594,0.46827755997970744,1.2189038213365169
1648125485385276145,26312,37,6,0.680338978767,0.94347846508,0.608340799809,0.566431701183,34.4000015259,0.2275381199889632,0.31554463715050163,0.20345846147458194,34.4000015259,0.07654482448418919,0.45068349218788273,1.31266571099107
1648125485489906881,26313,38,0,0.0126767531037,0.0439508594573,0.0102685010061,0.0,28.7999992371,0.004239716757090301,0.014699284099431437,0.0034342812729431437,28.7999992371,0.0,0.01587511730339346,0.04688091540488284
1648125485489912070,26314,38,1,0.0328392535448,0.0146502861753,-0.0300794392824,0.0,28.7999992371,0.010983027941404683,0.0048997612626421405,-0.01006001313792642,28.7999992371,0.0,0.016286849479080982,0.04688091430359943
1648125485489919766,26315,38,2,2.39259839058,-0.984499275684,0.445644378662,0.0,28.7999992371,0.8002001306287625,-0.32926397180066885,0.14904494269632107,28.7999992371,0.0,1.1785818856755472,2.6253313685440482
1648125485489926364,26316,38,3,0.639802098274,1.06800591946,0.228533640504,0.161837622523,28.7999992371,0.21398063487424748,0.35719261520401335,0.07643265568695651,28.7999992371,0.021869948989594594,0.46814740046128034,1.2657847343839412
1648125485684905606,26317,40,0,0.0126767531037,0.0439508594573,0.0102685010061,0.0,39.4000015259,0.004239716757090301,0.014699284099431437,0.0034342812729431437,39.4000015259,0.0,0.01587511730339346,0.04688091540488284
1648125485684991917,26318,40,1,0.0327874235809,0.0146502861753,-0.0301359258592,0.0,39.4000015259,0.010965693505317724,0.0048997612626421405,-0.010078904969632107,39.4000015259,0.0,0.016263472216474045,0.046880913573465514
1648125485684996245,26319,40,2,0.651973247528,1.06800591946,0.191063210368,0.0,39.4000015259,0.21805125335384615,0.35719261520401335,0.0639007392535117,39.4000015259,0.0,0.4718890362517959,1.2657847012228949
1648125485684999327,26320,40,3,2.39389061928,-0.984499275684,0.438650220633,0.0,39.4000015259,0.8006323141404682,-0.32926397180066885,0.1467057594090301,39.4000015259,0.0,1.1791687614662265,2.6253314337356497
1648125485685002001,26321,40,4,0.81338429451,1.02552008629,0.0990245938301,0.323675245047,39.4000015259,0.2720348811070234,0.342983306451505,0.03311859325421404,39.4000015259,0.04373989797932432,0.5154061520609079,1.312665733583
1648125485685075732,26322,40,5,0.822723031044,0.999149501324,0.661008477211,0.404594063759,39.4000015259,0.2751582043625418,0.3341637128173913,0.22107306930133777,39.4000015259,0.05467487348094594,0.5129224715490057,1.4533083357467642
1648125485685095886,26323,40,6,0.968850135803,0.934688270092,0.18987929821,0.566431701183,39.4000015259,0.3240301457535117,0.31260477260602004,0.06350478201003344,39.4000015259,0.07654482448418919,0.5547186805671371,1.3595465772755964
1648125485789852425,26324,41,0,0.0126564446837,0.0439508594573,0.0102935219184,0.0,33.7000007629,0.004232924643377926,0.014699284099431437,0.003442649471036789,33.7000007629,0.0,0.015871491899277463,0.04688091544062974
1648125485789865814,26325,41,1,0.0328392535448,0.0146502861753,-0.0300794392824,0.0,33.7000007629,0.010983027941404683,0.0048997612626421405,-0.01006001313792642,33.7000007629,0.0,0.016286849479080982,0.04688091430359943
1648125485789871228,26326,41,2,2.3911511898,-0.984499275684,0.453345447779,0.0,33.7000007629,0.7997161169899665,-0.32926397180066885,0.1516205510966555,33.7000007629,0.0,1.177924657468792,2.625331394572163
1648125485789874609,26327,41,3,0.62101072073,1.06800591946,0.275535851717,0.0809188112617,33.7000007629,0.20769589322073576,0.35719261520401335,0.09215245876822742,33.7000007629,0.010934974494824324,0.4624518704446992,1.2657847229464443
1648125485789879658,26328,41,4,0.95943570137,1.01086974144,0.188848659396,0.161837622523,33.7000007629,0.32088150547491634,0.33808352556521737,0.06316008675451505,33.7000007629,0.021869948989594594,0.5658889920914741,1.406427500932054
1648125485789963910,26329,41,5,0.825094342232,0.999149501324,0.658046126366,0.323675245047,33.7000007629,0.2759512850274247,0.3341637128173913,0.2200823165103679,33.7000007629,0.04373989797932432,0.5137738903257716,1.4533083306733476
1648125485984859100,26330,43,0,0.0126664573327,0.0439508594573,0.010281198658,0.0,33.5999984741,0.00423627335541806,0.014699284099431437,0.003438527979264214,33.5999984741,0.0,0.015873278707294467,0.0468809154586566
1648125485984864328,26331,43,1,0.0328635908663,0.0146502861753,-0.0300528481603,0.0,33.5999984741,0.010991167513812709,0.0048997612626421405,-0.010051119786053511,33.5999984741,0.0,0.016297827679303527,0.046880914796874326
1648125485984867042,26332,43,2,0.628978610039,1.06800591946,0.256827175617,0.0,33.5999984741,0.21036073914347825,0.35719261520401335,0.08589537646053512,33.5999984741,0.0,0.46485464986623865,1.2657847107717797
1648125485984997813,26333,43,3,2.39036941528,-0.984499275684,0.457449615002,0.0,33.5999984741,0.7994546539397992,-0.32926397180066885,0.15299318227491637,33.5999984741,0.0,1.1775696372350808,2.625331391575899
1648125485985014111,26334,43,4,0.907002925873,1.05482065678,0.206730365753,0.0809188112617,33.5999984741,0.30334546015819397,0.352782828354515,0.0691405905528428,33.5999984741,0.010934974494824324,0.5554211558619135,1.4064275202214804
1648125485985017106,26335,43,5,0.935322999954,1.04456532001,0.382307946682,0.161837622523,33.5999984741,0.3128170568408027,0.34935294983612036,0.1278621895257525,33.5999984741,0.021869948989594594,0.5636989494936839,1.4533083596080878
1648125486089850473,26336,44,0,0.012588663958,0.0439508594573,0.0103763062507,0.0,26.2999992371,0.004210255504347826,0.014699284099431437,0.003470336538695652,26.2999992371,0.0,0.015859427980213545,0.04688091550611081
1648125486089862223,26337,44,1,0.0328392535448,0.0146502861753,-0.0300794392824,0.0,26.2999992371,0.010983027941404683,0.0048997612626421405,-0.01006001313792642,26.2999992371,0.0,0.016286849479080982,0.04688091430359943
1648125486089868179,26338,44,2,2.39215898514,-0.984499275684,0.447997093201,0.0,26.2999992371,0.8000531722876254,-0.32926397180066885,0.14983180374615385,26.2999992371,0.0,1.1783823318859366,2.6253313751838836
1648125486089872123,26339,44,3,0.848643302917,1.06214570999,0.00422987993807,0.0809188112617,26.2999992371,0.28382719161103676,0.3552326789264214,0.0014146755645719062,26.2999992371,0.010934974494824324,0.536009333475508,1.359546562909975
1648125486089877495,26340,44,4,0.958777964115,1.03138017654,0.517269551754,0.161837622523,26.2999992371,0.32066152645986623,0.34494320285618724,0.17299985008494984,26.2999992371,0.021869948989594594,0.5697661294775495,1.5001893354520188
1648125486284960493,26341,46,0,0.0126767531037,0.0439508594573,0.0102685010061,0.0,26.2999992371,0.004239716757090301,0.014699284099431437,0.0034342812729431437,26.2999992371,0.0,0.01587511730339346,0.04688091540488284
1648125486284966205,26342,46,1,0.0328519046307,0.0146502861753,-0.0300656240433,0.0,26.2999992371,0.010987259073812709,0.0048997612626421405,-0.010055392656622074,26.2999992371,0.0,0.01629255610212983,0.04688091586131667
1648125486284970646,26343,46,2,0.674524486065,1.02845013142,0.299195617437,0.0,26.2999992371,0.22559347360033444,0.3439632546555184,0.10006542389197325,26.2999992371,0.0,0.4691434228627175,1.2657847260148842
1648125486284974025,26344,46,3,0.93000459671,1.05482065678,-0.0219814646989,0.0,26.2999992371,0.3110383266588629,0.352782828354515,-0.0073516604344147155,26.2999992371,0.0,0.5638664782404628,1.4064275141868596
1648125486284983412,26345,46,4,2.39726233482,-0.984499275684,0.419832617044,0.0,26.2999992371,0.8017599782006689,-0.32926397180066885,0.14041224650301,26.2999992371,0.0,1.1807001687196568,2.6253313985291404
1648125486285076039,26346,46,5,0.999681711197,1.06361079216,0.512635350227,0.161837622523,26.2999992371,0.3343417094304348,0.3557226729632107,0.17144994990869564,26.2999992371,0.021869948989594594,0.5916987218085078,1.5470702773963902
