%time,field.header.seq,field.header.frame_id,field.point_id,field.x,field.y,field.z,field.velocity,field.intensity,normalized_x,normalized_y,normalized_z,normalized_intensity,normalized_velocity,normalized_range,range
1648127401806266773,107483,0,0,0.0126775633544,0.0439508594573,0.0102675007656,0.0,16.7000007629,0.004239987743946488,0.014699284099431437,0.0034339467443478262,16.7000007629,0.0,0.01587526205054363,0.04688091543060736
1648127401806417670,107484,0,1,0.0328101180494,0.0146502861753,-0.0301112178713,0.0,16.7000007629,0.010973283628561871,0.0048997612626421405,-0.010070641428528428,16.7000007629,0.0,0.016273707863195052,0.046880914806844864
1648127401806448089,107485,0,2,0.142549440265,-0.399952799082,-0.437205940485,0.0,16.7000007629,0.047675398081939796,-0.13376347795384613,-0.1462227225702341,16.7000007629,0.0,0.14979504397292967,0.6094519003241887
1648127401806460499,107486,0,3,0.181309476495,-1.58955609798,0.364373683929,0.0,16.7000007629,0.06063862090133779,-0.5316241130367892,0.12186410833745819,16.7000007629,0.0,0.5384963159129179,1.6408320744159912
1648127401806489055,107487,0,4,2.38495182991,-0.984499275684,0.484903037548,0.0,16.7000007629,0.7976427524782608,-0.32926397180066885,0.1621749289458194,16.7000007629,0.0,1.1751096477725573,2.6253314096770057
1648127401806498441,107488,0,5,1.23487770557,-1.2804350853,0.0959985628724,0.0809188112617,16.7000007629,0.41300257711371235,-0.42823915896321063,0.03210654276668896,16.7000007629,0.010934974494824324,0.7242451481885495,1.7814748607416866
1648127401806504153,107489,0,6,0.823271274567,-0.612381994724,0.104679465294,0.323675245047,16.7000007629,0.27534156340033444,-0.20481003168026754,0.035009854613377925,16.7000007629,0.04373989797932432,0.43996943319775406,1.0313801866642367
1648127401806507855,107490,0,7,0.931816697121,-0.659262895584,0.265947282314,0.323675245047,16.7000007629,0.3116443803080267,-0.22048926273712371,0.08894557936923077,16.7000007629,0.04373989797932432,0.4928082330252898,1.1720229859083362
1648127401806524108,107491,0,8,0.811184346676,-0.722259104252,0.817733764648,0.323675245047,16.7000007629,0.2712991126006689,-0.24155822884682274,0.2734895533939799,16.7000007629,0.04373989797932432,0.4533837170867905,1.3595465302123577
1648127401806540923,107492,0,9,1.2679079771,-1.22476398945,0.256934285164,0.323675245047,16.7000007629,0.42404949066889625,-0.409620063361204,0.08593119905150502,16.7000007629,0.04373989797932432,0.7262399998493181,1.7814748651440553
1648127401806544918,107493,0,10,0.873745501041,-0.547920703888,0.00983551610261,0.566431701183,16.7000007629,0.2922225755989966,-0.18325107153444814,0.0032894702684314377,16.7000007629,0.07654482448418919,0.452071921930511,1.031380160617565
1648127402001181426,107494,2,0,0.0125994505361,0.0439508594573,0.0103632062674,0.0,31.7999992371,0.004213863055551839,0.014699284099431437,0.003465955273377926,31.7999992371,0.0,0.01586134410249293,0.04688091557326548
1648127402001185767,107495,2,1,0.0327970646322,0.0146502861753,-0.0301254354417,0.0,31.7999992371,0.010968917937190636,0.0048997612626421405,-0.010075396468795985,31.7999992371,0.0,0.016267820439645055,0.04688091503009433
1648127402001190137,107496,2,2,2.42166423798,-0.902457654476,0.462036520243,0.0,31.7999992371,0.8099211498260869,-0.30182530250033446,0.1545272642953177,31.7999992371,0.0,1.184501182397316,2.6253314544399604
1648127402001294235,107497,2,3,0.974622249603,-0.527410328388,0.194664657116,0.0809188112617,31.7999992371,0.3259606185963211,-0.1763914141765886,0.06510523649364548,31.7999992371,0.010934974494824324,0.49357327799082623,1.125141996657151
1648127402001297077,107498,2,4,1.07931041718,-1.03138017654,0.148026555777,-0.242756426334,31.7999992371,0.3609733836722408,-0.34494320285618724,0.04950720928996655,31.7999992371,-0.03280492247756756,0.6161082539913406,1.5001892901924572
1648127402001310282,107499,2,5,0.709290325642,-0.76474493742,0.87203168869,-0.161837622523,31.7999992371,0.23722084469632104,-0.2557675375986622,0.29164939421070235,31.7999992371,-0.021869948989594594,0.42185837861319675,1.359546560967438
1648127402106216596,107500,3,0,0.0126775633544,0.0439508594573,0.0102675007656,0.0,21.2999992371,0.004239987743946488,0.014699284099431437,0.0034339467443478262,21.2999992371,0.0,0.01587526205054363,0.04688091543060736
1648127402106219357,107501,3,1,0.0328607447445,0.0146502861753,-0.0300559606403,0.0,21.2999992371,0.010990215633612039,0.0048997612626421405,-0.010052160749264214,21.2999992371,0.0,0.016296543798531928,0.04688091509551231
1648127402106223616,107502,3,2,0.150210887194,-0.399952799082,-0.434633255005,0.0,21.2999992371,0.05023775491438127,-0.13376347795384613,-0.1453622926438127,21.2999992371,0.0,0.15146066179699585,0.6094519000555964
1648127402106237251,107503,3,3,0.947489142418,-0.549385726452,0.417225837708,-0.485512852669,21.2999992371,0.3168860008086956,-0.1837410456361204,0.13954041394916386,21.2999992371,-0.06560984495527027,0.48434930253744785,1.1720229311239312
1648127402106328895,107504,3,4,1.09549379349,-0.953733623028,0.0488922782242,-0.404594063759,21.2999992371,0.3663858841103679,-0.31897445586220735,0.01635193251645485,21.2999992371,-0.05467487348094594,0.6084586556564572,1.4533082708562484
1648127402106357347,107505,3,5,0.956099271774,-0.386767566204,0.00547689106315,-0.242756426334,21.2999992371,0.3197656427337792,-0.1293537010715719,0.001831736141521739,21.2999992371,-0.03280492247756756,0.4703536037140647,1.0313801258943553
1648127402106364195,107506,3,6,1.01758360863,-0.75155967474,-0.0435034446418,-0.242756426334,21.2999992371,0.34032896609699,-0.25135775074916383,-0.014549647037391302,21.2999992371,-0.03280492247756756,0.5429809657722553,1.2657846953346568
1648127402106372920,107507,3,7,0.426940053701,-0.76474493742,1.0398337841,-0.242756426334,21.2999992371,0.14278931561906355,-0.2557675375986622,0.34777049635451507,21.2999992371,-0.03280492247756756,0.3258751457217997,1.3595465888741944
1648127402106378959,107508,3,8,1.76537311077,-0.0659262910485,1.15312516689,-0.242756426334,21.2999992371,0.5904257895551839,-0.022048926772073575,0.38566059093311034,21.2999992371,-0.03280492247756756,0.8352792234429902,2.109641236465634
1648127402106381961,107509,3,9,2.00919747353,-1.67013263702,0.560803413391,-0.242756426334,21.2999992371,0.671972399173913,-0.5585727883010033,0.18755967003043478,21.2999992371,-0.03280492247756756,1.1023145514477468,2.6722121886836963
1648127402106387811,107510,3,10,0.972679436207,-0.438043534756,0.157033145428,-0.161837622523,21.2999992371,0.32531084822976586,-0.1465028544334448,0.05251944663143813,21.2999992371,-0.021869948989594594,0.4828223092495692,1.078261022537915
1648127402301081750,107511,5,0,0.0125890737399,0.0439508594573,0.0103758089244,0.0,27.8999996185,0.004210392555150501,0.014699284099431437,0.003470170208829431,27.8999996185,0.0,0.01585950074790286,0.0468809154720728
1648127402301173369,107512,5,1,0.0328981243074,0.0146502861753,-0.0300150439143,0.0,27.8999996185,0.011002717159665552,0.0048997612626421405,-0.010038476225518393,27.8999996185,0.0,0.016313406456717926,0.04688091647078464
1648127402301176827,107513,5,2,0.0287366062403,-1.58955609798,0.405974775553,0.0,27.8999996185,0.0096109050970903,-0.5316241130367892,0.13577751690735784,27.8999996185,0.0,0.5317978342901778,1.6408320753657037
1648127402301182532,107514,5,3,1.38448190689,-1.14272224903,-0.346814453602,0.0809188112617,27.8999996185,0.4630374270535117,-0.3821813541906354,-0.11599145605418058,27.8999996185,0.010934974494824324,0.758201757578852,1.8283556968383383
1648127402301191105,107515,5,4,0.389452278614,-0.234404578805,-0.82006675005,0.323675245047,27.8999996185,0.1302515981986622,-0.07839618020234114,-0.2742698160702341,27.8999996185,0.04373989797932432,0.20019220448591254,0.937618290361251
1648127402301195492,107516,5,5,0.674353897572,-0.303260922432,-0.7848097682,0.404594063759,27.8999996185,0.22553642059264215,-0.10142505766956521,-0.2624781833444816,27.8999996185,0.05467487348094594,0.33469448210383895,1.0782609788483457
1648127402301308326,107517,5,6,0.520182609558,-0.338421612978,-0.764277160168,0.566431701183,27.8999996185,0.17397411690903009,-0.11318448594581938,-0.2556110903571906,27.8999996185,0.07654482448418919,0.2708222933352665,0.9844992193860107
1648127402301311878,107518,5,7,0.870939135551,-0.495179653168,0.694253921509,-0.647350490093,27.8999996185,0.2912839918230769,-0.16561192413645484,0.23219194699297657,27.8999996185,-0.08747979595851352,0.4439820235110331,1.2189037592347185
1648127402406200001,107519,6,0,0.0125890737399,0.0439508594573,0.0103758089244,0.0,18.2999992371,0.004210392555150501,0.014699284099431437,0.003470170208829431,18.2999992371,0.0,0.01585950074790286,0.0468809154720728
1648127402406203207,107520,6,1,0.032785564661,0.0146502861753,-0.0301379524171,0.0,18.2999992371,0.010965071792976589,0.0048997612626421405,-0.010079582748193979,18.2999992371,0.0,0.01626263383591816,0.04688091627788627
1648127402406205089,107521,6,2,0.138896763325,-0.399952799082,-0.43838006258,0.0,18.2999992371,0.046453766998327754,-0.13376347795384613,-0.14661540554515048,18.2999992371,0.0,0.1490254104875371,0.6094519108373789
1648127402406207614,107522,6,3,0.188816055655,-0.250519901514,-0.833667457104,0.404594063759,18.2999992371,0.06314918249331103,-0.08378592023879598,-0.2788185475264214,18.2999992371,0.05467487348094594,0.12245700849444625,0.8907374208833635
1648127402406209213,107523,6,4,0.476029545069,-0.149432912469,-0.621478617191,0.485512852669,18.2999992371,0.15920720570869565,-0.04997756269866221,-0.2078523803314381,18.2999992371,0.06560984495527027,0.23063309708808183,0.7969755295698886
1648127402406306298,107524,6,5,0.865985512733,-0.399952799082,0.243609428406,-0.404594063759,18.2999992371,0.289627261783612,-0.13376347795384613,0.08147472521939798,18.2999992371,-0.05467487348094594,0.4308834756298446,0.9844992145071836
1648127402406312248,107525,6,6,0.901093959808,-0.439508616924,0.607041716576,-0.323675245047,18.2999992371,0.30136921732709027,-0.1469928484695652,0.20302398547692307,18.2999992371,-0.04373989797932432,0.4508366753114508,1.1720229496116727
