%time,field.header.seq,field.header.frame_id,field.point_id,field.x,field.y,field.z,field.velocity,field.intensity,normalized_x,normalized_y,normalized_z,normalized_intensity,normalized_velocity,normalized_range,range
1648126756501206239,78222,0,0,0.0126571767032,0.0439508594573,0.0102926222607,0.0,14.5,0.004233169465953177,0.014699284099431437,0.0034423485821739124,14.5,0.0,0.015871622490809013,0.046880915542817876
1648126756501218115,78223,0,1,0.0328607447445,0.0146502861753,-0.0300559606403,0.0,14.5,0.010990215633612039,0.0048997612626421405,-0.010052160749264214,14.5,0.0,0.016296543798531928,0.04688091509551231
1648126756501253524,78224,0,2,0.857465744019,-0.83799636364,0.219638451934,0.0,14.5,0.28677784080903007,-0.28026634235451503,0.07345767623210701,14.5,0.0,0.49298304495687983,1.2189037932535465
1648126756501263111,78225,0,3,2.39310383797,-0.984499275684,0.442921996117,0.0,14.5,0.8003691765785953,-0.32926397180066885,0.1481344468618729,14.5,0.0,1.1788114356249473,2.625331350091514
1648126756801184710,78226,3,0,0.0125994505361,0.0439508594573,0.0103632062674,0.0,15.3000001907,0.004213863055551839,0.014699284099431437,0.003465955273377926,15.3000001907,0.0,0.01586134410249293,0.04688091557326548
1648126756801198950,78227,3,1,0.032885145396,0.0146502861753,-0.0300292614847,0.0,15.3000001907,0.010998376386622074,0.0048997612626421405,-0.010043231265785952,15.3000001907,0.0,0.016307551217595504,0.04688091528597467
1648126756801248021,78228,3,2,2.42858242989,-0.902457654476,0.424172788858,0.0,15.3000001907,0.8122349263846154,-0.30182530250033446,0.1418638089826087,15.3000001907,0.0,1.187665636661877,2.625331406070539
1648126756801269875,78229,3,3,0.829862177372,-1.18081307411,0.170629382133,-0.242756426334,15.3000001907,0.2775458787197324,-0.39492076057190634,0.05706668298762541,15.3000001907,-0.03280492247756756,0.5567996378584579,1.4533083414983878
1648126756801311042,78230,3,4,0.898339867592,-0.799905598164,0.197137147188,-0.161837622523,15.3000001907,0.300448116251505,-0.26752695590769227,0.06593215625016721,15.3000001907,-0.021869948989594594,0.5021043848199217,1.21890382659205
1648126757101187638,78231,6,0,0.0126141794026,0.0439508594573,0.0103452727199,0.0,39.2999992371,0.004218789097859532,0.014699284099431437,0.003459957431404682,39.2999992371,0.0,0.015863962806948167,0.0468809154847196
1648126757101192338,78232,6,1,0.0329244062304,0.0146502861753,-0.0299862083048,0.0,39.2999992371,0.011011507100468228,0.0048997612626421405,-0.010028832208963211,39.2999992371,0.0,0.016325263785869217,0.046880914017768956
1648126757101203452,78233,6,2,2.43219804764,-0.820416092873,0.551085591316,0.0,39.2999992371,0.813444163090301,-0.2743866531347826,0.18430956231304346,39.2999992371,0.0,1.1826541541591387,2.625331452854083
1648126757101211708,78234,6,3,1.23643434048,-0.635822415352,0.423160672188,0.161837622523,39.2999992371,0.4135231907959866,-0.21264963724147157,0.14152530842408026,39.2999992371,0.021869948989594594,0.6222722289087931,1.4533082868644436
1648126757101281072,78235,6,4,0.84649348259,-0.97717410326,0.420649975538,-0.485512852669,39.2999992371,0.28310818815719063,-0.3268140813578595,0.14068561054782608,39.2999992371,-0.06560984495527027,0.5168248602544929,1.359546558992906
1648126757101286276,78236,6,5,0.941858589649,-0.861436843872,0.306463956833,-0.404594063759,39.2999992371,0.3150028727923077,-0.28810596785016723,0.10249630663311035,39.2999992371,-0.05467487348094594,0.5305267839098184,1.312665683147653
1648126757101295872,78237,6,6,0.903569042683,-0.632892370224,0.221257001162,-0.242756426334,39.2999992371,0.302197004241806,-0.21166968903812708,0.07399899704414716,39.2999992371,-0.03280492247756756,0.4769173052038913,1.1251419589305285
1648126757401140917,78238,9,0,0.0125787733123,0.0439508594573,0.0103882942349,0.0,41.2999992371,0.004206947596086956,0.014699284099431437,0.003474345897959866,41.2999992371,0.0,0.01585767224999437,0.04688091554341088
1648126757401146035,78239,9,1,0.0329373031855,0.0146502861753,-0.0299720410258,0.0,41.2999992371,0.011015820463377925,0.0048997612626421405,-0.010024093988561873,41.2999992371,0.0,0.016331082676713148,0.04688091370060926
1648126757401270694,78240,9,2,0.996495842934,-0.457088917494,0.253002554178,0.0,41.2999992371,0.3332762016501672,-0.15287254765685618,0.08461623885551839,41.2999992371,0.0,0.49549578101112385,1.1251420069934157
1648126757401280551,78241,9,3,1.71437907219,-1.50751447678,0.255482196808,0.0,41.2999992371,0.5733709271538462,-0.5041854437391304,0.08544555077190635,41.2999992371,0.0,0.9548357983909832,2.2971649165330215
1648126757401289163,78242,9,4,1.37229013443,-1.19985842705,-0.141577661037,0.242756426334,41.2999992371,0.458959911180602,-0.40129044382943135,-0.04735038830668896,41.2999992371,0.03280492247756756,0.7631005310249981,1.828355734566311
1648126757401301345,78243,9,5,0.99169421196,-0.712003946304,0.334370911121,-0.242756426334,41.2999992371,0.33167030500334443,-0.23812841013511704,0.11182973616086955,41.2999992371,-0.03280492247756756,0.5260375672473417,1.2657847114700518
1648126757506261034,78244,10,0,0.0125994505361,0.0439508594573,0.0103632062674,0.0,31.1000003815,0.004213863055551839,0.014699284099431437,0.003465955273377926,31.1000003815,0.0,0.01586134410249293,0.04688091557326548
1648126757506273885,78245,10,1,0.0327970646322,0.0146502861753,-0.0301254354417,0.0,31.1000003815,0.010968917937190636,0.0048997612626421405,-0.010075396468795985,31.1000003815,0.0,0.016267820439645055,0.04688091503009433
1648126757506281765,78246,10,2,1.28310275078,-1.22476398945,0.165084958076,0.0809188112617,31.1000003815,0.4291313547759197,-0.409620063361204,0.055212360560535106,31.1000003815,0.010934974494824324,0.7321857930960347,1.781474822245781
1648126757506284517,78247,10,3,0.889450311661,-0.515690088272,0.0817731916904,-0.404594063759,31.1000003815,0.297475020622408,-0.17247160142876253,0.027348893541939798,31.1000003815,-0.05467487348094594,0.4546748608489434,1.0313801330911256
1648126757506293150,78248,10,4,0.963267445564,-0.647542655468,0.372197210789,-0.323675245047,31.1000003815,0.3221630252722408,-0.21656944998929767,0.12448067250468225,31.1000003815,-0.04373989797932432,0.5044604606644527,1.2189037804736902
1648126757506299715,78249,10,5,1.00128865242,-0.509829938412,0.765415728092,-0.161837622523,31.1000003815,0.33487914796655516,-0.1705116850876254,0.2559918823050167,31.1000003815,-0.021869948989594594,0.5033510924166485,1.3595465304199226
1648126757506307266,78250,10,6,1.00835514069,-0.421928226948,0.266722410917,-0.0809188112617,31.1000003815,0.3372425219698996,-0.14111311938060198,0.08920481970468226,31.1000003815,-0.010934974494824324,0.49737103827078677,1.1251419301300656
1648126757506320870,78251,10,7,1.45338761806,-0.281285494566,0.24312658608,-0.0809188112617,31.1000003815,0.48608281540468223,-0.09407541624280935,0.0813132394916388,31.1000003815,-0.010934974494824324,0.6938322497583567,1.5001891996152603
1648126757701178655,78252,12,0,0.0125994505361,0.0439508594573,0.0103632062674,0.0,14.1999998093,0.004213863055551839,0.014699284099431437,0.003465955273377926,14.1999998093,0.0,0.01586134410249293,0.04688091557326548
1648126757701187468,78253,12,1,0.0328478105366,0.0146502861753,-0.0300700943917,0.0,14.1999998093,0.010985889811571906,0.0048997612626421405,-0.010056887756421403,14.1999998093,0.0,0.016290709325713453,0.04688091422735167
1648126757701190516,78254,12,2,0.472725778818,-1.53828001022,0.320241868496,0.0,14.1999998093,0.15810226716321069,-0.51447491980602,0.10710430384481605,14.1999998093,0.0,0.5609608692892092,1.6408320773739575
1648126757701217141,78255,12,3,1.73956930637,-1.53828012943,0.319599837065,0.0,14.1999998093,0.581795754638796,-0.5144749596755852,0.10688957761371237,14.1999998093,0.0,0.970390171201588,2.344045900599166
1648126757701223898,78256,12,4,0.573359489441,-0.64461261034,-1.66500627995,0.161837622523,14.1999998093,0.19175902656889632,-0.21558950178595315,-0.5568582876086956,14.1999998093,0.021869948989594594,0.34644174376309916,1.8752366340849709
1648126757701304776,78257,12,5,0.851691126823,-0.547920703888,0.195320621133,-0.566431701183,14.1999998093,0.2848465307100334,-0.18325107153444814,0.06532462245250836,14.1999998093,-0.07654482448418919,0.44255626459650016,1.0313801521737433
1648126757701307790,78258,12,6,0.922471284866,-0.457088917494,0.453939348459,-0.566431701183,14.1999998093,0.30851882436989964,-0.15287254765685618,0.15181918008662207,14.1999998093,-0.07654482448418919,0.462317797416742,1.125141983030385
1648126757701320662,78259,12,7,0.966484844685,-0.404347896576,0.255062013865,-0.323675245047,14.1999998093,0.3232390784899665,-0.13523341022608695,0.08530502135953176,14.1999998093,-0.04373989797932432,0.47671278456473415,1.078261010789175
1648126757701326242,78260,12,8,1.38086783886,-0.0879017189145,0.252023339272,-0.323675245047,14.1999998093,0.4618287086488294,-0.02939856819882943,0.08428874223143812,14.1999998093,-0.04373989797932432,0.6537857356019875,1.406427553812787
1648126757806055667,78261,13,0,0.0125994505361,0.0439508594573,0.0103632062674,0.0,19.1000003815,0.004213863055551839,0.014699284099431437,0.003465955273377926,19.1000003815,0.0,0.01586134410249293,0.04688091557326548
1648126757806064758,78262,13,1,0.0329244062304,0.0146502861753,-0.0299862083048,0.0,19.1000003815,0.011011507100468228,0.0048997612626421405,-0.010028832208963211,19.1000003815,0.0,0.016325263785869217,0.046880914017768956
1648126757806071739,78263,13,2,0.455105721951,-1.53828001022,0.344823598862,0.0,19.1000003815,0.1522092715555184,-0.51447491980602,0.11532561834849497,19.1000003815,0.0,0.5576914629114684,1.6408320823067564
1648126757806082067,78264,13,3,1.81393957138,-1.39177727699,0.516846597195,0.0,19.1000003815,0.6066687529698996,-0.4654773501638796,0.17285839371070233,19.1000003815,0.0,0.9760958534773586,2.3440458959662047
1648126757806092067,78265,13,4,1.46615982056,-1.08558619022,-0.121501423419,0.0809188112617,19.1000003815,0.49035445503678926,-0.36307230442140465,-0.04063592756488294,19.1000003815,0.010934974494824324,0.7827620847912361,1.8283557071078234
1648126757806164843,78266,13,5,1.60393738747,-0.93761831522,0.254498273134,0.161837622523,19.1000003815,0.5364339088528428,-0.31358472080936456,0.08511647930903009,19.1000003815,0.021869948989594594,0.8208885760317093,1.8752366834584557
1648126757806187216,78267,13,6,0.859416842461,1.76389443874,0.46243801713,-0.566431701183,19.1000003815,0.2874303820939799,0.5899312504147156,0.15466154419063544,19.1000003815,-0.07654482448418919,0.7164156121395265,2.0158794159896223
1648126757806286335,78268,13,7,1.37085723877,1.9426279068,0.251946568489,-0.485512852669,19.1000003815,0.4584806818628762,0.6497083300334447,0.08426306638428092,19.1000003815,-0.06560984495527027,0.9178943214759221,2.3909265623894935
1648126757806292972,78269,13,8,0.98989713192,-0.257845044136,0.131774708629,-0.404594063759,19.1000003815,0.33106927488963206,-0.08623580071438126,0.04407180890602007,19.1000003815,-0.05467487348094594,0.4760780848524158,1.0313801299245566
1648126757806296648,78270,13,9,1.01647150517,-0.276890397072,0.701661169529,-0.323675245047,19.1000003815,0.33995702514046816,-0.09260548397056856,0.23466928746789298,19.1000003815,-0.04373989797932432,0.4896093683194155,1.26578474064039
1648126757806298832,78271,13,10,1.35007739067,-0.0849716588855,0.135785058141,-0.0809188112617,19.1000003815,0.45153089988963213,-0.028418615011872907,0.04541306292341137,19.1000003815,-0.010934974494824324,0.6391931826838229,1.3595465146976122
1648126758001062861,78272,15,0,0.0125994505361,0.0439508594573,0.0103632062674,0.0,13.0,0.004213863055551839,0.014699284099431437,0.003465955273377926,13.0,0.0,0.01586134410249293,0.04688091557326548
1648126758001161430,78273,15,1,0.0328607447445,0.0146502861753,-0.0300559606403,0.0,13.0,0.010990215633612039,0.0048997612626421405,-0.010052160749264214,13.0,0.0,0.016296543798531928,0.04688091509551231
1648126758001169330,78274,15,2,0.245439246297,-1.58955609798,0.324655026197,0.0,13.0,0.08208670444715718,-0.5316241130367892,0.10858027632006688,13.0,0.0,0.5441513131989509,1.6408320749800138
1648126758001186690,78275,15,3,1.90134620667,-1.24527442455,0.573346018791,0.0,13.0,0.6359017413612039,-0.4164797406521739,0.1917545213347826,13.0,0.0,0.991058738776933,2.3440459567423635
1648126758001191523,78276,15,4,0.892672598362,-0.205104008317,0.200489744544,-0.647350490093,13.0,0.2985527084822742,-0.06859665829999999,0.06705342626889632,13.0,-0.08747979595851352,0.4277533647022903,0.937618344403192
1648126758001199477,78277,15,5,0.775427997112,-0.174338400364,-0.0590552538633,-0.566431701183,13.0,0.2593404672615384,-0.058307157312374576,-0.01975092102451505,13.0,-0.07654482448418919,0.3713686584954581,0.7969755200478024
1648126758001277108,78278,15,6,0.928043425083,0.0293005723506,-0.130402907729,-0.404594063759,13.0,0.310382416415719,0.009799522525284281,-0.04361301261839465,13.0,-0.05467487348094594,0.439056396698471,0.9376182809246184
1648126758001386724,78279,15,7,0.776485085487,-0.234404578805,0.470375835896,-0.404594063759,13.0,0.25969400852408026,-0.07839618020234114,0.1573163330755853,13.0,-0.05467487348094594,0.37553683866822984,0.9376182706962167
1648126758001395877,78280,15,8,0.985440075397,-0.152362972498,0.701013505459,-0.242756426334,13.0,0.3295786205341137,-0.05095751588561872,0.23445267741103676,13.0,-0.03280492247756756,0.4688718403269402,1.2189038323111412
1648126758301221008,78281,18,0,0.0126877604052,0.0439508594573,0.0102548981085,0.0,17.7000007629,0.004243398128829431,0.014699284099431437,0.003429731808862876,17.7000007629,0.0,0.015877084379548535,0.04688091558780411
1648126758301228260,78282,18,1,0.0328722037375,0.0146502861753,-0.0300434287637,0.0,17.7000007629,0.010994048072742475,0.0048997612626421405,-0.01004796948618729,17.7000007629,0.0,0.01630171299227273,0.04688091589823531
1648126758301234359,78283,18,2,0.883082270622,0.111342176795,0.0343775190413,0.0,17.7000007629,0.2953452410107023,0.037238186219063545,0.011497498007123744,17.7000007629,0.0,0.41933793685788234,0.8907374421431891
1648126758301241405,78284,18,3,0.261081427336,-1.58955609798,0.31221434474,0.0,17.7000007629,0.08731820312240801,-0.5316241130367892,0.10441951329096989,17.7000007629,0.0,0.5457775506149048,1.640832074706804
1648126758301277686,78285,18,4,1.90000319481,-1.24527442455,0.577780663967,0.0,17.7000007629,0.6354525735150501,-0.4164797406521739,0.19323768025652172,17.7000007629,0.0,0.9904823677115623,2.344045867379879
1648126758301282541,78286,18,5,2.42039608955,-0.902457654476,0.46863463521,0.0,17.7000007629,0.8094970199163879,-0.30182530250033446,0.15673399170903007,17.7000007629,0.0,1.183921181386854,2.6253314971160626
1648126758301289582,78287,18,6,0.653331100941,0.153828009963,0.20977370441,0.0809188112617,17.7000007629,0.21850538493010033,0.05144749497090301,0.07015842956856187,17.7000007629,0.010934974494824324,0.31326674133345805,0.7032137592281952
1648126758301315305,78288,18,7,0.98195540905,0.193383783102,0.249221533537,0.161837622523,17.7000007629,0.3284131802842809,0.06467685053578595,0.08335168345719063,17.7000007629,0.021869948989594594,0.4689280637412305,1.031380184853252
1648126758301323862,78289,18,8,0.937378585339,-1.16909277439,-1.27730119228,0.323675245047,17.7000007629,0.31350454359163876,-0.39100092788963203,-0.4271910342073578,17.7000007629,0.04373989797932432,0.5911445874874917,1.968998441640562
1648126758406263127,78290,19,0,0.0125994505361,0.0439508594573,0.0103632062674,0.0,21.2000007629,0.004213863055551839,0.014699284099431437,0.003465955273377926,21.2000007629,0.0,0.01586134410249293,0.04688091557326548
1648126758406297034,78291,19,1,0.0329373031855,0.0146502861753,-0.0299720410258,0.0,21.2000007629,0.011015820463377925,0.0048997612626421405,-0.010024093988561873,21.2000007629,0.0,0.016331082676713148,0.04688091370060926
1648126758406315227,78292,19,2,0.25237557292,-1.58955609798,0.319292783737,0.0,21.2000007629,0.0844065461270903,-0.5316241130367892,0.10678688419297658,21.2000007629,0.0,0.5448606497264802,1.6408320755575887
1648126758406324138,78293,19,3,1.90174329281,-1.24527442455,0.572027564049,0.0,21.2000007629,0.636034546090301,-0.4164797406521739,0.1913135665715719,21.2000007629,0.0,0.9912291672536137,2.3440459633330546
1648126758406337242,78294,19,4,2.42075872421,-0.902457654476,0.466757208109,0.0,21.2000007629,0.8096183024113712,-0.30182530250033446,0.15610608966856188,21.2000007629,0.0,1.1840870341441796,2.6253313905644102
1648126758406341236,78295,19,5,0.870991647243,0.167013257742,0.0830262452364,0.0809188112617,21.2000007629,0.29130155426187293,0.05585727683678929,0.0277679749954515,21.2000007629,0.010934974494824324,0.41573215705113253,0.8907374670612689
1648126758406346557,78296,19,6,0.66222423315,0.210964113474,0.282126218081,0.161837622523,21.2000007629,0.22147967663879597,0.07055655969030099,0.09435659467591974,21.2000007629,0.021869948989594594,0.3210680962714643,0.7500946574090928
1648126758406354020,78297,19,7,2.64132142067,-0.339886635542,0.548968553543,0.161837622523,21.2000007629,0.8833850905250836,-0.11367446004749163,0.18360152292408025,21.2000007629,0.021869948989594594,1.2544561846438118,2.719093276275998
1648126758406480791,78298,19,8,1.19457566738,0.509829938412,-2.38883447647,0.161837622523,21.2000007629,0.39952363457525086,0.1705116850876254,-0.7989412964782608,21.2000007629,0.021869948989594594,0.590180060591561,2.7190931847160473
1648126758406485428,78299,19,9,0.552748143673,-1.88988697529,0.431933581829,0.404594063759,21.2000007629,0.18486559989063542,-0.6320692225050167,0.1444593919160535,21.2000007629,0.05467487348094594,0.6840044459533472,2.0158794380657694
1648126758501412594,78300,20,0,0.0125994505361,0.0439508594573,0.0103632062674,0.0,27.2999992371,0.004213863055551839,0.014699284099431437,0.003465955273377926,27.2999992371,0.0,0.01586134410249293,0.04688091557326548
1648126758501418823,78301,20,1,0.0329129882157,0.0146502861753,-0.029998742044,0.0,27.2999992371,0.011007688366454847,0.0048997612626421405,-0.010033024094983276,27.2999992371,0.0,0.01632011233959066,0.046880915120413834
1648126758501445151,78302,20,2,0.254749327898,-1.58955609798,0.317402094603,0.0,27.2999992371,0.08520044411304346,-0.5316241130367892,0.10615454668996654,27.2999992371,0.0,0.54510772230475,1.640832074999833
1648126758501448512,78303,20,3,2.42293453217,-0.902457654476,0.45532771945,0.0,27.2999992371,0.8103459973812709,-0.30182530250033446,0.15228351821070232,27.2999992371,0.0,1.1850821845648984,2.62533138811155
1648126758501605088,78304,20,4,0.630727529526,0.281285494566,0.292751073837,0.242756426334,27.2999992371,0.21094566204882942,0.09407541624280935,0.09791005813946488,27.2999992371,0.03280492247756756,0.3128039779409715,0.7500946188234702
1648126758501616224,78305,20,5,1.58786821365,0.594801604748,-2.12564182281,0.323675245047,27.2999992371,0.5310596032274247,0.19893030259130434,-0.7109169975953177,27.2999992371,0.04373989797932432,0.7769310584918121,2.719093152470113
1648126758501624839,78306,20,6,1.85838067532,-1.01965987682,-1.70299220085,0.323675245047,27.2999992371,0.6215319984347826,-0.34102337017391304,-0.569562608979933,27.2999992371,0.04373989797932432,0.9428154586988076,2.7190931273046397
1648126758501630667,78307,20,7,1.57021200657,-1.22476398945,0.537929058075,-0.647350490093,27.2999992371,0.5251545172474916,-0.409620063361204,0.1799093839715719,27.2999992371,-0.08747979595851352,0.848152775317589,2.062760346465755
1648126758601363422,78308,21,0,0.0125683275983,0.0439508594573,0.0104009294882,0.0,26.2999992371,0.004203454046254181,0.014699284099431437,0.003478571735183946,26.2999992371,0.0,0.01585581927475648,0.046880915518705844
1648126758601374099,78309,21,1,0.0329001024365,0.0146502861753,-0.0300128757954,0.0,26.2999992371,0.011003378741304349,0.0048997612626421405,-0.010037751102140467,26.2999992371,0.0,0.016314298877980183,0.04688091657444943
1648126758601489261,78310,21,2,0.277610898018,-1.58955609798,0.297612994909,0.0,26.2999992371,0.09284645418662206,-0.5316241130367892,0.0995361186986622,26.2999992371,0.0,0.5475994208106961,1.6408320736938526
1648126758601492321,78311,21,3,1.90047311783,-1.24527442455,0.576233327389,0.0,26.2999992371,0.6356097384046823,-0.4164797406521739,0.19272017638428093,26.2999992371,0.0,0.9906840331222864,2.3440459277980485
1648126758601494363,78312,21,4,2.39361405373,-0.984499275684,0.440157264471,0.0,26.2999992371,0.8005398173010032,-0.32926397180066885,0.14720978744849497,26.2999992371,0.0,1.1790431549755076,2.6253314989735443
1648126758601604973,78313,21,5,0.912493824959,0.36918720603,-0.0171635113657,0.161837622523,26.2999992371,0.3051818812571906,0.12347398194983276,-0.00574030480458194,26.2999992371,0.021869948989594594,0.4489073239699967,0.9844992431723574
1648126758601615753,78314,21,6,0.677577614784,0.348676800728,0.233416065574,0.242756426334,26.2999992371,0.22661458688428093,0.11661431462474915,0.07806557377056855,26.2999992371,0.03280492247756756,0.3410384734203263,0.7969755297939417
1648126758601622012,78315,21,7,1.61885416508,0.6050568223,-2.15959024429,0.323675245047,26.2999992371,0.5414227976856186,0.20236014123745819,-0.7222709847123745,26.2999992371,0.04373989797932432,0.7919765895966173,2.7659740760247877
1648126758601626701,78316,21,8,1.51386404037,-0.6050568223,-2.23444271088,0.323675245047,26.2999992371,0.5063090436020067,-0.20236014123745819,-0.7473052544749162,26.2999992371,0.04373989797932432,0.7440748094298055,2.7659740271994453
1648126758601630373,78317,21,9,0.818741202354,0.306190997362,0.171239808202,0.404594063759,26.2999992371,0.27382648908160534,0.10240501584013377,0.05727083886354514,26.2999992371,0.05467487348094594,0.40056045675370294,0.8907374221456442
1648126758601635678,78318,21,10,0.886636316776,-1.68478286266,1.01290166378,0.566431701183,26.2999992371,0.2965338852093645,-0.5634725293177257,0.33876309825418055,26.2999992371,0.07654482448418919,0.7024001576383909,2.1565219760130496
1648126758601640413,78319,21,11,2.07159757614,0.336956560612,0.495510816574,0.566431701183,26.2999992371,0.69284199870903,0.11269450187692308,0.16572268112842808,26.2999992371,0.07654482448418919,0.9862860239826654,2.1565220171726565
1648126758701545641,78320,22,0,0.0126141794026,0.0439508594573,0.0103452727199,0.0,33.0999984741,0.004218789097859532,0.014699284099431437,0.003459957431404682,33.0999984741,0.0,0.015863962806948167,0.0468809154847196
1648126758701562625,78321,22,1,0.032885145396,0.0146502861753,-0.0300292614847,0.0,33.0999984741,0.010998376386622074,0.0048997612626421405,-0.010043231265785952,33.0999984741,0.0,0.016307551217595504,0.04688091528597467
1648126758701569734,78322,22,2,0.262183874846,-1.58955609798,0.311289131641,0.0,33.0999984741,0.08768691466421404,-0.5316241130367892,0.10411007747190636,33.0999984741,0.0,0.5458957662125721,1.6408320743855767
1648126758701583353,78323,22,3,1.89927983284,-1.24527442455,0.580154180527,0.0,33.0999984741,0.6352106464347825,-0.4164797406521739,0.19403149850401336,33.0999984741,0.0,0.9901719573194803,2.3440458931202746
1648126758701589294,78324,22,4,2.42387080193,-0.902457654476,0.450317561626,0.0,33.0999984741,0.8106591310802675,-0.30182530250033446,0.15060788014247492,33.0999984741,0.0,1.1855104246007486,2.625331481714241
1648126758701592523,78325,22,5,0.674894750118,0.373582303524,0.200308158994,0.161837622523,33.0999984741,0.22571730773177257,0.12494391422207357,0.06699269531571907,33.0999984741,0.021869948989594594,0.342793797669229,0.7969755452977848
1648126758701596833,78326,22,6,0.881641507149,0.430718421936,0.0801790058613,0.242756426334,33.0999984741,0.2948633803173913,0.14405298392508362,0.02681572102384615,33.0999984741,0.03280492247756756,0.4411803353302564,0.984499252972751
1648126758701668341,78327,22,7,1.74155163765,-0.5186201334,-2.08534026146,0.242756426334,33.0999984741,0.5824587416889632,-0.17345154963210702,-0.697438214535117,33.0999984741,0.03280492247756756,0.8417848962826311,2.765974142221017
1648126758701681979,78328,22,8,0.344228237867,0.6050568223,2.67694330215,0.242756426334,33.0999984741,0.11512650095886287,0.20236014123745819,0.8952987632608695,33.0999984741,0.03280492247756756,0.2597264892299323,2.7659740202833687
1648126758701687222,78329,22,9,1.26755475998,-1.58369588852,0.860347092152,0.404594063759,33.0999984741,0.42393135785284275,-0.5296641767625418,0.2877415023919732,33.0999984741,0.05467487348094594,0.7999873327043693,2.203403017116367
1648126758701695577,78330,22,10,2.14880228043,0.413138061762,0.258748263121,0.404594063759,33.0999984741,0.7186629700434782,0.1381732648033445,0.08653788064247492,33.0999984741,0.05467487348094594,1.0256923418500508,2.2034030412354806
1648126758801653304,78331,23,0,0.0126038333401,0.0439508594573,0.0103578744456,0.0,22.2999992371,0.004215328876287625,0.014699284099431437,0.003464172055384615,22.2999992371,0.0,0.01586212306427883,0.04688091535935669
1648126758801664734,78332,23,1,0.0329129882157,0.0146502861753,-0.029998742044,0.0,22.2999992371,0.011007688366454847,0.0048997612626421405,-0.010033024094983276,22.2999992371,0.0,0.01632011233959066,0.046880915120413834
1648126758801721297,78333,23,2,0.24833637476,-1.58955609798,0.322444349527,0.0,22.2999992371,0.08305564373244147,-0.5316241130367892,0.10784091957424749,22.2999992371,0.0,0.544445293370944,1.6408320761724013
1648126758801723595,78334,23,3,1.918207407,-1.17202293873,0.664374709129,0.0,22.2999992371,0.6415409387959865,-0.3919809159632107,0.22219889937424747,22.2999992371,0.0,0.988331215120634,2.3440458995738997
1648126758801729334,78335,23,4,2.42307496071,-0.902457654476,0.454580336809,0.0,22.2999992371,0.8103929634481606,-0.30182530250033446,0.152033557461204,22.2999992371,0.0,1.1851464144324118,2.625331477348237
1648126758801740381,78336,23,5,0.676146686077,0.398487776518,0.138575524092,0.161837622523,22.2999992371,0.22613601541036787,0.1332735038521739,0.04634632912775919,22.2999992371,0.021869948989594594,0.34646330507052503,0.7969755485612725
1648126758801745266,78337,23,6,0.833519876003,0.523015201092,0.0306330993772,0.161837622523,22.2999992371,0.2787691892986622,0.1749214719371237,0.01024518373819398,22.2999992371,0.021869948989594594,0.43130272796391705,0.9844991980915043
1648126758801754040,78338,23,7,1.63280105591,-0.439508587122,-2.24787592888,0.242756426334,22.2999992371,0.5460873096688963,-0.14699283850234113,-0.7517979695250836,22.2999992371,0.03280492247756756,0.7861485827334432,2.812855004790135
1648126758801766272,78339,23,8,1.29897236824,0.879017174244,-2.33498454094,0.242756426334,22.2999992371,0.4344389191438127,0.29398567700468226,-0.7809312845953176,22.2999992371,0.03280492247756756,0.6811034629317265,2.8128549931512152
1648126758801779331,78340,23,9,1.57829129696,-1.54707026482,0.423495382071,0.323675245047,22.2999992371,0.5278566210568562,-0.5174148042876254,0.14163725152876253,22.2999992371,0.04373989797932432,0.9082859156031897,2.2502840178487173
1648126758906210239,78341,24,0,0.0125994505361,0.0439508594573,0.0103632062674,0.0,20.2999992371,0.004213863055551839,0.014699284099431437,0.003465955273377926,20.2999992371,0.0,0.01586134410249293,0.04688091557326548
1648126758906235449,78342,24,1,0.0329001024365,0.0146502861753,-0.0300128757954,0.0,20.2999992371,0.011003378741304349,0.0048997612626421405,-0.010037751102140467,20.2999992371,0.0,0.016314298877980183,0.04688091657444943
1648126758906238837,78343,24,2,0.25050586462,-1.58955609798,0.32076177001,0.0,20.2999992371,0.08378122562541807,-0.5316241130367892,0.10727818394983277,20.2999992371,0.0,0.544667591377298,1.6408320724359229
1648126758906248044,78344,24,3,1.89040434361,-1.24527442455,0.608452379704,0.0,20.2999992371,0.6322422553879599,-0.4164797406521739,0.20349577916521738,20.2999992371,0.0,0.9863650000734061,2.3440459195897483
1648126758906297153,78345,24,4,2.42237949371,-0.902457654476,0.458271354437,0.0,20.2999992371,0.8101603657892975,-0.30182530250033446,0.1532680115173913,20.2999992371,0.0,1.1848283208216772,2.6253313817433717
1648126758906312597,78346,24,5,0.807071745396,0.49224960804,0.274889498949,0.0809188112617,20.2999992371,0.2699236606675585,0.16463197593311035,0.09193628727391304,20.2999992371,0.010934974494824324,0.4157177560268394,0.9844992206520592
1648126758906317856,78347,24,6,0.574460685253,0.395557701588,0.474997609854,0.242756426334,20.2999992371,0.19212731948260867,0.13229354568160534,0.1588620768742475,20.2999992371,0.03280492247756756,0.3022042289779476,0.8438564472432146
1648126758906320877,78348,24,7,1.61108732224,-1.34782624245,0.488210141659,0.242756426334,20.2999992371,0.5388251913846154,-0.45077800750836117,0.16328098383244147,20.2999992371,0.03280492247756756,0.8853620648043053,2.156521987399628
1648126758906323695,78349,24,8,2.17444348335,-1.50311934948,0.391336977482,0.242756426334,20.2999992371,0.7272386231939799,-0.5027155014983277,0.13088193226822742,20.2999992371,0.03280492247756756,1.1447597588912994,2.672211980926889
1648126758906326690,78350,24,9,2.27414298058,1.33610606194,0.428732812405,0.242756426334,20.2999992371,0.7605829366488295,0.4468582146956522,0.14338890046989966,20.2999992371,0.03280492247756756,1.164755369630765,2.6722121041015443
1648126758906353061,78351,24,10,0.674158751965,0.423393249512,-0.037658829242,0.323675245047,20.2999992371,0.22547115450334446,0.14160309348227423,-0.012594926167892977,20.2999992371,0.04373989797932432,0.3488924176732589,0.7969755667542231
1648126758906356241,78352,24,11,1.77671003342,1.63057684898,0.598496079445,-0.404594063759,20.2999992371,0.5942174024816053,0.5453434277525083,0.20016591285785953,20.2999992371,-0.05467487348094594,1.0017924420841013,2.4846885036953585
1648126759101235608,78353,26,0,0.0125890737399,0.0439508594573,0.0103758089244,0.0,23.3999996185,0.004210392555150501,0.014699284099431437,0.003470170208829431,23.3999996185,0.0,0.01585950074790286,0.0468809154720728
1648126759101244412,78354,26,1,0.0328607447445,0.0146502861753,-0.0300559606403,0.0,23.3999996185,0.010990215633612039,0.0048997612626421405,-0.010052160749264214,23.3999996185,0.0,0.016296543798531928,0.04688091509551231
1648126759101257742,78355,26,2,0.749778866768,0.584546387196,0.255687057972,0.0,23.3999996185,0.2507621627986622,0.1955004639451505,0.08551406621137123,23.3999996185,0.0,0.4049490782625571,0.9844992125188212
1648126759101267470,78356,26,3,0.266720294952,-1.58955609798,0.307411104441,0.0,23.3999996185,0.08920411202408027,-0.5316241130367892,0.1028130784083612,23.3999996185,0.0,0.5463871747819143,1.6408320729124966
1648126759101286440,78357,26,4,1.89138960838,-1.24527442455,0.605382621288,0.0,23.3999996185,0.6325717753779263,-0.4164797406521739,0.20246910410969898,23.3999996185,0.0,0.9867874524857242,2.344045895728945
1648126759101334897,78358,26,5,2.42422795296,-0.902457654476,0.448391348124,0.0,23.3999996185,0.8107785795852842,-0.30182530250033446,0.1499636615799331,23.3999996185,0.0,1.1856737845875147,2.625331557557524
1648126759101342502,78359,26,6,0.706210315228,0.501039803028,0.208900168538,0.0809188112617,23.3999996185,0.23619074087892977,0.16757184047759197,0.06986627710301004,23.3999996185,0.010934974494824324,0.3737010220415821,0.8907374326747322
1648126759206191101,78360,27,0,0.0125683275983,0.0439508594573,0.0104009294882,0.0,24.7000007629,0.004203454046254181,0.014699284099431437,0.003478571735183946,24.7000007629,0.0,0.01585581927475648,0.046880915518705844
1648126759206205370,78361,27,1,0.0329001024365,0.0146502861753,-0.0300128757954,0.0,24.7000007629,0.011003378741304349,0.0048997612626421405,-0.010037751102140467,24.7000007629,0.0,0.016314298877980183,0.04688091657444943
1648126759206208091,78362,27,2,0.264749854803,-1.58955609798,0.309109717607,0.0,24.7000007629,0.08854510194080267,-0.5316241130367892,0.10338117645719064,24.7000007629,0.0,0.5461727453082652,1.6408320729930568
1648126759206231198,78363,27,3,1.89007687569,-1.24527442455,0.609468877316,0.0,24.7000007629,0.6321327343444816,-0.4164797406521739,0.20383574492173911,24.7000007629,0.0,0.9862246001968131,2.344045925504283
1648126759206287990,78364,27,4,2.42231464386,-0.902457654476,0.458613693714,0.0,24.7000007629,0.8101386768762542,-0.30182530250033446,0.15338250625886288,24.7000007629,0.0,1.184798660014027,2.625331326145887
1648126759206296553,78365,27,5,0.727438151836,0.646077632904,0.150519818068,0.0809188112617,24.7000007629,0.2432903517846154,0.2160794758876254,0.05034107627692307,24.7000007629,0.010934974494824324,0.40628897406013215,0.984499257550068
1648126759206313978,78366,27,6,0.658243596554,0.5845464468,0.135771870613,-0.0809188112617,24.7000007629,0.220148360051505,0.19550048387959865,0.04540865237892976,24.7000007629,-0.010934974494824324,0.3676289434523503,0.8907374370265367
