%time,field.header.seq,field.header.frame_id,field.point_id,field.x,field.y,field.z,field.velocity,field.intensity,normalized_x,normalized_y,normalized_z,normalized_intensity,normalized_velocity,normalized_range,range
1648127669194302968,122748,0,0,0.0125994505361,0.0439508594573,0.0103632062674,0.0,25.0,0.004213863055551839,0.014699284099431437,0.003465955273377926,25.0,0.0,0.01586134410249293,0.04688091557326548
1648127669194311802,122749,0,1,0.0329129882157,0.0146502861753,-0.029998742044,0.0,25.0,0.011007688366454847,0.0048997612626421405,-0.010033024094983276,25.0,0.0,0.01632011233959066,0.046880915120413834
1648127669194321815,122750,0,2,0.763597428799,-0.64461261034,0.255222529173,0.0,25.0,0.2553837554511706,-0.21558950178595315,0.08535870540903008,25.0,0.0,0.4206192558324002,1.0313801384917471
1648127669194348965,122751,0,3,2.39177441597,-0.984499275684,0.450046271086,0.0,25.0,0.7999245538361204,-0.32926397180066885,0.15051714752040132,25.0,0.0,1.1782076840632911,2.625331469896586
1648127669194474557,122752,0,4,0.813493549824,-0.707608819008,-0.012834334746,0.161837622523,25.0,0.2720714213458194,-0.23665846789565215,-0.004292419647491639,25.0,0.021869948989594594,0.4517222011955868,1.07826096863956
1648127669194481516,122753,0,5,0.95648008585,-0.659262895584,0.155422493815,-0.161837622523,25.0,0.31989300530100334,-0.22048926273712371,0.051980767162207356,25.0,-0.021869948989594594,0.5032679054572979,1.1720229825840007
1648127669194485738,122754,0,6,0.984205722809,-0.76474493742,0.543020308018,-0.161837622523,25.0,0.3291657935816053,-0.2557675375986622,0.1816121431498328,25.0,-0.021869948989594594,0.531147128974354,1.3595465343413111
1648127669389524158,122755,2,0,0.0126141794026,0.0439508594573,0.0103452727199,0.0,13.0,0.004218789097859532,0.014699284099431437,0.003459957431404682,13.0,0.0,0.015863962806948167,0.0468809154847196
1648127669389534630,122756,2,1,0.0329129882157,0.0146502861753,-0.029998742044,0.0,13.0,0.011007688366454847,0.0048997612626421405,-0.010033024094983276,13.0,0.0,0.01632011233959066,0.046880915120413834
1648127669389545528,122757,2,2,0.193064153194,-1.58955609798,0.358284175396,0.0,13.0,0.06456995090100334,-0.5316241130367892,0.11982748341003344,13.0,0.0,0.5394096353244617,1.6408320773964384
1648127669389548087,122758,2,3,2.38210582733,-0.984499275684,0.498696625233,0.0,13.0,0.7966909121505017,-0.32926397180066885,0.16678816897424747,13.0,0.0,1.1738175250575997,2.625331468679841
1648127669389556706,122759,2,4,0.87439852953,-0.703213751316,-0.0828380063176,-0.485512852669,13.0,0.2924409797759197,-0.23518854559063543,-0.027705018835317723,13.0,-0.06560984495527027,0.47577001301220967,1.1251419927168402
1648127669389566961,122760,2,5,0.792154610157,-0.612381994724,0.247435629368,-0.404594063759,13.0,0.2649346522264214,-0.20481003168026754,0.08275439109297658,13.0,-0.05467487348094594,0.4269986990349524,1.0313801551978166
1648127669389570648,122761,2,6,0.927412629128,-0.615312039852,0.695979952812,-0.404594063759,13.0,0.31017144786889633,-0.20578997988361203,0.23276921498729095,13.0,-0.05467487348094594,0.48452262069657015,1.3126656793598026
1648127669389577701,122762,2,7,1.52082502842,0.134782627225,-1.52299427986,-0.242756426334,13.0,0.508637133250836,0.04507780174749164,-0.5093626354046823,13.0,-0.03280492247756756,0.7207325959422424,2.156521898835402
1648127669494502123,122763,3,0,0.0125994505361,0.0439508594573,0.0103632062674,0.0,21.2000007629,0.004213863055551839,0.014699284099431437,0.003465955273377926,21.2000007629,0.0,0.01586134410249293,0.04688091557326548
1648127669494505334,122764,3,1,0.0328254364431,0.0146502861753,-0.0300945192575,0.0,21.2000007629,0.01097840683715719,0.0048997612626421405,-0.010065056607859531,21.2000007629,0.0,0.01628061711960477,0.04688091564846214
1648127669494520500,122765,3,2,0.207235395908,-1.58955609798,0.350278168917,0.0,21.2000007629,0.06930949695919732,-0.5316241130367892,0.11714988926989965,21.2000007629,0.0,0.5405846929941939,1.6408320735414688
1648127669494532303,122766,3,3,2.41663241386,-0.902457654476,0.487671673298,0.0,21.2000007629,0.8082382655050167,-0.30182530250033446,0.16310089407959866,21.2000007629,0.0,1.1821999411616184,2.625331541496884
1648127669494535835,122767,3,4,1.27558135986,-1.22476398945,0.215634152293,0.0809188112617,21.2000007629,0.4266158394180602,-0.409620063361204,0.07211844558294314,21.2000007629,0.010934974494824324,0.7292398406510638,1.7814748729945329
1648127669494625033,122768,3,5,0.693681061268,-0.586011469364,0.233506366611,-0.566431701183,21.2000007629,0.2320003549391304,-0.19599045798127088,0.07809577478628761,21.2000007629,-0.07654482448418919,0.3821787396016075,0.9376183019949663
1648127669494628184,122769,3,6,0.897462546825,-0.632892370224,0.629459440708,-0.566431701183,21.2000007629,0.3001546979347826,-0.21166968903812708,0.21052155207625417,21.2000007629,-0.07654482448418919,0.47433083669748755,1.265784722114229
1648127669689635689,122770,5,0,0.0125994505361,0.0439508594573,0.0103632062674,0.0,25.0,0.004213863055551839,0.014699284099431437,0.003465955273377926,25.0,0.0,0.01586134410249293,0.04688091557326548
1648127669689647765,122771,5,1,0.0327970646322,0.0146502861753,-0.0301254354417,0.0,25.0,0.010968917937190636,0.0048997612626421405,-0.010075396468795985,25.0,0.0,0.016267820439645055,0.04688091503009433
1648127669689724796,122772,5,2,0.21595428884,-1.58955609798,0.344971090555,0.0,25.0,0.07222551466220735,-0.5316241130367892,0.11537494667391304,25.0,0.0,0.5413476216800017,1.6408320745318516
1648127669689728684,122773,5,3,0.679809272289,-0.474669247866,0.156978160143,-0.647350490093,25.0,0.22736096063177255,-0.15875225681137123,0.052501056904013375,25.0,-0.08747979595851352,0.35859209679175647,0.8438564358477426
1648127669689732561,122774,5,4,0.85652256012,-0.380907446146,0.0201673079282,-0.485512852669,25.0,0.28646239468896323,-0.12739379469765885,0.006744919039531771,25.0,-0.06560984495527027,0.424677037369976,0.9376183119121863
1648127669689761998,122775,5,5,0.509439170361,-0.457088917494,1.00859701633,-0.404594063759,25.0,0.17038099343177254,-0.15287254765685618,0.3373234168327759,25.0,-0.05467487348094594,0.28535833906282326,1.2189038059435695
1648127669791097707,122776,6,0,0.0125891612843,0.0439508594573,0.0103757027537,0.0,14.6999998093,0.004210421834214047,0.014699284099431437,0.0034701347002341135,14.6999998093,0.0,0.015859516294006278,0.04688091548285499
1648127669791105567,122777,6,1,0.0329001024365,0.0146502861753,-0.0300128757954,0.0,14.6999998093,0.011003378741304349,0.0048997612626421405,-0.010037751102140467,14.6999998093,0.0,0.016314298877980183,0.04688091657444943
1648127669791110325,122778,6,2,0.193932086229,-1.58955609798,0.357815116644,0.0,14.6999998093,0.06486022950802675,-0.5316241130367892,0.11967060757324414,14.6999998093,0.0,0.5394792825547805,1.6408320756230648
1648127669791113745,122779,6,3,1.28461313248,-1.1690928936,0.395782411098,0.161837622523,14.6999998093,0.42963649915719065,-0.3910009677591973,0.1323686993638796,14.6999998093,0.021869948989594594,0.7225349815785546,1.781474897645388
1648127669791117174,122780,6,4,0.627110362053,-0.375047326088,0.169452369213,-0.566431701183,14.6999998093,0.2097359070411371,-0.1254338883237458,0.056673033181605346,14.6999998093,-0.07654482448418919,0.32204341593137864,0.7500946663134609
1648127669791185565,122781,6,5,0.819537103176,-0.334026515484,0.100987166166,-0.323675245047,14.6999998093,0.27409267664749165,-0.11171455367357858,0.03377497196187291,14.6999998093,-0.04373989797932432,0.403402692462581,0.8907374384512711
1648127669791215138,122782,6,6,0.68130928278,-0.421928226948,0.789771318436,-0.161837622523,14.6999998093,0.22786263638127088,-0.14111311938060198,0.2641375646943144,14.6999998093,-0.021869948989594594,0.35178924738907325,1.1251419923377755
1648127669894468604,122783,7,0,0.0125994505361,0.0439508594573,0.0103632062674,0.0,17.6000003815,0.004213863055551839,0.014699284099431437,0.003465955273377926,17.6000003815,0.0,0.01586134410249293,0.04688091557326548
1648127669894648160,122784,7,1,0.0327595062554,0.0146502861753,-0.0301662702113,0.0,17.6000003815,0.01095635660715719,0.0048997612626421405,-0.010089053582374581,17.6000003815,0.0,0.016250881841835,0.046880912891889635
1648127669894651435,122785,7,2,0.203886270523,-1.58955609798,0.352238118649,0.0,17.6000003815,0.0681893881347826,-0.5316241130367892,0.11780539085250835,17.6000003815,0.0,0.5402997157787008,1.6408320731149086
1648127669894655120,122786,7,3,1.77039706707,-1.46502864361,0.462532699108,0.0,17.6000003815,0.5921060424983278,-0.489976134986622,0.15469321040401338,17.6000003815,0.0,0.970183355857279,2.3440459038662076
1648127669894708873,122787,7,4,1.46158730984,-1.08558619022,-0.167778924108,0.161837622523,17.6000003815,0.48882518723745816,-0.36307230442140465,-0.0561133525444816,17.6000003815,0.021869948989594594,0.7808467363019078,1.8283557115770825
1648127669894712334,122788,7,5,0.631454467773,-0.263705164194,0.16197039187,-0.485512852669,17.6000003815,0.21118878520836118,-0.0881957070882943,0.054170699622073576,17.6000003815,-0.06560984495527027,0.31141594169915393,0.7032137415719267
1648127669894714469,122789,7,6,0.846110403538,-0.278355449438,-0.00534784607589,-0.242756426334,17.6000003815,0.2829800680729097,-0.09309546803946488,-0.0017885772829063543,17.6000003815,-0.03280492247756756,0.41087979266761737,0.8907374308205082
1648127669894716903,122790,7,7,0.476864278316,-0.370652228594,0.893232405186,-0.242756426334,17.6000003815,0.15948638070769228,-0.12396395605150501,0.29873993484481604,17.6000003815,-0.03280492247756756,0.2573691389083341,1.0782609814742927
1648127669894719816,122791,7,8,0.55815243721,-0.219754308462,1.0068821907,-0.242756426334,17.6000003815,0.1866730559230769,-0.0734964242347826,0.33674989655518395,17.6000003815,-0.03280492247756756,0.2740353699627468,1.172022971276547
1648127669894727964,122792,7,9,0.939396500587,-0.586011469364,-0.384399026632,-0.242756426334,17.6000003815,0.3141794316344481,-0.19599045798127088,-0.12856154736856185,17.6000003815,-0.03280492247756756,0.4856229917785998,1.1720229687241137
1648127669894736970,122793,7,10,2.00782418251,-0.125992462039,0.128600656986,-0.161837622523,17.6000003815,0.6715131045183945,-0.04213794717023411,0.04301025317257525,17.6000003815,-0.021869948989594594,0.9505973415024818,2.0158795046678333
1648127670089527473,122794,9,0,0.0125994505361,0.0439508594573,0.0103632062674,0.0,16.3999996185,0.004213863055551839,0.014699284099431437,0.003465955273377926,16.3999996185,0.0,0.01586134410249293,0.04688091557326548
1648127670089532652,122795,9,1,0.0328124724329,0.0146502861753,-0.0301086530089,0.0,16.3999996185,0.010974071047792642,0.0048997612626421405,-0.010069783615016722,16.3999996185,0.0,0.01627476977271537,0.04688091528744241
1648127670089544928,122796,9,2,0.193932086229,-1.58955609798,0.357815116644,0.0,16.3999996185,0.06486022950802675,-0.5316241130367892,0.11967060757324414,16.3999996185,0.0,0.5394792825547805,1.6408320756230648
1648127670089599748,122797,9,3,1.90126407146,-1.24527442455,0.573618113995,0.0,16.3999996185,0.6358742713913043,-0.4164797406521739,0.1918455230752508,16.3999996185,0.0,0.9910234873142746,2.3440459045347577
1648127670089602564,122798,9,4,0.653272807598,-0.0615312047303,0.014879736118,0.161837622523,16.3999996185,0.21848588882876252,-0.020578998237558526,0.004976500373913043,16.3999996185,0.021869948989594594,0.3096702478493053,0.6563328856986194
1648127670089617055,122799,9,5,0.198157981038,-0.820416033268,1.67456364632,0.242756426334,16.3999996185,0.0662735722535117,-0.27438663319999995,0.5600547312107023,16.3999996185,0.03280492247756756,0.28995240512421033,1.8752366407119905
1648127670089672482,122800,9,6,0.782713532448,1.69943320751,0.125692769885,0.485512852669,16.3999996185,0.26177710115317726,0.5683723102040134,0.042037715680602,16.3999996185,0.06560984495527027,0.6783078831791421,1.8752366178875446
1648127670089685274,122801,9,7,1.25777065754,-0.039555773139,-0.136599615216,-0.161837622523,16.3999996185,0.42065908278929764,-0.013229355564882942,-0.04568549003879598,16.3999996185,-0.021869948989594594,0.5950488582586546,1.2657847925434984
1648127670089692520,122802,9,8,0.754439532757,-0.174338400364,0.188672035933,-0.0809188112617,16.3999996185,0.25232091396555184,-0.058307157312374576,0.06310101536220736,16.3999996185,-0.010934974494824324,0.36156799062233486,0.7969755476620234
1648127670191129653,122803,10,0,0.0125994505361,0.0439508594573,0.0103632062674,0.0,26.7000007629,0.004213863055551839,0.014699284099431437,0.003465955273377926,26.7000007629,0.0,0.01586134410249293,0.04688091557326548
1648127670191156950,122804,10,1,0.0327725186944,0.0146502861753,-0.0301521364599,0.0,26.7000007629,0.010960708593444817,0.0048997612626421405,-0.01008432657521739,26.7000007629,0.0,0.01625675017251968,0.04688091509014532
1648127670191161753,122805,10,2,0.772724151611,-0.0996219441295,0.167758360505,0.0,26.7000007629,0.25843617110735784,-0.033318375963043476,0.05610647508528428,26.7000007629,0.0,0.3669994867163683,0.7969755415032551
1648127670191276685,122806,10,3,0.206107184291,-1.58955609798,0.350943207741,0.0,26.7000007629,0.06893216865919732,-0.5316241130367892,0.1173723102812709,26.7000007629,0.0,0.540488191651097,1.640832074010412
1648127670191298703,122807,10,4,1.83204829693,-1.39177727699,0.448448449373,0.0,26.7000007629,0.6127251829197324,-0.4654773501638796,0.1499827589876254,26.7000007629,0.0,0.9836327887395916,2.3440458533857353
1648127670191310600,122808,10,5,0.697623133659,0.0219754297286,0.0857242047787,0.242756426334,26.7000007629,0.23331877379899663,0.007349642049698997,0.028670302601571905,26.7000007629,0.03280492247756756,0.33004441769615406,0.7032137622465164
1648127670191423459,122809,10,6,2.09260010719,-1.02552008629,0.252753973007,0.242756426334,26.7000007629,0.6998662565852842,-0.342983306451505,0.08453310134013377,26.7000007629,0.03280492247756756,1.0475032709819119,2.34404590971821
1648127670191517334,122810,10,7,0.469949871302,-1.53828001022,0.32430177927,-0.242756426334,26.7000007629,0.15717387000066887,-0.51447491980602,0.10846213353511704,26.7000007629,-0.03280492247756756,0.5604388404914358,1.6408320802010479
1648127670294294512,122811,11,0,0.0125994505361,0.0439508594573,0.0103632062674,0.0,20.2999992371,0.004213863055551839,0.014699284099431437,0.003465955273377926,20.2999992371,0.0,0.01586134410249293,0.04688091557326548
1648127670294308928,122812,11,1,0.0329129882157,0.0146502861753,-0.029998742044,0.0,20.2999992371,0.011007688366454847,0.0048997612626421405,-0.010033024094983276,20.2999992371,0.0,0.01632011233959066,0.046880915120413834
1648127670294320182,122813,11,2,1.89348733425,-1.24527442455,0.598789155483,0.0,20.2999992371,0.6332733559364548,-0.4164797406521739,0.20026393159966555,20.2999992371,0.0,0.9876870258597821,2.344045889083136
1648127670294327677,122814,11,3,2.42701458931,-0.902457654476,0.4330534935,0.0,20.2999992371,0.8117105649866221,-0.30182530250033446,0.14483394431438126,20.2999992371,0.0,1.1869484385815674,2.625331400619447
1648127670294413814,122815,11,4,0.808061122894,0.0263705141842,0.2417345047,0.0809188112617,20.2999992371,0.27025455615183946,0.008819569961270902,0.0808476604347826,20.2999992371,0.010934974494824324,0.382299404990326,0.8438564766082001
1648127670294535872,122816,11,5,0.688941657543,0.10987714678,0.0882947668433,0.161837622523,20.2999992371,0.23041527008127088,0.03674820962541806,0.029530022355618725,20.2999992371,0.021869948989594594,0.32792197895829384,0.7032137375894492
1648127670294541769,122817,11,6,0.564390420914,-0.0336956568062,0.918136656284,0.161837622523,20.2999992371,0.18875933809832776,-0.011269450436856187,0.3070691158140468,20.2999992371,0.021869948989594594,0.26718378684303873,1.078261037096049
1648127670294545696,122818,11,7,1.30054473877,-0.0,2.06191396713,0.242756426334,20.2999992371,0.4349647955752508,-0.0,0.6896033334882943,20.2999992371,0.03280492247756756,0.6151331130573605,2.4378075858008366
1648127670294548571,122819,11,8,0.697663486004,1.74191904068,0.416556954384,0.485512852669,20.2999992371,0.23333226956655514,0.5825816189565217,0.13931670715183944,20.2999992371,0.06560984495527027,0.6695440529107558,1.9221175771092827
1648127670294554010,122820,11,9,1.22361421585,-0.276890397072,0.168258622289,-0.0809188112617,20.2999992371,0.4092355236956522,-0.09260548397056856,0.05627378671872909,20.2999992371,-0.010934974494824324,0.5861085252496611,1.2657847388855235
1648127670391303463,122821,12,0,0.0126141794026,0.0439508594573,0.0103452727199,0.0,13.1999998093,0.004218789097859532,0.014699284099431437,0.003459957431404682,13.1999998093,0.0,0.015863962806948167,0.0468809154847196
1648127670391314231,122822,12,1,0.0328478105366,0.0146502861753,-0.0300700943917,0.0,13.1999998093,0.010985889811571906,0.0048997612626421405,-0.010056887756421403,13.1999998093,0.0,0.016290709325713453,0.04688091422735167
1648127670391317121,122823,12,2,0.685701429844,0.153828009963,0.0256915260106,0.0,13.1999998093,0.2293315818876254,0.05144749497090301,0.008592483615585284,13.1999998093,0.0,0.32837903958831227,0.7032137385233853
1648127670391321013,122824,12,3,2.42586183548,-0.902457654476,0.43946570158,0.0,13.1999998093,0.8113250285886288,-0.30182530250033446,0.14697849551170566,13.1999998093,0.0,1.1864211382380614,2.6253315154139907
1648127670391327086,122825,12,4,0.794017493725,0.111342176795,0.38801074028,0.161837622523,13.1999998093,0.2655576902090301,0.037238186219063545,0.12976947835451505,13.1999998093,0.021869948989594594,0.37739694775023824,0.8907374446195764
1648127670391333348,122826,12,5,1.2559876442,-0.457088917494,2.03874230385,0.242756426334,13.1999998093,0.42006275725752507,-0.15287254765685618,0.6818536133277591,13.1999998093,0.03280492247756756,0.6134129570661894,2.4378075031442714
1648127670391480242,122827,12,6,0.395110666752,-1.23062396049,-1.48539793491,0.323675245047,13.1999998093,0.13214403570301003,-0.41157991989632103,-0.49678860699331095,13.1999998093,0.04373989797932432,0.45202004690679237,1.9689984246180077
1648127670391588637,122828,12,7,0.839808940887,0.079111546278,-0.0235812906176,-0.0809188112617,13.1999998093,0.28087255548060197,0.026458711129765885,-0.007886719270100333,13.1999998093,-0.010934974494824324,0.3980940193460033,0.843856487333855
