%time,field.header.seq,field.header.frame_id,field.point_id,field.x,field.y,field.z,field.velocity,field.intensity,normalized_x,normalized_y,normalized_z,normalized_intensity,normalized_velocity,normalized_range,range
1648219756057363250,86717,0,0,0.0123359980062,0.0439508594573,0.0106754545122,0.0,31.2999992371,0.004125751841538461,0.014699284099431437,0.003570386124481605,31.2999992371,0.0,0.01581494892662363,0.04688091533754816
1648219756057370500,86718,0,1,0.0333878919482,0.0146502861753,-0.0294692683965,0.0,31.2999992371,0.011166519046220735,0.0048997612626421405,-0.009855942607525084,31.2999992371,0.0,0.016534508025644712,0.04688091289200561
1648219756057373708,86719,0,2,1.19940268993,-0.533270418644,0.0121309580281,0.0809188112617,31.2999992371,0.4011380233879599,-0.1783513105832776,0.004057176598026756,31.2999992371,0.010934974494824324,0.5946701754771058,1.3126657275006255
1648219756057407516,86720,0,3,0.953749895096,-0.83067125082,0.0505712851882,-0.161837622523,31.2999992371,0.31897989802541804,-0.2778164718461538,0.0169134733070903,31.2999992371,-0.021869948989594594,0.5297908480878628,1.265784754300699
1648219756162283309,86721,1,0,0.012225298211,0.0439508594573,0.0108020491898,0.0,29.7000007629,0.004088728498662207,0.014699284099431437,0.0036127254815384612,29.7000007629,0.0,0.015795706837851316,0.04688091541429279
1648219756162293078,86722,1,1,0.0333878919482,0.0146502861753,-0.0294692683965,0.0,29.7000007629,0.011166519046220735,0.0048997612626421405,-0.009855942607525084,29.7000007629,0.0,0.016534508025644712,0.04688091289200561
1648219756162296612,86723,1,2,1.19606006145,-0.533270418644,-0.0903004109859,0.0,29.7000007629,0.40002008744147155,-0.1783513105832776,-0.03020080634979933,29.7000007629,0.0,0.593162145370166,1.312665674960973
1648219756162308517,86724,1,3,1.38610053062,-0.408742964268,0.154141798615,0.0809188112617,29.7000007629,0.4635787727826087,-0.13670333253110367,0.0515524410083612,29.7000007629,0.010934974494824324,0.6697002002944068,1.4533083588502147
1648219756162322343,86725,1,4,0.932521104813,-0.695888638496,0.140645414591,-0.242756426334,29.7000007629,0.3118799681648829,-0.23273867508227425,0.04703860019765886,29.7000007629,-0.03280492247756756,0.4987038399331904,1.1720229267189908
1648219756162325065,86726,1,5,0.976473927498,-0.861436843872,0.165881186724,-0.242756426334,29.7000007629,0.32657990886220734,-0.28810596785016723,0.055478657767224084,29.7000007629,-0.03280492247756756,0.5443472443723555,1.3126657362681804
1648219756357529217,86727,3,0,0.012225298211,0.0439508594573,0.0108020491898,0.0,27.6000003815,0.004088728498662207,0.014699284099431437,0.0036127254815384612,27.6000003815,0.0,0.015795706837851316,0.04688091541429279
1648219756357532890,86728,3,1,0.0333878919482,0.0146502861753,-0.0294692683965,0.0,27.6000003815,0.011166519046220735,0.0048997612626421405,-0.009855942607525084,27.6000003815,0.0,0.016534508025644712,0.04688091289200561
1648219756357592705,86729,3,2,1.2086186409,-0.492249637842,0.141501322389,0.0,27.6000003815,0.4042202812374581,-0.16463198590033443,0.047324856986287626,27.6000003815,0.0,0.5948880250172023,1.3126657416586975
1648219756357602312,86730,3,3,1.36333501339,-0.499574750662,0.0620312280953,0.0,27.6000003815,0.4559648874214046,-0.16708185640869566,0.020746230132207357,27.6000003815,0.0,0.6661263422680448,1.4533083511399507
1648219756357604414,86731,3,4,1.04309737682,-0.712003946304,-0.0849073603749,-0.566431701183,27.6000003815,0.3488619989364548,-0.23812841013511704,-0.02839711049327759,27.6000003815,-0.07654482448418919,0.5478270971003136,1.2657847435196348
1648219756462471138,86732,4,0,0.012225298211,0.0439508594573,0.0108020491898,0.0,22.3999996185,0.004088728498662207,0.014699284099431437,0.0036127254815384612,22.3999996185,0.0,0.015795706837851316,0.04688091541429279
1648219756462478501,86733,4,1,0.0334108844399,0.0146502861753,-0.0294432006776,0.0,22.3999996185,0.011174208842775918,0.0048997612626421405,-0.009847224306889632,22.3999996185,0.0,0.01654489489101794,0.04688091456249508
1648219756462486583,86734,4,2,1.22725105286,-0.509829938412,0.286871671677,0.0,22.3999996185,0.4104518571438127,-0.1705116850876254,0.09594370290200668,22.3999996185,0.0,0.6049923047585243,1.3595466409277466
1648219756462496886,86735,4,3,1.71824085712,-1.46502864361,0.629198372364,0.0,22.3999996185,0.5746624940200669,-0.489976134986622,0.21043423824882942,22.3999996185,0.0,0.9489734332019812,2.3440458957664916
1648219756462506646,86736,4,4,1.32493710518,-1.25699448586,0.0859709531069,0.323675245047,22.3999996185,0.4431227776521739,-0.4203994935986622,0.028752827126053513,22.3999996185,0.04373989797932432,0.754619988051183,1.8283556751746397
1648219756462576984,86737,4,5,0.907787501812,-0.483459472656,0.0770314112306,-0.647350490093,22.3999996185,0.3036078601377926,-0.16169213132307692,0.02576301378949833,22.3999996185,-0.08747979595851352,0.4588025836966244,1.0313801667974167
1648219756657449682,86738,6,0,0.012225298211,0.0439508594573,0.0108020491898,0.0,35.5,0.004088728498662207,0.014699284099431437,0.0036127254815384612,35.5,0.0,0.015795706837851316,0.04688091541429279
1648219756657470169,86739,6,1,0.0334246940911,0.0146502861753,-0.0294275209308,0.0,35.5,0.01117882745521739,0.0048997612626421405,-0.009841980244414716,35.5,0.0,0.01655113370672634,0.04688091347482975
1648219756657518914,86740,6,2,1.25687742233,-0.509829938412,0.0932716056705,0.0,35.5,0.420360341916388,-0.1705116850876254,0.031194516946655516,35.5,0.0,0.6184495685692948,1.3595466204909792
1648219756657563013,86741,6,3,1.79100894928,-1.46502864361,0.374872624874,0.0,35.5,0.5989996485886288,-0.489976134986622,0.12537545982408027,35.5,0.0,0.9786101219970239,2.3440459611276245
1648219756657566732,86742,6,4,0.971328377724,-0.153827995062,-0.0457919090986,-0.242756426334,35.5,0.32485898920535117,-0.05144748998729097,-0.01531501976541806,35.5,-0.03280492247756756,0.4622916503258926,0.9844992475241547
1648219756762452495,86743,7,0,0.0123228654265,0.0439508594573,0.0106906108558,0.0,35.5999984741,0.004121359674414716,0.014699284099431437,0.003575455135719063,35.5999984741,0.0,0.015812658352332205,0.04688091530489902
1648219756762572083,86744,7,1,0.0334108844399,0.0146502861753,-0.0294432006776,0.0,35.5999984741,0.011174208842775918,0.0048997612626421405,-0.009847224306889632,35.5999984741,0.0,0.01654489489101794,0.04688091456249508
1648219756762575279,86745,7,2,1.45096564293,-0.375047326088,-0.067867487669,0.0,35.5999984741,0.4852727902775919,-0.1254338883237458,-0.02269815641103679,35.5999984741,0.0,0.6976482081304397,1.5001892512784942
1648219756762577508,86746,7,3,2.06806659698,-1.19546329975,0.10245680809,0.0,35.5999984741,0.6916610692240802,-0.39982050158862875,0.034266490999999996,35.5999984741,0.0,1.0567149581845514,2.3909264622981588
1648219756762581523,86747,7,4,0.936868488789,-0.0,0.037489309907,-0.323675245047,35.5999984741,0.31333394273879595,-0.0,0.01253823073812709,35.5999984741,-0.04373989797932432,0.44312111137304,0.9376182664832675
1648219756762607562,86748,7,5,1.20935308933,-0.594801604748,0.17900569737,-0.0809188112617,35.5999984741,0.40446591616387956,-0.19893030259130434,0.05986812621070234,35.5999984741,-0.010934974494824324,0.6056059939974511,1.3595465727122888
1648219756957554099,86749,9,0,0.0123228654265,0.0439508594573,0.0106906108558,0.0,21.0,0.004121359674414716,0.014699284099431437,0.003575455135719063,21.0,0.0,0.015812658352332205,0.04688091530489902
1648219756957714595,86750,9,1,0.0334246940911,0.0146502861753,-0.0294275209308,0.0,21.0,0.01117882745521739,0.0048997612626421405,-0.009841980244414716,21.0,0.0,0.01655113370672634,0.04688091347482975
1648219756957718593,86751,9,2,1.20617699623,-0.594801604748,0.19928561151,0.0,21.0,0.4034036776688963,-0.19893030259130434,0.06665070619063544,21.0,0.0,0.6041873216169381,1.359546486958109
1648219756957723347,86752,9,3,1.67966461182,-1.53828012943,0.554050564766,0.0,21.0,0.5617607397391304,-0.5144749596755852,0.18530119222943142,21.0,0.0,0.9464854682232079,2.3440458598579363
1648219756957861357,86753,9,4,1.7375395298,-1.18667328358,-0.152804613113,-0.566431701183,21.0,0.5811168995986622,-0.3968806968494983,-0.051105221776923074,21.0,-0.07654482448418919,0.9126379290441893,2.1096412845241623
1648219756957865449,86754,9,5,0.787462830544,0.237334623933,0.18886063993,-0.242756426334,21.0,0.2633654951652174,0.07937612840568561,0.06316409362207358,21.0,-0.03280492247756756,0.38081929815585264,0.8438564892921996
1648219756957866594,86755,9,6,1.27851653099,-0.483459442854,0.331210851669,-0.242756426334,21.0,0.42759750200334445,-0.16169212135585284,0.11077286008996655,21.0,-0.03280492247756756,0.6259581372165044,1.4064274532170893
1648219757062512268,86756,10,0,0.0122118405998,0.0439508594573,0.0108172614127,0.0,25.2000007629,0.00408422762535117,0.014699284099431437,0.003617813181505017,25.2000007629,0.0,0.015793377840954772,0.04688091554503761
1648219757062540922,86757,10,1,0.0334016978741,0.0146502861753,-0.0294536203146,0.0,25.2000007629,0.011171136412742476,0.0048997612626421405,-0.009850709135317725,25.2000007629,0.0,0.016540744781753033,0.0468809135526118
1648219757062546374,86758,10,2,1.25043022633,-0.509829938412,0.157685086131,0.0,25.2000007629,0.4182040890735786,-0.1705116850876254,0.05273748700033444,25.2000007629,0.0,0.6155189314612061,1.3595465800806605
1648219757062551955,86759,10,3,1.7665579319,-1.46502864361,0.476985454559,0.0,25.2000007629,0.5908220508026756,-0.489976134986622,0.1595269078792642,25.2000007629,0.0,0.9686165414062405,2.3440458564664253
1648219757062572014,86760,10,4,1.18113470078,-0.55231577158,0.385013133287,0.242756426334,25.2000007629,0.3950283280200668,-0.18472099383946486,0.12876693420969898,25.2000007629,0.03280492247756756,0.5884017381361978,1.359546617709795
1648219757062576925,86761,10,5,0.760743319988,0.44536870718,0.127786710858,0.566431701183,25.2000007629,0.25442920400936453,0.14895274487625418,0.042738030387290966,25.2000007629,0.07654482448418919,0.38942953138128616,0.890737406710561
1648219757257629261,86762,12,0,0.0122477002442,0.0439508594573,0.01077664271,0.0,38.7000007629,0.004096220817458194,0.014699284099431437,0.0036042283311036784,38.7000007629,0.0,0.015799588697385562,0.04688091548174064
1648219757257814348,86763,12,1,0.0334246940911,0.0146502861753,-0.0294275209308,0.0,38.7000007629,0.01117882745521739,0.0048997612626421405,-0.009841980244414716,38.7000007629,0.0,0.01655113370672634,0.04688091347482975
1648219757257821013,86764,12,2,1.7452712059,-1.46502864361,0.549791514874,0.0,38.7000007629,0.5837027444481605,-0.489976134986622,0.18387676082742474,38.7000007629,0.0,0.9599449987416245,2.3440459079482303
1648219757257823558,86765,12,3,1.23729026318,-0.55231577158,0.111476317048,0.0809188112617,38.7000007629,0.41380945256856183,-0.18472099383946486,0.03728304917993311,38.7000007629,0.010934974494824324,0.6136761129742833,1.3595465700587939
1648219757257826260,86766,12,4,0.480036705732,0.902457654476,-0.137404352427,-0.566431701183,38.7000007629,0.16054739322140468,0.30182530250033446,-0.045954632918729095,38.7000007629,-0.07654482448418919,0.3776896135317929,1.0313801496239092
1648219757257828919,86767,12,5,0.309410274029,0.580151319504,-0.794628679752,-0.323675245047,38.7000007629,0.10348169699966554,0.19403054164013378,-0.265762100251505,38.7000007629,-0.04373989797932432,0.2430324552750617,1.0313801480934852
1648219757257834323,86768,12,6,0.280344843864,0.966918945312,0.224097207189,-0.323675245047,38.7000007629,0.09376081734581938,0.32338426264615383,0.07494889872541806,38.7000007629,-0.04373989797932432,0.3495133231593737,1.0313801610242028
1648219757362703140,86769,13,0,0.0122343283147,0.0439508594573,0.0107918214053,0.0,32.4000015259,0.004091748600234113,0.014699284099431437,0.0036093048178260866,32.4000015259,0.0,0.0157972708481824,0.04688091557970149
1648219757362710005,86770,13,1,0.0334108844399,0.0146502861753,-0.0294432006776,0.0,32.4000015259,0.011174208842775918,0.0048997612626421405,-0.009847224306889632,32.4000015259,0.0,0.01654489489101794,0.04688091456249508
1648219757362715484,86771,13,2,1.72971427441,-1.46502864361,0.596934318542,0.0,32.4000015259,0.5784997573277592,-0.489976134986622,0.1996435847966555,32.4000015259,0.0,0.9536249531723574,2.3440458567077287
1648219757362719042,86772,13,3,1.20071125031,-0.637287437916,0.0228929333389,0.0809188112617,32.4000015259,0.40157566899999997,-0.21313961134314377,0.0076564994444481595,32.4000015259,0.010934974494824324,0.6065925566548781,1.3595465683614527
1648219757362766862,86773,13,4,1.34133028984,-0.499574750662,0.251720547676,-0.0809188112617,32.4000015259,0.44860544810702335,-0.16708185640869566,0.08418747413913043,32.4000015259,-0.010934974494824324,0.6560564326973576,1.4533083334459906
1648219757557552615,86774,15,0,0.0123096564785,0.0439508594573,0.0107058184221,0.0,12.1000003815,0.004116941966053511,0.014699284099431437,0.003580541278294314,12.1000003815,0.0,0.01581035658483081,0.04688091549597757
1648219757557567540,86775,15,1,0.0334016978741,0.0146502861753,-0.0294536203146,0.0,12.1000003815,0.011171136412742476,0.0048997612626421405,-0.009850709135317725,12.1000003815,0.0,0.016540744781753033,0.0468809135526118
1648219757557570520,86776,15,2,1.33699083328,-0.656332850456,-0.179585009813,0.0809188112617,12.1000003815,0.44715412484280936,-0.21950931453377925,-0.06006187619163879,12.1000003815,0.010934974494824324,0.66938625762333,1.5001893462533262
1648219757557676343,86777,15,3,2.21242952347,-0.914177834988,0.460804462433,0.323675245047,12.1000003815,0.739942984438127,-0.30574509531371236,0.1541152048270903,12.1000003815,0.04373989797932432,1.0901886551174507,2.437807675536199
1648219757662589369,86778,16,0,0.0122343283147,0.0439508594573,0.0107918214053,0.0,17.2000007629,0.004091748600234113,0.014699284099431437,0.0036093048178260866,17.2000007629,0.0,0.0157972708481824,0.04688091557970149
1648219757662594440,86779,16,1,0.0334108844399,0.0146502861753,-0.0294432006776,0.0,17.2000007629,0.011174208842775918,0.0048997612626421405,-0.009847224306889632,17.2000007629,0.0,0.01654489489101794,0.04688091456249508
