%time,field.header.seq,field.header.frame_id,field.point_id,field.x,field.y,field.z,field.velocity,field.intensity,normalized_x,normalized_y,normalized_z,normalized_intensity,normalized_velocity,normalized_range,range
1648125390588316104,21521,0,0,0.0126405349001,0.0439508594573,0.0103130536154,0.0,16.1000003815,0.004227603645518395,0.014699284099431437,0.003449181811170568,16.1000003815,0.0,0.01586865521091812,0.046880915567745665
1648125390588321034,21522,0,1,0.032850060612,0.0146502861753,-0.0300676375628,0.0,16.1000003815,0.010986642345150502,0.0048997612626421405,-0.01005606607451505,16.1000003815,0.0,0.01629172429399039,0.046880915049070465
1648125390588414477,21523,0,2,2.42420053482,-0.902457654476,0.448538154364,0.0,16.1000003815,0.810769409638796,-0.30182530250033446,0.15001276065685618,16.1000003815,0.0,1.1856612435436615,2.6253313175795854
1648125390588424036,21524,0,3,1.0465927124,-0.69735366106,0.376075416803,0.0809188112617,16.1000003815,0.3500310074916388,-0.23322864918394645,0.1257777313722408,16.1000003815,0.010934974494824324,0.547210211172445,1.3126656670173578
1648125390588479100,21525,0,4,1.04957687855,-0.779395282269,-0.118417240679,-0.242756426334,16.1000003815,0.35102905637123744,-0.2606673184846154,-0.03960442832073578,16.1000003815,-0.03280492247756756,0.5607051344153384,1.3126657125483105
1648125390783258851,21526,2,0,0.0126405349001,0.0439508594573,0.0103130536154,0.0,29.2000007629,0.004227603645518395,0.014699284099431437,0.003449181811170568,29.2000007629,0.0,0.01586865521091812,0.046880915567745665
1648125390783262254,21527,2,1,0.0329016707838,0.0146502861753,-0.030011150986,0.0,29.2000007629,0.01100390327217391,0.0048997612626421405,-0.010037174242809364,29.2000007629,0.0,0.016315006432043106,0.04688091305518946
1648125390783286219,21528,2,2,2.41570329666,-0.902457654476,0.492253124714,0.0,29.2000007629,0.8079275239665551,-0.30182530250033446,0.16463315207826087,29.2000007629,0.0,1.1817750552431183,2.62533147895785
1648125390783404655,21529,2,3,1.04769635201,-0.69735366106,0.372989803553,-0.0809188112617,29.2000007629,0.35040011772909696,-0.23322864918394645,0.12474575369665551,29.2000007629,-0.010934974494824324,0.5476824698758381,1.3126656726536854
1648125390888331570,21530,3,0,0.0126405349001,0.0439508594573,0.0103130536154,0.0,24.3999996185,0.004227603645518395,0.014699284099431437,0.003449181811170568,24.3999996185,0.0,0.01586865521091812,0.046880915567745665
1648125390888336347,21531,3,1,0.032850060612,0.0146502861753,-0.0300676375628,0.0,24.3999996185,0.010986642345150502,0.0048997612626421405,-0.01005606607451505,24.3999996185,0.0,0.01629172429399039,0.046880915049070465
1648125390888341608,21532,3,2,2.38385057449,-0.984499275684,0.490288734436,0.0,24.3999996185,0.7972744396287624,-0.32926397180066885,0.1639761653632107,24.3999996185,0.0,1.1746096489032711,2.625331489247306
1648125390888351185,21533,3,3,1.0225610733,-0.779395282269,0.264581114054,-0.161837622523,24.3999996185,0.3419936699999999,-0.2606673184846154,0.08848866690769229,24.3999996185,-0.021869948989594594,0.5494240544116153,1.3126657307043852
1648125390888359560,21534,3,4,0.963803827763,-0.821881055832,0.888268053532,-0.161837622523,24.3999996185,0.3223424173120401,-0.27487660730167224,0.2970796165658863,24.3999996185,-0.021869948989594594,0.5323217234331289,1.5470702709546396
1648125390888369930,21535,3,5,1.54319608212,-0.75888478756,0.226839244366,-0.161837622523,24.3999996185,0.5161190910100334,-0.25380762125752504,0.07586596801538462,24.3999996185,-0.021869948989594594,0.7727717262027962,1.7345939903749932
1648125391083328840,21536,5,0,0.012540794909,0.0439508594573,0.0104341097176,0.0,18.3999996185,0.00419424578896321,0.014699284099431437,0.0034896688018729097,18.3999996185,0.0,0.01585094156548024,0.046880915408979075
1648125391083480335,21537,5,1,0.032850060612,0.0146502861753,-0.0300676375628,0.0,18.3999996185,0.010986642345150502,0.0048997612626421405,-0.01005606607451505,18.3999996185,0.0,0.01629172429399039,0.046880915049070465
1648125391083482949,21538,5,2,0.272591948509,-1.58955609798,0.30221670866,0.0,18.3999996185,0.09116787575551838,-0.5316241130367892,0.10107582229431437,18.3999996185,0.0,0.5470350635029715,1.640832074896947
1648125391083487212,21539,5,3,2.41661739349,-0.902457654476,0.48774510622,0.0,18.3999996185,0.8082332419698997,-0.30182530250033446,0.16312545358528427,18.3999996185,0.0,1.1821930722516383,2.6253313568542707
1648125391083511789,21540,5,4,1.18066728115,-0.773535132408,0.633320271969,-0.404594063759,18.3999996185,0.3948720003846154,-0.2587074021431438,0.2118127999896321,18.3999996185,-0.05467487348094594,0.6154488713931887,1.5470702623780483
1648125391083515164,21541,5,5,1.00286364555,-0.75155967474,0.177858531475,-0.323675245047,18.3999996185,0.3354059015217391,-0.25135775074916383,0.059484458687290964,18.3999996185,-0.04373989797932432,0.536819295864912,1.265784773758783
1648125391083518949,21542,5,6,1.47261941433,-0.71786403656,0.0916131585836,-0.242756426334,18.3999996185,0.49251485429096986,-0.240088306541806,0.030639852369096988,18.3999996185,-0.03280492247756756,0.7367388671249961,1.640832010070962
1648125391188377472,21543,6,0,0.0126405349001,0.0439508594573,0.0103130536154,0.0,20.8999996185,0.004227603645518395,0.014699284099431437,0.003449181811170568,20.8999996185,0.0,0.01586865521091812,0.046880915567745665
1648125391188385521,21544,6,1,0.032850060612,0.0146502861753,-0.0300676375628,0.0,20.8999996185,0.010986642345150502,0.0048997612626421405,-0.01005606607451505,20.8999996185,0.0,0.01629172429399039,0.046880915049070465
1648125391188406599,21545,6,2,0.284152984619,-1.58955609798,0.291373282671,0.0,20.8999996185,0.09503444301638796,-0.5316241130367892,0.09744925841839464,20.8999996185,0.0,0.5483496040675355,1.6408320746340144
1648125391188412191,21546,6,3,2.41302013397,-0.902457654476,0.505241453648,0.0,20.8999996185,0.8070301451404681,-0.30182530250033446,0.1689770747986622,20.8999996185,0.0,1.180548103026856,2.6253313908059805
1648125391188417950,21547,6,4,1.02070188522,-0.796975553036,0.757341086864,-0.485512852669,20.8999996185,0.34137186796655516,-0.2665470077043478,0.2532913333993311,20.8999996185,-0.06560984495527027,0.551467870137592,1.500189285550675
1648125391188469207,21548,6,5,0.974438905716,-0.68563336134,0.25710350275,-0.404594063759,20.8999996185,0.3258992995705685,-0.2293088165016722,0.0859877935618729,20.8999996185,-0.05467487348094594,0.5147846542454154,1.218903810102217
1648125391383323404,21549,8,0,0.0126405349001,0.0439508594573,0.0103130536154,0.0,39.7000007629,0.004227603645518395,0.014699284099431437,0.003449181811170568,39.7000007629,0.0,0.01586865521091812,0.046880915567745665
1648125391383326403,21550,8,1,0.0328744277358,0.0146502861753,-0.0300409924239,0.0,39.7000007629,0.010994791884882943,0.0048997612626421405,-0.010047154656822743,39.7000007629,0.0,0.01630271626492543,0.04688091413131083
1648125391383329245,21551,8,2,0.265193641186,-1.58955609798,0.308729082346,0.0,39.7000007629,0.08869352548026754,-0.5316241130367892,0.10325387369431437,39.7000007629,0.0,0.5462209081373492,1.6408320761848532
1648125391383334302,21552,8,3,1.21609163284,-1.22476398945,0.441278904676,0.0809188112617,39.7000007629,0.4067196096454849,-0.409620063361204,0.14758491795183945,39.7000007629,0.010934974494824324,0.7061375772810763,1.7814748836368666
1648125391383409094,21553,8,4,0.989853382111,-0.586011469364,0.224540829659,-0.566431701183,39.7000007629,0.3310546428464883,-0.19599045798127088,0.0750972674444816,39.7000007629,-0.07654482448418919,0.5075496160181191,1.172022928311
1648125391383412573,21554,8,5,1.03912484646,-0.726654171944,0.71013969183,-0.485512852669,39.7000007629,0.34753339346488293,-0.24302815115183943,0.2375049136555184,39.7000007629,-0.06560984495527027,0.5482897057201745,1.4533083341282214
1648125391383669848,21555,8,6,0.911085247993,-0.594801604748,0.815169632435,-0.404594063759,39.7000007629,0.30471078528193973,-0.19893030259130434,0.2726319840919732,39.7000007629,-0.05467487348094594,0.474626790882416,1.359546544905865
1648125391488374067,21556,9,0,0.0126405349001,0.0439508594573,0.0103130536154,0.0,17.7000007629,0.004227603645518395,0.014699284099431437,0.003449181811170568,17.7000007629,0.0,0.01586865521091812,0.046880915567745665
1648125391488381530,21557,9,1,0.0328744277358,0.0146502861753,-0.0300409924239,0.0,17.7000007629,0.010994791884882943,0.0048997612626421405,-0.010047154656822743,17.7000007629,0.0,0.01630271626492543,0.04688091413131083
1648125391488384564,21558,9,2,0.28530690074,-1.58955609798,0.290243476629,0.0,17.7000007629,0.09542036814046821,-0.5316241130367892,0.09707139686588628,17.7000007629,0.0,0.5484836286292215,1.6408320730534727
1648125391488388278,21559,9,3,0.302017360926,-0.338421612978,0.873782038689,0.566431701183,17.7000007629,0.10100915081137124,-0.11318448594581938,0.2922347955481605,17.7000007629,0.07654482448418919,0.18225373783296756,0.984499225782754
1648125391488416915,21560,9,4,0.97873544693,-0.49224960804,0.256342858076,-0.485512852669,17.7000007629,0.3273362698762542,-0.16463197593311035,0.08573339734983276,17.7000007629,-0.06560984495527027,0.49132652549260974,1.1251419521906438
1648125391488626711,21561,9,5,0.925052344799,-0.533270418644,0.763539195061,-0.404594063759,17.7000007629,0.3093820551167224,-0.1783513105832776,0.25536427928461536,17.7000007629,-0.05467487348094594,0.47248672155232685,1.3126657161719715
1648125391683265917,21562,11,0,0.0126303331926,0.0439508594573,0.0103255445138,0.0,22.0,0.004224191703210702,0.014699284099431437,0.003453359369163879,22.0,0.0,0.015866837874218862,0.04688091544645748
1648125391683282540,21563,11,1,0.032850060612,0.0146502861753,-0.0300676375628,0.0,22.0,0.010986642345150502,0.0048997612626421405,-0.01005606607451505,22.0,0.0,0.01629172429399039,0.046880915049070465
1648125391683317002,21564,11,2,0.301430404186,-1.58955609798,0.273461192846,0.0,22.0,0.10081284420936454,-0.5316241130367892,0.09145859292508361,22.0,0.0,0.550409535416417,1.640832075864528
1648125391683426010,21565,11,3,1.41177213192,-1.14272224903,0.209689870477,0.0809188112617,22.0,0.4721645926153846,-0.3821813541906354,0.07013039146387959,22.0,0.010934974494824324,0.7693772758083594,1.8283556909624517
1648125391683433375,21566,11,4,0.801578879356,-0.263705134392,0.00496085733175,-0.566431701183,22.0,0.2680865817244147,-0.08819569712107023,0.0016591496092809362,22.0,-0.07654482448418919,0.38925481575959225,0.8438564497826567
1648125391683447748,21567,11,5,0.815097391605,-0.306190997362,0.187820374966,-0.404594063759,22.0,0.2726078232792642,-0.10240501584013377,0.06281617891839464,22.0,-0.05467487348094594,0.39889451976097023,0.8907374348926735
1648125391683477714,21568,11,6,0.914196789265,-0.41899818182,0.228975519538,-0.242756426334,22.0,0.30575143453678927,-0.14013317117725752,0.07658044131705685,22.0,-0.03280492247756756,0.45453843083594553,1.0313801599888364
1648125391683485274,21569,11,7,0.972579538822,-0.435113489628,0.683356583118,-0.161837622523,22.0,0.32527743773311035,-0.14552290623010034,0.2285473522133779,22.0,-0.021869948989594594,0.482480817477845,1.2657847083458458
1648125391788271359,21570,12,0,0.0126097733155,0.0439508594573,0.0103506427258,0.0,19.8999996185,0.004217315490133779,0.014699284099431437,0.0034617534199999998,19.8999996185,0.0,0.01586317915559307,0.04688091546611253
1648125391788280757,21571,12,1,0.0329016707838,0.0146502861753,-0.030011150986,0.0,19.8999996185,0.01100390327217391,0.0048997612626421405,-0.010037174242809364,19.8999996185,0.0,0.016315006432043106,0.04688091305518946
1648125391788288158,21572,12,2,0.280487060547,-1.58955609798,0.2949039042,0.0,19.8999996185,0.09380838145384615,-0.5316241130367892,0.09863006829431438,19.8999996185,0.0,0.5479272054060954,1.640832073209231
1648125391788309155,21573,12,3,1.78789031506,-1.46502864361,0.389474630356,0.0,19.8999996185,0.5979566271103679,-0.489976134986622,0.13025907369765885,19.8999996185,0.0,0.9773335503638682,2.344045902488696
1648125391788321705,21574,12,4,0.440896600485,-0.799905598164,-1.58387053013,0.0809188112617,19.8999996185,0.14745705701839465,-0.26752695590769227,-0.5297225853277592,19.8999996185,0.010934974494824324,0.3392017680765955,1.8283557188106543
1648125391788349315,21575,12,5,0.777511119843,-0.174338400364,0.015894362703,-0.161837622523,19.8999996185,0.2600371638270903,-0.058307157312374576,0.005315840368896321,19.8999996185,-0.021869948989594594,0.3723417485809562,0.79697556429713
1648125391788361702,21576,12,6,0.968042016029,-0.354536950588,-0.0307131186128,-0.161837622523,19.8999996185,0.3237598715816053,-0.11857423096588628,-0.010271946024347825,19.8999996185,-0.021869948989594594,0.4729701440283799,1.0313801868295962
1648125391788366016,21577,12,7,0.920612812042,-0.435113489628,0.751903772354,-0.161837622523,19.8999996185,0.30789726155250835,-0.14552290623010034,0.25147283356321065,19.8999996185,-0.021869948989594594,0.4591060482946419,1.265784729498784
1648125391983324577,21578,14,0,0.0126405349001,0.0439508594573,0.0103130536154,0.0,21.0,0.004227603645518395,0.014699284099431437,0.003449181811170568,21.0,0.0,0.01586865521091812,0.046880915567745665
1648125391983329930,21579,14,1,0.0328744277358,0.0146502861753,-0.0300409924239,0.0,21.0,0.010994791884882943,0.0048997612626421405,-0.010047154656822743,21.0,0.0,0.01630271626492543,0.04688091413131083
1648125391983332660,21580,14,2,0.751439273357,-0.224149376154,0.142359122634,0.0,21.0,0.2513174827280936,-0.07496634653979932,0.04761174670033445,21.0,0.0,0.36323670982308015,0.7969755605855463
1648125391983444884,21581,14,3,0.269167751074,-1.58955609798,0.305270433426,0.0,21.0,0.09002265922207357,-0.5316241130367892,0.10209713492508361,21.0,0.0,0.5466556099675371,1.6408320768341094
1648125391983447718,21582,14,4,1.84402954578,-1.39177727699,0.396310657263,0.0,21.0,0.6167322895585284,-0.4654773501638796,0.13254537032207359,21.0,0.0,0.988628644883303,2.3440458808469438
1648125391983449149,21583,14,5,1.24123001099,-0.820416033268,1.14139306545,0.161837622523,21.0,0.41512709397658865,-0.27438663319999995,0.3817368111872909,21.0,0.021869948989594594,0.6480347465882723,1.8752366617797296
1648125391983450958,21584,14,6,1.15034592152,-0.219754308462,0.0452770218253,-0.161837622523,21.0,0.3847310774314381,-0.0734964242347826,0.015142816663979933,21.0,-0.021869948989594594,0.5490334491252874,1.1720229110178173
1648125391983452736,21585,14,7,0.935682654381,-0.276890397072,0.130645915866,-0.0809188112617,21.0,0.3129373426023411,-0.09260548397056856,0.04369428624280936,21.0,-0.010934974494824324,0.4521452603439001,0.9844992011335659
1648125392088370931,21586,15,0,0.0126405349001,0.0439508594573,0.0103130536154,0.0,27.8999996185,0.004227603645518395,0.014699284099431437,0.003449181811170568,27.8999996185,0.0,0.01586865521091812,0.046880915567745665
1648125392088398936,21587,15,1,0.032850060612,0.0146502861753,-0.0300676375628,0.0,27.8999996185,0.010986642345150502,0.0048997612626421405,-0.01005606607451505,27.8999996185,0.0,0.01629172429399039,0.046880915049070465
1648125392088412388,21588,15,2,0.935126245022,-0.225614413619,0.371997356415,0.0,27.8999996185,0.31275125251571906,-0.07545632562508361,0.12441383157692307,27.8999996185,0.0,0.448687362176762,1.0313801389116137
1648125392088418263,21589,15,3,1.80819177628,-1.39177727699,0.536609351635,0.0,27.8999996185,0.6047464134715719,-0.4654773501638796,0.17946801058026754,27.8999996185,0.0,0.9737071493673268,2.3440458794175627
1648125392088538831,21590,15,4,0.823670089245,-0.659262895584,2.09320116043,0.0,27.8999996185,0.27547494623578594,-0.22048926273712371,0.7000672777357859,27.8999996185,0.0,0.44764763708700467,2.344045878270339
1648125392088543439,21591,15,5,0.786038577557,-0.237334623933,0.194703191519,0.0809188112617,27.8999996185,0.26288915637357857,-0.07937612840568561,0.06511812425384615,27.8999996185,0.010934974494824324,0.3801604751132074,0.8438564462708896
1648125392283284696,21592,17,0,0.0125511726364,0.0439508594573,0.0104216244072,0.0,20.2999992371,0.004197716600802676,0.014699284099431437,0.0034854931127759198,20.2999992371,0.0,0.015852779010542807,0.046880915486675376
1648125392283372328,21593,17,1,0.0327621363103,0.0146502861753,-0.030163416639,0.0,20.2999992371,0.0109572362241806,0.0048997612626421405,-0.010088099210367893,20.2999992371,0.0,0.016252067923063808,0.04688091470919446
1648125392283382477,21594,17,2,0.282747417688,-1.58955609798,0.292737424374,0.0,20.2999992371,0.09456435374180601,-0.5316241130367892,0.09790549310167224,20.2999992371,0.0,0.5481870406707584,1.6408320725972414
1648125392283390742,21595,17,3,1.86208200455,-1.31852579117,0.537300229073,0.0,20.2999992371,0.6227699011872909,-0.44097852547491634,0.17969907326856185,20.2999992371,0.0,0.9849602832498818,2.344045901814066
1648125392283507706,21596,17,4,2.42023968697,-0.902457654476,0.469441771507,0.0,20.2999992371,0.809444711361204,-0.30182530250033446,0.15700393695886286,20.2999992371,0.0,1.1838496503909033,2.625331509989281
1648125392283513097,21597,17,5,0.827472090721,-0.131852567196,0.0999927967787,0.0809188112617,20.2999992371,0.2767465186357859,-0.04409784856053511,0.03344240694939799,20.2999992371,0.010934974494824324,0.39385516551357136,0.843856456872841
1648125392283574216,21598,17,6,0.93975186348,-0.12306240201,0.266384691,0.161837622523,20.2999992371,0.3142982821003344,-0.04115799398327759,0.08909186989966555,20.2999992371,0.021869948989594594,0.4463863805395168,0.9844992246323857
1648125392283579321,21599,17,7,0.933662235737,-0.114272229373,0.77520519495,0.242756426334,20.2999992371,0.31226161730334445,-0.03821813691404682,0.2592659514882943,20.2999992371,0.03280492247756756,0.44325530033038696,1.2189037727092145
1648125392388268333,21600,18,0,0.0126303331926,0.0439508594573,0.0103255445138,0.0,13.5,0.004224191703210702,0.014699284099431437,0.003453359369163879,13.5,0.0,0.015866837874218862,0.04688091544645748
1648125392388273946,21601,18,1,0.0328744277358,0.0146502861753,-0.0300409924239,0.0,13.5,0.010994791884882943,0.0048997612626421405,-0.010047154656822743,13.5,0.0,0.01630271626492543,0.04688091413131083
1648125392388280127,21602,18,2,1.03035974503,-0.032230630517,-0.0326350778341,0.0,13.5,0.3446019214147157,-0.010779475089297658,-0.010914741750535117,13.5,0.0,0.4874599117554474,1.0313801753122112
1648125392388311416,21603,18,3,0.486387819052,-1.53828001022,0.299084335566,0.0,13.5,0.16267151138862876,-0.51447491980602,0.10002820587491638,13.5,0.0,0.5635676395467826,1.6408320877364508
1648125392388317667,21604,18,4,1.86733698845,-1.31852579117,0.518742382526,0.0,13.5,0.6245274208862875,-0.44097852547491634,0.17349243562742475,13.5,0.0,0.9871833967443879,2.3440459359497927
1648125392388499029,21605,18,5,2.39076352119,-0.984499275684,0.455385386944,0.0,13.5,0.7995864619364548,-0.32926397180066885,0.15230280499799329,13.5,0.0,1.1777486078743913,2.625331386457196
1648125392388504071,21606,18,6,0.821771800518,-0.105482056737,0.160182267427,0.161837622523,13.5,0.2748400670628762,-0.035278279845150494,0.053572664691304346,13.5,0.021869948989594594,0.39028026078074374,0.8438564541544481
1648125392388507943,21607,18,7,1.01272952557,-0.032230630517,0.192575246096,0.161837622523,13.5,0.33870552694648826,-0.010779475089297658,0.06440643682140468,13.5,0.021869948989594594,0.4791232253308092,1.0313802067684328
1648125392388509437,21608,18,8,1.01011931896,-0.0,0.762804090977,0.161837622523,13.5,0.33783254814715713,-0.0,0.2551184250759197,13.5,0.021869948989594594,0.47776737140077125,1.2657847841349104
1648125392583483503,21609,20,0,0.0126405349001,0.0439508594573,0.0103130536154,0.0,13.3000001907,0.004227603645518395,0.014699284099431437,0.003449181811170568,13.3000001907,0.0,0.01586865521091812,0.046880915567745665
1648125392583485346,21610,20,1,0.0327492877841,0.0146502861753,-0.0301773659885,0.0,13.3000001907,0.010952939058227425,0.0048997612626421405,-0.010092764544648828,13.3000001907,0.0,0.016246273679135663,0.04688091459632442
1648125392583486348,21611,20,2,1.02475202084,0.096691891551,0.0654144361615,0.0,13.3000001907,0.34272642837458195,0.032338425267892976,0.021877737846655518,13.3000001907,0.0,0.48576597571423424,1.031380179451642
1648125392583487442,21612,20,3,1.86718201637,-1.31852579117,0.519299805164,0.0,13.3000001907,0.6244755907591972,-0.44097852547491634,0.17367886460334447,13.3000001907,0.0,0.987117818113992,2.3440459107874534
1648125392583488546,21613,20,4,2.41299009323,-0.902457654476,0.505385160446,0.0,13.3000001907,0.807020098070234,-0.30182530250033446,0.1690251372729097,13.3000001907,0.0,1.1805343665510117,2.6253314397514607
1648125392583489580,21614,20,5,2.42494678497,-0.388232588768,0.377605587244,0.161837622523,13.3000001907,0.8110189916287625,-0.12984367517324413,0.12628949406153844,13.3000001907,0.021869948989594594,1.1542802907212635,2.4846885986851004
1648125392583490550,21615,20,6,0.852394998074,0.0556710883975,0.252461075783,0.323675245047,13.3000001907,0.2850819391551839,0.018619093109531772,0.08443514240234112,13.3000001907,0.04373989797932432,0.40359645029804386,0.8907373898127587
1648125392583491610,21616,20,7,0.510387539864,-1.25992465019,-1.48857796192,0.323675245047,13.3000001907,0.1706981738675585,-0.4213794816688963,-0.49785216117725745,13.3000001907,0.04373989797932432,0.4856299009482285,2.0158794392817048
1648125392688395386,21617,21,0,0.0126405349001,0.0439508594573,0.0103130536154,0.0,25.2000007629,0.004227603645518395,0.014699284099431437,0.003449181811170568,25.2000007629,0.0,0.01586865521091812,0.046880915567745665
1648125392688410066,21618,21,1,0.0327621363103,0.0146502861753,-0.030163416639,0.0,25.2000007629,0.0109572362241806,0.0048997612626421405,-0.010088099210367893,25.2000007629,0.0,0.016252067923063808,0.04688091470919446
1648125392688413115,21619,21,2,2.41533637047,-0.902457654476,0.494049757719,0.0,25.2000007629,0.8078048061772575,-0.30182530250033446,0.16523403268193979,25.2000007629,0.0,1.181607262585827,2.625331362654954
1648125392688417793,21620,21,3,0.957031428814,0.12306240201,0.195410400629,0.0809188112617,25.2000007629,0.3200774009411371,0.04115799398327759,0.06535464903979933,25.2000007629,0.010934974494824324,0.45452509903765975,0.9844992306752828
1648125392688575776,21621,21,4,0.774300515652,-1.86937654018,0.401086330414,0.242756426334,25.2000007629,0.258963383161204,-0.6252095452107023,0.13414258542274246,25.2000007629,0.03280492247756756,0.7245764577042,2.0627603307120457
1648125392688579391,21622,21,5,0.748913288116,-1.09584140778,-1.57899987698,0.242756426334,25.2000007629,0.2504726716107023,-0.3665021430702341,-0.5280936043411371,25.2000007629,0.03280492247756756,0.509702795090119,2.0627603146329982
1648125392688581329,21623,21,6,1.44140720367,0.483459472656,0.286423832178,-0.161837622523,25.2000007629,0.48207598784949834,0.16169213132307692,0.09579392380535116,25.2000007629,-0.021869948989594594,0.7006702943995403,1.547070263476135
1648125392883343683,21624,23,0,0.0126303331926,0.0439508594573,0.0103255445138,0.0,17.0,0.004224191703210702,0.014699284099431437,0.003453359369163879,17.0,0.0,0.015866837874218862,0.04688091544645748
1648125392883352492,21625,23,1,0.0328744277358,0.0146502861753,-0.0300409924239,0.0,17.0,0.010994791884882943,0.0048997612626421405,-0.010047154656822743,17.0,0.0,0.01630271626492543,0.04688091413131083
1648125392883356825,21626,23,2,0.988240838051,0.225614413619,0.190323993564,0.0,17.0,0.33051533045183945,0.07545632562508361,0.06365350955317725,17.0,0.0,0.4734706161993751,1.031380162767608
1648125392883360641,21627,23,3,2.42293334007,-0.902457654476,0.455334097147,0.0,17.0,0.8103455986856187,-0.30182530250033446,0.15228565121973245,17.0,0.0,1.1850816393176151,2.6253313940471905
1648125392883366978,21628,23,4,1.63701546192,0.679773271084,-2.0619301796,0.161837622523,17.0,0.5474968100066889,0.22734892009498325,-0.6896087557190635,17.0,0.021869948989594594,0.8069653309798109,2.7190931187053304
1648125392883473410,21629,23,5,2.61832261086,-0.254914969206,0.687657177448,0.161837622523,17.0,0.875693180889632,-0.0852558425438127,0.22998567807625417,17.0,0.021869948989594594,1.2413483204971354,2.71909310796114
1648125392883476436,21630,23,6,0.623312652111,-1.91186249256,0.637847602367,0.242756426334,17.0,0.20846576993678928,-0.639418893832776,0.21332695731337792,17.0,0.03280492247756756,0.7041111249376816,2.1096413004548227
1648125392883478766,21631,23,7,0.888989388943,0.263705164194,-0.138872563839,-0.323675245047,17.0,0.29732086586722406,0.0881957070882943,-0.04644567352474917,17.0,-0.04373989797932432,0.4296252754539424,0.9376183318723296
1648125392883480500,21632,23,8,0.829010426998,0.194848805666,0.261129975319,-0.161837622523,17.0,0.27726101237391304,0.06516682463745818,0.08733443990602006,17.0,-0.021869948989594594,0.3974846575637147,0.8907374524240993
1648125392987301235,21633,24,0,0.0126405349001,0.0439508594573,0.0103130536154,0.0,34.7999992371,0.004227603645518395,0.014699284099431437,0.003449181811170568,34.7999992371,0.0,0.01586865521091812,0.046880915567745665
1648125392987310220,21634,24,1,0.032850060612,0.0146502861753,-0.0300676375628,0.0,34.7999992371,0.010986642345150502,0.0048997612626421405,-0.01005606607451505,34.7999992371,0.0,0.01629172429399039,0.046880915049070465
1648125392987317837,21635,24,2,0.301082164049,-1.58955609798,0.273844569921,0.0,34.7999992371,0.1006963759361204,-0.5316241130367892,0.09158681268260868,34.7999992371,0.0,0.5503668938221937,1.6408320775170901
1648125392987324306,21636,24,3,2.42400121689,-0.902457654476,0.449614673853,0.0,34.7999992371,0.8107027481237457,-0.30182530250033446,0.15037280061973243,34.7999992371,0.0,1.1855700758960668,2.625331421468623
1648125392987330690,21637,24,4,1.19077324867,-1.64815723896,0.562337100506,0.161837622523,34.7999992371,0.398251922632107,-0.5512231568428093,0.18807260886488295,34.7999992371,0.021869948989594594,0.7880711620152662,2.1096412559224027
1648125392987537750,21638,24,5,2.08301639557,0.329631447792,0.0545111261308,0.161837622523,34.7999992371,0.6966610018628763,0.11024463136856186,0.018231145863143814,34.7999992371,0.021869948989594594,0.9913763068475882,2.1096411207736097
1648125392987542987,21639,24,6,1.54207980633,-1.02845013142,-1.72427499294,0.323675245047,34.7999992371,0.515745754625418,-0.3439632546555184,-0.5766805996454849,34.7999992371,0.04373989797932432,0.8064106195862631,2.5315694841711975
1648125392987557036,21640,24,7,1.21824944019,0.316446185112,2.19649124146,0.323675245047,34.7999992371,0.40744128434448157,0.10583484451906354,0.7346124553377926,34.7999992371,0.04373989797932432,0.5858479450257854,2.531569406594589
1648125392987563964,21641,24,8,0.833273470402,0.278355449438,0.14692440629,-0.242756426334,34.7999992371,0.27868677939866215,0.09309546803946488,0.04913859742140468,34.7999992371,-0.03280492247756756,0.4049684039436709,0.8907374550737679
1648125392987569037,21642,24,9,1.01197338104,0.134782627225,0.346973240376,-0.242756426334,34.7999992371,0.3384526357993311,0.04507780174749164,0.11604456199866221,34.7999992371,-0.03280492247756756,0.4807622921667375,1.0782610584047927
1648125392987574726,21643,24,10,0.987636804581,0.290075659752,0.0646117702127,-0.0809188112617,34.7999992371,0.3303133125688963,0.09701527082006689,0.02160928769655518,34.7999992371,-0.010934974494824324,0.47710138512979156,1.0313801563892653
1648125393088229499,21644,25,0,0.0126303331926,0.0439508594573,0.0103255445138,0.0,24.8999996185,0.004224191703210702,0.014699284099431437,0.003453359369163879,24.8999996185,0.0,0.015866837874218862,0.04688091544645748
1648125393088233709,21645,25,1,0.0328628644347,0.0146502861753,-0.0300536397845,0.0,24.8999996185,0.010990924560100333,0.0048997612626421405,-0.010051384543311037,24.8999996185,0.0,0.01629749998627157,0.04688091304750941
1648125393088236533,21646,25,2,0.281831651926,-1.58955609798,0.293619185686,0.0,24.8999996185,0.09425807756722408,-0.5316241130367892,0.09820039655050165,24.8999996185,0.0,0.5480815340216185,1.640832073935554
1648125393088239651,21647,25,3,1.86882424355,-1.31852579117,0.513358473778,0.0,24.8999996185,0.625024830618729,-0.44097852547491634,0.17169179725016723,24.8999996185,0.0,0.9878128049939287,2.344045912063239
1648125393088245301,21648,25,4,2.39190888405,-0.984499275684,0.449331283569,0.0,24.8999996185,0.7999695264381269,-0.32926397180066885,0.1502780212605351,24.8999996185,0.0,1.1782687510009053,2.625331509698042
1648125393088259292,21649,25,5,1.39392650127,-1.51630473137,0.456481426954,0.242756426334,24.8999996185,0.46619615427090294,-0.5071253282173913,0.1526693735632107,24.8999996185,0.03280492247756756,0.8317774985136085,2.109641301850111
1648125393088338079,21650,25,6,1.61746907234,-0.5186201334,-2.18298864365,0.242756426334,24.8999996185,0.5409595559665552,-0.17345154963210702,-0.7300965363377926,24.8999996185,0.03280492247756756,0.7844488016772315,2.7659740528517474
1648125393088341863,21651,25,7,1.52621817589,0.864366889,-2.13872408867,0.242756426334,24.8999996185,0.5104408615016722,0.2890859160535117,-0.715292337347826,24.8999996185,0.03280492247756756,0.7776055639214761,2.765974108098964
1648125393088344267,21652,25,8,2.31759762764,1.04749548435,0.424146711826,0.323675245047,24.8999996185,0.7751162634247492,0.35033293790969894,0.14185508756722406,24.8999996185,0.04373989797932432,1.1508012908558676,2.5784503071668854
1648125393088361467,21653,25,9,1.41951155663,0.0805765762925,-2.15102314949,0.323675245047,24.8999996185,0.4747530289732441,0.026948687723244144,-0.7194057356153845,24.8999996185,0.04373989797932432,0.6719427868565484,2.5784503550960656
1648125393088419903,21654,25,10,1.17688763142,0.304725944996,0.0883409827948,-0.242756426334,24.8999996185,0.39360790348494984,0.10191503177123744,0.029545479195585284,24.8999996185,-0.03280492247756756,0.5658984335307595,1.218903822204293
1648125393088421162,21655,25,11,0.811550915241,0.278355449438,0.239408656955,-0.161837622523,24.8999996185,0.27142171078294314,0.09309546803946488,0.0800697849347826,24.8999996185,-0.021869948989594594,0.3949762731331672,0.8907374188195601
1648125393283334333,21656,27,0,0.0126303331926,0.0439508594573,0.0103255445138,0.0,40.2999992371,0.004224191703210702,0.014699284099431437,0.003453359369163879,40.2999992371,0.0,0.015866837874218862,0.04688091544645748
1648125393283340075,21657,27,1,0.0328744277358,0.0146502861753,-0.0300409924239,0.0,40.2999992371,0.010994791884882943,0.0048997612626421405,-0.010047154656822743,40.2999992371,0.0,0.01630271626492543,0.04688091413131083
1648125393283343021,21658,27,2,1.87050008774,-1.31852579117,0.507218539715,0.0,40.2999992371,0.625585313625418,-0.44097852547491634,0.16963830759698995,40.2999992371,0.0,0.9885221439996459,2.3440459652588808
1648125393283346714,21659,27,3,2.39206409454,-0.984499275684,0.448503911495,0.0,40.2999992371,0.8000214363010032,-0.32926397180066885,0.1500013081923077,40.2999992371,0.0,1.1783392381687847,2.6253314485672288
1648125393283349269,21660,27,4,0.706409096718,0.501039803028,0.208226948977,0.0809188112617,40.2999992371,0.23625722298260868,0.16757184047759197,0.06964112005919731,40.2999992371,0.010934974494824324,0.37378506195935074,0.8907374239497002
1648125393283351139,21661,27,5,1.49131774902,-1.54707026482,0.668073952198,0.242756426334,40.2999992371,0.49876847793311035,-0.5174148042876254,0.22343610441404682,40.2999992371,0.03280492247756756,0.8747902999321752,2.250283946180517
1648125393283488706,21662,27,6,1.22146570683,0.527410328388,-0.455958634615,0.323675245047,40.2999992371,0.40851695880602007,0.1763914141765886,-0.1524945266270903,40.2999992371,0.04373989797932432,0.6040580619935934,1.4064275324139615
1648125393283490882,21663,27,7,0.886299014091,0.483459472656,0.210917085409,-0.0809188112617,40.2999992371,0.29642107494682274,0.16169213132307692,0.07054083124046823,40.2999992371,-0.010934974494824324,0.4493053000767507,1.0313801534821794
1648125393388405508,21664,28,0,0.0125719793141,0.0439508594573,0.0103965150192,0.0,25.0,0.004204675355886287,0.014699284099431437,0.003477095324147157,25.0,0.0,0.01585646690573259,0.046880915471585516
1648125393388411926,21665,28,1,0.0329259596765,0.0146502861753,-0.0299845039845,0.0,25.0,0.011012026647658862,0.0048997612626421405,-0.010028262202173913,25.0,0.0,0.016325964663945168,0.046880914931698874
1648125393388440279,21666,28,2,0.785769999027,0.523015201092,0.279748618603,0.0,25.0,0.26279933077826084,0.1749214719371237,0.09356141090401336,25.0,0.0,0.4107608767393184,0.9844992034300908
1648125393388532815,21667,28,3,2.39158535004,-0.984499275684,0.451049804688,0.0,25.0,0.7998613210836121,-0.32926397180066885,0.1508527774876254,25.0,0.0,1.1781218226725085,2.625331452723133
1648125393388535732,21668,28,4,0.617730736732,0.528875350952,0.363473206758,0.161837622523,25.0,0.20659890860602004,0.17688138827826086,0.12156294540401337,25.0,0.021869948989594594,0.34154537559984927,0.8907374315582592
1648125393388537759,21669,28,5,1.5616556406,-1.54707026482,0.481230795383,0.161837622523,25.0,0.5222928563879599,-0.5174148042876254,0.16094675430869565,25.0,0.021869948989594594,0.9018302142664049,2.2502839426465666
1648125393583435063,21670,30,0,0.0126303331926,0.0439508594573,0.0103255445138,0.0,23.7000007629,0.004224191703210702,0.014699284099431437,0.003453359369163879,23.7000007629,0.0,0.015866837874218862,0.04688091544645748
1648125393583568681,21671,30,1,0.0328744277358,0.0146502861753,-0.0300409924239,0.0,23.7000007629,0.010994791884882943,0.0048997612626421405,-0.010047154656822743,23.7000007629,0.0,0.01630271626492543,0.04688091413131083
1648125393583573179,21672,30,2,0.753465950489,0.523015201092,0.35774692893,0.0,23.7000007629,0.2519953011668896,0.1749214719371237,0.11964780231772575,23.7000007629,0.0,0.39698965347352916,0.9844992149709637
1648125393583577835,21673,30,3,0.480459928513,-1.53828001022,0.308517068624,0.0,23.7000007629,0.16068893930200667,-0.51447491980602,0.10318296609498327,23.7000007629,0.0,0.5624289408782399,1.6408320798855396
1648125393583580737,21674,30,4,2.39165997505,-0.984499275684,0.450653403997,0.0,23.7000007629,0.7998862792809364,-0.32926397180066885,0.15072020200568562,23.7000007629,0.0,1.1781557124123074,2.6253313601548607
1648125393688533921,21675,31,0,0.0126303331926,0.0439508594573,0.0103255445138,0.0,13.6000003815,0.004224191703210702,0.014699284099431437,0.003453359369163879,13.6000003815,0.0,0.015866837874218862,0.04688091544645748
1648125393688537886,21676,31,1,0.0329016707838,0.0146502861753,-0.030011150986,0.0,13.6000003815,0.01100390327217391,0.0048997612626421405,-0.010037174242809364,13.6000003815,0.0,0.016315006432043106,0.04688091305518946
1648125393688540396,21677,31,2,0.472553700209,-1.53828001022,0.32049575448,0.0,13.6000003815,0.1580447157889632,-0.51447491980602,0.1071892155451505,13.6000003815,0.0,0.5609284334806349,1.6408320810074886
1648125393688543274,21678,31,3,2.392131567,-0.984499275684,0.448143750429,0.0,13.6000003815,0.800044002341137,-0.32926397180066885,0.14988085298628762,13.6000003815,0.0,1.1783698801692117,2.625331422641485
1648125393688547863,21679,31,4,0.766430974007,0.584546387196,0.200319334865,0.0809188112617,13.6000003815,0.25633142943377923,0.1955004639451505,0.06699643306521738,13.6000003815,0.010934974494824324,0.41186409752963193,0.9844992395233074
1648125393688641098,21680,31,5,0.552641868591,0.5845464468,0.382499188185,-0.0809188112617,13.6000003815,0.18483005638494981,0.19550048387959865,0.12792614989464882,13.6000003815,-0.010934974494824324,0.3264119156582441,0.8907374542189418
1648125393883443582,21681,33,0,0.0126405349001,0.0439508594573,0.0103130536154,0.0,21.2000007629,0.004227603645518395,0.014699284099431437,0.003449181811170568,21.2000007629,0.0,0.01586865521091812,0.046880915567745665
1648125393883464424,21682,33,1,0.0329259596765,0.0146502861753,-0.0299845039845,0.0,21.2000007629,0.011012026647658862,0.0048997612626421405,-0.010028262202173913,21.2000007629,0.0,0.016325964663945168,0.046880914931698874
1648125393883468330,21683,33,2,0.484281897545,-1.53828001022,0.30248233676,0.0,21.2000007629,0.16196718981438127,-0.51447491980602,0.10116466112374582,21.2000007629,0.0,0.5631617745036912,1.6408320786064672
1648125393883628794,21684,33,3,2.39276146889,-0.984499275684,0.444768190384,0.0,21.2000007629,0.8002546718695651,-0.32926397180066885,0.14875190313846154,21.2000007629,0.0,1.1786559476047633,2.6253314103184016
1648125393883631347,21685,33,4,0.742045223713,0.709073901176,0.101627357304,0.161837622523,21.2000007629,0.24817566010468226,0.23714846193177255,0.033989082710367886,21.2000007629,0.021869948989594594,0.42358199859459905,1.0313801583881779
1648125393988363632,21686,34,0,0.0126303331926,0.0439508594573,0.0103255445138,0.0,33.9000015259,0.004224191703210702,0.014699284099431437,0.003453359369163879,33.9000015259,0.0,0.015866837874218862,0.04688091544645748
1648125393988376031,21687,34,1,0.0328744277358,0.0146502861753,-0.0300409924239,0.0,33.9000015259,0.010994791884882943,0.0048997612626421405,-0.010047154656822743,33.9000015259,0.0,0.01630271626492543,0.04688091413131083
1648125393988379650,21688,34,2,0.490738242865,-1.53828001022,0.291891247034,0.0,33.9000015259,0.16412650263043477,-0.51447491980602,0.09762249064682273,33.9000015259,0.0,0.5644107199910424,1.640832079448636
1648125393988504024,21689,34,3,2.3919878006,-0.984499275684,0.448910564184,0.0,33.9000015259,0.7999959199331103,-0.32926397180066885,0.15013731243612038,33.9000015259,0.0,1.1783045900552194,2.6253314374908063
1648125393988506832,21690,34,4,1.15460479259,1.37126672268,0.35972186923,0.161837622523,33.9000015259,0.38615544902675586,0.4586176330033444,0.12030831746822741,33.9000015259,0.021869948989594594,0.7131354674447914,1.8283556751911456
1648125393988522156,21691,34,5,0.713125050068,0.676843225956,0.311578035355,0.404594063759,33.9000015259,0.23850336122675583,0.22636897189163876,0.10420670078762541,33.9000015259,0.05467487348094594,0.40621498995999433,1.0313801247225458
1648125393988526362,21692,34,6,0.618810474873,0.498109728098,0.0642675980926,-0.0809188112617,33.9000015259,0.2069600250411371,0.1665918823070234,0.02149417996408027,33.9000015259,-0.010934974494824324,0.33677553233667873,0.7969755511952693
1648125394087429916,21693,35,0,0.0126303331926,0.0439508594573,0.0103255445138,0.0,19.7000007629,0.004224191703210702,0.014699284099431437,0.003453359369163879,19.7000007629,0.0,0.015866837874218862,0.04688091544645748
1648125394087432465,21694,35,1,0.0328744277358,0.0146502861753,-0.0300409924239,0.0,19.7000007629,0.010994791884882943,0.0048997612626421405,-0.010047154656822743,19.7000007629,0.0,0.01630271626492543,0.04688091413131083
1648125394087434479,21695,35,2,0.272206753492,-1.58955609798,0.3025636971,0.0,19.7000007629,0.09103904799063545,-0.5316241130367892,0.10119187193979931,19.7000007629,0.0,0.5469921517537846,1.640832074307081
1648125394087563077,21696,35,3,2.39134550095,-0.984499275684,0.452319443226,0.0,19.7000007629,0.7997811039966555,-0.32926397180066885,0.151277405761204,19.7000007629,0.0,1.1780128996518542,2.6253314090713205
1648125394087564826,21697,35,4,0.751221001148,0.741304457188,0.220865398645,0.485512852669,19.7000007629,0.2512444819892976,0.24792791210301002,0.07386802630267558,19.7000007629,0.06560984495527027,0.43326184814716706,1.0782610143797342
1648125394087565974,21698,35,5,0.652778983116,0.448298752308,0.089876703918,0.566431701183,19.7000007629,0.21832073013913042,0.14993269307959864,0.030059098300334444,19.7000007629,0.07654482448418919,0.3432312556732955,0.7969755291262288
1648125394188415799,21699,36,0,0.0126303331926,0.0439508594573,0.0103255445138,0.0,28.5,0.004224191703210702,0.014699284099431437,0.003453359369163879,28.5,0.0,0.015866837874218862,0.04688091544645748
1648125394188420365,21700,36,1,0.0327866487205,0.0146502861753,-0.0301367696375,0.0,28.5,0.010965434354682274,0.0048997612626421405,-0.010079187169732442,28.5,0.0,0.016263122750707536,0.04688091406450383
1648125394188426534,21701,36,2,0.349442929029,0.361862063408,-0.735090911388,0.0,28.5,0.1168705448257525,0.12102410147424747,-0.24584980313979932,28.5,0.0,0.20485185289224356,0.8907374257251699
1648125394188429553,21702,36,3,0.573878228664,0.668053030968,0.133349597454,0.0,28.5,0.19193251794782606,0.22342910734715715,0.04459852757658862,28.5,0.0,0.3515632928812856,0.8907374409225233
1648125394188431662,21703,36,4,0.481689691544,-1.53828001022,0.306593507528,0.0,28.5,0.1611002312856187,-0.51447491980602,0.10253963462474916,28.5,0.0,0.5626642090536508,1.6408320839258717
1648125394188434787,21704,36,5,2.39354705811,-0.984499275684,0.440520942211,0.0,28.5,0.8005174107391303,-0.32926397180066885,0.14733141879966555,28.5,0.0,1.179012728056366,2.6253314159808134
1648125394188531928,21705,36,6,0.663920640945,0.843856453896,0.3362441957,0.566431701183,28.5,0.22204703710535117,0.28222623876120395,0.11245625274247492,28.5,0.07654482448418919,0.4222101647519,1.125141987216143
1648125394188534230,21706,36,7,0.571693539619,0.622637212276,-0.811866521835,-0.566431701183,28.5,0.19120185271538462,0.20823987032642138,-0.2715272648277592,28.5,-0.07654482448418919,0.3412918700425723,1.1720229735928347
1648125394188598444,21707,36,8,0.41020706296,1.0621458292,0.277874350548,-0.566431701183,28.5,0.13719299764548493,0.35523271879598656,0.0929345654006689,28.5,-0.07654482448418919,0.40476427919110713,1.1720229313804817
1648125394188600964,21708,36,9,0.455954372883,0.410208016634,-0.709198951721,-0.242756426334,28.5,0.1524931012986622,0.13719331659999998,-0.23719028485652172,28.5,-0.03280492247756756,0.25559792254061053,0.9376183446286102
1648125394188620247,21709,36,10,0.416102051735,0.79111546278,0.283060967922,-0.242756426334,28.5,0.13916456579765885,0.26458711129765883,0.09466922004080267,28.5,-0.03280492247756756,0.3297573232123004,0.9376183149174453
1648125394383455746,21710,38,0,0.0126405349001,0.0439508594573,0.0103130536154,0.0,23.1000003815,0.004227603645518395,0.014699284099431437,0.003449181811170568,23.1000003815,0.0,0.01586865521091812,0.046880915567745665
1648125394383464613,21711,38,1,0.0327866487205,0.0146502861753,-0.0301367696375,0.0,23.1000003815,0.010965434354682274,0.0048997612626421405,-0.010079187169732442,23.1000003815,0.0,0.016263122750707536,0.04688091406450383
1648125394383483104,21712,38,2,2.39257931709,-0.984499275684,0.445747375488,0.0,23.1000003815,0.8001937515351171,-0.32926397180066885,0.1490793897953177,23.1000003815,0.0,1.178573223485771,2.625331471480051
1648125394383622266,21713,38,3,0.654401302338,0.952268660069,0.196420893073,0.0809188112617,23.1000003815,0.21886331181872906,0.3184845016953177,0.06569260637892976,23.1000003815,0.010934974494824324,0.4441111081031855,1.1720229659383277
1648125394488492121,21714,39,0,0.0125511726364,0.0439508594573,0.0104216244072,0.0,24.0,0.004197716600802676,0.014699284099431437,0.0034854931127759198,24.0,0.0,0.015852779010542807,0.046880915486675376
1648125394488499454,21715,39,1,0.0328628644347,0.0146502861753,-0.0300536397845,0.0,24.0,0.010990924560100333,0.0048997612626421405,-0.010051384543311037,24.0,0.0,0.01629749998627157,0.04688091304750941
1648125394488501700,21716,39,2,2.39218211174,-0.984499275684,0.447873622179,0.0,24.0,0.8000609069364548,-0.32926397180066885,0.14979050908996655,24.0,0.0,1.178392834644677,2.6253313811774133
1648125394488504712,21717,39,3,0.682620048523,0.990359306335,0.197344347835,0.0809188112617,24.0,0.22830101957290966,0.3312238482725752,0.06600145412541805,24.0,0.010934974494824324,0.46254940140546513,1.2189038017465967
1648125394488638386,21718,39,4,0.0979274809361,0.738374471664,-1.08088135719,-0.566431701183,24.0,0.03275166586491639,0.2469479838341137,-0.3614987816688963,24.0,-0.07654482448418919,0.251254154102152,1.3126656696388757
1648125394488648141,21719,39,5,0.242432788014,1.27164494991,0.217339962721,-0.566431701183,24.0,0.08108120000468227,0.4252993143511705,0.07268895074280936,24.0,-0.07654482448418919,0.4404859007686561,1.3126656827735739
1648125394683534552,21720,41,0,0.0126303331926,0.0439508594573,0.0103255445138,0.0,34.2000007629,0.004224191703210702,0.014699284099431437,0.003453359369163879,34.2000007629,0.0,0.015866837874218862,0.04688091544645748
1648125394683546660,21721,41,1,0.032850060612,0.0146502861753,-0.0300676375628,0.0,34.2000007629,0.010986642345150502,0.0048997612626421405,-0.01005606607451505,34.2000007629,0.0,0.01629172429399039,0.046880915049070465
1648125394683712296,21722,41,2,2.42164373398,-0.902457654476,0.462144345045,0.0,34.2000007629,0.8099142923010032,-0.30182530250033446,0.15456332610200668,34.2000007629,0.0,1.1844918045205244,2.625331519656897
1648125394683718098,21723,41,3,0.665946602821,1.06800591946,0.134497076273,0.0809188112617,34.2000007629,0.22272461632809365,0.35719261520401335,0.044982299756856185,34.2000007629,0.010934974494824324,0.4762342635649764,1.2657847310409522
1648125394683720914,21724,41,4,0.764968276024,1.06654083729,0.0201359409839,0.161837622523,34.2000007629,0.25584223278394647,0.35670262116722407,0.00673442842270903,34.2000007629,0.021869948989594594,0.5080819383714779,1.3126657141289597
1648125394683754189,21725,41,5,0.943729460239,1.03138017654,0.544240415096,0.323675245047,34.2000007629,0.31562858201973243,0.34494320285618724,0.18202020571772573,34.2000007629,0.04373989797932432,0.5641175558093,1.5001893187549837
1648125394788413105,21726,42,0,0.0126405349001,0.0439508594573,0.0103130536154,0.0,27.2999992371,0.004227603645518395,0.014699284099431437,0.003449181811170568,27.2999992371,0.0,0.01586865521091812,0.046880915567745665
1648125394788415450,21727,42,1,0.0327866487205,0.0146502861753,-0.0301367696375,0.0,27.2999992371,0.010965434354682274,0.0048997612626421405,-0.010079187169732442,27.2999992371,0.0,0.016263122750707536,0.04688091406450383
1648125394788417423,21728,42,2,2.39588975906,-0.984499275684,0.427595376968,0.0,27.2999992371,0.8013009227625418,-0.32926397180066885,0.14300848728026755,27.2999992371,0.0,1.180076735117744,2.62533128724649
1648125394788419474,21729,42,3,0.671153068542,0.990359306335,0.233384847641,0.0809188112617,27.2999992371,0.22446590921137122,0.3312238482725752,0.07805513299030101,27.2999992371,0.010934974494824324,0.45878004148030355,1.2189038043119307
1648125394788420768,21730,42,4,0.9791213274,1.06361079216,0.550890088081,0.323675245047,27.2999992371,0.3274653268896321,0.3557226729632107,0.18424417661571907,27.2999992371,0.04373989797932432,0.5839569339343087,1.54707025700666
1648125394788422004,21731,42,5,1.0012742281,1.04456532001,0.1357883811,-0.323675245047,27.2999992371,0.3348743237792642,0.34935294983612036,0.04541417428093645,27.2999992371,-0.04373989797932432,0.5884973313554087,1.4533083884938542
1648125394983514028,21732,44,0,0.0126097733155,0.0439508594573,0.0103506427258,0.0,24.1000003815,0.004217315490133779,0.014699284099431437,0.0034617534199999998,24.1000003815,0.0,0.01586317915559307,0.04688091546611253
1648125394983547579,21733,44,1,0.0327866487205,0.0146502861753,-0.0301367696375,0.0,24.1000003815,0.010965434354682274,0.0048997612626421405,-0.010079187169732442,24.1000003815,0.0,0.016263122750707536,0.04688091406450383
1648125394983550946,21734,44,2,2.39556670189,-0.984499275684,0.429402261972,0.0,24.1000003815,0.8011928768862876,-0.32926397180066885,0.14361279664615384,24.1000003815,0.0,1.179930004310681,2.6253313980549433
1648125394983643806,21735,44,3,0.650324165821,0.990359306335,0.286344915628,0.0809188112617,24.1000003815,0.2174997210103679,0.3312238482725752,0.09576753031036789,24.1000003815,0.010934974494824324,0.45201935239950697,1.2189038054748738
1648125394983648273,21736,44,4,0.946819186211,1.01086974144,0.244364663959,0.0809188112617,24.1000003815,0.3166619351876254,0.33808352556521737,0.08172731236086955,24.1000003815,0.010934974494824324,0.5611149905787144,1.4064274935196723
1648125395088573482,21737,45,0,0.012540794909,0.0439508594573,0.0104341097176,0.0,19.5,0.00419424578896321,0.014699284099431437,0.0034896688018729097,19.5,0.0,0.01585094156548024,0.046880915408979075
1648125395088577170,21738,45,1,0.0328872464597,0.0146502861753,-0.0300269592553,0.0,19.5,0.010999079083511706,0.0048997612626421405,-0.010042461289397992,19.5,0.0,0.0163084990664861,0.0468809145264753
1648125395088581859,21739,45,2,0.637413322926,1.14711737633,-0.35523635149,0.0,19.5,0.21318171335317723,0.3836512964314381,-0.11880814431103678,19.5,0.0,0.48793565464097377,1.3595465732153917
1648125395088583637,21740,45,3,2.42174434662,-0.902457654476,0.461616456509,0.0,19.5,0.8099479420133779,-0.30182530250033446,0.1543867747521739,19.5,0.0,1.184537821588163,2.6253314555362683
1648125395088590857,21741,45,4,0.756813943386,0.988894343376,0.227005839348,0.0809188112617,19.5,0.2531150312327759,0.3307338941056856,0.07592168540066889,19.5,0.010934974494824324,0.48735956621600146,1.2657847440866903
1648125395088596398,21742,45,5,0.922687649727,1.05482065678,0.118487291038,0.161837622523,19.5,0.30859118719966555,0.352782828354515,0.039627856534448155,19.5,0.021869948989594594,0.5611708880692309,1.4064275150415855
1648125395088597521,21743,45,6,0.959149837494,1.09584140778,0.647953271866,0.161837622523,19.5,0.3207858988274247,0.3665021430702341,0.21670677988829432,19.5,0.021869948989594594,0.5832075159393197,1.593951142379174
1648125395283480349,21744,47,0,0.0126303331926,0.0439508594573,0.0103255445138,0.0,20.6000003815,0.004224191703210702,0.014699284099431437,0.003453359369163879,20.6000003815,0.0,0.015866837874218862,0.04688091544645748
1648125395283487853,21745,47,1,0.0327866487205,0.0146502861753,-0.0301367696375,0.0,20.6000003815,0.010965434354682274,0.0048997612626421405,-0.010079187169732442,20.6000003815,0.0,0.016263122750707536,0.04688091406450383
1648125395283510335,21746,47,2,0.81630551815,1.02552008629,-0.0710290297866,0.0,20.6000003815,0.27301187897993306,0.342983306451505,-0.023755528356722407,20.6000003815,0.0,0.5164383028326949,1.312665711222326
1648125395283715030,21747,47,3,2.39387869835,-0.984499275684,0.438715040684,0.0,20.6000003815,0.8006283272073578,-0.32926397180066885,0.14672743835585284,20.6000003815,0.0,1.179163347369505,2.6253313949211394
1648125395283720027,21748,47,4,0.718243300915,0.988894343376,0.329280406237,0.0809188112617,20.6000003815,0.2402151508076923,0.3307338941056856,0.11012722616622073,20.6000003815,0.010934974494824324,0.4741218683687091,1.2657847556365691
