%time,field.header.seq,field.header.frame_id,field.point_id,field.x,field.y,field.z,field.velocity,field.intensity,normalized_x,normalized_y,normalized_z,normalized_intensity,normalized_velocity,normalized_range,range
1648219796457285016,88409,0,0,0.0123228654265,0.0439508594573,0.0106906108558,0.0,33.2999992371,0.004121359674414716,0.014699284099431437,0.003575455135719063,33.2999992371,0.0,0.015812658352332205,0.04688091530489902
1648219796457290779,88410,0,1,0.0334108844399,0.0146502861753,-0.0294432006776,0.0,33.2999992371,0.011174208842775918,0.0048997612626421405,-0.009847224306889632,33.2999992371,0.0,0.01654489489101794,0.04688091456249508
1648219796457295455,88411,0,2,1.30865836143,-0.590406537056,0.225695520639,0.0,33.2999992371,0.43767838174916385,-0.1974603802862876,0.0754834517187291,33.2999992371,0.0,0.6497040352991037,1.4533083134612628
1648219796457321136,88412,0,3,1.78094518185,-1.39177727699,0.621080636978,0.0,33.2999992371,0.595633840083612,-0.4654773501638796,0.20771927658127087,33.2999992371,0.0,0.9624076612439693,2.34404583725008
1648219796457322981,88413,0,4,0.912720263004,-0.451228827238,-0.164558008313,-0.404594063759,33.2999992371,0.305257613044816,-0.15091265125016723,-0.05503612318160535,33.2999992371,-0.05467487348094594,0.45731723010509,1.0313801777853855
1648219796457325089,88414,0,5,0.992716908455,-0.586011469364,-0.211521953344,-0.161837622523,33.2999992371,0.33201234396488294,-0.19599045798127088,-0.07074312820869565,33.2999992371,-0.021869948989594594,0.5087992263258856,1.172022968761734
1648219796457335759,88415,0,6,0.944742202759,-0.659262895584,-0.21557469666,-0.161837622523,33.2999992371,0.3159672918926421,-0.22048926273712371,-0.07209856075585284,33.2999992371,-0.021869948989594594,0.4982832267639566,1.172022971194583
1648219796562332767,88416,1,0,0.012225298211,0.0439508594573,0.0108020491898,0.0,20.3999996185,0.004088728498662207,0.014699284099431437,0.0036127254815384612,20.3999996185,0.0,0.015795706837851316,0.04688091541429279
1648219796562340607,88417,1,1,0.0333878919482,0.0146502861753,-0.0294692683965,0.0,20.3999996185,0.011166519046220735,0.0048997612626421405,-0.009855942607525084,20.3999996185,0.0,0.016534508025644712,0.04688091289200561
1648219796562343286,88418,1,2,1.27845644951,-0.681238293648,0.116484105587,0.0,20.3999996185,0.4275774078628762,-0.2278388941966555,0.0389578948451505,20.3999996185,0.0,0.6461852993826365,1.4533083130845144
1648219796562345999,88419,1,3,1.76199996471,-1.46502864361,0.493556916714,0.0,20.3999996185,0.5892976470602006,-0.489976134986622,0.16506920291438126,20.3999996185,0.0,0.9667574910585415,2.3440459108712073
1648219796562347982,88420,1,4,0.913443982601,-0.451228827238,-0.160492047668,-0.323675245047,20.3999996185,0.30549965973277593,-0.15091265125016723,-0.053676270123076915,20.3999996185,-0.04373989797932432,0.4576403746404357,1.0313801729940442
1648219796757530634,88421,3,0,0.0123228654265,0.0439508594573,0.0106906108558,0.0,31.7000007629,0.004121359674414716,0.014699284099431437,0.003575455135719063,31.7000007629,0.0,0.015812658352332205,0.04688091530489902
1648219796757533701,88422,3,1,0.0334108844399,0.0146502861753,-0.0294432006776,0.0,31.7000007629,0.011174208842775918,0.0048997612626421405,-0.009847224306889632,31.7000007629,0.0,0.01654489489101794,0.04688091456249508
1648219796757539970,88423,3,2,1.2579908371,-0.681238293648,0.255888015032,0.0,31.7000007629,0.420732721438127,-0.2278388941966555,0.08558127593043477,31.7000007629,0.0,0.6371362550398619,1.4533083758091447
1648219796757541042,88424,3,3,1.72778606415,-1.46502864361,0.602492928505,0.0,31.7000007629,0.5778548709531772,-0.489976134986622,0.20150265167391304,31.7000007629,0.0,0.9528426505069211,2.344045933629978
1648219796757542022,88425,3,4,0.929209053516,-0.386767566204,-0.225225239992,-0.404594063759,31.7000007629,0.31077225870100333,-0.1293537010715719,-0.07532616722140467,31.7000007629,-0.05467487348094594,0.4581388147026622,1.0313801550024704
1648219796757545793,88426,3,5,0.847506701946,-0.380907446146,0.125578805804,-0.323675245047,31.7000007629,0.28344705750702337,-0.12739379469765885,0.04199960060334448,31.7000007629,-0.04373989797932432,0.4206110409229041,0.9376183279138759
1648219796757547067,88427,3,6,1.34762561321,-0.846786499023,-0.0868210941553,-0.161837622523,31.7000007629,0.4507109074280936,-0.283206186964214,-0.029037155235886285,31.7000007629,-0.021869948989594594,0.697485762208893,1.593951087925091
1648219796862394456,88428,4,0,0.012225298211,0.0439508594573,0.0108020491898,0.0,23.7999992371,0.004088728498662207,0.014699284099431437,0.0036127254815384612,23.7999992371,0.0,0.015795706837851316,0.04688091541429279
1648219796862409873,88429,4,1,0.0334246940911,0.0146502861753,-0.0294275209308,0.0,23.7999992371,0.01117882745521739,0.0048997612626421405,-0.009841980244414716,23.7999992371,0.0,0.01655113370672634,0.04688091347482975
1648219796862413885,88430,4,2,1.75438141823,-1.39177727699,0.692569851875,0.0,23.7999992371,0.5867496382040133,-0.4654773501638796,0.2316287130016722,23.7999992371,0.0,0.9514302073093264,2.344045893130628
1648219796862415548,88431,4,3,0.875414550304,-0.32230630517,-0.0943187400699,-0.242756426334,23.7999992371,0.2927807860548495,-0.10779475089297658,-0.03154472912036789,23.7999992371,-0.03280492247756756,0.4278561506930454,0.9376182666547538
1648219796862417310,88432,4,4,1.23983752728,-0.918572962284,-0.111592888832,-0.242756426334,23.7999992371,0.414661380361204,-0.30721503755317725,-0.0373220363986622,23.7999992371,-0.03280492247756756,0.6620190329778429,1.5470702485436332
1648219796862534022,88433,4,5,1.10410189629,-0.79111546278,0.364874601364,-0.0809188112617,23.7999992371,0.36926484825752504,-0.26458711129765883,0.1220316392521739,23.7999992371,-0.010934974494824324,0.5854224079945571,1.4064274412714386
1648219797057579139,88434,6,0,0.012225298211,0.0439508594573,0.0108020491898,0.0,16.1000003815,0.004088728498662207,0.014699284099431437,0.0036127254815384612,16.1000003815,0.0,0.015795706837851316,0.04688091541429279
1648219797057592675,88435,6,1,0.0334246940911,0.0146502861753,-0.0294275209308,0.0,16.1000003815,0.01117882745521739,0.0048997612626421405,-0.009841980244414716,16.1000003815,0.0,0.01655113370672634,0.04688091347482975
1648219797057704224,88436,6,2,1.12953329086,-0.835066318512,0.0696929246187,0.0,16.1000003815,0.37777033139130434,-0.2792863941511705,0.023308670441036787,16.1000003815,0.0,0.6028447034825426,1.406427500874508
1648219797057773971,88437,6,3,1.33950483799,-0.773535132408,-0.0282242409885,0.242756426334,16.1000003815,0.44799492909364547,-0.2587074021431438,-0.009439545481103678,16.1000003815,0.03280492247756756,0.684345258558058,1.547070269847965
1648219797057798153,88438,6,4,0.809705376625,-0.237334623933,-0.0119645949453,-0.485512852669,16.1000003815,0.2708044737876254,-0.07937612840568561,-0.0040015367710033445,16.1000003815,-0.06560984495527027,0.3911146837021864,0.8438564286565913
1648219797057902778,88439,6,5,0.865846335888,-0.194848805666,-0.0758763179183,-0.323675245047,16.1000003815,0.28958071434381266,-0.06516682463745818,-0.025376694955953176,16.1000003815,-0.04373989797932432,0.4146814383030363,0.890737419254957
1648219797057906592,88440,6,6,0.516975164413,-0.316446185112,-0.947915077209,-0.161837622523,16.1000003815,0.17290139278026753,-0.10583484451906354,-0.3170284539160535,16.1000003815,-0.021869948989594594,0.2664409832685037,1.1251419920578607
1648219797162343886,88441,7,0,0.0123228654265,0.0439508594573,0.0106906108558,0.0,14.3000001907,0.004121359674414716,0.014699284099431437,0.003575455135719063,14.3000001907,0.0,0.015812658352332205,0.04688091530489902
1648219797162347647,88442,7,1,0.0334108844399,0.0146502861753,-0.0294432006776,0.0,14.3000001907,0.011174208842775918,0.0048997612626421405,-0.009847224306889632,14.3000001907,0.0,0.01654489489101794,0.04688091456249508
1648219797162364318,88443,7,2,1.16742992401,-0.862901806831,0.067918010056,0.0,14.3000001907,0.39044479063879595,-0.28859592201705686,0.02271505353043478,14.3000001907,0.0,0.6230424345731369,1.4533082989497326
1648219797162370681,88444,7,3,1.37298226357,-0.796975553036,-0.142932549119,0.161837622523,14.3000001907,0.45919139249832774,-0.2665470077043478,-0.04780352813344481,14.3000001907,0.021869948989594594,0.701969213858591,1.5939510788642461
1648219797162449178,88445,7,4,0.277072072029,-0.0659262910485,0.642957508564,0.566431701183,14.3000001907,0.09266624482575252,-0.022048926772073575,0.21503595604147158,14.3000001907,0.07654482448418919,0.13289176434983802,0.7032137418798647
1648219797357602212,88446,9,0,0.0123228654265,0.0439508594573,0.0106906108558,0.0,32.9000015259,0.004121359674414716,0.014699284099431437,0.003575455135719063,32.9000015259,0.0,0.015812658352332205,0.04688091530489902
1648219797357738529,88447,9,1,0.0333878919482,0.0146502861753,-0.0294692683965,0.0,32.9000015259,0.011166519046220735,0.0048997612626421405,-0.009855942607525084,32.9000015259,0.0,0.016534508025644712,0.04688091289200561
1648219797357742496,88448,9,2,0.715400993824,0.117202289402,0.192631676793,0.0,32.9000015259,0.23926454642943143,0.03919809010100334,0.06442530996421404,32.9000015259,0.0,0.3406340215300425,0.7500946083725172
1648219797357743550,88449,9,3,2.05926012993,-1.21890377998,0.465432554483,0.0,32.9000015259,0.6887157625183946,-0.407660127083612,0.1556630617,32.9000015259,0.0,1.0558624826635399,2.437807656551563
1648219797357744933,88450,9,4,1.16938948631,-0.862901806831,-0.00582286063582,0.0809188112617,32.9000015259,0.3911001626454849,-0.28859592201705686,-0.001947445028702341,32.9000015259,0.010934974494824324,0.6238639921068732,1.4533083652929801
1648219797357746232,88451,9,5,0.747757196426,0.046880915761,-0.0361017286777,0.161837622523,32.9000015259,0.2500860188715719,0.015679236040468225,-0.012074156748394647,32.9000015259,0.021869948989594594,0.3540224175287169,0.7500946472832477
1648219797357748088,88452,9,6,1.07747972012,-1.03138017654,0.160811573267,0.242756426334,32.9000015259,0.3603611104080267,-0.34494320285618724,0.05378313487190635,32.9000015259,0.03280492247756756,0.6153909919601495,1.500189314028787
1648219797462392018,88453,10,0,0.0123150488362,0.0439508594573,0.0106996148825,0.0,23.7000007629,0.004118745430167224,0.014699284099431437,0.0035784665158862874,23.7000007629,0.0,0.015811295989666522,0.046880915450822236
1648219797462407626,88454,10,1,0.0334108844399,0.0146502861753,-0.0294432006776,0.0,23.7000007629,0.011174208842775918,0.0048997612626421405,-0.009847224306889632,23.7000007629,0.0,0.01654489489101794,0.04688091456249508
1648219797462412522,88455,10,2,2.07973694801,-1.21890377998,0.36314484477,0.0,23.7000007629,0.6955641966588628,-0.407660127083612,0.1214531253411371,23.7000007629,0.0,1.0648032130685956,2.4378076987429727
1648219797462420923,88456,10,3,1.07850933075,-0.953733623028,0.1982793957,0.0809188112617,23.7000007629,0.36070546178929763,-0.31897445586220735,0.06631417916387959,23.7000007629,0.010934974494824324,0.6016324158669081,1.453308267012916
1648219797462435130,88457,10,4,1.37733900547,-0.796975553036,0.091910161078,0.0809188112617,23.7000007629,0.46064849681270903,-0.2665470077043478,0.03073918430702341,23.7000007629,0.010934974494824324,0.7038759709975604,1.5939511428633912
1648219797462577589,88458,10,5,0.867524087429,0.193383783102,-0.523210942745,-0.566431701183,23.7000007629,0.2901418352605351,0.06467685053578595,-0.17498693737290968,23.7000007629,-0.07654482448418919,0.41538857005451096,1.0313801532143578
1648219797462592194,88459,10,6,0.685843884945,0.210964113474,0.218527659774,-0.242756426334,23.7000007629,0.2293792257341137,0.07055655969030099,0.07308617383745819,23.7000007629,-0.03280492247756756,0.33197573181197143,0.7500946805414783
1648219797657621378,88460,12,0,0.0122180348262,0.0439508594573,0.0108102643862,0.0,38.4000015259,0.004086299272976588,0.014699284099431437,0.003615473038862876,38.4000015259,0.0,0.015794449548257636,0.046880915500330377
1648219797657627020,88461,12,1,0.0334108844399,0.0146502861753,-0.0294432006776,0.0,38.4000015259,0.011174208842775918,0.0048997612626421405,-0.009847224306889632,38.4000015259,0.0,0.01654489489101794,0.04688091456249508
1648219797657632211,88462,12,2,1.06912708282,-0.953733623028,0.243853628635,0.0,38.4000015259,0.3575675862274247,-0.31897445586220735,0.0815563975367893,38.4000015259,0.0,0.5978744524844701,1.4533083413755579
1648219797657635954,88463,12,3,1.34941768646,-0.846786499023,0.0520048700273,0.0,38.4000015259,0.4513102630301003,-0.283206186964214,0.017392933119498327,38.4000015259,0.0,0.6982604466582695,1.5939510575815194
1648219797657637630,88464,12,4,2.06167936325,-1.21890377998,0.454596191645,0.0,38.4000015259,0.6895248706521739,-0.407660127083612,0.1520388600819398,38.4000015259,0.0,1.0569181017040161,2.4378076050333823
1648219797657748910,88465,12,5,0.581402003765,0.39555773139,0.00391794461757,0.566431701183,38.4000015259,0.19444883069063543,0.13229355564882941,0.001310349370424749,38.4000015259,0.07654482448418919,0.30515943436197535,0.7032137364517183
1648219797657750566,88466,12,6,2.2603430748,1.58223092556,0.547309815884,0.566431701183,38.4000015259,0.7559675835451505,0.5291742225953177,0.18304676116521737,38.4000015259,0.07654482448418919,1.1928953569368719,2.8128550535279544
1648219797657751598,88467,12,7,1.88168084621,-0.351606875658,-2.06101989746,0.566431701183,38.4000015259,0.6293246977290969,-0.11759427279531771,-0.6893043135317726,38.4000015259,0.07654482448418919,0.8977346842680737,2.8128549944370738
1648219797762362115,88468,13,0,0.0123150488362,0.0439508594573,0.0106996148825,0.0,15.8000001907,0.004118745430167224,0.014699284099431437,0.0035784665158862874,15.8000001907,0.0,0.015811295989666522,0.046880915450822236
1648219797762368869,88469,13,1,0.0333878919482,0.0146502861753,-0.0294692683965,0.0,15.8000001907,0.011166519046220735,0.0048997612626421405,-0.009855942607525084,15.8000001907,0.0,0.016534508025644712,0.04688091289200561
1648219797762376795,88470,13,2,2.13705444336,-1.14272224903,0.264744848013,0.0,15.8000001907,0.7147339275451504,-0.3821813541906354,0.08854342742909699,15.8000001907,0.0,1.080625634463305,2.4378075532868313
1648219797762392031,88471,13,3,1.13593709469,-0.93761831522,0.284757077694,0.0809188112617,15.8000001907,0.37991207180267555,-0.31358472080936456,0.09523648083411371,15.8000001907,0.010934974494824324,0.6220946404912115,1.5001892485368558
1648219797762418163,88472,13,4,0.580196857452,0.498109728098,0.224562555552,0.323675245047,15.8000001907,0.1940457717230769,0.1665918823070234,0.07510453362943144,15.8000001907,0.04373989797932432,0.32103018284548585,0.796975555446392
1648219797762425360,88473,13,5,0.608300030231,0.553780794144,0.188126519322,0.485512852669,15.8000001907,0.20344482616421403,0.18521096794113712,0.06291856833511705,15.8000001907,0.06560984495527027,0.3421734899603817,0.8438564344804189
1648219797957349804,88474,15,0,0.0122609948739,0.0439508594573,0.0107615143061,0.0,35.4000015259,0.004100667181906354,0.014699284099431437,0.003599168664247491,35.4000015259,0.0,0.01580189532016098,0.046880915440011765
1648219797957355032,88475,15,1,0.0333878919482,0.0146502861753,-0.0294692683965,0.0,35.4000015259,0.011166519046220735,0.0048997612626421405,-0.009855942607525084,35.4000015259,0.0,0.016534508025644712,0.04688091289200561
1648219797957490233,88476,15,2,1.12872946262,-0.98449921608,-0.0854330584407,0.0,35.4000015259,0.3775014925150501,-0.3292639518662207,-0.02857292924438127,35.4000015259,0.0,0.6272395903486496,1.5001892259722107
1648219797957492567,88477,15,3,2.14489984512,-1.14272224903,0.191040128469,0.0,35.4000015259,0.7173578077324414,-0.3821813541906354,0.0638930195548495,35.4000015259,0.0,1.0840973370137834,2.437807583610616
1648219797957493663,88478,15,4,0.602710962296,0.640217542648,0.142387241125,0.0809188112617,35.4000015259,0.20157557267424747,0.21411957948093643,0.04762115087792642,35.4000015259,0.010934974494824324,0.3565285645148151,0.8907374093531735
1648219797957494616,88479,15,5,0.775664806366,0.676843225956,0.0630268007517,0.242756426334,35.4000015259,0.25941966768093644,0.22636897189163876,0.021079197575819397,35.4000015259,0.03280492247756756,0.4310916832817035,1.0313801539540712
1648219797957590364,88480,15,6,0.568077087402,0.668053030968,0.156226545572,0.485512852669,35.4000015259,0.1899923369237458,0.22342910734715715,0.052249680793311035,35.4000015259,0.06560984495527027,0.34944919829560317,0.8907374264944924
