%time,field.header.seq,field.header.frame_id,field.point_id,field.x,field.y,field.z,field.velocity,field.intensity,normalized_x,normalized_y,normalized_z,normalized_intensity,normalized_velocity,normalized_range,range
1648126826201683044,81774,0,0,0.0125682624057,0.0439508594573,0.0104010077193,0.0,45.0999984741,0.00420343224270903,0.014699284099431437,0.003478597899431438,45.0999984741,0.0,0.015855807714332613,0.04688091539753471
1648126826201697738,81775,0,1,0.032824549824,0.0146502861753,-0.0300954841077,0.0,45.0999984741,0.0109781103090301,0.0048997612626421405,-0.010065379300234113,45.0999984741,0.0,0.016280217208174907,0.046880914238560535
1648126826201715585,81776,0,2,1.04001700878,-0.571361124516,0.278635203838,0.0,45.0999984741,0.3478317755117057,-0.19109067709565214,0.09318903138394648,45.0999984741,0.0,0.5277210768807004,1.2189038066958895
1648126826201735779,81777,0,3,1.06715905666,-0.351606875658,0.0590645335615,0.404594063759,45.0999984741,0.35690938349832774,-0.11759427279531771,0.01975402460250836,45.0999984741,0.05467487348094594,0.5182634745499362,1.1251419760840313
1648126826306567197,81778,1,0,0.0126667525619,0.0439508594573,0.0102808354422,0.0,35.5999984741,0.004236372094280936,0.014699284099431437,0.0034384065024080264,35.5999984741,0.0,0.01587333141083504,0.046880915572216936
1648126826306575538,81779,1,1,0.0328889451921,0.0146502861753,-0.0300250984728,0.0,35.5999984741,0.010999647221438126,0.0048997612626421405,-0.010041838954113712,35.5999984741,0.0,0.016309265416415034,0.04688091444467014
1648126826306577907,81780,1,2,1.03458619118,-0.571361124516,0.298168390989,0.0,35.5999984741,0.34601544855518396,-0.19109067709565214,0.09972186989598661,35.5999984741,0.0,0.5253275436816207,1.2189038153084504
1648126826306579987,81781,1,3,1.70599484444,-1.50751447678,0.306509643793,0.0,35.5999984741,0.5705668376053511,-0.5041854437391304,0.1025115865528428,35.5999984741,0.0,0.9514704378110578,2.2971648762540418
1648126826306583981,81782,1,4,1.1865978241,-0.435113489628,0.0698048844934,0.242756426334,35.5999984741,0.39685545956521734,-0.14552290623010034,0.023346115215183944,35.5999984741,0.03280492247756756,0.5797977473318556,1.2657846842627882
1648126826306589591,81783,1,5,1.21246373653,-0.467344135046,0.399859964848,0.404594063759,35.5999984741,0.40550626639799325,-0.15630238630301002,0.13373242971505017,35.5999984741,0.05467487348094594,0.5943913695033735,1.359546558397478
1648126826306594903,81784,1,6,1.2702344656,-0.87022703886,0.150451079011,-0.566431701183,35.5999984741,0.4248275804682274,-0.2910458323946488,0.0503180866257525,35.5999984741,-0.07654482448418919,0.6675811731971405,1.5470702065312794
1648126826501560019,81785,3,0,0.0126607660204,0.0439508594573,0.0102882068604,0.0,29.7000007629,0.004234369906488294,0.014699284099431437,0.0034408718596655517,29.7000007629,0.0,0.015872262915090123,0.046880915559116734
1648126826501564023,81786,3,1,0.0328372865915,0.0146502861753,-0.0300815850496,0.0,29.7000007629,0.010982370097491638,0.0048997612626421405,-0.010060730785819396,29.7000007629,0.0,0.01628596224812785,0.04688091333161941
1648126826501568791,81787,3,2,1.18326723576,-0.435113489628,-0.112986326218,0.0,29.7000007629,0.3957415504214047,-0.14552290623010034,-0.037788068969230766,29.7000007629,0.0,0.578273002739648,1.2657847407800455
1648126826501685305,81788,3,3,1.80099642277,-1.46502864361,0.323502957821,0.0,29.7000007629,0.6023399407257525,-0.489976134986622,0.10819496917090302,29.7000007629,0.0,0.9827021019838282,2.344045905085271
1648126826501696384,81789,3,4,2.38204026222,-0.966918945312,0.198388397694,-0.242756426334,29.7000007629,0.7966689840200668,-0.32338426264615383,0.06635063468026756,29.7000007629,-0.03280492247756756,1.172152004445809,2.5784503124900406
1648126826501712117,81790,3,5,1.88814163208,1.6921081543,0.469145596027,-0.242756426334,29.7000007629,0.6314854956789298,0.565922459632107,0.15690488161438126,29.7000007629,-0.03280492247756756,1.0572682217969955,2.5784503910127508
1648126826501726634,81791,3,6,1.01766657829,-0.512760043144,0.273988366127,-0.161837622523,29.7000007629,0.3403567151471572,-0.17149165322541807,0.09163490505919732,29.7000007629,-0.021869948989594594,0.5109743381203339,1.1720229311692056
1648126826606546551,81792,4,0,0.0126157794148,0.0439508594573,0.0103433215991,0.0,42.4000015259,0.004219324218996655,0.014699284099431437,0.0034593048826421402,42.4000015259,0.0,0.01586424743773941,0.0468809155091988
1648126826606551665,81793,4,1,0.0328372865915,0.0146502861753,-0.0300815850496,0.0,42.4000015259,0.010982370097491638,0.0048997612626421405,-0.010060730785819396,42.4000015259,0.0,0.01628596224812785,0.04688091333161941
1648126826606561917,81794,4,2,0.259509503841,-1.58955609798,0.313522130251,0.0,42.4000015259,0.08679247620100335,-0.5316241130367892,0.10485689974949833,42.4000015259,0.0,0.5456098105902755,1.6408320747006169
1648126826606738601,81795,4,3,1.79520726204,-1.46502864361,0.354222029448,0.0,42.4000015259,0.6004037665685618,-0.489976134986622,0.11846890616989966,42.4000015259,0.0,0.9803295255554942,2.344045922422419
1648126826606753468,81796,4,4,1.31830608845,-0.307656019926,0.381385833025,0.161837622523,42.4000015259,0.4409050463043478,-0.10289498994180601,0.12755379030936453,42.4000015259,0.021869948989594594,0.6319666911067406,1.406427503667793
1648126826606755252,81797,4,5,1.01741755009,-0.512760043144,0.274911731482,-0.242756426334,42.4000015259,0.3402734281237458,-0.17149165322541807,0.09194372290367891,42.4000015259,-0.03280492247756756,0.5108633857502014,1.172022949085301
1648126826606813706,81798,4,6,1.15400707722,-0.435113489628,0.284876912832,-0.161837622523,42.4000015259,0.38595554422073575,-0.14552290623010034,0.09527655947558528,42.4000015259,-0.021869948989594594,0.5648896179494743,1.2657847125774562
1648126826801556082,81799,6,0,0.0126506788656,0.0439508594573,0.0103006083518,0.0,34.0999984741,0.004230996276120401,0.014699284099431437,0.0034450195156521734,34.0999984741,0.0,0.015870463509705293,0.046880915682322666
1648126826801646475,81800,6,1,0.0328128412366,0.0146502861753,-0.0301082488149,0.0,34.0999984741,0.010974194393511704,0.0048997612626421405,-0.010069648433076922,34.0999984741,0.0,0.0162749361167427,0.04688091383213888
1648126826801653718,81801,6,2,1.25828838348,-0.212429150939,0.468989431858,0.0,34.0999984741,0.42083223527759195,-0.07104653877558528,0.1568526527953177,34.0999984741,0.0,0.5993722976326648,1.3595465741797395
1648126826801669227,81802,6,3,1.75039994717,-1.53828012943,0.253663927317,0.0,34.0999984741,0.5854180425317725,-0.5144749596755852,0.08483743388528427,34.0999984741,0.0,0.9747374278115412,2.3440458868532845
1648126826801676266,81803,6,4,1.08174693584,-0.495179653168,0.265230447054,-0.485512852669,34.0999984741,0.36178827285618725,-0.16561192413645484,0.08870583513511705,34.0999984741,-0.06560984495527027,0.5377813851080241,1.218903815793221
1648126826801683846,81804,6,5,1.12506496906,-0.679773271084,0.347136735916,-0.485512852669,34.0999984741,0.37627590938461536,-0.22734892009498325,0.1160992427812709,34.0999984741,-0.06560984495527027,0.5786662694807722,1.359546541354372
1648126826801700406,81805,6,6,1.01009774208,-0.336956560612,0.169734224677,-0.323675245047,34.0999984741,0.33782533179933105,-0.11269450187692308,0.05676729922307692,34.0999984741,-0.04373989797932432,0.49086857748683,1.0782610441452871
1648126826801754168,81806,6,7,1.19723713398,-0.228544458747,0.0108242053539,-0.242756426334,34.0999984741,0.4004137571839465,-0.07643627382842809,0.00362013556986622,34.0999984741,-0.03280492247756756,0.5714060358808817,1.218903805895341
1648126826801836507,81807,6,8,1.32798171043,-0.127457484603,0.261889249086,-0.242756426334,34.0999984741,0.44414104027759194,-0.04262792127190635,0.08758837762073578,34.0999984741,-0.03280492247756756,0.6295551341937312,1.3595465466120464
1648126826906558797,81808,7,0,0.0125717613846,0.0439508594573,0.0103967776522,0.0,25.8999996185,0.004204602469765886,0.014699284099431437,0.003477183161270903,25.8999996185,0.0,0.015856428251448073,0.046880915273658445
1648126826906567846,81809,7,1,0.0328001193702,0.0146502861753,-0.0301221106201,0.0,25.8999996185,0.010969939588695651,0.0048997612626421405,-0.010074284488327758,25.8999996185,0.0,0.016269198185225747,0.0468809157752608
1648126826906725078,81810,7,2,1.83021891117,-1.39177727699,0.455857008696,0.0,25.8999996185,0.6121133482173913,-0.4654773501638796,0.15246053802541804,25.8999996185,0.0,0.9828706250811434,2.34404583230091
1648126826906728131,81811,7,3,1.13128983974,-0.780860245228,-1.34349417686,0.242756426334,25.8999996185,0.37835780593311036,-0.261157272651505,-0.4493291561404682,25.8999996185,0.03280492247756756,0.5954094218937142,1.9221175893615916
1648126826906749591,81812,7,4,1.11321043968,-0.366257160902,-0.0160036962479,-0.566431701183,25.8999996185,0.3723111838394649,-0.12249403374648829,-0.00535240677187291,25.8999996185,-0.07654482448418919,0.5405885898975056,1.1720229985875394
1648126826906751830,81813,7,5,1.17338192463,-0.533270418644,0.248774290085,-0.485512852669,25.8999996185,0.3924354262976588,-0.1783513105832776,0.08320210370735785,25.8999996185,-0.06560984495527027,0.5829410927474775,1.312665657300611
1648126826906765033,81814,7,6,1.00688302517,-0.0410208031535,-0.841186642647,-0.485512852669,25.8999996185,0.33675017564214044,-0.013719332158361203,-0.2813333253,25.8999996185,-0.06560984495527027,0.47643423645336014,1.312665646855505
1648126826906790068,81815,7,7,1.01874554157,-0.26956525445,0.228339165449,-0.161837622523,25.8999996185,0.3407175724314381,-0.09015560349498328,0.0763676138625418,25.8999996185,-0.021869948989594594,0.4902090994348118,1.0782609514182508
1648126826906795598,81816,7,8,1.1972130537,-0.190453708172,-0.127022266388,-0.0809188112617,25.8999996185,0.40040570357859534,-0.06369689236521739,-0.04248236334046822,25.8999996185,-0.010934974494824324,0.5698304563758645,1.218903756276306
1648126827101524663,81817,9,0,0.0126362647861,0.0439508594573,0.0103182848543,0.0,18.2999992371,0.004226175513745819,0.014699284099431437,0.003450931389397993,18.2999992371,0.0,0.015867894377697606,0.04688091548929313
1648126827101526506,81818,9,1,0.0328128412366,0.0146502861753,-0.0301082488149,0.0,18.2999992371,0.010974194393511704,0.0048997612626421405,-0.010069648433076922,18.2999992371,0.0,0.0162749361167427,0.04688091383213888
1648126827101528194,81819,9,2,1.03447139263,-0.134782627225,0.272670984268,0.0,18.2999992371,0.34597705439130433,-0.04507780174749164,0.09119430911973243,18.2999992371,0.0,0.4913575607853748,1.0782610465157334
1648126827101604022,81820,9,3,1.80749535561,-1.39177727699,0.538950324059,0.0,18.2999992371,0.6045134968595317,-0.4654773501638796,0.18025094450133777,18.2999992371,0.0,0.9734178441379966,2.344045840230246
1648126827101610820,81821,9,4,1.22319471836,-0.234404578805,0.836311578751,0.323675245047,18.2999992371,0.4090952235317726,-0.07839618020234114,0.27970286914749165,18.2999992371,0.04373989797932432,0.583835391958504,1.5001892821712663
1648126827101618192,81822,9,5,1.05852723122,-0.457088917494,0.395368725061,-0.566431701183,18.2999992371,0.3540224853578595,-0.15287254765685618,0.1322303428297659,18.2999992371,-0.07654482448418919,0.523482431515146,1.2189038544883173
