%time,field.header.seq,field.header.frame_id,field.point_id,field.x,field.y,field.z,field.velocity,field.intensity,normalized_x,normalized_y,normalized_z,normalized_intensity,normalized_velocity,normalized_range,range
1648127109103233567,94895,0,0,0.0126405349001,0.0439508594573,0.0103130536154,0.0,18.7000007629,0.004227603645518395,0.014699284099431437,0.003449181811170568,18.7000007629,0.0,0.01586865521091812,0.046880915567745665
1648127109103403736,94896,0,1,0.0328628644347,0.0146502861753,-0.0300536397845,0.0,18.7000007629,0.010990924560100333,0.0048997612626421405,-0.010051384543311037,18.7000007629,0.0,0.01629749998627157,0.04688091304750941
1648127109103419278,94897,0,2,0.472030371428,-1.53828001022,0.321266025305,0.0,18.7000007629,0.15786968944080265,-0.51447491980602,0.1074468312056856,18.7000007629,0.0,0.5608298501307519,1.6408320817220061
1648127109103526224,94898,0,3,2.41654706001,-0.902457654476,0.48809415102,0.0,18.7000007629,0.8082097190668897,-0.30182530250033446,0.1632421909765886,18.7000007629,0.0,1.182160908344452,2.62533148604614
1648127109103530757,94899,0,4,1.18805801868,-1.2804350853,0.350223869085,0.0809188112617,18.7000007629,0.3973438189565217,-0.42823915896321063,0.11713172879096988,18.7000007629,0.010934974494824324,0.7065076066083253,1.7814748445863424
1648127109103539389,94900,0,5,0.607541024685,-0.612381994724,0.222025588155,-0.161837622523,18.7000007629,0.2031909781555184,-0.20481003168026754,0.07425604955016722,18.7000007629,-0.021869948989594594,0.35287433497559,0.89073742816445
1648127109103542666,94901,0,6,0.657601594925,-0.553780794144,0.479714184999,-0.161837622523,18.7000007629,0.21993364378762542,-0.18521096794113712,0.16043952675551837,18.7000007629,-0.021869948989594594,0.3620009916907648,0.9844992254440417
1648127109208159873,94902,1,0,0.0126405349001,0.0439508594573,0.0103130536154,0.0,34.5999984741,0.004227603645518395,0.014699284099431437,0.003449181811170568,34.5999984741,0.0,0.01586865521091812,0.046880915567745665
1648127109208166685,94903,1,1,0.032850060612,0.0146502861753,-0.0300676375628,0.0,34.5999984741,0.010986642345150502,0.0048997612626421405,-0.01005606607451505,34.5999984741,0.0,0.01629172429399039,0.046880915049070465
1648127109208169700,94904,1,2,0.480422526598,-1.53828001022,0.308575332165,0.0,34.5999984741,0.16067643030033443,-0.51447491980602,0.10320245222909698,34.5999984741,0.0,0.5624217933344396,1.6408320845004187
1648127109208171922,94905,1,3,0.731389462948,-0.527410328388,0.256974577904,-0.242756426334,34.5999984741,0.24461186051772574,-0.1763914141765886,0.08594467488428094,34.5999984741,-0.03280492247756756,0.3883089692591499,0.9376183310338172
1648127109208174413,94906,1,4,0.56421738863,-0.549385726452,0.868027567863,-0.242756426334,34.5999984741,0.18870146776923077,-0.1837410456361204,0.2903102233655518,34.5999984741,-0.03280492247756756,0.3240019440188268,1.1720229505567727
1648127109208268074,94907,1,5,0.850434958935,-0.49224960804,-0.0607403032482,-0.161837622523,34.5999984741,0.28442640767056854,-0.16463197593311035,-0.020314482691705684,34.5999984741,-0.021869948989594594,0.4346267942274258,0.9844992028605163
1648127109208293227,94908,1,6,0.942152678967,-0.495179653168,-0.59403026104,-0.161837622523,34.5999984741,0.31510123042374577,-0.16561192413645484,-0.1986723281070234,34.5999984741,-0.021869948989594594,0.47539970576904644,1.2189038150844906
1648127109403088319,94909,3,0,0.0126405349001,0.0439508594573,0.0103130536154,0.0,13.0,0.004227603645518395,0.014699284099431437,0.003449181811170568,13.0,0.0,0.01586865521091812,0.046880915567745665
1648127109403093462,94910,3,1,0.0327750183642,0.0146502861753,-0.030149416998,0.0,13.0,0.01096154460341137,0.0048997612626421405,-0.01008341705618729,13.0,0.0,0.01625787749418854,0.046880913590832726
1648127109403109653,94911,3,2,1.72153103352,-1.53828012943,0.405680000782,0.0,13.0,0.5757628874648829,-0.5144749596755852,0.13567893002742473,13.0,0.0,0.9631668024267623,2.34404588671086
1648127109403114655,94912,3,3,0.68461483717,-0.373582303524,0.164039090276,-0.323675245047,13.0,0.2289681729665552,-0.12494391422207357,0.0548625719986622,13.0,-0.04373989797932432,0.3470789970084873,0.7969755554081828
1648127109403160414,94913,3,4,0.834146559238,-0.293005734682,0.312210232019,-0.0809188112617,13.0,0.2789787823538461,-0.09799522899063544,0.10441813779899665,13.0,-0.010934974494824324,0.40652353795591756,0.937618297508368
1648127109508085105,94914,4,0,0.0126097733155,0.0439508594573,0.0103506427258,0.0,22.7999992371,0.004217315490133779,0.014699284099431437,0.0034617534199999998,22.7999992371,0.0,0.01586317915559307,0.04688091546611253
1648127109508091303,94915,4,1,0.0328744277358,0.0146502861753,-0.0300409924239,0.0,22.7999992371,0.010994791884882943,0.0048997612626421405,-0.010047154656822743,22.7999992371,0.0,0.01630271626492543,0.04688091413131083
1648127109508096175,94916,4,2,0.484083116055,-1.53828001022,0.302800387144,0.0,22.7999992371,0.16190070771070234,-0.51447491980602,0.1012710324896321,22.7999992371,0.0,0.5631235401080861,1.6408320838972275
1648127109508100307,94917,4,3,1.81924653053,-1.39177727699,0.497844398022,0.0,22.7999992371,0.6084436556956522,-0.4654773501638796,0.16650314315117054,22.7999992371,0.0,0.978302881437117,2.3440458554032233
1648127109508104834,94918,4,4,0.908335030079,-0.197778865695,0.859082043171,0.242756426334,22.7999992371,0.30379097995953175,-0.06614677782441471,0.28731840908729095,22.7999992371,0.03280492247756756,0.434687606478604,1.2657847224086245
1648127109508153201,94919,4,5,0.66053301096,-0.68563336134,-1.56092524529,0.323675245047,22.7999992371,0.22091405048829432,-0.2293088165016722,-0.5220485770200668,22.7999992371,0.04373989797932432,0.3875416993456148,1.8283557055819082
1648127109508236966,94920,4,6,0.770806014538,-0.34281668067,0.0207013580948,-0.404594063759,22.7999992371,0.2577946536916388,-0.1146544082508361,0.006923531135384615,22.7999992371,-0.05467487348094594,0.3821803242912086,0.8438564657692216
1648127109508242536,94921,4,7,0.889729440212,-0.293005734682,-0.0407085604966,-0.242756426334,22.7999992371,0.29756837465284275,-0.09799522899063544,-0.0136149031761204,22.7999992371,-0.03280492247756756,0.4320844131555734,0.9376182721311497
1648127109508249507,94922,4,8,0.728878796101,-0.249054864049,0.204639703035,-0.161837622523,22.7999992371,0.24377217260903009,-0.0832959411535117,0.06844137225250836,22.7999992371,-0.021869948989594594,0.35466598101552227,0.7969755534333297
