%time,field.header.seq,field.header.frame_id,field.point_id,field.x,field.y,field.z,field.velocity,field.intensity,normalized_x,normalized_y,normalized_z,normalized_intensity,normalized_velocity,normalized_range,range
1648295684865035874,59616,0,0,0.0126422159374,0.0439508594573,0.0103109916672,0.0,18.1000003815,0.00422816586535117,0.014699284099431437,0.0034484921963879598,18.1000003815,0.0,0.015868954792475763,0.0468809153068096
1648295684865038381,59617,0,1,0.0335142984986,0.0146502861753,-0.0293254330754,0.0,18.1000003815,0.011208795484481605,0.0048997612626421405,-0.00980783714896321,18.1000003815,0.0,0.016591619958785185,0.04688091417550657
1648295684865041229,59618,0,2,1.86641168594,-0.117202289402,-0.138865441084,0.0,18.1000003815,0.6242179551638796,-0.03919809010100334,-0.04644329133244147,18.1000003815,0.0,0.8836473286133539,1.875236670071785
1648295684865044258,59619,0,3,2.24379038811,-1.2306240797,0.585946977139,0.0,18.1000003815,0.7504315679297658,-0.4115799597658863,0.19596888867525084,18.1000003815,0.0,1.1382851749767902,2.625331367909702
1648295684865045744,59620,0,4,0.49348834157,-0.943478405476,0.170189648867,-0.0809188112617,18.1000003815,0.16504626808361203,-0.3155446172160535,0.05691961500568561,18.1000003815,-0.010934974494824324,0.3924906962855053,1.078260989485624
1648295684969939021,59621,1,0,0.0126422159374,0.0439508594573,0.0103109916672,0.0,32.5,0.00422816586535117,0.014699284099431437,0.0034484921963879598,32.5,0.0,0.015868954792475763,0.0468809153068096
1648295684969945407,59622,1,1,0.0335142984986,0.0146502861753,-0.0293254330754,0.0,32.5,0.011208795484481605,0.0048997612626421405,-0.00980783714896321,32.5,0.0,0.016591619958785185,0.04688091417550657
1648295684969946533,59623,1,2,0.472730875015,1.27457487583,0.0187408700585,0.0,32.5,0.15810397157692307,0.4262792226856187,0.006267849517892976,32.5,0.0,0.48136026773119556,1.35954654738264
1648295684969947588,59624,1,3,1.87111771107,-0.117202289402,-0.0411629378796,0.0,32.5,0.62579187661204,-0.03919809010100334,-0.013766868856053511,32.5,0.0,0.8858710041167415,1.875236585814117
1648295684969950240,59625,1,4,2.24730706215,-1.2306240797,0.572311580181,0.0,32.5,0.7516077130936454,-0.4115799597658863,0.1914085552444816,32.5,0.0,1.1398361163099753,2.625331446110378
1648295684969951534,59626,1,5,2.16370582581,0.344281733036,0.234162077308,-0.242756426334,32.5,0.7236474333812709,0.11514439231973243,0.07831507602274247,32.5,-0.03280492247756756,1.0298492349665958,2.203402979664774
1648295684969952888,59627,1,6,0.496512770653,-0.87022703886,0.24479585886,-0.161837622523,32.5,0.16605778282709027,-0.2910458323946488,0.08187152470234113,32.5,-0.021869948989594594,0.3739760032798791,1.0313801641972604
1648295684970048821,59628,1,7,0.27273491025,-0.914177834988,0.758696913719,-0.161837622523,32.5,0.09121568904682274,-0.30574509531371236,0.25374478719698995,32.5,-0.021869948989594594,0.33184434177030103,1.2189037911743315
1648295685165163027,59629,3,0,0.0127323288471,0.0439508594573,0.0101995095611,0.0,19.0,0.004258303962240802,0.014699284099431437,0.003411207211070234,19.0,0.0,0.015885064000672747,0.046880915522129064
1648295685165164188,59630,3,1,0.0335142984986,0.0146502861753,-0.0293254330754,0.0,19.0,0.011208795484481605,0.0048997612626421405,-0.00980783714896321,19.0,0.0,0.016591619958785185,0.04688091417550657
1648295685165165356,59631,3,2,0.641026139259,0.0703213736415,0.922000527382,0.0,19.0,0.2143900131301003,0.023518854060702338,0.3083613803953177,19.0,0.0,0.30410408079500967,1.1251420262779328
1648295685165168738,59632,3,3,2.20123338699,-1.31266570091,0.569074273109,0.0,19.0,0.7361984571872908,-0.4390186290668896,0.19032584384916387,19.0,0.0,1.1299175604430909,2.62533144472456
1648295685165170266,59633,3,4,1.21798932552,-0.251984924078,-1.58643472195,-0.404594063759,19.0,0.4073542894715719,-0.08427589434046821,-0.5305801745652173,19.0,-0.05467487348094594,0.5822177089960971,2.015879343128411
1648295685165176345,59634,3,5,0.421014159918,-0.75155967474,0.226535439491,-0.323675245047,19.0,0.1408074113438127,-0.25135775074916383,0.07576436103377926,19.0,-0.04373989797932432,0.3206776778018235,0.8907374320708288
1648295685165177398,59635,3,6,0.615867972374,-0.805765748024,0.187598481774,-0.161837622523,19.0,0.2059759104929766,-0.26948687224882945,0.06274196714849498,19.0,-0.021869948989594594,0.39683160877288787,1.0313801386727632
1648295685165185332,59636,3,7,0.508817851543,-0.879017233849,0.584868311882,-0.0809188112617,19.0,0.17017319449598658,-0.29398569693946486,0.195608131064214,19.0,-0.010934974494824324,0.379928180390611,1.1720229714882224
1648295685269898146,59637,4,0,0.0126422159374,0.0439508594573,0.0103109916672,0.0,14.6999998093,0.00422816586535117,0.014699284099431437,0.0034484921963879598,14.6999998093,0.0,0.015868954792475763,0.0468809153068096
1648295685269914358,59638,4,1,0.0334292426705,0.0146502861753,-0.0294223539531,0.0,14.6999998093,0.011180348719230768,0.0048997612626421405,-0.009840252158227423,14.6999998093,0.0,0.0165531886776566,0.04688091362892647
1648295685269926438,59639,4,2,0.273161828518,-0.0,1.09147930145,0.0,14.6999998093,0.09135847107625418,-0.0,0.36504324463210697,14.6999998093,0.0,0.1292003888337088,1.125141968843522
1648295685269933557,59640,4,3,0.877713322639,-0.703213751316,0.0324692875147,0.0,14.6999998093,0.29354960623377924,-0.23518854559063543,0.010859293483177256,14.6999998093,0.0,0.477133518647613,1.1251419961096585
1648295685269935909,59641,4,4,2.18873214722,-1.31266570091,0.615406394005,0.0,14.6999998093,0.732017440541806,-0.4390186290668896,0.2058215364565217,14.6999998093,0.0,1.124471619554057,2.625331347544925
1648295685269937962,59642,4,5,0.469971120358,-0.68563336134,0.145353898406,-0.323675245047,14.6999998093,0.15718097670836118,-0.2293088165016722,0.04861334394849498,14.6999998093,-0.04373989797932432,0.3193653898020046,0.8438564545790727
1648295685269939390,59643,4,6,0.636563658714,-0.73837441206,0.137217596173,-0.242756426334,14.6999998093,0.21289754472040132,-0.24694796389966553,0.045892172633110365,14.6999998093,-0.03280492247756756,0.3894021391442798,0.9844992293952297
1648295685269940555,59644,4,7,0.919118642807,-0.799905598164,-0.0331429727376,-0.242756426334,14.6999998093,0.30739753940033443,-0.26752695590769227,-0.011084606266755852,14.6999998093,-0.03280492247756756,0.5104480057713975,1.2189038116977784
1648295685368120219,59645,5,0,0.0127323288471,0.0439508594573,0.0101995095611,0.0,14.0,0.004258303962240802,0.014699284099431437,0.003411207211070234,14.0,0.0,0.015885064000672747,0.046880915522129064
1648295685368123564,59646,5,1,0.0334292426705,0.0146502861753,-0.0294223539531,0.0,14.0,0.011180348719230768,0.0048997612626421405,-0.009840252158227423,14.0,0.0,0.0165531886776566,0.04688091362892647
1648295685368125608,59647,5,2,1.872605443,-0.0,0.0993033647537,0.0,14.0,0.6262894458193979,-0.0,0.033211827676822736,14.0,0.0,0.8857070282489222,1.8752365993134394
1648295685368128602,59648,5,3,2.24223589897,-1.2306240797,0.591867268085,0.0,14.0,0.7499116718963211,-0.4115799597658863,0.19794891909197324,14.0,0.0,1.1375997075305353,2.6253312772291575
1648295685368194262,59649,5,4,0.684410870075,-0.707608819008,0.0104963388294,-0.404594063759,14.0,0.22889995654682274,-0.23665846789565215,0.003510481213846153,14.0,-0.05467487348094594,0.40099577384430385,0.9844991888993797
1648295685368195412,59650,5,5,0.504915833473,-0.659262835979,0.15008752048,-0.242756426334,14.0,0.1688681717301003,-0.22048924280234114,0.0501964951438127,14.0,-0.03280492247756756,0.32503603652284935,0.8438564745255218
1648295685368196442,59651,5,6,0.656543552876,-0.707608819008,0.193594992161,-0.242756426334,14.0,0.21957978357056854,-0.23665846789565215,0.06474748901705686,14.0,-0.03280492247756756,0.39043282793908723,0.9844992120620286
1648295685368212983,59652,5,7,0.922697067261,-0.632892370224,0.118413820863,-0.0809188112617,14.0,0.3085943368765886,-0.21166968903812708,0.03960328456956521,14.0,-0.010934974494824324,0.4850412217142996,1.125141974681941
1648295685469927004,59653,6,0,0.0126539859921,0.0439508594573,0.0102965449914,0.0,12.8000001907,0.0042321023384949835,0.014699284099431437,0.0034436605322408025,12.8000001907,0.0,0.015871053318629716,0.04688091559775176
1648295685469953555,59654,6,1,0.0334062948823,0.0146502861753,-0.0294484067708,0.0,12.8000001907,0.011172673873678929,0.0048997612626421405,-0.009848965475183945,12.8000001907,0.0,0.01654282150680663,0.04688091385755901
1648295685469959071,59655,6,2,0.348302692175,-0.0,1.06987369061,0.0,12.8000001907,0.11648919470735784,-0.0,0.3578172878294314,12.8000001907,0.0,0.16474059902506563,1.125141981811991
1648295685470150294,59656,6,3,0.532748878002,0.0703213736415,0.988523185253,0.0,12.8000001907,0.17817688227491638,0.023518854060702338,0.3306097609541806,12.8000001907,0.0,0.2530753627889278,1.1251420134302845
1648295685470158156,59657,6,4,0.473101347685,1.27457487583,-0.000905326218344,0.0,12.8000001907,0.1582278754799331,0.4262792226856187,-0.0003027846884093645,12.8000001907,0.0,0.4814416858262709,1.3595465489985934
1648295685470173283,59658,6,5,1.87046027184,-0.117202289402,0.0644537657499,0.0,12.8000001907,0.625571997270903,-0.03919809010100334,0.021556443394615384,12.8000001907,0.0,0.8855603524360041,1.875236596563799
1648295685470180249,59659,6,6,2.25125551224,-1.2306240797,0.556577205658,0.0,12.8000001907,0.7529282649632107,-0.4115799597658863,0.1861462226280936,12.8000001907,0.0,1.1415778587735095,2.6253314443678395
1648295685470183220,59660,6,7,0.468906491995,-0.572826206684,0.295240372419,-0.242756426334,12.8000001907,0.15682491371070234,-0.19158067113177255,0.09874259947123744,12.8000001907,-0.03280492247756756,0.29307210831472663,0.796975557219384
1648295685470188167,59661,6,8,0.691901624203,-0.615312039852,0.147618800402,-0.242756426334,12.8000001907,0.2314052254859532,-0.20578997988361203,0.0493708362548495,12.8000001907,-0.03280492247756756,0.3865828146528336,0.9376182987728559
1648295685470191512,59662,6,9,0.953757762909,-0.659262895584,0.171337217093,-0.242756426334,12.8000001907,0.31898252940100336,-0.22048926273712371,0.057303417087959864,12.8000001907,-0.03280492247756756,0.5021107677679143,1.1720229851688722
1648295685470200363,59663,6,10,0.685309886932,-0.647542655468,0.772505879402,-0.161837622523,12.8000001907,0.22920063108093644,-0.21656944998929767,0.2583631703685619,12.8000001907,-0.021869948989594594,0.38983097009404727,1.2189037966500706
1648295685665029450,59664,8,0,0.0127238156274,0.0439508594573,0.0102101275697,0.0,13.6999998093,0.004255456731571906,0.014699284099431437,0.00341475838451505,13.6999998093,0.0,0.01588353792529735,0.04688091547895533
1648295685665037622,59665,8,1,0.0335370339453,0.0146502861753,-0.0292994324118,0.0,13.6999998093,0.011216399312809364,0.0048997612626421405,-0.009799141274849498,13.6999998093,0.0,0.016601894094339636,0.046880915845576514
1648295685665181273,59666,8,2,0.323217302561,-0.0,1.07771754265,0.0,13.6999998093,0.10809943229464883,-0.0,0.36044064971571904,13.6999998093,0.0,0.15287568323592451,1.1251420027758112
1648295685665188826,59667,8,3,0.532748878002,0.0703213736415,0.988523185253,0.0,13.6999998093,0.17817688227491638,0.023518854060702338,0.3306097609541806,13.6999998093,0.0,0.2530753627889278,1.1251420134302845
1648295685665255176,59668,8,4,1.85977435112,-0.234404578805,0.052973434329,0.0,13.6999998093,0.6219981107424749,-0.07839618020234114,0.017716867668561873,13.6999998093,0.0,0.88312471407199,1.87523660597621
1648295685665258175,59669,8,5,0.679554998875,-0.448298752308,0.222096696496,-0.404594063759,13.6999998093,0.2272759193561873,-0.14993269307959864,0.07427983160401337,13.6999998093,-0.05467487348094594,0.3546667442720017,0.8438564513063506
1648295685665261047,59670,8,6,0.538912296295,-0.515690088272,0.0792417377234,-0.323675245047,13.6999998093,0.18023822618561872,-0.17247160142876253,0.026502253419197323,13.6999998093,-0.04373989797932432,0.3077630414076363,0.7500946495192171
1648295685769947681,59671,9,0,0.0127121871337,0.0439508594573,0.0102246021852,0.0,31.8999996185,0.004251567603244147,0.014699284099431437,0.003419599393043478,31.8999996185,0.0,0.01588145482018912,0.04688091550517269
1648295685769957429,59672,9,1,0.0335142984986,0.0146502861753,-0.0293254330754,0.0,31.8999996185,0.011208795484481605,0.0048997612626421405,-0.00980783714896321,31.8999996185,0.0,0.016591619958785185,0.04688091417550657
1648295685769960934,59673,9,2,0.438160806894,-0.0,1.0363202095,0.0,31.8999996185,0.14654207588428092,-0.0,0.3465953877926421,31.8999996185,0.0,0.20724179117385735,1.1251419774037963
1648295685769964019,59674,9,3,1.75074565411,-0.111342176795,0.310073047876,0.0,31.8999996185,0.5855336635819397,-0.037238186219063545,0.10370336049364547,31.8999996185,0.0,0.8289065236130441,1.7814748723284348
1648295685769966744,59675,9,4,0.956074178219,1.50311934948,-0.0143905039877,0.0,31.8999996185,0.3197572502404682,0.5027155014983277,-0.004812877587859532,31.8999996185,0.0,0.6761747360035022,1.7814748664079811
1648295685769974758,59676,9,5,1.91723179817,-0.120132349432,-0.0657763332129,0.0,31.8999996185,0.6412146482173913,-0.040178043288294316,-0.021998773649799328,31.8999996185,0.0,0.9077040956939556,1.9221176018405217
1648295685770143265,59677,9,6,0.300886660814,-0.799905598164,-1.6163238287,0.242756426334,31.8999996185,0.10063099023879599,-0.26752695590769227,-0.5405765313377926,31.8999996185,0.03280492247756756,0.30302452793481527,1.8283556732357444
1648295685770155947,59678,9,7,0.701424837112,-0.373582303524,0.0600795373321,-0.566431701183,31.8999996185,0.2345902465257525,-0.12494391422207357,0.02009349074652174,31.8999996185,-0.07654482448418919,0.35450832039764535,0.7969755896073185
1648295685770270117,59679,9,8,0.48422780633,-0.417533159256,0.292744040489,-0.485512852669,31.8999996185,0.1619490991070234,-0.13964319707558526,0.09790770584916388,31.8999996185,-0.06560984495527027,0.2682447462535729,0.7032137518161071
1648295685964953307,59680,11,0,0.0127438921481,0.0439508594573,0.0101850572973,0.0,38.2000007629,0.004262171286989967,0.014699284099431437,0.0034063736780267557,38.2000007629,0.0,0.015887138231760977,0.04688091537360406
1648295685964960952,59681,11,1,0.0335142984986,0.0146502861753,-0.0293254330754,0.0,38.2000007629,0.011208795484481605,0.0048997612626421405,-0.00980783714896321,38.2000007629,0.0,0.016591619958785185,0.04688091417550657
1648295685965135726,59682,11,2,1.58881223202,-1.61153149605,0.610895454884,0.0,38.2000007629,0.5313753284347825,-0.5389737444983277,0.20431286116521738,38.2000007629,0.0,0.9247768252918617,2.344045931328022
1648295685965139068,59683,11,3,1.53388667107,-0.9713139534,0.215928599238,0.242756426334,38.2000007629,0.5130055756086956,-0.3248541650167224,0.07221692282207358,38.2000007629,0.03280492247756756,0.7949085920657357,1.828355620694352
1648295685965140223,59684,11,4,0.5118740201,-0.304725944996,0.128680586815,-0.647350490093,38.2000007629,0.17119532444816055,-0.10191503177123744,0.043036985556856186,38.2000007629,-0.08747979595851352,0.26268298750919183,0.6094518909890208
1648295685965141378,59685,11,5,0.51404941082,-0.266635209322,0.189974948764,-0.404594063759,38.2000007629,0.1719228798729097,-0.0891756552916388,0.06353677216187291,38.2000007629,-0.05467487348094594,0.2589734556750615,0.6094518953719484
1648295685965142371,59686,11,6,0.660590052605,-0.219754293561,0.0991885066032,-0.242756426334,38.2000007629,0.22093312796153847,-0.07349641925117056,0.03317341357966555,38.2000007629,-0.03280492247756756,0.32097448139140733,0.7032137135902171
1648295685965144631,59687,11,7,0.626338839531,-0.307655990124,0.694468259811,-0.161837622523,38.2000007629,0.2094778727528428,-0.10289497997458194,0.2322636320438127,38.2000007629,-0.021869948989594594,0.31360697576757124,0.9844992199332294
1648295686069886389,59688,12,0,0.0127238156274,0.0439508594573,0.0102101275697,0.0,18.0,0.004255456731571906,0.014699284099431437,0.00341475838451505,18.0,0.0,0.01588353792529735,0.04688091547895533
1648295686069894400,59689,12,1,0.0335142984986,0.0146502861753,-0.0293254330754,0.0,18.0,0.011208795484481605,0.0048997612626421405,-0.00980783714896321,18.0,0.0,0.016591619958785185,0.04688091417550657
1648295686069896688,59690,12,2,1.33572936058,-1.7580344677,0.78720587492,0.0,18.0,0.44673222761872905,-0.5879713938795986,0.26327955682943144,18.0,0.0,0.863046769536334,2.3440459048075915
1648295686069900553,59691,12,3,2.18829607964,-1.31266570091,0.616955280304,0.0,18.0,0.7318715985418061,-0.4390186290668896,0.20633955863010034,18.0,0.0,1.1242817396774032,2.6253313681149515
1648295686069905203,59692,12,4,0.728575885296,-0.093761831522,0.151749506593,0.0809188112617,18.0,0.24367086464749163,-0.03135847208093645,0.05075234334214046,18.0,0.010934974494824324,0.34602649367839344,0.7500946703159735
1648295686069907480,59693,12,5,0.734797179699,-0.9713139534,1.36363732815,0.161837622523,18.0,0.24575156511672241,-0.3248541650167224,0.45606599603678927,18.0,0.021869948989594594,0.47572880093951553,1.828355669471127
1648295686070010677,59694,12,6,0.421873569489,1.72580373287,-0.131441146135,-0.647350490093,18.0,0.14109483929397992,0.57719188390301,-0.043960249543478255,18.0,-0.08747979595851352,0.610709405686775,1.7814748406639649
1648295686070011978,59695,12,7,1.440554142,-0.278355449438,-1.01043283939,-0.647350490093,18.0,0.4817906829431438,-0.09309546803946488,-0.3379374044782608,18.0,-0.08747979595851352,0.6876854589935204,1.7814748146361556
1648295686070013086,59696,12,8,0.527133524418,-0.193383783102,0.0349153466523,-0.404594063759,18.0,0.1762988375979933,-0.06467685053578595,0.011677373462307692,18.0,-0.05467487348094594,0.25757650372663193,0.5625709924658698
1648295686070173211,59697,12,9,0.730886638165,-0.140642747283,0.0930929481983,-0.161837622523,18.0,0.24444369169397992,-0.047037708121404675,0.03113476528371237,18.0,-0.021869948989594594,0.3488810439150821,0.7500946321736324
1648295686168090495,59698,13,0,0.0126422159374,0.0439508594573,0.0103109916672,0.0,24.8999996185,0.00422816586535117,0.014699284099431437,0.0034484921963879598,24.8999996185,0.0,0.015868954792475763,0.0468809153068096
1648295686168097748,59699,13,1,0.0334292426705,0.0146502861753,-0.0294223539531,0.0,24.8999996185,0.011180348719230768,0.0048997612626421405,-0.009840252158227423,24.8999996185,0.0,0.0165531886776566,0.04688091362892647
1648295686168213729,59700,13,2,1.30768597126,-1.7580344677,0.832960665226,0.0,24.8999996185,0.43735316764548493,-0.5879713938795986,0.27858216228294314,24.8999996185,0.0,0.8533849931418981,2.344045916543695
1648295686168216603,59701,13,3,2.18986749649,-1.31266570091,0.611354589462,0.0,24.8999996185,0.7323971560167223,-0.4390186290668896,0.20446641788026756,24.8999996185,0.0,1.124966019464827,2.6253314702309822
1648295686168219435,59702,13,4,0.684312582016,-0.0659262910485,0.147917538881,0.0809188112617,24.8999996185,0.2288670842862876,-0.022048926772073575,0.049470748789632105,24.8999996185,0.010934974494824324,0.3244170767872949,0.7032137541782216
1648295686168222138,59703,13,5,0.561195850372,-0.0175803434104,0.0351606868207,0.161837622523,24.8999996185,0.18769091985685618,-0.005879713515183946,0.011759427030334446,24.8999996185,0.021869948989594594,0.26550015786143377,0.56257099538359
1648295686168223743,59704,13,6,0.560087382793,0.0175803434104,0.0497910045087,0.323675245047,24.8999996185,0.1873201949140468,0.005879713515183946,0.016652509869130434,24.8999996185,0.04373989797932432,0.26497600245360636,0.5625709634955625
1648295686268064585,59705,14,0,0.0127438921481,0.0439508594573,0.0101850572973,0.0,30.7000007629,0.004262171286989967,0.014699284099431437,0.0034063736780267557,30.7000007629,0.0,0.015887138231760977,0.04688091537360406
1648295686268093647,59706,14,1,0.0334292426705,0.0146502861753,-0.0294223539531,0.0,30.7000007629,0.011180348719230768,0.0048997612626421405,-0.009840252158227423,30.7000007629,0.0,0.0165531886776566,0.04688091362892647
1648295686268210132,59707,14,2,1.39503288269,-1.68478298187,0.842579841614,0.0,30.7000007629,0.46656618150167223,-0.5634725691872909,0.2817992781317726,30.7000007629,0.0,0.867680436375414,2.3440459102328632
1648295686268224916,59708,14,3,1.98689389229,-0.879017233849,-0.879847943783,0.0,30.7000007629,0.6645130074548494,-0.29398569693946486,-0.2942635263488294,30.7000007629,0.0,0.9846738872125941,2.3440458700294298
1648295686268229197,59709,14,4,2.24460601807,-1.2306240797,0.58281493187,0.0,30.7000007629,0.7507043538695651,-0.4115799597658863,0.19492138189632105,30.7000007629,0.0,1.1386448599621968,2.6253314165461403
1648295686268234453,59710,14,5,0.851433992386,-0.250519901514,0.0755851492286,0.0809188112617,30.7000007629,0.28476053257056855,-0.08378592023879598,0.02527931412327759,30.7000007629,0.010934974494824324,0.41133587522851633,0.8907374356278381
1648295686268237947,59711,14,6,0.415821731091,-0.128922522068,0.934995353222,0.161837622523,30.7000007629,0.13907081307391303,-0.04311790035719063,0.3127074759939799,30.7000007629,0.021869948989594594,0.20134680387155673,1.0313801623507322
1648295686268240327,59712,14,7,0.737368047237,0.0234404578805,0.135576233268,0.242756426334,30.7000007629,0.24661138703578594,0.007839618020234113,0.04534322182876254,30.7000007629,0.03280492247756756,0.3488492683697812,0.750094665478227
1648295686268353552,59713,14,8,0.154916599393,0.076181486249,0.58449023962,-0.566431701183,30.7000007629,0.05181157170334448,0.02547875794280936,0.1954816854916388,30.7000007629,-0.07654482448418919,0.07757605965147936,0.6094518945951706
1648295686268356436,59714,14,9,0.527577638626,0.304725944996,-0.0153484810144,-0.566431701183,30.7000007629,0.1764473707779264,0.10191503177123744,-0.005133271242274247,30.7000007629,-0.07654482448418919,0.269544102161072,0.6094519195156751
1648295686268358752,59715,14,10,1.06772351265,-0.439508616924,0.201088175178,-0.242756426334,30.7000007629,0.35709816476588624,-0.1469928484695652,0.06725357029364548,30.7000007629,-0.03280492247756756,0.5259706228103663,1.172022942613548
1648295686368148877,59716,15,0,0.0127238156274,0.0439508594573,0.0102101275697,0.0,33.0,0.004255456731571906,0.014699284099431437,0.00341475838451505,33.0,0.0,0.01588353792529735,0.04688091547895533
1648295686368168741,59717,15,1,0.0334638506174,0.0146502861753,-0.0293829888105,0.0,33.0,0.011191923283411372,0.0048997612626421405,-0.009827086558695651,33.0,0.0,0.016568824762016758,0.046880915249169534
1648295686368230698,59718,15,2,0.57150799036,1.23208904266,-0.0608445368707,0.0,33.0,0.1911397961070234,0.4120699139331103,-0.020349343435016723,33.0,0.0,0.4928188889242273,1.359546560348402
1648295686368233339,59719,15,3,1.36866915226,-1.68478298187,0.884761214256,0.0,33.0,0.45774888035451505,-0.5634725691872909,0.29590676062073573,33.0,0.0,0.8582362210709535,2.3440459361110286
1648295686368235973,59720,15,4,2.03967165947,-0.879017233849,-0.749412715435,0.0,33.0,0.6821644346053511,-0.29398569693946486,-0.25063970415886283,33.0,0.0,1.0085257664957596,2.344045902687128
1648295686368240751,59721,15,5,2.19846868515,-1.31266570091,0.579663038254,0.0,33.0,0.7352738077424749,-0.4390186290668896,0.19386723687424748,33.0,0.0,1.12871276300572,2.625331415240478
1648295686368263412,59722,15,6,0.60150706768,-0.0,0.83781516552,0.242756426334,33.0,0.20117293233444813,-0.0,0.2802057409765886,33.0,0.03280492247756756,0.2845014892897415,1.0313801452637612
1648295686368431357,59723,15,7,0.702544271946,0.0234404578805,0.26177111268,0.404594063759,33.0,0.23496463944682272,0.007839618020234113,0.08754886711705684,33.0,0.05467487348094594,0.33238264574350745,0.7500946770531757
1648295686368436444,59724,15,8,1.45400416851,-0.380907416344,-1.91929340363,0.404594063759,33.0,0.48628901956856185,-0.12739378473043478,-0.6419041483712374,33.0,0.05467487348094594,0.6994163262991868,2.437807570561702
1648295686368439215,59725,15,9,1.90537965298,-0.0600661747158,0.24587880075,0.566431701183,33.0,0.6372507200602007,-0.020089021644080267,0.08223371262541805,33.0,0.07654482448418919,0.901432487336187,1.9221175697634711
1648295686368447375,59726,15,10,0.319218277931,0.143572807312,-0.5552110672,-0.566431701183,33.0,0.1067619658632107,0.0480176613083612,-0.18568932013377926,33.0,-0.07654482448418919,0.15843588768798317,0.6563328340910919
1648295686368450307,59727,15,11,0.518819510937,0.389697641134,0.0986654683948,-0.566431701183,33.0,0.17351823108260866,0.13033365924214046,0.032998484412976585,33.0,-0.07654482448418919,0.277856106226805,0.6563328508370405
1648295686368453308,59728,15,12,1.02398180962,-0.421928226948,0.198449477553,-0.242756426334,33.0,0.3424688326488294,-0.14111311938060198,0.06637106272675584,33.0,-0.03280492247756756,0.5044627985620227,1.125141933388491
