%time,field.header.seq,field.header.frame_id,field.point_id,field.x,field.y,field.z,field.velocity,field.intensity,normalized_x,normalized_y,normalized_z,normalized_intensity,normalized_velocity,normalized_range,range
1648217939816590140,13753,0,0,0.00456437235698,0.0454158857465,0.0106950486079,0.0,21.3999996185,0.0015265459387892976,0.015189259446989964,0.003576939333745819,21.3999996185,0.0,0.015341912773655118,0.04688091549743508
1648217939816599926,13754,0,1,0.0334379263222,0.0146502861753,-0.0294124856591,0.0,21.3999996185,0.011183252950568563,0.0048997612626421405,-0.009836951725451504,21.3999996185,0.0,0.01655711187205333,0.04688091418044048
1648217939816612375,13755,0,2,1.09281349182,-1.39177715778,0.205833777785,0.0,21.3999996185,0.3654894621471572,-0.46547731029431433,0.06884072835618729,21.3999996185,0.0,0.6955819292362805,1.7814748184858638
1648217939816617927,13756,0,3,1.01942455769,1.39177715778,-0.44427755475,0.0,21.3999996185,0.3409446681237458,0.46547731029431433,-0.14858781095317725,21.3999996185,0.0,0.6701907637701758,1.7814748472527662
1648217939816677140,13757,0,4,2.10808634758,-1.12074685097,0.128171771765,0.0,21.3999996185,0.7050456011973244,-0.3748317227324415,0.0428668132993311,21.3999996185,0.0,1.0652123825331563,2.3909265057482916
1648217939816682135,13758,0,5,1.22134411335,-0.290075659752,0.904213070869,0.566431701183,21.3999996185,0.408476292090301,-0.09701527082006689,0.3024123982839465,21.3999996185,0.07654482448418919,0.5857625160182006,1.5470703310210572
1648217939816686660,13759,0,6,1.13235259056,-0.41899818182,0.167165860534,-0.242756426334,21.3999996185,0.37871324098996656,-0.14013317117725752,0.05590831455986622,21.3999996185,-0.03280492247756756,0.5536106424793905,1.2189037249284629
1648217940116682087,13760,3,0,0.0334331989288,0.0146502861753,-0.029417861253,0.0,34.0999984741,0.011181671882541804,0.0048997612626421405,-0.009838749582943142,34.0999984741,0.0,0.016554976067893922,0.0468809154809466
1648217940116692771,13761,3,1,0.00456437235698,0.0454158857465,0.0106950486079,0.0,34.0999984741,0.0015265459387892976,0.015189259446989964,0.003576939333745819,34.0999984741,0.0,0.015341912773655118,0.04688091549743508
1648217940116695441,13762,3,2,2.12500739098,-1.14272224903,0.348476439714,0.0,34.0999984741,0.7107048130367892,-0.3821813541906354,0.1165473042521739,34.0999984741,0.0,1.0752977494807208,2.4378076993855675
1648217940116699935,13763,3,3,1.04622089863,-0.202173948288,0.164906844497,-0.647350490093,34.0999984741,0.34990665506020063,-0.06761670511304348,0.055152790801672236,34.0999984741,-0.08747979595851352,0.4994410408858895,1.0782609802169794
1648217940116703914,13764,3,4,0.998946070671,-0.161153152585,0.199703514576,-0.485512852669,34.0999984741,0.334095675809699,-0.05389737544648829,0.06679047310234112,34.0999984741,-0.06560984495527027,0.4755468097564095,1.0313801842342725
1648217940221873675,13765,4,0,0.0334106869996,0.0146502861753,-0.0294434241951,0.0,35.0999984741,0.011174142809230769,0.0048997612626421405,-0.009847299061906354,35.0999984741,0.0,0.01654480569462984,0.04688091423101758
1648217940221876030,13766,4,1,0.00455405190587,0.0454158857465,0.0106994472444,0.0,35.0999984741,0.0015230942828996653,0.015189259446989964,0.0035784104496321065,35.0999984741,0.0,0.015341226643824058,0.04688091550125913
1648217940221879379,13767,4,2,2.12607526779,-1.14272224903,0.34190043807,0.0,35.0999984741,0.7110619624715719,-0.3821813541906354,0.1143479725986622,35.0999984741,0.0,1.0757698715054416,2.4378076405428217
1648217940221899441,13768,4,3,1.05497670174,1.92797756195,0.157833963633,-0.647350490093,35.0999984741,0.3528350173043478,0.6448085491471571,0.05278727880702341,35.0999984741,-0.08747979595851352,0.8153300950692183,2.2034030227520742
1648217940221901076,13769,4,4,0.984373748302,-0.0,0.307820260525,-0.242756426334,35.0999984741,0.32922198939866215,-0.0,0.10294991990802675,35.0999984741,-0.03280492247756756,0.46559020243903937,1.0313801380363148
1648217940221902647,13770,4,5,1.44135940075,-0.0,-0.562058150768,-0.242756426334,35.0999984741,0.48206000025083606,-0.0,-0.1879793146381271,35.0999984741,-0.03280492247756756,0.68173579023231,1.547070226904759
1648217940416852762,13771,6,0,0.0333576723933,0.0146502861753,-0.029503474012,0.0,12.3000001907,0.01115641217167224,0.0048997612626421405,-0.009867382612709029,12.3000001907,0.0,0.016520857287664024,0.04688091478729564
1648217940416863540,13772,6,1,0.00460875639692,0.0454158857465,0.0106759974733,0.0,12.3000001907,0.0015413900993043476,0.015189259446989964,0.003570567716822742,12.3000001907,0.0,0.015344880886616254,0.04688091547437187
1648217940416873406,13773,6,2,1.33306479454,1.38152205944,0.0941860973835,0.0,12.3000001907,0.44584106840802673,0.4620475115183946,0.03150036701789297,12.3000001907,0.0,0.7816881855693883,1.9221175739536969
1648217940416936233,13774,6,3,2.09522294998,-1.21890377998,0.259268313646,0.0,12.3000001907,0.7007434615317726,-0.407660127083612,0.08671181058394649,12.3000001907,0.0,1.0715734118448854,2.437807558736593
1648217940416944758,13775,6,4,0.969321608543,0.161153152585,0.31335324049,0.0809188112617,12.3000001907,0.3241878289441471,0.05389737544648829,0.10480041487959867,12.3000001907,0.010934974494824324,0.4616280146947961,1.031380130069441
1648217940416952897,13776,6,5,0.500064194202,-1.99829912186,0.108242809772,0.323675245047,12.3000001907,0.16724554990033444,-0.6683274655050166,0.036201608619397994,12.3000001907,0.04373989797932432,0.7089455191136268,2.0627603071168203
1648217940416972362,13777,6,6,0.469402104616,-0.155293032527,2.43499946594,0.323675245047,12.3000001907,0.15699067044013376,-0.051937469072575244,0.8143810922876253,12.3000001907,0.04373989797932432,0.2280123722611343,2.484688443426549
1648217940416983901,13778,6,7,0.928659498692,0.0586011447012,0.115262880921,-0.242756426334,12.3000001907,0.31058846110100335,0.019599045050568562,0.03854945850200669,12.3000001907,-0.03280492247756756,0.4396754563369135,0.9376183074094577
1648217940518019402,13779,7,0,0.0334331989288,0.0146502861753,-0.029417861253,0.0,40.7999992371,0.011181671882541804,0.0048997612626421405,-0.009838749582943142,40.7999992371,0.0,0.016554976067893922,0.0468809154809466
1648217940518022074,13780,7,1,0.00456437235698,0.0454158857465,0.0106950486079,0.0,40.7999992371,0.0015265459387892976,0.015189259446989964,0.003576939333745819,40.7999992371,0.0,0.015341912773655118,0.04688091549743508
1648217940518024607,13781,7,2,0.986772954464,0.193383783102,0.22940556705,0.0,40.7999992371,0.3300243994862876,0.06467685053578595,0.07672426991638796,40.7999992371,0.0,0.47118499923893786,1.0313801750188845
1648217940518027843,13782,7,3,1.27135777473,1.44158816338,0.00299432664178,0.0,40.7999992371,0.4252032691404682,0.4821365094916388,0.0010014470373846153,40.7999992371,0.0,0.7707472049642892,1.922117579690633
1648217940518171370,13783,7,4,1.57763326168,-1.97778868675,0.0909349396825,0.485512852669,40.7999992371,0.5276365423678929,-0.6614677882107023,0.03041302330518394,40.7999992371,0.06560984495527027,0.9971661228322235,2.531569465973712
1648217940518175759,13784,7,5,0.883062303066,0.111342176795,-0.0348873473704,-0.161837622523,40.7999992371,0.2953385628983277,0.037238186219063545,-0.011668009153979933,40.7999992371,-0.021869948989594594,0.4193285298934293,0.8907374688628631
1648217940621987023,13785,8,0,0.00433997996151,0.0454158857465,0.0107880551368,0.0,32.9000015259,0.0014514983148862875,0.015189259446989964,0.0036080451962541803,32.9000015259,0.0,0.015327338231545924,0.046880915497034464
1648217940621993648,13786,8,1,0.0334106869996,0.0146502861753,-0.0294434241951,0.0,32.9000015259,0.011174142809230769,0.0048997612626421405,-0.009847299061906354,32.9000015259,0.0,0.01654480569462984,0.04688091423101758
1648217940622002500,13787,8,2,1.19750213623,1.50165438652,-0.0745579972863,0.0,32.9000015259,0.4005023866989966,0.5022255473311037,-0.02493578504558528,32.9000015259,0.0,0.756990636596789,1.922117623297158
1648217940622005814,13788,8,3,0.937045395374,0.354536950588,0.244937881827,0.161837622523,32.9000015259,0.3133931088207358,0.11857423096588628,0.08191902402240801,32.9000015259,0.021869948989594594,0.4587922509827323,1.0313801860990695
1648217940622190988,13789,8,4,1.08438527584,0.439508616924,0.0676651448011,0.161837622523,32.9000015259,0.36267066081605354,0.1469928484695652,0.022630483211070234,32.9000015259,0.021869948989594594,0.5335418577156833,1.1720229616479338
1648217940622200291,13790,8,5,0.88540148735,0.293005734682,0.0966433137655,0.323675245047,32.9000015259,0.2961208987792642,0.09799522899063544,0.03232217851688963,32.9000015259,0.04373989797932432,0.4300909651371504,0.9376183042441673
1648217940622275681,13791,8,6,0.687356412411,-0.7779302001,-2.5637819767,0.485512852669,32.9000015259,0.22988508776287622,-0.26017732444816055,-0.8574521661204013,32.9000015259,0.06560984495527027,0.41639710290598086,2.765974016140048
1648217940622280974,13792,8,7,1.29698395729,0.5186201334,-2.38735795021,0.485512852669,32.9000015259,0.43377389875919725,0.17345154963210702,-0.798447474986622,32.9000015259,0.06560984495527027,0.6374990435751946,2.765974007590519
1648217940622283942,13793,8,8,0.859525620937,0.22268435359,-0.0709972679615,0.566431701183,32.9000015259,0.2874667628551839,0.07447637243812709,-0.02374490567274247,32.9000015259,0.07654482448418919,0.4133049836917282,0.890737462128392
1648217940622343470,13794,8,9,1.74412810802,-1.18667328358,-0.0202496293932,-0.566431701183,32.9000015259,0.5833204374648829,-0.3968806968494983,-0.006772451302073578,32.9000015259,-0.07654482448418919,0.9154451119866162,2.1096412933573627
1648217940816745560,13795,10,0,0.0334106869996,0.0146502861753,-0.0294434241951,0.0,15.3999996185,0.011174142809230769,0.0048997612626421405,-0.009847299061906354,15.3999996185,0.0,0.01654480569462984,0.04688091423101758
1648217940816753715,13796,10,1,0.00450905691832,0.0454158857465,0.0107184872031,0.0,15.3999996185,0.0015080457920802674,0.015189259446989964,0.003584778328795987,15.3999996185,0.0,0.015338253054699413,0.046880915523854795
1648217940816756991,13797,10,2,1.23666357994,1.40642750263,-0.095589004457,0.0,15.3999996185,0.4135998595117057,0.47037709118060195,-0.03196956670802675,15.3999996185,0.0,0.7505892988070971,1.8752366218366032
1648217940816761984,13798,10,3,2.12962150574,-1.14272224903,0.319066882133,0.0,15.3999996185,0.7122479952307691,-0.3821813541906354,0.10671133181705685,15.3999996185,0.0,1.0773379232680373,2.437807533709862
1648217940816764383,13799,10,4,0.825678110123,0.640217483044,0.266503334045,0.242756426334,15.3999996185,0.27614652512474913,0.21411955954648826,0.08913154984782608,15.3999996185,0.03280492247756756,0.4453773596146638,1.0782610046684356
1648217940922008739,13800,11,0,0.0334186181426,0.0146502861753,-0.0294344201684,0.0,35.0,0.011176795365418058,0.0048997612626421405,-0.00984428768173913,35.0,0.0,0.01654838873460947,0.046880913112150584
1648217940922015178,13801,11,1,0.00459372531623,0.0454158857465,0.0106824738905,0.0,35.0,0.0015363629820167224,0.015189259446989964,0.0035727337426421403,35.0,0.0,0.015343872554638757,0.046880915507713034
1648217940922018807,13802,11,2,2.13174152374,-1.14272224903,0.304581850767,0.0,35.0,0.7129570313511706,-0.3821813541906354,0.10186683972140467,35.0,0.0,1.0782754956861145,2.4378076557190007
1648217940922021188,13803,11,3,1.1592694521,1.37126672268,-0.344392955303,0.0809188112617,35.0,0.38771553581939794,0.4586176330033444,-0.11518159040234113,35.0,0.010934974494824324,0.7148264172042301,1.8283557079967006
1648217940922024892,13804,11,4,0.506861388683,0.457088917494,-0.894486308098,-0.566431701183,35.0,0.16951885909130435,0.15287254765685618,-0.29915930036722405,35.0,-0.07654482448418919,0.28432956758369815,1.1251419915763015
1648217940922027932,13805,11,5,0.723778009415,0.843856453896,0.173193991184,-0.566431701183,35.0,0.24206622388461538,0.28222623876120395,0.05792441176722408,35.0,-0.07654482448418919,0.44367078260440995,1.125141982274644
