%time,field.header.seq,field.header.frame_id,field.point_id,field.x,field.y,field.z,field.velocity,field.intensity,normalized_x,normalized_y,normalized_z,normalized_intensity,normalized_velocity,normalized_range,range
1648218424035996357,34427,0,0,0.00520934164524,0.0454158857465,0.0103961685672,0.0,15.5,0.001742254730849498,0.015189259446989964,0.0034769794539130433,15.5,0.0,0.015387803795288944,0.0468809155136033
1648218424036001464,34428,0,1,0.0334066413343,0.0146502861753,-0.0294480137527,0.0,15.5,0.011172789743913041,0.0048997612626421405,-0.009848834031003345,15.5,0.0,0.016542978019518293,0.04688091385879712
1648218424036004115,34429,0,2,1.07546949387,1.35515141487,-0.12548302114,0.0,15.5,0.3596887939364548,0.4532278979498327,-0.04196756559866221,15.5,0.0,0.6812984547516212,1.7345938942771528
1648218424036008987,34430,0,3,0.649328768253,-1.46356356144,-0.667210459709,0.0,15.5,0.21716681212474914,-0.4894861409498327,-0.22314731093946485,15.5,0.0,0.5778577080552025,1.734593884804449
1648218424036027994,34431,0,4,0.722427606583,-0.709073901176,0.197629988194,0.242756426334,15.5,0.24161458414147155,-0.23714846193177255,0.06609698601806019,15.5,0.03280492247756756,0.41592620443573625,1.0313801706042995
1648218424036080301,34432,0,5,1.47498655319,1.29215526581,-0.178057044744,0.242756426334,15.5,0.493306539528428,0.4321589517759197,-0.05955085108494983,15.5,0.03280492247756756,0.8206485505276218,1.9689984444470228
1648218424036083290,34433,0,6,0.768972814083,-0.849716603756,0.73145699501,0.323675245047,15.5,0.2571815431715719,-0.28418615510234113,0.2446344464916388,15.5,0.04373989797932432,0.4615695646899545,1.35954655346789
1648218424141274608,34434,1,0,0.00513887451962,0.0454158857465,0.0104311807081,0.0,18.5,0.0017186871303076921,0.015189259446989964,0.0034886892000334448,18.5,0.0,0.01538250218435689,0.04688091552468423
1648218424141282248,34435,1,1,0.0334293618798,0.0146502861753,-0.0294222198427,0.0,18.5,0.011180388588561872,0.0048997612626421405,-0.009840207305250835,18.5,0.0,0.01655324253472345,0.0468809144661341
1648218424141284811,34436,1,2,0.726924598217,-0.709073901176,0.180387958884,0.161837622523,18.5,0.24311859472140465,-0.23714846193177255,0.060330421031438125,18.5,0.021869948989594594,0.4176753466452462,1.0313801358045607
1648218424141299326,34437,1,3,0.903830468655,-0.732514321804,0.141954272985,0.161837622523,18.5,0.30228443767725754,-0.24498806749297658,0.0474763454799331,18.5,0.021869948989594594,0.49271788656152404,1.1720229363522674
1648218424141417219,34438,1,4,0.836710870266,-0.807230770588,0.704741358757,0.161837622523,18.5,0.27983641146020066,-0.2699768463505016,0.23569945108929763,18.5,0.021869948989594594,0.4790661039180374,1.3595466083029466
1648218424141421004,34439,1,5,1.6468385458,1.37712693214,0.496415823698,-0.161837622523,18.5,0.5507821223411371,0.4605775692775919,0.16602535909632107,18.5,-0.021869948989594594,0.9049052933334348,2.2034029257436667
1648218424336033060,34440,3,0,0.00520934164524,0.0454158857465,0.0103961685672,0.0,30.3999996185,0.001742254730849498,0.015189259446989964,0.0034769794539130433,30.3999996185,0.0,0.015387803795288944,0.0468809155136033
1648218424336035804,34441,3,1,0.0334885679185,0.0146502861753,-0.0293548125774,0.0,30.3999996185,0.011200189939297658,0.0048997612626421405,-0.009817663069364548,30.3999996185,0.0,0.01657999305740438,0.04688091389578978
1648218424336037414,34442,3,2,0.745615243912,-0.775000095367,0.0779710784554,0.0809188112617,30.3999996185,0.249369646793311,-0.25919735631003343,0.02607728376434782,30.3999996185,0.010934974494824324,0.4376684944130109,1.0782609743695208
1648218424336176278,34443,3,3,0.90731716156,-0.695888638496,0.257200926542,-0.161837622523,30.3999996185,0.3034505557056856,-0.23273867508227425,0.08602037676989965,30.3999996185,-0.021869948989594594,0.48819234979179177,1.1720229287275803
1648218424441171824,34444,4,0,0.00517798401415,0.0454158857465,0.0104118222371,0.0,28.5,0.0017317672288127087,0.015189259446989964,0.003482214795016722,28.5,0.0,0.015385435905997372,0.04688091550819912
1648218424441176226,34445,4,1,0.0334885679185,0.0146502861753,-0.0293548125774,0.0,28.5,0.011200189939297658,0.0048997612626421405,-0.009817663069364548,28.5,0.0,0.01657999305740438,0.04688091389578978
1648218424441182264,34446,4,2,0.880239188671,-0.769140064716,-0.0850902721286,-0.323675245047,28.5,0.2943943774819398,-0.2572374798381271,-0.02845828499284281,28.5,-0.04373989797932432,0.4893947486635187,1.1720229617351499
1648218424441303353,34447,4,3,2.05851197243,1.24234426022,0.626726746559,-0.323675245047,28.5,0.6884655426187289,0.41549975258193983,0.20960760754481603,28.5,-0.04373989797932432,1.0585885183310155,2.48468855521002
1648218424441305979,34448,4,4,0.708316326141,-0.709073901176,0.24340750277,-0.242756426334,28.5,0.23689509235484948,-0.23714846193177255,0.0814071915618729,28.5,-0.03280492247756756,0.4104606711491744,1.0313801566888725
1648218424441312266,34449,4,5,2.32296037674,-1.16909277439,0.61464959383,-0.242756426334,28.5,0.7769098249966555,-0.39100092788963203,0.2055684260301003,28.5,-0.03280492247756756,1.1662158796566016,2.6722119957500254
1648218424636041180,34450,6,0,0.00513887451962,0.0454158857465,0.0104311807081,0.0,13.5,0.0017186871303076921,0.015189259446989964,0.0034886892000334448,13.5,0.0,0.01538250218435689,0.04688091552468423
1648218424636047116,34451,6,1,0.0334885679185,0.0146502861753,-0.0293548125774,0.0,13.5,0.011200189939297658,0.0048997612626421405,-0.009817663069364548,13.5,0.0,0.01657999305740438,0.04688091389578978
1648218424636205621,34452,6,2,2.38142108917,-0.984499275684,0.501956582069,0.0,13.5,0.7964619027324413,-0.32926397180066885,0.16787845554147154,13.5,0.0,1.1735066630123212,2.625331529168905
1648218424636209591,34453,6,3,0.75920188427,-0.612381994724,0.335180372,-0.485512852669,13.5,0.25391367366889633,-0.20481003168026754,0.11210045886287624,13.5,-0.06560984495527027,0.4133901987577133,1.031380187086858
1648218424636211308,34454,6,4,0.647699713707,-0.64461261034,0.20997081697,-0.404594063759,13.5,0.21662197782842807,-0.21558950178595315,0.07022435350167223,13.5,-0.05467487348094594,0.3746051198754703,0.9376183021488689
1648218424741063905,34455,7,0,0.00517798401415,0.0454158857465,0.0104118222371,0.0,41.2999992371,0.0017317672288127087,0.015189259446989964,0.003482214795016722,41.2999992371,0.0,0.015385435905997372,0.04688091550819912
1648218424741069954,34456,7,1,0.0334066413343,0.0146502861753,-0.0294480137527,0.0,41.2999992371,0.011172789743913041,0.0048997612626421405,-0.009848834031003345,41.2999992371,0.0,0.016542978019518293,0.04688091385879712
1648218424741076631,34457,7,2,1.19405865669,-0.467344135046,0.451863110065,-0.566431701183,41.2999992371,0.3993507213010033,-0.15630238630301002,0.15112478597491638,41.2999992371,-0.07654482448418919,0.5859969566228809,1.3595465738310828
1648218424741087741,34458,7,3,0.771562218666,-0.553780794144,0.259340077639,-0.485512852669,41.2999992371,0.25804756477123747,-0.18521096794113712,0.086735811919398,41.2999992371,-0.06560984495527027,0.4092434410157662,0.9844992133594431
1648218424741093977,34459,7,4,0.581401228905,-0.640217542648,0.213324427605,-0.323675245047,41.2999992371,0.19444857154013376,-0.21411957948093643,0.071345962409699,41.2999992371,-0.04373989797932432,0.3485221488873987,0.8907374485781367
1648218424741227215,34460,7,5,1.64825367928,1.25259947777,0.406005859375,-0.323675245047,41.2999992371,0.5512554111304347,0.41892959122742474,0.13578791283444816,41.2999992371,-0.04373989797932432,0.8850237618319332,2.109641296717659
1648218424935994760,34461,9,0,0.00513887451962,0.0454158857465,0.0104311807081,0.0,18.6000003815,0.0017186871303076921,0.015189259446989964,0.0034886892000334448,18.6000003815,0.0,0.01538250218435689,0.04688091552468423
1648218424935999565,34462,9,1,0.0334066413343,0.0146502861753,-0.0294480137527,0.0,18.6000003815,0.011172789743913041,0.0048997612626421405,-0.009848834031003345,18.6000003815,0.0,0.016542978019518293,0.04688091385879712
1648218424936171799,34463,9,2,1.69191086292,1.18667328358,0.4240642488,0.242756426334,18.6000003815,0.5658564758929765,0.3968806968494983,0.1418275079598662,18.6000003815,0.03280492247756756,0.893253262043739,2.1096412816257524
1648218424936176537,34464,9,3,0.62595230341,-0.553780794144,0.116637095809,-0.485512852669,18.6000003815,0.20934859645819395,-0.18521096794113712,0.03900906214347826,18.6000003815,-0.06560984495527027,0.3492230982104769,0.8438564251256263
1648218424936179575,34465,9,4,0.756443738937,-0.498109728098,0.242502972484,-0.242756426334,18.6000003815,0.2529912170357859,-0.1665918823070234,0.0811046730715719,18.6000003815,-0.03280492247756756,0.39466690644782143,0.9376183248350191
1648218424936183092,34466,9,5,1.11407458782,-0.39555773139,0.452308297157,-0.0809188112617,18.6000003815,0.3726001965953177,-0.13229355564882941,0.15127367797892977,18.6000003815,-0.010934974494824324,0.5432894236702466,1.2657846980295548
1648218425041096515,34467,10,0,0.00513887451962,0.0454158857465,0.0104311807081,0.0,11.1999998093,0.0017186871303076921,0.015189259446989964,0.0034886892000334448,11.1999998093,0.0,0.01538250218435689,0.04688091552468423
1648218425041104721,34468,10,1,0.0334885679185,0.0146502861753,-0.0293548125774,0.0,11.1999998093,0.011200189939297658,0.0048997612626421405,-0.009817663069364548,11.1999998093,0.0,0.01657999305740438,0.04688091389578978
1648218425041108642,34469,10,2,0.635846555233,-0.553780794144,0.033462498337,-0.566431701183,11.1999998093,0.21265771078026754,-0.18521096794113712,0.011191471015719061,11.1999998093,-0.07654482448418919,0.35319924483823684,0.8438564739097435
1648218425041111354,34470,10,3,0.613755166531,-0.473204225302,0.185882732272,-0.404594063759,11.1999998093,0.2052692864652174,-0.158262282709699,0.062168137883612036,11.1999998093,-0.05467487348094594,0.33063259074139023,0.7969755538559923
1648218425041113859,34471,10,4,0.764100551605,-0.389697611332,0.240206837654,-0.161837622523,11.1999998093,0.2555520239481605,-0.13033364927491636,0.08033673500133778,11.1999998093,-0.021869948989594594,0.38418814924632866,0.8907374507096167
1648218425138043280,34472,11,0,0.00513887451962,0.0454158857465,0.0104311807081,0.0,47.5999984741,0.0017186871303076921,0.015189259446989964,0.0034886892000334448,47.5999984741,0.0,0.01538250218435689,0.04688091552468423
1648218425138049354,34473,11,1,0.0334885679185,0.0146502861753,-0.0293548125774,0.0,47.5999984741,0.011200189939297658,0.0048997612626421405,-0.009817663069364548,47.5999984741,0.0,0.01657999305740438,0.04688091389578978
1648218425138053023,34474,11,2,1.66586196423,-1.53828012943,0.594263672829,0.0,47.5999984741,0.5571444696421405,-0.5144749596755852,0.19875039225050165,47.5999984741,0.0,0.94101243575143,2.3440458940284477
1648218425138058102,34475,11,3,2.12695980072,0.952268660069,0.252542346716,0.0,47.5999984741,0.7113577928829431,0.3184845016953177,0.08446232331638796,47.5999984741,0.0,1.0552213970587874,2.344045910752026
1648218425138061376,34476,11,4,1.68633723259,1.21304368973,0.579118907452,0.161837622523,47.5999984741,0.5639923854816052,0.4057002306789298,0.1936852533284281,47.5999984741,0.021869948989594594,0.8948561330936946,2.156521960050829
1648218425138064271,34477,11,5,1.24771344662,-0.914177834988,-0.974871635437,0.242756426334,47.5999984741,0.4172954670969899,-0.30574509531371236,-0.32604402522976583,47.5999984741,0.03280492247756756,0.6646435714183814,1.828355726996067
1648218425138068488,34478,11,6,0.625851690769,-0.375047326088,0.174043387175,-0.323675245047,47.5999984741,0.20931494674548495,-0.1254338883237458,0.05820849069397993,47.5999984741,-0.04373989797932432,0.32149518534831023,0.7500946182072776
1648218425138071145,34479,11,7,0.807460010052,-0.361862063408,0.10235889256,-0.161837622523,47.5999984741,0.2700535150675585,-0.12102410147424747,0.034233743331103676,47.5999984741,-0.021869948989594594,0.40063029732951677,0.8907374268847026
1648218425241134928,34480,12,0,0.00517798401415,0.0454158857465,0.0104118222371,0.0,43.9000015259,0.0017317672288127087,0.015189259446989964,0.003482214795016722,43.9000015259,0.0,0.015385435905997372,0.04688091550819912
1648218425241139546,34481,12,1,0.0335027687252,0.0146502861753,-0.0293386057019,0.0,43.9000015259,0.011204939372976588,0.0048997612626421405,-0.00981224270966555,43.9000015259,0.0,0.01658640989289275,0.04688091489939147
1648218425241147195,34482,12,2,0.841380178928,-0.250519901514,0.150772497058,0.0,43.9000015259,0.28139805315317723,-0.08378592023879598,0.05042558430033445,43.9000015259,0.0,0.4066814589664232,0.8907374318038971
1648218425241152915,34483,12,3,1.02225542068,1.44744825363,0.183139875531,0.0,43.9000015259,0.34189144504347824,0.484096405896321,0.06125079449197324,43.9000015259,0.0,0.6841994231140297,1.7814748962743456
1648218425241156535,34484,12,4,0.840434193611,-1.44744825363,-0.610095620155,0.0,43.9000015259,0.28108167010401336,-0.484096405896321,-0.2040453579113712,43.9000015259,0.0,0.6263889692025701,1.7814748795476805
1648218425241305646,34485,12,5,1.00236868858,-0.128922522068,0.205866366625,0.161837622523,43.9000015259,0.3352403640735786,-0.04311790035719063,0.06885162763377925,43.9000015259,0.021869948989594594,0.47605814428448096,1.0313801265534166
1648218425241310992,34486,12,6,1.92086040974,-1.31852579117,0.257558107376,0.161837622523,43.9000015259,0.6424282306822742,-0.44097852547491634,0.08613983524280935,43.9000015259,0.021869948989594594,1.0098960951925429,2.3440458942525213
1648218425241316353,34487,12,7,0.315721303225,-0.586011469364,-2.24754571915,0.161837622523,43.9000015259,0.10559240910535117,-0.19599045798127088,-0.7516875314882943,43.9000015259,0.021869948989594594,0.24639759199523847,2.3440458918727973
1648218425241331688,34488,12,8,0.685749769211,-0.879017174244,-1.50784230232,0.404594063759,43.9000015259,0.22934774889999995,-0.29398567700468226,-0.5042950843879599,43.9000015259,0.05467487348094594,0.43775376427267443,1.8752366110052685
1648218425241362122,34489,12,9,0.668689727783,-0.281285494566,0.190721064806,-0.161837622523,43.9000015259,0.22364204942575247,-0.09407541624280935,0.06378630929966556,43.9000015259,-0.021869948989594594,0.3299722965401175,0.7500946647300434
1648218425436085118,34490,14,0,0.00513887451962,0.0454158857465,0.0104311807081,0.0,38.5,0.0017186871303076921,0.015189259446989964,0.0034886892000334448,38.5,0.0,0.01538250218435689,0.04688091552468423
1648218425436241716,34491,14,1,0.0334885679185,0.0146502861753,-0.0293548125774,0.0,38.5,0.011200189939297658,0.0048997612626421405,-0.009817663069364548,38.5,0.0,0.01657999305740438,0.04688091389578978
1648218425436245342,34492,14,2,2.11196446419,-1.12074685097,-0.00789540819824,0.0,38.5,0.7063426301638797,-0.3748317227324415,-0.002640604748575251,38.5,0.0,1.066929539726136,2.390926544131196
1648218425436252457,34493,14,3,0.724449694157,-0.093761831522,0.170362353325,0.0809188112617,38.5,0.24229086761103677,-0.03135847208093645,0.056977375693979926,38.5,0.010934974494824324,0.34408295922156446,0.7500946419252459
1648218425436256242,34494,14,4,0.879888176918,0.0278355441988,0.135776266456,0.242756426334,38.5,0.29427698224682275,0.009309546554782609,0.04541012256053511,38.5,0.03280492247756756,0.4162746115458512,0.8907374562314395
1648218425436258607,34495,14,5,0.670240223408,1.72287368774,0.677819430828,0.404594063759,38.5,0.2241606098354515,0.5762119356989966,0.2266954618153846,38.5,0.05467487348094594,0.6576596025647217,1.9689984463652648
1648218425541076370,34496,15,0,0.00520934164524,0.0454158857465,0.0103961685672,0.0,29.2000007629,0.001742254730849498,0.015189259446989964,0.0034769794539130433,29.2000007629,0.0,0.015387803795288944,0.0468809155136033
1648218425541082090,34497,15,1,0.0334066413343,0.0146502861753,-0.0294480137527,0.0,29.2000007629,0.011172789743913041,0.0048997612626421405,-0.009848834031003345,29.2000007629,0.0,0.016542978019518293,0.04688091385879712
1648218425541092034,34498,15,2,0.887017011642,0.0278355441988,0.0764143615961,0.0,29.2000007629,0.2966612079070234,0.009309546554782609,0.025556642674280934,29.2000007629,0.0,0.4196455792818077,0.8907374198501412
1648218425541224745,34499,15,3,0.719421327114,-0.0234404578805,0.211010619998,0.0809188112617,29.2000007629,0.24060913950301,-0.007839618020234113,0.07057211371170569,29.2000007629,0.010934974494824324,0.3403630056799079,0.7500946491770601
1648218425541227286,34500,15,4,0.737559497356,1.78440487385,0.385823667049,0.242756426334,29.2000007629,0.24667541717591973,0.5967909277090301,0.1290380157354515,29.2000007629,0.03280492247756756,0.6912719683841034,1.9689983920803003
1648218425541228970,34501,15,5,0.999950349331,-0.161153152585,0.194612339139,-0.161837622523,29.2000007629,0.33443155496020066,-0.05389737544648829,0.06508773884247492,29.2000007629,-0.021869948989594594,0.4760187569688984,1.0313801443989634
