%time,field.header.seq,field.header.frame_id,field.point_id,field.x,field.y,field.z,field.velocity,field.intensity,normalized_x,normalized_y,normalized_z,normalized_intensity,normalized_velocity,normalized_range,range
1648295665569311679,58342,0,0,0.0127553893253,0.0439508594573,0.0101706553251,0.0,39.0999984741,0.004266016496755853,0.014699284099431437,0.0034015569649163877,39.0999984741,0.0,0.01588920219951222,0.04688091545199708
1648295665569334640,58343,0,1,0.0335009843111,0.0146502861753,-0.0293406434357,0.0,39.0999984741,0.01120434257896321,0.0048997612626421405,-0.00981292422598662,39.0999984741,0.0,0.016585603567082642,0.046880915008686
1648295665569337325,58344,0,2,1.80546593666,-0.114272229373,0.264799892902,0.0,39.0999984741,0.6038347614247491,-0.03821813691404682,0.0885618370909699,39.0999984741,0.0,0.8548060974273336,1.8283556476042504
1648295665569339892,58345,0,3,0.728528380394,-0.586011469364,0.0704633668065,-0.404594063759,39.0999984741,0.24365497672040132,-0.19599045798127088,0.02356634341354515,39.0999984741,-0.05467487348094594,0.3964186612420597,0.9376183281737651
1648295665569343630,58346,0,4,0.539786100388,-0.547920703888,0.208767563105,-0.242756426334,39.0999984741,0.18053046835719064,-0.18325107153444814,0.06982192745986622,39.0999984741,-0.03280492247756756,0.3142665353311686,0.7969755500176937
1648295665569413808,58347,0,5,0.684187650681,-0.707608819008,0.020388500765,-0.161837622523,39.0999984741,0.22882530123110364,-0.23665846789565215,0.006818896576923077,39.0999984741,-0.021869948989594594,0.4009105478703798,0.984499199108728
1648295665569419687,58348,0,6,0.585679590702,-0.606521844864,0.0347040481865,-0.0809188112617,39.0999984741,0.19587946177324414,-0.20285011533913042,0.011606705079096988,39.0999984741,-0.010934974494824324,0.3433448650879319,0.8438564464543855
1648295665764261301,58349,2,0,0.0127438921481,0.0439508594573,0.0101850572973,0.0,23.1000003815,0.004262171286989967,0.014699284099431437,0.0034063736780267557,23.1000003815,0.0,0.015887138231760977,0.04688091537360406
1648295665764268305,58350,2,1,0.0334914848208,0.0146502861753,-0.0293514840305,0.0,23.1000003815,0.011201165491906353,0.0048997612626421405,-0.009816549842976587,23.1000003815,0.0,0.016581311081607385,0.04688091355032194
1648295665764271144,58351,2,2,0.790992498398,0.105482056737,0.793189048767,0.0,23.1000003815,0.2645459860862876,0.035278279845150494,0.2652806183167224,23.1000003815,0.0,0.37578413289755236,1.1251419749966118
1648295665764275161,58352,2,3,1.91286671162,-0.180198520422,-0.0548216179013,0.0,23.1000003815,0.6397547530501672,-0.06026706368628762,-0.01833498926464883,23.1000003815,0.0,0.9067548770565989,1.9221175752215331
1648295665764278041,58353,2,4,0.714195013046,-0.448298752308,0.032364398241,-0.566431701183,23.1000003815,0.2388612083765886,-0.14993269307959864,0.010824213458528428,23.1000003815,-0.07654482448418919,0.36957971560726827,0.8438564701738013
1648295665764281242,58354,2,5,0.332714319229,-0.158223092556,-0.759184002876,-0.566431701183,23.1000003815,0.11127569204983277,-0.05291742225953177,-0.2539076932695652,23.1000003815,-0.07654482448418919,0.16602654263982017,0.8438564542982578
1648295665764370920,58355,2,6,0.22231413424,-0.49224960804,0.987021386623,-0.485512852669,23.1000003815,0.07435255325752507,-0.16463197593311035,0.3301074871648829,23.1000003815,-0.06560984495527027,0.1953465941639793,1.1251419770631634
1648295665764373918,58356,2,7,0.523412168026,-0.49224960804,0.215341508389,-0.404594063759,23.1000003815,0.17505423679799328,-0.16463197593311035,0.07202057136755853,23.1000003815,-0.05467487348094594,0.2973073479440023,0.7500946203569661
1648295665867218623,58357,3,0,0.0126335490495,0.0439508594573,0.0103216096759,0.0,45.2000007629,0.004225267240635451,0.014699284099431437,0.0034520433698662202,45.2000007629,0.0,0.015867410612490373,0.04688091546592378
1648295665867225809,58358,3,1,0.0335142984986,0.0146502861753,-0.0293254330754,0.0,45.2000007629,0.011208795484481605,0.0048997612626421405,-0.00980783714896321,45.2000007629,0.0,0.016591619958785185,0.04688091417550657
1648295665867233592,58359,3,2,0.366623967886,-0.0,1.06373465061,0.0,45.2000007629,0.12261671166755851,-0.0,0.35576409719397994,45.2000007629,0.0,0.17340621661385258,1.1251420091423365
1648295665867241701,58360,3,3,0.577369272709,0.0703213736415,0.963142871857,0.0,45.2000007629,0.19310009120702337,0.023518854060702338,0.3221213618250836,45.2000007629,0.0,0.2740956529108955,1.1251420195994355
1648295665867246562,58361,3,4,1.90891587734,-0.180198520422,-0.134553924203,0.0,45.2000007629,0.638433403792642,-0.06026706368628762,-0.04500131244247491,45.2000007629,0.0,0.9048903475680822,1.9221176061941283
1648295665867250378,58362,3,5,0.698824703693,-0.348676800728,0.15886631608,-0.647350490093,45.2000007629,0.23372063668662205,-0.11661431462474915,0.05313254718394648,45.2000007629,-0.08747979595851352,0.3504990305290443,0.796975522988224
1648295665867257723,58363,3,6,0.497780293226,-0.439508587122,0.231422916055,-0.566431701183,45.2000007629,0.16648170342006688,-0.14699283850234113,0.07739896858026755,45.2000007629,-0.07654482448418919,0.27755938052652723,0.7032137545252787
1648295665969312963,58364,4,0,0.0126453237608,0.0439508594573,0.0103071806952,0.0,46.0999984741,0.004229205271170568,0.014699284099431437,0.003447217623812709,46.0999984741,0.0,0.015869508734903916,0.04688091545537793
1648295665969318068,58365,4,1,0.0335009843111,0.0146502861753,-0.0293406434357,0.0,46.0999984741,0.01120434257896321,0.0048997612626421405,-0.00981292422598662,46.0999984741,0.0,0.016585603567082642,0.046880915008686
1648295665969325877,58366,4,2,0.396493554115,-0.0,1.05296599865,0.0,46.0999984741,0.13260653983779264,-0.0,0.352162541354515,46.0999984741,0.0,0.18753396709797446,1.1251420056009536
1648295665969329195,58367,4,3,0.587488770485,0.0703213736415,0.957003831863,0.0,46.0999984741,0.19648453862374582,0.023518854060702338,0.3200681711916388,46.0999984741,0.0,0.27886463442448406,1.1251419844789676
1648295665969334888,58368,4,4,0.472364574671,1.27457487583,0.0264082662761,0.0,46.0999984741,0.15798146310066888,0.4262792226856187,0.00883219607896321,46.0999984741,0.0,0.48127981576242246,1.3595465427961206
1648295665969340400,58369,4,5,1.87338745594,-0.0586011447012,-0.0591400638223,0.0,46.0999984741,0.6265509886086956,-0.019599045050568562,-0.019779285559297657,46.0999984741,0.0,0.8862936337467182,1.875236572110981
1648295665969519877,58370,4,6,0.0951042920351,-0.351606875658,-0.601529181004,0.485512852669,46.0999984741,0.031807455530133776,-0.11759427279531771,-0.20118032809498326,46.0999984741,0.06560984495527027,0.12590409623543816,0.7032137491352262
1648295665969525202,58371,4,7,0.496363610029,-0.304725944996,0.179434880614,-0.647350490093,46.0999984741,0.1660078963307692,-0.10191503177123744,0.060011665757190635,46.0999984741,-0.08747979595851352,0.2559373301987562,0.6094518941603897
1648295665969527951,58372,4,8,0.644846618176,-0.241729721427,0.142299667001,-0.485512852669,46.0999984741,0.21566776527625417,-0.08084606067792642,0.04759186187324414,46.0999984741,-0.06560984495527027,0.3155332874446782,0.7032137757629571
1648295665969533010,58373,4,9,0.536930441856,-0.307655990124,0.765697181225,-0.404594063759,46.0999984741,0.1795753986140468,-0.10289497997458194,0.2560860137876254,46.0999984741,-0.05467487348094594,0.27401099335383833,0.9844992031417642
1648295665969535862,58374,4,10,0.671339154243,-0.197778865695,-0.0685334429145,-0.323675245047,46.0999984741,0.22452814523177253,-0.06614677782441471,-0.022920883917892976,46.0999984741,-0.04373989797932432,0.3243473018524932,0.7032137459784346
1648295666164269507,58375,6,0,0.0127345351502,0.0439508594573,0.0101967547089,0.0,38.5,0.00425904185625418,0.014699284099431437,0.003410285855819398,38.5,0.0,0.015885459644040773,0.04688091551069038
1648295666164376482,58376,6,1,0.0334781743586,0.0146502861753,-0.0293666664511,0.0,38.5,0.011196713832307692,0.0048997612626421405,-0.00982162757561873,38.5,0.0,0.016575296730860337,0.04688091447330322
1648295666164382005,58377,6,2,0.542278885841,-0.0351606868207,0.145545527339,0.0,38.5,0.18136417586655518,-0.011759427030334446,0.04867743389264214,38.5,0.0,0.2567571083720785,0.5625710305864028
1648295666164385451,58378,6,3,1.33291971684,-1.7580344677,0.791953980923,0.0,38.5,0.4457925474381271,-0.5879713938795986,0.2648675521481605,38.5,0.0,0.8620744461608102,2.3440459187187086
1648295666164387761,58379,6,4,2.24682712555,-1.2306240797,0.574191987514,0.0,38.5,0.7514471991806019,-0.4115799597658863,0.1920374540180602,38.5,0.0,1.1396244335717056,2.625331254560084
1648295666164389132,58380,6,5,0.508786916733,-0.0805765762925,-0.0240733046085,-0.242756426334,38.5,0.17016284840568563,-0.026948687723244144,-0.00805127244431438,38.5,-0.03280492247756756,0.24215082433284763,0.5156900573798834
1648295666164390453,58381,6,6,0.761517524719,-0.316446185112,0.179015517235,-0.242756426334,38.5,0.25468813535752505,-0.10583484451906354,0.05987141044648829,38.5,-0.03280492247756756,0.3754105844247873,0.8438564356198308
1648295666164392630,58382,6,7,0.674047291279,-0.131852582097,0.150946214795,-0.161837622523,38.5,0.2254338766819398,-0.04409785354414715,0.05048368387792642,38.5,-0.021869948989594594,0.3218469919059321,0.7032137754958598
1648295666267526340,58383,7,0,0.0126656908542,0.0439508594573,0.0102821430191,0.0,23.2000007629,0.004236017008093645,0.014699284099431437,0.0034388438190969895,23.2000007629,0.0,0.015873141882485495,0.046880915487165234
1648295666267535532,58384,7,1,0.0335009843111,0.0146502861753,-0.0293406434357,0.0,23.2000007629,0.01120434257896321,0.0048997612626421405,-0.00981292422598662,23.2000007629,0.0,0.016585603567082642,0.046880915008686
1648295666267538987,58385,7,2,1.39927208424,-1.68478298187,0.835520803928,0.0,23.2000007629,0.4679839746622073,-0.5634725691872909,0.2794383959625418,23.2000007629,0.0,0.8692061535146891,2.3440458774368333
1648295666267543185,58386,7,3,2.02023243904,-0.879017233849,-0.800337791443,0.0,23.2000007629,0.6756630230903009,-0.29398569693946486,-0.26767150215484947,23.2000007629,0.0,0.9997342804705818,2.3440458582469996
1648295666267545967,58387,7,4,2.24477529526,-1.2306240797,0.5821621418,0.0,23.2000007629,0.7507609683143813,-0.4115799597658863,0.19470305745819397,23.2000007629,0.0,1.1387195117190112,2.6253313145377017
1648295666267550524,58388,7,5,0.689925551414,-0.0,0.136059939861,0.0809188112617,23.2000007629,0.23074433157658863,-0.0,0.0455049966090301,23.2000007629,0.010934974494824324,0.32632176315632605,0.7032137468287227
1648295666267629681,58389,7,6,1.55380249023,-0.597731649876,-1.71608400345,0.242756426334,23.2000007629,0.5196663846923076,-0.19991025079464883,-0.573941138277592,23.2000007629,0.03280492247756756,0.7616235363558077,2.3909265172324754
1648295666267631753,58390,7,7,0.544669806957,0.140642747283,0.0063657942228,0.566431701183,23.2000007629,0.18216381503578594,0.047037708121404675,0.002129028168160535,23.2000007629,0.07654482448418919,0.26187756108933524,0.5625709771308617
1648295666267711965,58391,7,8,0.991509497166,-0.404347896576,0.126722037792,-0.404594063759,23.2000007629,0.33160852748026753,-0.13523341022608695,0.042381952438795986,23.2000007629,-0.05467487348094594,0.4880742835231537,1.0782609977635131
1648295666267719504,58392,7,9,1.0066703558,-0.336956560612,0.189002245665,-0.242756426334,23.2000007629,0.3366790487625418,-0.11269450187692308,0.06321145339966555,23.2000007629,-0.03280492247756756,0.48929093033142135,1.0782609970931807
1648295666369457689,58393,8,0,0.0127438921481,0.0439508594573,0.0101850572973,0.0,20.8999996185,0.004262171286989967,0.014699284099431437,0.0034063736780267557,20.8999996185,0.0,0.015887138231760977,0.04688091537360406
1648295666369469906,58394,8,1,0.0334781743586,0.0146502861753,-0.0293666664511,0.0,20.8999996185,0.011196713832307692,0.0048997612626421405,-0.00982162757561873,20.8999996185,0.0,0.016575296730860337,0.04688091447330322
1648295666369472768,58395,8,2,1.40538859367,-1.68478298187,0.825191318989,0.0,20.8999996185,0.4700296299899665,-0.5634725691872909,0.27598371872541805,20.8999996185,0.0,0.8714109491873143,2.3440459697180245
1648295666369478158,58396,8,3,2.0527920723,-0.879017233849,-0.712688624859,0.0,20.8999996185,0.6865525325418059,-0.29398569693946486,-0.2383573996183946,20.8999996185,0.0,1.014463577406364,2.344046003282506
1648295666369501275,58397,8,4,2.20100045204,-1.31266570091,0.569974601269,0.0,20.8999996185,0.7361205525217391,-0.4390186290668896,0.19062695694615384,20.8999996185,0.0,1.1298160435918727,2.6253314606574123
1648295666369549930,58398,8,5,0.643688321114,0.0879017189145,0.269162118435,0.323675245047,20.8999996185,0.21528037495451502,0.02939856819882943,0.09002077539632106,20.8999996185,0.04373989797932432,0.30586852648360924,0.7032137746994869
1648295666369552161,58399,8,6,2.14434242249,-0.380907416344,-1.09526765347,0.323675245047,20.8999996185,0.7171713787591972,-0.12739378473043478,-0.3663102519966555,20.8999996185,0.04373989797932432,1.022202890531366,2.4378076457041935
1648295666369637145,58400,8,7,1.90189874172,-0.0600661747158,0.271494537592,0.404594063759,20.8999996185,0.6360865356923077,-0.020089021644080267,0.09080084869297658,20.8999996185,0.05467487348094594,0.8997864916571592,1.9221175960495762
1648295666369648381,58401,8,8,0.109393119812,0.246124818921,0.598521947861,-0.323675245047,20.8999996185,0.03658632769632107,0.08231599295016721,0.20017456450200669,20.8999996185,-0.04373989797932432,0.09722675271743451,0.6563328448450704
1648295666369650527,58402,8,9,0.448160678148,0.47173923254,-0.0859472379088,-0.323675245047,20.8999996185,0.14988651443076922,0.15777231857525081,-0.02874489562167224,20.8999996185,-0.04373989797932432,0.26424238669263644,0.6563328611761378
1648295666369653107,58403,8,10,0.958070456982,-0.32230630517,0.204852834344,-0.161837622523,20.8999996185,0.32042490200066887,-0.10779475089297658,0.06851265362675585,20.8999996185,-0.021869948989594594,0.46579388570950064,1.0313801620318308
1648295666467668350,58404,9,0,0.0126656908542,0.0439508594573,0.0102821430191,0.0,27.2000007629,0.004236017008093645,0.014699284099431437,0.0034388438190969895,27.2000007629,0.0,0.015873141882485495,0.046880915487165234
1648295666467680195,58405,9,1,0.0334781743586,0.0146502861753,-0.0293666664511,0.0,27.2000007629,0.011196713832307692,0.0048997612626421405,-0.00982162757561873,27.2000007629,0.0,0.016575296730860337,0.04688091447330322
1648295666467684385,58406,9,2,2.20120787621,-1.31266570091,0.569172859192,0.0,27.2000007629,0.7361899251538461,-0.4390186290668896,0.19035881578327757,27.2000007629,0.0,1.1299064423499063,2.625331426748873
1648295666467688757,58407,9,3,1.05241405964,-0.175803437829,0.357018619776,0.0809188112617,27.2000007629,0.351977946367893,-0.05879713639765886,0.11940422066086956,27.2000007629,0.010934974494824324,0.5012325335682867,1.1251419895049695
1648295666467833133,58408,9,4,0.713224172592,0.140642747283,0.184859186411,0.485512852669,27.2000007629,0.23853651257257524,0.047037708121404675,0.06182581485317725,27.2000007629,0.06560984495527027,0.3406051697286569,0.7500946750466835
1648295666467842305,58409,9,5,1.20544195175,-1.57490575314,0.361042141914,-0.647350490093,27.2000007629,0.4031578433946488,-0.5267243321538461,0.12074988023879599,27.2000007629,-0.08747979595851352,0.7762158304648028,2.01587942559821
1648295666467920274,58410,9,6,0.436917304993,0.609451889992,0.0177100002766,-0.485512852669,27.2000007629,0.14612618896086957,0.20383006354247488,0.005923077015585284,27.2000007629,-0.06560984495527027,0.29026267587167465,0.7500946485124156
1648295666567368886,58411,10,0,0.0127438921481,0.0439508594573,0.0101850572973,0.0,41.5999984741,0.004262171286989967,0.014699284099431437,0.0034063736780267557,41.5999984741,0.0,0.015887138231760977,0.04688091537360406
1648295666567375652,58412,10,1,0.0334914848208,0.0146502861753,-0.0293514840305,0.0,41.5999984741,0.011201165491906353,0.0048997612626421405,-0.009816549842976587,41.5999984741,0.0,0.016581311081607385,0.04688091355032194
1648295666567380660,58413,10,2,1.84789693356,-0.234404578805,0.216434910893,0.0,41.5999984741,0.6180257302876253,-0.07839618020234114,0.0723862578237458,41.5999984741,0.0,0.8775292403478206,1.8752366928679858
1648295666567384381,58414,10,3,2.24162983894,-1.2306240797,0.594159066677,0.0,41.5999984741,0.7497089762341136,-0.4115799597658863,0.1987154069153846,41.5999984741,0.0,1.1373324761796324,2.6253313994385787
1648295666567406436,58415,10,4,0.605975329876,0.473204225302,0.20986109972,0.485512852669,41.5999984741,0.20266733440668894,0.158262282709699,0.07018765876923076,41.5999984741,0.06560984495527027,0.32740654697105565,0.7969755456961529
1648295666567484997,58416,10,5,0.767796933651,0.199243888259,0.0771995782852,0.485512852669,41.5999984741,0.25678827212408023,0.06663675192608695,0.025819256951571903,41.5999984741,0.06560984495527027,0.36921658969797144,0.7969755537153292
1648295666567488339,58417,10,6,1.0530192852,-0.168478280306,0.159412607551,0.485512852669,41.5999984741,0.3521803629431438,-0.05634725093846154,0.05331525336153846,41.5999984741,0.06560984495527027,0.5012355023078982,1.0782610655051008
1648295666567495564,58418,10,7,0.325722754002,0.202173948288,1.00780808926,0.485512852669,41.5999984741,0.10893737592040134,0.06761670511304348,0.33705956162541806,41.5999984741,0.06560984495527027,0.1682460179474984,1.0782609900292686
1648295666567534234,58419,10,8,0.645965099335,1.30827057362,-1.65110325813,0.485512852669,41.5999984741,0.21604183924247491,0.4375486868294314,-0.552208447535117,41.5999984741,0.06560984495527027,0.533663757391021,2.203402998174955
1648295666567546715,58420,10,9,0.871226370335,-1.34489631653,-1.95986282825,0.566431701183,41.5999984741,0.29138005696822744,-0.44979809917391306,-0.6554725178093644,41.5999984741,0.07654482448418919,0.6100188564446842,2.5315694334027556
1648295666567550598,58421,10,10,0.931917667389,-2.29423475266,0.526175200939,0.566431701183,41.5999984741,0.31167814962842805,-0.7673025928628762,0.17597832807324415,41.5999984741,0.07654482448418919,0.8848953649588714,2.5315694699509717
1648295666567625391,58422,10,11,1.36084401608,-1.41814780235,0.626051545143,-0.566431701183,41.5999984741,0.4551317779531772,-0.47429692386287625,0.20938178767324414,41.5999984741,-0.07654482448418919,0.7995295132710408,2.0627603260162863
1648295666667460757,58423,11,0,0.0127353817225,0.0439508594573,0.0101956976578,0.0,29.7000007629,0.004259324990802675,0.014699284099431437,0.003409932327023411,29.7000007629,0.0,0.01588561147045811,0.046880915577475576
1648295666667470953,58424,11,1,0.0335009843111,0.0146502861753,-0.0293406434357,0.0,29.7000007629,0.01120434257896321,0.0048997612626421405,-0.00981292422598662,29.7000007629,0.0,0.016585603567082642,0.046880915008686
1648295666667475648,58425,11,2,1.91730546951,-0.120132349432,0.0635910257697,0.0,29.7000007629,0.6412392874615385,-0.040178043288294316,0.021267901595217388,29.7000007629,0.0,0.9077389066966554,1.9221175467050544
1648295666667485809,58426,11,3,2.24284911156,-1.2306240797,0.589539527893,0.0,29.7000007629,0.7501167597190634,-0.4115799597658863,0.19717041066655516,29.7000007629,0.0,1.137870102298036,2.625331334843519
1648295666667538934,58427,11,4,1.55042636395,-1.0372402668,-2.04228377342,0.323675245047,29.7000007629,0.5185372454682274,-0.34690309926421403,-0.6830380513110367,29.7000007629,0.04373989797932432,0.8112357919585838,2.765974022343158
1648295666667643897,58428,11,5,1.63230490685,0.1728733778,-2.22627663612,0.323675245047,29.7000007629,0.5459213735284281,0.05781718321070234,-0.7445741257926421,29.7000007629,0.04373989797932432,0.7742112882312883,2.7659740010007963
1648295666667656771,58429,11,6,0.786317050457,0.263705134392,0.155752539635,0.404594063759,29.7000007629,0.26298229112274246,0.08819569712107023,0.052091150379598654,29.7000007629,0.05467487348094594,0.3822274870793639,0.8438564779314378
1648295666667660730,58430,11,7,1.09996986389,0.109877154231,0.389398396015,0.404594063759,29.7000007629,0.36788289762207355,0.0367482121173913,0.13023357726254178,29.7000007629,0.05467487348094594,0.5215611985370949,1.1720229525513324
1648295666667661867,58431,11,8,0.852259457111,0.351606875658,0.170746818185,0.485512852669,29.7000007629,0.28503660772943146,0.11759427279531771,0.05710595925919732,29.7000007629,0.06560984495527027,0.4199049279135256,0.9376182875591847
1648295666667667076,58432,11,9,1.14185357094,-1.71408355236,0.45680886507,0.485512852669,29.7000007629,0.38189082640133776,-0.573272091090301,0.152778884638796,29.7000007629,0.06560984495527027,0.787605292644761,2.1096412825753212
1648295666667679543,58433,11,10,0.777123749256,0.389697611332,0.193978413939,0.566431701183,29.7000007629,0.25990760844682276,0.13033364927491636,0.06487572372541806,29.7000007629,0.07654482448418919,0.389988192116647,0.8907374332595768
1648295666769295685,58434,12,0,0.0127353817225,0.0439508594573,0.0101956976578,0.0,38.5999984741,0.004259324990802675,0.014699284099431437,0.003409932327023411,38.5999984741,0.0,0.01588561147045811,0.046880915577475576
1648295666769300406,58435,12,1,0.0334781743586,0.0146502861753,-0.0293666664511,0.0,38.5999984741,0.011196713832307692,0.0048997612626421405,-0.00982162757561873,38.5999984741,0.0,0.016575296730860337,0.04688091447330322
1648295666769304534,58436,12,2,2.243663311,-1.2306240797,0.586433410645,0.0,38.5999984741,0.7503890672240803,-0.4115799597658863,0.19613157546655516,38.5999984741,0.0,1.1382291367293929,2.625331374090837
1648295666769307528,58437,12,3,0.616192042828,0.316446185112,0.886630535126,0.242756426334,38.5999984741,0.20608429526020064,0.10583484451906354,0.29653195154715717,38.5999984741,0.03280492247756756,0.3100685211693723,1.125142003275275
1648295666769318478,58438,12,4,1.40754628181,-0.966918885708,-2.23518109322,0.242756426334,38.5999984741,0.47075126481939794,-0.3233842427117057,-0.747552205090301,38.5999984741,0.03280492247756756,0.740128958420321,2.812854988523957
1648295666769325188,58439,12,5,1.97163009644,0.439508587122,-1.95746278763,0.242756426334,38.5999984741,0.6594080590100334,0.14699283850234113,-0.6546698286387959,38.5999984741,0.03280492247756756,0.9440576630406295,2.8128550620851747
1648295666769333113,58440,12,6,0.762100696564,0.361862063408,0.285782277584,0.323675245047,38.5999984741,0.2548831761083612,0.12102410147424747,0.09557935705150501,38.5999984741,0.04373989797932432,0.3802337439836458,0.890737410698758
1648295666769353614,58441,12,7,1.46517264843,-2.01441431046,0.666190981865,0.323675245047,38.5999984741,0.49002429713377926,-0.6737171606889631,0.22280634844983277,38.5999984741,0.04373989797932432,0.9665104428663495,2.578450373424253
1648295666769485054,58442,12,8,1.40878009796,-1.12807202339,-1.84152078629,0.323675245047,38.5999984741,0.471163912361204,-0.377281613173913,-0.6158932395618729,38.5999984741,0.04373989797932432,0.7657233705863643,2.578450437898998
1648295666769626361,58443,12,9,1.05424380302,-1.75217413902,0.684867203236,0.404594063759,38.5999984741,0.35258990067558527,-0.5860114177324415,0.22905257633311035,38.5999984741,0.05467487348094594,0.7694469818185162,2.1565220369207574
1648295666769638822,58444,12,10,0.747899949551,0.0380907431245,-0.961728274822,-0.485512852669,38.5999984741,0.2501337623916388,0.01273937897140468,-0.3216482524488294,38.5999984741,-0.06560984495527027,0.3539718773475807,1.2189038164852324
1648295666769642643,58445,12,11,1.08196473122,0.495179653168,0.264340549707,-0.485512852669,38.5999984741,0.36186111412040134,0.16561192413645484,0.08840821060434782,38.5999984741,-0.06560984495527027,0.5378793928392267,1.2189038086473216
1648295666769648186,58446,12,12,0.630917847157,0.0380907431245,-1.04221796989,-0.242756426334,38.5999984741,0.21100931343043475,0.01273937897140468,-0.3485678829063545,38.5999984741,-0.03280492247756756,0.29868403453372594,1.218903823660683
1648295666769652247,58447,12,13,1.09579622746,0.495179653168,0.199384704232,-0.242756426334,38.5999984741,0.3664870325953177,0.16561192413645484,0.06668384756923076,38.5999984741,-0.03280492247756756,0.5441073419254897,1.2189038195480522
1648295666964412866,58448,14,0,0.0127553893253,0.0439508594573,0.0101706553251,0.0,25.8999996185,0.004266016496755853,0.014699284099431437,0.0034015569649163877,25.8999996185,0.0,0.01588920219951222,0.04688091545199708
1648295666964418430,58449,14,1,0.033392906189,0.0146502861753,-0.0294635873288,0.0,25.8999996185,0.011168196049832777,0.0048997612626421405,-0.009854042584882943,25.8999996185,0.0,0.016536773156994367,0.046880913462168855
1648295666964425015,58450,14,2,2.24078464508,-1.2306240797,0.597338736057,0.0,25.8999996185,0.7494263027023411,-0.4115799597658863,0.19977884149063546,25.8999996185,0.0,1.1369598188349008,2.6253314108428194
1648295666964427853,58451,14,3,0.802267313004,0.410208016634,0.259277164936,0.161837622523,25.8999996185,0.2683168270916388,0.13719331659999998,0.08671477088160534,25.8999996185,0.021869948989594594,0.40349702046081654,0.9376183160981381
1648295666964431136,58452,14,4,0.970534682274,0.549385726452,0.360382527113,0.242756426334,25.8999996185,0.32459353922207357,0.1837410456361204,0.1205292732819398,25.8999996185,0.03280492247756756,0.49445192209240985,1.1720229570167293
1648295666964608008,58453,14,5,1.89017021656,-0.80430072546,-1.98958456516,0.242756426334,25.8999996185,0.6321639520267558,-0.26899689814715716,-0.6654128980468227,25.8999996185,0.03280492247756756,0.9336069064102754,2.85973597495798
1648295666964612461,58454,14,6,1.31708204746,0.536200523376,-2.48110342026,0.242756426334,25.8999996185,0.4404956680468227,0.17933127872107021,-0.8298004750033445,25.8999996185,0.03280492247756756,0.6482534802558082,2.8597360547847757
1648295667069517449,58455,15,0,0.0126656908542,0.0439508594573,0.0102821430191,0.0,11.6000003815,0.004236017008093645,0.014699284099431437,0.0034388438190969895,11.6000003815,0.0,0.015873141882485495,0.046880915487165234
1648295667069532388,58456,15,1,0.0335009843111,0.0146502861753,-0.0293406434357,0.0,11.6000003815,0.01120434257896321,0.0048997612626421405,-0.00981292422598662,11.6000003815,0.0,0.016585603567082642,0.046880915008686
1648295667069534763,58457,15,2,1.87420153618,-0.0586011447012,0.0211399178952,0.0,11.6000003815,0.6268232562474916,-0.019599045050568562,0.0070702066539130425,11.6000003815,0.0,0.8866785842188314,1.8752366220049081
1648295667069537393,58458,15,3,2.19685864449,-1.31266570091,0.585735440254,0.0,11.6000003815,0.7347353326053511,-0.4390186290668896,0.19589814055317725,11.6000003815,0.0,1.1280112475614608,2.625331436635292
1648295667069542126,58459,15,4,0.606038689613,0.498109728098,0.14061960578,0.0809188112617,11.6000003815,0.20268852495418058,0.1665918823070234,0.047029968488294306,11.6000003815,0.010934974494824324,0.3315390347256264,0.7969755755752044
1648295667069562003,58460,15,5,0.797832489014,0.439508587122,0.222314119339,0.161837622523,11.6000003815,0.26683360836588627,0.14699283850234113,0.07435254827391304,11.6000003815,0.021869948989594594,0.4049780780216303,0.9376182839182085
1648295667069696940,58461,15,6,0.475647836924,0.98449921608,-1.63752102852,0.242756426334,11.6000003815,0.1590795441217391,0.3292639518662207,-0.5476658958260869,11.6000003815,0.03280492247756756,0.39878233751574504,1.9689983976828964
1648295667069700914,58462,15,7,0.906473219395,-0.24612480402,-1.73051548004,0.242756426334,11.6000003815,0.3031683008010033,-0.08231598796655518,-0.578767719076923,11.6000003815,0.03280492247756756,0.436575261662918,1.9689984619832213
1648295667069703010,58463,15,8,1.60590720177,-1.54707026482,0.30234670639,0.323675245047,11.6000003815,0.5370927096220736,-0.5174148042876254,0.10111929979598662,11.6000003815,0.04373989797932432,0.919051270144579,2.2502839544937117
