%time,field.header.seq,field.header.frame_id,field.point_id,field.x,field.y,field.z,field.velocity,field.intensity,normalized_x,normalized_y,normalized_z,normalized_intensity,normalized_velocity,normalized_range,range
1648294611559652057,19009,0,0,0.0126678450033,0.0439508594573,0.0102794887498,0.0,25.7999992371,0.004236737459297658,0.014699284099431437,0.0034379561036120398,25.7999992371,0.0,0.015873526439762208,0.046880915445629195
1648294611559657807,19010,0,1,0.0335372425616,0.0146502861753,-0.0292991939932,0.0,25.7999992371,0.011216469084147156,0.0048997612626421405,-0.00979906153618729,25.7999992371,0.0,0.016601988370738802,0.04688091607791967
1648294611559705560,19011,0,2,1.54205691814,-1.68478298187,0.527368724346,0.0,25.7999992371,0.5157380997123745,-0.5634725691872909,0.1763774997812709,25.7999992371,0.0,0.921668547372855,2.344045862648709
1648294611559715570,19012,0,3,2.23708558083,-1.2306240797,0.611045539379,0.0,25.7999992371,0.7481891574682275,-0.4115799597658863,0.20436305664849497,25.7999992371,0.0,1.1353290685906534,2.625331250088252
1648294611559746930,19013,0,4,0.882304608822,-0.769140064716,0.0599990896881,-0.566431701183,25.7999992371,0.2950851534521739,-0.2572374798381271,0.020066585179966553,25.7999992371,-0.07654482448418919,0.49022608723858924,1.1720229317992357
1648294611664762645,19014,1,0,0.00631333654746,0.0454158857465,0.00976521056145,0.0,35.4000015259,0.0021114837951371236,0.015189259446989964,0.0032659567095150496,35.4000015259,0.0,0.015479997744903816,0.04688091545405326
1648294611664782608,19015,1,1,0.0336220227182,0.0146502861753,-0.0292018633336,0.0,35.4000015259,0.011244823651571905,0.0048997612626421405,-0.009766509476120401,35.4000015259,0.0,0.016640305836756436,0.04688091422781338
1648294611664788987,19016,1,2,1.47165954113,-1.68478298187,0.700196921825,0.0,35.4000015259,0.4921938264648829,-0.5634725691872909,0.23417957251672242,35.4000015259,0.0,0.8955505914502055,2.34404591045716
1648294611664792028,19017,1,3,0.930171728134,-0.632892370224,0.0131238270551,-0.566431701183,35.4000015259,0.31109422345618726,-0.21166968903812708,0.004389239817759197,35.4000015259,-0.07654482448418919,0.48822462964614327,1.1251419603517223
1648294611761387453,19018,2,0,0.00628323899582,0.0454158857465,0.00978460349143,0.0,40.2000007629,0.002101417724354515,0.015189259446989964,0.0032724426392742472,40.2000007629,0.0,0.01547725800820147,0.0468809154763667
1648294611761393717,19019,2,1,0.0335372425616,0.0146502861753,-0.0292991939932,0.0,40.2000007629,0.011216469084147156,0.0048997612626421405,-0.00979906153618729,40.2000007629,0.0,0.016601988370738802,0.04688091607791967
1648294611761398325,19020,2,2,1.49872374535,-1.68478298187,0.640222430229,0.0,40.2000007629,0.5012453997826086,-0.5634725691872909,0.21412121412341137,40.2000007629,0.0,0.9055358843430671,2.3440459298066294
1648294611761401242,19021,2,3,1.30370008945,-1.34782636166,-0.0155762117356,0.242756426334,40.2000007629,0.43602009680602,-0.45077804737792637,-0.005209435363076923,40.2000007629,0.03280492247756756,0.7638245201846549,1.8752366364780746
1648294611761432120,19022,2,4,0.849361360073,-0.547920703888,0.205215111375,-0.485512852669,40.2000007629,0.28406734450602006,-0.18325107153444814,0.06863381651337792,40.2000007629,-0.06560984495527027,0.44155347088198416,1.0313801722307985
1648294611864607566,19023,3,0,0.0126902572811,0.0439508594573,0.0102518079802,0.0,41.5,0.004244233204381271,0.014699284099431437,0.0034286983211371234,41.5,0.0,0.015877530791094153,0.04688091556015881
1648294611864617076,19024,3,1,0.0335509069264,0.0146502861753,-0.0292835440487,0.0,41.5,0.011221039105819395,0.0048997612626421405,-0.009793827441036788,41.5,0.0,0.016608163584802046,0.0468809150151135
1648294611864629090,19025,3,2,1.50448787212,-1.68478298187,0.626557052135,0.0,41.5,0.5031732013779263,-0.5634725691872909,0.20955085355685618,41.5,0.0,0.9076716792961806,2.344045902480375
1648294611864631293,19026,3,3,1.83561861515,-1.39177727699,0.433602511883,0.242756426334,41.5,0.6139192692809364,-0.4654773501638796,0.14501756250267556,41.5,0.03280492247756756,0.9851207549861412,2.3440458244970706
1648294611864633233,19027,3,4,0.747508347034,-0.659262895584,-2.12159252167,0.242756426334,41.5,0.2500027916501672,-0.22048926273712371,-0.7095627162775918,41.5,0.03280492247756756,0.4166753012216037,2.34404588743168
1648294611864637823,19028,3,5,0.852290451527,-0.49224960804,-0.0230208002031,-0.647350490093,41.5,0.2850469737548495,-0.16463197593311035,-0.007699264281973243,41.5,-0.08747979595851352,0.4354391369562869,0.9844991861965261
1648294611865071281,19029,3,6,0.974270582199,-0.49224960804,0.272821515799,-0.485512852669,41.5,0.3258430040799331,-0.16463197593311035,0.09124465411337791,41.5,-0.06560984495527027,0.4893373214003923,1.1251419570155474
1648294611865075010,19030,3,7,0.875062584877,-0.430718421936,0.134111508727,-0.404594063759,41.5,0.29266307186521734,-0.14405298392508362,0.04485334740033445,41.5,-0.05467487348094594,0.4382403557922195,0.9844992550630433
1648294611865078567,19031,3,8,0.93977111578,-0.41899818182,0.0708222538233,-0.323675245047,41.5,0.3143047209966555,-0.14013317117725752,0.023686372516153843,41.5,-0.04373989797932432,0.46606031899933886,1.0313801520581363
1648294611865148471,19032,3,9,1.24096465111,-0.369187235832,-0.216330111027,-0.242756426334,41.5,0.4150383448528428,-0.12347399191705685,-0.0723512077013378,41.5,-0.03280492247756756,0.5997995349083791,1.312665683768259
1648294611961374894,19033,4,0,0.00642727734521,0.0454158857465,0.00969059672207,0.0,12.3000001907,0.002149591085354515,0.015189259446989964,0.0032410022481839463,12.3000001907,0.0,0.015490483730873129,0.046880915488513926
1648294611961503204,19034,4,1,0.0335372425616,0.0146502861753,-0.0292991939932,0.0,12.3000001907,0.011216469084147156,0.0048997612626421405,-0.00979906153618729,12.3000001907,0.0,0.016601988370738802,0.04688091607791967
1648294611961546800,19035,4,2,1.49782407284,-1.68478298187,0.642324268818,0.0,12.3000001907,0.5009445059665552,-0.5634725691872909,0.21482417017324412,12.3000001907,0.0,0.9052028128230041,2.344045885960928
1648294611961550411,19036,4,3,2.23467993736,-1.2306240797,0.619786143303,0.0,12.3000001907,0.7473845944347826,-0.4115799597658863,0.2072863355528428,12.3000001907,0.0,1.134268719165691,2.625331390778538
1648294611961553640,19037,4,4,0.928332567215,-0.32230630517,0.313149005175,-0.242756426334,12.3000001907,0.31047911946989964,-0.10779475089297658,0.1047321087541806,12.3000001907,-0.03280492247756756,0.45212196979762803,1.0313801477372064
1648294611961555415,19038,4,5,1.22132718563,-0.237334638834,-0.232901960611,-0.242756426334,12.3000001907,0.40847063064548494,-0.07937613338929765,-0.07789363231137122,12.3000001907,-0.03280492247756756,0.5830926879593638,1.2657847954552977
1648294611961569267,19039,4,6,1.15196096897,-0.0483459457755,-1.03154015541,-0.161837622523,12.3000001907,0.38527122708026756,-0.016169212633946488,-0.3449967074949833,12.3000001907,-0.021869948989594594,0.5450956615760869,1.5470702946946258
1648294612064573312,19040,5,0,0.0126699265093,0.0439508594573,0.0102769229561,0.0,11.8000001907,0.004237433615150501,0.014699284099431437,0.0034370979786287623,11.8000001907,0.0,0.015873898082116214,0.04688091541589194
1648294612064576903,19041,5,1,0.0335372425616,0.0146502861753,-0.0292991939932,0.0,11.8000001907,0.011216469084147156,0.0048997612626421405,-0.00979906153618729,11.8000001907,0.0,0.016601988370738802,0.04688091607791967
1648294612064582635,19042,5,2,0.986664652824,-0.257845044136,0.154122635722,0.0,11.8000001907,0.32998817820200665,-0.08623580071438126,0.05154603201404682,11.8000001907,0.0,0.47457455560850403,1.0313801388235553
1648294612064586912,19043,5,3,1.49385452271,-1.68478298187,0.65150308609,0.0,11.8000001907,0.4996168972274247,-0.5634725691872909,0.21789400872575249,11.8000001907,0.0,0.903734155721053,2.344045925788291
1648294612064591503,19044,5,4,2.19024538994,-0.0732514336705,-0.831871807575,0.0,11.8000001907,0.732523541785953,-0.02449880724765886,-0.2782179958444816,11.8000001907,0.0,1.0362343702550267,2.3440459349010854
1648294612064624124,19045,5,5,2.19612789154,-1.31266570091,0.588469147682,0.0,11.8000001907,0.7344909336254181,-0.4390186290668896,0.19681242397391302,11.8000001907,0.0,1.1276928747773693,2.625331387866882
1648294612064671571,19046,5,6,0.543205797672,-0.205104023218,1.17726421356,-0.566431701183,11.8000001907,0.18167417982341133,-0.06859666328361204,0.39373385068896316,11.8000001907,-0.07654482448418919,0.26592577431054637,1.3126656952528808
1648294612064675859,19047,5,7,1.28321659565,0.246124818921,-0.125972673297,-0.566431701183,11.8000001907,0.4291694299832775,0.08231599295016721,-0.0421313288618729,11.8000001907,-0.07654482448418919,0.6124938546301625,1.312665750394236
1648294612064679777,19048,5,8,0.949871242046,-0.193383783102,0.352267414331,-0.161837622523,11.8000001907,0.31768268964749163,-0.06467685053578595,0.11781518873946488,11.8000001907,-0.021869948989594594,0.453902718210144,1.031380140991817
1648294612064687270,19049,5,9,0.930802464485,-0.257845044136,0.361756443977,-0.161837622523,11.8000001907,0.31130517206856184,-0.08623580071438126,0.12098877724983277,11.8000001907,-0.021869948989594594,0.4486183607902426,1.0313801527253323
1648294612064704065,19050,5,10,0.901835024357,-0.205104008317,0.154123231769,-0.0809188112617,11.8000001907,0.30161706500234114,-0.06859665829999999,0.05154623136086956,11.8000001907,-0.010934974494824324,0.4320314911336672,0.9376182783817792
1648294612161445096,19051,6,0,0.0126474238932,0.0439508594573,0.0103046037257,0.0,23.3999996185,0.004229907656588629,0.014699284099431437,0.003446355761103679,23.3999996185,0.0,0.01586988313133818,0.04688091547861809
1648294612161450918,19052,6,1,0.033601410687,0.0146502861753,-0.0292255785316,0.0,23.3999996185,0.011237929995652172,0.0048997612626421405,-0.009774440980468226,23.3999996185,0.0,0.01663098919503125,0.04688091430082548
1648294612161454323,19053,6,2,1.49396336079,-1.68478298187,0.651253283024,0.0,23.3999996185,0.4996532979230769,-0.5634725691872909,0.21781046254983275,23.3999996185,0.0,0.9037744035307376,2.3440458737045353
1648294612161456913,19054,6,3,2.24211192131,-1.2306240797,0.592336833477,0.0,23.3999996185,0.7498702077959865,-0.4115799597658863,0.19810596437357855,23.3999996185,0.0,1.1375450410251369,2.6253312967150357
1648294612161583968,19055,6,4,0.972154855728,-0.096691891551,0.330621510744,0.0809188112617,23.3999996185,0.3251354032535117,-0.032338425267892976,0.11057575610167222,23.3999996185,0.010934974494824324,0.4609466722370978,1.0313801281651123
1648294612161599022,19056,6,5,0.976494550705,-0.0922968015075,-0.0847252681851,-0.0809188112617,23.3999996185,0.32658680625585285,-0.03086849548745819,-0.02833621009535117,23.3999996185,-0.010934974494824324,0.4628938842266715,0.9844992017234507
1648294612264711851,19057,7,0,0.0126902572811,0.0439508594573,0.0102518079802,0.0,20.3999996185,0.004244233204381271,0.014699284099431437,0.0034286983211371234,20.3999996185,0.0,0.015877530791094153,0.04688091556015881
1648294612264715001,19058,7,1,0.0335372425616,0.0146502861753,-0.0292991939932,0.0,20.3999996185,0.011216469084147156,0.0048997612626421405,-0.00979906153618729,20.3999996185,0.0,0.016601988370738802,0.04688091607791967
1648294612264720021,19059,7,2,0.977247238159,-0.0307656005025,-0.115239009261,0.0,20.3999996185,0.326838541190301,-0.010289498495819397,-0.03854147466923077,20.3999996185,0.0,0.462334011072194,0.984499220882947
1648294612264724625,19060,7,3,1.48228752613,-1.68478298187,0.677407562733,0.0,20.3999996185,0.4957483364983277,-0.5634725691872909,0.22655771328862873,20.3999996185,0.0,0.8994632635679151,2.3440458639214437
1648294612264727862,19061,7,4,2.24155545235,-1.2306240797,0.594439685345,0.0,20.3999996185,0.7496840977759197,-0.4115799597658863,0.198809259312709,20.3999996185,0.0,1.1372996773924973,2.625331409748215
1648294612264729987,19062,7,5,0.880657494068,-0.032230630517,0.535862445831,0.161837622523,20.3999996185,0.29453427895250833,-0.010779475089297658,0.17921820930802673,20.3999996185,0.021869948989594594,0.41667382931898755,1.0313801414869466
1648294612264883423,19063,7,6,0.473442316055,2.04371500015,0.222862124443,0.566431701183,20.3999996185,0.15834191172408024,0.683516722458194,0.07453582757290969,20.3999996185,0.07654482448418919,0.7192631172921802,2.1096412384528525
1648294612265012243,19064,7,7,0.206532716751,-0.0439508594573,-0.670762360096,-0.566431701183,20.3999996185,0.0690744872076923,-0.014699284099431437,-0.224335237490301,20.3999996185,-0.07654482448418919,0.09878582144744807,0.7032137547411457
1648294612265015649,19065,7,8,0.658741831779,0.241729721427,0.0462117902935,-0.566431701183,20.3999996185,0.22031499390602005,0.08084606067792642,0.01545544825869565,20.3999996185,-0.07654482448418919,0.32189047610446364,0.7032137574869094
1648294612265018430,19066,7,9,0.359872609377,-0.0,-0.491857022047,-0.161837622523,20.3999996185,0.12035873223311036,-0.0,-0.16450067626989964,20.3999996185,-0.021869948989594594,0.17021295147409646,0.6094519054993215
1648294612265020580,19067,7,10,0.542196571827,0.247589826584,0.127097547054,-0.161837622523,20.3999996185,0.1813366460959866,0.08280596206822742,0.04250754082073578,20.3999996185,-0.021869948989594594,0.2694861513857937,0.6094519104867833
1648294612361474698,19068,8,0,0.0126678450033,0.0439508594573,0.0102794887498,0.0,22.2999992371,0.004236737459297658,0.014699284099431437,0.0034379561036120398,22.2999992371,0.0,0.015873526439762208,0.046880915445629195
1648294612361480064,19069,8,1,0.0335372425616,0.0146502861753,-0.0292991939932,0.0,22.2999992371,0.011216469084147156,0.0048997612626421405,-0.00979906153618729,22.2999992371,0.0,0.016601988370738802,0.04688091607791967
1648294612361618941,19070,8,2,1.48359930515,-1.68478298187,0.674529969692,0.0,22.2999992371,0.4961870585785953,-0.5634725691872909,0.22559530758929763,22.2999992371,0.0,0.8999469597861215,2.344045919826022
1648294612361628713,19071,8,3,2.24224042892,-1.2306240797,0.591850578785,0.0,22.2999992371,0.7499131869297659,-0.4115799597658863,0.1979433373862876,22.2999992371,0.0,1.1376017049667273,2.6253313836978673
1648294612361630575,19072,8,4,0.971866965294,0.0922968015075,0.127258121967,0.161837622523,22.2999992371,0.3250391188274247,0.03086849548745819,0.042561244805016725,22.2999992371,0.021869948989594594,0.46071001893802643,0.9844992267162284
1648294612361634037,19073,8,5,0.999785661697,0.0673913136125,0.398163020611,0.161837622523,22.2999992371,0.33437647548394644,0.02253890087374582,0.13316488983645483,22.2999992371,0.021869948989594594,0.47341657846629015,1.078260983930793
1648294612361636561,19074,8,6,1.78078007698,0.0864366889,-2.11470174789,0.404594063759,22.2999992371,0.5955786210635451,0.02890859160535117,-0.7072581096622073,22.2999992371,0.05467487348094594,0.842771317976895,2.765974053798392
1648294612361637797,19075,8,7,0.455613255501,-1.0372402668,-2.52332353592,0.404594063759,22.2999992371,0.15237901521772573,-0.34690309926421403,-0.8439209150234113,22.2999992371,0.05467487348094594,0.40838766979007207,2.765974055660567
1648294612464670714,19076,9,0,0.0126699265093,0.0439508594573,0.0102769229561,0.0,16.7999992371,0.004237433615150501,0.014699284099431437,0.0034370979786287623,16.7999992371,0.0,0.015873898082116214,0.04688091541589194
1648294612464679822,19077,9,1,0.0335509069264,0.0146502861753,-0.0292835440487,0.0,16.7999992371,0.011221039105819395,0.0048997612626421405,-0.009793827441036788,16.7999992371,0.0,0.016608163584802046,0.0468809150151135
1648294612464683003,19078,9,2,1.49622678757,-1.68478298187,0.646036267281,0.0,16.7999992371,0.5004102968461538,-0.5634725691872909,0.2160656412311037,16.7999992371,0.0,0.9046116661893311,2.3440458942783473
1648294612464688590,19079,9,3,2.24284362793,-1.2306240797,0.589560270309,0.0,16.7999992371,0.750114925729097,-0.4115799597658863,0.19717734792943145,16.7999992371,0.0,1.1378676842603563,2.625331308084848
1648294612464718411,19080,9,4,1.01068866253,0.235869601369,0.29243928194,0.0809188112617,16.7999992371,0.33802296405685617,0.07888615430401337,0.09780577991304348,16.7999992371,0.010934974494824324,0.48450188214334317,1.078260995788234
1648294612464844212,19081,9,5,0.85575824976,-1.0372402668,-2.41711044312,0.404594063759,16.7999992371,0.2862067724949833,-0.34690309926421403,-0.8083981415117056,16.7999992371,0.05467487348094594,0.5330763486810378,2.765974050374189
1648294612465059959,19082,9,6,1.50105166435,0.3457467556,-2.29737138748,0.404594063759,16.7999992371,0.5020239680100335,0.11563436642140468,-0.7683516346086956,16.7999992371,0.05467487348094594,0.7193242909917319,2.765974007482285
1648294612465062623,19083,9,7,1.46012103558,-2.0949909687,0.357023715973,0.566431701183,16.7999992371,0.4883347945083612,-0.7006658758193979,0.11940592507458192,16.7999992371,0.07654482448418919,0.9838060848525031,2.5784504127954344
1648294612465064077,19084,9,8,0.804512381554,-1.12807202339,-2.1745390892,0.566431701183,16.7999992371,0.2690676861384615,-0.377281613173913,-0.7272705983946488,16.7999992371,0.07654482448418919,0.5358509635028395,2.578450486724084
1648294612465084854,19085,9,9,1.73569786549,-1.30827057362,0.361615568399,-0.647350490093,16.7999992371,0.5805009583578594,-0.4375486868294314,0.12094166167190634,16.7999992371,-0.08747979595851352,0.9302750016285218,2.2034030029422844
1648294612561418833,19086,10,0,0.0126474238932,0.0439508594573,0.0103046037257,0.0,22.8999996185,0.004229907656588629,0.014699284099431437,0.003446355761103679,22.8999996185,0.0,0.01586988313133818,0.04688091547861809
1648294612561422103,19087,10,1,0.0335372425616,0.0146502861753,-0.0292991939932,0.0,22.8999996185,0.011216469084147156,0.0048997612626421405,-0.00979906153618729,22.8999996185,0.0,0.016601988370738802,0.04688091607791967
1648294612561531031,19088,10,2,1.51987886429,-1.68478298187,0.5882396698,0.0,22.8999996185,0.5083206903979933,-0.5634725691872909,0.19673567551839463,22.8999996185,0.0,0.9133899412627181,2.3440459396608766
1648294612561555110,19089,10,3,2.24048566818,-1.2306240797,0.598458886147,0.0,22.8999996185,0.7493263104280935,-0.4115799597658863,0.2001534736277592,22.8999996185,0.0,1.1368280003063118,2.6253313492330377
1648294612561561525,19090,10,4,1.06877613068,0.366257160902,0.31178689003,0.323675245047,22.8999996185,0.3574502109297659,0.12249403374648829,0.10427655184949831,22.8999996185,0.04373989797932432,0.520140456887324,1.172022947820513
1648294612664664194,19091,11,0,0.0126474238932,0.0439508594573,0.0103046037257,0.0,29.7000007629,0.004229907656588629,0.014699284099431437,0.003446355761103679,29.7000007629,0.0,0.01586988313133818,0.04688091547861809
1648294612664669695,19092,11,1,0.0335877910256,0.0146502861753,-0.0292412284762,0.0,29.7000007629,0.011233374924949833,0.0048997612626421405,-0.009779675075652174,29.7000007629,0.0,0.016624833377807784,0.04688091332082697
1648294612664677401,19093,11,2,1.51368308067,-1.68478298187,0.604004085064,0.0,29.7000007629,0.5062485219632107,-0.5634725691872909,0.20200805520535117,29.7000007629,0.0,0.9110853243282965,2.344045882545687
1648294612664686150,19094,11,3,2.2364795208,-1.2306240797,0.613260507584,0.0,29.7000007629,0.74798646180602,-0.4115799597658863,0.205103848690301,29.7000007629,0.0,1.1350619178578172,2.625331354830749
1648294612664692788,19095,11,4,1.02900493145,0.421928226948,-0.170498684049,0.242756426334,29.7000007629,0.3441488065050167,0.14111311938060198,-0.05702297125384615,29.7000007629,0.03280492247756756,0.5067442298625401,1.1251419372267406
1648294612664871910,19096,11,5,1.05057168007,0.533270418644,0.312487244606,0.323675245047,29.7000007629,0.351361765909699,0.1783513105832776,0.10451078414916389,29.7000007629,0.04373989797932432,0.5279387948172941,1.218903799488417
1648294612664875772,19097,11,6,0.940927565098,0.370652228594,0.374057471752,0.404594063759,29.7000007629,0.3146914933438127,0.12396395605150501,0.1251028333618729,29.7000007629,0.05467487348094594,0.4619832619975071,1.078260983944262
1648294612664879465,19098,11,7,0.886447489262,0.293005734682,0.086524784565,0.566431701183,29.7000007629,0.2964707321946488,0.09799522899063544,0.028938055038461537,29.7000007629,0.07654482448418919,0.43057270582445123,0.9376182859348797
1648294612664884184,19099,11,8,0.580721080303,0.628497302532,-1.28886795044,-0.485512852669,29.7000007629,0.1942210970913043,0.21019976673311033,-0.4310595151973244,29.7000007629,-0.06560984495527027,0.3458722467116344,1.5470702718589386
1648294612664886676,19100,11,9,0.953507900238,1.20864868164,0.153027683496,-0.485512852669,29.7000007629,0.318898963290301,0.40423032830769223,0.051179827256187284,29.7000007629,-0.06560984495527027,0.6056362405759765,1.547070270984011
1648294612859594706,19101,13,0,0.0126699265093,0.0439508594573,0.0102769229561,0.0,23.0,0.004237433615150501,0.014699284099431437,0.0034370979786287623,23.0,0.0,0.015873898082116214,0.04688091541589194
1648294612859597191,19102,13,1,0.0335598774254,0.0146502861753,-0.0292732641101,0.0,23.0,0.01122403927270903,0.0048997612626421405,-0.009790389334481604,23.0,0.0,0.016612217661152825,0.046880915621238965
1648294612859599300,19103,13,2,1.51694464684,-1.68478298187,0.595765352249,0.0,23.0,0.5073393467692308,-0.5634725691872909,0.1992526261702341,23.0,0.0,0.9122980663067229,2.344045885326411
1648294612859603229,19104,13,3,2.24056482315,-1.2306240797,0.598162233829,0.0,23.0,0.7493527836622074,-0.4115799597658863,0.20005425880568561,23.0,0.0,1.1368628994058547,2.6253312953328316
1648294612964622353,19105,14,0,0.0126678450033,0.0439508594573,0.0102794887498,0.0,14.6999998093,0.004236737459297658,0.014699284099431437,0.0034379561036120398,14.6999998093,0.0,0.015873526439762208,0.046880915445629195
1648294612964625712,19106,14,1,0.0335509069264,0.0146502861753,-0.0292835440487,0.0,14.6999998093,0.011221039105819395,0.0048997612626421405,-0.009793827441036788,14.6999998093,0.0,0.016608163584802046,0.0468809150151135
1648294612964629241,19107,14,2,1.52396166325,-1.68478298187,0.577579915524,0.0,14.6999998093,0.5096861749999999,-0.5634725691872909,0.19317054030903008,14.6999998093,0.0,0.9149105585786993,2.3440459479010185
1648294612964631378,19108,14,3,2.24100518227,-1.2306240797,0.596510946751,0.0,14.6999998093,0.7495000609598661,-0.4115799597658863,0.19950198887993312,14.6999998093,0.0,1.1370570548739296,2.625331438522047
1648294613159697086,19109,16,0,0.0126678450033,0.0439508594573,0.0102794887498,0.0,14.6000003815,0.004236737459297658,0.014699284099431437,0.0034379561036120398,14.6000003815,0.0,0.015873526439762208,0.046880915445629195
1648294613159702657,19110,16,1,0.0335877910256,0.0146502861753,-0.0292412284762,0.0,14.6000003815,0.011233374924949833,0.0048997612626421405,-0.009779675075652174,14.6000003815,0.0,0.016624833377807784,0.04688091332082697
1648294613159823490,19111,16,2,1.50115180016,-1.68478298187,0.634508550167,0.0,14.6000003815,0.5020574582474916,-0.5634725691872909,0.21221021744715718,14.6000003815,0.0,0.9064351708701455,2.344045972961581
1648294613159825836,19112,16,3,2.24116325378,-1.2306240797,0.595916390419,0.0,14.6000003815,0.7495529276856187,-0.4115799597658863,0.19930314060836118,14.6000003815,0.0,1.1371267502284224,2.6253313505158236
1648294613159827761,19113,16,4,0.974201261997,0.892202436924,0.321362137794,0.404594063759,14.6000003815,0.3258198200658863,0.2983954638541806,0.10747897585083611,14.6000003815,0.05467487348094594,0.5489598921089633,1.3595465828492974
