%time,field.header.seq,field.header.frame_id,field.point_id,field.x,field.y,field.z,field.velocity,field.intensity,normalized_x,normalized_y,normalized_z,normalized_intensity,normalized_velocity,normalized_range,range
1648219802762195383,88665,0,0,0.0122477002442,0.0439508594573,0.01077664271,0.0,11.8000001907,0.004096220817458194,0.014699284099431437,0.0036042283311036784,11.8000001907,0.0,0.015799588697385562,0.04688091548174064
1648219802762203623,88666,0,1,0.0333878919482,0.0146502861753,-0.0294692683965,0.0,11.8000001907,0.011166519046220735,0.0048997612626421405,-0.009855942607525084,11.8000001907,0.0,0.016534508025644712,0.04688091289200561
1648219802762208976,88667,0,2,2.14157915115,-1.14272224903,0.225234776735,0.0,11.8000001907,0.716247207742475,-0.3821813541906354,0.07532935676755853,11.8000001907,0.0,1.0826276888611208,2.4378076428872317
1648219802762212461,88668,0,3,0.87754958868,0.870226979256,0.273537397385,-0.0809188112617,11.8000001907,0.29349484571237455,0.29104581246020067,0.09148407939297658,11.8000001907,-0.010934974494824324,0.5069379783268161,1.2657847304283691
1648219802957632114,88669,2,0,0.0122270965949,0.0439508594573,0.01080001425,0.0,11.5,0.004089329964849498,0.014699284099431437,0.0036120448996655517,11.5,0.0,0.01579601823747459,0.046880915583812514
1648219802957809104,88670,2,1,0.0333878919482,0.0146502861753,-0.0294692683965,0.0,11.5,0.011166519046220735,0.0048997612626421405,-0.009855942607525084,11.5,0.0,0.016534508025644712,0.04688091289200561
1648219802957817758,88671,2,2,2.14068603516,-1.14272224903,0.233570516109,0.0,11.5,0.7159485067424748,-0.3821813541906354,0.07811722946789297,11.5,0.0,1.0822324686057736,2.437807626855049
1648219802957839519,88672,2,3,0.953298389912,1.20864868164,0.154327332973,0.0809188112617,11.5,0.31882889294715716,0.40423032830769223,0.05161449263311036,11.5,0.010934974494824324,0.605562452831716,1.5470702574677986
1648219802957869197,88673,2,4,1.29363548756,1.22476398945,-0.0106362560764,0.0809188112617,11.5,0.4326540092173913,0.409620063361204,-0.003557276279732441,11.5,0.010934974494824324,0.7363202969440689,1.7814748761830466
1648219802957929479,88674,2,5,0.9311414361,0.83067125082,0.212536677718,-0.323675245047,11.5,0.3114185405016722,0.2778164718461538,0.0710825009090301,11.5,-0.04373989797932432,0.5207158599134735,1.2657847132655058
1648219803062783385,88675,3,0,0.0122477002442,0.0439508594573,0.01077664271,0.0,34.0999984741,0.004096220817458194,0.014699284099431437,0.0036042283311036784,34.0999984741,0.0,0.015799588697385562,0.04688091548174064
1648219803062811670,88676,3,1,0.0334016978741,0.0146502861753,-0.0294536203146,0.0,34.0999984741,0.011171136412742476,0.0048997612626421405,-0.009850709135317725,34.0999984741,0.0,0.016540744781753033,0.0468809135526118
1648219803062824138,88677,3,2,2.14168596268,-1.14272224903,0.224216237664,0.0,34.0999984741,0.7162829306622073,-0.3821813541906354,0.07498870824882943,34.0999984741,0.0,1.0826749563036306,2.4378075851881627
1648219803062848156,88678,3,3,1.13843882084,1.09584140778,0.209209725261,0.0809188112617,34.0999984741,0.38074876951170566,0.3665021430702341,0.06996980777959866,34.0999984741,0.010934974494824324,0.6513547972068912,1.593951081101489
1648219803062866038,88679,3,4,0.769675016403,0.808695793152,-0.139842808247,-0.566431701183,34.0999984741,0.25741639344581935,0.2704668204521739,-0.04677016998227424,34.0999984741,-0.07654482448418919,0.4535181365665702,1.1251420033733999
1648219803258007533,88680,5,0,0.0122477002442,0.0439508594573,0.01077664271,0.0,32.5,0.004096220817458194,0.014699284099431437,0.0036042283311036784,32.5,0.0,0.015799588697385562,0.04688091548174064
1648219803258119492,88681,5,1,0.0334718860686,0.0146502861753,-0.0293738357723,0.0,32.5,0.01119461072528428,0.0048997612626421405,-0.009824025341906354,32.5,0.0,0.016572455430991152,0.04688091583987642
1648219803258149690,88682,5,2,1.0807570219,1.14565241337,0.245203658938,0.0,32.5,0.3614571979598662,0.383161342264214,0.08200791268829431,32.5,0.0,0.6388389672833914,1.5939510742187932
1648219803258194197,88683,5,3,2.1419210434,-1.14272224903,0.221958488226,0.0,32.5,0.7163615529765885,-0.3821813541906354,0.07423360810234113,32.5,0.0,1.0827789879089118,2.4378075119015237
1648219803258411469,88684,5,4,2.52039337158,1.05482065678,0.668673157692,0.485512852669,32.5,0.8429409269498327,0.352782828354515,0.22363650758929762,32.5,0.06560984495527027,1.2432033368021087,2.8128549833384553
1648219803258425577,88685,5,5,2.76321101189,-0.351606875658,0.391396254301,0.485512852669,32.5,0.92415084009699,-0.11759427279531771,0.13090175729130435,32.5,0.06560984495527027,1.31222633851718,2.812855047655494
1648219803258441815,88686,5,6,0.967961013317,0.354536950588,0.0331676267087,-0.485512852669,32.5,0.32373278037357855,0.11857423096588628,0.011092851742040133,32.5,-0.06560984495527027,0.4729330549094307,1.0313801743757725
1648219803362773766,88687,6,0,0.0122477002442,0.0439508594573,0.01077664271,0.0,32.5999984741,0.004096220817458194,0.014699284099431437,0.0036042283311036784,32.5999984741,0.0,0.015799588697385562,0.04688091548174064
1648219803362801740,88688,6,1,0.0333878919482,0.0146502861753,-0.0294692683965,0.0,32.5999984741,0.011166519046220735,0.0048997612626421405,-0.009855942607525084,32.5999984741,0.0,0.016534508025644712,0.04688091289200561
1648219803362837418,88689,6,2,1.11541962624,1.09584140778,0.309274792671,0.0,32.5999984741,0.3730500422207358,0.3665021430702341,0.10343638550869565,32.5999984741,0.0,0.6423834438066255,1.5939511382060378
1648219803362855137,88690,6,3,2.143253088,-1.14272224903,0.208704337478,0.0,32.5999984741,0.7168070528428092,-0.3821813541906354,0.06980078176521738,32.5999984741,0.0,1.0833684920198554,2.4378075063736775
1648219803362885637,88691,6,4,0.911596536636,1.95434808731,0.0101208826527,0.566431701183,32.5999984741,0.30488178482809364,0.6536281228461538,0.0033849105861872906,32.5999984741,0.07654482448418919,0.7830297110680504,2.156521997162254
1648219803362902059,88692,6,5,0.406007558107,-1.02845013142,-2.27734327316,-0.647350490093,32.5999984741,0.1357884809722408,-0.3439632546555184,-0.7616532686153846,32.5999984741,-0.08747979595851352,0.39393875625877967,2.531569511955958
1648219803362985915,88693,6,6,1.57804656029,-1.97778868675,0.083456069231,-0.647350490093,32.5999984741,0.5277747693277591,-0.6614677882107023,0.02791172883979933,32.5999984741,-0.08747979595851352,0.9973124129971999,2.5315694640619446
1648219803362996069,88694,6,7,0.960154116154,0.215359210968,0.0310350582004,-0.161837622523,32.5999984741,0.3211217779779264,0.07202649196254181,0.010379618127224079,32.5999984741,-0.021869948989594594,0.45981105698736674,0.9844992084068583
1648219803557890874,88695,8,0,0.0122404424474,0.0439508594573,0.0107848858461,0.0,34.0999984741,0.004093793460668896,0.014699284099431437,0.0036069852328093643,34.0999984741,0.0,0.015798330381183598,0.046880915531342354
1648219803557961153,88696,8,1,0.0334718860686,0.0146502861753,-0.0293738357723,0.0,34.0999984741,0.01119461072528428,0.0048997612626421405,-0.009824025341906354,34.0999984741,0.0,0.016572455430991152,0.04688091583987642
1648219803557971508,88697,8,2,1.15179896355,1.09584140778,0.11476547271,0.0,34.0999984741,0.38521704466555184,0.3665021430702341,0.03838310124080267,34.0999984741,0.0,0.6565882757686112,1.5939511777863389
1648219803557981199,88698,8,3,2.14337134361,-1.14272224903,0.207486703992,0.0,34.0999984741,0.7168466032140468,-0.3821813541906354,0.06939354648561873,34.0999984741,0.0,1.0834208289349168,2.4378075369828074
1648219803557991454,88699,8,4,1.15760934353,0.183128580451,0.00651539629325,0.242756426334,34.0999984741,0.38716031556187286,0.061247016873244145,0.0021790623054347828,34.0999984741,0.03280492247756756,0.5509422991274217,1.1720230030143666
1648219803558007937,88700,8,5,0.447142064571,1.27457487583,0.154562816024,0.242756426334,34.0999984741,0.14954584099364546,0.4262792226856187,0.05169324950635451,34.0999984741,0.03280492247756756,0.4758591102526552,1.3595465435589709
1648219803558041820,88701,8,6,0.978237628937,-0.0922968015075,-0.0614101812243,0.485512852669,34.0999984741,0.327169775564214,-0.03086849548745819,-0.020538522148595317,34.0999984741,0.06560984495527027,0.4637164953925357,0.9844992476354666
1648219803558200035,88702,8,7,0.621266722679,-0.193383783102,-0.800234615803,-0.485512852669,34.0999984741,0.2077815126016722,-0.06467685053578595,-0.2676369952518395,34.0999984741,-0.06560984495527027,0.3008810544938085,1.031380176561738
1648219803558232810,88703,8,8,0.995034992695,0.193383783102,0.190402448177,-0.485512852669,34.0999984741,0.3327876229749164,0.06467685053578595,0.0636797485541806,34.0999984741,-0.06560984495527027,0.47505610090369177,1.0313801513148173
1648219803662845436,88704,9,0,0.0122477002442,0.0439508594573,0.01077664271,0.0,34.2999992371,0.004096220817458194,0.014699284099431437,0.0036042283311036784,34.2999992371,0.0,0.015799588697385562,0.04688091548174064
1648219803662889049,88705,9,1,0.0333878919482,0.0146502861753,-0.0294692683965,0.0,34.2999992371,0.011166519046220735,0.0048997612626421405,-0.009855942607525084,34.2999992371,0.0,0.016534508025644712,0.04688091289200561
1648219803662917864,88706,9,2,1.25934863091,1.19253325462,-0.0268615111709,0.0,34.2999992371,0.4211868330802675,0.3988405533846154,-0.008983783000301003,34.2999992371,0.0,0.7168476014778291,1.7345939231796716
1648219803662946759,88707,9,3,0.354885071516,-1.62618172169,0.488268077374,0.0,34.2999992371,0.11869065936989966,-0.5438734855150501,0.1633003603257525,34.2999992371,0.0,0.5691865366376936,1.7345939355728395
1648219803662974181,88708,9,4,2.14156079292,-1.14272224903,0.225408732891,0.0,34.2999992371,0.7162410678662207,-0.3821813541906354,0.07538753608394648,34.2999992371,0.0,1.0826195647997852,2.4378075939384236
1648219803663003474,88709,9,5,1.10897743702,1.09584140778,0.331633716822,0.0809188112617,34.2999992371,0.37089546388628764,0.3665021430702341,0.11091428656254179,34.2999992371,0.010934974494824324,0.6398833574472174,1.5939511501165509
1648219803663058769,88710,9,6,1.0760011673,0.0336956568062,-0.061096880585,-0.404594063759,34.2999992371,0.35986661113712376,0.011269450436856187,-0.020433739326086955,34.2999992371,-0.05467487348094594,0.5090529993387569,1.0782609786762116
1648219803857855475,88711,11,0,0.0122180348262,0.0439508594573,0.0108102643862,0.0,40.7999992371,0.004086299272976588,0.014699284099431437,0.003615473038862876,40.7999992371,0.0,0.015794449548257636,0.046880915500330377
1648219803857882879,88712,11,1,0.0333878919482,0.0146502861753,-0.0294692683965,0.0,40.7999992371,0.011166519046220735,0.0048997612626421405,-0.009855942607525084,40.7999992371,0.0,0.016534508025644712,0.04688091289200561
1648219803857906914,88713,11,2,1.07408928871,1.14565241337,0.27293369174,0.0,40.7999992371,0.35922718685953176,0.383161342264214,0.09128217115050166,40.7999992371,0.0,0.636318283380055,1.5939510822070055
1648219803857935013,88714,11,3,1.12459552288,-0.656332850456,0.1661426723,0.161837622523,40.7999992371,0.3761189039732441,-0.21950931453377925,0.05556611113712374,40.7999992371,0.021869948989594594,0.5754261021357638,1.3126657183869865
1648219803857965188,88715,11,4,1.08269286156,-0.533270418644,0.170660987496,0.323675245047,40.7999992371,0.3621046359732441,-0.1783513105832776,0.05707725334314381,40.7999992371,0.04373989797932432,0.5422625976161403,1.2189037470312567
1648219803962706618,88716,12,0,0.0123359980062,0.0439508594573,0.0106754545122,0.0,31.7000007629,0.004125751841538461,0.014699284099431437,0.003570386124481605,31.7000007629,0.0,0.01581494892662363,0.04688091533754816
1648219803962752501,88717,12,1,0.0333878919482,0.0146502861753,-0.0294692683965,0.0,31.7000007629,0.011166519046220735,0.0048997612626421405,-0.009855942607525084,31.7000007629,0.0,0.016534508025644712,0.04688091289200561
1648219803962779781,88718,12,2,1.14846980572,1.09584140778,0.144322112203,0.0,31.7000007629,0.3841036139531772,0.3665021430702341,0.048268264950836116,31.7000007629,0.0,0.6552823768260956,1.5939511152248436
1648219803962800366,88719,12,3,1.03778147697,-0.672448158264,0.270248025656,0.404594063759,31.7000007629,0.3470841060100334,-0.22489904958662205,0.09038395506889631,31.7000007629,0.05467487348094594,0.5399206754649558,1.2657847032041611
1648219804157819815,88720,14,0,0.0122404424474,0.0439508594573,0.0107848858461,0.0,28.2999992371,0.004093793460668896,0.014699284099431437,0.0036069852328093643,28.2999992371,0.0,0.015798330381183598,0.046880915531342354
1648219804157862474,88721,14,1,0.0333878919482,0.0146502861753,-0.0294692683965,0.0,28.2999992371,0.011166519046220735,0.0048997612626421405,-0.009855942607525084,28.2999992371,0.0,0.016534508025644712,0.04688091289200561
1648219804158005444,88722,14,2,1.15116214752,1.09584140778,0.120985955,0.0,28.2999992371,0.385004062715719,0.3665021430702341,0.04046353010033445,28.2999992371,0.0,0.656338386421435,1.5939511542689673
1648219804158016530,88723,14,3,2.12356424332,-1.14272224903,0.357164174318,0.0,28.2999992371,0.7102221549565217,-0.3821813541906354,0.119452901109699,28.2999992371,0.0,1.0746597630288197,2.4378075152381666
1648219804158023409,88724,14,4,1.01415026188,-0.892202436924,0.154405280948,0.323675245047,28.2999992371,0.33918068959197323,-0.2983954638541806,0.05164056218996655,28.2999992371,0.04373989797932432,0.5649132085842254,1.3595465909298687
1648219804158029288,88725,14,5,1.0562325716,-0.779395282269,0.00262451521121,0.485512852669,28.2999992371,0.3532550406688963,-0.2606673184846154,0.0008777642846856187,28.2999992371,0.06560984495527027,0.5634941866975444,1.3126656617021781
1648219804262813411,88726,15,0,0.00569708272815,0.0454158857465,0.010137100704,0.0,24.2999992371,0.0019053788388461539,0.015189259446989964,0.00339033468361204,24.2999992371,0.0,0.015426423421746835,0.046880915524694734
1648219804262869747,88727,15,1,0.0333878919482,0.0146502861753,-0.0294692683965,0.0,24.2999992371,0.011166519046220735,0.0048997612626421405,-0.009855942607525084,24.2999992371,0.0,0.016534508025644712,0.04688091289200561
1648219804262892626,88728,15,2,1.14752316475,1.09584140778,0.151665762067,0.0,24.2999992371,0.3837870116220735,0.3665021430702341,0.05072433513946488,24.2999992371,0.0,0.6549112622750334,1.5939511623718186
1648219804262955588,88729,15,3,2.13291430473,-1.14272224903,0.296257823706,0.0,24.2999992371,0.7133492657959866,-0.3821813541906354,0.09908288418260869,24.2999992371,0.0,1.0787942053581556,2.437807676552245
1648219804262986249,88730,15,4,1.1198554039,-0.908317685127,0.181625768542,0.485512852669,24.2999992371,0.3745335798996655,-0.3037851789722408,0.06074440419464882,24.2999992371,0.06560984495527027,0.6106031771192438,1.4533083164136151
1648219804263029438,88731,15,5,1.0030721426,-0.922968029976,0.346431225538,0.566431701183,24.2999992371,0.3354756329765886,-0.30868495985819394,0.11586328613311035,24.2999992371,0.07654482448418919,0.5660160820018636,1.4064274960500787
1648219804457808742,88732,17,0,0.0122609948739,0.0439508594573,0.0107615143061,0.0,24.2000007629,0.004100667181906354,0.014699284099431437,0.003599168664247491,24.2000007629,0.0,0.01580189532016098,0.046880915440011765
1648219804457871865,88733,17,1,0.0334108844399,0.0146502861753,-0.0294432006776,0.0,24.2000007629,0.011174208842775918,0.0048997612626421405,-0.009847224306889632,24.2000007629,0.0,0.01654489489101794,0.04688091456249508
1648219804457902766,88734,17,2,1.12175488472,1.09584140778,0.285443246365,0.0,24.2000007629,0.37516885776588627,0.3665021430702341,0.09546596868394648,24.2000007629,0.0,0.6448466209493494,1.593951147085074
1648219804457934444,88735,17,3,1.08388161659,-1.03138017654,0.109651453793,0.161837622523,24.2000007629,0.3625022129063545,-0.34494320285618724,0.03667272702107023,24.2000007629,0.021869948989594594,0.6179008997571477,1.5001892776114458
