%time,field.header.seq,field.header.frame_id,field.point_id,field.x,field.y,field.z,field.velocity,field.intensity,normalized_x,normalized_y,normalized_z,normalized_intensity,normalized_velocity,normalized_range,range
1648219210854559606,66562,0,0,0.00558340921998,0.0454158857465,0.0102001521736,0.0,12.5,0.0018673609431371235,0.015189259446989964,0.0034114221316387957,12.5,0.0,0.01541712282924028,0.04688091553096522
1648219210854566867,66563,0,1,0.0334149859846,0.0146502861753,-0.0294385440648,0.0,12.5,0.011175580596856187,0.0048997612626421405,-0.009845666911304347,12.5,0.0,0.01654674783105567,0.04688091349391959
1648219210854571409,66564,0,2,2.1245059967,-1.14272224903,0.351519405842,0.0,12.5,0.7105371226421404,-0.3821813541906354,0.11756501867625417,12.5,0.0,1.0750760869799552,2.4378075726205206
1648219210854589826,66565,0,3,0.874497175217,-0.769140064716,0.131590142846,-0.0809188112617,12.5,0.2924739716444816,-0.2572374798381271,0.04401008121939799,12.5,-0.010934974494824324,0.4870864083635109,1.1720229154364157
1648219211050165938,66566,2,0,0.00552072422579,0.0454158857465,0.0102342152968,0.0,12.6000003815,0.0018463960621371235,0.015189259446989964,0.0034228144805351166,12.6000003815,0.0,0.015412071871897198,0.04688091548655616
1648219211050195267,66567,2,1,0.0334378667176,0.0146502861753,-0.029412554577,0.0,12.6000003815,0.01118323301591973,0.0048997612626421405,-0.009836974774916388,12.6000003815,0.0,0.016557084942936142,0.04688091490561134
1648219211050369373,66568,2,2,1.70486330986,-1.53828012943,0.470835715532,0.0,12.6000003815,0.5701883979464882,-0.5144749596755852,0.15747013897391302,12.6000003815,0.0,0.9565114230571221,2.344045847018889
1648219211050382206,66569,2,3,1.78891062737,-0.659262895584,-1.36371636391,0.0,12.6000003815,0.5982978686856186,-0.22048926273712371,-0.45609242940133776,12.6000003815,0.0,0.8743776039731735,2.3440458867963825
1648219211050396748,66570,2,4,2.14264392853,-1.14272224903,0.214867964387,0.0,12.6000003815,0.7166033205785953,-0.3821813541906354,0.07186219544715719,12.6000003815,0.0,1.0830988992790667,2.4378074954791784
1648219211050424089,66571,2,5,0.454405128956,-0.556710898876,-0.526309907436,0.0809188112617,12.6000003815,0.15197495951705683,-0.18619093607892975,-0.17602338041337792,12.6000003815,0.010934974494824324,0.2843586491006916,0.8907374275363834
1648219211050444583,66572,2,6,1.23100686073,-1.2804350853,0.136969521642,0.242756426334,12.6000003815,0.4117079801772575,-0.42823915896321063,0.0458092045625418,12.6000003815,0.03280492247756756,0.722769464734636,1.7814748240405718
1648219211050474064,66573,2,7,0.852716326714,-0.580151319504,-0.006653690245,-0.647350490093,12.6000003815,0.2851894069277592,-0.19403054164013378,-0.002225314463210702,12.6000003815,-0.08747979595851352,0.44756434926921707,1.031380123407818
1648219211155092459,66574,3,0,0.00556060066447,0.0454158857465,0.0102126039565,0.0,27.6000003815,0.001859732663702341,0.015189259446989964,0.003415586607525083,27.6000003815,0.0,0.015415278580319484,0.04688091549299315
1648219211155184724,66575,3,1,0.033385772258,0.0146502861753,-0.0294716712087,0.0,27.6000003815,0.01116581011973244,0.0048997612626421405,-0.009856746223645484,27.6000003815,0.0,0.016533550486532746,0.04688091379351458
1648219211155217556,66576,3,2,1.67309606075,-1.53828012943,0.573580682278,0.0,27.6000003815,0.5595638999163879,-0.5144749596755852,0.19183300410635448,27.6000003815,0.0,0.9438792297282899,2.3440458579513415
1648219211155244826,66577,3,3,1.45134270191,-0.586011469364,-1.74492013454,0.0,27.6000003815,0.4853988969598662,-0.19599045798127088,-0.583585329277592,27.6000003815,0.0,0.7138882531316915,2.34404593737765
1648219211155261299,66578,3,4,1.37951278687,-1.19985842705,-0.0129895824939,0.485512852669,27.6000003815,0.4613755140033444,-0.40129044382943135,-0.004344341971204013,27.6000003815,0.06560984495527027,0.7660083225086542,1.828355682944131
1648219211155281111,66579,3,5,0.868064701557,-0.461484014988,0.0522959046066,-0.566431701183,27.6000003815,0.290322642661204,-0.15434247992909697,0.017490269099197323,27.6000003815,-0.07654482448418919,0.4386297696169675,0.9844992045793185
1648219211350147996,66580,5,0,0.00571720162407,0.0454158857465,0.0101257674396,0.0,37.5999984741,0.0019121075665785954,0.015189259446989964,0.0033865442941806018,37.5999984741,0.0,0.015428088450624988,0.04688091550716852
1648219211350216025,66581,5,1,0.033385772258,0.0146502861753,-0.0294716712087,0.0,37.5999984741,0.01116581011973244,0.0048997612626421405,-0.009856746223645484,37.5999984741,0.0,0.016533550486532746,0.04688091379351458
1648219211350232913,66582,5,2,2.10478019714,-1.21890377998,0.164558261633,0.0,37.5999984741,0.703939865264214,-0.407660127083612,0.055036207904013375,37.5999984741,0.0,1.0757552914256228,2.4378075241072468
1648219211350245412,66583,5,3,0.45203229785,-0.0922968015075,0.869705021381,0.485512852669,37.5999984741,0.15118137051839464,-0.03086849548745819,0.2908712446090301,37.5999984741,0.06560984495527027,0.2160196231764593,0.9844992240136057
1648219211350253044,66584,5,4,0.875106334686,-0.139177724719,0.0907281041145,-0.647350490093,37.5999984741,0.2926777039083612,-0.04654773401973244,0.030343847529933108,37.5999984741,-0.08747979595851352,0.4165179087056311,0.8907374051547037
1648219211350444359,66585,5,5,1.0062122345,1.58223092556,-0.0243879333138,-0.0809188112617,37.5999984741,0.33652583093645483,0.5291742225953177,-0.008156499436053512,37.5999984741,-0.010934974494824324,0.7117054360016519,1.8752366607837143
1648219211455260374,66586,6,0,0.00556060066447,0.0454158857465,0.0102126039565,0.0,15.8000001907,0.001859732663702341,0.015189259446989964,0.003415586607525083,15.8000001907,0.0,0.015415278580319484,0.04688091549299315
1648219211455318350,66587,6,1,0.033385772258,0.0146502861753,-0.0294716712087,0.0,15.8000001907,0.01116581011973244,0.0048997612626421405,-0.009856746223645484,15.8000001907,0.0,0.016533550486532746,0.04688091379351458
1648219211455340719,66588,6,2,2.09886837006,-1.21890377998,0.227883920074,0.0,15.8000001907,0.7019626655719062,-0.407660127083612,0.07621535788428092,15.8000001907,0.0,1.073168182032741,2.437807609454886
1648219211455375860,66589,6,3,0.838239312172,-0.0,0.0972038656473,-0.485512852669,15.8000001907,0.2803475960441471,-0.0,0.03250965406264214,15.8000001907,-0.06560984495527027,0.3964713725043267,0.8438564664487475
1648219211455383338,66590,6,4,0.933597028255,-0.0586011447012,-0.0639579296112,-0.404594063759,15.8000001907,0.31223980878093643,-0.019599045050568562,-0.021390611910100336,15.8000001907,-0.05467487348094594,0.4420085055086675,0.9376183243127287
1648219211650027501,66591,8,0,0.00558340921998,0.0454158857465,0.0102001521736,0.0,38.9000015259,0.0018673609431371235,0.015189259446989964,0.0034114221316387957,38.9000015259,0.0,0.01541712282924028,0.04688091553096522
1648219211650088309,66592,8,1,0.033385772258,0.0146502861753,-0.0294716712087,0.0,38.9000015259,0.01116581011973244,0.0048997612626421405,-0.009856746223645484,38.9000015259,0.0,0.016533550486532746,0.04688091379351458
1648219211650106825,66593,8,2,0.906863868237,1.64083206654,-0.0421946831048,0.0,38.9000015259,0.3032989525876254,0.5487732664013377,-0.01411193414876254,38.9000015259,0.0,0.6965146137722416,1.875236608372932
1648219211650145409,66594,8,3,2.09494042397,-1.21890377998,0.261540591717,0.0,38.9000015259,0.7006489712274246,-0.407660127083612,0.08747176980501671,38.9000015259,0.0,1.0714498312930585,2.4378074751605823
1648219211650171455,66595,8,4,0.868893027306,0.32230630517,0.142378300428,0.323675245047,38.9000015259,0.29059967468428094,0.10779475089297658,0.04761816067826087,38.9000015259,0.04373989797932432,0.42487180439904304,0.9376182739719231
1648219211650193654,66596,8,5,2.14833641052,-1.28922522068,-0.609060645103,-0.647350490093,38.9000015259,0.71850716070903,-0.4311790035719063,-0.20369921240903008,38.9000015259,-0.08747979595851352,1.1038208247272587,2.578450284922444
1648219211755221683,66597,9,0,0.00552072422579,0.0454158857465,0.0102342152968,0.0,13.3999996185,0.0018463960621371235,0.015189259446989964,0.0034228144805351166,13.3999996185,0.0,0.015412071871897198,0.04688091548655616
1648219211755249797,66598,9,1,0.033385772258,0.0146502861753,-0.0294716712087,0.0,13.3999996185,0.01116581011973244,0.0048997612626421405,-0.009856746223645484,13.3999996185,0.0,0.016533550486532746,0.04688091379351458
1648219211755263064,66599,9,2,2.10031676292,-1.21890377998,0.214125007391,0.0,13.3999996185,0.7024470778996654,-0.407660127083612,0.07161371484648829,13.3999996185,0.0,1.0738019248042834,2.437807713549712
1648219211949959983,66600,11,0,0.00556060066447,0.0454158857465,0.0102126039565,0.0,13.0,0.001859732663702341,0.015189259446989964,0.003415586607525083,13.0,0.0,0.015415278580319484,0.04688091549299315
1648219211950005488,66601,11,1,0.0333628132939,0.0146502861753,-0.0294976588339,0.0,13.0,0.011158131536421404,0.0048997612626421405,-0.0098654377370903,13.0,0.0,0.016523179451880688,0.04688091373451434
1648219211950033982,66602,11,2,2.13943099976,-1.14272224903,0.244799286127,0.0,13.0,0.7155287624615384,-0.3821813541906354,0.08187267094548495,13.0,0.0,1.0816771271088566,2.4378075870852776
1648219211950061347,66603,11,3,0.830533623695,0.73837441206,0.175959020853,0.566431701183,13.0,0.27777044270735785,0.24694796389966553,0.058849170853846146,13.0,0.07654482448418919,0.46400014499768605,1.1251419685943835
1648219212055104840,66604,12,0,0.00558340921998,0.0454158857465,0.0102001521736,0.0,37.7000007629,0.0018673609431371235,0.015189259446989964,0.0034114221316387957,37.7000007629,0.0,0.01541712282924028,0.04688091553096522
1648219212055135996,66605,12,1,0.0334981679916,0.0146502861753,-0.0293438583612,0.0,37.7000007629,0.011203400666086955,0.0048997612626421405,-0.009813999451906355,37.7000007629,0.0,0.016584330960296344,0.04688091474506239
1648219212055180637,66606,12,2,2.14301753044,-1.14272224903,0.211110413074,0.0,37.7000007629,0.7167282710501671,-0.3821813541906354,0.07060548932240802,37.7000007629,0.0,1.0832642413262388,2.4378075971474065
1648219212055221243,66607,12,3,0.712131202221,0.843856453896,0.216147869825,0.0809188112617,37.7000007629,0.23817097064247492,0.28222623876120395,0.07229025746655518,37.7000007629,0.010934974494824324,0.43943426397910007,1.1251419757473027
1648219212055231944,66608,12,4,0.787542581558,0.707608819008,-0.204238012433,0.323675245047,37.7000007629,0.2633921677451505,0.23665846789565215,-0.0683070275695652,37.7000007629,0.04373989797932432,0.4413140587899919,1.0782609722268157
1648219212250073771,66609,14,0,0.00558340921998,0.0454158857465,0.0102001521736,0.0,30.5,0.0018673609431371235,0.015189259446989964,0.0034114221316387957,30.5,0.0,0.01541712282924028,0.04688091553096522
1648219212250165262,66610,14,1,0.0334518700838,0.0146502861753,-0.0293966270983,0.0,30.5,0.011187916415986623,0.0048997612626421405,-0.00983164785896321,30.5,0.0,0.016563411722622077,0.0468809149001822
1648219212250173476,66611,14,2,2.10247612,-1.21890377998,0.191764906049,0.0,30.5,0.70316927090301,-0.407660127083612,0.06413542008327759,30.5,0.0,1.0747468661495914,2.4378076296565667
1648219212354901044,66612,15,0,0.00558340921998,0.0454158857465,0.0102001521736,0.0,13.8000001907,0.0018673609431371235,0.015189259446989964,0.0034114221316387957,13.8000001907,0.0,0.01541712282924028,0.04688091553096522
1648219212354933142,66613,15,1,0.0333998277783,0.0146502861753,-0.0294557418674,0.0,13.8000001907,0.01117051096264214,0.0048997612626421405,-0.009851418684749163,13.8000001907,0.0,0.016539899962330636,0.0468809141292828
1648219212354947793,66614,15,2,2.10548043251,-1.21890377998,0.155343368649,0.0,13.8000001907,0.7041740576956521,-0.407660127083612,0.05195430389598662,13.8000001907,0.0,1.0760617948226514,2.4378075885342647
1648219212354962714,66615,15,3,0.74303996563,0.843856453896,0.0417415127158,-0.323675245047,13.8000001907,0.24850834970903007,0.28222623876120395,0.013960372145752506,13.8000001907,-0.04373989797932432,0.4507376727049862,1.125141972903494
1648219212550100166,66616,17,0,0.00552072422579,0.0454158857465,0.0102342152968,0.0,32.2999992371,0.0018463960621371235,0.015189259446989964,0.0034228144805351166,32.2999992371,0.0,0.015412071871897198,0.04688091548655616
1648219212550147894,66617,17,1,0.033385772258,0.0146502861753,-0.0294716712087,0.0,32.2999992371,0.01116581011973244,0.0048997612626421405,-0.009856746223645484,32.2999992371,0.0,0.016533550486532746,0.04688091379351458
1648219212550232396,66618,17,2,0.871586799622,1.59981119633,0.154354304075,0.0,32.2999992371,0.29150060188026755,0.5350539118160534,0.05162351306856187,32.2999992371,0.0,0.6754464378044921,1.8283557269756407
1648219212550319931,66619,17,3,2.10128593445,-1.21890377998,0.204393446445,0.0,32.2999992371,0.702771215535117,-0.407660127083612,0.0683590121889632,32.2999992371,0.0,1.0742260199712341,2.437807556825724
1648219212550331242,66620,17,4,0.712481498718,0.808695793152,0.0320621877909,-0.323675245047,32.2999992371,0.23828812666153845,0.2704668204521739,0.010723139729397991,32.2999992371,-0.04373989797932432,0.4321050376716745,1.0782609868501822
1648219212655085015,66621,18,0,0.00552072422579,0.0454158857465,0.0102342152968,0.0,31.3999996185,0.0018463960621371235,0.015189259446989964,0.0034228144805351166,31.3999996185,0.0,0.015412071871897198,0.04688091548655616
1648219212655121845,66622,18,1,0.033385772258,0.0146502861753,-0.0294716712087,0.0,31.3999996185,0.01116581011973244,0.0048997612626421405,-0.009856746223645484,31.3999996185,0.0,0.016533550486532746,0.04688091379351458
1648219212655132261,66623,18,2,2.104211092,-1.21890377998,0.171685144305,0.0,31.3999996185,0.7037495290969898,-0.407660127083612,0.05741978070401338,31.3999996185,0.0,1.075506196459275,2.4378077309993897
1648219212655145254,66624,18,3,0.611070454121,0.769140005112,-0.0652323141694,-0.161837622523,31.3999996185,0.2043713893381271,0.2572374599036789,-0.021816827481404677,31.3999996185,-0.021869948989594594,0.386919165120687,0.9844992139027983
1648219212850066810,66625,20,0,0.00554762780666,0.0454158857465,0.0102196568623,0.0,18.2000007629,0.001855393915270903,0.015189259446989964,0.0034179454388963207,18.2000007629,0.0,0.015414232893972455,0.046880915507309835
1648219212850151060,66626,20,1,0.033385772258,0.0146502861753,-0.0294716712087,0.0,18.2000007629,0.01116581011973244,0.0048997612626421405,-0.009856746223645484,18.2000007629,0.0,0.016533550486532746,0.04688091379351458
1648219212850175862,66627,20,2,0.713977515697,0.741304516792,0.0666988268495,0.0,18.2000007629,0.2387884667882943,0.2479279320374582,0.02230729994966555,18.2000007629,0.0,0.41893689647317905,1.0313801496248511
1648219212850187481,66628,20,3,0.903311729431,1.64083206654,0.0906117632985,0.0,18.2000007629,0.3021109462979933,0.5487732664013377,0.030304937558026754,18.2000007629,0.0,0.6954812331493435,1.875236636470612
1648219212850200210,66629,20,4,2.10615134239,-1.21890377998,0.145968064666,0.0,18.2000007629,0.704398442270903,-0.407660127083612,0.04881875072441472,18.2000007629,0.0,1.0763554757426452,2.4378077401228895
1648219212954938047,66630,21,0,0.00558340921998,0.0454158857465,0.0102001521736,0.0,11.6000003815,0.0018673609431371235,0.015189259446989964,0.0034114221316387957,11.6000003815,0.0,0.01541712282924028,0.04688091553096522
1648219212954954680,66631,21,1,0.0334694497287,0.0146502861753,-0.0293766111135,0.0,11.6000003815,0.011193795895886286,0.0048997612626421405,-0.009824953549665552,11.6000003815,0.0,0.016571354608130556,0.04688091542060558
1648219212954961751,66632,21,2,0.487251698971,-0.528875350952,-0.525632798672,0.0,11.6000003815,0.16296043443846153,-0.17688138827826086,-0.1757969226327759,11.6000003815,0.0,0.2905154589759194,0.8907374439387211
1648219212954988351,66633,21,3,0.691339552402,0.741304516792,0.190426468849,0.0,11.6000003815,0.23121724160602003,0.2479279320374582,0.06368778222374581,11.6000003815,0.0,0.4103548283085795,1.0313801449368305
1648219212955012087,66634,21,4,2.10042977333,-1.21890377998,0.213013008237,0.0,11.6000003815,0.7024848740234114,-0.407660127083612,0.07124180877491638,11.6000003815,0.0,1.0738513750408867,2.4378076624743845
