%time,field.header.seq,field.header.frame_id,field.point_id,field.x,field.y,field.z,field.velocity,field.intensity,normalized_x,normalized_y,normalized_z,normalized_intensity,normalized_velocity,normalized_range,range
1648127453498379558,110674,0,0,0.0125934295356,0.0439508594573,0.0103705218062,0.0,13.6000003815,0.004211849343010033,0.014699284099431437,0.0034684019418729094,13.6000003815,0.0,0.01586027436119016,0.046880915488462134
1648127453498401462,110675,0,1,0.0328607447445,0.0146502861753,-0.0300559606403,0.0,13.6000003815,0.010990215633612039,0.0048997612626421405,-0.010052160749264214,13.6000003815,0.0,0.016296543798531928,0.04688091509551231
1648127453498405095,110676,0,2,0.0492250695825,-1.58955609798,0.404002726078,0.0,13.6000003815,0.01646323397408027,-0.5316241130367892,0.13511796858795985,13.6000003815,0.0,0.5321336990906735,1.6408320751311698
1648127453498408494,110677,0,3,1.85926282406,-1.31852579117,0.546975910664,0.0,13.6000003815,0.621827031458194,-0.44097852547491634,0.1829350871785953,13.6000003815,0.0,0.9837681505488226,2.344045894977049
1648127453498411411,110678,0,4,0.667141675949,-0.219754293561,-0.0337577499449,-0.647350490093,13.6000003815,0.22312430633745817,-0.07349641925117056,-0.011290217372876254,13.6000003815,-0.08747979595851352,0.32399172180765295,0.7032137306735962
1648127453498418258,110679,0,5,0.658632397652,-0.197778865695,0.146957308054,-0.323675245047,13.6000003815,0.22027839386354514,-0.06614677782441471,0.04914960135585284,13.6000003815,-0.04373989797932432,0.31846591312534334,0.7032137408661049
1648127453498421703,110680,0,6,0.576310455799,-0.235869601369,0.880271852016,-0.242756426334,13.6000003815,0.19274597183913042,-0.07888615430401337,0.29440530167759194,13.6000003815,-0.03280492247756756,0.2837693511662215,1.0782609812864883
1648127453498426733,110681,0,7,0.823363959789,-0.184593603015,0.0095237288624,-0.161837622523,13.6000003815,0.2753725618023411,-0.06173699097491638,0.003185193599464883,13.6000003815,-0.021869948989594594,0.39429881009433093,0.843856451041838
