%time,field.header.seq,field.header.frame_id,field.point_id,field.x,field.y,field.z,field.velocity,field.intensity,normalized_x,normalized_y,normalized_z,normalized_intensity,normalized_velocity,normalized_range,range
1648125947990034230,46420,0,0,0.00646429089829,0.0454158857465,0.00966594554484,0.0,16.7999992371,0.00216197020009699,0.015189259446989964,0.0032327577073043476,16.7999992371,0.0,0.015493928902644052,0.04688091550122148
1648125947990057956,46421,0,1,0.0327896587551,0.0146502861753,-0.0301334951073,0.0,16.7999992371,0.010966441055217392,0.0048997612626421405,-0.010078092009130433,16.7999992371,0.0,0.01626448029498648,0.04688091438608856
1648125947990064864,46422,0,2,1.13155710697,-0.835066318512,0.0167655870318,0.0,16.7999992371,0.3784471929665551,-0.2792863941511705,0.005607219743076922,16.7999992371,0.0,0.6036931718070803,1.406427505261477
1648125947990075825,46423,0,3,2.39259624481,-0.984499275684,0.445656388998,0.0,16.7999992371,0.800199412979933,-0.32926397180066885,0.14904895953110367,16.7999992371,0.0,1.1785809111778498,2.6253314517515633
1648125947990080740,46424,0,4,1.12410891056,-0.966918945312,0.441444456577,0.0809188112617,16.7999992371,0.37595615737792637,-0.32338426264615383,0.14764028648060198,16.7999992371,0.010934974494824324,0.6223049460416886,1.5470702304182002
1648125947990088975,46425,0,5,1.20511209965,-0.918572962284,0.312017410994,0.323675245047,16.7999992371,0.40304752496655516,-0.30721503755317725,0.1043536491618729,16.7999992371,0.04373989797932432,0.6475150145457107,1.547070239040695
1648125947990091915,46426,0,6,0.789805173874,-0.876087069511,0.307255119085,-0.0809188112617,16.7999992371,0.26414888758327754,-0.2930057088665552,0.10276090939297657,16.7999992371,-0.010934974494824324,0.4747647997180904,1.2189038002428447
1648125948095363198,46427,1,0,0.0127167105675,0.0439508594573,0.0102189751342,0.0,25.5,0.004253080457357859,0.014699284099431437,0.0034177174361872905,25.5,0.0,0.01588226494519332,0.04688091538660802
1648125948095370767,46428,1,1,0.0328408256173,0.0146502861753,-0.0300777256489,0.0,25.5,0.010983553718160535,0.0048997612626421405,-0.010059440016354514,25.5,0.0,0.016287558595146318,0.04688091607951567
1648125948095378309,46429,1,2,2.3917825222,-0.984499275684,0.45000243187,0.0,25.5,0.7999272649498328,-0.32926397180066885,0.1505024855752508,25.5,0.0,1.1782113653951025,2.625331340233577
1648125948095386294,46430,1,3,1.19886422157,-0.918572962284,0.335223674774,0.0809188112617,25.5,0.4009579336354515,-0.30721503755317725,0.11211494139598661,25.5,0.010934974494824324,0.6449151947265798,1.5470703348357597
1648125948095514185,46431,1,4,0.795571684837,-0.876087069511,0.291999280453,-0.161837622523,25.5,0.26607748656755853,-0.2930057088665552,0.0976586222250836,25.5,-0.021869948989594594,0.47691383199128445,1.218903785728728
1648125948095517592,46432,1,5,1.09333670139,-0.807230770588,-0.0368801318109,-0.0809188112617,25.5,0.365664448625418,-0.2699768463505016,-0.01233449224444816,25.5,-0.010934974494824324,0.5833596451096221,1.3595465434154328
1648125948290355833,46433,3,0,0.00650530029088,0.0454158857465,0.00963839329779,0.0,24.8999996185,0.0021756857160133776,0.015189259446989964,0.003223542908959866,24.8999996185,0.0,0.015497768201186361,0.04688091547076004
1648125948290373684,46434,3,1,0.0328533500433,0.0146502861753,-0.0300640445203,0.0,24.8999996185,0.010987742489397993,0.0048997612626421405,-0.0100548643880602,24.8999996185,0.0,0.016293208108212835,0.04688091580808087
1648125948290433676,46435,3,2,0.0932503715158,-0.399952799082,-0.450304061174,0.0,24.8999996185,0.031187415222675582,-0.13376347795384613,-0.15060336494113713,24.8999996185,0.0,0.14084735627924377,0.6094519019505632
1648125948290460639,46436,3,3,0.299852609634,-1.58955609798,0.275190323591,0.0,24.8999996185,0.10028515372374582,-0.5316241130367892,0.09203689752207357,24.8999996185,0.0,0.5502167042874503,1.6408320725558247
1648125948290487442,46437,3,4,2.41741609573,-0.902457654476,0.48377135396,0.0,24.8999996185,0.808500366464883,-0.30182530250033446,0.161796439451505,24.8999996185,0.0,1.1825583276849894,2.625331430682437
1648125948290552131,46438,3,5,0.822780489922,-0.805765748024,0.217742115259,-0.323675245047,24.8999996185,0.2751774213785953,-0.26948687224882945,0.07282344991939799,24.8999996185,-0.04373989797932432,0.47335863865319167,1.1720229537182394
1648125948290554715,46439,3,6,1.29185497761,-0.821881055832,0.221469402313,-0.323675245047,24.8999996185,0.43205852093979924,-0.27487660730167224,0.07407003421839464,24.8999996185,-0.04373989797932432,0.6700046867560343,1.5470702793577717
1648125948394933344,46440,4,0,0.0126965874806,0.0439508594573,0.0102439671755,0.0,34.2999992371,0.004246350327959866,0.014699284099431437,0.003426075978428093,34.2999992371,0.0,0.015878662892426666,0.04688091556465794
1648125948394939087,46441,4,1,0.0327896587551,0.0146502861753,-0.0301334951073,0.0,34.2999992371,0.010966441055217392,0.0048997612626421405,-0.010078092009130433,34.2999992371,0.0,0.01626448029498648,0.04688091438608856
1648125948395087469,46442,4,2,0.297847628593,-1.58955609798,0.277359157801,0.0,34.2999992371,0.09961459150267558,-0.5316241130367892,0.0927622601341137,34.2999992371,0.0,0.5499730277410363,1.6408320757773958
1648125948395089868,46443,4,3,2.42196631432,-0.902457654476,0.460449814796,0.0,34.2999992371,0.8100221787023411,-0.30182530250033446,0.1539965935772575,34.2999992371,0.0,1.1846393430951014,2.625331346281608
1648125948395096233,46444,4,4,0.600542187691,-1.30094540119,0.977602243423,0.161837622523,34.2999992371,0.20085022999698995,-0.43509879638461535,0.32695727204782604,34.2999992371,0.021869948989594594,0.5196081142505653,1.7345939012978757
1648125948395147741,46445,4,5,1.32065784931,-0.703213751316,0.109184391797,-0.485512852669,34.2999992371,0.44169158839799333,-0.23518854559063543,0.03651651899565217,34.2999992371,-0.06560984495527027,0.6674552947577261,1.5001893101859234
1648125948395149041,46446,4,6,0.880952298641,-0.668053030968,0.208740830421,-0.242756426334,34.2999992371,0.2946328757996655,-0.22342910734715715,0.06981298676287626,34.2999992371,-0.03280492247756756,0.4727976618109587,1.1251420083488315
1648125948495324369,46447,5,0,0.0126392701641,0.0439508594573,0.0103146024048,0.0,38.7999992371,0.004227180656889632,0.014699284099431437,0.0034496998009364544,38.7999992371,0.0,0.015868429841914465,0.04688091530767665
1648125948495331834,46448,5,1,0.0328408256173,0.0146502861753,-0.0300777256489,0.0,38.7999992371,0.010983553718160535,0.0048997612626421405,-0.010059440016354514,38.7999992371,0.0,0.016287558595146318,0.04688091607951567
1648125948495342063,46449,5,2,2.43622350693,-0.820416092873,0.533007025719,0.0,38.7999992371,0.8147904705451504,-0.2743866531347826,0.17826321930401337,38.7999992371,0.0,1.1845062503848947,2.6253312230324615
1648125948495346396,46450,5,3,1.56347060204,-1.08119118214,0.284817695618,0.161837622523,38.7999992371,0.52289986690301,-0.3616024020535117,0.09525675438729098,38.7999992371,0.021869948989594594,0.8231675642208217,1.9221175342620853
1648125948495349203,46451,5,4,0.906746327877,-1.39177715778,0.643754720688,0.323675245047,38.7999992371,0.30325964143043477,-0.46547731029431433,0.21530258216989964,38.7999992371,0.04373989797932432,0.632931233737016,1.781474866632893
1648125948495351562,46452,5,5,0.948724687099,-0.761814832687,-0.0727059468627,-0.566431701183,38.7999992371,0.317299226454515,-0.2547875694605351,-0.024316370188193978,38.7999992371,-0.07654482448418919,0.516017735905341,1.2189038214404857
1648125948495354337,46453,5,6,1.30093896389,-0.527410328388,0.0862224623561,-0.566431701183,38.7999992371,0.43509664344147153,-0.1763914141765886,0.028836943931806018,38.7999992371,-0.07654482448418919,0.6401032020411137,1.406427444012763
1648125948495463527,46454,5,7,1.29951655865,-0.590406537056,0.273463100195,-0.404594063759,38.7999992371,0.434620922625418,-0.1974603802862876,0.09145923083444815,38.7999992371,-0.05467487348094594,0.6455860086389299,1.453308374837308
1648125948495470336,46455,5,8,1.0077726841,-0.68563336134,-0.00525784911588,-0.323675245047,38.7999992371,0.3370477204347826,-0.2293088165016722,-0.0017584779651772574,38.7999992371,-0.04373989797932432,0.5289469397075327,1.2189038247449349
1648125948495523891,46456,5,9,0.893876671791,-0.632892370224,0.257635772228,-0.0809188112617,38.7999992371,0.2989554086257525,-0.21166968903812708,0.08616581010969898,38.7999992371,-0.010934974494824324,0.47281363130802256,1.1251419678384706
1648125948690359198,46457,7,0,0.0127064259723,0.0439508594573,0.0102317612618,0.0,27.7000007629,0.004249640793411371,0.014699284099431437,0.0034219937330434783,27.7000007629,0.0,0.01588042338169389,0.04688091558985754
1648125948690379846,46458,7,1,0.0328140594065,0.0146502861753,-0.0301069207489,0.0,27.7000007629,0.01097460180819398,0.0048997612626421405,-0.010069204263846153,27.7000007629,0.0,0.016275485557356428,0.04688091356545905
1648125948690466411,46459,7,2,0.269155740738,-1.58955609798,0.30528101325,0.0,27.7000007629,0.09001864238729097,-0.5316241130367892,0.1021006733277592,27.7000007629,0.0,0.5466542870193691,1.640832075030401
1648125948690474301,46460,7,3,1.32756125927,-1.25699448586,0.0207516849041,0.161837622523,27.7000007629,0.44400042116053506,-0.4203994935986622,0.0069403628441806016,27.7000007629,0.021869948989594594,0.7556510320243576,1.8283557277027227
1648125948690481881,46461,7,4,1.31413769722,-0.339886635542,0.0767194032669,-0.242756426334,27.7000007629,0.4395109355250836,-0.11367446004749163,0.02565866329996655,27.7000007629,-0.03280492247756756,0.6318715120650378,1.359546497591154
1648125948690485806,46462,7,5,0.959740519524,-0.527410328388,0.258226573467,-0.161837622523,27.7000007629,0.32098345134581935,-0.1763914141765886,0.08636340249732441,27.7000007629,-0.021869948989594594,0.4870058347401649,1.12514198328524
1648125948795431598,46463,8,0,0.0126923779026,0.0439508594573,0.0102491816506,0.0,46.9000015259,0.004244942442341137,0.014699284099431437,0.0034278199500334446,46.9000015259,0.0,0.015877909991978672,0.04688091539597687
1648125948795443796,46464,8,1,0.0328283309937,0.0146502861753,-0.0300913602114,0.0,46.9000015259,0.010979374914280936,0.0048997612626421405,-0.01006400007070234,46.9000015259,0.0,0.01628192271961673,0.046880914669216275
1648125948795446586,46465,8,2,1.22436594963,-1.2804350853,0.1872613132,0.161837622523,46.9000015259,0.4094869396755852,-0.42823915896321063,0.06262920173913043,46.9000015259,0.021869948989594594,0.7202415461491171,1.7814748905617441
1648125948795455218,46466,8,3,0.944012820721,-0.471739202738,0.221243351698,-0.242756426334,46.9000015259,0.31572335141170565,-0.15777230860802674,0.07399443200602006,46.9000015259,-0.03280492247756756,0.47355524558047624,1.0782609618065877
1648125948795459949,46467,8,4,0.976229250431,-0.594801604748,0.735903739929,-0.242756426334,46.9000015259,0.32649807706722406,-0.19893030259130434,0.2461216521501672,46.9000015259,-0.03280492247756756,0.5027675943676739,1.3595465467755627
1648125948795473543,46468,8,5,1.27757644653,-0.246124818921,0.174104213715,-0.0809188112617,46.9000015259,0.4272830924849498,-0.08231599295016721,0.05822883401839465,46.9000015259,-0.010934974494824324,0.6098504775290221,1.3126657154243173
1648125948990288646,46469,10,0,0.00646429089829,0.0454158857465,0.00966594554484,0.0,14.0,0.00216197020009699,0.015189259446989964,0.0032327577073043476,14.0,0.0,0.015493928902644052,0.04688091550122148
1648125948990291477,46470,10,1,0.0328408256173,0.0146502861753,-0.0300777256489,0.0,14.0,0.010983553718160535,0.0048997612626421405,-0.010059440016354514,14.0,0.0,0.016287558595146318,0.04688091607951567
1648125948990297616,46471,10,2,0.0920822098851,-0.399952799082,-0.450544387102,0.0,14.0,0.030796725714080268,-0.13376347795384613,-0.15068374150568561,14.0,0.0,0.1406753164692572,0.6094519009897066
1648125948990304898,46472,10,3,0.27053207159,-1.58955609798,0.304062008858,0.0,14.0,0.09047895370903009,-0.5316241130367892,0.10169297955117056,14.0,0.0,0.5468062542534736,1.640832074166928
1648125948990422291,46473,10,4,1.26966321468,-0.169943317771,0.455457270145,0.0809188112617,14.0,0.4246365266488294,-0.05683723002374581,0.15232684620234113,14.0,0.010934974494824324,0.6032104361212065,1.3595465181061301
1648125948990425882,46474,10,5,1.33576059341,-0.127457484603,0.218780755997,0.242756426334,14.0,0.4467426733812709,-0.04262792127190635,0.07317082140367892,14.0,0.03280492247756756,0.6332260039761898,1.359546539285426
1648125948990428802,46475,10,6,0.627005636692,-0.32230630517,0.618151009083,0.566431701183,14.0,0.2097008818367893,-0.10779475089297658,0.20673946792073578,14.0,0.07654482448418919,0.3155449698637787,0.9376183087089376
1648125948990430974,46476,10,7,0.902114152908,-0.386767566204,0.31677415967,-0.404594063759,14.0,0.3017104190327759,-0.1293537010715719,0.10594453500668896,14.0,-0.05467487348094594,0.44585954502150116,1.0313801255497017
1648125948990531937,46477,10,8,0.985697805882,-0.435113489628,0.664294421673,-0.404594063759,14.0,0.3296648180207358,-0.14552290623010034,0.22217204738227422,14.0,-0.05467487348094594,0.488400144061142,1.265784733690018
1648125949095398208,46478,11,0,0.0126156788319,0.0439508594573,0.0103434445336,0.0,23.1000003815,0.004219290579230769,0.014699284099431437,0.0034593459978595315,23.1000003815,0.0,0.015864229543843877,0.04688091556534115
1648125949095403594,46479,11,1,0.0327535755932,0.0146502861753,-0.0301727131009,0.0,23.1000003815,0.010954373108093645,0.0048997612626421405,-0.010091208394949832,23.1000003815,0.0,0.016248207310763207,0.04688091525372426
1648125949095410718,46480,11,2,0.0650681704283,-0.399952799082,-0.455231279135,0.0,23.1000003815,0.021761929909130433,-0.13376347795384613,-0.15225126392474916,23.1000003815,0.0,0.1372582646730203,0.6094519060592897
1648125949095556759,46481,11,3,0.275191575289,-1.58955609798,0.299851477146,0.0,23.1000003815,0.09203731615016722,-0.5316241130367892,0.10028477496521739,23.1000003815,0.0,0.547326166641432,1.6408320755281702
1648125949095559852,46482,11,4,1.82020711899,-1.39177727699,0.494320720434,0.0,23.1000003815,0.6087649227391304,-0.4654773501638796,0.16532465566354515,23.1000003815,0.0,0.9787025216227584,2.3440458441374314
1648125949095563179,46483,11,5,0.0992587059736,-1.37126672268,1.20526337624,0.242756426334,23.1000003815,0.03319689162996655,-0.4586176330033444,0.40309811914381266,23.1000003815,0.03280492247756756,0.4610143170546591,1.8283556879192149
1648125949095567110,46484,11,6,1.44662737846,-0.13624766469,0.0284757018089,0.404594063759,23.1000003815,0.4838218657056855,-0.04556778083277591,0.00952364608993311,23.1000003815,0.05467487348094594,0.6857431137969121,1.4533083168540115
1648125949095573586,46485,11,7,0.135605558753,-0.237334623933,-0.798359036446,0.485512852669,23.1000003815,0.04535302968327759,-0.07937612840568561,-0.2670097111859532,23.1000003815,0.06560984495527027,0.10205079305708706,0.843856470234789
1648125949095579122,46486,11,8,0.89358830452,-0.307655990124,0.275837659836,-0.485512852669,23.1000003815,0.298858964722408,-0.10289497997458194,0.09225339793846153,23.1000003815,-0.06560984495527027,0.4349951016895118,0.9844992030560045
1648125949095583492,46487,11,9,0.973113298416,-0.34281668067,0.649040579796,-0.404594063759,23.1000003815,0.3254559526474916,-0.1146544082508361,0.21707042802541807,23.1000003815,-0.05467487348094594,0.4743298299271531,1.2189037871471202
1648125949095587347,46488,11,10,0.796156048775,-0.266635209322,0.883610546589,-0.242756426334,23.1000003815,0.26627292601170566,-0.0891756552916388,0.29552192193612037,23.1000003815,-0.03280492247756756,0.38698170467137555,1.2189037644106766
1648125949290421455,46489,13,0,0.0125951459631,0.0439508594573,0.0103684375063,0.0,19.7000007629,0.0042124233990301,0.014699284099431437,0.0034677048516053507,19.7000007629,0.0,0.015860579271299975,0.0468809155754149
1648125949290431539,46490,13,1,0.0327896587551,0.0146502861753,-0.0301334951073,0.0,19.7000007629,0.010966441055217392,0.0048997612626421405,-0.010078092009130433,19.7000007629,0.0,0.01626448029498648,0.04688091438608856
1648125949290436344,46491,13,2,0.278669863939,-1.58955609798,0.29662168026,0.0,19.7000007629,0.09320062339096989,-0.5316241130367892,0.09920457533779264,19.7000007629,0.0,0.5477197366930314,1.6408320763848598
1648125949290439188,46492,13,3,1.83975338936,-1.39177727699,0.415709376335,0.0,19.7000007629,0.6153021369096989,-0.4654773501638796,0.13903323623244146,19.7000007629,0.0,0.9868447714239919,2.34404582036703
1648125949290442619,46493,13,4,2.42603516579,-0.902457654476,0.438507646322,0.0,19.7000007629,0.8113829985919733,-0.30182530250033446,0.1466580756929766,19.7000007629,0.0,1.18650042310891,2.625331483766364
1648125949290445312,46494,13,5,0.694506108761,-0.046880915761,0.279473513365,-0.242756426334,19.7000007629,0.2322762905555184,-0.015679236040468225,0.09346940246321069,19.7000007629,-0.03280492247756756,0.3288622641034935,0.7500946607205738
1648125949290446625,46495,13,6,0.919906079769,-0.117202289402,0.138436183333,-0.161837622523,19.7000007629,0.30766089624381265,-0.03919809010100334,0.04629972686722408,19.7000007629,-0.021869948989594594,0.43686032598836266,0.9376183387140249
1648125949290449065,46496,13,7,0.749763131142,-0.0,0.0222983788699,-0.0809188112617,19.7000007629,0.2507569000474916,-0.0,0.007457651795953177,19.7000007629,-0.010934974494824324,0.35462380890579726,0.7500946410421031
1648125949395338447,46497,14,0,0.0126965874806,0.0439508594573,0.0102439671755,0.0,19.1000003815,0.004246350327959866,0.014699284099431437,0.003426075978428093,19.1000003815,0.0,0.015878662892426666,0.04688091556465794
1648125949395346805,46498,14,1,0.0327651761472,0.0146502861753,-0.0301601141691,0.0,19.1000003815,0.010958252892040134,0.0048997612626421405,-0.010086994705384614,19.1000003815,0.0,0.016253438815299993,0.046880914450001684
1648125949395349964,46499,14,2,0.284250020981,-1.58955609798,0.291278600693,0.0,19.1000003815,0.09506689664916387,-0.5316241130367892,0.09741759220501671,19.1000003815,0.0,0.5483608549478696,1.6408320713207596
1648125949395354875,46500,14,3,1.87834668159,-1.31852579117,0.477341353893,0.0,19.1000003815,0.6282095925050167,-0.44097852547491634,0.15964593775685618,19.1000003815,0.0,0.9918450706439337,2.344045922407887
1648125949395376815,46501,14,4,2.38861465454,-0.984499275684,0.466526210308,0.0,19.1000003815,0.798867777438127,-0.32926397180066885,0.15602883287892977,19.1000003815,0.0,1.1767727965855674,2.625331502231653
1648125949395389082,46502,14,5,0.709452211857,0.0703213736415,0.233183279634,0.242756426334,19.1000003815,0.2372749872431438,0.023518854060702338,0.07798771894113712,19.1000003815,0.03280492247756756,0.3363807004552977,0.7500946462950427
1648125949395425924,46503,14,6,0.876066803932,-0.0556710883975,0.151065558195,-0.0809188112617,19.1000003815,0.29299893108093644,-0.018619093109531772,0.05052359805852843,19.1000003815,-0.010934974494824324,0.4147811686387945,0.8907374012063031
1648125949494840991,46504,15,0,0.012629323639,0.0439508594573,0.0103267794475,0.0,27.2999992371,0.0042238540598662205,0.014699284099431437,0.003453772390468227,27.2999992371,0.0,0.015866658100365513,0.04688091548136884
1648125949494866766,46505,15,1,0.0328408256173,0.0146502861753,-0.0300777256489,0.0,27.2999992371,0.010983553718160535,0.0048997612626421405,-0.010059440016354514,27.2999992371,0.0,0.016287558595146318,0.04688091607951567
1648125949494876898,46506,15,2,0.882547259331,0.0278355441988,0.117254510522,0.0,27.2999992371,0.2951663074685618,0.009309546554782609,0.03921555535852843,27.2999992371,0.0,0.41753199372779426,0.89073739267601
1648125949494964976,46507,15,3,0.290158510208,-1.58955609798,0.285393327475,0.0,27.2999992371,0.09704298000267557,-0.5316241130367892,0.09544927340301003,27.2999992371,0.0,0.5490527092162939,1.640832075819699
1648125949494994548,46508,15,4,1.87701797485,-1.31852579117,0.48253968358,0.0,27.2999992371,0.627765208979933,-0.44097852547491634,0.1613845095585284,27.2999992371,0.0,0.991282187442743,2.344045922357315
1648125949495004085,46509,15,5,2.38492679596,-0.984499275684,0.485026150942,0.0,27.2999992371,0.7976343799197323,-0.32926397180066885,0.16221610399397993,27.2999992371,0.0,1.175098281500668,2.6253314101286267
1648125949495049348,46510,15,6,1.79799294472,-0.224149376154,-1.55997061729,0.242756426334,27.2999992371,0.6013354330167224,-0.07496634653979932,-0.5217293034414716,27.2999992371,0.03280492247756756,0.8537145653649956,2.3909265774802178
1648125949495154119,46511,15,7,1.92632603645,0.377977371216,0.45844399929,0.485512852669,27.2999992371,0.6442561994816053,0.1264138365270903,0.153325752270903,27.2999992371,0.06560984495527027,0.9198437689121244,2.0158794091764354
1648125949495157117,46512,15,8,0.713415682316,0.273960351944,0.226171955466,0.566431701183,27.2999992371,0.23860056264749163,0.09162553576722407,0.0756427944702341,27.2999992371,0.07654482448418919,0.34965081981318163,0.7969755100697878
1648125949594927380,46513,16,0,0.0127064259723,0.0439508594573,0.0102317612618,0.0,37.2999992371,0.004249640793411371,0.014699284099431437,0.0034219937330434783,37.2999992371,0.0,0.01588042338169389,0.04688091558985754
1648125949594993825,46514,16,1,0.0328408256173,0.0146502861753,-0.0300777256489,0.0,37.2999992371,0.010983553718160535,0.0048997612626421405,-0.010059440016354514,37.2999992371,0.0,0.016287558595146318,0.04688091607951567
1648125949595057306,46515,16,2,0.278870016336,-1.58955609798,0.296433508396,0.0,37.2999992371,0.09326756399197324,-0.5316241130367892,0.09914164160401338,37.2999992371,0.0,0.5477425257802669,1.6408320753619507
1648125949595081871,46516,16,3,1.87832450867,-1.31852579117,0.477428764105,0.0,37.2999992371,0.628202176812709,-0.44097852547491634,0.15967517194147157,37.2999992371,0.0,0.9918356768308365,2.3440459565984835
1648125949595086554,46517,16,4,2.38797926903,-0.984499275684,0.469767600298,0.0,37.2999992371,0.7986552739230769,-0.32926397180066885,0.15711290979866221,37.2999992371,0.0,1.1764842779469011,2.625331486008789
1648125949595099066,46518,16,5,0.814503490925,0.0527410283685,0.214233770967,0.0809188112617,37.2999992371,0.2724091942892976,0.017639139922575247,0.07165009062441471,37.2999992371,0.010934974494824324,0.3856483858696893,0.8438564222811362
1648125949595102888,46519,16,6,0.839934468269,0.083506628871,0.284516990185,0.161837622523,37.2999992371,0.2809145378826087,0.027928638418394644,0.09515618400836119,37.2999992371,0.021869948989594594,0.39825364283519693,0.8907374392915446
1648125949595112789,46520,16,7,0.690970778465,0.199243888259,0.343556821346,0.242756426334,37.2999992371,0.2310939058411371,0.06663675192608695,0.11490194693846154,37.2999992371,0.03280492247756756,0.33354046732155834,0.7969755536993969
1648125949595142011,46521,16,8,0.409295618534,-1.37126672268,-1.97357809544,0.323675245047,37.2999992371,0.13688816673377924,-0.4586176330033444,-0.6600595636923077,37.2999992371,0.04373989797932432,0.49780204266862965,2.4378075861070854
1648125949595174159,46522,16,9,0.0767330154777,-1.88988697529,0.697287023067,0.404594063759,37.2999992371,0.025663215878829432,-0.6320692225050167,0.23320636222976585,37.2999992371,0.05467487348094594,0.6331103405699382,2.015879442717923
1648125949595182300,46523,16,10,1.94990181923,0.188988685608,0.475327342749,0.404594063759,37.2999992371,0.6521410766655518,0.06320691826354514,0.15897235543444815,37.2999992371,0.05467487348094594,0.9244301392021923,2.015879438530273
1648125949595184374,46524,16,11,0.751719117165,0.389697611332,0.276527255774,0.566431701183,37.2999992371,0.25141107597491635,0.13033364927491636,0.09248403203143812,37.2999992371,0.07654482448418919,0.3786844575356206,0.8907374375061894
1648125949595192053,46525,16,12,0.482794612646,0.36918720603,-0.774499118328,-0.647350490093,37.2999992371,0.16146977011571906,0.12347398194983276,-0.25902980546086957,37.2999992371,-0.08747979595851352,0.25959737583610887,0.9844992206127379
1648125949595195621,46526,16,13,0.589106619358,0.769140005112,0.174973607063,-0.647350490093,37.2999992371,0.19702562520334446,0.2572374599036789,0.05851960102441471,37.2999992371,-0.08747979595851352,0.37922197292777526,0.9844992227542569
1648125949694956485,46527,17,0,0.0126256523654,0.0439508594573,0.010331267491,0.0,26.0,0.004222626209163879,0.014699284099431437,0.0034552734083612034,26.0,0.0,0.015866004451040385,0.04688091544176436
1648125949694964591,46528,17,1,0.0328164249659,0.0146502861753,-0.0301043465734,0.0,26.0,0.010975392965183947,0.0048997612626421405,-0.010068343335585284,26.0,0.0,0.016276552519231675,0.04688091632180531
1648125949694982602,46529,17,2,0.270691156387,-1.58955609798,0.303920388222,0.0,26.0,0.09053215932675583,-0.5316241130367892,0.10164561478996656,26.0,0.0,0.5468238668043697,1.640832073415359
1648125949695012805,46530,17,3,1.87660109997,-1.31852579117,0.484158277512,0.0,26.0,0.6276257859431438,-0.44097852547491634,0.16192584532173912,26.0,0.0,0.9911056019877645,2.3440459014431596
1648125949695015911,46531,17,4,2.41747689247,-0.902457654476,0.483466774225,0.0,26.0,0.8085206998227423,-0.30182530250033446,0.161694573319398,26.0,0.0,1.1825861310336478,2.62533130585994
1648125949695193555,46532,17,5,0.828569531441,0.175803437829,0.402111649513,0.161837622523,26.0,0.27711355566588625,0.05879713639765886,0.13448550150936453,26.0,0.021869948989594594,0.39628392437259596,0.937618310326179
1648125949695197788,46533,17,6,0.759422421455,0.167013257742,0.434508174658,0.242756426334,26.0,0.25398743192474915,0.05585727683678929,0.14532045975183946,26.0,0.03280492247756756,0.3635096512158651,0.8907374452187348
1648125949695235203,46534,17,7,2.6464202404,-0.339886635542,0.523836970329,0.242756426334,26.0,0.8850903814046822,-0.11367446004749163,0.17519631114682274,26.0,0.03280492247756756,1.2568579272842497,2.719093265282072
1648125949695258360,46535,17,8,1.14621901512,-1.27457487583,-2.11071276665,0.242756426334,26.0,0.3833508411772575,-0.4262792226856187,-0.7059240022240801,26.0,0.03280492247756756,0.6896591263487181,2.719093144417642
1648125949695284183,46536,17,9,1.31743586063,-0.0,-2.10666561127,0.323675245047,26.0,0.44061400021070235,-0.0,-0.7045704385518394,26.0,0.04373989797932432,0.623122294869437,2.4846885608827343
1648125949695624181,46537,17,10,1.11143636703,0.366257160902,-0.0648282393813,0.485512852669,26.0,0.3717178485050167,0.12249403374648829,-0.02168168541180602,26.0,0.06560984495527027,0.5397713461252671,1.1720229547624559
1648125949695628732,46538,17,11,0.702833414078,-1.86937654018,0.516175031662,0.566431701183,26.0,0.23506134250100333,-0.6252095452107023,0.1726337898535117,26.0,0.07654482448418919,0.7080922573360912,2.062760315749542
1648125949795048092,46539,18,0,0.00650530029088,0.0454158857465,0.00963839329779,0.0,28.1000003815,0.0021756857160133776,0.015189259446989964,0.003223542908959866,28.1000003815,0.0,0.015497768201186361,0.04688091547076004
1648125949795058824,46540,18,1,0.0328408256173,0.0146502861753,-0.0300777256489,0.0,28.1000003815,0.010983553718160535,0.0048997612626421405,-0.010059440016354514,28.1000003815,0.0,0.016287558595146318,0.04688091607951567
1648125949795066030,46541,18,2,0.288409411907,-1.58955609798,0.287160784006,0.0,28.1000003815,0.09645799729331102,-0.5316241130367892,0.09604039598862875,28.1000003815,0.0,0.5488465068175488,1.6408320734837205
1648125949795072178,46542,18,3,1.87621986866,-1.31852579117,0.485633641481,0.0,28.1000003815,0.6274982838327758,-0.44097852547491634,0.16241927808729095,28.1000003815,0.0,0.9909441217123139,2.3440459234565174
1648125949795089301,46543,18,4,2.42050361633,-0.902457654476,0.468078255653,0.0,28.1000003815,0.8095329820501672,-0.30182530250033446,0.1565479115896321,28.1000003815,0.0,1.183970359123695,2.6253313749323315
1648125949795092323,46544,18,5,0.72172498703,0.290075659752,0.327204674482,0.161837622523,28.1000003815,0.2413795943244147,0.09701527082006689,0.10943300149899665,28.1000003815,0.021869948989594594,0.35488051494091494,0.8438564713782097
1648125949795105993,46545,18,6,1.36531186104,0.679773271084,-2.25106620789,0.242756426334,28.1000003815,0.45662604048160527,0.22734892009498325,-0.7528649524715719,28.1000003815,0.03280492247756756,0.6846182974184756,2.7190930933458337
1648125949795343762,46546,18,7,1.55979979038,-1.10463154316,-1.93398070335,0.242756426334,28.1000003815,0.5216721706956522,-0.3694419876789297,-0.6468162887458194,28.1000003815,0.03280492247756756,0.825088534411178,2.7190931563930825
1648125949795346236,46547,18,8,0.889069795609,0.234404578805,0.183677643538,0.404594063759,28.1000003815,0.29734775772876254,0.07839618020234114,0.06143065001270903,28.1000003815,0.05467487348094594,0.4277585056114766,0.9376183044099828
1648125949795380563,46548,18,9,1.4186372757,-1.1646977663,-1.67470121384,0.404594063759,28.1000003815,0.4744606273244147,-0.38953102551839464,-0.5601007404147157,28.1000003815,0.05467487348094594,0.7758609370264535,2.4846884638656204
1648125949795398214,46549,18,10,0.530078709126,0.155293032527,-2.42251467705,0.404594063759,28.1000003815,0.17728384920602006,0.051937469072575244,-0.8102055776086956,28.1000003815,0.05467487348094594,0.2560402840809829,2.484688456193811
1648125949795408491,46550,18,11,0.447155863047,-1.84593617916,0.918236076832,0.566431701183,28.1000003815,0.14955045586856186,-0.6173699595852842,0.30710236683344483,28.1000003815,0.07654482448418919,0.6525920201008627,2.109641257698794
1648125949894901535,46551,19,0,0.0126156788319,0.0439508594573,0.0103434445336,0.0,28.1000003815,0.004219290579230769,0.014699284099431437,0.0034593459978595315,28.1000003815,0.0,0.015864229543843877,0.04688091556534115
1648125949894914278,46552,19,1,0.0328408256173,0.0146502861753,-0.0300777256489,0.0,28.1000003815,0.010983553718160535,0.0048997612626421405,-0.010059440016354514,28.1000003815,0.0,0.016287558595146318,0.04688091607951567
1648125949894925196,46553,19,2,0.284298926592,-1.58955609798,0.291230887175,0.0,28.1000003815,0.09508325304080267,-0.5316241130367892,0.09740163450668896,28.1000003815,0.0,0.5483665266769986,1.6408320748728384
1648125949894930914,46554,19,3,1.83988714218,-1.39177727699,0.415117532015,0.0,28.1000003815,0.6153468702943143,-0.4654773501638796,0.1388352949882943,28.1000003815,0.0,0.9869005548066139,2.344045914672153
1648125949894940945,46555,19,4,2.41886568069,-0.902457654476,0.476470470428,0.0,28.1000003815,0.8089851774882943,-0.30182530250033446,0.1593546723839465,28.1000003815,0.0,1.1832212591146902,2.6253314283214033
1648125949895092700,46556,19,5,0.745787501335,0.334026515484,0.354458063841,0.0809188112617,28.1000003815,0.2494272579715719,0.11171455367357858,0.11854784743846153,28.1000003815,0.010934974494824324,0.37001088570597623,0.8907374636871382
1648125949895098385,46557,19,6,0.923561573029,0.276890397072,0.199008539319,0.242756426334,28.1000003815,0.3088834692404682,0.09260548397056856,0.06655803990602006,28.1000003815,0.03280492247756756,0.44653529625492966,0.9844991975051948
1648125949895100376,46558,19,7,1.75903439522,0.594801604748,-1.98632240295,0.242756426334,28.1000003815,0.5883058177993311,0.19893030259130434,-0.664321873896321,28.1000003815,0.03280492247756756,0.855441836597993,2.7190931652002748
1648125949895114048,46559,19,8,1.7899273634,-0.849716603756,-1.86215174198,0.242756426334,28.1000003815,0.598637914180602,-0.28418615510234113,-0.6227932247424749,28.1000003815,0.03280492247756756,0.8930265815421484,2.719093117770308
1648125949895262125,46560,19,9,0.643256664276,-1.81956541538,0.962283611298,0.404594063759,28.1000003815,0.21513600811906355,-0.6085503061471572,0.3218339837117057,28.1000003815,0.05467487348094594,0.6803678998090741,2.1565220113773935
1648125949895267702,46561,19,10,2.08403754234,0.336956560612,0.440266996622,0.404594063759,28.1000003815,0.6970025225217391,0.11269450187692308,0.14724648716454847,28.1000003815,0.05467487348094594,0.9921315858073578,2.156522021667428
1648125949895273698,46562,19,11,2.3337597847,1.04749548435,0.323612123728,0.404594063759,28.1000003815,0.7805216671237457,0.35033293790969894,0.10823147950769231,28.1000003815,0.05467487348094594,1.1580851924982478,2.5784503735849515
1648125949895311637,46563,19,12,1.44160318375,-0.0,-2.13779950142,0.404594063759,28.1000003815,0.48214153302675583,-0.0,-0.7149831108428093,28.1000003815,0.05467487348094594,0.6818510949897937,2.5784503965889543
1648125949994883420,46564,20,0,0.012629323639,0.0439508594573,0.0103267794475,0.0,15.0,0.0042238540598662205,0.014699284099431437,0.003453772390468227,15.0,0.0,0.015866658100365513,0.04688091548136884
1648125949994890446,46565,20,1,0.0328408256173,0.0146502861753,-0.0300777256489,0.0,15.0,0.010983553718160535,0.0048997612626421405,-0.010059440016354514,15.0,0.0,0.016287558595146318,0.04688091607951567
1648125949994900969,46566,20,2,0.255475342274,-1.58955609798,0.316818028688,0.0,15.0,0.08544325828561872,-0.5316241130367892,0.10595920691906355,15.0,0.0,0.5451837289713246,1.6408320762458208
1648125949994914469,46567,20,3,1.84464287758,-1.39177727699,0.393445909023,0.0,15.0,0.6169374172508361,-0.4654773501638796,0.13158726054280934,15.0,0.0,0.9888845823066772,2.344045865139856
1648125949994918631,46568,20,4,2.39002084732,-0.984499275684,0.459267318249,0.0,15.0,0.7993380760267559,-0.32926397180066885,0.15360110978227423,15.0,0.0,1.1774113481270099,2.6253313969969887
1648125949994920833,46569,20,5,0.779515028,0.361862063408,0.234148204327,0.0809188112617,15.0,0.2607073672240803,0.12102410147424747,0.07831043622976588,15.0,0.010934974494824324,0.3880508932955468,0.8907374548099427
1648125949994924975,46570,20,6,0.948578000069,0.386767566204,0.11981510371,0.161837622523,15.0,0.31725016724715716,0.1293537010715719,0.04007194104013378,15.0,0.021869948989594594,0.4669343821326632,1.0313801586026885
1648125949994930557,46571,20,7,1.21135473251,-1.55000019073,0.883575737476,0.161837622523,15.0,0.4051353620434782,-0.518394712618729,0.2955102800923077,15.0,0.021869948989594594,0.7726593047567958,2.1565219597986167
1648125949995022078,46572,20,8,0.898499548435,0.338421612978,0.217733979225,0.242756426334,15.0,0.30050152121571905,0.11318448594581938,0.07282072883779264,15.0,0.03280492247756756,0.4397875127430767,0.9844992190843439
1648125949995027948,46573,20,9,2.27950763702,1.12807202339,0.423917174339,0.323675245047,15.0,0.7623771361270902,0.377281613173913,0.14177831917692307,15.0,0.04373989797932432,1.142269325079597,2.5784505672762617
1648125949995059989,46574,20,10,1.84564614296,0.0805765762925,-1.79875075817,0.323675245047,15.0,0.6172729575117056,0.026948687723244144,-0.6015888823311036,15.0,0.04373989797932432,0.8733716505134002,2.57845041831083
1648125949995260362,46575,20,11,0.890735864639,0.515690088272,0.0663206353784,-0.0809188112617,15.0,0.29790497145117056,0.17247160142876253,0.022180814507826083,15.0,-0.010934974494824324,0.455237517489549,1.0313801793583028
1648125950094959251,46576,21,0,0.0127064259723,0.0439508594573,0.0102317612618,0.0,16.1000003815,0.004249640793411371,0.014699284099431437,0.0034219937330434783,16.1000003815,0.0,0.01588042338169389,0.04688091558985754
1648125950094994475,46577,21,1,0.0328408256173,0.0146502861753,-0.0300777256489,0.0,16.1000003815,0.010983553718160535,0.0048997612626421405,-0.010059440016354514,16.1000003815,0.0,0.016287558595146318,0.04688091607951567
1648125950095018194,46578,21,2,0.2865870893,-1.58955609798,0.288979500532,0.0,16.1000003815,0.09584852484949832,-0.5316241130367892,0.09664866238528427,16.1000003815,0.0,0.5486329164330214,1.6408320755356331
1648125950095029918,46579,21,3,1.84155654907,-1.39177727699,0.407647192478,0.0,16.1000003815,0.6159052003578596,-0.4654773501638796,0.13633685367157192,16.1000003815,0.0,0.9875968788788759,2.3440458070830235
1648125950095042091,46580,21,4,2.38843345642,-0.984499275684,0.467452287674,0.0,16.1000003815,0.7988071760602006,-0.32926397180066885,0.15633855775050165,16.1000003815,0.0,1.1766905167360262,2.6253313773351286
1648125950095047404,46581,21,5,0.765412449837,0.389697611332,0.235993057489,0.0809188112617,16.1000003815,0.2559907858986622,0.13033364927491636,0.07892744397625417,16.1000003815,0.010934974494824324,0.38477191303855107,0.8907374303499045
1648125950095075139,46582,21,6,0.910671293736,0.451228827238,0.175543114543,0.161837622523,16.1000003815,0.3045723390421404,0.15091265125016723,0.05871007175351171,16.1000003815,0.021869948989594594,0.45640250626673345,1.0313801650355883
1648125950095176920,46583,21,7,1.36922442913,-1.48260891438,0.760054111481,0.161837622523,16.1000003815,0.4579345916822742,-0.49585582420735785,0.2541986994919732,16.1000003815,0.021869948989594594,0.8156477051514217,2.1565219643455036
1648125950095183057,46584,21,8,1.27364337444,-1.51483952999,0.968544542789,0.242756426334,16.1000003815,0.4259676837591973,-0.5066352943110367,0.323927940732107,16.1000003815,0.03280492247756756,0.7871316641172441,2.203402999508167
1648125950095185762,46585,21,9,2.11308884621,0.550850749016,0.293944478035,0.242756426334,16.1000003815,0.7067186776622073,0.1842310197377926,0.09830918997826087,16.1000003815,0.03280492247756756,1.0162891553819045,2.2034029081935667
1648125950095191420,46586,21,10,1.37209451199,-1.54707026482,0.88752913475,0.323675245047,16.1000003815,0.4588944856153846,-0.5174148042876254,0.2968324865384615,16.1000003815,0.04373989797932432,0.8299917936657076,2.2502839196762228
1648125950095320304,46587,21,11,2.15404462814,0.49224960804,0.426099449396,0.323675245047,16.1000003815,0.7204162635919732,0.16463197593311035,0.14250817705551838,16.1000003815,0.04373989797932432,1.0320382130499233,2.250284132595237
1648125950195256901,46588,22,0,0.0126188620925,0.0439508594573,0.0103395609185,0.0,20.7000007629,0.004220355214882943,0.014699284099431437,0.00345804712993311,20.7000007629,0.0,0.015864795911557678,0.04688091560040442
1648125950195268151,46589,22,1,0.0328283309937,0.0146502861753,-0.0300913602114,0.0,20.7000007629,0.010979374914280936,0.0048997612626421405,-0.01006400007070234,20.7000007629,0.0,0.01628192271961673,0.046880914669216275
1648125950195435944,46590,22,2,0.308894455433,-1.58955609798,0.265000998974,0.0,20.7000007629,0.10330918241906353,-0.5316241130367892,0.08862909664682272,20.7000007629,0.0,0.5513345371971028,1.640832076319777
1648125950195441710,46591,22,3,1.87560391426,-1.31852579117,0.488007098436,0.0,20.7000007629,0.6272922790167224,-0.44097852547491634,0.1632130764,20.7000007629,0.0,0.9906832321978698,2.344045911088738
1648125950195444977,46592,22,4,2.38930821419,-0.984499275684,0.462960243225,0.0,20.7000007629,0.799099737187291,-0.32926397180066885,0.15483620174749163,20.7000007629,0.0,1.1770877380516487,2.6253313606143283
1648125950195446847,46593,22,5,0.741820812225,0.417533159256,0.262261539698,0.0809188112617,20.7000007629,0.2481006060953177,0.13964319707558526,0.08771288953110366,20.7000007629,0.010934974494824324,0.3776348023940838,0.8907374314202927
1648125950195469000,46594,22,6,0.881130158901,0.515690088272,0.146350204945,0.161837622523,20.7000007629,0.29469236083645484,0.17247160142876253,0.04894655683779264,20.7000007629,0.021869948989594594,0.4510361719087822,1.0313801464805923
1648125950195631016,46595,22,7,1.15646004677,0.514225065708,0.0195932481438,0.161837622523,20.7000007629,0.3867759353745819,0.17198162732709027,0.006552925800602006,20.7000007629,0.021869948989594594,0.5733837532646349,1.2657847974085057
1648125950195636545,46596,22,8,1.1447583437,-0.527410328388,-2.51466107368,0.242756426334,20.7000007629,0.3828623223076923,-0.1763914141765886,-0.8410237704615384,20.7000007629,0.03280492247756756,0.5694567996616559,2.812855068332273
1648125950195640760,46597,22,9,1.31256759167,0.879017174244,-2.32736945152,0.242756426334,20.7000007629,0.43898581661204006,0.29398567700468226,-0.7783844319464883,20.7000007629,0.03280492247756756,0.6869095083466095,2.812855033446764
1648125950195642150,46598,22,10,1.62031412125,-1.47674882412,0.507516503334,0.323675245047,20.7000007629,0.5419110773411371,-0.49389592779933106,0.1697379609812709,20.7000007629,0.04373989797932432,0.9117392275134518,2.2502839692399563
1648125950390310779,46599,24,0,0.00646429089829,0.0454158857465,0.00966594554484,0.0,22.8999996185,0.00216197020009699,0.015189259446989964,0.0032327577073043476,22.8999996185,0.0,0.015493928902644052,0.04688091550122148
1648125950390321532,46600,24,1,0.0327896587551,0.0146502861753,-0.0301334951073,0.0,22.8999996185,0.010966441055217392,0.0048997612626421405,-0.010078092009130433,22.8999996185,0.0,0.01626448029498648,0.04688091438608856
1648125950390470767,46601,24,2,0.278117090464,-1.58955609798,0.297140032053,0.0,22.8999996185,0.09301574931906355,-0.5316241130367892,0.09937793714147156,22.8999996185,0.0,0.5476568787159772,1.6408320765032667
1648125950390474590,46602,24,3,1.86366903782,-1.31852579117,0.531769394875,0.0,22.8999996185,0.6233006815451505,-0.44097852547491634,0.17784929594481602,22.8999996185,0.0,0.985631543305778,2.3440459112046255
1648125950390480970,46603,24,4,2.41973757744,-0.902457654476,0.472022891045,0.0,22.8999996185,0.8092767817525083,-0.30182530250033446,0.15786718764046823,22.8999996185,0.0,1.1836200117422873,2.625331478398109
1648125950390489648,46604,24,5,0.677327215672,0.586011469364,0.277392417192,0.242756426334,22.8999996185,0.2265308413618729,0.19599045798127088,0.09277338367625416,22.8999996185,0.03280492247756756,0.37555918813942546,0.9376183404945526
1648125950390540808,46605,24,6,1.07065081596,0.672448158264,-0.0610828138888,-0.242756426334,22.8999996185,0.3580771959732441,0.22489904958662205,-0.02042903474541806,22.8999996185,-0.03280492247756756,0.5540921755963424,1.2657846599722375
1648125950390544632,46606,24,7,0.859042525291,0.606521844864,0.238377779722,-0.0809188112617,22.8999996185,0.28730519240501673,0.20285011533913042,0.07972500994046822,22.8999996185,-0.010934974494824324,0.45413292818167883,1.078260995501905
1648125950495431315,46607,25,0,0.0126051837578,0.0439508594573,0.0103562315926,0.0,18.7999992371,0.004215780521003344,0.014699284099431437,0.003463622606220736,18.7999992371,0.0,0.015862363122761385,0.04688091549237075
1648125950495435624,46608,25,1,0.0328408256173,0.0146502861753,-0.0300777256489,0.0,18.7999992371,0.010983553718160535,0.0048997612626421405,-0.010059440016354514,18.7999992371,0.0,0.016287558595146318,0.04688091607951567
1648125950495439226,46609,25,2,0.710535109043,0.741304516792,0.0967083647847,0.0,18.7999992371,0.23763716021505016,0.2479279320374582,0.032343934710602006,18.7999992371,0.0,0.4176255491639817,1.0313801605704365
1648125950495442366,46610,25,3,0.272649198771,-1.58955609798,0.302165061235,0.0,18.7999992371,0.09118702300033445,-0.5316241130367892,0.10105854890802674,18.7999992371,0.0,0.5470414462264079,1.6408320750299292
1648125950495467281,46611,25,4,1.86635529995,-1.31852579117,0.522263109684,0.0,18.7999992371,0.624199096973244,-0.44097852547491634,0.17466993634916386,18.7999992371,0.0,0.9867679997114104,2.3440458876414363
1648125950495592412,46612,25,5,2.42103242874,-0.902457654476,0.465335279703,0.0,18.7999992371,0.8097098423879597,-0.30182530250033446,0.15563052832876254,18.7999992371,0.0,1.1842122153352783,2.6253313622606376
1648125950495601770,46613,25,6,0.693609416485,0.606521844864,0.560074985027,0.0809188112617,18.7999992371,0.2319763934732441,0.20285011533913042,0.18731604850401337,18.7999992371,0.010934974494824324,0.3857126696788754,1.0782609887160373
1648125950495605532,46614,25,7,0.541087865829,0.673913180828,0.363583654165,0.161837622523,18.7999992371,0.18096584141438127,0.2253890236882943,0.12159988433612039,18.7999992371,0.021869948989594594,0.34102416852298384,0.9376183271550684
1648125950495608640,46615,25,8,1.18153631687,0.817485928535,-0.218618020415,0.485512852669,18.7999992371,0.3951626477826086,0.2734066650618729,-0.07311639478762541,18.7999992371,0.06560984495527027,0.6221400492697597,1.4533083465960104
