%time,field.header.seq,field.header.frame_id,field.point_id,field.x,field.y,field.z,field.velocity,field.intensity,normalized_x,normalized_y,normalized_z,normalized_intensity,normalized_velocity,normalized_range,range
1648219723957596443,85519,0,0,0.0122477002442,0.0439508594573,0.01077664271,0.0,24.2000007629,0.004096220817458194,0.014699284099431437,0.0036042283311036784,24.2000007629,0.0,0.015799588697385562,0.04688091548174064
1648219723957602598,85520,0,1,0.0334108844399,0.0146502861753,-0.0294432006776,0.0,24.2000007629,0.011174208842775918,0.0048997612626421405,-0.009847224306889632,24.2000007629,0.0,0.01654489489101794,0.04688091456249508
1648219723957604903,85521,0,2,0.767394602299,0.615311980247,-0.0416576825082,0.0,24.2000007629,0.25665371314347823,0.2057899599488294,-0.013932335287023409,24.2000007629,0.0,0.4172430521367737,0.9844991981637562
1648219723957607312,85522,0,3,2.1390273571,-1.14272224903,0.24830019474,0.0,24.2000007629,0.7153937649163878,-0.3821813541906354,0.08304354339130435,24.2000007629,0.0,1.0814985276242757,2.437807449237596
1648219723957609319,85523,0,4,1.18191695213,1.12807202339,0.1511811167,0.0809188112617,24.2000007629,0.3952899505451504,0.377281613173913,0.050562246387959864,24.2000007629,0.010934974494824324,0.6744254633709237,1.6408320760315895
1648219723957887013,85524,0,5,0.964509546757,1.20864868164,0.0481251887977,0.323675245047,24.2000007629,0.32257844373143807,0.40423032830769223,0.016095380868795986,24.2000007629,0.04373989797932432,0.6095210111588754,1.5470702424946057
1648219724063054180,85525,1,0,0.0122477002442,0.0439508594573,0.01077664271,0.0,19.0,0.004096220817458194,0.014699284099431437,0.0036042283311036784,19.0,0.0,0.015799588697385562,0.04688091548174064
1648219724063069009,85526,1,1,0.0333878919482,0.0146502861753,-0.0294692683965,0.0,19.0,0.011166519046220735,0.0048997612626421405,-0.009855942607525084,19.0,0.0,0.016534508025644712,0.04688091289200561
1648219724063094616,85527,1,2,2.13935017586,-1.14272224903,0.245504796505,0.0,19.0,0.7155017310568562,-0.3821813541906354,0.08210862759364548,19.0,0.0,1.0816413646776382,2.43780760489571
1648219724063108830,85528,1,3,1.07658350468,1.2306240797,0.137340083718,0.0809188112617,19.0,0.3600613728026756,0.4115799597658863,0.045933138367224076,19.0,0.010934974494824324,0.6547415120870093,1.6408320958227904
1648219724258111842,85529,3,0,0.012225298211,0.0439508594573,0.0108020491898,0.0,18.1000003815,0.004088728498662207,0.014699284099431437,0.0036127254815384612,18.1000003815,0.0,0.015795706837851316,0.04688091541429279
1648219724258126691,85530,3,1,0.0333878919482,0.0146502861753,-0.0294692683965,0.0,18.1000003815,0.011166519046220735,0.0048997612626421405,-0.009855942607525084,18.1000003815,0.0,0.016534508025644712,0.04688091289200561
1648219724258138404,85531,3,2,0.718301951885,0.586011469364,0.140573754907,0.0,18.1000003815,0.2402347665167224,0.19599045798127088,0.047014633748160534,18.1000003815,0.0,0.39222155181274343,0.9376183215341989
1648219724258161232,85532,3,3,2.13943624496,-1.14272224903,0.244753986597,0.0,18.1000003815,0.7155305167090301,-0.3821813541906354,0.08185752060100335,18.1000003815,0.0,1.0816794479765117,2.4378076418437633
1648219724258168530,85533,3,4,1.05732643604,1.2306240797,0.244857266545,-0.0809188112617,18.1000003815,0.3536208816187291,0.4115799597658863,0.0818920623896321,18.1000003815,-0.010934974494824324,0.6476831934784961,1.640832075157726
1648219724363055023,85534,4,0,0.012225298211,0.0439508594573,0.0108020491898,0.0,19.0,0.004088728498662207,0.014699284099431437,0.0036127254815384612,19.0,0.0,0.015795706837851316,0.04688091541429279
1648219724363078394,85535,4,1,0.0333878919482,0.0146502861753,-0.0294692683965,0.0,19.0,0.011166519046220735,0.0048997612626421405,-0.009855942607525084,19.0,0.0,0.016534508025644712,0.04688091289200561
1648219724363098865,85536,4,2,0.731001973152,0.646077632904,0.132130682468,0.0,19.0,0.24448226526822742,0.2160794758876254,0.04419086370167224,19.0,0.0,0.40771742170434505,0.984499217744947
1648219724363127441,85537,4,3,2.13869404793,-1.14272224903,0.251156717539,0.0,19.0,0.7152822902775919,-0.3821813541906354,0.0839989021869565,19.0,0.0,1.081351051722105,2.437807635118972
1648219724558002733,85538,6,0,0.0122046079487,0.0439508594573,0.0108254207298,0.0,13.1999998093,0.0040818086784949826,0.014699284099431437,0.0036205420501003345,13.1999998093,0.0,0.0157921270641884,0.046880915479478334
1648219724558049394,85539,6,1,0.0334108844399,0.0146502861753,-0.0294432006776,0.0,13.1999998093,0.011174208842775918,0.0048997612626421405,-0.009847224306889632,13.1999998093,0.0,0.01654489489101794,0.04688091456249508
1648219724558059503,85540,6,2,2.0518951416,-0.843856453896,0.376046150923,0.0,13.1999998093,0.6862525557190635,-0.28222623876120395,0.12576794345250836,13.1999998093,0.0,1.0107110320498085,2.250284003082193
1648219724558287501,85541,6,3,2.14318037033,-1.14272224903,0.209451913834,0.0,13.1999998093,0.7167827325518394,-0.3821813541906354,0.07005080730234113,13.1999998093,0.0,1.0833363092133261,2.4378076918421483
1648219724558306119,85542,6,4,0.692518889904,0.646077632904,0.268774986267,0.161837622523,13.1999998093,0.23161166886421403,0.2160794758876254,0.0898912997548495,13.1999998093,0.021869948989594594,0.39240065011159647,0.9844992198349017
1648219724558330244,85543,6,5,0.678443908691,0.615312039852,0.200581789017,-0.0809188112617,13.1999998093,0.22690431728795984,0.20578997988361203,0.06708421037357859,13.1999998093,-0.010934974494824324,0.38120946240659837,0.9376183113143705
1648219724663271028,85544,7,0,0.0122118405998,0.0439508594573,0.0108172614127,0.0,17.6000003815,0.00408422762535117,0.014699284099431437,0.003617813181505017,17.6000003815,0.0,0.015793377840954772,0.04688091554503761
1648219724663296965,85545,7,1,0.0334718860686,0.0146502861753,-0.0293738357723,0.0,17.6000003815,0.01119461072528428,0.0048997612626421405,-0.009824025341906354,17.6000003815,0.0,0.016572455430991152,0.04688091583987642
1648219724663308020,85546,7,2,1.0607149601,1.2306240797,0.229734271765,0.0,17.6000003815,0.35475416725752507,0.4115799597658863,0.07683420460367893,17.6000003815,0.0,0.6489214911328247,1.6408320108228056
1648219724663318374,85547,7,3,2.14189386368,-1.14272224903,0.222221165895,0.0,17.6000003815,0.7163524627692307,-0.3821813541906354,0.07432146016555183,17.6000003815,0.0,1.082766959840423,2.4378075617796315
1648219724858023226,85548,9,0,0.0123228654265,0.0439508594573,0.0106906108558,0.0,12.8999996185,0.004121359674414716,0.014699284099431437,0.003575455135719063,12.8999996185,0.0,0.015812658352332205,0.04688091530489902
1648219724858066898,85549,9,1,0.0333878919482,0.0146502861753,-0.0294692683965,0.0,12.8999996185,0.011166519046220735,0.0048997612626421405,-0.009855942607525084,12.8999996185,0.0,0.016534508025644712,0.04688091289200561
1648219724858077234,85550,9,2,1.07426738739,1.2306240797,0.154414623976,0.0,12.8999996185,0.3592867516354515,0.4115799597658863,0.05164368694849498,12.8999996185,0.0,0.6538899013460889,1.6408320819769637
1648219724858104050,85551,9,3,2.13779449463,-1.14272224903,0.258701831102,0.0,12.8999996185,0.7149814363311037,-0.3821813541906354,0.08652235153913043,12.8999996185,0.0,1.0809530498995616,2.437807637430412
1648219724858118222,85552,9,4,0.891423344612,0.515690088272,-0.0563316009939,0.161837622523,12.8999996185,0.29813489786354513,0.17247160142876253,-0.018840000332408024,12.8999996185,0.021869948989594594,0.4555384593507061,1.03138018971268
1648219724858138067,85553,9,5,2.23956465721,-1.52948987484,0.19615855813,-0.566431701183,12.8999996185,0.7490182800033444,-0.5115350751973244,0.06560486893979932,12.8999996185,-0.07654482448418919,1.1763183670739266,2.719093104509271
1648219724858207925,85554,9,6,2.34821724892,1.1896032095,0.681313276291,-0.566431701183,12.8999996185,0.7853569394381271,0.39786060518394645,0.22786397200367892,12.8999996185,-0.07654482448418919,1.1797729043356524,2.7190931989596256
1648219724858239075,85555,9,7,0.729727804661,0.501039803028,0.0993456989527,-0.404594063759,12.8999996185,0.24405612196020063,0.16757184047759197,0.033225986271806014,12.8999996185,-0.05467487348094594,0.3836757785599088,0.890737402949994
1648219724858252987,85556,9,8,1.28422284126,1.22476398945,0.156132787466,-0.161837622523,12.8999996185,0.4295059669765886,0.409620063361204,0.05221832356722408,12.8999996185,-0.021869948989594594,0.7326249706671385,1.7814748337232524
1648219724963140974,85557,10,0,0.0122046079487,0.0439508594573,0.0108254207298,0.0,12.3999996185,0.0040818086784949826,0.014699284099431437,0.0036205420501003345,12.3999996185,0.0,0.0157921270641884,0.046880915479478334
1648219724963197077,85558,10,1,0.0334108844399,0.0146502861753,-0.0294432006776,0.0,12.3999996185,0.011174208842775918,0.0048997612626421405,-0.009847224306889632,12.3999996185,0.0,0.01654489489101794,0.04688091456249508
1648219724963215332,85559,10,2,2.1380417347,-1.14272224903,0.256649315357,0.0,12.3999996185,0.7150641253177257,-0.3821813541906354,0.0858358914237458,12.3999996185,0.0,1.081062437662042,2.4378075126679675
1648219724963243088,85560,10,3,1.07587492466,1.2306240797,0.142784491181,0.0809188112617,12.3999996185,0.35982438951839457,0.4115799597658863,0.04775401042842809,12.3999996185,0.010934974494824324,0.654480898014189,1.6408320724472232
1648219724963348492,85561,10,4,1.18922507763,1.19253325462,0.415239900351,0.161837622523,12.3999996185,0.39773413967558524,0.3988405533846154,0.13887622085317725,12.3999996185,0.021869948989594594,0.6895351178519497,1.7345939073691448
1648219724963407526,85562,10,5,0.955880522728,0.386767566204,-0.0211712662131,0.242756426334,12.3999996185,0.3196924825177257,0.1293537010715719,-0.007080691041170568,12.3999996185,0.03280492247756756,0.47025412995273763,1.0313801173724388
1648219724963443555,85563,10,6,1.55389082432,-1.41521763802,0.482876300812,-0.647350490093,12.3999996185,0.5196959278662208,-0.47331693579264206,0.16149709057257525,12.3999996185,-0.08747979595851352,0.8741834112985675,2.15652200980066
1648219724963451320,85564,10,7,2.10180163383,-1.47674894333,0.542224168777,-0.647350490093,12.3999996185,0.7029436902441472,-0.4938959676688963,0.18134587584515047,12.3999996185,-0.08747979595851352,1.1100418416382845,2.6253313312423323
1648219724963465474,85565,10,8,0.711576044559,0.421928226948,0.166522622108,-0.161837622523,12.3999996185,0.23798529918361203,0.14111311938060198,0.055693184651505016,12.3999996185,-0.021869948989594594,0.36494782875960596,0.8438564330260443
1648219725158233038,85566,12,0,0.0122477002442,0.0439508594573,0.01077664271,0.0,43.5,0.004096220817458194,0.014699284099431437,0.0036042283311036784,43.5,0.0,0.015799588697385562,0.04688091548174064
1648219725158480675,85567,12,1,0.0334108844399,0.0146502861753,-0.0294432006776,0.0,43.5,0.011174208842775918,0.0048997612626421405,-0.009847224306889632,43.5,0.0,0.01654489489101794,0.04688091456249508
1648219725158616259,85568,12,2,1.1913497448,1.12807202339,-0.0216586645693,0.0,43.5,0.39844473070234115,0.377281613173913,-0.007243700524849498,43.5,0.0,0.6781281755597776,1.6408320456832746
1648219725158632207,85569,12,3,2.14147853851,-1.14272224903,0.226187050343,0.0,43.5,0.7162135580301002,-0.3821813541906354,0.07564784292408026,43.5,0.0,1.0825831648900048,2.437807426986384
1648219725158645206,85570,12,4,0.733934819698,1.97778868675,0.0166722014546,0.566431701183,43.5,0.24546315040066888,0.6614677882107023,0.005575987108561873,43.5,0.07654482448418919,0.7470233940443909,2.109641289722679
1648219725158671029,85571,12,5,2.39897108078,0.79111546278,0.1670884341,-0.647350490093,43.5,0.8023314651438126,0.26458711129765883,0.05588241943143812,43.5,-0.08747979595851352,1.1651085354525876,2.5315695658382302
1648219725158696167,85572,12,6,1.5780454874,-1.97778868675,0.0834777951241,-0.647350490093,43.5,0.5277744105016722,-0.6614677882107023,0.02791899502478261,43.5,-0.08747979595851352,0.9973120332178559,2.531569511591292
1648219725158704858,85573,12,7,1.30414783955,1.1690928936,0.325688093901,-0.242756426334,43.5,0.4361698460033444,0.3910009677591973,0.10892578391337793,43.5,-0.03280492247756756,0.7303218646006644,1.7814748148031228
1648219725158710213,85574,12,8,0.867654323578,0.167013257742,0.112674973905,-0.161837622523,43.5,0.29018539250100334,0.05585727683678929,0.03768393776086956,43.5,-0.021869948989594594,0.4141680328291217,0.8907373929670208
1648219725263124584,85575,13,0,0.0122477002442,0.0439508594573,0.01077664271,0.0,45.7000007629,0.004096220817458194,0.014699284099431437,0.0036042283311036784,45.7000007629,0.0,0.015799588697385562,0.04688091548174064
1648219725263191484,85576,13,1,0.0333878919482,0.0146502861753,-0.0294692683965,0.0,45.7000007629,0.011166519046220735,0.0048997612626421405,-0.009855942607525084,45.7000007629,0.0,0.016534508025644712,0.04688091289200561
1648219725263201130,85577,13,2,2.14414477348,-1.14272224903,0.199335455894,0.0,45.7000007629,0.7171052754113711,-0.3821813541906354,0.06666737655317725,45.7000007629,0.0,1.0837631381148858,2.437807533839833
1648219725263214942,85578,13,3,1.18623447418,1.12807202339,0.112388461828,0.0809188112617,45.7000007629,0.3967339378528428,0.377281613173913,0.037588114323745814,45.7000007629,0.010934974494824324,0.6761191097192542,1.6408320706398853
1648219725263222952,85579,13,4,1.78598093987,-0.076181486249,-1.65752053261,-0.647350490093,45.7000007629,0.597318040090301,-0.02547875794280936,-0.5543546931806019,45.7000007629,-0.08747979595851352,0.8451194289217028,2.437807591351248
1648219725263408702,85580,13,5,0.792076766491,0.079111546278,0.280088335276,-0.566431701183,45.7000007629,0.26490861755551837,0.026458711129765885,0.09367502852040134,45.7000007629,-0.07654482448418919,0.3755705189508359,0.8438564548114894
1648219725458212054,85581,15,0,0.0122118405998,0.0439508594573,0.0108172614127,0.0,32.7000007629,0.00408422762535117,0.014699284099431437,0.003617813181505017,32.7000007629,0.0,0.015793377840954772,0.04688091554503761
1648219725458269620,85582,15,1,0.0334718860686,0.0146502861753,-0.0293738357723,0.0,32.7000007629,0.01119461072528428,0.0048997612626421405,-0.009824025341906354,32.7000007629,0.0,0.016572455430991152,0.04688091583987642
1648219725458328111,85583,15,2,1.10146045685,1.26578474045,0.181517586112,0.0,32.7000007629,0.36838142369565213,0.42333937807692307,0.0607082227799331,32.7000007629,0.0,0.6712868058279018,1.6877128847135734
1648219725458365211,85584,15,3,2.13921403885,-1.14272224903,0.246687248349,0.0,32.7000007629,0.7154562002842809,-0.3821813541906354,0.08250409643779263,32.7000007629,0.0,1.0815811280442305,2.437807506949454
1648219725458402892,85585,15,4,0.841631472111,-0.0527410283685,0.0311214737594,-0.566431701183,32.7000007629,0.2814820976959866,-0.017639139922575247,0.010408519651973244,32.7000007629,-0.07654482448418919,0.3984664125166311,0.8438564433895454
1648219725563079960,85586,16,0,0.0122118405998,0.0439508594573,0.0108172614127,0.0,33.2999992371,0.00408422762535117,0.014699284099431437,0.003617813181505017,33.2999992371,0.0,0.015793377840954772,0.04688091554503761
1648219725563189346,85587,16,1,0.0333878919482,0.0146502861753,-0.0294692683965,0.0,33.2999992371,0.011166519046220735,0.0048997612626421405,-0.009855942607525084,33.2999992371,0.0,0.016534508025644712,0.04688091289200561
1648219725563221900,85588,16,2,0.97835624218,-0.0922968015075,-0.0594901666045,-0.404594063759,33.2999992371,0.32720944554515047,-0.03086849548745819,-0.019896376790802674,33.2999992371,-0.05467487348094594,0.46377247279413725,0.9844992209766936
1648219725563257338,85589,16,3,0.914701640606,-0.205104008317,-0.019527817145,-0.161837622523,33.2999992371,0.3059202811391304,-0.06859665829999999,-0.0065310425234113715,33.2999992371,-0.021869948989594594,0.4380410235975805,0.937618302507719
