%time,field.header.seq,field.header.frame_id,field.point_id,field.x,field.y,field.z,field.velocity,field.intensity,normalized_x,normalized_y,normalized_z,normalized_intensity,normalized_velocity,normalized_range,range
1648127056802792089,91937,0,0,0.0126825943589,0.0439508594573,0.0102612860501,0.0,41.0999984741,0.004241670354147157,0.014699284099431437,0.0034318682441806018,41.0999984741,0.0,0.015876160991319645,0.04688091549991015
1648127056802799471,91938,0,1,0.0329001024365,0.0146502861753,-0.0300128757954,0.0,41.0999984741,0.011003378741304349,0.0048997612626421405,-0.010037751102140467,41.0999984741,0.0,0.016314298877980183,0.04688091657444943
1648127056802958761,91939,0,2,0.494518995285,-1.53828001022,0.285439103842,0.0,41.0999984741,0.16539096832274247,-0.51447491980602,0.09546458322474916,41.0999984741,0.0,0.5651484653742586,1.6408320781061825
1648127056802964685,91940,0,3,1.27271521091,-1.22476398945,0.231952100992,0.0809188112617,41.0999984741,0.425657261173913,-0.409620063361204,0.0775759535090301,41.0999984741,0.010934974494824324,0.7281186745910245,1.7814748426766425
1648127056802983626,91941,0,4,0.760686933994,-0.389697611332,0.250807285309,0.242756426334,41.0999984741,0.2544103458173913,-0.13033364927491636,0.08388203522040133,41.0999984741,0.03280492247756756,0.3826697116981774,0.8907374103466906
1648127056802987406,91942,0,5,0.808316707611,-0.439508616924,0.726012468338,0.242756426334,41.0999984741,0.270340035990301,-0.1469928484695652,0.242813534561204,41.0999984741,0.03280492247756756,0.4096026948393663,1.1720229640820907
1648127057102944791,91943,3,0,0.0125994505361,0.0439508594573,0.0103632062674,0.0,12.8000001907,0.004213863055551839,0.014699284099431437,0.003465955273377926,12.8000001907,0.0,0.01586134410249293,0.04688091557326548
1648127057102949671,91944,3,1,0.0328124724329,0.0146502861753,-0.0301086530089,0.0,12.8000001907,0.010974071047792642,0.0048997612626421405,-0.010069783615016722,12.8000001907,0.0,0.01627476977271537,0.04688091528744241
1648127057102969030,91945,3,2,0.49877974391,-1.53828001022,0.277926802635,0.0,12.8000001907,0.16681596786287625,-0.51447491980602,0.09295210790468228,12.8000001907,0.0,0.5659854921969882,1.6408320847668365
1648127057102976916,91946,3,3,1.81628501415,-1.39177727699,0.508542716503,0.0,12.8000001907,0.6074531819899666,-0.4654773501638796,0.17008117608795983,12.8000001907,0.0,0.9770710824372287,2.34404584764885
1648127057103011223,91947,3,4,0.737906694412,-0.36918720603,0.176884829998,-0.242756426334,12.8000001907,0.2467915365926421,-0.12347398194983276,0.05915880601939799,12.8000001907,-0.03280492247756756,0.37021338345076404,0.843856460446742
1648127057103014912,91948,3,5,0.899709582329,-0.24612480402,-0.314934849739,-0.242756426334,12.8000001907,0.30090621482575247,-0.08231598796655518,-0.10532938118361203,12.8000001907,-0.03280492247756756,0.4334339881878599,0.9844992185210882
1648127057402987892,91949,6,0,0.0126674417406,0.0439508594573,0.0102799860761,0.0,31.5,0.004236602588829431,0.014699284099431437,0.0034381224334782603,31.5,0.0,0.015873454445304285,0.04688091553086012
1648127057402999715,91950,6,1,0.0329001024365,0.0146502861753,-0.0300128757954,0.0,31.5,0.011003378741304349,0.0048997612626421405,-0.010037751102140467,31.5,0.0,0.016314298877980183,0.04688091657444943
1648127057403002152,91951,6,2,1.86144328117,-1.31852579117,0.539509117603,0.0,31.5,0.6225562813277591,-0.44097852547491634,0.18043783197424748,31.5,0.0,0.9846901577508161,2.3440459549612456
1648127057403016494,91952,6,3,0.170200169086,-0.761814892292,-1.70504617691,0.161837622523,31.5,0.056923133473578594,-0.2547875893953177,-0.5702495574949833,31.5,0.021869948989594594,0.26720254856340475,1.875236649884537
1648127057403050680,91953,6,4,1.34985899925,-0.127457484603,-0.100010327995,-0.404594063759,31.5,0.45145785928093646,-0.04262792127190635,-0.03344827023244147,31.5,-0.05467487348094594,0.6398793144687641,1.3595465398224522
1648127057403061594,91954,6,5,0.734582006931,-0.224149376154,0.21287637949,-0.242756426334,31.5,0.24567960098026753,-0.07496634653979932,0.07119611354180601,31.5,-0.03280492247756756,0.355439004316032,0.7969755458492898
1648127057403080941,91955,6,6,0.998276412487,-0.404347896576,0.0509291402996,-0.242756426334,31.5,0.3338717098618729,-0.13523341022608695,0.01703315729083612,31.5,-0.03280492247756756,0.49115039706138736,1.0782610048244383
1648127057403091130,91956,6,7,0.499507367611,-0.316446185112,0.957234919071,-0.161837622523,31.5,0.16705932027123746,-0.10583484451906354,0.3201454578832776,31.5,-0.021869948989594594,0.25887959999457305,1.1251419859993106
1648127057403096303,91957,6,8,0.89850383997,-0.205104008317,0.172485619783,-0.0809188112617,31.5,0.30050295651170567,-0.06859665829999999,0.05768749825518395,31.5,-0.010934974494824324,0.43047596364312735,0.9376183091751468
1648127057507828494,91958,7,0,0.0126877604052,0.0439508594573,0.0102548981085,0.0,19.1000003815,0.004243398128829431,0.014699284099431437,0.003429731808862876,19.1000003815,0.0,0.015877084379548535,0.04688091558780411
1648127057507835104,91959,7,1,0.0329001024365,0.0146502861753,-0.0300128757954,0.0,19.1000003815,0.011003378741304349,0.0048997612626421405,-0.010037751102140467,19.1000003815,0.0,0.016314298877980183,0.04688091657444943
1648127057507841690,91960,7,2,1.81694734097,-1.39177727699,0.506171166897,0.0,19.1000003815,0.6076746959765886,-0.4654773501638796,0.16928801568461538,19.1000003815,0.0,0.9773465279910016,2.3440458354736844
1648127057507847490,91961,7,3,0.92725777626,-0.0879017189145,0.107677266002,0.0809188112617,19.1000003815,0.31011965761204013,-0.02939856819882943,0.0360124635458194,19.1000003815,0.010934974494824324,0.43955964315091445,0.9376183069012836
1648127057507871258,91962,7,4,0.90285885334,-0.096691891551,0.489123225212,0.161837622523,19.1000003815,0.301959482722408,-0.032338425267892976,0.1635863629471572,19.1000003815,0.021869948989594594,0.42825790379253426,1.0313801240997031
1648127057507998704,91963,7,5,0.861105799675,0.290075659752,-0.487952739,0.161837622523,19.1000003815,0.2879952507274247,0.09701527082006689,-0.16319489598662207,19.1000003815,0.021869948989594594,0.4186818501623821,1.0313801249355552
1648127057508123561,91964,7,6,2.03732466698,-1.0987714529,0.369541347027,0.161837622523,19.1000003815,0.6813794872842809,-0.3674820912709029,0.12359242375484948,19.1000003815,0.021869948989594594,1.0313094098224913,2.3440459277829166
1648127057508147102,91965,7,7,0.883322238922,-0.586011469364,-1.54688227177,0.323675245047,19.1000003815,0.29542549796722406,-0.19599045798127088,-0.5173519303578594,19.1000003815,0.04373989797932432,0.461480995619617,1.8752366204606408
1648127057508196689,91966,7,8,0.759208917618,-0.174338400364,-0.168457612395,-0.323675245047,19.1000003815,0.2539160259591973,-0.058307157312374576,-0.056340338593645484,19.1000003815,-0.04373989797932432,0.36379447641721213,0.7969755489386092
1648127057508203001,91967,7,9,0.453420639038,0.0996219441295,0.647808015347,-0.323675245047,19.1000003815,0.15164569867491637,0.033318375963043476,0.21665819911270903,19.1000003815,-0.04373989797932432,0.21703214054609926,0.796975553204481
1648127057508207060,91968,7,10,0.832408428192,-0.234404578805,0.362324118614,-0.161837622523,19.1000003815,0.2783974676227425,-0.07839618020234114,0.12117863498795986,19.1000003815,-0.021869948989594594,0.4014427244674262,0.9376182937737709
1648127057508541827,91969,7,11,0.703203976154,-0.164083212614,0.203034192324,-0.0809188112617,19.1000003815,0.2351852763056856,-0.054877328633444813,0.06790441214849498,19.1000003815,-0.010934974494824324,0.3370990204374769,0.7500946713536802
