%time,field.header.seq,field.header.frame_id,field.point_id,field.x,field.y,field.z,field.velocity,field.intensity,normalized_x,normalized_y,normalized_z,normalized_intensity,normalized_velocity,normalized_range,range
1648294359358447879,6630,0,0,0.00614971714094,0.0454158857465,0.00986906979233,0.0,16.5,0.002056761585598662,0.015189259446989964,0.003300692238237458,16.5,0.0,0.015465255865583425,0.04688091549467217
1648294359358461490,6631,0,1,0.0335646085441,0.0146502861753,-0.0292678363621,0.0,16.5,0.011225621586655517,0.0048997612626421405,-0.009788574034147157,16.5,0.0,0.01661435585403362,0.04688091378221547
1648294359358468996,6632,0,2,2.36317944527,-0.984499275684,0.581815302372,0.0,16.5,0.7903610184849498,-0.32926397180066885,0.1945870576494983,16.5,0.0,1.1652278070004534,2.6253314001175485
1648294359358540539,6633,0,3,0.969058871269,-0.68563336134,0.276691675186,-0.242756426334,16.5,0.32409995694615384,-0.2293088165016722,0.09253902180133779,16.5,-0.03280492247756756,0.5125076560505171,1.2189038047708154
1648294359358546483,6634,0,4,1.16132843494,-0.679773271084,0.193885520101,-0.242756426334,16.5,0.3884041588428093,-0.22734892009498325,0.0648446555521739,16.5,-0.03280492247756756,0.5944771759126969,1.3595466261902407
1648294359463483883,6635,1,0,0.00618360564113,0.0454158857465,0.00984787195921,0.0,14.3000001907,0.0020680955321505014,0.015189259446989964,0.0032936026619431436,14.3000001907,0.0,0.015468278534089552,0.046880915509289606
1648294359463488185,6636,1,1,0.0335029289126,0.0146502861753,-0.0293384213001,0.0,14.3000001907,0.011204992947357858,0.0048997612626421405,-0.009812181036822742,14.3000001907,0.0,0.01658648227719088,0.04688091397491176
1648294359463490952,6637,1,2,1.17646408081,-1.33610606194,-0.0663742423058,0.0,14.3000001907,0.3934662477625418,-0.4468582146956522,-0.022198743246086953,14.3000001907,0.0,0.7136621331538149,1.7814748615208138
1648294359463493616,6638,1,3,2.3122074604,-1.1485824585,0.476256728172,0.0,14.3000001907,0.7733135319063544,-0.38414129046822737,0.15928318667959865,14.3000001907,0.0,1.1591342322188383,2.6253314981221743
1648294359463525262,6639,1,4,0.917544603348,-0.659262895584,0.311644345522,-0.323675245047,14.3000001907,0.3068711047986622,-0.22048926273712371,0.10422887810100333,14.3000001907,-0.04373989797932432,0.4867805099868558,1.1720229787519845
1648294359658472469,6640,3,0,0.0126124918461,0.0439508594573,0.0103473290801,0.0,35.7000007629,0.004218224697692308,0.014699284099431437,0.0034606451772909697,35.7000007629,0.0,0.01586366263623381,0.04688091527151703
1648294359658479567,6641,3,1,0.0335029289126,0.0146502861753,-0.0293384213001,0.0,35.7000007629,0.011204992947357858,0.0048997612626421405,-0.009812181036822742,35.7000007629,0.0,0.01658648227719088,0.04688091397491176
1648294359658483802,6642,3,2,1.69797551632,-1.43572807312,0.576654553413,0.0,35.7000007629,0.5678847880668896,-0.480176613083612,0.19286105465317724,35.7000007629,0.0,0.935711411060056,2.29716486738305
1648294359658500977,6643,3,3,1.32138574123,-1.25699448586,-0.12957303226,0.242756426334,35.7000007629,0.4419350305117057,-0.4203994935986622,-0.04333546229431438,35.7000007629,0.03280492247756756,0.7532256478670758,1.8283557053531605
1648294359658598843,6644,3,4,1.26819753647,-0.181663542986,-0.686132967472,-0.566431701183,35.7000007629,0.4241463332675585,-0.06075703778795986,-0.2294759088535117,35.7000007629,-0.07654482448418919,0.6029026801146246,1.4533083235881972
1648294359658612665,6645,3,5,0.849526643753,-0.547920703888,0.204529628158,-0.404594063759,35.7000007629,0.28412262332876254,-0.18325107153444814,0.06840455791237457,35.7000007629,-0.05467487348094594,0.4416245978123945,1.0313801360263866
1648294359658700662,6646,3,6,0.997524857521,-0.586011469364,0.187543317676,-0.404594063759,35.7000007629,0.33362035368595316,-0.19599045798127088,0.0627235176173913,35.7000007629,-0.05467487348094594,0.5108985617583879,1.1720229432922236
1648294359658757549,6647,3,7,0.984559059143,-0.39555773139,-0.690209031105,-0.242756426334,35.7000007629,0.3292839662685619,-0.13229355564882941,-0.2308391408377926,35.7000007629,-0.03280492247756756,0.48410478798429657,1.2657847235694764
1648294359658768922,6648,3,8,0.935873568058,-0.369187235832,-0.843168199062,-0.161837622523,35.7000007629,0.31300119333043475,-0.12347399191705685,-0.2819960531979933,35.7000007629,-0.021869948989594594,0.459549040617523,1.3126656704585298
1648294359763621165,6649,4,0,0.0126330824569,0.0439508594573,0.0103221805766,0.0,13.8000001907,0.0042251111895986624,0.014699284099431437,0.003452234306555184,13.8000001907,0.0,0.015867327505435232,0.046880915426792916
1648294359763624806,6650,4,1,0.0335029289126,0.0146502861753,-0.0293384213001,0.0,13.8000001907,0.011204992947357858,0.0048997612626421405,-0.009812181036822742,13.8000001907,0.0,0.01658648227719088,0.04688091397491176
1648294359763626150,6651,4,2,1.94746649265,-1.27017974854,0.557267665863,0.0,13.8000001907,0.6513265861705685,-0.42480928044816046,0.18637714577357858,13.8000001907,0.0,1.0143547547382512,2.39092651183846
1648294359763628734,6652,4,3,1.26700747013,-0.090831771493,-0.706078469753,0.161837622523,13.8000001907,0.4237483177692308,-0.03037851889397993,-0.23614664540234112,13.8000001907,0.021869948989594594,0.6000401053552153,1.4533083449586732
1648294359763630776,6653,4,4,1.33130860329,-0.996219456196,-0.866992890835,0.323675245047,13.8000001907,0.4452537134749163,-0.3331837646140468,-0.28996417753678927,13.8000001907,0.04373989797932432,0.7123995786977939,1.875236645027996
1648294359763631862,6654,4,5,1.00247824192,-0.457088917494,0.228148460388,-0.404594063759,13.8000001907,0.3352770039866221,-0.15287254765685618,0.07630383290568561,13.8000001907,-0.05467487348094594,0.4981880715468693,1.1251420461418484
1648294359763632805,6655,4,6,0.921357572079,-0.386767566204,0.255452811718,-0.323675245047,13.8000001907,0.3081463451769231,-0.1293537010715719,0.0854357229826087,13.8000001907,-0.04373989797932432,0.45457751822181486,1.0313801747703448
1648294359958477815,6656,6,0,0.00633084960282,0.0454158857465,0.00975386612117,0.0,32.4000015259,0.0021173410042876254,0.015189259446989964,0.0032621625823311034,32.4000015259,0.0,0.015481597734240782,0.04688091551092379
1648294359958488046,6657,6,1,0.0335872508585,0.0146502861753,-0.0292418505996,0.0,32.4000015259,0.011233194267056856,0.0048997612626421405,-0.00977988314367893,32.4000015259,0.0,0.01662458923744483,0.046880914365435775
1648294359958492299,6658,6,2,1.7015453577,-1.43572807312,0.566034317017,0.0,32.4000015259,0.5690787149498328,-0.480176613083612,0.18930913612608696,32.4000015259,0.0,0.9371610039744264,2.29716489445059
1648294359958494363,6659,6,3,1.87851881981,-1.47528386116,0.68438410759,0.0,32.4000015259,0.6282671638160535,-0.49340597363210703,0.22889100588294314,32.4000015259,0.0,1.0163113268456587,2.484688518527277
1648294359958496093,6660,6,4,2.34114742279,-1.06654083729,0.52334010601,0.0,32.4000015259,0.7829924490936455,-0.35670262116722407,0.17503013578929766,32.4000015259,0.0,1.1633533902571902,2.625331498954384
1648294359958504786,6661,6,5,2.22180771828,-0.990359306335,-0.160200193524,0.242756426334,32.4000015259,0.7430795044414715,-0.3312238482725752,-0.05357866004147157,32.4000015259,0.03280492247756756,1.1018364386361796,2.4378074564366337
1648294359958656602,6662,6,6,0.582029998302,-0.49224960804,1.81545758247,0.323675245047,32.4000015259,0.19465886230836119,-0.16463197593311035,0.607176448986622,32.4000015259,0.04373989797932432,0.32076133315911265,1.9689984330330934
1648294359958910417,6663,6,7,0.912821292877,-0.205104008317,0.06178798154,-0.323675245047,32.4000015259,0.30529140229999996,-0.06859665829999999,0.020664876769230768,32.4000015259,-0.04373989797932432,0.4371626495556635,0.9376183240637552
1648294359958926345,6664,6,8,0.971690714359,-0.161153152585,0.30592790246,-0.0809188112617,32.4000015259,0.3249801720264214,-0.05389737544648829,0.10231702423411371,32.4000015259,-0.010934974494824324,0.46274091185096716,1.03138017455406
1648294360060168482,6665,7,0,0.0126104149967,0.0439508594573,0.0103498604149,0.0,26.0,0.004217530099230769,0.014699284099431437,0.003461491777558528,26.0,0.0,0.01586329326815945,0.04688091534976943
1648294360060175430,6666,7,1,0.0335872508585,0.0146502861753,-0.0292418505996,0.0,26.0,0.011233194267056856,0.0048997612626421405,-0.00977988314367893,26.0,0.0,0.01662458923744483,0.046880914365435775
1648294360060180910,6667,7,2,1.69122600555,-1.43572807312,0.596159338951,0.0,26.0,0.5656274266053511,-0.480176613083612,0.19938439429799332,26.0,0.0,0.9329728566302626,2.2971648741899156
1648294360060184771,6668,7,3,1.89431262016,-1.47528386116,0.639370381832,0.0,26.0,0.6335493712909699,-0.49340597363210703,0.21383624810434781,26.0,0.0,1.022848506154364,2.4846885637963965
1648294360060187620,6669,7,4,2.3701300621,-0.984499275684,0.552820205688,0.0,26.0,0.7926856394983277,-0.32926397180066885,0.18488970089899667,26.0,0.0,1.1683817052914245,2.625331505716829
1648294360060191112,6670,7,5,0.724056839943,1.72287368774,-0.620002269745,0.323675245047,26.0,0.242159478241806,0.5762119356989966,-0.20735861864381266,26.0,0.04373989797932432,0.6703003958276259,1.9689984423213802
1648294360060313453,6671,7,6,0.932061135769,-0.0879017189145,0.0516082346439,-0.242756426334,26.0,0.31172613236421404,-0.02939856819882943,0.017260279145117054,26.0,-0.03280492247756756,0.4418264806568798,0.9376183034061258
1648294360060316421,6672,7,7,0.965128481388,-0.032230630517,0.362261354923,-0.0809188112617,26.0,0.32278544528026754,-0.010779475089297658,0.12115764378695651,26.0,-0.010934974494824324,0.4566148097168575,1.031380186158566
1648294360163589548,6673,8,0,0.0126104149967,0.0439508594573,0.0103498604149,0.0,26.2000007629,0.004217530099230769,0.014699284099431437,0.003461491777558528,26.2000007629,0.0,0.01586329326815945,0.04688091534976943
1648294360163614964,6674,8,1,0.0335360355675,0.0146502861753,-0.0293005723506,0.0,26.2000007629,0.011216065407190634,0.0048997612626421405,-0.009799522525284281,26.2000007629,0.0,0.01660144291523015,0.046880914098122665
1648294360163623760,6675,8,2,1.71155810356,-1.43572807312,0.534995794296,0.0,26.2000007629,0.5724274593846154,-0.480176613083612,0.17892835929632106,26.2000007629,0.0,0.9412310939761286,2.2971649356807577
1648294360163654277,6676,8,3,2.34375596046,-1.06654083729,0.511530697346,0.0,26.2000007629,0.7838648697190634,-0.35670262116722407,0.17108050078461537,26.2000007629,0.0,1.1645278132818198,2.6253314103416194
1648294360163678091,6677,8,4,2.63580822945,-0.594801604748,0.303634315729,0.242756426334,26.2000007629,0.8815412138628761,-0.19893030259130434,0.10154993837090301,26.2000007629,0.03280492247756756,1.2624591434049397,2.71909318875528
1648294360163691936,6678,8,5,1.09847569466,0.339886635542,-2.46399998665,0.242756426334,26.2000007629,0.3673831754715719,0.11367446004749163,-0.8240802630936455,26.2000007629,0.03280492247756756,0.5318483600672661,2.719093178063236
1648294360163696734,6679,8,6,0.480458974838,-1.95288312435,-0.138479530811,0.485512852669,26.2000007629,0.16068862034715717,-0.6531381686789297,-0.046314224351505014,26.2000007629,0.06560984495527027,0.6915425748306547,2.0158794369522783
1648294360163701213,6680,8,7,1.99776124954,0.251984924078,0.0960368588567,0.485512852669,26.2000007629,0.6681475750969899,0.08427589434046821,0.03211935078819398,26.2000007629,0.06560984495527027,0.9486541996865144,2.01587933428201
1648294360163710897,6681,8,8,0.928650140762,-0.0,0.326875448227,-0.161837622523,26.2000007629,0.3105853313585284,-0.0,0.10932289238361202,26.2000007629,-0.021869948989594594,0.4392339878813726,0.9844991836415532
1648294360163738553,6682,8,9,0.890707612038,-0.0,0.00728747108951,-0.0809188112617,26.2000007629,0.29789552242073575,-0.0,0.002437281300839465,26.2000007629,-0.010934974494824324,0.4212878879776229,0.8907374233618551
1648294360358486081,6683,10,0,0.0126124918461,0.0439508594573,0.0103473290801,0.0,32.2000007629,0.004218224697692308,0.014699284099431437,0.0034606451772909697,32.2000007629,0.0,0.01586366263623381,0.04688091527151703
1648294360358506048,6684,10,1,0.0335029289126,0.0146502861753,-0.0293384213001,0.0,32.2000007629,0.011204992947357858,0.0048997612626421405,-0.009812181036822742,32.2000007629,0.0,0.01658648227719088,0.04688091397491176
1648294360358512483,6685,10,2,1.71778047085,-1.43572807312,0.514666736126,0.0,32.2000007629,0.5745085186789297,-0.480176613083612,0.17212934318595316,32.2000007629,0.0,0.9437635592783634,2.2971649255665354
1648294360358577076,6686,10,3,2.3447573185,-1.06654083729,0.506920933723,0.0,32.2000007629,0.7841997720735786,-0.35670262116722407,0.1695387738204013,32.2000007629,0.0,1.1649786800573105,2.6253314216138817
1648294360358604263,6687,10,4,0.854205012321,0.250519901514,0.0314120426774,0.0809188112617,32.2000007629,0.28568729509063545,0.08378592023879598,0.010505699892107022,32.2000007629,0.010934974494824324,0.4126191241116552,0.8907374139184178
1648294360358610273,6688,10,5,1.45981347561,0.5186201334,-2.29141664505,0.485512852669,32.2000007629,0.48823193164214046,0.17345154963210702,-0.7663600819565217,32.2000007629,0.06560984495527027,0.7119173254106201,2.7659740540273656
1648294360358615588,6689,10,6,1.44728684425,-0.6914935112,-2.25339961052,0.485512852669,32.2000007629,0.4840424228260869,-0.23126873284280935,-0.7536453546889631,32.2000007629,0.06560984495527027,0.7225505940634298,2.7659740219789692
1648294360358622071,6690,10,7,1.26700496674,-1.72140860558,0.535196900368,0.566431701183,32.2000007629,0.4237474805150502,-0.5757219416655518,0.1789956188521739,32.2000007629,0.07654482448418919,0.831011196435318,2.20340302606496
1648294360358636253,6691,10,8,2.26423454285,-1.20864868164,-0.246610239148,-0.647350490093,32.2000007629,0.7572690778762542,-0.40423032830769223,-0.08247834085217391,32.2000007629,-0.08747979595851352,1.1446899453296728,2.5784503700319488
1648294360463350543,6692,11,0,0.012589732185,0.0439508594573,0.0103750098497,0.0,13.8000001907,0.00421061277090301,0.014699284099431437,0.003469902959765886,13.8000001907,0.0,0.015859617676627042,0.04688091544441868
1648294360463357591,6693,11,1,0.0334891453385,0.0146502861753,-0.0293541569263,0.0,13.8000001907,0.011200383056354513,0.0048997612626421405,-0.0098174437880602,13.8000001907,0.0,0.016580253968170543,0.04688091583336666
1648294360463364131,6694,11,2,1.72236430645,-1.43572807312,0.499111920595,0.0,13.8000001907,0.5760415740635452,-0.480176613083612,0.16692706374414715,13.8000001907,0.0,0.9456306730704448,2.297164907741255
1648294360463369309,6695,11,3,2.34368753433,-1.06654083729,0.511844336987,0.0,13.8000001907,0.7838419847257524,-0.35670262116722407,0.17118539698561874,13.8000001907,0.0,1.1644970047128422,2.6253314536429015
1648294360463371900,6696,11,4,0.807163357735,0.361862063408,0.104672633111,0.161837622523,13.8000001907,0.2699543002458194,0.12102410147424747,0.03500756960234114,13.8000001907,0.021869948989594594,0.40049654378042887,0.8907374467969363
1648294360463374728,6697,11,5,1.10838985443,0.366257160902,0.104715712368,0.242756426334,13.8000001907,0.3706989479698996,0.12249403374648829,0.035021977380602004,13.8000001907,0.03280492247756756,0.538368097453282,1.1720229339616557
1648294360463425539,6698,11,6,0.815590381622,0.36918720603,0.409575164318,0.404594063759,13.8000001907,0.27277270288361205,0.12347398194983276,0.1369816603070234,13.8000001907,0.05467487348094594,0.4050379230336466,0.9844992020904202
1648294360463578908,6699,11,7,1.41041147709,0.703213751316,-2.32988905907,0.404594063759,13.8000001907,0.4717095241103679,0.23518854559063543,-0.7792271100568562,13.8000001907,0.05467487348094594,0.7073424928914549,2.81285498067732
1648294360463631438,6700,11,8,2.11396884918,1.75803434849,0.593805015087,0.404594063759,13.8000001907,0.7070129930367892,0.5879713540100334,0.19859699501237457,13.8000001907,0.05467487348094594,1.1599332126385855,2.812855037451547
1648294360463666609,6701,11,9,1.58433377743,-1.51483952999,0.223902896047,0.485512852669,13.8000001907,0.529877517535117,-0.5066352943110367,0.07488391172140468,13.8000001907,0.06560984495527027,0.9045549671634042,2.2034030105235334
1648294360463670171,6702,11,10,1.93128502369,1.12514197826,0.260713577271,-0.647350490093,13.8000001907,0.6459147236421404,0.37630166496989964,0.08719517634481604,13.8000001907,-0.08747979595851352,0.9879345137682577,2.2502839561587673
1648294360658426199,6703,13,0,0.0126124918461,0.0439508594573,0.0103473290801,0.0,18.5,0.004218224697692308,0.014699284099431437,0.0034606451772909697,18.5,0.0,0.01586366263623381,0.04688091527151703
1648294360658431525,6704,13,1,0.0335029289126,0.0146502861753,-0.0293384213001,0.0,18.5,0.011204992947357858,0.0048997612626421405,-0.009812181036822742,18.5,0.0,0.01658648227719088,0.04688091397491176
1648294360658435540,6705,13,2,1.72163712978,-1.43572807312,0.501614272594,0.0,18.5,0.5757983711638796,-0.480176613083612,0.16776397076722407,18.5,0.0,0.9453343896327914,2.297164858048284
1648294360658441378,6706,13,3,2.34413671494,-1.06654083729,0.509782791138,0.0,18.5,0.783992212354515,-0.35670262116722407,0.17049591676856185,18.5,0.0,1.164699247880165,2.625331367671022
1648294360658452716,6707,13,4,0.787135541439,0.498109728098,0.106922768056,0.485512852669,18.5,0.26325603392608693,0.1665918823070234,0.03576012309565217,18.5,0.06560984495527027,0.4078729386065999,0.9376183339456883
1648294360658544837,6708,13,5,2.36445522308,1.27457487583,0.422229170799,0.485512852669,18.5,0.7907877000267557,0.4262792226856187,0.1412137694979933,18.5,0.06560984495527027,1.1968309607963306,2.719093063637389
1648294360658569676,6709,13,6,0.411931157112,-1.47674882412,1.64721083641,-0.647350490093,18.5,0.1377696177632107,-0.49389592779933106,0.5509066342508361,18.5,-0.08747979595851352,0.5309370232466412,2.2502839614870753
1648294360658571862,6710,13,7,1.94738900661,1.12514197826,0.0742271617055,-0.647350490093,18.5,0.6513006711070234,0.37630166496989964,0.024825137694147157,18.5,-0.08747979595851352,0.9949814427556107,2.2502840011525573
1648294360763621967,6711,14,0,0.0126124918461,0.0439508594573,0.0103473290801,0.0,17.2999992371,0.004218224697692308,0.014699284099431437,0.0034606451772909697,17.2999992371,0.0,0.01586366263623381,0.04688091527151703
1648294360763635941,6712,14,1,0.0334282107651,0.0146502861753,-0.0294235274196,0.0,17.2999992371,0.011180003600367892,0.0048997612626421405,-0.009840644621939797,17.2999992371,0.0,0.016552722478171578,0.046880914301942606
1648294360763676280,6713,14,2,1.71676766872,-1.43572807312,0.518035054207,0.0,17.2999992371,0.5741697888695652,-0.480176613083612,0.1732558709722408,17.2999992371,0.0,0.9433511926390357,2.297164914779612
1648294360763709185,6714,14,3,2.3434753418,-1.06654083729,0.512814760208,0.0,17.2999992371,0.7837710173244147,-0.35670262116722407,0.17150995324682272,17.2999992371,0.0,1.1644014664809832,2.625331410225968
1648294360763711457,6715,14,4,0.758027672768,0.707608819008,0.295517474413,0.323675245047,17.2999992371,0.2535209607919732,0.23665846789565215,0.09883527572341137,17.2999992371,0.04373989797932432,0.42959630532453125,1.0782609939636159
1648294360763713939,6716,14,5,0.882549166679,1.0372402668,-2.4074575901,-0.566431701183,17.2999992371,0.2951669453775919,0.34690309926421403,-0.8051697625752507,17.2999992371,-0.07654482448418919,0.5427603629284233,2.7659740510003403
1648294360763715287,6717,14,6,0.593304812908,0.83799636364,-0.0974502488971,-0.323675245047,17.2999992371,0.19842970331371235,0.28026634235451503,-0.03259205648732441,17.2999992371,-0.04373989797932432,0.39660801425477277,1.0313801711802328
1648294360958445292,6718,16,0,0.0062171574682,0.0454158857465,0.00982672441751,0.0,32.5,0.0020793168789966553,0.015189259446989964,0.003286529905521739,32.5,0.0,0.015471286950817462,0.04688091549768652
1648294360958452128,6719,16,1,0.033480156213,0.0146502861753,-0.0293644089252,0.0,32.5,0.01119737665986622,0.0048997612626421405,-0.009820872550234113,32.5,0.0,0.016576192221276938,0.04688091569702361
1648294360958457982,6720,16,2,1.72031390667,-1.43572807312,0.506133794785,0.0,32.5,0.5753558216287625,-0.480176613083612,0.16927551665050164,32.5,0.0,0.9447953337716406,2.297164873414734
1648294360958546615,6721,16,3,2.34198713303,-1.06654083729,0.51956820488,0.0,32.5,0.7832732886387959,-0.35670262116722407,0.17376863039464882,32.5,0.0,1.1637314335093114,2.6253312568907488
1648294360958554029,6722,16,4,0.802922010422,0.914177834988,0.0729488953948,0.485512852669,32.5,0.26853578943879597,0.30574509531371236,0.02439762387785953,32.5,0.06560984495527027,0.4875479501827751,1.2189037739472197
