%time,field.header.seq,field.header.frame_id,field.point_id,field.x,field.y,field.z,field.velocity,field.intensity,normalized_x,normalized_y,normalized_z,normalized_intensity,normalized_velocity,normalized_range,range
1648295458567193378,45858,0,0,0.0126983001828,0.0439508594573,0.01024184376,0.0,20.0,0.0042469231380602,0.014699284099431437,0.0034253658060200663,20.0,0.0,0.015878969277537507,0.046880915500575354
1648295458567199668,45859,0,1,0.0334552153945,0.0146502861753,-0.0293928217143,0.0,20.0,0.011189035248996655,0.0048997612626421405,-0.00983037515528428,20.0,0.0,0.016564923182359397,0.0468809160580209
1648295458567209011,45860,0,2,0.759735882282,-0.615311980247,0.115893259645,0.0,20.0,0.2540922683217391,-0.2057899599488294,0.03876028750668896,20.0,0.0,0.4140957247515532,0.9844992084778112
1648295458567304998,45861,0,3,2.18619084358,-1.31266570091,0.62437492609,0.0,20.0,0.7311675062140468,-0.4390186290668896,0.20882104551505015,20.0,0.0,1.1233651236148947,2.625331540058982
1648295458567310669,45862,0,4,1.86329603195,-0.117202289402,0.17579460144,0.0809188112617,20.0,0.6231759304180602,-0.03919809010100334,0.058794181083612035,20.0,0.010934974494824324,0.8821751361109631,1.875236577399538
1648295458567315956,45863,0,5,0.528555631638,-0.632892370224,0.179359614849,-0.161837622523,20.0,0.176774458741806,-0.21166968903812708,0.059986493260535116,20.0,-0.021869948989594594,0.3275705661142563,0.8438564329687719
1648295458762464190,45864,2,0,0.0126864491031,0.0439508594573,0.0102565195411,0.0,36.5999984741,0.00424295956625418,0.014699284099431437,0.003430274094013378,36.5999984741,0.0,0.015876849964572115,0.04688091542384651
1648295458762469591,45865,2,1,0.0334780961275,0.0146502861753,-0.0293667558581,0.0,36.5999984741,0.011196687668060201,0.0048997612626421405,-0.009821657477625418,36.5999984741,0.0,0.01657526138264707,0.0468809146131938
1648295458762569255,45866,2,2,1.87369298935,-0.0586011447012,0.0485063008964,0.0809188112617,36.5999984741,0.6266531736956521,-0.019599045050568562,0.016222843109163877,36.5999984741,0.010934974494824324,0.8864381099504695,1.8752366180635132
1648295458762583248,45867,2,3,1.76354193687,-0.167013257742,0.188889414072,0.161837622523,36.5999984741,0.589813356812709,-0.05585727683678929,0.06317371708093644,36.5999984741,0.021869948989594594,0.8359902075532785,1.781474895166713
1648295458762604730,45868,2,4,0.550369024277,-0.547920703888,0.179016545415,-0.161837622523,36.5999984741,0.1840699077849498,-0.18325107153444814,0.05987175431939799,36.5999984741,-0.021869948989594594,0.31834637915711134,0.7969755856769134
1648295458762624535,45869,2,5,0.610580086708,-0.527410268784,0.247232854366,-0.0809188112617,36.5999984741,0.20420738685886286,-0.17639139424214045,0.08268657336655519,36.5999984741,-0.010934974494824324,0.3384010012664513,0.8438564559100793
1648295458762652118,45870,2,6,0.75872284174,-0.615311980247,0.122350014746,-0.0809188112617,36.5999984741,0.2537534587759197,-0.2057899599488294,0.04091973737324415,36.5999984741,-0.010934974494824324,0.41368000108444397,0.9844992177355206
1648295458867414053,45871,3,0,0.0126564949751,0.0439508594573,0.0102934604511,0.0,27.8999996185,0.004232941463244147,0.014699284099431437,0.003442628913411371,27.8999996185,0.0,0.015871500871004633,0.046880915521653674
1648295458867417785,45872,3,1,0.0335404723883,0.0146502861753,-0.0292954929173,0.0,27.8999996185,0.011217549293745818,0.0048997612626421405,-0.009797823718160533,27.8999996185,0.0,0.016603447977637752,0.046880913795659694
1648295458867426014,45873,3,2,0.765135526657,-0.461484014988,0.413326531649,0.0809188112617,27.8999996185,0.25589816945050164,-0.15434247992909697,0.1382362982103679,27.8999996185,0.010934974494824324,0.3934327736308949,0.9844992087386973
1648295458867431068,45874,3,3,1.81704688072,-0.171408340335,0.108832478523,0.161837622523,27.8999996185,0.6077079868628762,-0.05732720412541805,0.03639882224849498,27.8999996185,0.021869948989594594,0.8613387271722414,1.8283557351489728
1648295458867510338,45875,3,4,0.603457152843,-0.498109728098,0.151314809918,-0.161837622523,27.8999996185,0.20182513473010033,-0.1665918823070234,0.050606959838795984,27.8999996185,-0.021869948989594594,0.33048392588482034,0.796975538046033
1648295458867513384,45876,3,5,0.734910011292,-0.556710898876,-0.170611694455,-0.0809188112617,27.8999996185,0.24578930143545147,-0.18619093607892975,-0.05706076737625417,27.8999996185,-0.010934974494824324,0.3943245187383135,0.9376183124861298
1648295458867529097,45877,3,6,0.22471165657,-0.175803437829,0.893155038357,-0.0809188112617,27.8999996185,0.07515440019063545,-0.05879713639765886,0.29871405965117054,27.8999996185,-0.010934974494824324,0.12146386699176538,0.9376183124776429
1648295458965358230,45878,4,0,0.0126779936254,0.0439508594573,0.0102669699118,0.0,15.3000001907,0.004240131647290969,0.014699284099431437,0.0034337692012709024,15.3000001907,0.0,0.015875338919484987,0.04688091552615868
1648295458965365215,45879,4,1,0.0335497111082,0.0146502861753,-0.0292849130929,0.0,15.3000001907,0.011220639166622073,0.0048997612626421405,-0.00979428531535117,15.3000001907,0.0,0.016607623160643882,0.04688091440363094
1648295458965388012,45880,4,2,0.634008944035,-0.423393249512,0.232251614332,0.0,15.3000001907,0.2120431250953177,-0.14160309348227423,0.07767612519464882,15.3000001907,0.0,0.33162631060295383,0.796975531122836
1648295458965527595,45881,4,3,1.81582915783,-0.171408340335,0.127546846867,0.161837622523,15.3000001907,0.6073007216822742,-0.05732720412541805,0.042657808316722404,15.3000001907,0.021869948989594594,0.8607640451624705,1.8283556950735054
1648295458965532008,45882,4,4,0.65116584301,-0.448298752308,0.100902460515,-0.161837622523,15.3000001907,0.2177812183979933,-0.14993269307959864,0.033746642312709026,15.3000001907,-0.021869948989594594,0.3425450782421637,0.7969755535534416
1648295458965536060,45883,4,5,0.67884939909,-0.646077632904,0.301638662815,-0.0809188112617,15.3000001907,0.22703993280602003,-0.2160794758876254,0.10088249592474915,15.3000001907,-0.010934974494824324,0.3870201571972642,0.9844992114209696
1648295458965539078,45884,4,6,0.828401505947,-0.338421612978,-0.410439401865,-0.0809188112617,15.3000001907,0.27705735984849494,-0.11318448594581938,-0.13727070296488295,15.3000001907,-0.010934974494824324,0.4078385577054433,0.9844992360531254
1648295459067276409,45885,5,0,0.0126779936254,0.0439508594573,0.0102669699118,0.0,16.6000003815,0.004240131647290969,0.014699284099431437,0.0034337692012709024,16.6000003815,0.0,0.015875338919484987,0.04688091552615868
1648295459067288380,45886,5,1,0.0335288532078,0.0146502861753,-0.0293087940663,0.0,16.6000003815,0.011213663280200667,0.0048997612626421405,-0.009802272262976587,16.6000003815,0.0,0.016598197153737212,0.04688091607540502
1648295459067291601,45887,5,2,1.91828262806,-0.120132349432,0.017206421122,0.0,16.6000003815,0.6415660963411371,-0.040178043288294316,0.005754655893645485,16.6000003815,0.0,0.9082006315298875,1.9221176039526457
1648295459067296577,45888,5,3,0.956146299839,1.6217867136,-0.387463778257,0.0,16.6000003815,0.319781371183612,0.5424035831438127,-0.12958654791204013,16.6000003815,0.0,0.7062024481120049,1.9221176006078526
1648295459067300659,45889,5,4,1.52022027969,-1.68478298187,0.587356626987,0.0,16.6000003815,0.5084348761505016,-0.5634725691872909,0.196440343473913,16.6000003815,0.0,0.9135170402345422,2.3440459044236004
1648295459067437940,45890,5,5,1.8122600317,-0.171408340335,0.170931085944,0.0809188112617,16.6000003815,0.6061070340133778,-0.05732720412541805,0.0571675872722408,16.6000003815,0.010934974494824324,0.8590796713307942,1.8283557306431588
1648295459067443315,45891,5,6,1.14187240601,-0.451228827238,-0.464339375496,-0.323675245047,16.6000003815,0.38189712575585283,-0.15091265125016723,-0.1552974499986622,16.6000003815,-0.04373989797932432,0.5607721976244168,1.3126656473655667
1648295459067446818,45892,5,7,1.03156876564,0.0410208031535,0.810724675655,-0.323675245047,16.6000003815,0.34500627613377927,0.013719332158361203,0.2711453764732441,16.6000003815,-0.04373989797932432,0.4881053997020178,1.3126657321082533
1648295459067451084,45893,5,8,0.683984518051,-0.373582303524,0.166647657752,-0.0809188112617,16.6000003815,0.22875736389665552,-0.12494391422207357,0.055735002592642136,16.6000003815,-0.010934974494824324,0.3468008719352168,0.7969755330460181
1648295459067455279,45894,5,9,0.765283823013,-0.523015201092,0.331714451313,-0.0809188112617,16.6000003815,0.2559477668939799,-0.1749214719371237,0.11094128806454848,16.6000003815,-0.010934974494824324,0.40201497497068456,0.984499216631777
1648295459262473459,45895,7,0,0.0126983001828,0.0439508594573,0.01024184376,0.0,17.5,0.0042469231380602,0.014699284099431437,0.0034253658060200663,17.5,0.0,0.015878969277537507,0.046880915500575354
1648295459262647331,45896,7,1,0.0335632227361,0.0146502861753,-0.0292694270611,0.0,17.5,0.011225158105719061,0.0048997612626421405,-0.009789106040501672,17.5,0.0,0.01661372954600108,0.04688091473015751
1648295459262661130,45897,7,2,1.91833150387,-0.120132349432,0.0104137659073,0.0,17.5,0.6415824427658863,-0.040178043288294316,0.0034828648519397987,17.5,0.0,0.9082237262334427,1.9221175787762204
1648295459262665864,45898,7,3,1.56559789181,-1.61153149605,0.668147146702,0.0,17.5,0.5236113350535117,-0.5389737444983277,0.2234605841812709,17.5,0.0,0.9158768244974814,2.3440458893219414
1648295459262668985,45899,7,4,0.686407148838,-0.281285494566,0.111200883985,-0.0809188112617,17.5,0.2295676083070234,-0.09407541624280935,0.03719093109866221,17.5,-0.010934974494824324,0.3380129546465219,0.7500946207167446
1648295459262860101,45900,7,5,0.813485085964,-0.351606875658,0.306174308062,-0.0809188112617,17.5,0.2720685906234114,-0.11759427279531771,0.10239943413444816,17.5,-0.010934974494824324,0.4023320133942593,0.9376183056089943
1648295459367496334,45901,8,0,0.0126779936254,0.0439508594573,0.0102669699118,0.0,24.7999992371,0.004240131647290969,0.014699284099431437,0.0034337692012709024,24.7999992371,0.0,0.015875338919484987,0.04688091552615868
1648295459367510257,45902,8,1,0.0334552153945,0.0146502861753,-0.0293928217143,0.0,24.7999992371,0.011189035248996655,0.0048997612626421405,-0.00983037515528428,24.7999992371,0.0,0.016564923182359397,0.0468809160580209
1648295459367569534,45903,8,2,0.878045141697,-0.293005734682,0.149373456836,-0.242756426334,24.7999992371,0.2936605825073578,-0.09799522899063544,0.049957677871571904,24.7999992371,-0.03280492247756756,0.4267038086800357,0.9376182917485023
1648295459367606643,45904,8,3,0.688268065453,-0.257845044136,0.149816662073,-0.0809188112617,24.7999992371,0.2301899884458194,-0.08623580071438126,0.05010590704782609,24.7999992371,-0.010934974494824324,0.33676620211390484,0.7500946799855378
1648295459562480787,45905,10,0,0.0126779936254,0.0439508594573,0.0102669699118,0.0,31.7999992371,0.004240131647290969,0.014699284099431437,0.0034337692012709024,31.7999992371,0.0,0.015875338919484987,0.04688091552615868
1648295459562573484,45906,10,1,0.0334416292608,0.0146502861753,-0.0294082760811,0.0,31.7999992371,0.011184491391571906,0.0048997612626421405,-0.009835543839832775,31.7999992371,0.0,0.016558784852977005,0.04688091461028868
1648295459562579109,45907,10,2,1.47050523758,-1.68478298187,0.702617883682,0.0,31.7999992371,0.49180777176588625,-0.5634725691872909,0.2349892587565217,31.7999992371,0.0,0.8951263067104991,2.344045912566295
1648295459562580814,45908,10,3,2.20644569397,-1.31266570091,0.548517465591,0.0,31.7999992371,0.7379417036688963,-0.4390186290668896,0.1834506573882943,31.7999992371,0.0,1.132189592204096,2.625331455805661
1648295459562602435,45909,10,4,1.0401802063,-0.553780794144,1.57743668556,0.323675245047,31.7999992371,0.34788635662207357,-0.18521096794113712,0.5275707978461538,31.7999992371,0.04373989797932432,0.5256928160943937,1.9689983561424291
1648295459562653957,45910,10,5,1.02280533314,-0.336956560612,-0.0545570254326,-0.404594063759,31.7999992371,0.34207536225418056,-0.11269450187692308,-0.018246496800200667,31.7999992371,-0.05467487348094594,0.49672040191232886,1.0782610733320332
1648295459562656451,45911,10,6,0.794840455055,-0.184593603015,0.215052559972,-0.323675245047,31.7999992371,0.2658329281120401,-0.06173699097491638,0.07192393310100334,31.7999992371,-0.04373989797932432,0.3809799829280786,0.843856475247189
1648295459562665172,45912,10,7,0.632544398308,-0.168478280306,0.856825232506,-0.242756426334,31.7999992371,0.211553310470903,-0.05634725093846154,0.2865636229117057,31.7999992371,-0.03280492247756756,0.30444148703932994,1.0782610193383872
1648295459667495384,45913,11,0,0.0126864491031,0.0439508594573,0.0102565195411,0.0,13.1999998093,0.00424295956625418,0.014699284099431437,0.003430274094013378,13.1999998093,0.0,0.015876849964572115,0.04688091542384651
1648295459667505066,45914,11,1,0.0335497111082,0.0146502861753,-0.0292849130929,0.0,13.1999998093,0.011220639166622073,0.0048997612626421405,-0.00979428531535117,13.1999998093,0.0,0.016607623160643882,0.04688091440363094
1648295459667517721,45915,11,2,1.46403360367,-1.68478298187,0.716004908085,0.0,13.1999998093,0.48964334570903,-0.5634725691872909,0.23946652444314379,13.1999998093,0.0,0.8927499920026837,2.3440458862990594
1648295459667522773,45916,11,3,2.19268608093,-1.31266570091,0.601166903973,0.0,13.1999998093,0.7333398263979933,-0.4390186290668896,0.20105916520836117,13.1999998093,0.0,1.1261935706754187,2.6253314339873715
1648295459667530741,45917,11,4,0.940429985523,1.66134238243,0.482169896364,0.242756426334,13.1999998093,0.31452507877023406,0.5556329038227424,0.1612608349043478,13.1999998093,0.03280492247756756,0.7117443179691263,1.9689984454764429
1648295459667576698,45918,11,5,0.661308646202,-0.175803437829,0.162091359496,-0.485512852669,13.1999998093,0.22117346026822743,-0.05879713639765886,0.054211157022073575,13.1999998093,-0.06560984495527027,0.3182648304519481,0.7032137535040669
1648295459667769980,45919,11,6,0.950939118862,-0.24612480402,-0.0661515519023,-0.485512852669,13.1999998093,0.3180398390842809,-0.08231598796655518,-0.02212426485026756,13.1999998093,-0.06560984495527027,0.45724676091189603,0.9844991898193736
1648295459667773555,45920,11,7,0.781382679939,-0.101086974144,0.736117660999,-0.242756426334,13.1999998093,0.26133199997959866,-0.03380835255652174,0.2461931976585284,13.1999998093,-0.03280492247756756,0.3711223964263811,1.0782609515719663
1648295459667777367,45921,11,8,0.842912137508,-0.0,0.0399110838771,-0.161837622523,13.1999998093,0.2819104138822742,-0.0,0.013348188587658861,13.1999998093,-0.021869948989594594,0.3986815306865247,0.8438564843470425
1648295459667778644,45922,11,9,1.36561405659,-0.421928226948,-0.455678343773,-0.161837622523,13.1999998093,0.4567271092274247,-0.14111311938060198,-0.15240078387056855,13.1999998093,-0.021869948989594594,0.6611446264379708,1.5001892991337402
1648295459667779850,45923,11,10,0.249816343188,0.187523663044,-1.46730864048,-0.161837622523,13.1999998093,0.08355061645083611,0.0627169441618729,-0.49073867574581936,13.1999998093,-0.021869948989594594,0.1337715444466159,1.5001893133709925
1648295459862397912,45924,13,0,0.0126779936254,0.0439508594573,0.0102669699118,0.0,14.8999996185,0.004240131647290969,0.014699284099431437,0.0034337692012709024,14.8999996185,0.0,0.015875338919484987,0.04688091552615868
1648295459862401592,45925,13,1,0.0334552153945,0.0146502861753,-0.0293928217143,0.0,14.8999996185,0.011189035248996655,0.0048997612626421405,-0.00983037515528428,14.8999996185,0.0,0.016564923182359397,0.0468809160580209
1648295459862403746,45926,13,2,1.44235944748,-1.68478298187,0.758720576763,0.0,14.8999996185,0.4823944640401337,-0.5634725691872909,0.2537527012585284,14.8999996185,0.0,0.8848221143821293,2.3440459435209795
1648295459862409853,45927,13,3,2.02162194252,-0.805765748024,-0.870825648308,0.0,14.8999996185,0.676127739973244,-0.26948687224882945,-0.29124603622341133,14.8999996185,0.0,0.9934387831351816,2.344045867494504
1648295459862596494,45928,13,4,2.19686841965,-1.31266570091,0.585698604584,0.0,14.8999996185,0.734738601889632,-0.4390186290668896,0.19588582093110368,14.8999996185,0.0,1.1280155064897084,2.625331398321491
1648295459862609788,45929,13,5,0.723325371742,0.0527410283685,0.431407541037,0.0809188112617,14.8999996185,0.2419148400474916,0.017639139922575247,0.14428345854080268,14.8999996185,0.010934974494824324,0.34257366934371225,0.8438564308830384
1648295459862740540,45930,13,6,0.604758858681,0.0571361146867,0.049333460629,0.161837622523,14.8999996185,0.20226048785317724,0.0191090684570903,0.016499485160200666,14.8999996185,0.021869948989594594,0.2866771117311396,0.6094518874302307
1648295459862745599,45931,13,7,0.784581124783,0.0673913136125,0.736571550369,0.161837622523,14.8999996185,0.2624017139742475,0.02253890087374582,0.24634500012341137,14.8999996185,0.021869948989594594,0.3717759016475411,1.0782609977779816
1648295459862749274,45932,13,8,0.340545266867,-1.32292079926,-1.48245716095,0.323675245047,14.8999996185,0.11389473808260868,-0.44244842784615385,-0.4958050705518394,14.8999996185,0.04373989797932432,0.4708552155698663,2.0158793996546933
1648295459965339215,45933,14,0,0.0126864491031,0.0439508594573,0.0102565195411,0.0,19.7999992371,0.00424295956625418,0.014699284099431437,0.003430274094013378,19.7999992371,0.0,0.015876849964572115,0.04688091542384651
1648295459965344951,45934,14,1,0.0335632227361,0.0146502861753,-0.0292694270611,0.0,19.7999992371,0.011225158105719061,0.0048997612626421405,-0.009789106040501672,19.7999992371,0.0,0.01661372954600108,0.04688091473015751
1648295459965354159,45935,14,2,2.19520401955,-1.31266570091,0.591906130314,0.0,19.7999992371,0.7341819463377927,-0.4390186290668896,0.19796191649297656,19.7999992371,0.0,1.1272903873113043,2.6253313689698894
1648295459965424683,45936,14,3,0.739739060402,0.0996219441295,0.279341489077,0.161837622523,19.7999992371,0.24740436802742474,0.033318375963043476,0.09342524718294314,19.7999992371,0.021869948989594594,0.35146544185013917,0.7969755810288862
1648295459965426015,45937,14,4,1.75029444695,0.0849716588855,-2.0791144371,0.161837622523,19.7999992371,0.5853827581772575,0.028418615011872907,-0.6953559990301003,19.7999992371,0.021869948989594594,0.828343868705274,2.71909317170181
1648295459965427089,45938,14,5,0.873868227005,-1.52948987484,-2.07134795189,0.161837622523,19.7999992371,0.29226362107190634,-0.5115350751973244,-0.6927585123377926,19.7999992371,0.021869948989594594,0.6576505010727643,2.7190931012390585
1648295459965428214,45939,14,6,0.848048150539,0.101086974144,0.65821158886,0.242756426334,19.7999992371,0.28362814399297653,0.03380835255652174,0.22013765513712372,19.7999992371,0.03280492247756756,0.4025330456402149,1.0782609784666297
1648295459965429243,45940,14,7,0.395808517933,-1.47528386116,-1.95973217487,0.242756426334,19.7999992371,0.13237743074682273,-0.49340597363210703,-0.6554288210267558,19.7999992371,0.03280492247756756,0.5277281716547897,2.484688521945593
1648295459965446416,45941,14,8,0.415120720863,0.153828009963,-0.546371042728,-0.566431701183,19.7999992371,0.13883636149264214,0.05144749497090301,-0.1827327902100334,19.7999992371,-0.07654482448418919,0.20297269590713993,0.703213755461791
1648295459965447436,45942,14,9,0.527433514595,0.439508587122,0.152169778943,-0.566431701183,19.7999992371,0.17639916876086956,0.14699283850234113,0.05089290265652173,19.7999992371,-0.07654482448418919,0.28955177093229256,0.7032137314469707
1648295459965448369,45943,14,10,1.2119525671,-0.0380907431245,0.124284721911,-0.404594063759,19.7999992371,0.405335306722408,-0.01273937897140468,0.0415667966257525,19.7999992371,-0.05467487348094594,0.5733722294705893,1.2189038607341234
1648295459965450406,45944,14,11,0.493819028139,0.430718421936,0.0373797044158,-0.323675245047,19.7999992371,0.16515686559832776,0.14405298392508362,0.012501573383210701,19.7999992371,-0.04373989797932432,0.27441727840325325,0.6563328681769619
1648295460065255276,45945,15,0,0.0126864491031,0.0439508594573,0.0102565195411,0.0,38.5,0.00424295956625418,0.014699284099431437,0.003430274094013378,38.5,0.0,0.015876849964572115,0.04688091542384651
1648295460065269431,45946,15,1,0.0334552153945,0.0146502861753,-0.0293928217143,0.0,38.5,0.011189035248996655,0.0048997612626421405,-0.00983037515528428,38.5,0.0,0.016564923182359397,0.0468809160580209
1648295460065273129,45947,15,2,1.86872923374,-0.0586011447012,0.144669041038,0.0,38.5,0.6249930547625417,-0.019599045050568562,0.04838429466153846,38.5,0.0,0.8840909226825718,1.875236564977772
1648295460065276527,45948,15,3,2.24320936203,-1.2306240797,0.588167250156,0.0,38.5,0.7502372448260869,-0.4115799597658863,0.19671145490167224,38.5,0.0,1.1380289584757342,2.6253313279646404
1648295460065405430,45949,15,4,1.00141692162,-1.1896032095,-2.23057746887,0.242756426334,38.5,0.33492204736454845,-0.39786060518394645,-0.7460125313946487,38.5,0.03280492247756756,0.6185778987153177,2.7190931377189114
1648295460065412398,45950,15,5,2.37459826469,-0.0849716588855,-1.32194197178,0.242756426334,38.5,0.7941800216354514,-0.028418615011872907,-0.4421210607959866,38.5,0.03280492247756756,1.1234996356069569,2.7190931720402864
1648295460065414398,45951,15,6,0.73932826519,0.199243888259,0.221055805683,0.323675245047,38.5,0.2472669783244147,0.06663675192608695,0.07393170758628763,38.5,0.04373989797932432,0.35598086162971176,0.7969755830284765
1648295460065415595,45952,15,7,0.266523420811,0.328166425228,-0.61960798502,-0.242756426334,38.5,0.08913826782976587,0.10975465726688963,-0.20722675084280937,38.5,-0.03280492247756756,0.1671446869486271,0.7500946550857875
1648295460065417338,45953,15,8,0.458088636398,0.586011469364,0.0968882516026,-0.242756426334,38.5,0.15320690180535115,0.19599045798127088,0.03240409752595318,38.5,-0.03280492247756756,0.2921591503637997,0.7500946435762237
1648295460065418506,45954,15,9,1.17801260948,-0.114272229373,0.291469722986,-0.242756426334,38.5,0.3939841503277592,-0.03821813691404682,0.09748151270434782,38.5,-0.03280492247756756,0.5584869268014727,1.218903790262911
1648295460165298838,45955,16,0,0.0126983001828,0.0439508594573,0.01024184376,0.0,28.7000007629,0.0042469231380602,0.014699284099431437,0.0034253658060200663,28.7000007629,0.0,0.015878969277537507,0.046880915500575354
1648295460165307161,45956,16,1,0.0335497111082,0.0146502861753,-0.0292849130929,0.0,28.7000007629,0.011220639166622073,0.0048997612626421405,-0.00979428531535117,28.7000007629,0.0,0.016607623160643882,0.04688091440363094
1648295460165312279,45957,16,2,1.91822195053,-0.120132349432,0.0229967311025,0.0,28.7000007629,0.6415458028528428,-0.040178043288294316,0.0076912144155518395,28.7000007629,0.0,0.9081719603019427,1.9221176037164247
1648295460165461157,45958,16,3,2.24406480789,-1.2306240797,0.584895074368,0.0,28.7000007629,0.7505233471204013,-0.4115799597658863,0.1956170817284281,28.7000007629,0.0,1.1384061895591173,2.6253313572895522
1648295460165467980,45959,16,4,0.757160067558,0.237334623933,0.287183970213,0.404594063759,28.7000007629,0.2532307918254181,0.07937612840568561,0.0960481505729097,28.7000007629,0.05467487348094594,0.366813627906233,0.8438564595766006
1648295460165477055,45960,16,5,1.4036937952,-1.26578474045,-1.68412494659,0.485512852669,28.7000007629,0.46946280775919724,-0.42333937807692307,-0.5632524904983277,28.7000007629,0.06560984495527027,0.7874051592216386,2.5315694964914206
1648295460165482564,45961,16,6,0.832130670547,-2.21512317657,0.899795472622,0.485512852669,28.7000007629,0.27830457208929765,-0.7408438717625419,0.30093494067625415,28.7000007629,0.06560984495527027,0.8389019680628529,2.531569480143418
1648295460165485455,45962,16,7,0.813427329063,-1.84593617916,0.617609798908,0.566431701183,28.7000007629,0.27204927393411366,-0.6173699595852842,0.20655846117324414,28.7000007629,0.07654482448418919,0.7274388509658336,2.109641263557756
1648295460165499928,45963,16,8,2.07820796967,0.131852582097,0.338013678789,0.566431701183,28.7000007629,0.6950528326655518,0.04409785354414715,0.11304805310668896,28.7000007629,0.07654482448418919,0.9839418179343818,2.1096413713363757
1648295460165502197,45964,16,9,0.373562246561,0.73837441206,0.165372908115,-0.404594063759,28.7000007629,0.1249372062076923,0.24694796389966553,0.055308664921404675,28.7000007629,-0.05467487348094594,0.30364767060551834,0.8438564588714507
1648295460165506130,45965,16,10,0.326315373182,0.421928226948,-0.65390253067,-0.404594063759,28.7000007629,0.10913557631505015,0.14111311938060198,-0.21869649855183945,28.7000007629,-0.05467487348094594,0.20912690046132348,0.8438564280059857
1648295460165514089,45966,16,11,1.13266706467,-0.0732514336705,0.292125552893,-0.0809188112617,28.7000007629,0.3788184162775919,-0.02449880724765886,0.09770085381036789,28.7000007629,-0.010934974494824324,0.5362900116342684,1.1720229479732802
