%time,field.header.seq,field.header.frame_id,field.point_id,field.x,field.y,field.z,field.velocity,field.intensity,normalized_x,normalized_y,normalized_z,normalized_intensity,normalized_velocity,normalized_range,range
1648295687864909274,59850,0,0,0.0127121871337,0.0439508594573,0.0102246021852,0.0,30.7000007629,0.004251567603244147,0.014699284099431437,0.003419599393043478,30.7000007629,0.0,0.01588145482018912,0.04688091550517269
1648295687864917087,59851,0,1,0.0335142984986,0.0146502861753,-0.0293254330754,0.0,30.7000007629,0.011208795484481605,0.0048997612626421405,-0.00980783714896321,30.7000007629,0.0,0.016591619958785185,0.04688091417550657
1648295687864924757,59852,0,2,1.86276698112,-0.0586011447012,0.207792386413,0.0,30.7000007629,0.6229989903411371,-0.019599045050568562,0.0694957814090301,30.7000007629,0.0,0.8812715849833392,1.8752366773190043
1648295687864958876,59853,0,3,2.19807505608,-1.31266570091,0.581153988838,0.0,30.7000007629,0.7351421592240802,-0.4390186290668896,0.19436588255451503,30.7000007629,0.0,1.128541246567912,2.625331436837824
1648295687865016122,59854,0,4,1.24121582508,0.467344135046,0.298897236586,0.161837622523,30.7000007629,0.4151223495250836,0.15630238630301002,0.09996563096521738,30.7000007629,0.021869948989594594,0.6075224819827384,1.3595465505195716
1648295687865023665,59855,0,5,0.678405880928,0.64461261034,0.0580359101295,-0.404594063759,30.7000007629,0.22689159897257524,0.21558950178595315,0.01941000338779264,30.7000007629,-0.05467487348094594,0.3865726692990327,0.9376183250937472
1648295687865028225,59856,0,6,0.825547575951,0.461484014988,0.273390561342,-0.161837622523,30.7000007629,0.2761028682110368,0.15434247992909697,0.09143497034849499,30.7000007629,-0.021869948989594594,0.41986567944925673,0.984499210400349
1648295687865034298,59857,0,7,1.06970620155,0.476134330034,0.0516007989645,-0.161837622523,30.7000007629,0.3577612714214047,0.15924225084749163,0.017257792295819394,30.7000007629,-0.021869948989594594,0.5304190316279153,1.1720229947937157
1648295687968084365,59858,1,0,0.0127121871337,0.0439508594573,0.0102246021852,0.0,24.2000007629,0.004251567603244147,0.014699284099431437,0.003419599393043478,24.2000007629,0.0,0.01588145482018912,0.04688091550517269
1648295687968093880,59859,1,1,0.0334426723421,0.0146502861753,-0.0294070895761,0.0,24.2000007629,0.011184840248193979,0.0048997612626421405,-0.009835147015418058,24.2000007629,0.0,0.016559256118139135,0.046880914408061795
1648295687968097179,59860,1,2,2.19659900665,-1.31266570091,0.586708545685,0.0,24.2000007629,0.7346484972073578,-0.4390186290668896,0.1962235938745819,24.2000007629,0.0,1.127898127299549,2.6253314754409804
1648295687968126988,59861,1,3,0.669986307621,0.5845464468,0.0532628297806,-0.566431701183,24.2000007629,0.22407568816755852,0.19550048387959865,0.01781365544501672,24.2000007629,-0.07654482448418919,0.3723442859138395,0.8907374079392667
1648295687968133816,59862,1,4,0.79238063097,0.439508587122,0.241025328636,-0.242756426334,24.2000007629,0.2650102444715719,0.14699283850234113,0.08061047780468228,24.2000007629,-0.03280492247756756,0.4025763951360536,0.9376182973547839
1648295687968161661,59863,1,5,1.65231812,-1.50751447678,0.523652136326,-0.242756426334,24.2000007629,0.5526147558528427,-0.5041854437391304,0.17513449375451506,24.2000007629,-0.03280492247756756,0.9300371489628884,2.2971649107672687
1648295688068069752,59864,2,0,0.0127121871337,0.0439508594573,0.0102246021852,0.0,12.0,0.004251567603244147,0.014699284099431437,0.003419599393043478,12.0,0.0,0.01588145482018912,0.04688091550517269
1648295688068093368,59865,2,1,0.0335503853858,0.0146502861753,-0.0292841382325,0.0,12.0,0.011220864677525082,0.0048997612626421405,-0.009794026164715718,12.0,0.0,0.016607927885607783,0.0468809129238548
1648295688068099205,59866,2,2,1.75988841057,-0.111342176795,0.253077596426,0.0,12.0,0.5885914416622072,-0.037238186219063545,0.0846413365973244,12.0,0.0,0.8332265315680224,1.7814748294053473
1648295688068266669,59867,2,3,2.19562101364,-1.31266570091,0.590357124805,0.0,12.0,0.734321409244147,-0.4390186290668896,0.19744385444983276,12.0,0.0,1.1274720487960628,2.625331295796991
1648295688068273929,59868,2,4,0.782242834568,0.316446185112,0.00719034345821,0.566431701183,12.0,0.26161967711304346,0.10583484451906354,0.0024047971432140467,12.0,0.07654482448418919,0.3848255776580353,0.843856469634478
1648295688068385998,59869,2,5,0.620966255665,0.527410268784,0.219847708941,-0.566431701183,12.0,0.20768102196153843,0.17639139424214045,0.07352766185317726,12.0,-0.07654482448418919,0.34260288634024116,0.8438564436087621
1648295688068391185,59870,2,6,0.792856216431,0.410208016634,0.286769121885,-0.242756426334,12.0,0.2651693031541806,0.13719331659999998,0.09590940531270901,12.0,-0.03280492247756756,0.3993138174296693,0.9376183264584661
1648295688068395304,59871,2,7,0.96874409914,0.471739202738,-0.0405437350273,-0.242756426334,12.0,0.32399468198662207,0.15777230860802674,-0.013559777601103678,12.0,-0.03280492247756756,0.48460005084061963,1.0782610071167453
1648295688068405894,59872,2,8,2.00173163414,-1.9016071558,0.166051924229,-0.242756426334,12.0,0.6694754629230769,-0.6359890153177258,0.05553576061170568,12.0,-0.03280492247756756,1.1405598706411455,2.765974069228906
1648295688068408944,59873,2,9,2.46900367737,1.1236770153,0.540354907513,-0.242756426334,12.0,0.8257537382508361,0.37581171080267556,0.18072070485384614,12.0,-0.03280492247756756,1.226773375341548,2.7659740815223635
1648295688168139164,59874,3,0,0.0127121871337,0.0439508594573,0.0102246021852,0.0,13.3999996185,0.004251567603244147,0.014699284099431437,0.003419599393043478,13.3999996185,0.0,0.01588145482018912,0.04688091550517269
1648295688168288781,59875,3,1,0.0335142984986,0.0146502861753,-0.0293254330754,0.0,13.3999996185,0.011208795484481605,0.0048997612626421405,-0.00980783714896321,13.3999996185,0.0,0.016591619958785185,0.04688091417550657
1648295688168292614,59876,3,2,0.473002016544,1.27457487583,0.00973476935178,0.0,13.3999996185,0.1581946543625418,0.4262792226856187,0.0032557757029364545,13.3999996185,0.0,0.48141985109800306,1.3595465374477194
1648295688168293926,59877,3,3,1.87011802197,-0.117202289402,-0.0737185627222,0.0,13.3999996185,0.6254575324314381,-0.03919809010100334,-0.02465503769973244,13.3999996185,0.0,0.885398633395158,1.875236576869138
1648295688168294992,59878,3,4,2.1976556778,-1.31266570091,0.582737267017,0.0,13.3999996185,0.7350018989297658,-0.4390186290668896,0.19489540702909697,13.3999996185,0.0,1.1283585155120222,2.6253313015470185
1648295688168301193,59879,3,5,0.658377349377,0.448298752308,0.0271566733718,-0.566431701183,13.3999996185,0.22019309343712373,0.14993269307959864,0.009082499455451504,13.3999996185,-0.07654482448418919,0.3456151172170004,0.7969755268527488
1648295688168303996,59880,3,6,0.797301411629,0.334026515484,0.214825421572,-0.242756426334,13.3999996185,0.26665599051137123,0.11171455367357858,0.07184796708093645,13.3999996185,-0.03280492247756756,0.3933077370885143,0.8907374561483123
1648295688168305085,59881,3,7,1.01420879364,0.336956560612,0.143135249615,-0.242756426334,13.3999996185,0.3392002654314381,0.11269450187692308,0.04787132094147156,13.3999996185,-0.03280492247756756,0.49276129199725494,1.0782610539746489
1648295688168306030,59882,3,8,1.90470325947,0.240264698863,0.0944167077541,-0.242756426334,13.3999996185,0.6370245014949832,0.08035608657625418,0.031577494232140464,13.3999996185,-0.03280492247756756,0.9044653291639843,1.9221176204536738
1648295688168310039,59883,3,9,1.05502951145,0.386767566204,0.057166416198,-0.161837622523,13.3999996185,0.35285267941471565,0.1293537010715719,0.01911920274180602,13.3999996185,-0.021869948989594594,0.5155020918688903,1.1251419552388553
1648295688269861421,59884,4,0,0.0127121871337,0.0439508594573,0.0102246021852,0.0,17.3999996185,0.004251567603244147,0.014699284099431437,0.003419599393043478,17.3999996185,0.0,0.01588145482018912,0.04688091550517269
1648295688269869073,59885,4,1,0.0335142984986,0.0146502861753,-0.0293254330754,0.0,17.3999996185,0.011208795484481605,0.0048997612626421405,-0.00980783714896321,17.3999996185,0.0,0.016591619958785185,0.04688091417550657
1648295688269875118,59886,4,2,1.87124848366,-0.117202289402,-0.034712292254,0.0,17.3999996185,0.625835613264214,-0.03919809010100334,-0.011609462292307691,17.3999996185,0.0,0.8859327965072497,1.8752365737352839
1648295688269897767,59887,4,3,2.23963785172,-1.2306240797,0.601623892784,0.0,17.3999996185,0.7490427597725752,-0.4115799597658863,0.20121200427558525,17.3999996185,0.0,1.1364542116672893,2.625331339233778
1648295688269904284,59888,4,4,0.618649423122,0.329631447792,-0.0559071153402,-0.485512852669,17.3999996185,0.2069061615792642,0.11024463136856186,-0.018698031886354514,17.3999996185,-0.06560984495527027,0.31268866008302776,0.7032137695241013
1648295688269916241,59889,4,5,1.15579259396,-1.75217413902,0.494587212801,-0.485512852669,17.3999996185,0.3865527070100334,-0.5860114177324415,0.16541378354548494,17.3999996185,-0.06560984495527027,0.801408368003701,2.15652202510652
1648295688270033787,59890,4,6,2.11794948578,0.26956525445,0.30366435647,-0.485512852669,17.3999996185,0.7083443096254181,0.09015560349498328,0.10155998544147157,17.3999996185,-0.06560984495527027,1.0057988639877085,2.156522082454246
1648295688270035452,59891,4,7,0.617296934128,0.351606875658,0.240746840835,-0.323675245047,17.3999996185,0.20645382412307692,0.11759427279531771,0.08051733807190635,17.3999996185,-0.04373989797932432,0.31476145886106255,0.7500946215417369
1648295688270037459,59892,4,8,1.40239357948,-0.966918885708,-2.23841762543,-0.323675245047,17.3999996185,0.46902795300334443,-0.3233842427117057,-0.7486346573344481,17.3999996185,-0.04373989797932432,0.7379375378927666,2.81285501744068
1648295688270040291,59893,4,9,1.94081091881,0.439508587122,-1.98802375793,-0.323675245047,17.3999996185,0.6491006417424748,0.14699283850234113,-0.6648908889397993,17.3999996185,-0.04373989797932432,0.9296613258557982,2.8128550056517687
1648295688270041222,59894,4,10,0.816944301128,0.278355449438,0.220302909613,-0.161837622523,17.3999996185,0.2732255187719063,0.09309546803946488,0.073679902880602,17.3999996185,-0.021869948989594594,0.39745582696174137,0.890737402022224
1648295688270042206,59895,4,11,1.06877279282,0.351606875658,-0.00646206876263,-0.161837622523,17.3999996185,0.3574490945886287,0.11759427279531771,-0.002161227010913043,17.3999996185,-0.021869948989594594,0.5190068626123555,1.1251419626051353
1648295688368145405,59896,5,0,0.0127121871337,0.0439508594573,0.0102246021852,0.0,13.1999998093,0.004251567603244147,0.014699284099431437,0.003419599393043478,13.1999998093,0.0,0.01588145482018912,0.04688091550517269
1648295688368150105,59897,5,1,0.0334521085024,0.0146502861753,-0.0293963532895,0.0,13.1999998093,0.011187996154648827,0.0048997612626421405,-0.009831556284113712,13.1999998093,0.0,0.016563519443154658,0.04688091333363319
1648295688368151439,59898,5,2,1.86815488338,-0.117202289402,-0.113018848002,0.0,13.1999998093,0.6248009643411371,-0.03919809010100334,-0.03779894582006689,13.1999998093,0.0,0.8844710172474822,1.8752365997231684
1648295688368197293,59899,5,3,2.24275398254,-1.2306240797,0.589901566505,0.0,13.1999998093,0.7500849439933109,-0.4115799597658863,0.19729149381438127,13.1999998093,0.0,1.1378281547280265,2.62533139049179
1648295688368199380,59900,5,4,0.777848422527,-1.84593617916,0.661859273911,-0.323675245047,13.1999998093,0.26014997408929763,-0.6173699595852842,0.22135761669264212,13.1999998093,-0.04373989797932432,0.7186805166662443,2.109641259650929
1648295688368200691,59901,5,5,2.07911157608,0.131852582097,0.332409769297,-0.323675245047,13.1999998093,0.695355042167224,0.04409785354414715,0.11117383588528428,13.1999998093,-0.04373989797932432,0.9843687774518068,2.1096412737523864
1648295688368208874,59902,5,6,0.647103965282,0.263705164194,0.0789027959108,-0.161837622523,13.1999998093,0.21642273086354513,0.0881957070882943,0.026388894953444816,13.1999998093,-0.021869948989594594,0.3185217098058988,0.7032137702781521
1648295688368210014,59903,5,7,0.831430435181,0.22268435359,0.229233950377,-0.0809188112617,13.1999998093,0.2780703796591973,0.07447637243812709,0.07666687303578595,13.1999998093,-0.010934974494824324,0.40024117996423464,0.8907373877212678
1648295688470082550,59904,6,0,0.0127121871337,0.0439508594573,0.0102246021852,0.0,32.2000007629,0.004251567603244147,0.014699284099431437,0.003419599393043478,32.2000007629,0.0,0.01588145482018912,0.04688091550517269
1648295688470086026,59905,6,1,0.0334426723421,0.0146502861753,-0.0294070895761,0.0,32.2000007629,0.011184840248193979,0.0048997612626421405,-0.009835147015418058,32.2000007629,0.0,0.016559256118139135,0.046880914408061795
1648295688470089593,59906,6,2,0.62276494503,0.205104023218,0.029477821663,0.0,32.2000007629,0.20828259031103677,0.06859666328361204,0.009858803231772574,32.2000007629,0.0,0.3024380549252948,0.6563328264443463
1648295688470090912,59907,6,3,1.87156641483,-0.117202289402,0.00387641135603,0.0,32.2000007629,0.6259419447591973,-0.03919809010100334,0.0012964586475016722,32.2000007629,0.0,0.8860830247134962,1.8752365846275747
1648295688470097917,59908,6,4,2.24276018143,-1.2306240797,0.589877605438,0.0,32.2000007629,0.7500870172006688,-0.4115799597658863,0.19728348007959867,32.2000007629,0.0,1.1378308881494128,2.625331302206003
1648295688470102947,59909,6,5,0.869139134884,0.194848805666,-0.00664861872792,-0.323675245047,32.2000007629,0.29068198491103675,0.06516682463745818,-0.002223618303652174,32.2000007629,-0.04373989797932432,0.41621959076546317,0.8907373894630021
1648295688470106236,59910,6,6,0.504769206047,-1.97778868675,0.53305375576,-0.323675245047,32.2000007629,0.16881913245719063,-0.6614677882107023,0.17827884808026756,32.2000007629,-0.04373989797932432,0.7032349776622004,2.109641284043202
1648295688470125846,59911,6,7,0.845474600792,-1.34489631653,-1.97110891342,-0.323675245047,32.2000007629,0.2827674250140468,-0.44979809917391306,-0.6592337503076923,32.2000007629,-0.04373989797932432,0.6018580923428831,2.531569424559423
1648295688470129229,59912,6,8,0.924763679504,-2.29423475266,0.538649260998,-0.323675245047,32.2000007629,0.3092855115397993,-0.7673025928628762,0.18015025451438127,32.2000007629,-0.04373989797932432,0.8832147668098418,2.5315694716156534
1648295688470132434,59913,6,9,0.842069923878,0.194848805666,0.215326204896,-0.0809188112617,32.2000007629,0.2816287370829431,0.06516682463745818,0.07201545314247491,32.2000007629,-0.010934974494824324,0.4035792439350619,0.8907374407109434
1648295688568298483,59914,7,0,0.0127121871337,0.0439508594573,0.0102246021852,0.0,28.8999996185,0.004251567603244147,0.014699284099431437,0.003419599393043478,28.8999996185,0.0,0.01588145482018912,0.04688091550517269
1648295688568300340,59915,7,1,0.0334426723421,0.0146502861753,-0.0294070895761,0.0,28.8999996185,0.011184840248193979,0.0048997612626421405,-0.009835147015418058,28.8999996185,0.0,0.016559256118139135,0.046880914408061795
1648295688568302130,59916,7,2,2.24118423462,-1.2306240797,0.595837533474,0.0,28.8999996185,0.7495599446889631,-0.4115799597658863,0.19927676704816052,28.8999996185,0.0,1.1371360009449756,2.625331362960319
1648295688568314210,59917,7,3,0.679609596729,0.175803437829,0.0416353754699,0.242756426334,28.8999996185,0.22729417950802674,0.05879713639765886,0.01392487473909699,28.8999996185,0.03280492247756756,0.32677575082159793,0.703213735082847
1648295688568360862,59918,7,4,1.16722655296,-1.47528386116,-1.62320566177,-0.242756426334,28.8999996185,0.3903767735652174,-0.49340597363210703,-0.5428781477491638,28.8999996185,-0.03280492247756756,0.7404306216616283,2.4846884950303583
1648295688568382295,59919,7,5,1.29612231255,-0.082041606307,0.190859407187,-0.161837622523,28.8999996185,0.4334857232608696,-0.027438664316722407,0.06383257765451505,28.8999996185,-0.021869948989594594,0.6136551351056099,1.3126656800446814
1648295688568385819,59920,7,6,1.71123433113,0.169943317771,-2.10624408722,-0.161837622523,28.8999996185,0.5723191742909699,0.05683723002374581,-0.7044294606086956,28.8999996185,-0.021869948989594594,0.8113747255362145,2.719093198520816
1648295688568393569,59921,7,7,1.25606882572,-1.4445182085,-1.93109428883,-0.161837622523,28.8999996185,0.4200899082675585,-0.4831164576923076,-0.6458509327190635,28.8999996185,-0.021869948989594594,0.7657366216589453,2.71909302929957
1648295688568411463,59922,7,8,0.795037269592,0.167013257742,0.365288197994,-0.0809188112617,28.8999996185,0.26589875237190636,0.05585727683678929,0.12216996588428092,28.8999996185,-0.010934974494824324,0.38016355480436903,0.8907374225301202
1648295688668056328,59923,8,0,0.0127121871337,0.0439508594573,0.0102246021852,0.0,36.0999984741,0.004251567603244147,0.014699284099431437,0.003419599393043478,36.0999984741,0.0,0.01588145482018912,0.04688091550517269
1648295688668063425,59924,8,1,0.0334426723421,0.0146502861753,-0.0294070895761,0.0,36.0999984741,0.011184840248193979,0.0048997612626421405,-0.009835147015418058,36.0999984741,0.0,0.016559256118139135,0.046880914408061795
1648295688668072909,59925,8,2,2.23815870285,-1.2306240797,0.607103466988,0.0,36.0999984741,0.7485480611538461,-0.4115799597658863,0.20304463778862875,36.0999984741,0.0,1.1358021231690196,2.625331336100172
1648295688668080137,59926,8,3,0.680942416191,0.153828009963,0.0846401229501,0.0809188112617,36.0999984741,0.22773993852541805,0.05144749497090301,0.028307733428127087,36.0999984741,0.010934974494824324,0.3261561036342927,0.7032137521623294
1648295688668102121,59927,8,4,0.595049977303,-1.38591706753,-1.33750486374,-0.323675245047,36.0999984741,0.1990133703354515,-0.46351741388963213,-0.44732604138461535,36.0999984741,-0.04373989797932432,0.5422739493314092,2.015879424491309
1648295688668164372,59928,8,5,2.01011633873,-0.0629962310195,0.138685077429,-0.323675245047,36.0999984741,0.6722797119498327,-0.021068973585117053,0.04638296903979933,36.0999984741,-0.04373989797932432,0.9509805065544878,2.015879403896337
1648295688668169838,59929,8,6,0.997237682343,-0.310586065054,-2.25449109077,-0.323675245047,36.0999984741,0.33352430847591974,-0.10387493814515049,-0.7540103982508362,36.0999984741,-0.04373989797932432,0.4829771541836526,2.4846884668408373
1648295688668175133,59930,8,7,1.26206457615,-0.205104023218,0.297012716532,-0.242756426334,36.0999984741,0.42209517596989965,-0.06859666328361204,0.09933535669966555,36.0999984741,-0.03280492247756756,0.6008611964237384,1.3126656880160337
1648295688668189676,59931,8,8,0.836080312729,0.105482056737,-0.0440107770264,-0.161837622523,36.0999984741,0.27962552265183943,0.035278279845150494,-0.014719323420200669,36.0999984741,-0.021869948989594594,0.3970206831708664,0.8438564463941467
1648295688668191679,59932,8,9,0.695849955082,0.0703213736415,0.881358206272,-0.161837622523,36.0999984741,0.2327257374856187,0.023518854060702338,0.29476863086020066,36.0999984741,-0.021869948989594594,0.32996314077905553,1.125142010299787
1648295688668197064,59933,8,10,0.689127624035,-1.52948987484,-2.13991379738,-0.161837622523,36.0999984741,0.23047746623244147,-0.5115350751973244,-0.7156902332374582,36.0999984741,-0.021869948989594594,0.606554085007252,2.719093087715736
1648295688668277223,59934,8,11,2.61876225471,-0.594801604748,0.426336854696,-0.161837622523,36.0999984741,0.8758402189665552,-0.19893030259130434,0.1425875768214047,36.0999984741,-0.021869948989594594,1.2544980843380489,2.7190931961550486
1648295688767952343,59935,9,0,0.0127121871337,0.0439508594573,0.0102246021852,0.0,16.0,0.004251567603244147,0.014699284099431437,0.003419599393043478,16.0,0.0,0.01588145482018912,0.04688091550517269
1648295688767957733,59936,9,1,0.0335142984986,0.0146502861753,-0.0293254330754,0.0,16.0,0.011208795484481605,0.0048997612626421405,-0.00980783714896321,16.0,0.0,0.016591619958785185,0.04688091417550657
1648295688767962271,59937,9,2,1.40431451797,-1.68478298187,0.827017724514,0.0,16.0,0.46967040734782606,-0.5634725691872909,0.27659455669364547,16.0,0.0,0.8710234895242907,2.3440459206338935
1648295688767965124,59938,9,3,2.02923727036,-0.879017233849,-0.777223467827,0.0,16.0,0.6786746723612039,-0.29398569693946486,-0.25994095913946486,16.0,0.0,1.003805863608177,2.3440459713415773
1648295688767968115,59939,9,4,2.24354457855,-1.2306240797,0.58688724041,0.0,16.0,0.7503493573745819,-0.4115799597658863,0.1962833579966555,16.0,0.0,1.1381767786709518,2.625331318983308
1648295688768160612,59940,9,5,0.730646789074,-0.0,0.509478628635,-0.242756426334,16.0,0.24436347460668897,-0.0,0.17039419017892976,16.0,-0.03280492247756756,0.34558213993739295,0.8907374492070863
1648295688768167453,59941,9,6,0.835486888885,-1.82689070702,0.167934030294,-0.242756426334,16.0,0.27942705313879596,-0.6110002364615384,0.05616522752307692,16.0,-0.03280492247756756,0.7276539321736115,2.0158794198625962
1648295688768172868,59942,9,7,2.00302529335,0.125992462039,0.1891708076,-0.242756426334,16.0,0.6699081248662206,0.04213794717023411,0.06326782862876254,16.0,-0.03280492247756756,0.9483297939616119,2.015879465825906
1648295688768178450,59943,9,8,0.773793280125,0.0498109720647,0.184208631516,-0.161837622523,16.0,0.2587937391722408,0.016659187981505015,0.06160823796521739,16.0,-0.021869948989594594,0.3663685677206803,0.7969755286265913
1648295688768189076,59944,9,9,1.19542789459,-0.356001973152,0.215466484427,-0.161837622523,16.0,0.3998086603979933,-0.11906420506755852,0.07206236937357859,16.0,-0.021869948989594594,0.5778150350993347,1.2657847613094924
1648295688768193058,59945,9,10,1.47535085678,-2.05690026283,0.0366761237383,-0.161837622523,16.0,0.4934283801939799,-0.6879265093076923,0.012266262119832776,16.0,-0.021869948989594594,0.979890817882266,2.5315694696934687
1648295688768198603,59946,9,11,0.843232870102,-0.0263705141842,0.0188856963068,-0.0809188112617,16.0,0.28201768230836116,-0.008819569961270902,0.006316286390234113,16.0,-0.010934974494824324,0.3989307346939581,0.84385647284582
1648295688870007834,59947,10,0,0.0127004906535,0.0439508594573,0.0102391270921,0.0,28.8999996185,0.004247655736956521,0.014699284099431437,0.003424457221438127,28.8999996185,0.0,0.01587936118221376,0.046880915450566385
1648295688870099071,59948,10,1,0.0334426723421,0.0146502861753,-0.0294070895761,0.0,28.8999996185,0.011184840248193979,0.0048997612626421405,-0.009835147015418058,28.8999996185,0.0,0.016559256118139135,0.046880914408061795
1648295688870101899,59949,10,2,1.40468895435,-1.68478298187,0.82638168335,0.0,28.8999996185,0.4697956369063545,-0.5634725691872909,0.27638183389632104,28.8999996185,0.0,0.8711585487952356,2.344045955404468
1648295688870107855,59950,10,3,2.00191783905,-0.879017233849,-0.845106720924,0.0,28.8999996185,0.669537738812709,-0.29398569693946486,-0.28264438826889626,28.8999996185,0.0,0.9914580966404245,2.3440460109522347
1648295688870155143,59951,10,4,2.24107551575,-1.2306240797,0.596246182919,0.0,28.8999996185,0.7495235838628762,-0.4115799597658863,0.19941343910334447,28.8999996185,0.0,1.1370880655490974,2.6253313321325895
1648295688870156307,59952,10,5,0.9975695014,-0.451228827238,-0.724112510681,0.566431701183,28.8999996185,0.3336352847491639,-0.15091265125016723,-0.24217809721772574,28.8999996185,0.07654482448418919,0.49537827441932286,1.3126657201202319
1648295688870157308,59953,10,6,0.697416484356,0.0659262910485,0.0614292770624,-0.404594063759,28.8999996185,0.23324966031973243,0.022048926772073575,0.02054490871652174,28.8999996185,-0.05467487348094594,0.33060091235557926,0.7032137545464419
1648295688870158374,59954,10,7,0.776366233826,-0.0249054860324,0.178340211511,-0.242756426334,28.8999996185,0.25965425880468224,-0.00832959399076923,0.05964555568929765,28.8999996185,-0.03280492247756756,0.367301035074595,0.7969755600402472
1648295688870161961,59955,10,8,0.749563157558,-0.0673913136125,0.772178888321,-0.242756426334,28.8999996185,0.2506900192501672,-0.02253890087374582,0.25825380880301,28.8999996185,-0.03280492247756756,0.35524494867048423,1.078260985052966
1648295688870162932,59956,10,9,1.47727000713,-0.0,-0.459456115961,-0.161837622523,28.8999996185,0.4940702364983277,-0.0,-0.15366425282976587,28.8999996185,-0.021869948989594594,0.6987208292208176,1.5470703269275894
1648295689065010858,59957,12,0,0.0127238156274,0.0439508594573,0.0102101275697,0.0,14.3000001907,0.004255456731571906,0.014699284099431437,0.00341475838451505,14.3000001907,0.0,0.01588353792529735,0.04688091547895533
1648295689065021031,59958,12,1,0.0334292426705,0.0146502861753,-0.0294223539531,0.0,14.3000001907,0.011180348719230768,0.0048997612626421405,-0.009840252158227423,14.3000001907,0.0,0.0165531886776566,0.04688091362892647
1648295689065044922,59959,12,2,0.74199193716,-0.273960351944,0.0977945029736,0.0,14.3000001907,0.24815783851505016,-0.09162553576722407,0.032707191629966555,14.3000001907,0.0,0.36271182009627734,0.7969755793370228
1648295689065187154,59960,12,3,1.87067294121,-0.0586011447012,0.116880200803,0.0,14.3000001907,0.6256431241505016,-0.019599045050568562,0.03909036816153846,14.3000001907,0.0,0.8850100339320985,1.8752366059981107
1648295689065321836,59961,12,4,0.67513448,-0.263705134392,0.432142049074,0.161837622523,14.3000001907,0.22579748494983276,-0.08819569712107023,0.14452911340267557,14.3000001907,0.021869948989594594,0.33128158628274446,0.8438564537689148
1648295689065325029,59962,12,5,0.592525064945,-0.133317604661,0.0507154725492,-0.161837622523,14.3000001907,0.198168918041806,-0.0445878276458194,0.016961696504749164,14.3000001907,-0.021869948989594594,0.28377793171755505,0.6094518811657831
1648295689170012692,59963,13,0,0.0127121871337,0.0439508594573,0.0102246021852,0.0,25.0,0.004251567603244147,0.014699284099431437,0.003419599393043478,25.0,0.0,0.01588145482018912,0.04688091550517269
1648295689170157464,59964,13,1,0.0334638506174,0.0146502861753,-0.0293829888105,0.0,25.0,0.011191923283411372,0.0048997612626421405,-0.009827086558695651,25.0,0.0,0.016568824762016758,0.046880915249169534
1648295689170160324,59965,13,2,1.47233784199,-1.68478298187,0.698769569397,0.0,25.0,0.4924206829397993,-0.5634725691872909,0.23370219712274246,25.0,0.0,0.895799974436438,2.344045931305487
1648295689170161515,59966,13,3,0.746321022511,-0.273960351944,0.0558630935848,0.0809188112617,25.0,0.24960569314749162,-0.09162553576722407,0.018683308891237458,25.0,0.010934974494824324,0.3646933546253761,0.7969755506312656
1648295689170167049,59967,13,4,0.472804009914,-0.421928226948,0.929718971252,0.242756426334,25.0,0.15812843140936453,-0.14111311938060198,0.31094279974983274,25.0,0.03280492247756756,0.2644278996272826,1.1251419581511117
1648295689170173594,59968,13,5,1.11480104923,-0.0351606868207,-0.148076876998,0.242756426334,25.0,0.37284316027759196,-0.011759427030334446,-0.049524039129765884,25.0,0.03280492247756756,0.5274109673259042,1.1251419531612414
1648295689170179210,59969,13,6,0.536638319492,-0.266635209322,0.111160211265,0.323675245047,25.0,0.17947769882675585,-0.0891756552916388,0.03717732818227425,25.0,0.04373989797932432,0.26902934087007785,0.6094518958587823
1648295689170185724,59970,13,7,0.660054147243,-0.946408510208,-1.35731065273,-0.647350490093,25.0,0.22075389539899665,-0.31652458535384614,-0.45395005108026754,25.0,-0.08747979595851352,0.44458112623129487,1.781474881524056
1648295689365108979,59971,15,0,0.0127323288471,0.0439508594573,0.0101995095611,0.0,22.1000003815,0.004258303962240802,0.014699284099431437,0.003411207211070234,22.1000003815,0.0,0.015885064000672747,0.046880915522129064
1648295689365118753,59972,15,1,0.0335276499391,0.0146502861753,-0.0293101686984,0.0,22.1000003815,0.011213260849197323,0.0048997612626421405,-0.009802732006153845,22.1000003815,0.0,0.01659765339363283,0.0468809149290592
1648295689365125105,59973,15,2,0.604021787643,0.0703213736415,0.946655750275,0.0,22.1000003815,0.20201397580033442,0.023518854060702338,0.3166072743394649,22.1000003815,0.0,0.28665733783324787,1.1251420021788343
1648295689365231529,59974,15,3,1.87431955338,-0.0586011447012,0.00208935886621,0.0,22.1000003815,0.6268627268829431,-0.019599045050568562,0.0006987822295016721,22.1000003815,0.0,0.886734390489696,1.87523658447764
1648295689365236762,59975,15,4,0.675244748592,-0.373582303524,0.199125126004,0.161837622523,22.1000003815,0.22583436407759197,-0.12494391422207357,0.0665970321083612,22.1000003815,0.021869948989594594,0.3429479577104865,0.7969755478140345
1648295689365242085,59976,15,5,0.948538661003,-0.354536950588,0.195762708783,0.161837622523,22.1000003815,0.3172370103688963,-0.11857423096588628,0.06547247785384615,22.1000003815,0.021869948989594594,0.46404578410404906,1.03138018155269
1648295689365245821,59977,15,6,0.533192932606,-0.46880915761,0.242002606392,0.404594063759,22.1000003815,0.17832539552040133,-0.15679236040468228,0.08093732655250835,22.1000003815,0.05467487348094594,0.2969574677563892,0.7500946547873178
1648295689365248997,59978,15,7,1.13033759594,-1.33610606194,0.332881867886,-0.161837622523,22.1000003815,0.37803932974581933,-0.4468582146956522,0.11133172838996655,22.1000003815,-0.021869948989594594,0.6967852852280408,1.781474902297393
1648295689470000322,59979,16,0,0.0127121871337,0.0439508594573,0.0102246021852,0.0,25.2000007629,0.004251567603244147,0.014699284099431437,0.003419599393043478,25.2000007629,0.0,0.01588145482018912,0.04688091550517269
1648295689470006787,59980,16,1,0.0334655456245,0.0146502861753,-0.0293810591102,0.0,25.2000007629,0.01119249017541806,0.0048997612626421405,-0.009826441173979933,25.2000007629,0.0,0.016569590613064285,0.04688091576964707
1648295689470013501,59981,16,2,0.602655470371,0.0703213736415,0.947526156902,0.0,25.2000007629,0.20155701350200667,0.023518854060702338,0.3168983802347826,25.2000007629,0.0,0.28601327920225106,1.1251420041809799
1648295689470016200,59982,16,3,0.47004750371,1.27457487583,0.0536753423512,0.0,25.2000007629,0.1572065229799331,0.4262792226856187,0.017951619515451503,25.2000007629,0.0,0.480772043101859,1.3595465465432144
1648295689470175254,59983,16,4,1.87152504921,-0.117202289402,0.013037417084,0.0,25.2000007629,0.6259281101036789,-0.03919809010100334,0.00436034016187291,25.2000007629,0.0,0.8860634787099019,1.8752366145918187
1648295689470180161,59984,16,5,0.644767284393,-0.501039743423,0.212903916836,0.323675245047,25.2000007629,0.21564123223846152,-0.16757182054280934,0.07120532335652173,25.2000007629,0.04373989797932432,0.3479692473806783,0.8438564767287265
1648295689470288885,59985,16,6,0.867809832096,-0.41899818182,0.367548167706,0.323675245047,25.2000007629,0.290237402038796,-0.14013317117725752,0.12292580859732441,25.2000007629,0.04373989797932432,0.43371973064255903,1.031380161063316
1648295689470292909,59986,16,7,0.611082136631,-0.473204225302,0.194490045309,0.404594063759,25.2000007629,0.204375296532107,-0.158262282709699,0.06504683789598661,25.2000007629,0.05467487348094594,0.32952310054631684,0.7969755292839743
1648295689470294368,59987,16,8,0.9398239851,-1.50311934948,0.176113247871,-0.161837622523,25.2000007629,0.31432240304347825,-0.5027155014983277,0.058900751796321066,25.2000007629,-0.021869948989594594,0.671058880841889,1.7814748883512492
