%time,field.header.seq,field.header.frame_id,field.point_id,field.x,field.y,field.z,field.velocity,field.intensity,normalized_x,normalized_y,normalized_z,normalized_intensity,normalized_velocity,normalized_range,range
1648295636768681900,56493,0,0,0.0127438921481,0.0439508594573,0.0101850572973,0.0,31.1000003815,0.004262171286989967,0.014699284099431437,0.0034063736780267557,31.1000003815,0.0,0.015887138231760977,0.04688091537360406
1648295636768705071,56494,0,1,0.0334914848208,0.0146502861753,-0.0293514840305,0.0,31.1000003815,0.011201165491906353,0.0048997612626421405,-0.009816549842976587,31.1000003815,0.0,0.016581311081607385,0.04688091355032194
1648295636768712953,56495,0,2,2.24631142616,-1.2306240797,0.576206803322,0.0,31.1000003815,0.7512747244682274,-0.4115799597658863,0.19271130545886286,31.1000003815,0.0,1.139396983728898,2.625331394134654
1648295636768749160,56496,0,3,0.956631600857,0.586011469364,0.339240968227,0.0809188112617,31.1000003815,0.31994367921638794,0.19599045798127088,0.11345851780167224,31.1000003815,0.010934974494824324,0.4930924612694319,1.172022993165225
1648295636768763179,56497,0,4,0.804497420788,0.914177834988,0.0528127215803,0.566431701183,31.1000003815,0.26906268253779264,0.30574509531371236,0.017663117585384615,31.1000003815,0.07654482448418919,0.4881285871338177,1.2189037688015447
1648295636768768824,56498,0,5,1.28663599491,0.527410328388,0.210818737745,-0.242756426334,31.1000003815,0.43031304177591967,0.1763914141765886,0.0705079390451505,31.1000003815,-0.03280492247756756,0.6336028399874053,1.4064275232207235
1648295636768772631,56499,0,6,1.30178105831,0.54499065876,0.347068279982,-0.161837622523,31.1000003815,0.43537828037123744,0.18227112333110365,0.11607634782006689,31.1000003815,-0.021869948989594594,0.6421302488112627,1.4533083406077412
1648295636963611581,56500,2,0,0.0127438921481,0.0439508594573,0.0101850572973,0.0,21.2999992371,0.004262171286989967,0.014699284099431437,0.0034063736780267557,21.2999992371,0.0,0.015887138231760977,0.04688091537360406
1648295636963736043,56501,2,1,0.033392906189,0.0146502861753,-0.0294635873288,0.0,21.2999992371,0.011168196049832777,0.0048997612626421405,-0.009854042584882943,21.2999992371,0.0,0.016536773156994367,0.046880913462168855
1648295636963745782,56502,2,2,1.86676037312,-0.175803437829,-0.0284791253507,0.0,21.2999992371,0.6243345729498327,-0.05879713639765886,-0.009524791087190634,21.2999992371,0.0,0.8848979722032733,1.8752365717381787
1648295636963751412,56503,2,3,2.19633197784,-1.31266570091,0.587706923485,0.0,21.2999992371,0.7345591899130434,-0.4390186290668896,0.19655749949331103,21.2999992371,0.0,1.1277817890173543,2.625331374729733
1648295636963753215,56504,2,4,0.969564139843,0.586011469364,0.300289422274,-0.0809188112617,21.2999992371,0.32426894309130433,0.19599045798127088,0.10043124490769231,21.2999992371,-0.010934974494824324,0.49871129376304624,1.172022952260451
1648295636963755077,56505,2,5,1.13638520241,0.656332850456,0.0307759307325,-0.0809188112617,21.2999992371,0.38006194060535115,0.21950931453377925,0.010292953422240802,21.2999992371,-0.010934974494824324,0.5805846161934543,1.3126657216353927
1648295637068665847,56506,3,0,0.0126539859921,0.0439508594573,0.0102965449914,0.0,28.6000003815,0.0042321023384949835,0.014699284099431437,0.0034436605322408025,28.6000003815,0.0,0.015871053318629716,0.04688091559775176
1648295637068668056,56507,3,1,0.0335279218853,0.0146502861753,-0.029309855774,0.0,28.6000003815,0.011213351801103678,0.0048997612626421405,-0.009802627349163878,28.6000003815,0.0,0.01659777628664511,0.04688091377583895
1648295637068686183,56508,3,2,1.27830326557,0.515690088272,0.592091500759,0.0,28.6000003815,0.42752617577591967,0.17247160142876253,0.19802391329732438,28.6000003815,0.0,0.6287318309474772,1.5001892717853818
1648295637068690818,56509,3,3,2.20268797874,-1.31266570091,0.563417375088,0.0,28.6000003815,0.736684942722408,-0.4390186290668896,0.18843390471170568,28.6000003815,0.0,1.1305515319239572,2.625331352911914
1648295637068699735,56510,3,4,0.972601413727,0.586011469364,0.290301382542,-0.161837622523,28.6000003815,0.3252847537548495,0.19599045798127088,0.09709076339197324,28.6000003815,-0.021869948989594594,0.5000326006076149,1.1720229711553054
1648295637068841201,56511,3,5,1.19605350494,0.533270418644,0.0903884023428,-0.161837622523,28.6000003815,0.4000178946287625,0.1783513105832776,0.030230234897257523,28.6000003815,-0.021869948989594594,0.5931591877676922,1.3126657569077096
1648295637263835518,56512,5,0,0.0127438921481,0.0439508594573,0.0101850572973,0.0,31.2999992371,0.004262171286989967,0.014699284099431437,0.0034063736780267557,31.2999992371,0.0,0.015887138231760977,0.04688091537360406
1648295637263840853,56513,5,1,0.0335279218853,0.0146502861753,-0.029309855774,0.0,31.2999992371,0.011213351801103678,0.0048997612626421405,-0.009802627349163878,31.2999992371,0.0,0.01659777628664511,0.04688091377583895
1648295637263844043,56514,5,2,2.1986451149,-1.31266570091,0.578993499279,0.0,31.2999992371,0.735332814347826,-0.4390186290668896,0.19364331079565217,31.2999992371,0.0,1.1287896404473068,2.6253314182835124
1648295637263846302,56515,5,3,1.35808908939,0.46880915761,0.431717246771,0.0809188112617,31.2999992371,0.4542103977892976,0.15679236040468228,0.14438703905384614,31.2999992371,0.010934974494824324,0.6612095093093381,1.5001892487745305
1648295637263847976,56516,5,4,1.36941075325,0.46880915761,0.394334763288,0.242756426334,31.2999992371,0.45799690744147153,0.15679236040468228,0.1318845362167224,31.2999992371,0.03280492247756756,0.6664129190923413,1.5001892357009943
1648295637263850009,56517,5,5,0.958509266376,0.527410328388,0.262760102749,-0.323675245047,31.2999992371,0.3205716609953177,0.1763914141765886,0.0878796330264214,31.2999992371,-0.04373989797932432,0.4864630619705988,1.125142008732969
1648295637263852748,56518,5,6,1.1734058857,0.474669277668,0.00430975109339,-0.0809188112617,31.2999992371,0.3924434400334448,0.1587522667785953,0.0014413883255484949,31.2999992371,-0.010934974494824324,0.5772572991811453,1.2657846853678352
1648295637366782885,56519,6,0,0.0127238156274,0.0439508594573,0.0102101275697,0.0,28.8999996185,0.004255456731571906,0.014699284099431437,0.00341475838451505,28.8999996185,0.0,0.01588353792529735,0.04688091547895533
1648295637366795891,56520,6,1,0.0335009843111,0.0146502861753,-0.0293406434357,0.0,28.8999996185,0.01120434257896321,0.0048997612626421405,-0.00981292422598662,28.8999996185,0.0,0.016585603567082642,0.046880915008686
1648295637366800887,56521,6,2,0.574730038643,1.23208904266,-0.00297269853763,0.0,28.8999996185,0.19221740422842806,0.4120699139331103,-0.000994213557735786,28.8999996185,0.0,0.49365643411736343,1.3595465653290493
1648295637366804705,56522,6,3,1.41876399517,0.421928226948,0.244240120053,0.0,28.8999996185,0.47450300841806015,0.14111311938060198,0.081685658880602,28.8999996185,0.0,0.6857252528942648,1.5001893010316154
1648295637366808156,56523,6,4,2.20117902756,-1.31266570091,0.569284915924,0.0,28.8999996185,0.7361802767759196,-0.4390186290668896,0.19039629295117055,28.8999996185,0.0,1.1298938695716119,2.6253315351044946
1648295637366813666,56524,6,5,0.815443336964,0.523015201092,0.175345286727,-0.647350490093,28.8999996185,0.27272352406822736,0.1749214719371237,0.05864390860434782,28.8999996185,-0.08747979595851352,0.4235017857164665,0.9844992158197297
1648295637366888979,56525,6,6,2.04030442238,-1.93383777142,0.0978915244341,-0.485512852669,28.8999996185,0.6823760609966555,-0.6467684854247491,0.03273964027896321,28.8999996185,-0.06560984495527027,1.1617158219552863,2.812855028740388
1648295637366891611,56526,6,7,0.945549726486,0.438043534756,0.276948273182,-0.404594063759,28.8999996185,0.31623736671772573,0.1465028544334448,0.09262484052909697,28.8999996185,-0.05467487348094594,0.4706115495546936,1.0782609932747136
1648295637366893724,56527,6,8,1.11925053596,0.474669277668,0.352389425039,-0.323675245047,28.8999996185,0.37433128292976586,0.1587522667785953,0.11785599499632106,28.8999996185,-0.04373989797932432,0.5526754028967014,1.265784733786881
1648295637466860815,56528,7,0,0.0127553893253,0.0439508594573,0.0101706553251,0.0,21.2999992371,0.004266016496755853,0.014699284099431437,0.0034015569649163877,21.2999992371,0.0,0.01588920219951222,0.04688091545199708
1648295637466964360,56529,7,1,0.0335009843111,0.0146502861753,-0.0293406434357,0.0,21.2999992371,0.01120434257896321,0.0048997612626421405,-0.00981292422598662,21.2999992371,0.0,0.016585603567082642,0.046880915008686
1648295637467019037,56530,7,2,0.473037213087,1.27457487583,0.00784178450704,0.0,21.2999992371,0.15820642578160532,0.4262792226856187,0.002622670403692307,21.2999992371,0.0,0.4814275875047425,1.3595465467009324
1648295637467023841,56531,7,3,1.8715621233,-0.117202289402,-0.00559327378869,0.0,21.2999992371,0.6259405094648829,-0.03919809010100334,-0.0018706601299966553,21.2999992371,0.0,0.8860809968879146,1.8752366364605693
1648295637467033504,56532,7,4,2.2011950016,-1.31266570091,0.569222271442,0.0,21.2999992371,0.736185619264214,-0.4390186290668896,0.19037534161939798,21.2999992371,0.0,1.1299008313523093,2.6253313451295925
1648295637467181157,56533,7,5,0.913796961308,0.205104008317,0.0451178662479,0.566431701183,21.2999992371,0.30561771281204014,0.06859665829999999,0.015089587373879597,21.2999992371,0.07654482448418919,0.4376184117457265,0.9376183459053037
1648295637467283636,56534,7,6,1.41297101974,-1.72287368774,0.558735847473,-0.647350490093,21.2999992371,0.4725655584414716,-0.5762119356989966,0.18686817641237455,21.2999992371,-0.08747979595851352,0.8824152134297008,2.2971649034806565
1648295637467287854,56535,7,7,0.825731515884,0.334026515484,0.00264151231386,-0.566431701183,21.2999992371,0.2761643865832776,0.11171455367357858,0.0008834489344013378,21.2999992371,-0.07654482448418919,0.40621875675099356,0.8907374624196378
1648295637467291911,56536,7,8,0.7679464221,-0.879017174244,-2.55924606323,-0.485512852669,21.2999992371,0.25683826826086953,-0.29398567700468226,-0.8559351382040132,21.2999992371,-0.06560984495527027,0.4672893861092782,2.8128550108369166
1648295637467301703,56537,7,9,2.67831945419,0.79111546278,-0.335998654366,-0.485512852669,21.2999992371,0.8957590147792641,0.26458711129765883,-0.11237413189498327,21.2999992371,-0.06560984495527027,1.2941308915953886,2.8128551100044232
1648295637467305721,56538,7,10,0.941515386105,0.354536950588,0.227150529623,-0.404594063759,21.2999992371,0.3148880889983277,0.11857423096588628,0.07597007679698996,21.2999992371,-0.05467487348094594,0.46083496550846575,1.0313801601314108
1648295637467309285,56539,7,11,1.16897332668,0.34281668067,-0.041286315769,-0.323675245047,21.2999992371,0.39096097882274244,0.1146544082508361,-0.013808132364214045,21.2999992371,-0.04373989797932432,0.5646650398735724,1.2189038005128543
1648295637467312880,56540,7,12,1.2139172554,0.276890397072,0.227920427918,-0.161837622523,21.2999992371,0.40599239311036783,0.09260548397056856,0.07622756786555183,21.2999992371,-0.021869948989594594,0.581580108143659,1.2657847828169222
1648295637568688557,56541,8,0,0.0127553893253,0.0439508594573,0.0101706553251,0.0,18.7999992371,0.004266016496755853,0.014699284099431437,0.0034015569649163877,18.7999992371,0.0,0.01588920219951222,0.04688091545199708
1648295637568693535,56542,8,1,0.0335009843111,0.0146502861753,-0.0293406434357,0.0,18.7999992371,0.01120434257896321,0.0048997612626421405,-0.00981292422598662,18.7999992371,0.0,0.016585603567082642,0.046880915008686
1648295637568697111,56543,8,2,1.87141191959,-0.117202289402,-0.0243543181568,0.0,18.7999992371,0.6258902741103679,-0.03919809010100334,-0.008145256908628763,18.7999992371,0.0,0.8860100229226922,1.8752365403429727
1648295637568863674,56544,8,3,2.24333453178,-1.2306240797,0.587689936161,0.0,18.7999992371,0.7502791076187291,-0.4115799597658863,0.1965518181140468,18.7999992371,0.0,1.1380841541552196,2.6253313901446775
1648295637568869931,56545,8,4,0.777454793453,0.316446185112,0.086715310812,-0.485512852669,18.7999992371,0.26001832556956517,0.10583484451906354,0.029001776191304344,18.7999992371,-0.06560984495527027,0.38264876006381504,0.843856438657789
1648295637568872759,56546,8,5,1.03071010113,-1.89867711067,0.629634678364,-0.485512852669,18.7999992371,0.3447190973678929,-0.6350090671137123,0.21058015998795984,18.7999992371,-0.06560984495527027,0.8005616949972668,2.250283962381666
1648295637568877563,56547,8,6,2.23159313202,0.210964113474,0.19815120101,-0.485512852669,18.7999992371,0.7463522180668896,0.07055655969030099,0.06627130468561872,18.7999992371,-0.06560984495527027,1.0578570295375755,2.2502839070913714
1648295637568879603,56548,8,7,1.43498933315,-2.05104017258,0.791457533836,-0.485512852669,18.7999992371,0.47992954285953177,-0.68596661290301,0.26470151633311034,18.7999992371,-0.06560984495527027,0.9649947804192239,2.6253314464381523
1648295637568882492,56549,8,8,1.42558395863,-1.1485824585,-1.88171041012,-0.485512852669,18.7999992371,0.4767839326521739,-0.38414129046822737,-0.6293345853244147,18.7999992371,-0.06560984495527027,0.7760221439579804,2.6253314751914782
1648295637568885433,56550,8,9,1.38818001747,0.263705164194,-2.43219423294,-0.404594063759,18.7999992371,0.46427425333444816,0.0881957070882943,-0.813442887270903,18.7999992371,-0.05467487348094594,0.6624799222371369,2.81285494849489
1648295637568887934,56551,8,10,1.5893330574,-0.966918885708,-2.10979652405,-0.404594063759,18.7999992371,0.5315495175250836,-0.3233842427117057,-0.7056175665719063,18.7999992371,-0.05467487348094594,0.8183319299627271,2.812854968137656
1648295637568891243,56552,8,11,0.756620526314,0.389697611332,0.262819856405,-0.323675245047,18.7999992371,0.2530503432488294,0.13033364927491636,0.08789961752675585,18.7999992371,-0.04373989797932432,0.3808619337371716,0.8907374057702335
1648295637568893998,56553,8,12,0.933616161346,0.336956560612,0.421269476414,-0.242756426334,18.7999992371,0.31224620780802675,0.11269450187692308,0.14089280147625416,18.7999992371,-0.03280492247756756,0.4557361510065607,1.0782610223058398
1648295637568896893,56554,8,13,0.919027805328,0.24612480402,0.253079384565,-0.161837622523,18.7999992371,0.3073671589725752,0.08231598796655518,0.08464193463712374,18.7999992371,-0.021869948989594594,0.4424082534318892,0.9844992133118659
1648295637666857818,56555,9,0,0.0127438921481,0.0439508594573,0.0101850572973,0.0,36.4000015259,0.004262171286989967,0.014699284099431437,0.0034063736780267557,36.4000015259,0.0,0.015887138231760977,0.04688091537360406
1648295637667085648,56556,9,1,0.0335009843111,0.0146502861753,-0.0293406434357,0.0,36.4000015259,0.01120434257896321,0.0048997612626421405,-0.00981292422598662,36.4000015259,0.0,0.016585603567082642,0.046880915008686
1648295637667118605,56557,9,2,1.87132680416,-0.117202289402,0.0301994737238,0.0,36.4000015259,0.6258618074113712,-0.03919809010100334,0.01010015843605351,36.4000015259,0.0,0.8859698043500258,1.875236623155047
1648295637667178786,56558,9,3,2.24010109901,-1.2306240797,0.599896669388,0.0,36.4000015259,0.7491976919765886,-0.4115799597658863,0.20063433758795984,36.4000015259,0.0,1.136658447646866,2.6253313263788436
1648295637667181525,56559,9,4,0.757524013519,0.316446185112,0.195225134492,-0.242756426334,36.4000015259,0.2533525128826087,0.10583484451906354,0.06529268712107023,36.4000015259,-0.03280492247756756,0.3735987230736197,0.8438564287053171
1648295637667186454,56560,9,5,1.66137838364,-1.1236770153,-1.90467429161,-0.242756426334,36.4000015259,0.5556449443612039,-0.37581171080267556,-0.6370148132474915,36.4000015259,-0.03280492247756756,0.8710436558317641,2.765974028341523
1648295637667188070,56561,9,6,1.96944892406,0.0864366889,-1.94020938873,-0.242756426334,36.4000015259,0.6586785699197324,0.02890859160535117,-0.6488994611137123,36.4000015259,-0.03280492247756756,0.9319606341534028,2.765974120953616
1648295637667189826,56562,9,7,0.913701534271,0.215359210968,0.296662509441,-0.161837622523,36.4000015259,0.30558579741505015,0.07202649196254181,0.09921823058227423,36.4000015259,-0.021869948989594594,0.4381246109362201,0.9844992270112609
1648295637667191100,56563,9,8,0.963876068592,0.190453708172,0.721385300159,-0.161837622523,36.4000015259,0.3223665781244147,0.06369689236521739,0.24126598667525084,36.4000015259,-0.021869948989594594,0.460323490037468,1.2189037869521637
1648295637766971785,56564,10,0,0.0127353817225,0.0439508594573,0.0101956976578,0.0,14.0,0.004259324990802675,0.014699284099431437,0.003409932327023411,14.0,0.0,0.01588561147045811,0.046880915577475576
1648295637767005583,56565,10,1,0.0334914848208,0.0146502861753,-0.0293514840305,0.0,14.0,0.011201165491906353,0.0048997612626421405,-0.009816549842976587,14.0,0.0,0.016581311081607385,0.04688091355032194
1648295637767076657,56566,10,2,1.06543529034,0.101086974144,0.131437540054,0.0,14.0,0.3563328730234113,0.03380835255652174,0.043959043496321064,14.0,0.0,0.50506359747741,1.0782609893615351
1648295637767126750,56567,10,3,1.87410092354,-0.0586011447012,-0.028700100258,0.0,14.0,0.626789606535117,-0.019599045050568562,-0.009598695738461538,14.0,0.0,0.8866310079665541,1.8752365348212985
1648295637767138462,56568,10,4,2.23333239555,-1.2306240797,0.624624669552,0.0,14.0,0.746933911555184,-0.4115799597658863,0.20890457175652175,14.0,0.0,1.1336748209884275,2.625331444287277
1648295637767141628,56569,10,5,0.787420749664,0.290075659752,0.0889854207635,0.0809188112617,14.0,0.26335142129230765,0.09701527082006689,0.02976101028879598,14.0,0.010934974494824324,0.38486348874068055,0.8438564632035658
1648295637767152699,56570,10,6,0.948168218136,0.153827995062,0.215760648251,-0.242756426334,14.0,0.3171131164334448,0.05144748998729097,0.07216075192341137,14.0,-0.03280492247756756,0.451407024152544,0.9844992022757986
1648295637767181890,56571,10,7,1.32201373577,-1.2965502739,-2.05471396446,-0.242756426334,14.0,0.44214506213043475,-0.4336288541471572,-0.6871953058394648,14.0,-0.03280492247756756,0.7609326481901197,2.7659740429117634
1648295637767229018,56572,10,8,2.19600868225,-0.0,-1.68171286583,-0.242756426334,14.0,0.7344510642976588,-0.0,-0.5624457745250836,14.0,-0.03280492247756756,1.0386706560291032,2.765974022946624
1648295637767302636,56573,10,9,0.872326850891,0.152362972498,0.837590515614,-0.161837622523,14.0,0.2917481106658863,0.05095751588561872,0.28013060722876254,14.0,-0.021869948989594594,0.4157289845313429,1.2189038034317399
1648295637868695087,56574,11,0,0.0127353817225,0.0439508594573,0.0101956976578,0.0,13.5,0.004259324990802675,0.014699284099431437,0.003409932327023411,13.5,0.0,0.01588561147045811,0.046880915577475576
1648295637868852167,56575,11,1,0.0334781743586,0.0146502861753,-0.0293666664511,0.0,13.5,0.011196713832307692,0.0048997612626421405,-0.00982162757561873,13.5,0.0,0.016575296730860337,0.04688091447330322
1648295637868857364,56576,11,2,1.87030410767,-0.117202289402,-0.0688372477889,0.0,13.5,0.6255197684515049,-0.03919809010100334,-0.02302249089929766,13.5,0.0,0.8854865621311342,1.8752366246667367
1648295637868859364,56577,11,3,2.24532222748,-1.2306240797,0.580048918724,0.0,13.5,0.7509438887892976,-0.4115799597658863,0.1939962938876254,13.5,0.0,1.1389607155213364,2.6253312703097307
1648295637868861337,56578,11,4,0.781045913696,0.316446185112,0.04384951666,0.242756426334,13.5,0.26121936912909693,0.10583484451906354,0.014665390187290968,13.5,0.03280492247756756,0.384281318737694,0.8438564377217687
1648295637868863097,56579,11,5,0.877202749252,0.146502867341,0.296951651573,-0.323675245047,13.5,0.2933788459036789,0.04899761449531772,0.09931493363645486,13.5,-0.04373989797932432,0.4177835093368106,0.9376182788354407
1648295637868865900,56580,11,6,0.895942568779,0.12306240201,0.389077425003,-0.242756426334,13.5,0.29964634407324414,0.04115799398327759,0.13012622909799332,13.5,-0.03280492247756756,0.4257579635211179,0.9844992046648637
1648295637868867706,56581,11,7,1.32815849781,-0.0849716588855,0.277744144201,-0.242756426334,13.5,0.4442001664916388,-0.028418615011872907,0.09289101812742474,13.5,-0.03280492247756756,0.6288363805487023,1.3595466111011478
1648295637868869452,56582,11,8,0.985241234303,-1.4445182085,-2.08233857155,-0.161837622523,13.5,0.3295121184959866,-0.4831164576923076,-0.6964343048662206,13.5,-0.021869948989594594,0.6712361612462409,2.719093060383157
1648295637868875671,56583,11,9,2.60993862152,-0.594801604748,0.477388352156,-0.161837622523,13.5,0.872889171076923,-0.19893030259130434,0.15966165623946488,13.5,-0.021869948989594594,1.2503776530535817,2.719093267228385
1648295637868877370,56584,11,10,0.757991194725,0.316446185112,0.19340339303,-0.0809188112617,13.5,0.25350876077759193,0.10583484451906354,0.06468340904013378,13.5,-0.010934974494824324,0.37381064443960793,0.8438564521220938
1648295638063878448,56585,13,0,0.0127438921481,0.0439508594573,0.0101850572973,0.0,26.6000003815,0.004262171286989967,0.014699284099431437,0.0034063736780267557,26.6000003815,0.0,0.015887138231760977,0.04688091537360406
1648295638063880064,56586,13,1,0.0334781743586,0.0146502861753,-0.0293666664511,0.0,26.6000003815,0.011196713832307692,0.0048997612626421405,-0.00982162757561873,26.6000003815,0.0,0.016575296730860337,0.04688091447330322
1648295638063881468,56587,13,2,1.41475784779,-1.68478298187,0.809022843838,0.0,26.6000003815,0.4731631597959866,-0.5634725691872909,0.27057620195250837,26.6000003815,0.0,0.8747960263985949,2.34404595213786
1648295638063882511,56588,13,3,1.98274183273,-0.879017233849,-0.889165043831,0.0,26.6000003815,0.6631243587725751,-0.29398569693946486,-0.29737961332140467,26.6000003815,0.0,0.9827997865282943,2.3440458501983383
1648295638063883492,56589,13,4,2.24264001846,-1.2306240797,0.590334832668,0.0,26.6000003815,0.7500468289163879,-0.4115799597658863,0.19743639888561873,26.6000003815,0.0,1.1377779020599526,2.6253314252865096
1648295638063887131,56590,13,5,0.390043586493,0.323771327734,-0.614986300468,0.566431701183,26.6000003815,0.1304493600311037,0.10828472499464883,-0.20568103694581938,26.6000003815,0.07654482448418919,0.21391505961997104,0.7969755465447336
1648295638063888828,56591,13,6,0.717646002769,1.93383789062,-0.0153417130932,-0.485512852669,26.6000003815,0.24001538554147156,0.6467685252909698,-0.005131007723478261,26.6000003815,-0.06560984495527027,0.7304274747709716,2.0627603206985947
1648295638063889981,56592,13,7,0.860692203045,0.0278355441988,0.227700039744,-0.242756426334,26.6000003815,0.2878569240953177,0.009309546554782609,0.07615385944615384,26.6000003815,-0.03280492247756756,0.4071975996445591,0.8907374439208885
1648295638063891102,56593,13,8,1.24998581409,-0.369187235832,0.155972421169,-0.242756426334,26.6000003815,0.41805545621739126,-0.12347399191705685,0.0521646893541806,26.6000003815,-0.03280492247756756,0.6039756250265368,1.3126656644754722
1648295638168829929,56594,14,0,0.0127438921481,0.0439508594573,0.0101850572973,0.0,14.8000001907,0.004262171286989967,0.014699284099431437,0.0034063736780267557,14.8000001907,0.0,0.015887138231760977,0.04688091537360406
1648295638168840654,56595,14,1,0.0334914848208,0.0146502861753,-0.0293514840305,0.0,14.8000001907,0.011201165491906353,0.0048997612626421405,-0.009816549842976587,14.8000001907,0.0,0.016581311081607385,0.04688091355032194
1648295638168957986,56596,14,2,0.43473008275,-0.0,-1.03776407242,0.0,14.8000001907,0.14539467650501672,-0.0,-0.3470782850903009,14.8000001907,0.0,0.20561912341024347,1.1251419976401045
1648295638168961209,56597,14,3,1.41318035126,-1.68478298187,0.81177520752,0.0,14.8000001907,0.4726355689832776,-0.5634725691872909,0.2714967249230769,14.8000001907,0.0,0.8742254276574317,2.3440459442447463
1648295638168962453,56598,14,4,2.24479198456,-1.2306240797,0.582098126411,0.0,14.8000001907,0.7507665500200669,-0.4115799597658863,0.19468164762909698,14.8000001907,0.0,1.1387268717910173,2.6253313901779127
1648295638168963789,56599,14,5,1.98653936386,-0.821880996227,-1.04628038406,-0.404594063759,14.8000001907,0.6643944360735785,-0.2748765873668896,-0.34992654985284277,14.8000001907,-0.05467487348094594,0.9789775644280742,2.39092652714238
1648295638168964768,56600,14,6,0.886586844921,-0.083506628871,0.0200874824077,-0.242756426334,14.8000001907,0.29651733943846154,-0.027928638418394644,0.006718221541036788,14.8000001907,-0.03280492247756756,0.42026785984563825,0.8907373898079344
1648295638168965989,56601,14,7,0.824390053749,-0.168478280306,0.674272119999,-0.161837622523,14.8000001907,0.2757157370397993,-0.05634725093846154,0.22550907023377925,14.8000001907,-0.021869948989594594,0.3939712527471027,1.078260999694922
1648295638363856970,56602,16,0,0.0127353817225,0.0439508594573,0.0101956976578,0.0,14.0,0.004259324990802675,0.014699284099431437,0.003409932327023411,14.0,0.0,0.01588561147045811,0.046880915577475576
1648295638363864589,56603,16,1,0.0334158502519,0.0146502861753,-0.0294375643134,0.0,14.0,0.011175869649464881,0.0048997612626421405,-0.009845339235250836,14.0,0.0,0.01654713828051694,0.04688091430188998
1648295638363876303,56604,16,2,0.810007870197,-0.184593603015,0.148007288575,0.0,14.0,0.2709056422063545,-0.06173699097491638,0.04950076540969899,14.0,0.0,0.3880608071077413,0.8438564484119694
1648295638363945736,56605,16,3,0.629405796528,-0.28568059206,0.129400789738,0.485512852669,14.0,0.21050361087892974,-0.09554534851505017,0.04327785609966555,14.0,0.06560984495527027,0.3126538885237127,0.7032137809852822
