%time,field.header.seq,field.header.frame_id,field.point_id,field.x,field.y,field.z,field.velocity,field.intensity,normalized_x,normalized_y,normalized_z,normalized_intensity,normalized_velocity,normalized_range,range
1648219403158232375,73400,0,0,0.00569995492697,0.0454158857465,0.0101354857907,0.0,12.8999996185,0.001906339440458194,0.015189259446989964,0.0033897945788294312,12.8999996185,0.0,0.015426660775179662,0.046880915482977854
1648219403158245807,73401,0,1,0.0334614515305,0.0146502861753,-0.0293857175857,0.0,12.8999996185,0.011191120913210702,0.0048997612626421405,-0.009827999192541806,12.8999996185,0.0,0.016567740794057963,0.04688091319047343
1648219403158262331,73402,0,2,0.782444417477,1.10463154316,0.126240983605,-0.0809188112617,12.8999996185,0.2616870961461538,0.3694419876789297,0.04222106475083612,12.8999996185,-0.010934974494824324,0.5229222263768974,1.359546578285026
1648219403158279613,73403,0,3,0.954252064228,1.12514197826,-0.272077918053,-0.0809188112617,12.8999996185,0.31914784756789294,0.37630166496989964,-0.09099595921505017,12.8999996185,-0.010934974494824324,0.5876339339023544,1.5001892769974996
1648219403353206109,73404,2,0,0.00548892607912,0.0454158857465,0.010251305066,0.0,13.3000001907,0.0018357612304749163,0.015189259446989964,0.0034285301224080264,13.3000001907,0.0,0.01540953085394242,0.046880915554171745
1648219403353213340,73405,2,1,0.0334753356874,0.0146502861753,-0.0293699018657,0.0,13.3000001907,0.011195764443946488,0.0048997612626421405,-0.009822709654080268,13.3000001907,0.0,0.016574014100378984,0.046880914240265734
1648219403353216675,73406,2,2,2.14742279053,-1.14272224903,0.160207718611,0.0,13.3000001907,0.7182016021839464,-0.3821813541906354,0.05358117679297658,13.3000001907,0.0,1.0852141126294677,2.437807476569545
1648219403353221500,73407,2,3,0.990722835064,1.12514197826,0.0556027702987,0.161837622523,13.3000001907,0.331345429787291,0.37630166496989964,0.018596244247056855,13.3000001907,0.021869948989594594,0.6009846343634484,1.5001892797993748
1648219403353226420,73408,2,4,0.661356687546,1.2306240797,-0.161895096302,-0.323675245047,13.3000001907,0.22118952760735783,0.4115799597658863,-0.05414551715785953,13.3000001907,-0.04373989797932432,0.5169600347485488,1.4064275011197427
1648219403353309226,73409,2,5,0.765155375004,1.06654083729,0.0109153976664,-0.161837622523,13.3000001907,0.2559048076936455,0.35670262116722407,0.003650634671036789,13.3000001907,-0.021869948989594594,0.5081449607631778,1.3126657043630652
1648219403458256498,73410,3,0,0.0122471889481,0.0439508594573,0.0107772238553,0.0,29.8999996185,0.00409604981541806,0.014699284099431437,0.003604422694080267,29.8999996185,0.0,0.015799500030588644,0.0468809155007989
1648219403458264316,73411,3,1,0.0334614515305,0.0146502861753,-0.0293857175857,0.0,29.8999996185,0.011191120913210702,0.0048997612626421405,-0.009827999192541806,29.8999996185,0.0,0.016567740794057963,0.04688091319047343
1648219403458357019,73412,3,2,2.10644006729,-1.12074685097,-0.152863129973,0.0,29.8999996185,0.7044950057826086,-0.3748317227324415,-0.051124792633110365,29.8999996185,0.0,1.0644835586855466,2.3909266817594
1648219403458360731,73413,3,3,0.631793260574,1.1485824585,0.0684608519077,-0.485512852669,29.8999996185,0.21130209383745818,0.38414129046822737,0.02289660598919732,29.8999996185,-0.06560984495527027,0.48668437489073246,1.3126657138527533
1648219403458365965,73414,3,4,0.904859900475,1.13539719582,0.0648610517383,-0.161837622523,29.8999996185,0.3026287292558528,0.37973150361872904,0.02169265944424749,29.8999996185,-0.021869948989594594,0.5721575922615774,1.453308359501226
1648219403653241846,73415,5,0,0.00569995492697,0.0454158857465,0.0101354857907,0.0,25.0,0.001906339440458194,0.015189259446989964,0.0033897945788294312,25.0,0.0,0.015426660775179662,0.046880915482977854
1648219403653246126,73416,5,1,0.0334614515305,0.0146502861753,-0.0293857175857,0.0,25.0,0.011191120913210702,0.0048997612626421405,-0.009827999192541806,25.0,0.0,0.016567740794057963,0.04688091319047343
1648219403653401739,73417,5,2,2.10640573502,-1.12074685097,-0.1533331424,0.0,25.0,0.7044835234180602,-0.3748317227324415,-0.05128198742474916,25.0,0.0,1.064468360216319,2.3909265310842525
1648219403653404223,73418,5,3,1.00622832775,1.16030263901,-0.69969779253,-0.647350490093,25.0,0.33653121329431435,0.3880610832809364,-0.23401263964214045,25.0,-0.08747979595851352,0.6140829906452877,1.6877128495486091
1648219403653410050,73419,5,4,0.968746185303,2.13308167458,1.18484532833,-0.647350490093,25.0,0.3239953797,0.7134052423344481,0.3962693405785953,25.0,-0.08747979595851352,0.8478756111153138,2.625331417942039
1648219403653412453,73420,5,5,0.624273180962,0.988894343376,0.0775162652135,-0.566431701183,25.0,0.20878701704414715,0.3307338941056856,0.025925172312207354,25.0,-0.07654482448418919,0.44336096544767767,1.1720229512266873
1648219403653413618,73421,5,6,0.934659183025,0.97717410326,-0.141102209687,-0.404594063759,25.0,0.3125950444899665,0.3268140813578595,-0.04719137447725752,25.0,-0.05467487348094594,0.5497624645727915,1.3595465604654737
1648219403758259132,73422,6,0,0.00569995492697,0.0454158857465,0.0101354857907,0.0,22.1000003815,0.001906339440458194,0.015189259446989964,0.0033897945788294312,22.1000003815,0.0,0.015426660775179662,0.046880915482977854
1648219403758266300,73423,6,1,0.0334614515305,0.0146502861753,-0.0293857175857,0.0,22.1000003815,0.011191120913210702,0.0048997612626421405,-0.009827999192541806,22.1000003815,0.0,0.016567740794057963,0.04688091319047343
1648219403758421634,73424,6,2,0.299491345882,-0.527410268784,-0.586717188358,0.0,22.1000003815,0.10016432972642139,-0.17639139424214045,-0.1962264844006689,22.1000003815,0.0,0.22622933024206376,0.8438564552053505
1648219403758424574,73425,6,3,2.10612988472,-1.12074685097,-0.157076597214,0.0,22.1000003815,0.7043912657926421,-0.3748317227324415,-0.052533979001337786,22.1000003815,0.0,1.0643462458319148,2.3909265259857277
1648219403758428180,73426,6,4,0.697333276272,0.879017174244,0.0836634263396,-0.647350490093,22.1000003815,0.23322183152909698,0.29398567700468226,0.02798107904334448,22.1000003815,-0.08747979595851352,0.4418285003114606,1.125141973138959
1648219403953338169,73427,8,0,0.00563895702362,0.0454158857465,0.0101695489138,0.0,36.5,0.0018859388038862876,0.015189259446989964,0.003401186927692307,36.5,0.0,0.015421644947669556,0.046880915515415705
1648219403953341091,73428,8,1,0.0334753356874,0.0146502861753,-0.0293699018657,0.0,36.5,0.011195764443946488,0.0048997612626421405,-0.009822709654080268,36.5,0.0,0.016574014100378984,0.046880914240265734
1648219403953344274,73429,8,2,2.10593867302,-1.12074685097,-0.159621551633,0.0,36.5,0.7043273153913042,-0.3748317227324415,-0.053385134325418054,36.5,0.0,1.0642616007256924,2.3909266484411718
1648219403953433519,73430,8,3,1.01699471474,1.03138017654,-0.390569627285,-0.566431701183,36.5,0.3401320116187291,0.34494320285618724,-0.1306252934063545,36.5,-0.07654482448418919,0.5919167034746454,1.5001893054299245
1648219403953437065,73431,8,4,1.39881694317,-0.515690088272,-0.167161032557,-0.566431701183,36.5,0.4678317535685618,-0.17247160142876253,-0.05590669985183946,36.5,-0.07654482448418919,0.6837247637708269,1.5001892942048909
1648219403953512514,73432,8,5,0.850415408611,0.640217483044,0.171935841441,-0.404594063759,36.5,0.28441986910066885,0.21411955954648826,0.057503625899999994,36.5,-0.05467487348094594,0.4556714931382754,1.0782609732204134
1648219404058249197,73433,9,0,0.0122607154772,0.0439508594573,0.0107618328184,0.0,36.7000007629,0.00410057373819398,0.014699284099431437,0.003599275190100334,36.7000007629,0.0,0.015801846822461295,0.04688091548444185
1648219404058416735,73434,9,1,0.0334842801094,0.0146502861753,-0.0293597038835,0.0,36.7000007629,0.011198755889431438,0.0048997612626421405,-0.009819298957692306,36.7000007629,0.0,0.016578055596873812,0.046880914150534136
1648219404058421188,73435,9,2,2.10630345345,-1.12074685097,-0.154732301831,0.0,36.7000007629,0.7044493155351169,-0.3748317227324415,-0.051749933722742475,36.7000007629,0.0,1.0644230816185636,2.3909265624867038
1648219404058530939,73436,9,3,2.41450452805,-1.2965502739,0.373814582825,-0.566431701183,36.7000007629,0.8075265980100335,-0.4336288541471572,0.12502159960702341,36.7000007629,-0.07654482448418919,1.221569644406856,2.7659739823535485
1648219404058534228,73437,9,4,2.43807554245,1.2101136446,0.491960823536,-0.566431701183,36.7000007629,0.8154098804180602,0.40472028247491637,0.1645353924869565,36.7000007629,-0.07654482448418919,1.22212317432138,2.7659741205286386
1648219404058538829,73438,9,5,0.836693763733,0.580151319504,0.164660051465,-0.404594063759,36.7000007629,0.27983069021170565,0.19403054164013378,0.05507025132608696,36.7000007629,-0.05467487348094594,0.44074741230991116,1.0313801143809114
1648219404156284878,73439,10,0,0.00563895702362,0.0454158857465,0.0101695489138,0.0,39.0,0.0018859388038862876,0.015189259446989964,0.003401186927692307,39.0,0.0,0.015421644947669556,0.046880915515415705
1648219404156290354,73440,10,1,0.0334614515305,0.0146502861753,-0.0293857175857,0.0,39.0,0.011191120913210702,0.0048997612626421405,-0.009827999192541806,39.0,0.0,0.016567740794057963,0.04688091319047343
1648219404156303491,73441,10,2,2.10467553139,-1.12074685097,-0.175490647554,0.0,39.0,0.7039048599966554,-0.3748317227324415,-0.05869252426555184,39.0,0.0,1.0637024603809058,2.390926507396217
1648219404156304621,73442,10,3,2.21760725975,-1.52948987484,0.369251281023,-0.647350490093,39.0,0.7416746688127089,-0.5115350751973244,0.12349541171337791,39.0,-0.08747979595851352,1.1669750476655512,2.7190931841831216
1648219404156305598,73443,10,4,0.986877679825,0.849716603756,-0.390411287546,-0.566431701183,39.0,0.33005942469063543,0.28418615510234113,-0.13057233697190634,39.0,-0.07654482448418919,0.5464798426347292,1.3595465549508525
1648219404156312043,73444,10,5,1.19004428387,-0.637287437916,0.161326393485,-0.566431701183,39.0,0.39800812169565214,-0.21313961134314377,0.05395531554682274,39.0,-0.07654482448418919,0.6018716007546032,1.3595465719614308
1648219404156314187,73445,10,6,0.844491779804,0.451228827238,0.383368253708,-0.404594063759,39.0,0.2824387223424749,0.15091265125016723,0.12821680726020065,39.0,-0.05467487348094594,0.42698699285136765,1.0313801620344605
1648219404156315526,73446,10,7,0.849195361137,0.49224960804,0.0761329606175,-0.242756426334,39.0,0.28401182646722406,0.16463197593311035,0.025462528634615383,39.0,-0.03280492247756756,0.43408423450539807,0.9844991953701737
1648219404156317689,73447,10,8,1.06376647949,1.4855389595,0.0667798370123,-0.161837622523,39.0,0.35577474230434775,0.4968357724080267,0.02233439364959866,39.0,-0.021869948989594594,0.707104744198291,1.8283557284375163
1648219404258213185,73448,11,0,0.00569995492697,0.0454158857465,0.0101354857907,0.0,16.5,0.001906339440458194,0.015189259446989964,0.0033897945788294312,16.5,0.0,0.015426660775179662,0.046880915482977854
1648219404258217932,73449,11,1,0.0334614515305,0.0146502861753,-0.0293857175857,0.0,16.5,0.011191120913210702,0.0048997612626421405,-0.009827999192541806,16.5,0.0,0.016567740794057963,0.04688091319047343
1648219404258221609,73450,11,2,2.10530376434,-1.12074685097,-0.167785391212,0.0,16.5,0.7041149713511705,-0.3748317227324415,-0.05611551545551839,16.5,0.0,1.0639805478148034,2.390926469301703
1648219404258235187,73451,11,3,0.91915178299,-1.99683392048,0.150993615389,0.566431701183,16.5,0.3074086230735786,-0.6678374315986622,0.050499536919397986,16.5,0.07654482448418919,0.7968732384289767,2.203402999462755
1648219404258242409,73452,11,4,2.14298987389,-1.58662593365,0.175869658589,-0.647350490093,16.5,0.7167190213678929,-0.5306441249665551,0.05881928380903009,16.5,-0.08747979595851352,1.144095930655564,2.672212115408884
1648219404258385616,73453,11,5,2.33325529099,1.16909277439,0.574334263802,-0.647350490093,16.5,0.7803529401304347,0.39100092788963203,0.19208503806086957,16.5,-0.08747979595851352,1.17080448750036,2.672212194912807
1648219404258402267,73454,11,6,0.760797739029,0.44536870718,0.127462521195,-0.485512852669,16.5,0.2544474043575251,0.14895274487625418,0.04262960575083612,16.5,-0.06560984495527027,0.389453313472532,0.8907374356993248
1648219404258407724,73455,11,7,0.547063291073,-0.615312039852,2.68965911865,-0.485512852669,16.5,0.18296431139565217,-0.20578997988361203,0.8995515446989966,16.5,-0.06560984495527027,0.33060761381049253,2.8128550132140733
1648219404258411380,73456,11,8,1.81038033962,0.79111546278,-2.002202034,-0.485512852669,16.5,0.6054783744548494,0.26458711129765883,-0.6696327872909699,16.5,-0.06560984495527027,0.896222329185015,2.812855068162236
1648219404258414545,73457,11,9,0.906635046005,0.36918720603,0.104653701186,-0.404594063759,16.5,0.30322242341304345,0.12347398194983276,0.035001237854849494,16.5,-0.05467487348094594,0.4462437678438833,0.9844992112300825
1648219404356195458,73458,12,0,0.0122607154772,0.0439508594573,0.0107618328184,0.0,38.0999984741,0.00410057373819398,0.014699284099431437,0.003599275190100334,38.0999984741,0.0,0.015801846822461295,0.04688091548444185
1648219404356199180,73459,12,1,0.0334614515305,0.0146502861753,-0.0293857175857,0.0,38.0999984741,0.011191120913210702,0.0048997612626421405,-0.009827999192541806,38.0999984741,0.0,0.016567740794057963,0.04688091319047343
1648219404356299555,73460,12,2,2.06667137146,-1.19546329975,-0.127542465925,0.0,38.0999984741,0.6911944386153845,-0.39982050158862875,-0.04265634311872909,38.0999984741,0.0,1.0561041319094704,2.390926627748277
1648219404356308428,73461,12,3,0.518613040447,-2.04371500015,-0.0696827769279,0.566431701183,38.0999984741,0.1734491774070234,-0.683516722458194,-0.023305276564515046,38.0999984741,0.07654482448418919,0.7261985569844779,2.109641243662102
1648219404356350700,73462,12,4,1.2397415638,-1.68478286266,0.524532616138,-0.566431701183,38.0999984741,0.4146292855518394,-0.5634725293177257,0.17542896860802673,38.0999984741,-0.07654482448418919,0.8132257867100459,2.1565219462640925
1648219404356357877,73463,12,5,1.57591927052,0.6050568223,-2.19111776352,-0.404594063759,38.0999984741,0.5270633011772575,0.20236014123745819,-0.7328153055250836,38.0999984741,-0.05467487348094594,0.7723607147294462,2.7659740344083037
1648219404356361916,73464,12,6,0.926188111305,0.354536950588,0.283238708973,-0.323675245047,38.0999984741,0.3097619101354515,0.11857423096588628,0.0947286652083612,38.0999984741,-0.04373989797932432,0.4538333727158883,1.0313801593571852
1648219404356364051,73465,12,7,0.886501014233,0.293005734682,-0.0859744846821,-0.242756426334,38.0999984741,0.29648863352274246,0.09799522899063544,-0.028754008254882942,38.0999984741,-0.03280492247756756,0.4305973577732372,0.9376182703046207
1648219404458247248,73466,13,0,0.00569995492697,0.0454158857465,0.0101354857907,0.0,39.5,0.001906339440458194,0.015189259446989964,0.0033897945788294312,39.5,0.0,0.015426660775179662,0.046880915482977854
1648219404458250256,73467,13,1,0.0334614515305,0.0146502861753,-0.0293857175857,0.0,39.5,0.011191120913210702,0.0048997612626421405,-0.009827999192541806,39.5,0.0,0.016567740794057963,0.04688091319047343
1648219404458255286,73468,13,2,0.957932949066,-1.78000986576,0.603751301765,-0.485512852669,39.5,0.32037891273110364,-0.5953210253377926,0.20192351229598662,39.5,-0.06560984495527027,0.7481259376968352,2.109641270806994
1648219404458382347,73469,13,3,0.277780979872,0.158223092556,2.51130390167,-0.404594063759,39.5,0.09290333774983277,0.05291742225953177,0.8399009704581939,39.5,-0.05467487348094594,0.14164149783418908,2.531569494669186
1648219404458404567,73470,13,4,0.952364385128,0.380907416344,0.658511996269,-0.323675245047,39.5,0.31851651676521736,0.12739378473043478,0.2202381258424749,39.5,-0.04373989797932432,0.4681182748968879,1.2189037825506484
1648219404458407793,73471,13,5,0.621919691563,-0.457088917494,-0.943404555321,-0.323675245047,39.5,0.20799989684381268,-0.15287254765685618,-0.3155199181675585,39.5,-0.04373989797932432,0.3315085670102225,1.2189038256770168
1648219404458410131,73472,13,6,0.832819461823,-0.934688270092,-2.41375994682,-0.323675245047,39.5,0.2785349370645485,-0.31260477260602004,-0.8072775741872908,39.5,-0.04373989797932432,0.5028768896928606,2.7190931391019353
1648219404458594233,73473,13,7,1.91561746597,0.169943317771,-1.92223739624,-0.323675245047,39.5,0.6406747377826086,0.05683723002374581,-0.6428887612842809,39.5,-0.04373989797932432,0.9078318731915072,2.71909316035473
1648219404458600662,73474,13,8,0.809873104095,0.210964113474,0.108136482537,-0.0809188112617,39.5,0.2708605699314381,0.07055655969030099,0.036166047671237454,39.5,-0.010934974494824324,0.3894985555846105,0.8438565048429836
1648219404458608841,73475,13,9,0.879963636398,0.24612480402,0.366504102945,-0.0809188112617,39.5,0.29430221953110364,0.08231598796655518,0.12257662305852843,39.5,-0.010934974494824324,0.42426821082515465,0.9844992016310598
1648219404653274201,73476,15,0,0.0121482191607,0.0439508594573,0.0108886612579,0.0,25.3999996185,0.004062949552073578,0.014699284099431437,0.003641692728394649,25.3999996185,0.0,0.01578239750992186,0.04688091530464212
1648219404653277898,73477,15,1,0.0334614515305,0.0146502861753,-0.0293857175857,0.0,25.3999996185,0.011191120913210702,0.0048997612626421405,-0.009827999192541806,25.3999996185,0.0,0.016567740794057963,0.04688091319047343
1648219404653279671,73478,15,2,2.10486984253,-1.21890377998,0.163409799337,0.0,25.3999996185,0.7039698469999999,-0.407660127083612,0.05465210680167224,25.3999996185,0.0,1.07579452972407,2.437807671117875
1648219404653315205,73479,15,3,0.929853200912,-0.0307656005025,0.321970790625,0.242756426334,25.3999996185,0.310987692612709,-0.010289498495819397,0.10768253867056855,25.3999996185,0.03280492247756756,0.43992336115788283,0.9844992064172826
1648219404758234982,73480,16,0,0.0121482191607,0.0439508594573,0.0108886612579,0.0,41.9000015259,0.004062949552073578,0.014699284099431437,0.003641692728394649,41.9000015259,0.0,0.01578239750992186,0.04688091530464212
1648219404758248166,73481,16,1,0.0334614515305,0.0146502861753,-0.0293857175857,0.0,41.9000015259,0.011191120913210702,0.0048997612626421405,-0.009827999192541806,41.9000015259,0.0,0.016567740794057963,0.04688091319047343
1648219404758411670,73482,16,2,2.10783791542,-1.12074685097,-0.132197886705,0.0,41.9000015259,0.7049625135183947,-0.3748317227324415,-0.04421334003511705,41.9000015259,0.0,1.0651023947484652,2.3909266954238833
1648219404758414356,73483,16,3,0.930612146854,-0.12306240201,0.296741217375,0.323675245047,41.9000015259,0.3112415206869565,-0.04115799398327759,0.09924455430602006,41.9000015259,0.04373989797932432,0.4420820612372615,0.9844991989584748
1648219404758415831,73484,16,4,0.71238642931,1.78440487385,0.430533915758,-0.323675245047,41.9000015259,0.23825633087290968,0.5967909277090301,0.14399127617324414,41.9000015259,-0.04373989797932432,0.6853404772796129,1.9689983827069546
1648219404758417929,73485,16,5,2.33551263809,-0.68563336134,0.134882882237,-0.242756426334,41.9000015259,0.781107905715719,-0.2293088165016722,0.045111331851839465,41.9000015259,-0.03280492247756756,1.1282028426079198,2.437807576651828
1648219404953206546,73486,18,0,0.0121482191607,0.0439508594573,0.0108886612579,0.0,14.1999998093,0.004062949552073578,0.014699284099431437,0.003641692728394649,14.1999998093,0.0,0.01578239750992186,0.04688091530464212
1648219404953210893,73487,18,1,0.0334614515305,0.0146502861753,-0.0293857175857,0.0,14.1999998093,0.011191120913210702,0.0048997612626421405,-0.009827999192541806,14.1999998093,0.0,0.016567740794057963,0.04688091319047343
1648219404953213890,73488,18,2,2.10813140869,-1.12074685097,-0.127431869507,0.0,14.1999998093,0.7050606718026755,-0.3748317227324415,-0.04261935435016722,14.1999998093,0.0,1.0652323325041586,2.390926686795416
1648219404953332419,73489,18,3,1.11090922356,1.39177715778,0.0498982779682,0.0809188112617,14.1999998093,0.3715415463411371,0.46547731029431433,0.016688387280334446,14.1999998093,0.010934974494824324,0.7019653607650138,1.7814748940282736
1648219404953340117,73490,18,4,0.898432910442,-0.263705164194,0.0490509495139,0.323675245047,14.1999998093,0.30047923426153844,-0.0881957070882943,0.016404999837424748,14.1999998093,0.04373989797932432,0.43399772256730246,0.9376183145801295
1648219404953346857,73491,18,5,0.972974479198,-0.336956560612,0.320043444633,0.323675245047,14.1999998093,0.3254095248153846,-0.11269450187692308,0.10703794134882942,14.1999998093,0.04373989797932432,0.4737961253898523,1.0782610385999505
1648219405058289887,73492,19,0,0.0121482191607,0.0439508594573,0.0108886612579,0.0,37.0,0.004062949552073578,0.014699284099431437,0.003641692728394649,37.0,0.0,0.01578239750992186,0.04688091530464212
1648219405058482511,73493,19,1,0.0334614515305,0.0146502861753,-0.0293857175857,0.0,37.0,0.011191120913210702,0.0048997612626421405,-0.009827999192541806,37.0,0.0,0.016567740794057963,0.04688091319047343
1648219405058490210,73494,19,2,2.10399007797,-1.21890377998,0.174370974302,0.0,37.0,0.7036756113612039,-0.407660127083612,0.05831805160602006,37.0,0.0,1.0754094621412604,2.437807603098482
1648219405058501093,73495,19,3,1.03658139706,1.44744825363,0.06360283494,0.161837622523,37.0,0.34668274149163875,0.484096405896321,0.02127185115050167,37.0,0.021869948989594594,0.689004482349754,1.7814748834265957
1648219405058529182,73496,19,4,0.959591329098,-0.370652228594,0.323184341192,0.242756426334,37.0,0.32093355488227426,-0.12396395605150501,0.10808840842541806,37.0,0.03280492247756756,0.470493098460208,1.0782609664795773
1648219405058562271,73497,19,5,1.17998445034,-0.266635209322,-0.14922773838,0.485512852669,37.0,0.3946436288762542,-0.0891756552916388,-0.049908942602006685,37.0,0.06560984495527027,0.565189777970135,1.2189038336950084
1648219405253417846,73498,21,0,0.0121619980782,0.0439508594573,0.0108732702211,0.0,23.1000003815,0.004067557885685619,0.014699284099431437,0.0036365452244481603,23.1000003815,0.0,0.015784771374416685,0.04688091562235679
1648219405253423939,73499,21,1,0.0334476083517,0.0146502861753,-0.0294014774263,0.0,23.1000003815,0.011186491087525082,0.0048997612626421405,-0.009833270042240803,23.1000003815,0.0,0.01656148622960647,0.04688091577940992
1648219405253425844,73500,21,2,0.284568220377,-0.527410268784,-0.594098508358,0.0,23.1000003815,0.09517331785183947,-0.17639139424214045,-0.19869515329698997,23.1000003815,0.0,0.22187799535902777,0.8438564459080375
1648219405253430780,73501,21,3,1.77018582821,-1.46502864361,0.463340252638,0.0,23.1000003815,0.5920353940501671,-0.489976134986622,0.1549632951966555,23.1000003815,0.0,0.9700971232163829,2.3440458576375858
1648219405253580559,73502,21,4,0.976772785187,-0.438043534756,0.129149511456,0.566431701183,23.1000003815,0.3266798612665551,-0.1465028544334448,0.04319381654046823,23.1000003815,0.07654482448418919,0.48466746318627424,1.0782610113199975
