%time,field.header.seq,field.header.frame_id,field.point_id,field.x,field.y,field.z,field.velocity,field.intensity,normalized_x,normalized_y,normalized_z,normalized_intensity,normalized_velocity,normalized_range,range
1648294362563650667,6776,0,0,0.00623836740851,0.0454158857465,0.00981327332556,0.0,14.3000001907,0.0020864105045183944,0.015189259446989964,0.0032820312125618725,14.3000001907,0.0,0.01547319682983136,0.046880915513936465
1648294362563661934,6777,0,1,0.033480156213,0.0146502861753,-0.0293644089252,0.0,14.3000001907,0.01119737665986622,0.0048997612626421405,-0.009820872550234113,14.3000001907,0.0,0.016576192221276938,0.04688091569702361
1648294362563792597,6778,0,2,1.71620082855,-1.43572807312,0.519909739494,0.0,14.3000001907,0.5739802102173912,-0.480176613083612,0.1738828560180602,14.3000001907,0.0,0.9431204287867218,2.297164887656368
1648294362563829986,6779,0,3,2.34043765068,-1.06654083729,0.526504218578,0.0,14.3000001907,0.7827550671170569,-0.35670262116722407,0.17608836741739128,14.3000001907,0.0,1.1630338559742897,2.6253313022375298
1648294362563833486,6780,0,4,0.712734997272,1.14711737633,0.156516581774,-0.0809188112617,14.3000001907,0.23837290878662204,0.3836512964314381,0.052346682867558524,14.3000001907,-0.010934974494824324,0.5107167556878408,1.3595465758056096
1648294362758594426,6781,2,0,0.0126124918461,0.0439508594573,0.0103473290801,0.0,19.3999996185,0.004218224697692308,0.014699284099431437,0.0034606451772909697,19.3999996185,0.0,0.01586366263623381,0.04688091527151703
1648294362758602592,6782,2,1,0.0334649384022,0.0146502861753,-0.0293817501515,0.0,19.3999996185,0.01119228709103679,0.0048997612626421405,-0.009826672291471572,19.3999996185,0.0,0.016569316252859262,0.046880915405380016
1648294362758618247,6783,2,2,1.71619784832,-1.43572807312,0.519919633865,0.0,19.3999996185,0.5739792134849498,-0.480176613083612,0.1738861651722408,19.3999996185,0.0,0.9431192155703605,2.2971649005244226
1648294362758630881,6784,2,3,2.34018683434,-1.06654083729,0.527618050575,0.0,19.3999996185,0.7826711820535116,-0.35670262116722407,0.1764608864799331,19.3999996185,0.0,1.1629209424469276,2.625331328521809
1648294362758638472,6785,2,4,0.754021167755,1.06654083729,0.130514398217,-0.242756426334,19.3999996185,0.25218099256020066,0.35670262116722407,0.04365030040702341,19.3999996185,-0.03280492247756756,0.5044078369383888,1.3126657179845194
1648294362758677121,6786,2,5,0.965679764748,1.20864868164,0.00757489399984,-0.242756426334,19.3999996185,0.32296982098595317,0.40423032830769223,0.002533409364494983,19.3999996185,-0.03280492247756756,0.6099353808881248,1.5470702707676118
1648294362863725339,6787,3,0,0.00636331317946,0.0454158857465,0.00973271857947,0.0,13.5,0.002128198387779264,0.015189259446989964,0.0032550898259096983,13.5,0.0,0.015484574882878329,0.046880915559598356
1648294362863730352,6788,3,1,0.0335029289126,0.0146502861753,-0.0293384213001,0.0,13.5,0.011204992947357858,0.0048997612626421405,-0.009812181036822742,13.5,0.0,0.01658648227719088,0.04688091397491176
1648294362863741697,6789,3,2,1.71832966805,-1.43572807312,0.512829840183,0.0,13.5,0.5746921966722408,-0.480176613083612,0.1715149967167224,13.5,0.0,0.9439871935489272,2.297164859784298
1648294362863901414,6790,3,3,2.34093999863,-1.06654083729,0.52426725626,0.0,13.5,0.7829230764648829,-0.35670262116722407,0.17534021948494982,13.5,0.0,1.1632600084547056,2.6253315201664473
1648294362863907317,6791,3,4,0.792321920395,1.02552008629,0.208867877722,-0.404594063759,13.5,0.2649906088277592,0.342983306451505,0.06985547749899665,13.5,-0.05467487348094594,0.5080133797826785,1.3126657088789828
1648294363058555558,6792,5,0,0.00639285892248,0.0454158857465,0.00971333682537,0.0,26.2000007629,0.002138079907183946,0.015189259446989964,0.0032486076339030097,26.2000007629,0.0,0.01548729717952688,0.04688091547340946
1648294363058563005,6793,5,1,0.0335872508585,0.0146502861753,-0.0292418505996,0.0,26.2000007629,0.011233194267056856,0.0048997612626421405,-0.00977988314367893,26.2000007629,0.0,0.01662458923744483,0.046880914365435775
1648294363058571773,6794,5,2,1.7193800211,-1.43572807312,0.509297251701,0.0,26.2000007629,0.5750434853177258,-0.480176613083612,0.17033352899698997,26.2000007629,0.0,0.9444149510491475,2.2971648716391466
1648294363058582403,6795,5,3,2.34116268158,-1.06654083729,0.523271501064,0.0,26.2000007629,0.782997552367893,-0.35670262116722407,0.17500719099130432,26.2000007629,0.0,1.1633602597543853,2.625331431087489
1648294363058585841,6796,5,4,0.813937664032,0.842391490936,0.038985658437,-0.485512852669,26.2000007629,0.2722199545257525,0.2817362845939799,0.013038681751505014,26.2000007629,-0.06560984495527027,0.47705632931638753,1.1720229632968
1648294363163441916,6797,6,0,0.00639285892248,0.0454158857465,0.00971333682537,0.0,36.5,0.002138079907183946,0.015189259446989964,0.0032486076339030097,36.5,0.0,0.01548729717952688,0.04688091547340946
1648294363163502009,6798,6,1,0.0335029289126,0.0146502861753,-0.0293384213001,0.0,36.5,0.011204992947357858,0.0048997612626421405,-0.009812181036822742,36.5,0.0,0.01658648227719088,0.04688091397491176
1648294363163611653,6799,6,2,1.72101688385,-1.43572807312,0.503738224506,0.0,36.5,0.5755909310535117,-0.480176613083612,0.16847432257725753,36.5,0.0,0.9450816999469124,2.297164864190224
1648294363163617053,6800,6,3,2.34080147743,-1.06654083729,0.524885416031,0.0,36.5,0.7828767483043477,-0.35670262116722407,0.1755469618832776,36.5,0.0,1.1631976470139311,2.6253315246474607
1648294363163622301,6801,6,4,0.87768805027,0.769140064716,0.10828243196,-0.485512852669,36.5,0.2935411539364548,0.2572374798381271,0.03621486018729097,36.5,-0.06560984495527027,0.4883686508593296,1.1720229681236025
1648294363163736175,6802,6,5,1.04405999184,0.779395282269,-0.159915477037,-0.323675245047,36.5,0.3491839437591973,0.2606673184846154,-0.053483437136120394,36.5,-0.04373989797932432,0.5583961891743285,1.3126656971141153
1648294363358541748,6803,8,0,0.00618360564113,0.0454158857465,0.00984787195921,0.0,19.2999992371,0.0020680955321505014,0.015189259446989964,0.0032936026619431436,19.2999992371,0.0,0.015468278534089552,0.046880915509289606
1648294363358549754,6804,8,1,0.0335646085441,0.0146502861753,-0.0292678363621,0.0,19.2999992371,0.011225621586655517,0.0048997612626421405,-0.009788574034147157,19.2999992371,0.0,0.01661435585403362,0.04688091378221547
1648294363358557018,6805,8,2,1.7138915062,-1.43572807312,0.527472794056,0.0,19.2999992371,0.5732078616053511,-0.480176613083612,0.17641230570434782,19.2999992371,0.0,0.9421804948972397,2.2971649360545743
1648294363358584393,6806,8,3,2.34272146225,-1.06654083729,0.516247451305,0.0,19.2999992371,0.7835188836956521,-0.35670262116722407,0.17265801046989968,19.2999992371,0.0,1.1640620439490885,2.6253313387595365
1648294363358598589,6807,8,4,1.52196133137,-1.79319500923,0.42966863513,0.485512852669,19.2999992371,0.5090171676822742,-0.5997307723177256,0.14370188465886286,19.2999992371,0.06560984495527027,0.9369492799801836,2.390926550801467
1648294363358602607,6808,8,5,0.846284925938,0.606521844864,0.280321002007,-0.566431701183,19.2999992371,0.28303843676856183,0.20285011533913042,0.093752843480602,19.2999992371,-0.07654482448418919,0.44874233438564815,1.0782610019532954
1648294363358604926,6809,8,6,1.17999732494,0.574291229248,-0.029786715284,-0.404594063759,19.2999992371,0.3946479347625418,0.1920706452334448,-0.009962112135117055,19.2999992371,-0.05467487348094594,0.5902415756155023,1.312665742397563
1648294363463718977,6810,9,0,0.00641676597297,0.0454158857465,0.00969756022096,0.0,19.7000007629,0.002146075576244147,0.015189259446989964,0.003243331177578595,19.7000007629,0.0,0.01548950881422252,0.04688091549799505
1648294363463721853,6811,9,1,0.033480156213,0.0146502861753,-0.0293644089252,0.0,19.7000007629,0.01119737665986622,0.0048997612626421405,-0.009820872550234113,19.7000007629,0.0,0.016576192221276938,0.04688091569702361
1648294363463723553,6812,9,2,1.7184317112,-1.43572807312,0.51248806715,0.0,19.7000007629,0.5747263248160535,-0.480176613083612,0.17140069135451502,19.7000007629,0.0,0.9440287477749734,2.2971649189759473
1648294363463724633,6813,9,3,2.34223198891,-1.06654083729,0.518463611603,0.0,19.7000007629,0.7833551802374582,-0.35670262116722407,0.17339920120501673,19.7000007629,0.0,1.1638416716879016,2.6253313246211376
1648294363463725624,6814,9,4,0.168727844954,-1.27457487583,-2.39592504501,0.485512852669,19.7000007629,0.05643071737591973,-0.4262792226856187,-0.8013127240836119,19.7000007629,0.06560984495527027,0.43368517085620667,2.719093051196676
1648294363463726787,6815,9,5,0.892361581326,0.5391305089,0.275092542171,-0.647350490093,19.7000007629,0.29844868940668895,0.18031120698996655,0.09200419470602006,19.7000007629,-0.08747979595851352,0.45897208170358156,1.0782610093161653
1648294363463730000,6816,9,6,2.03266358376,-0.446833729744,-1.96130263805,-0.566431701183,19.7000007629,0.6798205965752507,-0.1494427189779264,-0.655954059548495,19.7000007629,-0.07654482448418919,0.9729569431950086,2.8597359431952576
1648294363463865860,6817,9,7,0.470841884613,0.98303425312,-2.64386868477,-0.566431701183,19.7000007629,0.15747220221170566,0.3287739976989966,-0.8842370183177257,19.7000007629,-0.07654482448418919,0.39709864077051243,2.8597360097429565
1648294363560209739,6818,10,0,0.0126330824569,0.0439508594573,0.0103221805766,0.0,11.6000003815,0.0042251111895986624,0.014699284099431437,0.003452234306555184,11.6000003815,0.0,0.015867327505435232,0.046880915426792916
1648294363560211045,6819,10,1,0.0335646085441,0.0146502861753,-0.0292678363621,0.0,11.6000003815,0.011225621586655517,0.0048997612626421405,-0.009788574034147157,11.6000003815,0.0,0.01661435585403362,0.04688091378221547
1648294363560212239,6820,10,2,1.71449100971,-1.43572807312,0.525520801544,0.0,11.6000003815,0.5734083644515049,-0.480176613083612,0.1757594653993311,11.6000003815,0.0,0.9424244715616995,2.2971649124903357
1648294363560214690,6821,10,3,2.36786007881,-0.984499275684,0.562463462353,0.0,11.6000003815,0.7919264477625418,-0.32926397180066885,0.18811487035217392,11.6000003815,0.0,1.1673516010429537,2.625331469191375
1648294363560216011,6822,10,4,0.407551765442,-2.13454675674,0.36413821578,0.404594063759,11.6000003815,0.13630493827491638,-0.7138952363678929,0.12178535644816052,11.6000003815,0.05467487348094594,0.7394622917397662,2.2034030358551258
1648294363560225059,6823,10,5,1.01335787773,-0.703213751316,-2.52799320221,-0.566431701183,11.6000003815,0.33891567817056856,-0.23518854559063543,-0.8454826763244145,11.6000003815,-0.07654482448418919,0.5338926163533929,2.812855026270878
1648294363560228836,6824,10,6,1.73369550705,0.879017174244,-2.03317046165,-0.566431701183,11.6000003815,0.5798312732608695,0.29398567700468226,-0.6799901209531772,11.6000003815,-0.07654482448418919,0.8711120416952939,2.812855031797291
1648294363560229988,6825,10,7,0.891022503376,0.307655990124,0.284016430378,-0.485512852669,11.6000003815,0.2980008372494983,0.10289497997458194,0.09498877270167223,11.6000003815,-0.06560984495527027,0.4338160611443213,0.9844991835985818
1648294363659951378,6826,11,0,0.00636331317946,0.0454158857465,0.00973271857947,0.0,41.2000007629,0.002128198387779264,0.015189259446989964,0.0032550898259096983,41.2000007629,0.0,0.015484574882878329,0.046880915559598356
1648294363659956686,6827,11,1,0.0335646085441,0.0146502861753,-0.0292678363621,0.0,41.2000007629,0.011225621586655517,0.0048997612626421405,-0.009788574034147157,41.2000007629,0.0,0.01661435585403362,0.04688091378221547
1648294363659963579,6828,11,2,1.78129434586,-1.46502864361,0.418608188629,0.0,41.2000007629,0.5957506173444815,-0.489976134986622,0.14000273867190635,41.2000007629,0.0,0.9746354236272609,2.344045922924253
1648294363659966339,6829,11,3,2.36878752708,-0.984499275684,0.558544695377,0.0,41.2000007629,0.7922366311304346,-0.32926397180066885,0.18680424594548495,41.2000007629,0.0,1.1677724617988525,2.625331474120151
1648294363659971043,6830,11,4,0.421462237835,0.659262895584,-1.95916521549,0.566431701183,41.2000007629,0.14095727017892976,0.22048926273712371,-0.6552392025050167,41.2000007629,0.07654482448418919,0.2972430302209826,2.1096412787487506
1648294363659974346,6831,11,5,2.11836099625,0.336956560612,0.22269757092,-0.647350490093,41.2000007629,0.7084819385451504,0.11269450187692308,0.07448079294983277,41.2000007629,-0.08747979595851352,1.0082625477734837,2.156522024526165
1648294363659976563,6832,11,6,1.22231960297,-1.68478286266,0.563940048218,-0.647350490093,41.2000007629,0.4088025427993311,-0.5634725293177257,0.1886087117785953,41.2000007629,-0.08747979595851352,0.8073043597640936,2.156521941483945
1648294363660129996,6833,11,7,2.29131770134,1.04749548435,0.54865527153,-0.566431701183,41.2000007629,0.7663269904147157,0.35033293790969894,0.1834967463311037,41.2000007629,-0.07654482448418919,1.1389676377582432,2.5784503495676083
1648294363660142979,6834,11,8,0.790473818779,0.290075659752,0.0556864477694,-0.404594063759,41.2000007629,0.264372514641806,0.09701527082006689,0.018624230023210703,41.2000007629,-0.05467487348094594,0.3862610720333526,0.8438564611477403
1648294363660146628,6835,11,9,0.851306021214,0.234404578805,0.315373837948,-0.242756426334,41.2000007629,0.28471773284749163,0.07839618020234114,0.1054761999826087,41.2000007629,-0.03280492247756756,0.4102125496202538,0.9376183157244808
1648294363759916282,6836,12,0,0.0126124918461,0.0439508594573,0.0103473290801,0.0,42.5999984741,0.004218224697692308,0.014699284099431437,0.0034606451772909697,42.5999984741,0.0,0.01586366263623381,0.04688091527151703
1648294363760025582,6837,12,1,0.0335646085441,0.0146502861753,-0.0292678363621,0.0,42.5999984741,0.011225621586655517,0.0048997612626421405,-0.009788574034147157,42.5999984741,0.0,0.01661435585403362,0.04688091378221547
1648294363760071240,6838,12,2,1.72273695469,-1.43572807312,0.497824281454,0.0,42.5999984741,0.5761662055819398,-0.480176613083612,0.16649641520200667,42.5999984741,0.0,0.9457825186911784,2.297164933174071
1648294363760079455,6839,12,3,2.36838769913,-0.984499275684,0.560237586498,0.0,42.5999984741,0.7921029094080266,-0.32926397180066885,0.18737043026688963,42.5999984741,0.0,1.167591024850428,2.6253314591757206
1648294363760082552,6840,12,4,2.02965164185,0.32230630517,0.177800223231,-0.566431701183,42.5999984741,0.6788132581438127,0.10779475089297658,0.059464957602341134,42.5999984741,-0.07654482448418919,0.9660199724559093,2.0627603013917377
1648294363760085689,6841,12,5,0.127954497933,1.99829912186,-0.495387107134,-0.566431701183,42.5999984741,0.042794146465886286,0.6683274655050166,-0.16568130673377926,42.5999984741,-0.07654482448418919,0.6710620530858876,2.062760315664989
1648294363760090155,6842,12,6,2.31429553032,0.776465177536,0.463481515646,-0.485512852669,42.5999984741,0.7740118830501671,0.25968735034648827,0.15501054034983275,42.5999984741,-0.06560984495527027,1.1250005822823874,2.4846885295607284
1648294363760191361,6843,12,7,1.96889519691,-0.0776465162635,-1.51363778114,-0.485512852669,42.5999984741,0.6584933768929765,-0.025968734536287622,-0.5062333716187291,42.5999984741,-0.06560984495527027,0.9316122744990253,2.4846884332643295
1648294363760304512,6844,12,8,1.10010254383,-1.01965987682,-2.26793646812,-0.323675245047,42.5999984741,0.3679272721839465,-0.34102337017391304,-0.758507179973244,42.5999984741,-0.04373989797932432,0.622123696894929,2.719093175079963
1648294363760555664,6845,12,9,2.26827979088,0.0849716588855,-1.49704837799,-0.323675245047,42.5999984741,0.7586220036387958,0.028418615011872907,-0.500685076250836,42.5999984741,-0.04373989797932432,1.0732298479305704,2.7190930911925135
1648294363760601902,6846,12,10,0.782704591751,0.149432912469,-0.0146083589643,-0.242756426334,42.5999984741,0.2617741109535117,0.04997756269866221,-0.004885738784046822,42.5999984741,-0.03280492247756756,0.37356274855009514,0.79697558145071
1648294363760674131,6847,12,11,0.853420495987,0.139177724719,0.213813573122,-0.161837622523,42.5999984741,0.28542491504581935,0.04654773401973244,0.07150955622809364,42.5999984741,-0.021869948989594594,0.4063267844976481,0.8907374619268305
1648294363859986602,6848,13,0,0.00618360564113,0.0454158857465,0.00984787195921,0.0,41.9000015259,0.0020680955321505014,0.015189259446989964,0.0032936026619431436,41.9000015259,0.0,0.015468278534089552,0.046880915509289606
1648294363859993889,6849,13,1,0.0335872508585,0.0146502861753,-0.0292418505996,0.0,41.9000015259,0.011233194267056856,0.0048997612626421405,-0.00977988314367893,41.9000015259,0.0,0.01662458923744483,0.046880914365435775
1648294363860001659,6850,13,2,0.79314494133,0.0498109720647,-0.0600832588971,0.0,41.9000015259,0.26526586666555185,0.016659187981505015,-0.0200947354170903,41.9000015259,0.0,0.3755123015027015,0.7969755510020966
1648294363860023854,6851,13,3,1.71963608265,-1.43572807312,0.50843244791,0.0,41.9000015259,0.575129124632107,-0.480176613083612,0.1700442969598662,41.9000015259,0.0,0.9445192426587381,2.297164972479003
1648294363860028324,6852,13,4,2.36826896667,-0.984499275684,0.560738801956,0.0,41.9000015259,0.7920631995551839,-0.32926397180066885,0.18753806085484948,41.9000015259,0.0,1.1675371460065593,2.625331355530871
1648294363860081604,6853,13,5,2.31054925919,-1.1485824585,0.484237402678,0.0,41.9000015259,0.7727589495618729,-0.38414129046822737,0.16195230858795984,41.9000015259,0.0,1.1583942849041224,2.6253314848357143
1648294363860084918,6854,13,6,0.236954927444,-1.90746724606,0.427054852247,-0.485512852669,41.9000015259,0.07924913961337793,-0.6379489117257524,0.14282770978160533,41.9000015259,-0.06560984495527027,0.6477188172586876,1.9689984203293356
1648294363860090333,6855,13,7,2.05114793777,-0.0,-1.31745886803,-0.404594063759,41.9000015259,0.6860026547725753,-0.0,-0.440621694993311,41.9000015259,-0.05467487348094594,0.9701542582033242,2.437807566558323
1648294363860094535,6856,13,8,2.64262771606,-0.509829938412,0.387375205755,-0.242756426334,41.9000015259,0.8838219786153845,-0.1705116850876254,0.12955692500167224,41.9000015259,-0.03280492247756756,1.2614899185164532,2.719093113856788
1648294363860098233,6857,13,9,0.829553544521,0.0278355441988,0.323232620955,-0.0809188112617,41.9000015259,0.2774426570304348,0.009309546554782609,0.10810455550334447,41.9000015259,-0.010934974494824324,0.3924735959746472,0.8907374630033459
1648294363963561175,6858,14,0,0.0126330824569,0.0439508594573,0.0103221805766,0.0,33.0,0.0042251111895986624,0.014699284099431437,0.003452234306555184,33.0,0.0,0.015867327505435232,0.046880915426792916
1648294363963571836,6859,14,1,0.0335646085441,0.0146502861753,-0.0292678363621,0.0,33.0,0.011225621586655517,0.0048997612626421405,-0.009788574034147157,33.0,0.0,0.01661435585403362,0.04688091378221547
1648294363963577484,6860,14,2,1.71432721615,-1.43572807312,0.526054799557,0.0,33.0,0.5733535839966555,-0.480176613083612,0.17593806005250834,33.0,0.0,0.9423578111927914,2.297164895281667
1648294363963765239,6861,14,3,2.36852192879,-0.984499275684,0.559669673443,0.0,33.0,0.7921478022709029,-0.32926397180066885,0.187180492790301,33.0,0.0,1.1676519363282856,2.6253314256210043
1648294363963769356,6862,14,4,0.793431699276,-0.0498109720647,0.0561700724065,0.161837622523,33.0,0.26536177233311037,-0.016659187981505015,0.01878597739347826,33.0,0.021869948989594594,0.375647799109408,0.7969755776610614
1648294363963771635,6863,14,5,0.795365095139,-0.0249054860324,-0.0440923534334,0.323675245047,33.0,0.2660083930230769,-0.00832959399076923,-0.014746606499464882,33.0,0.04373989797932432,0.376284882042171,0.7969755663954048
1648294363963775674,6864,14,6,0.199711203575,-1.35368645191,-1.41584014893,-0.566431701183,33.0,0.06679304467391303,-0.4527379437826087,-0.4735251334214047,33.0,-0.07654482448418919,0.46248704562844484,1.9689984515586052
1648294363963781939,6865,14,7,0.218408316374,1.84593605995,0.649440228939,-0.566431701183,33.0,0.07304625965685618,0.6173699197157191,0.21720408994615384,33.0,-0.07654482448418919,0.6259529773629223,1.9689984106264273
1648294363963784520,6866,14,8,0.79358291626,1.78440487385,0.251157492399,-0.404594063759,33.0,0.2654123465752508,0.5967909277090301,0.08399916133745818,33.0,-0.05467487348094594,0.705015488358211,1.968998396339498
1648294363963786153,6867,14,9,0.84270876646,-0.111342176795,0.266191810369,-0.0809188112617,33.0,0.2818423968093645,-0.037238186219063545,0.08902736132742475,33.0,-0.010934974494824324,0.4003210658850971,0.8907374614944122
1648294364158517571,6868,16,0,0.00624768529087,0.0454158857465,0.00980734359473,0.0,33.5,0.0020895268531337793,0.015189259446989964,0.0032800480249933106,33.5,0.0,0.015474037853382295,0.04688091549893182
1648294364158523730,6869,16,1,0.033480156213,0.0146502861753,-0.0293644089252,0.0,33.5,0.01119737665986622,0.0048997612626421405,-0.009820872550234113,33.5,0.0,0.016576192221276938,0.04688091569702361
1648294364158530321,6870,16,2,1.80173325539,-1.39177727699,0.557910680771,0.0,33.5,0.6025863730401337,-0.4654773501638796,0.18659220092675585,33.5,0.0,0.9710251476985101,2.3440458698673767
1648294364158532391,6871,16,3,1.85686516762,-1.44744825363,0.632338047028,0.0,33.5,0.6210251396722408,-0.484096405896321,0.21148429666488294,33.5,0.0,1.00284284831253,2.437807642816835
1648294364158539335,6872,16,4,0.794440627098,-0.306190997362,0.261771589518,0.242756426334,33.5,0.26569920638729094,-0.10240501584013377,0.08754902659464882,33.5,0.03280492247756756,0.38945978459770464,0.890737448369709
1648294364158558841,6873,16,5,1.4502979517,-0.93761831522,-0.730767071247,-0.323675245047,33.5,0.485049482173913,-0.31358472080936456,-0.24440370275819398,33.5,-0.04373989797932432,0.7542422538146808,1.8752367226993303
