%time,field.header.seq,field.header.frame_id,field.point_id,field.x,field.y,field.z,field.velocity,field.intensity,normalized_x,normalized_y,normalized_z,normalized_intensity,normalized_velocity,normalized_range,range
1648294447963945033,11268,0,0,0.00625035958365,0.0454158857465,0.00980563927442,0.0,15.1999998093,0.0020904212654347825,0.015189259446989964,0.0032794780182006686,15.1999998093,0.0,0.015474279455985594,0.046880915462948404
1648294447963955359,11269,0,1,0.0335735455155,0.0146502861753,-0.0292575843632,0.0,15.1999998093,0.011228610540301002,0.0048997612626421405,-0.009785145271973245,15.1999998093,0.0,0.016618394921363674,0.046880913880483405
1648294447963958230,11270,0,2,1.10674285889,1.14565241337,0.0572787038982,0.0,15.1999998093,0.37014811334113706,0.383161342264214,0.019156757156588627,15.1999998093,0.0,0.6487155507814814,1.5939510839058937
1648294447963991937,11271,0,3,1.50720727444,-1.68478298187,0.61998707056,0.0,15.1999998093,0.5040827004816053,-0.5634725691872909,0.20735353530434783,15.1999998093,0.0,0.9086804026037878,2.344045953428642
1648294447964000660,11272,0,4,2.23702812195,-1.2306240797,0.611256301403,0.0,15.1999998093,0.748169940451505,-0.4115799597658863,0.20443354561973243,15.1999998093,0.0,1.135303740358194,2.625331352408204
1648294447964004547,11273,0,5,0.90681874752,1.13539719582,-0.0256535038352,-0.0809188112617,15.1999998093,0.3032838620468227,0.37973150361872904,-0.00857976716896321,15.1999998093,-0.010934974494824324,0.5728509551328453,1.453308341470826
1648294448158926055,11274,2,0,0.0126228211448,0.0439508594573,0.010334726423,0.0,13.3000001907,0.00422167931264214,0.014699284099431437,0.00345643024180602,13.3000001907,0.0,0.0158655004797636,0.04688091542330633
1648294448158948251,11275,2,1,0.0335735455155,0.0146502861753,-0.0292575843632,0.0,13.3000001907,0.011228610540301002,0.0048997612626421405,-0.009785145271973245,13.3000001907,0.0,0.016618394921363674,0.046880913880483405
1648294448158963800,11276,2,2,1.5075750351,-1.68478298187,0.619092285633,0.0,13.3000001907,0.5042056973578595,-0.5634725691872909,0.20705427613143812,13.3000001907,0.0,0.9088168719399838,2.344045955305874
1648294448158974379,11277,2,3,2.23954129219,-1.2306240797,0.601983606815,0.0,13.3000001907,0.7490104656153846,-0.4115799597658863,0.20133230997157187,13.3000001907,0.0,1.1364116413006509,2.6253314243796964
1648294448158979613,11278,2,4,0.811427891254,1.14272236824,0.117510341108,-0.323675245047,13.3000001907,0.2713805656367893,0.3821813940602007,0.039301117427424745,13.3000001907,-0.04373989797932432,0.5416248155102255,1.4064275003882234
1648294448158989844,11279,2,5,0.900508105755,1.13539719582,0.109833940864,-0.242756426334,13.3000001907,0.30117327951672235,0.37973150361872904,0.036733759486287626,13.3000001907,-0.03280492247756756,0.5706195785549741,1.4533083414651187
1648294448158994496,11280,2,6,0.935940086842,1.17202293873,0.0307613089681,-0.161837622523,13.3000001907,0.3130234404153846,0.3919809159632107,0.010288063200033445,13.3000001907,-0.021869948989594594,0.591283677246654,1.5001892791233202
1648294448263921883,11281,3,0,0.0126454373822,0.0439508594573,0.0103070409968,0.0,27.2999992371,0.004229243271638795,0.014699284099431437,0.003447170901939799,27.2999992371,0.0,0.015869528989141485,0.046880915389230546
1648294448263931692,11282,3,1,0.0335509069264,0.0146502861753,-0.0292835440487,0.0,27.2999992371,0.011221039105819395,0.0048997612626421405,-0.009793827441036788,27.2999992371,0.0,0.016608163584802046,0.0468809150151135
1648294448263935823,11283,3,2,1.50630748272,-1.68478298187,0.622169971466,0.0,27.2999992371,0.5037817667959866,-0.5634725691872909,0.20808360249698993,27.2999992371,0.0,0.9083465601512993,2.3440459470520274
1648294448263939719,11284,3,3,2.23681259155,-1.2306240797,0.612045109272,0.0,27.2999992371,0.7480978567056856,-0.4115799597658863,0.2046973609605351,27.2999992371,0.0,1.1352087339763424,2.625331485934276
1648294448263949773,11285,3,4,0.934286653996,0.97717410326,0.143548339605,-0.404594063759,27.2999992371,0.3124704528414715,0.3268140813578595,0.04800947812876254,27.2999992371,-0.05467487348094594,0.5496207888823804,1.3595465809307083
1648294448264042245,11286,3,5,1.156001091,1.09584140778,0.0589339137077,-0.161837622523,27.2999992371,0.38662243846153843,0.3665021430702341,0.019710339032675585,27.2999992371,-0.021869948989594594,0.6582382856678625,1.5939511032598677
1648294448458887992,11287,5,0,0.00625035958365,0.0454158857465,0.00980563927442,0.0,24.5,0.0020904212654347825,0.015189259446989964,0.0032794780182006686,24.5,0.0,0.015474279455985594,0.046880915462948404
1648294448458902161,11288,5,1,0.0335509069264,0.0146502861753,-0.0292835440487,0.0,24.5,0.011221039105819395,0.0048997612626421405,-0.009793827441036788,24.5,0.0,0.016608163584802046,0.0468809150151135
1648294448458905157,11289,5,2,1.50204002857,-1.68478298187,0.632402777672,0.0,24.5,0.5023545246053511,-0.5634725691872909,0.211505945709699,24.5,0.0,0.9067642874581371,2.3440459075352162
1648294448458910800,11290,5,3,2.24290776253,-1.2306240797,0.589316546917,0.0,24.5,0.7501363754280935,-0.4115799597658863,0.19709583508929762,24.5,0.0,1.1378959648235352,2.6253313789358055
1648294448458916324,11291,5,4,0.914832174778,0.870226979256,0.0894318968058,-0.647350490093,24.5,0.30596393805284283,0.29104581246020067,0.029910333379866223,24.5,-0.08747979595851352,0.5214743787840646,1.265784724034996
1648294448458920839,11292,5,5,1.04629552364,0.922968029976,-0.177296280861,-0.566431701183,24.5,0.3499316132575251,0.30868495985819394,-0.05929641500367892,24.5,-0.07654482448418919,0.5832586667651695,1.4064274877696405
1648294448459083300,11293,5,6,0.909933626652,0.83067125082,0.290201753378,-0.485512852669,24.5,0.30432562764280935,0.2778164718461538,0.09705744260133779,24.5,-0.06560984495527027,0.5122598630670028,1.2657847326913807
1648294448563827335,11294,6,0,0.0126454373822,0.0439508594573,0.0103070409968,0.0,30.2999992371,0.004229243271638795,0.014699284099431437,0.003447170901939799,30.2999992371,0.0,0.015869528989141485,0.046880915389230546
1648294448563836170,11295,6,1,0.0335509069264,0.0146502861753,-0.0292835440487,0.0,30.2999992371,0.011221039105819395,0.0048997612626421405,-0.009793827441036788,30.2999992371,0.0,0.016608163584802046,0.0468809150151135
1648294448563838912,11296,6,2,1.51045536995,-1.68478298187,0.612031042576,0.0,30.2999992371,0.5051690200501672,-0.5634725691872909,0.2046926563799331,30.2999992371,0.0,0.9098861543420796,2.3440458864293223
1648294448563841859,11297,6,3,2.24160337448,-1.2306240797,0.594258904457,0.0,30.2999992371,0.7497001252441471,-0.4115799597658863,0.19874879747725752,30.2999992371,0.0,1.1373208073639858,2.6253313999463055
1648294448563846112,11298,6,4,1.13016319275,0.835066318512,-0.0585992448032,-0.566431701183,30.2999992371,0.3779810009197324,0.2792863941511705,-0.019598409633177258,30.2999992371,-0.07654482448418919,0.6031087497877381,1.4064275559201633
1648294448563848114,11299,6,5,0.942567408085,0.723724126816,0.271139502525,-0.485512852669,30.2999992371,0.31523993581438126,0.24204820294849494,0.09068210786789298,30.2999992371,-0.06560984495527027,0.5072866712373845,1.2189038355625765
1648294448660635654,11300,7,0,0.0126556539908,0.0439508594573,0.0102944942191,0.0,36.7000007629,0.004232660197591973,0.014699284099431437,0.003442974655217391,36.7000007629,0.0,0.01587135084774943,0.04688091547951333
1648294448660801559,11301,7,1,0.0335735455155,0.0146502861753,-0.0292575843632,0.0,36.7000007629,0.011228610540301002,0.0048997612626421405,-0.009785145271973245,36.7000007629,0.0,0.016618394921363674,0.046880913880483405
1648294448660805342,11302,7,2,1.51716697216,-1.68478298187,0.595199167728,0.0,36.7000007629,0.5074137030635452,-0.5634725691872909,0.19906326679866218,36.7000007629,0.0,0.9123807693829619,2.3440459395404383
1648294448660806520,11303,7,3,2.2414700985,-1.2306240797,0.594761490822,0.0,36.7000007629,0.7496555513377925,-0.4115799597658863,0.1989168865625418,36.7000007629,0.0,1.1372620430595701,2.625331418882553
1648294448660807766,11304,7,4,1.03267276287,0.647542655468,0.00143677240703,-0.566431701183,36.7000007629,0.3453755059765886,0.21656944998929767,0.00048052588863879594,36.7000007629,-0.07654482448418919,0.534294681730818,1.2189038477825305
1648294448660808866,11305,7,5,1.21698343754,0.703213751316,-0.0497982725501,-0.566431701183,36.7000007629,0.40701787208695644,0.23518854559063543,-0.016654940652207358,36.7000007629,-0.07654482448418919,0.621804429361376,1.4064274368895004
1648294448660809786,11306,7,6,0.854792177677,0.703213751316,0.201904088259,-0.485512852669,36.7000007629,0.28588367146387955,0.23518854559063543,0.06752645092274247,36.7000007629,-0.06560984495527027,0.467731332279946,1.125141994555979
1648294448660811126,11307,7,7,0.899250149727,0.695888638496,0.284123003483,-0.404594063759,36.7000007629,0.30075255843712373,0.23273867508227425,0.09502441588060201,36.7000007629,-0.05467487348094594,0.4848417202469312,1.1720229136326856
1648294448760365317,11308,8,0,0.0126433884725,0.0439508594573,0.0103095555678,0.0,32.4000015259,0.004228558017558528,0.014699284099431437,0.003448011895585284,32.4000015259,0.0,0.015869163772912386,0.04688091568119631
1648294448760386647,11309,8,1,0.0335509069264,0.0146502861753,-0.0292835440487,0.0,32.4000015259,0.011221039105819395,0.0048997612626421405,-0.009793827441036788,32.4000015259,0.0,0.016608163584802046,0.0468809150151135
1648294448760399517,11310,8,2,1.51526689529,-1.68478298187,0.600019931793,0.0,32.4000015259,0.5067782258494983,-0.5634725691872909,0.20067556247257523,32.4000015259,0.0,0.9116741065846152,2.344045942064583
1648294448760524832,11311,8,3,2.24041986465,-1.2306240797,0.598705649376,0.0,32.4000015259,0.7493043025585284,-0.4115799597658863,0.20023600313578593,32.4000015259,0.0,1.1367989879245732,2.625331455273893
1648294448760543263,11312,8,4,1.20091545582,0.637287437916,0.00580663746223,-0.647350490093,32.4000015259,0.4016439651571906,0.21313961134314377,0.0019420192181371235,32.4000015259,-0.08747979595851352,0.606682984282473,1.3595465889742488
1648294448760561379,11313,8,5,2.33062362671,-1.4943292141,0.497319877148,-0.647350490093,32.4000015259,0.7794727848528428,-0.49977565688963205,0.16632771810969899,32.4000015259,-0.08747979595851352,1.2103434850784944,2.81285501753967
1648294448760564920,11314,8,6,2.54158973694,1.05482065678,0.582947790623,-0.647350490093,32.4000015259,0.8500300123545149,0.352782828354515,0.19496581626187287,32.4000015259,-0.08747979595851352,1.252819926321674,2.8128549794613953
1648294448760570512,11315,8,7,1.13704645634,0.553780794144,-0.0516071505845,-0.566431701183,32.4000015259,0.38028309576588626,0.18521096794113712,-0.017259916583444817,32.4000015259,-0.07654482448418919,0.5688001129538085,1.2657847802172224
1648294448760638241,11316,8,8,0.843730032444,0.640217483044,0.202207878232,-0.485512852669,32.4000015259,0.28218395733913043,0.21411955954648826,0.06762805292040133,32.4000015259,-0.06560984495527027,0.45288271918845224,1.0782610162953288
1648294448760711531,11317,8,9,0.979885995388,0.549385726452,0.334120541811,-0.404594063759,32.4000015259,0.3277210686916388,0.1837410456361204,0.11174600060568561,32.4000015259,-0.05467487348094594,0.49856089856730096,1.1720229421162367
1648294448860383927,11318,9,0,0.0126228211448,0.0439508594573,0.010334726423,0.0,30.2999992371,0.00422167931264214,0.014699284099431437,0.00345643024180602,30.2999992371,0.0,0.0158655004797636,0.04688091542330633
1648294448860547696,11319,9,1,0.0335735455155,0.0146502861753,-0.0292575843632,0.0,30.2999992371,0.011228610540301002,0.0048997612626421405,-0.009785145271973245,30.2999992371,0.0,0.016618394921363674,0.046880913880483405
1648294448860555639,11320,9,2,1.52379131317,-1.68478298187,0.578029215336,0.0,30.2999992371,0.509629201729097,-0.5634725691872909,0.19332080780468228,30.2999992371,0.0,0.9148470816134244,2.3440459543006136
1648294448860560222,11321,9,3,2.24109435081,-1.2306240797,0.596175372601,0.0,30.2999992371,0.7495298832140468,-0.4115799597658863,0.19938975672274245,30.2999992371,0.0,1.137096370121114,2.625331329502223
1648294448860563207,11322,9,4,0.758307754993,-2.19754290581,0.300542026758,0.566431701183,30.2999992371,0.25361463377692306,-0.7349641825451504,0.10051572801270903,30.2999992371,0.07654482448418919,0.8178099501448163,2.3440458579145136
1648294448860587463,11323,9,5,1.28605258465,0.659262895584,-1.84553313255,0.566431701183,30.2999992371,0.4301179212876254,0.22048926273712371,-0.6172351613879598,30.2999992371,0.07654482448418919,0.6470072390691901,2.344045937971046
1648294448860719170,11324,9,6,0.887814819813,1.3829870224,-2.22480201721,0.566431701183,30.2999992371,0.29692803338227425,0.4625374656856187,-0.7440809422107023,30.2999992371,0.07654482448418919,0.6247186736279018,2.7659740190732256
1648294448860857179,11325,9,7,0.984612584114,-1.2101136446,-2.28402614594,0.566431701183,30.2999992371,0.3293018675966555,-0.40472028247491637,-0.7638883431237458,30.2999992371,0.07654482448418919,0.6169910429267725,2.7659740434393587
1648294448860863091,11326,9,8,0.949847996235,0.597731649876,0.0803129225969,-0.647350490093,30.2999992371,0.31767491512876256,0.19991025079464883,0.02686050922973244,30.2999992371,-0.08747979595851352,0.4917304259214721,1.1251419940395013
1648294448860866657,11327,9,9,0.835535824299,0.547920703888,-0.255749493837,-0.566431701183,30.2999992371,0.2794434194979933,0.18325107153444814,-0.0855349477715719,30.2999992371,-0.07654482448418919,0.4356124477330582,1.0313801505914357
1648294448860870603,11328,9,10,0.968938231468,0.659262895584,-0.0129975024611,-0.566431701183,30.2999992371,0.324059609186622,0.22048926273712371,-0.004346990789665551,30.2999992371,-0.07654482448418919,0.5085713082692856,1.1720229506986464
1648294448860877688,11329,9,11,1.01374053955,0.586011469364,0.0505816712976,-0.566431701183,30.2999992371,0.3390436587123746,0.19599045798127088,0.016916946922274245,30.2999992371,-0.07654482448418919,0.5179898306394196,1.1720229644612505
1648294448861043963,11330,9,12,1.2139493227,0.492249637842,-0.0843127295375,-0.485512852669,30.2999992371,0.4060031179598662,0.16463198590033443,-0.028198237303511706,30.2999992371,-0.06560984495527027,0.5973112709197391,1.312665723023738
1648294448861049063,11331,9,13,0.961658716202,0.438043534756,0.214422777295,-0.404594063759,30.2999992371,0.32162498869632106,0.1465028544334448,0.0717133034431438,30.2999992371,-0.05467487348094594,0.47785808883492226,1.0782609852033558
1648294448963906755,11332,10,0,0.00625035958365,0.0454158857465,0.00980563927442,0.0,34.2999992371,0.0020904212654347825,0.015189259446989964,0.0032794780182006686,34.2999992371,0.0,0.015474279455985594,0.046880915462948404
1648294448963925434,11333,10,1,0.0335735455155,0.0146502861753,-0.0292575843632,0.0,34.2999992371,0.011228610540301002,0.0048997612626421405,-0.009785145271973245,34.2999992371,0.0,0.016618394921363674,0.046880913880483405
1648294448963928904,11334,10,2,1.50963044167,-1.68478298187,0.614063084126,0.0,34.2999992371,0.5048931243043477,-0.5634725691872909,0.20537226893846153,34.2999992371,0.0,0.9095798316619259,2.3440459120294257
1648294448963951631,11335,10,3,2.240265131,-1.2306240797,0.599283576012,0.0,34.2999992371,0.7492525521739131,-0.4115799597658863,0.2004292896361204,34.2999992371,0.0,1.136730767226406,2.625331271894968
1648294448964042439,11336,10,4,0.934520304203,-2.54914975166,0.148238182068,0.566431701183,34.2999992371,0.31254859672341134,-0.8525584453712374,0.049577987313712366,34.2999992371,0.07654482448418919,0.9603276281568538,2.7190930866703944
1648294448964044472,11337,10,5,0.942332386971,0.290075659752,0.302672833204,-0.647350490093,34.2999992371,0.31516133343511704,0.09701527082006689,0.1012283723090301,34.2999992371,-0.08747979595851352,0.4561417487552449,1.031380172329659
1648294448964132406,11338,10,6,1.61612510681,-0.80430072546,-2.21795630455,-0.566431701183,34.2999992371,0.540510069167224,-0.26899689814715716,-0.7417914062040133,34.2999992371,-0.07654482448418919,0.8103465931039056,2.85973603444972
1648294448964230672,11339,10,7,1.12169134617,0.625567257404,-2.55510544777,-0.566431701183,34.2999992371,0.3751476074147157,0.20921981852976587,-0.854550316979933,34.2999992371,-0.07654482448418919,0.5703020139922351,2.85973595264188
1648294448964235583,11340,10,8,1.52909660339,0.487854540348,0.657782316208,-0.485512852669,34.2999992371,0.5114035462842809,0.16316205362809363,0.2199940856882943,34.2999992371,-0.06560984495527027,0.7414101631677394,1.7345939151723537
1648294448964238306,11341,10,9,1.20913004875,0.316446185112,-0.200193047523,-0.404594063759,34.2999992371,0.4043913206521739,0.10583484451906354,-0.06695419649598662,34.2999992371,-0.05467487348094594,0.5816061336952982,1.265784704892053
1648294449060705145,11342,11,0,0.0126433884725,0.0439508594573,0.0103095555678,0.0,22.7999992371,0.004228558017558528,0.014699284099431437,0.003448011895585284,22.7999992371,0.0,0.015869163772912386,0.04688091568119631
1648294449060735059,11343,11,1,0.0335509069264,0.0146502861753,-0.0292835440487,0.0,22.7999992371,0.011221039105819395,0.0048997612626421405,-0.009793827441036788,22.7999992371,0.0,0.016608163584802046,0.0468809150151135
1648294449060740962,11344,11,2,1.50951814651,-1.68478298187,0.61433917284,0.0,22.7999992371,0.5048555673946488,-0.5634725691872909,0.2054646063010033,22.7999992371,0.0,0.9095381377849264,2.3440459359678703
1648294449060744607,11345,11,3,2.19501900673,-1.31266570091,0.592592060566,0.0,22.7999992371,0.7341200691404681,-0.4390186290668896,0.19819132460401337,22.7999992371,0.0,1.1272097890354673,2.625331413840423
1648294449060750304,11346,11,4,0.850754201412,0.250519901514,0.0828865841031,-0.647350490093,22.7999992371,0.2845331777297659,0.08378592023879598,0.02772126558632107,22.7999992371,-0.08747979595851352,0.4110210929967694,0.8907374013136724
1648294449060823049,11347,11,5,1.01130974293,0.370652228594,0.0501629300416,-0.647350490093,22.7999992371,0.3382306832541806,0.12396395605150501,0.01677689967946488,22.7999992371,-0.08747979595851352,0.4941326265175364,1.078261002845415
1648294449060838841,11348,11,6,0.683520138264,-0.966918885708,-2.55147433281,-0.566431701183,22.7999992371,0.22860205293110367,-0.3233842427117057,-0.8533358972608694,22.7999992371,-0.07654482448418919,0.4572692485208836,2.8128549877196782
1648294449060845339,11349,11,7,1.65330684185,0.439508587122,-2.23283720016,-0.566431701183,22.7999992371,0.5529454320568562,0.14699283850234113,-0.7467682943678929,22.7999992371,-0.07654482448418919,0.7956784502775366,2.81285500406266
1648294449060848531,11350,11,8,0.869778573513,0.205104008317,0.283805638552,-0.485512852669,22.7999992371,0.2908958439842809,0.06859665829999999,0.09491827376321069,22.7999992371,-0.06560984495527027,0.4170686821430988,0.9376182920804808
1648294449160520455,11351,12,0,0.0125513346866,0.0439508594573,0.0104214288294,0.0,42.7999992371,0.00419777079819398,0.014699284099431437,0.003485427702140468,42.7999992371,0.0,0.015852807712961704,0.04688091539525049
1648294449160538704,11352,12,1,0.0335598774254,0.0146502861753,-0.0292732641101,0.0,42.7999992371,0.01122403927270903,0.0048997612626421405,-0.009790389334481604,42.7999992371,0.0,0.016612217661152825,0.046880915621238965
1648294449160546274,11353,12,2,1.49272286892,-1.68478298187,0.654091715813,0.0,42.7999992371,0.49923841769899663,-0.5634725691872909,0.21875977117491635,42.7999992371,0.0,0.9033157430487537,2.344045910832533
1648294449160570758,11354,12,3,2.19548153877,-1.31266570091,0.590876162052,0.0,42.7999992371,0.7342747621304347,-0.4390186290668896,0.19761744550234112,42.7999992371,0.0,1.1274112866523842,2.6253314206603955
1648294449160576221,11355,12,4,1.06036627293,1.78000986576,0.397208511829,0.566431701183,42.7999992371,0.3546375494749164,0.5953210253377926,0.13284565613010033,42.7999992371,0.07654482448418919,0.7784232179247921,2.109641286294853
1648294449160580160,11356,12,5,1.19060051441,-2.21512317657,0.290764153004,-0.566431701183,42.7999992371,0.3981941519765886,-0.7408438717625419,0.09724553612173913,42.7999992371,-0.07654482448418919,0.9305733757554117,2.531569486497074
1648294449160850040,11357,12,6,0.829337596893,0.131852567196,0.0831126868725,-0.404594063759,42.7999992371,0.27737043374347825,0.04409784856053511,0.027796885241638793,42.7999992371,-0.05467487348094594,0.39473197904116963,0.843856426067609
1648294449161002024,11358,12,7,1.01777982712,-1.1236770153,-2.31345772743,-0.404594063759,42.7999992371,0.34039459101003344,-0.37581171080267556,-0.7737316814147156,42.7999992371,-0.05467487348094594,0.6107138422814811,2.7659740540741726
1648294449161004462,11359,12,8,2.75835156441,-0.0864366889,0.186112031341,-0.404594063759,42.7999992371,0.9225256068260869,-0.02890859160535117,0.0622448265354515,42.7999992371,-0.05467487348094594,1.3049684659670073,2.7659740313822474
1648294449161006621,11360,12,9,0.854495227337,0.0879017189145,0.375818163157,-0.242756426334,42.7999992371,0.2857843569688963,0.02939856819882943,0.12569169336354513,42.7999992371,-0.03280492247756756,0.4052279274536645,0.9376183111951988
1648294449161015014,11361,12,10,0.988514065742,0.064461261034,0.287105739117,-0.161837622523,42.7999992371,0.33060671095050165,0.021558950178595316,0.09602198632675585,42.7999992371,-0.021869948989594594,0.46804527877527,1.0313801519215848
1648294449263826839,11362,13,0,0.0126454373822,0.0439508594573,0.0103070409968,0.0,28.7999992371,0.004229243271638795,0.014699284099431437,0.003447170901939799,28.7999992371,0.0,0.015869528989141485,0.046880915389230546
1648294449263835487,11363,13,1,0.0335735455155,0.0146502861753,-0.0292575843632,0.0,28.7999992371,0.011228610540301002,0.0048997612626421405,-0.009785145271973245,28.7999992371,0.0,0.016618394921363674,0.046880913880483405
1648294449263839781,11364,13,2,1.49568760395,-1.68478298187,0.647283673286,0.0,28.7999992371,0.5002299678762542,-0.5634725691872909,0.21648283387491637,28.7999992371,0.0,0.9044121724907748,2.3440459164255034
1648294449263845453,11365,13,3,2.19582891464,-1.31266570091,0.589584171772,0.0,28.7999992371,0.7343909413511704,-0.4390186290668896,0.19718534172976585,28.7999992371,0.0,1.127562621828645,2.6253314762747
1648294449263851283,11366,13,4,1.97947764397,0.251984924078,0.286254495382,-0.647350490093,28.7999992371,0.6620326568461538,0.08427589434046821,0.09573728942541805,28.7999992371,-0.08747979595851352,0.9400409054016958,2.015879406379762
1648294449263859677,11367,13,5,2.06083989143,-0.0,0.0889870896935,-0.566431701183,28.7999992371,0.6892441108461539,-0.0,0.029761568459364545,28.7999992371,-0.07654482448418919,0.9747383693444157,2.062760228490295
1648294449263917295,11368,13,6,0.717806220055,1.93383789062,-0.0023247404024,-0.566431701183,28.7999992371,0.2400689699180602,0.6467685252909698,-0.0007775051513043478,28.7999992371,-0.07654482448418919,0.7304626930528985,2.062760325671695
1648294449263930375,11369,13,7,0.608252227306,-0.388232588768,-2.37759995461,-0.485512852669,28.7999992371,0.2034288385638796,-0.12984367517324413,-0.7951839313076923,28.7999992371,-0.06560984495527027,0.31563581023292164,2.484688483324557
1648294449263934793,11370,13,8,2.39800405502,0.543525636196,0.357537806034,-0.485512852669,28.7999992371,0.8020080451571906,0.18178114922943142,0.11957786154983276,28.7999992371,-0.06560984495527027,1.1486854204737211,2.4846884810451058
1648294449263936797,11371,13,9,0.796142399311,0.0249054860324,0.0265904162079,-0.242756426334,28.7999992371,0.26626836097357853,0.00832959399076923,0.008893115788595318,28.7999992371,-0.03280492247756756,0.3766524422423979,0.7969755664067092
1648294449263991032,11372,13,10,1.01374399662,0.128922522068,0.139452636242,-0.242756426334,28.7999992371,0.33904481492307686,0.04311790035719063,0.04663967767290969,28.7999992371,-0.03280492247756756,0.4814165829961194,1.031380116704946
1648294449264000999,11373,13,11,0.847555994987,-0.0293005723506,0.399898022413,-0.0809188112617,28.7999992371,0.283463543473913,-0.009799522525284281,0.13374515799765885,28.7999992371,-0.010934974494824324,0.40099774512994146,0.937618321337795
1648294449458916384,11374,15,0,0.0126454373822,0.0439508594573,0.0103070409968,0.0,36.4000015259,0.004229243271638795,0.014699284099431437,0.003447170901939799,36.4000015259,0.0,0.015869528989141485,0.046880915389230546
1648294449458926523,11375,15,1,0.0335509069264,0.0146502861753,-0.0292835440487,0.0,36.4000015259,0.011221039105819395,0.0048997612626421405,-0.009793827441036788,36.4000015259,0.0,0.016608163584802046,0.0468809150151135
1648294449458929539,11376,15,2,1.49598741531,-1.68478298187,0.646590650082,0.0,36.4000015259,0.5003302392341137,-0.5634725691872909,0.21625105353913043,36.4000015259,0.0,0.9045230968917582,2.3440459704404533
1648294449459039281,11377,15,3,2.2396299839,-1.2306240797,0.601653158665,0.0,36.4000015259,0.7490401283946487,-0.4115799597658863,0.20122179219565217,36.4000015259,0.0,1.1364507429588984,2.625331334070608
1648294449459165366,11378,15,4,0.836233019829,-0.250519901514,0.177108049393,0.242756426334,36.4000015259,0.2796765952605351,-0.08378592023879598,0.0592334613354515,36.4000015259,0.03280492247756756,0.4042994883787416,0.8907374167883071
1648294449459169488,11379,15,5,0.74812412262,0.952268600464,0.138640835881,-0.242756426334,36.4000015259,0.25020873666220733,0.31848448176053507,0.04636817253545151,36.4000015259,-0.03280492247756756,0.4760684708384627,1.2189037991775202
1648294449564114929,11380,16,0,0.0126454373822,0.0439508594573,0.0103070409968,0.0,20.0,0.004229243271638795,0.014699284099431437,0.003447170901939799,20.0,0.0,0.015869528989141485,0.046880915389230546
1648294449564130354,11381,16,1,0.0335735455155,0.0146502861753,-0.0292575843632,0.0,20.0,0.011228610540301002,0.0048997612626421405,-0.009785145271973245,20.0,0.0,0.016618394921363674,0.046880913880483405
1648294449564141143,11382,16,2,1.50930309296,-1.68478298187,0.614867269993,0.0,20.0,0.5047836431304348,-0.5634725691872909,0.205641227422408,20.0,0.0,0.9094582942447634,2.344045921505386
1648294449564211033,11383,16,3,0.816915273666,-0.410208016634,0.208583116531,0.404594063759,20.0,0.27321581059063543,-0.13719331659999998,0.06976023964247491,20.0,0.05467487348094594,0.4100192244677117,0.9376183113406972
1648294449564213900,11384,16,4,0.839659571648,-0.079111546278,-0.0284069571644,-0.566431701183,20.0,0.2808225992133779,-0.026458711129765885,-0.009500654570033445,20.0,-0.07654482448418919,0.39802352675760677,0.843856497415253
1648294449564218388,11385,16,5,0.344150990248,-0.879017174244,-1.62030899525,-0.485512852669,20.0,0.1151006656347826,-0.29398567700468226,-0.5419093629598662,20.0,-0.06560984495527027,0.336041522349607,1.8752366082157874
