%time,field.header.seq,field.header.frame_id,field.point_id,field.x,field.y,field.z,field.velocity,field.intensity,normalized_x,normalized_y,normalized_z,normalized_intensity,normalized_velocity,normalized_range,range
1648295461762382010,46064,0,0,0.0126779936254,0.0439508594573,0.0102669699118,0.0,27.8999996185,0.004240131647290969,0.014699284099431437,0.0034337692012709024,27.8999996185,0.0,0.015875338919484987,0.04688091552615868
1648295461762407245,46065,0,1,0.0334780961275,0.0146502861753,-0.0293667558581,0.0,27.8999996185,0.011196687668060201,0.0048997612626421405,-0.009821657477625418,27.8999996185,0.0,0.01657526138264707,0.0468809146131938
1648295461762413201,46066,0,2,0.338114768267,-0.0,1.0731369257,0.0,27.8999996185,0.11308186229665551,-0.0,0.3589086708026756,27.8999996185,0.0,0.15992190331833697,1.1251419722955387
1648295461762422592,46067,0,3,0.758113563061,0.988894343376,0.222627073526,0.0,27.8999996185,0.2535496866424749,0.3307338941056856,0.07445721522608695,27.8999996185,0.0,0.487811229783925,1.2657847410696836
1648295461762518140,46068,0,4,2.19298458099,-1.31266570091,0.600076913834,0.0,27.8999996185,0.7334396591939799,-0.4390186290668896,0.2006946200113712,27.8999996185,0.0,1.1263235876181117,2.625331391905023
1648295461867214787,46069,1,0,0.0126660717651,0.0439508594573,0.0102816736326,0.0,15.0,0.004236144403043478,0.014699284099431437,0.0034386868336454845,15.0,0.0,0.015873209878366476,0.0468809154526797
1648295461867224394,46070,1,1,0.0335632227361,0.0146502861753,-0.0292694270611,0.0,15.0,0.011225158105719061,0.0048997612626421405,-0.009789106040501672,15.0,0.0,0.01661372954600108,0.04688091473015751
1648295461867229886,46071,1,2,0.793510377407,0.949338555336,0.267036765814,0.0,15.0,0.26538808608929765,0.3175045335571906,0.08930995512173912,15.0,0.0,0.4916002454287936,1.2657847550023835
1648295461867263080,46072,1,3,2.18652892113,-1.31266570091,0.623189687729,0.0,15.0,0.7312805756287625,-0.4390186290668896,0.20842464472541802,15.0,0.0,1.1235123129061113,2.62533147472376
1648295462062624823,46073,3,0,0.0126779936254,0.0439508594573,0.0102669699118,0.0,14.6000003815,0.004240131647290969,0.014699284099431437,0.0034337692012709024,14.6000003815,0.0,0.015875338919484987,0.04688091552615868
1648295462062646573,46074,3,1,0.0335632227361,0.0146502861753,-0.0292694270611,0.0,14.6000003815,0.011225158105719061,0.0048997612626421405,-0.009789106040501672,14.6000003815,0.0,0.01661372954600108,0.04688091473015751
1648295462062696850,46075,3,2,0.323217302561,-0.0,1.07771754265,0.0,14.6000003815,0.10809943229464883,-0.0,0.36044064971571904,14.6000003815,0.0,0.15287568323592451,1.1251420027758112
1648295462062709005,46076,3,3,0.553808867931,0.0703213736415,0.976880311966,0.0,14.6000003815,0.18522035716755852,0.023518854060702338,0.3267158234,14.6000003815,0.0,0.2629948629058836,1.1251419917933172
1648295462062714691,46077,3,4,2.19165468216,-1.31266570091,0.604916155338,0.0,14.6000003815,0.7329948769765885,-0.4390186290668896,0.20231309543076922,14.6000003815,0.0,1.1257443475388271,2.6253314158727274
1648295462062719840,46078,3,5,1.25059449673,1.02552008629,0.276860564947,-0.161837622523,14.6000003815,0.41825902900668893,0.342983306451505,0.09259550667123745,14.6000003815,-0.021869948989594594,0.6837534491288826,1.6408320496194555
1648295462062729421,46079,3,6,0.735793232918,0.949338555336,0.399469196796,-0.0809188112617,14.6000003815,0.24608469328361204,0.3175045335571906,0.13360173805886288,14.6000003815,-0.010934974494824324,0.4710886130722627,1.2657847421438637
1648295462167388990,46080,4,0,0.0126660717651,0.0439508594573,0.0102816736326,0.0,24.1000003815,0.004236144403043478,0.014699284099431437,0.0034386868336454845,24.1000003815,0.0,0.015873209878366476,0.0468809154526797
1648295462167401589,46081,4,1,0.0335632227361,0.0146502861753,-0.0292694270611,0.0,24.1000003815,0.011225158105719061,0.0048997612626421405,-0.009789106040501672,24.1000003815,0.0,0.01661372954600108,0.04688091473015751
1648295462167404710,46082,4,2,0.356378763914,-0.0,1.06721067429,0.0,24.1000003815,0.11919022204481604,-0.0,0.3569266469197324,24.1000003815,0.0,0.16856042851803948,1.1251419673478484
1648295462167418075,46083,4,3,1.44628727436,-1.68478298187,0.751206099987,0.0,24.1000003815,0.48370811851505013,-0.5634725691872909,0.25123949832341136,24.1000003815,0.0,0.8862552815420995,2.344045899856085
1648295462167420091,46084,4,4,2.03701925278,-0.805765748024,-0.834173083305,0.0,24.1000003815,0.6812773420668896,-0.26948687224882945,-0.27898765327926417,24.1000003815,0.0,1.0004503025847453,2.344045778093004
1648295462167426305,46085,4,5,2.18656873703,-1.31266570091,0.623049855232,0.0,24.1000003815,0.7312938919832775,-0.4390186290668896,0.20837787800401336,24.1000003815,0.0,1.1235296478383963,2.6253314469238216
1648295462167564437,46086,4,6,0.741224586964,0.914177834988,0.317161560059,-0.0809188112617,24.1000003815,0.24790119965351168,0.30574509531371236,0.10607410035418059,24.1000003815,-0.010934974494824324,0.4651774638648046,1.2189037933661369
1648295462167575985,46087,4,7,0.798311531544,1.02552008629,-0.184657767415,-0.0809188112617,24.1000003815,0.2669938232588629,0.342983306451505,-0.061758450640468227,24.1000003815,-0.010934974494824324,0.5101068043274631,1.3126656999583208
1648295462167580827,46088,4,8,1.24956429005,0.946408450603,0.289102554321,-0.0809188112617,24.1000003815,0.4179144782775919,0.31652456541906354,0.0966898174986622,24.1000003815,-0.010934974494824324,0.670442259125863,1.5939511150772028
1648295462362398665,46089,6,0,0.0126660717651,0.0439508594573,0.0102816736326,0.0,13.1000003815,0.004236144403043478,0.014699284099431437,0.0034386868336454845,13.1000003815,0.0,0.015873209878366476,0.0468809154526797
1648295462362406827,46090,6,1,0.0335404723883,0.0146502861753,-0.0292954929173,0.0,13.1000003815,0.011217549293745818,0.0048997612626421405,-0.009797823718160533,13.1000003815,0.0,0.016603447977637752,0.046880913795659694
1648295462362437114,46091,6,2,0.366623967886,-0.0,1.06373465061,0.0,13.1000003815,0.12261671166755851,-0.0,0.35576409719397994,13.1000003815,0.0,0.17340621661385258,1.1251420091423365
1648295462362519899,46092,6,3,1.87156736851,-0.117202289402,0.00339316972531,0.0,13.1000003815,0.625942263715719,-0.03919809010100334,0.001134839373013378,13.1000003815,0.0,0.8860834753445546,1.8752365997690268
1648295462362532446,46093,6,4,2.19403004646,-1.31266570091,0.596243441105,0.0,13.1000003815,0.7337893131973243,-0.4390186290668896,0.19941252210869564,13.1000003815,0.0,1.1267789796552707,2.6253314701529677
1648295462362603654,46094,6,5,1.23286545277,0.996219456196,0.168135777116,0.0809188112617,13.1000003815,0.41232958286622073,0.3331837646140468,0.056232701376588624,13.1000003815,0.010934974494824324,0.6715971938711862,1.5939510874188179
1648295462362608331,46095,6,6,1.15054142475,0.679773271084,-0.250059068203,-0.323675245047,13.1000003815,0.3847964631270903,0.22734892009498325,-0.08363179538561873,13.1000003815,-0.04373989797932432,0.5897661973516213,1.3595465448952286
1648295462362616257,46096,6,7,0.754602789879,0.914177834988,0.283866018057,-0.242756426334,13.1000003815,0.25237551500969896,0.30574509531371236,0.09493846757759197,13.1000003815,-0.03280492247756756,0.4699647481048048,1.2189037700672085
1648295462362625955,46097,6,8,0.985038816929,0.966918885708,0.269823551178,-0.161837622523,13.1000003815,0.3294444203775919,0.3233842427117057,0.09024199036053511,13.1000003815,-0.021869948989594594,0.5671372150283196,1.4064275136550732
1648295462467295452,46098,7,0,0.0126864491031,0.0439508594573,0.0102565195411,0.0,19.2000007629,0.00424295956625418,0.014699284099431437,0.003430274094013378,19.2000007629,0.0,0.015876849964572115,0.04688091542384651
1648295462467303107,46099,7,1,0.0335404723883,0.0146502861753,-0.0292954929173,0.0,19.2000007629,0.011217549293745818,0.0048997612626421405,-0.009797823718160533,19.2000007629,0.0,0.016603447977637752,0.046880913795659694
1648295462467308188,46100,7,2,1.87148976326,-0.117202289402,-0.0173800103366,0.0,19.2000007629,0.6259163087826086,-0.03919809010100334,-0.00581271248715719,19.2000007629,0.0,0.8860468054610083,1.8752366185064062
1648295462467314352,46101,7,3,2.19411277771,-1.31266570091,0.59593886137,0.0,19.2000007629,0.7338169825117057,-0.4390186290668896,0.1993106559765886,19.2000007629,0.0,1.1268150177881644,2.6253314552922276
1648295462467339544,46102,7,4,0.782228648663,0.842391490936,0.228326022625,-0.323675245047,19.2000007629,0.2616149326632107,0.2817362845939799,0.07636321826923077,19.2000007629,-0.04373989797932432,0.465037718945004,1.1720229756273006
1648295462467409861,46103,7,5,1.02381753922,0.892202436924,-0.0643387809396,-0.0809188112617,19.2000007629,0.34241389271571904,0.2983954638541806,-0.021517986936321065,19.2000007629,-0.010934974494824324,0.5688008444949915,1.3595466232536544
1648295462662569379,46104,9,0,0.0126779936254,0.0439508594573,0.0102669699118,0.0,23.0,0.004240131647290969,0.014699284099431437,0.0034337692012709024,23.0,0.0,0.015875338919484987,0.04688091552615868
1648295462662577451,46105,9,1,0.0334780961275,0.0146502861753,-0.0293667558581,0.0,23.0,0.011196687668060201,0.0048997612626421405,-0.009821657477625418,23.0,0.0,0.01657526138264707,0.0468809146131938
1648295462662686820,46106,9,2,1.87155103683,-0.117202289402,0.00853272713721,0.0,23.0,0.6259368016153846,-0.03919809010100334,0.00285375489538796,23.0,0.0,0.8860757583302689,1.8752366430754588
1648295462662693151,46107,9,3,2.20133256912,-1.31266570091,0.568690419197,0.0,23.0,0.7362316284682273,-0.4390186290668896,0.19019746461438128,23.0,0.0,1.1299607861256633,2.6253314295723618
1648295462662696837,46108,9,4,0.680583953857,0.64461261034,0.0202027130872,-0.485512852669,23.0,0.2276200514571906,0.21558950178595315,0.006756760229832776,23.0,-0.06560984495527027,0.38742819842012494,0.9376183046810996
1648295462662701394,46109,9,5,0.821789443493,0.73837441206,0.2130959481,-0.404594063759,23.0,0.27484596772341136,0.24694796389966553,0.07126954785953177,23.0,-0.05467487348094594,0.4605039726450006,1.125142011000444
1648295462662711778,46110,9,6,0.912165522575,0.799905598164,0.117607548833,-0.323675245047,23.0,0.30507208112876255,0.26752695590769227,0.039333628372240796,23.0,-0.04373989797932432,0.5076500975137351,1.218903787052586
1648295462765562634,46111,10,0,0.0126768937334,0.0439508594573,0.0102683277801,0.0,23.5,0.004239763790434782,0.014699284099431437,0.0034342233378260863,23.5,0.0,0.015875142425602416,0.04688091548981127
1648295462765572649,46112,10,1,0.0335632227361,0.0146502861753,-0.0292694270611,0.0,23.5,0.011225158105719061,0.0048997612626421405,-0.009789106040501672,23.5,0.0,0.01661372954600108,0.04688091473015751
1648295462765579557,46113,10,2,1.87157034874,-0.117202289402,-0.000408230145695,0.0,23.5,0.6259432604481605,-0.03919809010100334,-0.00013653182130267557,23.5,0.0,0.8860848835571644,1.8752365486987734
1648295462765708453,46114,10,3,2.20199775696,-1.31266570091,0.566108942032,0.0,23.5,0.7364540993177257,-0.4390186290668896,0.1893340943250836,23.5,0.0,1.1302506967357004,2.6253313501824875
1648295462765713513,46115,10,4,0.845954954624,0.805765748024,0.0934858098626,-0.566431701183,23.5,0.2829280784695652,0.26948687224882945,0.03126615714468227,23.5,-0.07654482448418919,0.482410374564455,1.1720229616296929
1648295462765716048,46116,10,5,0.577261209488,1.07093596458,-1.60736906528,-0.485512852669,23.5,0.19306394966153845,0.3581725634046823,-0.5375816271839464,23.5,-0.06560984495527027,0.4503720267664359,2.015879375416482
1648295462765720425,46117,10,6,0.336543053389,-0.0,1.98758864403,-0.485512852669,23.5,0.11255620514682273,-0.0,0.6647453658963209,23.5,-0.06560984495527027,0.15917851184788506,2.01587942215337
1648295462765725398,46118,10,7,0.835125207901,0.640217483044,0.235232308507,-0.323675245047,23.5,0.2793060895989966,0.21411955954648826,0.07867301287859531,23.5,-0.04373989797932432,0.44930053322308394,1.078260996898439
1648295462765727767,46119,10,8,0.644295990467,0.5845464468,0.191314578056,-0.161837622523,23.5,0.21548360885183945,0.19550048387959865,0.06398480871438127,23.5,-0.021869948989594594,0.3620591257858063,0.8907374133688913
1648295462765730889,46120,10,9,1.04095804691,0.712003946304,0.108017116785,-0.161837622523,23.5,0.34814650398327757,0.23812841013511704,0.036126126015050164,23.5,-0.021869948989594594,0.546916004689052,1.2657847259695052
1648295462865388690,46121,11,0,0.0126779936254,0.0439508594573,0.0102669699118,0.0,17.0,0.004240131647290969,0.014699284099431437,0.0034337692012709024,17.0,0.0,0.015875338919484987,0.04688091552615868
1648295462865400467,46122,11,1,0.0334780961275,0.0146502861753,-0.0293667558581,0.0,17.0,0.011196687668060201,0.0048997612626421405,-0.009821657477625418,17.0,0.0,0.01657526138264707,0.0468809146131938
1648295462865413292,46123,11,2,0.570431649685,0.668053030968,0.147397652268,0.0,17.0,0.19077981594816054,0.22342910734715715,0.04929687366822742,17.0,0.0,0.3503062122720285,0.8907374400136105
1648295462865580085,46124,11,3,1.87138426304,-0.117202289402,0.0263959858567,0.0,17.0,0.6258810244280936,-0.03919809010100334,0.00882808891528428,17.0,0.0,0.8859969547046345,1.8752365676533136
1648295462865585719,46125,11,4,2.20130228996,-1.31266570091,0.568807661533,0.0,17.0,0.7362215016588629,-0.4390186290668896,0.1902366760979933,17.0,0.0,1.1299475897923024,2.625331440018064
1648295462865603362,46126,11,5,1.30810511112,0.656332850456,0.329630553722,-0.566431701183,17.0,0.4374933482006688,0.21950931453377925,0.11024433234849498,17.0,-0.07654482448418919,0.6564946295338241,1.5001893528061843
1648295462865617401,46127,11,6,0.849410653114,0.572826147079,0.336182236671,-0.323675245047,17.0,0.2840838304729097,0.19158065119698997,0.11243553065919731,17.0,-0.04373989797932432,0.4450959350357904,1.0782609835536294
1648295462865622089,46128,11,7,0.694983422756,0.881947219372,-1.67419743538,-0.323675245047,17.0,0.2324359273431438,0.29496562520802677,-0.5599322526354514,17.0,-0.04373989797932432,0.4416533037282712,2.0158794379368565
1648295462865624486,46129,11,8,0.906610608101,0.0629962310195,-1.79940497875,-0.323675245047,17.0,0.30321425020100334,0.021068973585117053,-0.6018076852006689,17.0,-0.04373989797932432,0.4293269904138845,2.015879360823513
1648295462865630592,46130,11,9,1.095885396,0.632892370224,0.0263348035514,-0.161837622523,17.0,0.36651685484949825,0.21166968903812708,0.008807626605819397,17.0,-0.021869948989594594,0.5598868341326073,1.2657847665902446
1648295462965366461,46131,12,0,0.0126779936254,0.0439508594573,0.0102669699118,0.0,20.6000003815,0.004240131647290969,0.014699284099431437,0.0034337692012709024,20.6000003815,0.0,0.015875338919484987,0.04688091552615868
1648295462965375364,46132,12,1,0.0334780961275,0.0146502861753,-0.0293667558581,0.0,20.6000003815,0.011196687668060201,0.0048997612626421405,-0.009821657477625418,20.6000003815,0.0,0.01657526138264707,0.0468809146131938
1648295462965458353,46133,12,2,1.87153303623,-0.117202289402,-0.0118448650464,0.0,20.6000003815,0.6259307813478261,-0.03919809010100334,-0.003961493326555184,20.6000003815,0.0,0.8860672527212403,1.8752366739079418
1648295462965469067,46134,12,3,2.20197057724,-1.31266570091,0.566215276718,0.0,20.6000003815,0.7364450091103678,-0.4390186290668896,0.18936965776521736,20.6000003815,0.0,1.1302388506660488,2.625331484777692
1648295462965474751,46135,12,4,0.671822488308,0.64461261034,0.110712423921,0.323675245047,20.6000003815,0.22468979542073575,0.21558950178595315,0.03702756652876254,20.6000003815,0.04373989797932432,0.38399198118286226,0.9376183200088214
1648295462965478394,46136,12,5,1.32986664772,0.499574750662,0.306569546461,-0.485512852669,20.6000003815,0.4447714540869565,0.16708185640869566,0.10253162088996655,20.6000003815,-0.06560984495527027,0.6508145968570676,1.453308335844233
1648295462965480196,46137,12,6,0.876058340073,0.515690088272,0.174156844616,-0.404594063759,20.6000003815,0.29299610035886287,0.17247160142876253,0.0582464363264214,20.6000003815,-0.05467487348094594,0.44882054648868697,1.0313801863910537
1648295462965488979,46138,12,7,0.704076945782,0.572826147079,0.58205896616,-0.323675245047,20.6000003815,0.2354772393919732,0.19158065119698997,0.19466855055518392,20.6000003815,-0.04373989797932432,0.38419032582353246,1.0782609982960198
1648295462965508488,46139,12,8,0.885557174683,0.553780794144,0.715070843697,-0.323675245047,20.6000003815,0.29617296812140465,0.18521096794113712,0.23915412832675584,20.6000003815,-0.04373989797932432,0.4579737511445149,1.265784732527943
1648295462965511350,46140,12,9,1.13738882542,0.553780794144,-0.0434104129672,-0.161837622523,20.6000003815,0.38039760047491633,0.18521096794113712,-0.014518532764949833,20.6000003815,-0.021869948989594594,0.5689532243865404,1.2657847258151875
1648295463065403524,46141,13,0,0.0126779936254,0.0439508594573,0.0102669699118,0.0,18.2999992371,0.004240131647290969,0.014699284099431437,0.0034337692012709024,18.2999992371,0.0,0.015875338919484987,0.04688091552615868
1648295463065419391,46142,13,1,0.0334780961275,0.0146502861753,-0.0293667558581,0.0,18.2999992371,0.011196687668060201,0.0048997612626421405,-0.009821657477625418,18.2999992371,0.0,0.01657526138264707,0.0468809146131938
1648295463065424682,46143,13,2,1.87125647068,-0.117202289402,-0.0342766195536,0.0,18.2999992371,0.6258382845083611,-0.03919809010100334,-0.011463752359063545,18.2999992371,0.0,0.8859365705174965,1.8752365297078823
1648295463065427139,46144,13,3,2.20114707947,-1.31266570091,0.569408237934,0.0,18.2999992371,0.7361695917959866,-0.4390186290668896,0.19043753777056854,18.2999992371,0.0,1.129879946028741,2.625331493208421
1648295463065548590,46145,13,4,0.610054910183,0.509829938412,-1.10284781456,0.566431701183,18.2999992371,0.20403174253612036,0.1705116850876254,-0.36884542292976585,18.2999992371,0.07654482448418919,0.3351598703247048,1.3595465647116836
1648295463065552152,46146,13,5,1.63453638554,-1.57930088043,0.333266317844,-0.566431701183,18.2999992371,0.5466676874715718,-0.5281942743913043,0.11146030697123746,18.2999992371,-0.07654482448418919,0.9363120807459383,2.297164971261411
1648295463065554565,46147,13,6,1.2761746645,0.39555773139,0.439261376858,-0.485512852669,18.2999992371,0.42681426906354514,0.13229355564882941,0.14691015948428093,18.2999992371,-0.06560984495527027,0.6179339976232952,1.4064274778221866
1648295463065557717,46148,13,7,2.02312064171,-1.69943320751,0.642165780067,-0.485512852669,18.2999992371,0.676628977160535,-0.5683723102040134,0.21477116390200668,18.2999992371,-0.06560984495527027,1.1129692846045982,2.7190930927038646
1648295463065562403,46149,13,8,2.57034015656,0.76474493742,0.449427217245,-0.485512852669,18.2999992371,0.8596455373110367,0.2557675375986622,0.15031010610200668,18.2999992371,-0.06560984495527027,1.242335676428414,2.7190932612426133
1648295463065576325,46150,13,9,0.847425341606,0.461484014988,0.19529825449,-0.404594063759,18.2999992371,0.28341984669096987,0.15434247992909697,0.06531714196989966,18.2999992371,-0.05467487348094594,0.4295057858834144,0.9844991690663488
1648295463065578862,46151,13,10,0.762769758701,0.474669277668,0.891673922539,-0.404594063759,18.2999992371,0.2551069427093645,0.1587522667785953,0.29821870319030097,18.2999992371,-0.05467487348094594,0.3941590879890761,1.2657847416076435
1648295463167487254,46152,14,0,0.0126779936254,0.0439508594573,0.0102669699118,0.0,20.7999992371,0.004240131647290969,0.014699284099431437,0.0034337692012709024,20.7999992371,0.0,0.015875338919484987,0.04688091552615868
1648295463167540836,46153,14,1,0.0335632227361,0.0146502861753,-0.0292694270611,0.0,20.7999992371,0.011225158105719061,0.0048997612626421405,-0.009789106040501672,20.7999992371,0.0,0.01661372954600108,0.04688091473015751
1648295463167550096,46154,14,2,1.87157011032,-0.117202289402,0.0012244337704,0.0,20.7999992371,0.6259431807090301,-0.03919809010100334,0.0004095096222073578,20.7999992371,0.0,0.8860847708993996,1.8752366660564062
1648295463167551262,46155,14,3,2.2018737793,-1.31266570091,0.566591382027,0.0,20.7999992371,0.7364126352173913,-0.4390186290668896,0.18949544549397992,20.7999992371,0.0,1.130196662215659,2.625331441266354
1648295463167553677,46156,14,4,1.3928848505,-1.68771290779,0.52466660738,-0.647350490093,20.7999992371,0.4658477760869565,-0.5644524775217391,0.17547378173244146,20.7999992371,-0.08747979595851352,0.867545330429918,2.250284007580604
1648295463167554754,46157,14,5,1.2563034296,0.164083212614,0.343321323395,-0.566431701183,20.7999992371,0.4201683711036789,0.054877328633444813,0.11482318508193978,20.7999992371,-0.07654482448418919,0.5967364923898829,1.3126656615392007
1648295463167558530,46158,14,6,0.818288385868,0.380907446146,0.253853827715,-0.485512852669,20.7999992371,0.2736750454408027,0.12739379469765885,0.08490094572408026,20.7999992371,-0.06560984495527027,0.4074619490474173,0.937618328970526
1648295463167564374,46159,14,7,0.949270606041,0.354536950588,0.192181989551,-0.404594063759,20.7999992371,0.3174818080404682,0.11857423096588628,0.06427491289331103,20.7999992371,-0.05467487348094594,0.46438049606162485,1.0313801675102474
1648295463167565386,46160,14,8,0.701596915722,0.709073901176,-0.262146830559,-0.404594063759,20.7999992371,0.23464779790033444,0.23714846193177255,-0.08767452527056856,20.7999992371,-0.05467487348094594,0.4078707774719314,1.0313801385772872
1648295463167569226,46161,14,9,0.842737495899,0.410208016634,0.0255154650658,-0.242756426334,20.7999992371,0.2818520053173913,0.13719331659999998,0.008533600356454849,20.7999992371,-0.03280492247756756,0.4215484692447327,0.9376183353915607
1648295463265534462,46162,15,0,0.0126779936254,0.0439508594573,0.0102669699118,0.0,37.7000007629,0.004240131647290969,0.014699284099431437,0.0034337692012709024,37.7000007629,0.0,0.015875338919484987,0.04688091552615868
1648295463265540901,46163,15,1,0.0334780961275,0.0146502861753,-0.0293667558581,0.0,37.7000007629,0.011196687668060201,0.0048997612626421405,-0.009821657477625418,37.7000007629,0.0,0.01657526138264707,0.0468809146131938
1648295463265543874,46164,15,2,0.323217302561,-0.0,1.07771754265,0.0,37.7000007629,0.10809943229464883,-0.0,0.36044064971571904,37.7000007629,0.0,0.15287568323592451,1.1251420027758112
1648295463265553614,46165,15,3,1.86639976501,-0.175803437829,0.0464451648295,0.0,37.7000007629,0.6242139682307691,-0.05879713639765886,0.015533499942976588,37.7000007629,0.0,0.8847277883718654,1.8752365410576655
1648295463265556969,46166,15,4,2.2006649971,-1.31266570091,0.571268677711,0.0,37.7000007629,0.7360083602341136,-0.4390186290668896,0.19105975843177256,37.7000007629,0.0,1.1296698497068907,2.625331516959403
1648295463265558695,46167,15,5,0.100646361709,0.473204255104,-0.747904539108,0.566431701183,37.7000007629,0.033660990538127086,0.15826229267692307,-0.25013529736053514,37.7000007629,0.07654482448418919,0.16526668705874095,0.8907374230333764
1648295463265560474,46168,15,6,1.19691693783,0.118667319417,0.394358694553,-0.485512852669,37.7000007629,0.40030666817056854,0.039688066694648826,0.1318925399842809,37.7000007629,-0.06560984495527027,0.5675085900685577,1.2657846849806276
1648295463265562003,46169,15,7,1.47121429443,-0.9508035779,-2.14058709145,-0.404594063759,37.7000007629,0.4920449145250836,-0.3179945076588629,-0.7159154152006688,37.7000007629,-0.05467487348094594,0.7650731355375094,2.765973976733146
1648295463265563493,46170,15,8,2.26906728745,0.5186201334,-1.49431562424,-0.404594063759,37.7000007629,0.7588853804180601,0.17345154963210702,-0.4997711117859531,37.7000007629,-0.05467487348094594,1.0871520046866983,2.7659740386690754
1648295463365409635,46171,16,0,0.0126564949751,0.0439508594573,0.0102934604511,0.0,17.7000007629,0.004232941463244147,0.014699284099431437,0.003442628913411371,17.7000007629,0.0,0.015871500871004633,0.046880915521653674
1648295463365418950,46172,16,1,0.0335404723883,0.0146502861753,-0.0292954929173,0.0,17.7000007629,0.011217549293745818,0.0048997612626421405,-0.009797823718160533,17.7000007629,0.0,0.016603447977637752,0.046880913795659694
1648295463365423719,46173,16,2,1.47186529636,-1.68478298187,0.699764370918,0.0,17.7000007629,0.4922626409230769,-0.5634725691872909,0.23403490666153845,17.7000007629,0.0,0.8956262342761352,2.3440459298900147
1648295463365429830,46174,16,3,2.0244705677,-0.805765748024,-0.864182710648,0.0,17.7000007629,0.6770804574247491,-0.26948687224882945,-0.2890243179424749,17.7000007629,0.0,0.9947356764324239,2.344045920530389
1648295463365486198,46175,16,4,2.24267649651,-1.2306240797,0.590196013451,0.0,17.7000007629,0.7500590289331104,-0.4115799597658863,0.19738997105384615,17.7000007629,0.0,1.137793987085997,2.6253313748609517
1648295463365506002,46176,16,5,1.07121431828,-1.82835566998,0.757227361202,0.161837622523,17.7000007629,0.3582656582876254,-0.6114901906287625,0.25325329806086955,17.7000007629,0.021869948989594594,0.7941214120345399,2.250283948347196
1648295463365665049,46177,16,6,0.321422725916,1.63497185707,0.26819652319,0.404594063759,17.7000007629,0.1074992394367893,0.5468133301237458,0.08969783384280935,17.7000007629,0.05467487348094594,0.5675535137412127,1.6877129249956584
1648295463365673142,46178,16,7,0.783363223076,1.91186249256,0.426274836063,0.485512852669,17.7000007629,0.26199438898862876,0.639418893832776,0.1425668348036789,17.7000007629,0.06560984495527027,0.7390119359749074,2.1096412883678335
1648295463365679421,46179,16,8,0.742746770382,0.249054864049,0.146522805095,-0.647350490093,17.7000007629,0.24841029109765883,0.0832959411535117,0.04900428264046823,17.7000007629,-0.08747979595851352,0.36104509311039873,0.796975547072973
1648295463365684280,46180,16,9,1.16014242172,-2.13601183891,0.70736604929,-0.647350490093,17.7000007629,0.38800749890301,-0.7143852304046823,0.23657727401003342,17.7000007629,-0.08747979595851352,0.9008029173078258,2.5315694227743726
1648295463365788696,46181,16,10,1.00786244869,-1.18667316437,-1.99621248245,-0.647350490093,17.7000007629,0.3370777420367893,-0.3968806569799331,-0.6676295927926421,17.7000007629,-0.08747979595851352,0.6202878881923005,2.531569511114499
1648295463365795868,46182,16,11,1.46956956387,0.483459472656,0.00764272222295,-0.404594063759,17.7000007629,0.49149483741471567,0.16169213132307692,0.002556094388946488,17.7000007629,-0.05467487348094594,0.7136376501715942,1.5470701910245883
1648295463365799474,46183,16,12,1.18639397621,-0.0380907431245,0.277028530836,-0.323675245047,17.7000007629,0.3967872830133779,-0.01273937897140468,0.09265168255384615,17.7000007629,-0.04373989797932432,0.56128654687143,1.2189037609246691
