%time,field.header.seq,field.header.frame_id,field.point_id,field.x,field.y,field.z,field.velocity,field.intensity,normalized_x,normalized_y,normalized_z,normalized_intensity,normalized_velocity,normalized_range,range
1648294614764682823,19172,0,0,0.0126902572811,0.0439508594573,0.0102518079802,0.0,16.7999992371,0.004244233204381271,0.014699284099431437,0.0034286983211371234,16.7999992371,0.0,0.015877530791094153,0.04688091556015881
1648294614764687318,19173,0,1,0.0335372425616,0.0146502861753,-0.0292991939932,0.0,16.7999992371,0.011216469084147156,0.0048997612626421405,-0.00979906153618729,16.7999992371,0.0,0.016601988370738802,0.04688091607791967
1648294614764731083,19174,0,2,1.50903069973,-1.68478298187,0.615535676479,0.0,16.7999992371,0.5046925417157191,-0.5634725691872909,0.20586477474214046,16.7999992371,0.0,0.9093571683081803,2.3440459717643853
1648294614764740077,19175,0,3,2.24058651924,-1.2306240797,0.598081290722,0.0,16.7999992371,0.7493600398795985,-0.4115799597658863,0.20002718753244145,16.7999992371,0.0,1.136872465150597,2.6253313707128827
1648294614764751818,19176,0,4,0.963049054146,1.12514197826,0.239081338048,-0.161837622523,16.7999992371,0.322089984664214,0.37630166496989964,0.07996031372842809,16.7999992371,-0.021869948989594594,0.5908357297092872,1.5001892674383304
1648294614764759857,19177,0,5,1.22323560715,1.07679605484,0.191140532494,-0.0809188112617,16.7999992371,0.40910889871237455,0.36013245981270897,0.06392659949632107,16.7999992371,-0.010934974494824324,0.6814950994849899,1.6408320442631255
1648294614959646954,19178,2,0,0.0126902572811,0.0439508594573,0.0102518079802,0.0,14.1999998093,0.004244233204381271,0.014699284099431437,0.0034286983211371234,14.1999998093,0.0,0.015877530791094153,0.04688091556015881
1648294614959651499,19179,2,1,0.0335877910256,0.0146502861753,-0.0292412284762,0.0,14.1999998093,0.011233374924949833,0.0048997612626421405,-0.009779675075652174,14.1999998093,0.0,0.016624833377807784,0.04688091332082697
1648294614959755407,19180,2,2,1.51159262657,-1.68478298187,0.609217166901,0.0,14.1999998093,0.5055493734347826,-0.5634725691872909,0.20375156083645485,14.1999998093,0.0,0.9103085598779839,2.344045972489968
1648294614959758675,19181,2,3,2.24100446701,-1.2306240797,0.59651350975,0.0,14.1999998093,0.7494998217424748,-0.4115799597658863,0.19950284607023408,14.1999998093,0.0,1.137056739509903,2.6253314103195637
1648294614959761254,19182,2,4,1.04565322399,0.999149501324,0.142880454659,-0.404594063759,14.1999998093,0.34971679732107025,0.3341637128173913,0.04778610523712375,14.1999998093,-0.05467487348094594,0.5968827888462835,1.4533083689156412
1648294614959762954,19183,2,5,1.27778434753,1.02552008629,0.0889128446579,-0.242756426334,14.1999998093,0.4273526245919732,0.342983306451505,0.029736737343779265,14.1999998093,-0.03280492247756756,0.6949086846454741,1.6408320389735436
1648294615064498435,19184,3,0,0.00631333654746,0.0454158857465,0.00976521056145,0.0,32.2999992371,0.0021114837951371236,0.015189259446989964,0.0032659567095150496,32.2999992371,0.0,0.015479997744903816,0.04688091545405326
1648294615064506709,19185,3,1,0.033601410687,0.0146502861753,-0.0292255785316,0.0,32.2999992371,0.011237929995652172,0.0048997612626421405,-0.009774440980468226,32.2999992371,0.0,0.01663098919503125,0.04688091430082548
1648294615064515276,19186,3,2,1.50826990604,-1.68478298187,0.617397248745,0.0,32.2999992371,0.5044380956655518,-0.5634725691872909,0.20648737416220736,32.2999992371,0.0,0.9090747609211813,2.3440458972090488
1648294615064535222,19187,3,3,2.24161672592,-1.2306240797,0.594208180904,0.0,32.2999992371,0.7497045906086957,-0.4115799597658863,0.19873183307826084,32.2999992371,0.0,1.1373266943321048,2.6253313188462544
1648294615064539605,19188,3,4,0.991918385029,0.966918885708,0.243318974972,-0.323675245047,32.2999992371,0.331745279273913,0.3233842427117057,0.08137758360267558,32.2999992371,-0.04373989797932432,0.5698133282710017,1.40642750886022
1648294615064552442,19189,3,5,1.28209912777,0.946408450603,0.0348295271397,-0.323675245047,32.2999992371,0.4287956949063545,0.31652456541906354,0.011648671284180602,32.2999992371,-0.04373989797932432,0.6840462677730023,1.5939511362529724
1648294615259746649,19190,5,0,0.0126596167684,0.0439508594573,0.0102896206081,0.0,23.7000007629,0.004233985541270903,0.014699284099431437,0.0034413446849832774,23.7000007629,0.0,0.015872057842736712,0.046880915477587756
1648294615259760145,19191,5,1,0.0335372425616,0.0146502861753,-0.0292991939932,0.0,23.7000007629,0.011216469084147156,0.0048997612626421405,-0.00979906153618729,23.7000007629,0.0,0.016601988370738802,0.04688091607791967
1648294615259873879,19192,5,2,1.51250684261,-1.68478298187,0.60694372654,0.0,23.7000007629,0.5058551313076922,-0.5634725691872909,0.20299121288963207,23.7000007629,0.0,0.9106482108735356,2.3440459321709337
1648294615259876936,19193,5,3,2.24035382271,-1.2306240797,0.598952710629,0.0,23.7000007629,0.7492822149531772,-0.4115799597658863,0.2003186323173913,23.7000007629,0.0,1.1367698705416003,2.62533145070077
1648294615259878391,19194,5,4,0.989934444427,0.861436843872,0.0323670394719,-0.566431701183,23.7000007629,0.33108175398896317,0.28810596785016723,0.01082509681334448,23.7000007629,-0.07654482448418919,0.5497593149367259,1.3126657097248031
1648294615259886005,19195,5,5,0.947342455387,0.79111546278,0.280872792006,-0.404594063759,23.7000007629,0.31683694160100334,0.26458711129765883,0.09393738863076923,23.7000007629,-0.05467487348094594,0.5203629834942095,1.2657847085968172
1648294615259907879,19196,5,6,1.33841228485,0.773535132408,-0.0610109865665,-0.323675245047,23.7000007629,0.44762952670568557,0.2587074021431438,-0.020405012229598663,23.7000007629,-0.04373989797932432,0.6838668776020421,1.5470702588404566
1648294615364620442,19197,6,0,0.00631579104811,0.0454158857465,0.00976362358779,0.0,19.8999996185,0.0021123046983645482,0.015189259446989964,0.003265425949093645,19.8999996185,0.0,0.015480221730499849,0.04688091552291377
1648294615364624554,19198,6,1,0.0335372425616,0.0146502861753,-0.0292991939932,0.0,19.8999996185,0.011216469084147156,0.0048997612626421405,-0.00979906153618729,19.8999996185,0.0,0.016601988370738802,0.04688091607791967
1648294615364626744,19199,6,2,1.51492738724,-1.68478298187,0.600876688957,0.0,19.8999996185,0.5066646780066889,-0.5634725691872909,0.2009621033301003,19.8999996185,0.0,0.9115478748292762,2.3440459637004794
1648294615364634470,19200,6,3,2.24010396004,-1.2306240797,0.599886357784,0.0,19.8999996185,0.7491986488428093,-0.4115799597658863,0.2006308888909699,19.8999996185,0.0,1.1366597090319823,2.625331411380231
1648294615364636288,19201,6,4,0.898442685604,0.870226979256,-0.194207832217,-0.485512852669,19.8999996185,0.30048250354648826,0.29104581246020067,-0.0649524522464883,19.8999996185,-0.06560984495527027,0.5150603215408356,1.2657847118822287
1648294615364637490,19202,6,5,1.04666626453,0.69735366106,0.375870883465,-0.404594063759,19.8999996185,0.3500556068662207,0.23322864918394645,0.12570932557357858,19.8999996185,-0.05467487348094594,0.5472416820721212,1.3126657300835307
1648294615364638674,19203,6,6,1.32509541512,0.703213751316,0.0134388785809,-0.323675245047,19.8999996185,0.44317572412040135,0.23518854559063543,0.0044946082210367885,19.8999996185,-0.04373989797932432,0.6694199704791624,1.5001893356071687
1648294615559668345,19204,8,0,0.0126678450033,0.0439508594573,0.0102794887498,0.0,21.2999992371,0.004236737459297658,0.014699284099431437,0.0034379561036120398,21.2999992371,0.0,0.015873526439762208,0.046880915445629195
1648294615559675605,19205,8,1,0.033514522016,0.0146502861753,-0.0293251797557,0.0,21.2999992371,0.011208870239464881,0.0048997612626421405,-0.009807752426655518,21.2999992371,0.0,0.016591720963215706,0.0468809155060271
1648294615559784726,19206,8,2,1.52359747887,-1.68478298187,0.578540027142,0.0,21.2999992371,0.5095643742040133,-0.5634725691872909,0.1934916478735786,21.2999992371,0.0,0.9147748570781675,2.3440459757912717
1648294615559787767,19207,8,3,2.24126148224,-1.2306240797,0.595546483994,0.0,21.2999992371,0.749585780013378,-0.4115799597658863,0.19917942608494982,21.2999992371,0.0,1.1371700604911374,2.6253312689844934
1648294615559788888,19208,8,4,1.42690312862,-2.01880931854,0.249064564705,0.566431701183,21.2999992371,0.4772251266287625,-0.675187063056856,0.08329918552006688,21.2999992371,0.07654482448418919,0.9546544993300036,2.4846884634660285
1648294615559790000,19209,8,5,1.10236394405,0.553780794144,0.283428162336,-0.647350490093,21.2999992371,0.36868359332775913,0.18521096794113712,0.09479202753712374,21.2999992371,-0.08747979595851352,0.5533157205645163,1.2657847195749334
1648294615559791052,19210,8,6,0.952494323254,0.562570989132,0.205457791686,-0.566431701183,21.2999992371,0.31855997433244143,0.1881508324856187,0.06871498049698996,21.2999992371,-0.07654482448418919,0.48822295138430644,1.1251419722899596
1648294615664524307,19211,9,0,0.00631333654746,0.0454158857465,0.00976521056145,0.0,39.9000015259,0.0021114837951371236,0.015189259446989964,0.0032659567095150496,39.9000015259,0.0,0.015479997744903816,0.04688091545405326
1648294615664528655,19212,9,1,0.0335372425616,0.0146502861753,-0.0292991939932,0.0,39.9000015259,0.011216469084147156,0.0048997612626421405,-0.00979906153618729,39.9000015259,0.0,0.016601988370738802,0.04688091607791967
1648294615664530759,19213,9,2,1.51694512367,-1.68478298187,0.595764219761,0.0,39.9000015259,0.5073395062441471,-0.5634725691872909,0.1992522474117057,39.9000015259,0.0,0.9122982436783688,2.3440459060718912
1648294615664541011,19214,9,3,2.24018383026,-1.2306240797,0.599588215351,0.0,39.9000015259,0.7492253612909698,-0.4115799597658863,0.2005311757026756,39.9000015259,0.0,1.1366949226965242,2.6253314546707496
1648294615664544544,19215,9,4,1.78922951221,-1.56904554367,0.230833098292,-0.647350490093,39.9000015259,0.5984045191337792,-0.5247643958762541,0.07720170511438126,39.9000015259,-0.08747979595851352,0.9957678485564941,2.3909266163437564
1648294615664548731,19216,9,5,0.965456485748,0.562570989132,-0.131727427244,-0.485512852669,39.9000015259,0.322895145735117,0.1881508324856187,-0.04405599573377926,39.9000015259,-0.06560984495527027,0.493885903872176,1.125141972719069
1648294615664560275,19217,9,6,0.957999169827,0.370652228594,0.327873826027,-0.323675245047,39.9000015259,0.32040106014280934,0.12396395605150501,0.10965679800234113,39.9000015259,-0.04373989797932432,0.4697666879220064,1.078260974785095
1648294615761406377,19218,10,0,0.00631333654746,0.0454158857465,0.00976521056145,0.0,33.5,0.0021114837951371236,0.015189259446989964,0.0032659567095150496,33.5,0.0,0.015479997744903816,0.04688091545405326
1648294615761410722,19219,10,1,0.0335372425616,0.0146502861753,-0.0292991939932,0.0,33.5,0.011216469084147156,0.0048997612626421405,-0.00979906153618729,33.5,0.0,0.016601988370738802,0.04688091607791967
1648294615761412961,19220,10,2,1.51027166843,-1.68478298187,0.612484276295,0.0,33.5,0.5051075814147157,-0.5634725691872909,0.20484423956354514,33.5,0.0,0.9098179344417067,2.344045903383659
1648294615761418400,19221,10,3,2.24154520035,-1.2306240797,0.59447824955,0.0,33.5,0.7496806690133779,-0.4115799597658863,0.19882215704013376,33.5,0.0,1.1372951570571206,2.6253313885941383
1648294615761424916,19222,10,4,1.53928148746,-1.7580344677,0.185683712363,-0.566431701183,33.5,0.5148098620267558,-0.5879713938795986,0.06210157604113711,33.5,-0.07654482448418919,0.935825169623436,2.3440458886922837
1648294615761576379,19223,10,5,0.915305674076,0.451228827238,0.149509653449,-0.485512852669,33.5,0.30612229902207355,0.15091265125016723,0.05000322857826087,33.5,-0.06560984495527027,0.4584717572811593,1.031380176269033
1648294615761582082,19224,10,6,1.06740808487,0.316446185112,0.162623032928,-0.161837622523,33.5,0.3569926705250836,0.10583484451906354,0.05438897422341137,33.5,-0.021869948989594594,0.5158377147239587,1.1251419726223357
1648294615861342114,19225,11,0,0.00631333654746,0.0454158857465,0.00976521056145,0.0,32.4000015259,0.0021114837951371236,0.015189259446989964,0.0032659567095150496,32.4000015259,0.0,0.015479997744903816,0.04688091545405326
1648294615861347964,19226,11,1,0.0335651524365,0.0146502861753,-0.0292672142386,0.0,32.4000015259,0.011225803490468226,0.0048997612626421405,-0.009788365966086955,32.4000015259,0.0,0.01661460166372055,0.046880914799007266
1648294615861352053,19227,11,2,1.50802731514,-1.68478298187,0.617989659309,0.0,32.4000015259,0.5043569615852843,-0.5634725691872909,0.2066855047856187,32.4000015259,0.0,0.9089847224379551,2.344045924938327
1648294615861358133,19228,11,3,2.2410337925,-1.2306240797,0.596403539181,0.0,32.4000015259,0.7495096295986622,-0.4115799597658863,0.19946606661571903,32.4000015259,0.0,1.1370696693708509,2.6253314583518836
1648294615861444413,19229,11,4,1.0401468277,-1.0782610178,0.0775603204966,-0.566431701183,32.4000015259,0.34787519321070237,-0.3606224139799331,0.025939906520602005,32.4000015259,-0.07654482448418919,0.6099859224338553,1.5001892710578226
1648294615861446608,19230,11,5,2.53652977943,0.75155967474,0.37668544054,-0.566431701183,32.4000015259,0.8483377188729097,0.25135775074916383,0.12598175268896322,32.4000015259,-0.07654482448418919,1.2257791356466559,2.6722120401916674
1648294615861452185,19231,11,6,1.66728639603,-2.08766579628,0.0502529330552,-0.566431701183,32.4000015259,0.5576208682374582,-0.6982159853779264,0.016807001021806017,32.4000015259,-0.07654482448418919,1.0532747161235108,2.6722121473836546
1648294615861454837,19232,11,7,0.88692933321,0.338421612978,0.260894328356,-0.404594063759,32.4000015259,0.2966318840167224,0.11318448594581938,0.08725562821270903,32.4000015259,-0.05467487348094594,0.4345016422171956,0.9844992030506143
1648294615861477111,19233,11,8,0.924584507942,-0.879017174244,-2.50691556931,-0.323675245047,32.4000015259,0.30922558794046817,-0.29398567700468226,-0.8384333007725752,32.4000015259,-0.04373989797932432,0.5269426029067661,2.8128550223200515
1648294615861484381,19234,11,9,2.00764584541,0.527410328388,-1.89824926853,-0.323675245047,32.4000015259,0.6714534600033444,0.1763914141765886,-0.6348659760969899,32.4000015259,-0.04373989797932432,0.9658226694875941,2.812855094127149
1648294615861494141,19235,11,10,0.967018783092,0.351606875658,0.455183237791,-0.242756426334,32.4000015259,0.32341765320802673,0.11759427279531771,0.1522351965856187,32.4000015259,-0.03280492247756756,0.47225667788548475,1.1251419918519665
1648294615861513563,19236,11,11,0.987155735493,0.235869601369,0.36405479908,-0.0809188112617,32.4000015259,0.33015241989732436,0.07888615430401337,0.12175745788628761,32.4000015259,-0.010934974494824324,0.47352324765421494,1.07826101278859
1648294615961398604,19237,12,0,0.00625984510407,0.0454158857465,0.00979958660901,0.0,21.2000007629,0.0020935936802909698,0.015189259446989964,0.0032774537153879594,21.2000007629,0.0,0.015475137205992147,0.046880915483526756
1648294615961557319,19238,12,1,0.0335372425616,0.0146502861753,-0.0292991939932,0.0,21.2000007629,0.011216469084147156,0.0048997612626421405,-0.00979906153618729,21.2000007629,0.0,0.016601988370738802,0.04688091607791967
1648294615961564993,19239,12,2,1.50173258781,-1.68478298187,0.633132636547,0.0,21.2000007629,0.5022517016086956,-0.5634725691872909,0.21175004566789296,21.2000007629,0.0,0.9066503624684583,2.3440459459554637
1648294615961605481,19240,12,3,2.241771698,-1.2306240797,0.593623399734,0.0,21.2000007629,0.7497564207357859,-0.4115799597658863,0.1985362540916388,21.2000007629,0.0,1.1373950255517924,2.6253313528396807
1648294615961749560,19241,12,4,1.14697277546,-1.85912132263,0.288281291723,-0.566431701183,21.2000007629,0.38360293493645486,-0.6217797065652174,0.09641514773344481,21.2000007629,-0.07654482448418919,0.8251741797221068,2.2034029915250226
1648294615961752285,19242,12,5,2.18809747696,0.206569030881,0.156663879752,-0.566431701183,21.2000007629,0.7318051762408025,0.06908663240167225,0.05239594640535117,21.2000007629,-0.07654482448418919,1.0372321797564266,2.203403028140059
1648294615961753525,19243,12,6,2.50641465187,0.738374471664,0.25505644083,-0.566431701183,21.2000007629,0.8382657698561873,0.2469479838341137,0.08530315746822742,21.2000007629,-0.07654482448418919,1.2109344773954147,2.625331418225625
1648294615961754511,19244,12,7,0.535908162594,-0.984499275684,-2.37401103973,-0.566431701183,21.2000007629,0.1792334991953177,-0.32926397180066885,-0.7939836253277591,21.2000007629,-0.07654482448418919,0.4155286483427437,2.6253313694307456
1648294615961876101,19245,12,8,0.895108819008,0.205104008317,0.189316362143,-0.242756426334,21.2000007629,0.2993674979959866,0.06859665829999999,0.06331650907792641,21.2000007629,-0.03280492247756756,0.42889077775429146,0.9376183323019319
1648294615961944690,19246,12,9,1.02888226509,0.168478280306,0.275069415569,-0.161837622523,21.2000007629,0.34410778096655514,0.05634725093846154,0.09199646005652173,21.2000007629,-0.021869948989594594,0.4898931950249721,1.0782610211507544
1648294616064584242,19247,13,0,0.0125762345269,0.0439508594573,0.0103913675994,0.0,37.0999984741,0.004206098503979933,0.014699284099431437,0.003475373779063545,37.0999984741,0.0,0.01585722177073154,0.04688091554669969
1648294616064588568,19248,13,1,0.0335372425616,0.0146502861753,-0.0292991939932,0.0,37.0999984741,0.011216469084147156,0.0048997612626421405,-0.00979906153618729,37.0999984741,0.0,0.016601988370738802,0.04688091607791967
1648294616064590215,19249,13,2,1.04754519463,0.0673913136125,0.24648360908,0.0,37.0999984741,0.35034956342140466,0.02253890087374582,0.08243598965886287,37.0999984741,0.0,0.49598148678326115,1.0782609579725704
1648294616064596862,19250,13,3,1.4942086935,-1.68478298187,0.650690495968,0.0,37.0999984741,0.4997353489966555,-0.5634725691872909,0.21762223945418058,37.0999984741,0.0,0.9038651305920284,2.34404595459919
1648294616064706973,19251,13,4,2.24151444435,-1.2306240797,0.594593703747,0.0,37.0999984741,0.7496703827257524,-0.4115799597658863,0.1988607704839465,37.0999984741,0.0,1.1372815960672362,2.6253312747732878
1648294616064709232,19252,13,5,0.933435916901,0.0879017189145,-0.00993592850864,0.0809188112617,37.0999984741,0.3121859253849498,0.02939856819882943,-0.0033230530129230765,37.0999984741,0.010934974494824324,0.44247528725235735,0.9376182836443961
1648294616064710729,19253,13,6,0.878736197948,-2.41729736328,0.181390732527,-0.485512852669,37.0999984741,0.2938917049993311,-0.8084606566153845,0.06066579683177257,37.0999984741,-0.06560984495527027,0.9090397691134345,2.5784503962557097
1648294616064732295,19254,13,7,1.29408621788,-1.1236770153,-2.17101430893,-0.323675245047,37.0999984741,0.4328047551438126,-0.37581171080267556,-0.7260917421170567,37.0999984741,-0.04373989797932432,0.718243937758353,2.765974024389832
1648294616064733678,19255,13,8,2.56607866287,-0.0864366889,-1.02877688408,-0.323675245047,37.0999984741,0.8582202885852842,-0.02890859160535117,-0.34407253648160535,37.0999984741,-0.04373989797932432,1.2140510014605739,2.765974129026162
1648294616064734796,19256,13,9,1.17813372612,0.304725944996,-0.0697811990976,-0.161837622523,37.0999984741,0.3940246575652174,0.10191503177123744,-0.02333819367812709,37.0999984741,-0.021869948989594594,0.5664781860228211,1.2189037672936283
1648294616064736632,19257,13,10,1.18539941311,0.328166425228,-0.858896255493,-0.161837622523,37.0999984741,0.3964546532140468,0.10975465726688963,-0.28725627274013377,37.0999984741,-0.021869948989594594,0.5713131093384018,1.5001892377124806
1648294616259523847,19258,15,0,0.00628323899582,0.0454158857465,0.00978460349143,0.0,13.8000001907,0.002101417724354515,0.015189259446989964,0.0032724426392742472,13.8000001907,0.0,0.01547725800820147,0.0468809154763667
1648294616259608482,19259,15,1,0.0335236079991,0.0146502861753,-0.029314789921,0.0,13.8000001907,0.01121190902979933,0.0048997612626421405,-0.009804277565551838,13.8000001907,0.0,0.01659582684339289,0.04688091388196129
1648294616259613204,19260,15,2,1.50063383579,-1.68478298187,0.635732471943,0.0,13.8000001907,0.5018842260167223,-0.5634725691872909,0.21261955583377923,13.8000001907,0.0,0.9062432834925372,2.344045942595694
1648294616259615236,19261,15,3,2.19612717628,-1.31266570091,0.58847206831,0.0,13.8000001907,0.7344906944080267,-0.4390186290668896,0.19681340077257523,13.8000001907,0.0,1.1276925631623815,2.6253314442032187
1648294616259616389,19262,15,4,0.972735583782,-0.061531201005,0.138701632619,0.0809188112617,13.8000001907,0.32532962668294313,-0.020578996991638794,0.04638850589264214,13.8000001907,0.010934974494824324,0.46054557549987185,0.9844992369443473
1648294616259617477,19263,15,5,1.13373279572,-0.183128580451,0.233990862966,0.161837622523,13.8000001907,0.3791748480668896,-0.061247016873244145,0.07825781370100333,13.8000001907,0.021869948989594594,0.5397206016903274,1.1720229746129804
1648294616259619038,19264,15,6,0.709126710892,1.93383789062,0.111312381923,-0.323675245047,13.8000001907,0.23716612404414714,0.6467685252909698,0.03722822137892976,13.8000001907,-0.04373989797932432,0.7285637007807234,2.062760317067276
1648294616364437127,19265,16,0,0.0126678450033,0.0439508594573,0.0102794887498,0.0,22.2999992371,0.004236737459297658,0.014699284099431437,0.0034379561036120398,22.2999992371,0.0,0.015873526439762208,0.046880915445629195
1648294616364443600,19266,16,1,0.0335877910256,0.0146502861753,-0.0292412284762,0.0,22.2999992371,0.011233374924949833,0.0048997612626421405,-0.009779675075652174,22.2999992371,0.0,0.016624833377807784,0.04688091332082697
1648294616364449101,19267,16,2,1.50629663467,-1.68478298187,0.622196257114,0.0,22.2999992371,0.5037781386856187,-0.5634725691872909,0.20809239368361201,22.2999992371,0.0,0.9083425357548875,2.3440459530443523
1648294616364452600,19268,16,3,2.19782471657,-1.31266570091,0.582100152969,0.0,22.2999992371,0.7350584336354514,-0.4390186290668896,0.19468232540769229,22.2999992371,0.0,1.1284321682693106,2.6253314676813813
1648294616364502634,19269,16,4,0.926174759865,-0.117202289402,0.0871323868632,0.0809188112617,22.2999992371,0.309757444770903,-0.03919809010100334,0.029141266509431437,22.2999992371,0.010934974494824324,0.4398134143583668,0.9376183206894685
1648294616364676932,19270,16,5,1.03076374531,-0.24612480402,0.37801194191,0.161837622523,22.2999992371,0.34473703856521737,-0.08231598796655518,0.126425398632107,22.2999992371,0.021869948989594594,0.49443217269140405,1.1251419226150767
1648294616364682347,19271,16,6,0.942779779434,1.76389443874,-0.252215147018,-0.323675245047,22.2999992371,0.31531096302140466,0.5899312504147156,-0.08435289197926421,22.2999992371,-0.04373989797932432,0.7395004307090302,2.0158794070858583
1648294616364685736,19272,16,7,1.42110466957,-0.388232588768,-2.00085330009,-0.323675245047,22.2999992371,0.4752858426655518,-0.12984367517324413,-0.6691817057157191,22.2999992371,-0.04373989797932432,0.6845820947549697,2.484688502274723
