%time,field.header.seq,field.header.frame_id,field.point_id,field.x,field.y,field.z,field.velocity,field.intensity,normalized_x,normalized_y,normalized_z,normalized_intensity,normalized_velocity,normalized_range,range
1648127424101197941,108900,0,0,0.0125890737399,0.0439508594573,0.0103758089244,0.0,27.1000003815,0.004210392555150501,0.014699284099431437,0.003470170208829431,27.1000003815,0.0,0.01585950074790286,0.0468809154720728
1648127424101252824,108901,0,1,0.0328101180494,0.0146502861753,-0.0301112178713,0.0,27.1000003815,0.010973283628561871,0.0048997612626421405,-0.010070641428528428,27.1000003815,0.0,0.016273707863195052,0.046880914806844864
1648127424101354025,108902,0,2,2.41900396347,-0.902457654476,0.47576791048,0.0,27.1000003815,0.8090314259096989,-0.30182530250033446,0.15911970250167223,27.1000003815,0.0,1.183284500637264,2.6253314263247596
1648127424101358998,108903,0,3,1.49267148972,-1.6173915863,0.468779474497,-0.242756426334,27.1000003815,0.49922123402006685,-0.54093364090301,0.15678243294214048,27.1000003815,-0.03280492247756756,0.8894115385206239,2.2502839632736658
1648127424101366046,108904,0,4,2.19435691833,0.49224960804,0.079155229032,-0.242756426334,27.1000003815,0.7338986348929766,0.16463197593311035,0.02647332074648829,27.1000003815,-0.03280492247756756,1.0508654053184876,2.250283873630475
1648127424101371357,108905,0,5,0.92708158493,0.386767566204,0.233828112483,-0.161837622523,27.1000003815,0.3100607307458194,0.1293537010715719,0.07820338210133779,27.1000003815,-0.021869948989594594,0.4571735922843495,1.0313801440647619
1648127424101376231,108906,0,6,0.95581048727,0.723724126816,0.219945907593,-0.0809188112617,27.1000003815,0.3196690592876254,0.24204820294849494,0.07356050421170568,27.1000003815,-0.010934974494824324,0.5128001047993911,1.2189038114542938
1648127424101381153,108907,0,7,1.25038552284,0.297400802374,0.443233281374,-0.0809188112617,27.1000003815,0.4181891380735786,0.09946515129565217,0.14823855564347824,27.1000003815,-0.010934974494824324,0.5997146210721498,1.3595465915878435
1648127424201107628,108908,1,0,0.0126097733155,0.0439508594573,0.0103506427258,0.0,15.0,0.004217315490133779,0.014699284099431437,0.0034617534199999998,15.0,0.0,0.01586317915559307,0.04688091546611253
1648127424201113421,108909,1,1,0.0328101180494,0.0146502861753,-0.0301112178713,0.0,15.0,0.010973283628561871,0.0048997612626421405,-0.010070641428528428,15.0,0.0,0.016273707863195052,0.046880914806844864
1648127424201115640,108910,1,2,0.877977669239,0.703213751316,-0.0242931507528,0.0,15.0,0.29363801646789295,0.23518854559063543,-0.008124799582876253,15.0,0.0,0.47724230890338665,1.1251420021027418
1648127424201120164,108911,1,3,2.41638255119,-0.902457654476,0.488907575607,0.0,15.0,0.8081546993946488,-0.30182530250033446,0.1635142393334448,15.0,0.0,1.182085677747907,2.6253314208502765
1648127424201219487,108912,1,4,1.28790855408,0.246124818921,0.0616890266538,0.0809188112617,15.0,0.43073864684949825,0.08231599295016721,0.020631781489565217,15.0,0.010934974494824324,0.6146930018105343,1.312665763311752
1648127424201227566,108913,1,5,1.13491594791,0.256380021572,-0.140971004963,0.161837622523,15.0,0.37957055114046817,0.08574582661270903,-0.047147493298662205,15.0,0.021869948989594594,0.5435990741048538,1.1720229300325105
1648127424201249750,108914,1,6,1.47566902637,-1.58369588852,0.411452263594,-0.323675245047,15.0,0.49353479142809364,-0.5296641767625418,0.1376094527070234,15.0,-0.04373989797932432,0.8761833831142228,2.2034029835505717
1648127424201394749,108915,1,7,1.27165591717,0.254914969206,0.407770305872,-0.242756426334,15.0,0.42530298233110364,0.0852558425438127,0.13637802871973245,15.0,-0.03280492247756756,0.6074815324331411,1.3595466286779994
1648127424201414109,108916,1,8,2.29285526276,1.2306240797,0.34748223424,-0.242756426334,15.0,0.7668412250033444,0.4115799597658863,0.11621479406020067,15.0,-0.03280492247756756,1.1599521507416366,2.62533136663091
1648127424201419490,108917,1,9,1.57173526287,0.246124818921,-2.08840513229,-0.242756426334,15.0,0.5256639675150502,0.08231599295016721,-0.6984632549464883,15.0,-0.03280492247756756,0.7479446076967862,2.6253314380498964
1648127424201426211,108918,1,10,0.91945117712,0.386767566204,0.262231528759,-0.161837622523,15.0,0.3075087548896321,0.1293537010715719,0.0877028524277592,15.0,-0.021869948989594594,0.453713178834886,1.031380139449079
1648127424201470890,108919,1,11,0.932977080345,0.672448158264,0.528751552105,-0.161837622523,15.0,0.31203246834280934,0.22489904958662205,0.17683998398160536,15.0,-0.021869948989594594,0.49528588219853237,1.2657847217655824
1648127424201482668,108920,1,12,1.23729097843,0.158223092556,-0.215145036578,-0.161837622523,15.0,0.4138096917826086,0.05291742225953177,-0.07195486173177257,15.0,-0.021869948989594594,0.587602906396002,1.2657846969711712
1648127424201488068,108921,1,13,1.57203781605,0.6914935112,-2.16821265221,-0.161837622523,15.0,0.5257651558695652,0.23126873284280935,-0.7251547331806019,15.0,-0.021869948989594594,0.7786804383338617,2.7659740194597777
1648127424201492970,108922,1,14,1.23093426228,-0.4321834445,2.43898153305,-0.161837622523,15.0,0.4116836997591973,-0.14454295802675585,0.8157128873076923,15.0,-0.021869948989594594,0.5998829919325653,2.7659740791109417
1648127424300967804,108923,2,0,0.0125890737399,0.0439508594573,0.0103758089244,0.0,17.3999996185,0.004210392555150501,0.014699284099431437,0.003470170208829431,17.3999996185,0.0,0.01585950074790286,0.0468809154720728
1648127424300977716,108924,2,1,0.0327970646322,0.0146502861753,-0.0301254354417,0.0,17.3999996185,0.010968917937190636,0.0048997612626421405,-0.010075396468795985,17.3999996185,0.0,0.016267820439645055,0.04688091503009433
1648127424300984272,108925,2,2,1.27918994427,0.164083212614,0.24462428689,0.0,17.3999996185,0.4278227238361204,0.054877328633444813,0.08181414277257525,17.3999996185,0.0,0.6075163267427944,1.3126657060804392
1648127424300991363,108926,2,3,2.42000293732,-0.902457654476,0.470659911633,0.0,17.3999996185,0.8093655308762542,-0.30182530250033446,0.15741134168327758,17.3999996185,0.0,1.1837413730923745,2.625331367118851
1648127424300996082,108927,2,4,1.1052223444,-0.046880915761,-1.01333796978,0.242756426334,17.3999996185,0.36963958006688963,-0.015679236040468225,-0.338909019993311,17.3999996185,0.03280492247756756,0.522984394362648,1.5001893519890994
1648127424301006059,108928,2,5,1.34253025055,-1.6173915863,0.481916904449,-0.404594063759,17.3999996185,0.4490067727591973,-0.54093364090301,0.1611762222237458,17.3999996185,-0.05467487348094594,0.834160277061816,2.156521949776905
1648127424301108372,108929,2,6,0.923738777637,0.370652228594,0.414693057537,-0.323675245047,17.3999996185,0.3089427349956521,0.12396395605150501,0.13869333027993308,17.3999996185,-0.04373989797932432,0.454156679366413,1.078260977612277
1648127424301146939,108930,2,7,0.949711382389,0.622637212276,0.28984311223,-0.323675245047,17.3999996185,0.3176292248792642,0.20823987032642138,0.09693749572909698,17.3999996185,-0.04373989797932432,0.4951166454365771,1.1720229680587435
1648127424301157175,108931,2,8,2.34534144402,0.966918945312,0.461353600025,-0.323675245047,17.3999996185,0.7843951317792642,0.32338426264615383,0.15429886288461536,17.3999996185,-0.04373989797932432,1.1554777483124525,2.578450286528154
1648127424301177608,108932,2,9,1.49361217022,-0.0,-2.10179185867,-0.323675245047,17.3999996185,0.4995358428829431,-0.0,-0.7029404209598662,17.3999996185,-0.04373989797932432,0.7064503638965337,2.578450374197803
1648127424301181105,108933,2,10,1.73901617527,0.6050568223,-2.06405949593,-0.242756426334,17.3999996185,0.5816107609598662,0.20236014123745819,-0.6903209016488294,17.3999996185,-0.03280492247756756,0.8470488659400196,2.7659740813683125
1648127424301184329,108934,2,11,1.35160148144,-0.864366889,-2.25314354897,-0.242756426334,17.3999996185,0.4520406292441471,-0.2890859160535117,-0.7535597153745818,17.3999996185,-0.03280492247756756,0.7016068185496681,2.7659740663454286
1648127424301192369,108935,2,12,0.89518237114,0.307655990124,0.270619630814,-0.161837622523,17.3999996185,0.29939209737123745,0.10289497997458194,0.09050823773043477,17.3999996185,-0.021869948989594594,0.435727704926674,0.984499197785817
