%time,field.header.seq,field.header.frame_id,field.point_id,field.x,field.y,field.z,field.velocity,field.intensity,normalized_x,normalized_y,normalized_z,normalized_intensity,normalized_velocity,normalized_range,range
1648125359587567275,19856,0,0,0.0126303331926,0.0439508594573,0.0103255445138,0.0,24.0,0.004224191703210702,0.014699284099431437,0.003453359369163879,24.0,0.0,0.015866837874218862,0.04688091544645748
1648125359587572806,19857,0,1,0.0328872464597,0.0146502861753,-0.0300269592553,0.0,24.0,0.010999079083511706,0.0048997612626421405,-0.010042461289397992,24.0,0.0,0.0163084990664861,0.0468809145264753
1648125359587582716,19858,0,2,0.471858471632,1.27457487583,0.0342823043466,0.0,24.0,0.1578121978702341,0.4262792226856187,0.011465653627625416,24.0,0.0,0.48116873889179784,1.3595465448962236
1648125359587591109,19859,0,3,2.39336419106,-0.984499275684,0.441513806581,0.0,24.0,0.8004562511906353,-0.32926397180066885,0.1476634804618729,24.0,0.0,1.1789296769808972,2.6253314869311746
1648125359587691215,19860,0,4,0.997063755989,1.16030263901,0.230191171169,0.161837622523,24.0,0.3334661391267558,0.3880610832809364,0.07698701376889631,24.0,0.021869948989594594,0.6107296752617999,1.5470702385103976
1648125359587703446,19861,0,5,0.761068344116,1.13539719582,-0.493713766336,-0.161837622523,24.0,0.2545379077311037,0.37973150361872904,-0.16512166098193978,24.0,-0.021869948989594594,0.5232352317885298,1.4533083292134081
1648125359587707293,19862,0,6,0.600037932396,1.06800591946,0.31863579154,-0.0809188112617,24.0,0.20068158274113712,0.35719261520401335,0.10656715436120401,24.0,-0.010934974494824324,0.45621569422725705,1.2657847099589996
1648125359782656267,19863,2,0,0.0126303331926,0.0439508594573,0.0103255445138,0.0,27.7999992371,0.004224191703210702,0.014699284099431437,0.003453359369163879,27.7999992371,0.0,0.015866837874218862,0.04688091544645748
1648125359782661868,19864,2,1,0.0328872464597,0.0146502861753,-0.0300269592553,0.0,27.7999992371,0.010999079083511706,0.0048997612626421405,-0.010042461289397992,27.7999992371,0.0,0.0163084990664861,0.0468809145264753
1648125359782671962,19865,2,2,0.49395686388,-1.53828001022,0.286410838366,0.0,27.7999992371,0.1652029645083612,-0.51447491980602,0.09578957804882943,27.7999992371,0.0,0.5650384784013496,1.6408320881644542
1648125359782736535,19866,2,3,2.39363455772,-0.984499275684,0.44004547596,0.0,27.7999992371,0.8005466748227424,-0.32926397180066885,0.14717239998662207,27.7999992371,0.0,1.1790524671385287,2.6253314534828935
1648125359782741008,19867,2,4,0.8760009408,1.0987714529,-0.0579815879464,-0.242756426334,27.7999992371,0.29297690327759196,0.3674820912709029,-0.019391835433578593,27.7999992371,-0.03280492247756756,0.5538176767791826,1.406427466502005
1648125359782750756,19868,2,5,0.664121448994,1.06800591946,0.1432377249,-0.161837622523,27.7999992371,0.22211419698795987,0.35719261520401335,0.04790559361204013,27.7999992371,-0.021869948989594594,0.4756637440077758,1.265784732428867
1648125359887820815,19869,3,0,0.0126303331926,0.0439508594573,0.0103255445138,0.0,33.2000007629,0.004224191703210702,0.014699284099431437,0.003453359369163879,33.2000007629,0.0,0.015866837874218862,0.04688091544645748
1648125359887827723,19870,3,1,0.0328349135816,0.0146502861753,-0.0300841778517,0.0,33.2000007629,0.01098157644869565,0.0048997612626421405,-0.010061597943712374,33.2000007629,0.0,0.016284891864178357,0.046880915007517114
1648125359887849628,19871,3,2,0.484995216131,-1.53828001022,0.301337271929,0.0,33.2000007629,0.16220575790334446,-0.51447491980602,0.1007816962973244,33.2000007629,0.0,0.5632990847706105,1.6408320757975239
1648125359887856643,19872,3,3,2.42367482185,-0.902457654476,0.451370328665,0.0,33.2000007629,0.81059358590301,-0.30182530250033446,0.15095997614214046,33.2000007629,0.0,1.185420784465845,2.625331337905961
1648125359887962895,19873,3,4,0.655225813389,0.990359306335,0.274943709373,-0.242756426334,33.2000007629,0.2191390680230769,0.3312238482725752,0.09195441785050167,33.2000007629,-0.03280492247756756,0.45360015424660005,1.2189037966547662
1648125359887966261,19874,3,5,0.792322039604,1.06214570999,0.304037928581,-0.242756426334,33.2000007629,0.26499064869698996,0.3552326789264214,0.10168492594682273,33.2000007629,-0.03280492247756756,0.5163626089977325,1.3595465367938786
1648125359887972263,19875,3,6,0.944342851639,1.16030263901,0.394132763147,-0.0809188112617,33.2000007629,0.3158337296451505,0.3880610832809364,0.13181697764113712,33.2000007629,-0.010934974494824324,0.5916868208100514,1.547070221586964
1648125360082645715,19876,5,0,0.0126303331926,0.0439508594573,0.0103255445138,0.0,15.1999998093,0.004224191703210702,0.014699284099431437,0.003453359369163879,15.1999998093,0.0,0.015866837874218862,0.04688091544645748
1648125360082652222,19877,5,1,0.0327995419502,0.0146502861753,-0.0301227364689,0.0,15.1999998093,0.010969746471638795,0.0048997612626421405,-0.010074493802307691,15.1999998093,0.0,0.016268937756809817,0.046880913915322876
1648125360082875808,19878,5,2,0.482503771782,-1.53828001022,0.305310726166,0.0,15.1999998093,0.1613724989237458,-0.51447491980602,0.10211061075785953,15.1999998093,0.0,0.5628202287828675,1.6408320813350492
1648125360082884281,19879,5,3,2.42275118828,-0.902457654476,0.456301867962,0.0,15.1999998093,0.810284678354515,-0.30182530250033446,0.15260932038862876,15.1999998093,0.0,1.1849983262357706,2.625331318736758
1648125360082907828,19880,5,4,0.996896147728,1.0782610178,0.306788474321,-0.404594063759,15.1999998093,0.3334100828521739,0.3606224139799331,0.10260484091003343,15.1999998093,-0.05467487348094594,0.5936102190492522,1.5001892946685844
1648125360083005424,19881,5,5,0.571095883846,0.914177834988,0.322603166103,-0.323675245047,15.1999998093,0.19100196784147155,0.30574509531371236,0.10789403548595317,15.1999998093,-0.04373989797932432,0.4079749584803216,1.1251419578474844
1648125360083028294,19882,5,6,0.737734496593,1.02845013142,-0.0157840419561,-0.242756426334,15.1999998093,0.24673394534882942,0.3439632546555184,-0.005278943798026755,15.1999998093,-0.03280492247756756,0.48996530502476937,1.2657847353565355
1648125360187853968,19883,6,0,0.0126303331926,0.0439508594573,0.0103255445138,0.0,28.1000003815,0.004224191703210702,0.014699284099431437,0.003453359369163879,28.1000003815,0.0,0.015866837874218862,0.04688091544645748
1648125360187867128,19884,6,1,0.0327995419502,0.0146502861753,-0.0301227364689,0.0,28.1000003815,0.010969746471638795,0.0048997612626421405,-0.010074493802307691,28.1000003815,0.0,0.016268937756809817,0.046880913915322876
1648125360187871026,19885,6,2,0.486546486616,-1.53828001022,0.298826128244,0.0,28.1000003815,0.16272457746354513,-0.51447491980602,0.09994184891103679,28.1000003815,0.0,0.5635982783248981,1.6408320841579485
1648125360187877047,19886,6,3,2.42278027534,-0.902457654476,0.456147819757,0.0,28.1000003815,0.8102944064682274,-0.30182530250033446,0.15255779924983276,28.1000003815,0.0,1.1850116301272373,2.625331391304335
1648125360187882704,19887,6,4,1.02552163601,0.999149501324,0.249220684171,-0.485512852669,28.1000003815,0.3429838247525083,0.3341637128173913,0.0833513993882943,28.1000003815,-0.06560984495527027,0.589017143254441,1.453308398564904
1648125360187887730,19888,6,5,0.710190176964,0.990359306335,0.0233420301229,-0.323675245047,28.1000003815,0.23752179831571904,0.3312238482725752,0.007806699037759196,28.1000003815,-0.04373989797932432,0.47174404820279414,1.2189038081287458
1648125360382767992,19889,8,0,0.0126097733155,0.0439508594573,0.0103506427258,0.0,33.5,0.004217315490133779,0.014699284099431437,0.0034617534199999998,33.5,0.0,0.01586317915559307,0.04688091546611253
1648125360382853427,19890,8,1,0.0328872464597,0.0146502861753,-0.0300269592553,0.0,33.5,0.010999079083511706,0.0048997612626421405,-0.010042461289397992,33.5,0.0,0.0163084990664861,0.0468809145264753
1648125360382863817,19891,8,2,2.42239069939,-0.902457654476,0.458212226629,0.0,33.5,0.8101641135083613,-0.30182530250033446,0.15324823633076923,33.5,0.0,1.1848334460433652,2.6253314006513166
1648125360382867091,19892,8,3,0.737328112125,0.843856453896,0.100985437632,-0.323675245047,33.5,0.2465980308110368,0.28222623876120395,0.03377439385685619,33.5,-0.04373989797932432,0.4486344028772851,1.125141999182981
1648125360382870258,19893,8,4,0.700670421124,0.709073901176,0.264613211155,-0.242756426334,33.5,0.23433793348628762,0.23714846193177255,0.08849940172408027,33.5,-0.03280492247756756,0.40751432752463185,1.0313801374298401
1648125360487932224,19894,9,0,0.0126097733155,0.0439508594573,0.0103506427258,0.0,36.4000015259,0.004217315490133779,0.014699284099431437,0.0034617534199999998,36.4000015259,0.0,0.01586317915559307,0.04688091546611253
1648125360487940464,19895,9,1,0.0328872464597,0.0146502861753,-0.0300269592553,0.0,36.4000015259,0.010999079083511706,0.0048997612626421405,-0.010042461289397992,36.4000015259,0.0,0.0163084990664861,0.0468809145264753
1648125360487947093,19896,9,2,2.42162847519,-0.902457654476,0.462223321199,0.0,36.4000015259,0.8099091890267558,-0.30182530250033446,0.15458973953143812,36.4000015259,0.0,1.1844848256391354,2.6253313483508327
1648125360487949106,19897,9,3,0.470188289881,0.562570989132,0.158362939954,0.242756426334,36.4000015259,0.15725360865585283,0.1881508324856187,0.05296419396454849,36.4000015259,0.03280492247756756,0.291304189183073,0.7500946383657533
1648125360487953601,19898,9,4,0.730813682079,0.676843225956,0.267468959093,-0.161837622523,36.4000015259,0.24441929166521736,0.22636897189163876,0.08945450136889632,36.4000015259,-0.021869948989594594,0.41318820374198817,1.0313801600354175
1648125360682742124,19899,11,0,0.0125994505361,0.0439508594573,0.0103632062674,0.0,39.7000007629,0.004213863055551839,0.014699284099431437,0.003465955273377926,39.7000007629,0.0,0.01586134410249293,0.04688091557326548
1648125360682758523,19900,11,1,0.0328872464597,0.0146502861753,-0.0300269592553,0.0,39.7000007629,0.010999079083511706,0.0048997612626421405,-0.010042461289397992,39.7000007629,0.0,0.0163084990664861,0.0468809145264753
1648125360682766312,19901,11,2,2.39236402512,-0.984499275684,0.446901530027,0.0,39.7000007629,0.8001217475317726,-0.32926397180066885,0.14946539465785952,39.7000007629,0.0,1.1784754494144316,2.625331489555397
1648125360682785106,19902,11,3,0.620174407959,0.703213751316,-0.00148590782192,0.485512852669,39.7000007629,0.2074161899528428,0.23518854559063543,-0.0004969591377658862,39.7000007629,0.06560984495527027,0.3759742061447114,0.9376183041351488
1648125360682789003,19903,11,4,0.359800338745,0.457088917494,1.07113957405,-0.323675245047,39.7000007629,0.12033456145317725,0.15287254765685618,0.3582406602173913,39.7000007629,-0.04373989797932432,0.22875932590247497,1.2189038310518467
1648125360682791678,19904,11,5,0.827853620052,0.83799636364,0.313284099102,-0.323675245047,39.7000007629,0.2768741204187291,0.28026634235451503,0.1047772906695652,39.7000007629,-0.04373989797932432,0.4815265099369588,1.2189037896639816
1648125360682899319,19905,11,6,0.738909959793,0.584546387196,0.285580545664,-0.161837622523,39.7000007629,0.24712707685384613,0.1955004639451505,0.09551188818193979,39.7000007629,-0.021869948989594594,0.40045476102978556,0.9844991902114175
1648125360682902166,19906,11,7,1.22714483738,0.615312039852,0.305850982666,-0.161837622523,39.7000007629,0.4104163335719063,0.20578997988361203,0.10229129855050167,39.7000007629,-0.021869948989594594,0.6158186823617078,1.4064274534767067
1648125360787706590,19907,12,0,0.0126097733155,0.0439508594573,0.0103506427258,0.0,24.3999996185,0.004217315490133779,0.014699284099431437,0.0034617534199999998,24.3999996185,0.0,0.01586317915559307,0.04688091546611253
1648125360787711339,19908,12,1,0.0329001024365,0.0146502861753,-0.0300128757954,0.0,24.3999996185,0.011003378741304349,0.0048997612626421405,-0.010037751102140467,24.3999996185,0.0,0.016314298877980183,0.04688091657444943
1648125360787755061,19909,12,2,0.481889009476,-1.53828001022,0.306280136108,0.0,24.3999996185,0.16116689280133778,-0.51447491980602,0.10243482812976587,24.3999996185,0.0,0.5627023882834393,1.6408320843616322
1648125360787844945,19910,12,3,2.39178848267,-0.984499275684,0.449970990419,0.0,24.3999996185,0.7999292584180602,-0.32926397180066885,0.15049197003979933,24.3999996185,0.0,1.1782140722604222,2.625331381344808
1648125360787850016,19911,12,4,0.776326179504,0.584546387196,0.157676637173,-0.323675245047,24.3999996185,0.25964086271036785,0.1955004639451505,0.05273466126187291,24.3999996185,-0.04373989797932432,0.41598940681312696,0.9844992319333513
1648125360787901870,19912,12,5,0.663299560547,0.586011469364,0.768285155296,-0.323675245047,24.3999996185,0.22183931790869563,0.19599045798127088,0.25695155695518396,24.3999996185,-0.04373989797932432,0.3699157006131248,1.1720229644064986
1648125360787974862,19913,12,6,0.241696015,1.0621458292,-0.432512462139,-0.323675245047,24.3999996185,0.08083478762541806,0.35523271879598656,-0.144652997370903,24.3999996185,-0.04373989797932432,0.37317396785424534,1.1720229332480554
1648125360787984141,19914,12,7,1.64290523529,-1.40642750263,0.62177324295,-0.323675245047,24.3999996185,0.5494666338762542,-0.47037709118060195,0.20795091737458193,24.3999996185,-0.04373989797932432,0.9083401187848785,2.250283959402881
1648125360787995208,19915,12,8,0.656254410744,0.707608819008,0.194572851062,-0.0809188112617,24.3999996185,0.21948308051638796,0.23665846789565215,0.0650745321277592,24.3999996185,-0.010934974494824324,0.39032406496736,0.9844992060582103
1648125360982739638,19916,14,0,0.0126303331926,0.0439508594573,0.0103255445138,0.0,21.0,0.004224191703210702,0.014699284099431437,0.003453359369163879,21.0,0.0,0.015866837874218862,0.04688091544645748
1648125360982767852,19917,14,1,0.0329001024365,0.0146502861753,-0.0300128757954,0.0,21.0,0.011003378741304349,0.0048997612626421405,-0.010037751102140467,21.0,0.0,0.016314298877980183,0.04688091657444943
1648125360982771119,19918,14,2,0.488877356052,-1.53828001022,0.294997394085,0.0,21.0,0.16350413245886286,-0.51447491980602,0.09866133581438126,21.0,0.0,0.5640493292006129,1.6408320820912108
1648125360982778079,19919,14,3,2.39199995995,-0.984499275684,0.448845744133,0.0,21.0,0.7999999866053512,-0.32926397180066885,0.15011563348929766,21.0,0.0,1.178310112094043,2.625331433219324
1648125360982800296,19920,14,4,0.988390386105,0.266635209322,-0.661601424217,0.323675245047,21.0,0.33056534652341135,0.0891756552916388,-0.22127137933678928,21.0,0.04373989797932432,0.4759193147383065,1.2189037430088319
1648125360982804827,19921,14,5,0.712735593319,0.473204255104,0.24798963964,-0.485512852669,21.0,0.2383731081334448,0.15826229267692307,0.08293967880936455,21.0,-0.06560984495527027,0.37241164139397415,0.890737421691205
1648125360982807655,19922,14,6,1.51742517948,-1.58369588852,0.210506394506,-0.485512852669,21.0,0.5075000600267559,-0.5296641767625418,0.07040347642341137,21.0,-0.06560984495527027,0.8919959428158083,2.2034030009880126
1648125360982846391,19923,14,7,0.709018230438,0.386767566204,0.783357143402,-0.404594063759,21.0,0.23712984295585285,0.1293537010715719,0.2619923556528428,21.0,-0.05467487348094594,0.3594349799636207,1.1251419534795333
1648125360982941503,19924,14,8,0.794106721878,0.498109728098,-0.0202319975942,-0.323675245047,21.0,0.2655875324006689,0.1665918823070234,-0.006766554379331103,21.0,-0.04373989797932432,0.41088481352314526,0.9376183235647321
1648125361086924773,19925,15,0,0.0126097733155,0.0439508594573,0.0103506427258,0.0,39.7000007629,0.004217315490133779,0.014699284099431437,0.0034617534199999998,39.7000007629,0.0,0.01586317915559307,0.04688091546611253
1648125361086936807,19926,15,1,0.0328872464597,0.0146502861753,-0.0300269592553,0.0,39.7000007629,0.010999079083511706,0.0048997612626421405,-0.010042461289397992,39.7000007629,0.0,0.0163084990664861,0.0468809145264753
1648125361087070894,19927,15,2,0.489870429039,-1.53828001022,0.293345361948,0.0,39.7000007629,0.16383626389264214,-0.51447491980602,0.09810881670501671,39.7000007629,0.0,0.5642420454397294,1.6408320841773238
1648125361087088508,19928,15,3,2.39135980606,-0.984499275684,0.45224416256,0.0,39.7000007629,0.7997858883143812,-0.32926397180066885,0.15125222828093643,39.7000007629,0.0,1.1780193960286052,2.6253314702016652
1648125361087094532,19929,15,4,0.720085084438,0.395557701588,0.192627266049,-0.647350490093,39.7000007629,0.24083113191906352,0.13229354568160534,0.06442383479899665,39.7000007629,-0.08747979595851352,0.3653776819016807,0.8438564378738692
1648125361087101277,19930,15,5,1.38540267944,-1.55000019073,0.573363482952,-0.647350490093,39.7000007629,0.4633453777391304,-0.518394712618729,0.19176036219130435,39.7000007629,-0.08747979595851352,0.835530344281696,2.1565219356745287
1648125361087108715,19931,15,6,0.772888302803,0.389697611332,0.210220351815,-0.485512852669,39.7000007629,0.2584910711715719,0.13033364927491636,0.0703078099715719,39.7000007629,-0.06560984495527027,0.3881006672039745,0.89073742101968
1648125361087111043,19932,15,7,0.842336237431,0.370652228594,0.561901509762,-0.485512852669,39.7000007629,0.2817178051608695,0.12396395605150501,0.18792692634180602,39.7000007629,-0.06560984495527027,0.4172492131679277,1.0782609693965222
1648125361087121132,19933,15,8,0.58937060833,0.775000095367,-0.463318377733,-0.485512852669,39.7000007629,0.1971139158294314,0.25919735631003343,-0.15495597917491638,39.7000007629,-0.06560984495527027,0.3806455846917639,1.0782609985190377
1648125361087126446,19934,15,9,0.955200850964,0.386767566204,-0.0417997352779,-0.323675245047,39.7000007629,0.31946516754648824,0.1293537010715719,-0.013979844574548494,39.7000007629,-0.04373989797932432,0.46994506756846083,1.0313801596981675
1648125361087134409,19935,15,10,1.08657133579,-0.5186201334,-2.49018239975,-0.323675245047,39.7000007629,0.3634017845451505,-0.17345154963210702,-0.832836922993311,39.7000007629,-0.04373989797932432,0.5424086596755063,2.7659740589081756
1648125361087173762,19936,15,11,0.720325887203,0.6050568223,-2.60108613968,-0.323675245047,39.7000007629,0.24091166796086952,0.20236014123745819,-0.8699284748093645,39.7000007629,-0.04373989797932432,0.3962656814323195,2.7659740143432234
1648125361186866990,19937,16,0,0.0126097733155,0.0439508594573,0.0103506427258,0.0,23.2000007629,0.004217315490133779,0.014699284099431437,0.0034617534199999998,23.2000007629,0.0,0.01586317915559307,0.04688091546611253
1648125361186873987,19938,16,1,0.0328872464597,0.0146502861753,-0.0300269592553,0.0,23.2000007629,0.010999079083511706,0.0048997612626421405,-0.010042461289397992,23.2000007629,0.0,0.0163084990664861,0.0468809145264753
1648125361186881349,19939,16,2,0.265140771866,-1.58955609798,0.308774471283,0.0,23.2000007629,0.08867584343344481,-0.5316241130367892,0.10326905394080267,23.2000007629,0.0,0.5462151663762354,1.640832072957863
1648125361186898489,19940,16,3,2.42026567459,-0.902457654476,0.469307512045,0.0,23.2000007629,0.8094534028729097,-0.30182530250033446,0.15695903412876253,23.2000007629,0.0,1.1838615358539546,2.625331463755154
1648125361186902781,19941,16,4,1.14995455742,-1.61153149605,0.579267561436,-0.647350490093,23.2000007629,0.3846001864280936,-0.5389737444983277,0.1937349703799331,23.2000007629,-0.08747979595851352,0.7657201212320317,2.0627603240861965
1648125361187022611,19942,16,5,2.03606462479,0.32230630517,0.0744275003672,-0.647350490093,23.2000007629,0.6809580684916386,0.10779475089297658,0.02489214059103679,23.2000007629,-0.08747979595851352,0.9690343081686041,2.0627602777551464
1648125361187031962,19943,16,6,0.544225633144,0.34867683053,0.114086449146,-0.566431701183,23.2000007629,0.1820152619210702,0.11661432459197323,0.038156003058862874,23.2000007629,-0.07654482448418919,0.28259159903371806,0.6563328346183641
1648125361187040264,19944,16,7,0.701183140278,0.323771327734,0.196683451533,-0.485512852669,23.2000007629,0.23450941146421403,0.10828472499464883,0.06578041857290969,23.2000007629,-0.06560984495527027,0.3488766397994438,0.7969755636026042
1648125361187184260,19945,16,8,1.60510897636,-1.89867711067,0.476963460445,-0.485512852669,23.2000007629,0.5368257446020066,-0.6350090671137123,0.1595195519882943,23.2000007629,-0.06560984495527027,0.9897475816851612,2.531569422151661
1648125361187228914,19946,16,9,1.37239289284,-0.949338555336,-1.90371692181,-0.485512852669,23.2000007629,0.45899427854180597,-0.3175045335571906,-0.6366946226789297,23.2000007629,-0.06560984495527027,0.7226068255265757,2.5315694861786686
1648125361187238424,19947,16,10,0.468115448952,0.290075659752,0.872048795223,-0.323675245047,23.2000007629,0.1565603508200669,0.09701527082006689,0.2916551154591973,23.2000007629,-0.04373989797932432,0.24173177215685931,1.0313801739310178
1648125361187246348,19948,16,11,1.76099765301,0.509829938412,-2.00809073448,-0.242756426334,23.2000007629,0.5889624257558528,0.1705116850876254,-0.6716022523344481,23.2000007629,-0.03280492247756756,0.8501927502959892,2.7190931756584473
1648125361187412207,19949,16,12,1.69739627838,-0.934688270092,-1.90753018856,-0.242756426334,23.2000007629,0.5676910630033445,-0.31260477260602004,-0.6379699627290969,23.2000007629,-0.03280492247756756,0.8615497837523934,2.7190931775821143
1648125361286789836,19950,17,0,0.0126097733155,0.0439508594573,0.0103506427258,0.0,25.2999992371,0.004217315490133779,0.014699284099431437,0.0034617534199999998,25.2999992371,0.0,0.01586317915559307,0.04688091546611253
1648125361286799679,19951,17,1,0.0328872464597,0.0146502861753,-0.0300269592553,0.0,25.2999992371,0.010999079083511706,0.0048997612626421405,-0.010042461289397992,25.2999992371,0.0,0.0163084990664861,0.0468809145264753
1648125361286807454,19952,17,2,0.280691772699,-1.58955609798,0.294709086418,0.0,25.2999992371,0.09387684705652172,-0.5316241130367892,0.09856491184548494,25.2999992371,0.0,0.5479506568922972,1.6408320771802465
1648125361286819854,19953,17,3,2.42176795006,-0.902457654476,0.461491972208,0.0,25.2999992371,0.8099558361404682,-0.30182530250033446,0.15434514120668893,25.2999992371,0.0,1.1845486170796993,2.6253313433684076
1648125361286888969,19954,17,4,0.495172053576,0.266635209322,0.234823152423,-0.566431701183,25.2999992371,0.16560938246688964,0.0891756552916388,0.07853617137892976,25.2999992371,-0.07654482448418919,0.25060972171650137,0.6094518934310856
1648125361286893934,19955,17,5,0.6661657691,0.257845044136,0.228869140148,-0.404594063759,25.2999992371,0.2227979160869565,0.08623580071438126,0.07654486292575251,25.2999992371,-0.05467487348094594,0.32667175597261466,0.7500946487065318
1648125361286897522,19956,17,6,1.05551028252,-1.70089828968,0.237934872508,-0.404594063759,25.2999992371,0.3530134724147157,-0.5688623042408026,0.07957688043745818,25.2999992371,-0.05467487348094594,0.7568628307683936,2.0158794487511393
1648125361286902098,19957,17,7,0.024355398491,-0.594801604748,2.65312743187,-0.404594063759,25.2999992371,0.008145618224414716,-0.19893030259130434,0.8873335892541806,25.2999992371,-0.05467487348094594,0.19926356285478722,2.7190931032584293
1648125361286909489,19958,17,8,1.75904536247,0.849716603756,-1.89135098457,-0.404594063759,25.2999992371,0.5883094857759197,0.28418615510234113,-0.6325588577157191,25.2999992371,-0.05467487348094594,0.8791916019046736,2.719093128371986
1648125361286914099,19959,17,9,0.573474645615,-1.00940465927,-2.19679450989,-0.323675245047,25.2999992371,0.19179754033946486,-0.337593531528428,-0.7347138829063545,25.2999992371,-0.04373989797932432,0.43306117984688147,2.484688522531965
1648125361286923380,19960,17,10,1.52819812298,-1.94116294384,0.264903455973,-0.323675245047,25.2999992371,0.5111030511638796,-0.6492183758662207,0.08859647356956522,25.2999992371,-0.04373989797932432,0.971564283709744,2.4846884952853965
1648125361286940756,19961,17,11,1.18136513233,0.594801604748,0.314569920301,-0.242756426334,25.2999992371,0.39510539542809364,0.19893030259130434,0.10520733120434782,25.2999992371,-0.03280492247756756,0.5931187168534209,1.3595465272119422
1648125361286955909,19962,17,12,0.866660535336,0.215359210968,0.414437741041,-0.161837622523,25.2999992371,0.28985302185150497,0.07202649196254181,0.13860794014749164,25.2999992371,-0.021869948989594594,0.4161939020424592,0.9844992201402745
1648125361286961953,19963,17,13,0.884582817554,0.153827995062,0.403842687607,-0.161837622523,25.2999992371,0.29584709617190635,0.05144748998729097,0.13506444401571904,25.2999992371,-0.021869948989594594,0.42154223139881347,0.9844992277854833
1648125361287045797,19964,17,14,1.40281796455,-1.01965987682,-2.09424519539,-0.161837622523,25.2999992371,0.4691698878093645,-0.34102337017391304,-0.7004164533076923,25.2999992371,-0.021869948989594594,0.7460145482890244,2.719093129055142
1648125361287154947,19965,17,15,2.14084863663,0.424858301878,-1.62164413929,-0.161837622523,25.2999992371,0.7160028885050166,0.14209307755117057,-0.5423558994280936,25.2999992371,-0.021869948989594594,1.0225021835590462,2.719093079710364
1648125361386656242,19966,18,0,0.0126303331926,0.0439508594573,0.0103255445138,0.0,22.7999992371,0.004224191703210702,0.014699284099431437,0.003453359369163879,22.7999992371,0.0,0.015866837874218862,0.04688091544645748
1648125361386664342,19967,18,1,0.0328872464597,0.0146502861753,-0.0300269592553,0.0,22.7999992371,0.010999079083511706,0.0048997612626421405,-0.010042461289397992,22.7999992371,0.0,0.0163084990664861,0.0468809145264753
1648125361386744011,19968,18,2,0.262796193361,-1.58955609798,0.310772359371,0.0,22.7999992371,0.0878917034652174,-0.5316241130367892,0.1039372439367893,22.7999992371,0.0,0.5459616292727798,1.6408320716086255
1648125361386748227,19969,18,3,2.42674851418,-0.902457654476,0.434542000294,0.0,22.7999992371,0.8116215766488293,-0.30182530250033446,0.14533177267357858,22.7999992371,0.0,1.186826727283002,2.6253313922658736
1648125361386752328,19970,18,4,1.28317570686,0.38237246871,0.235835120082,0.161837622523,22.7999992371,0.4291557548026756,0.1278837687993311,0.07887462210100334,22.7999992371,0.021869948989594594,0.6202447759415868,1.3595465432882878
1648125361386758448,19971,18,5,1.00622797012,-1.58223092556,-0.0237255673856,-0.647350490093,22.7999992371,0.33653109368561873,-0.5291742225953177,-0.007934972369765885,22.7999992371,-0.08747979595851352,0.7117104129446443,1.875236606990712
1648125361386768545,19972,18,6,1.85609662533,0.234404578805,0.128343746066,-0.647350490093,22.7999992371,0.6207681021170568,0.07839618020234114,0.04292432978795986,22.7999992371,-0.08747979595851352,0.8813921001928389,1.8752366000802185
1648125361386879354,19973,18,7,0.685302078724,-1.78440487385,0.472456365824,-0.323675245047,22.7999992371,0.22919801964013375,-0.5967909277090301,0.15801216248294314,22.7999992371,-0.04373989797932432,0.6791339159618838,1.9689984028766228
1648125361387091422,19974,18,8,0.526989758015,0.140642747283,0.137795194983,-0.242756426334,22.7999992371,0.17625075518896322,0.047037708121404675,0.04608534949264213,22.7999992371,-0.03280492247756756,0.2536556788141636,0.5625709761233876
1648125361387099166,19975,18,9,0.690973460674,0.281285494566,0.0779494866729,-0.242756426334,22.7999992371,0.23109480290100334,0.09407541624280935,0.026070062432408024,22.7999992371,-0.03280492247756756,0.34008792950789213,0.750094644216056
1648125361387106984,19976,18,10,1.13125002384,0.34281668067,0.297449827194,-0.242756426334,22.7999992371,0.3783444895785953,0.1146544082508361,0.09948154755652172,22.7999992371,-0.03280492247756756,0.547206303801706,1.2189037257639908
1648125361487712228,19977,19,0,0.521344065666,0.0703213736415,0.199352368712,0.0,15.0,0.17436256376789297,0.023518854060702338,0.06667303301404681,15.0,0.0,0.2477049530868402,0.5625709709068423
1648125361487718025,19978,19,1,0.283666402102,-1.58955609798,0.291847020388,0.0,15.0,0.09487170638862875,-0.5316241130367892,0.0976076991264214,15.0,0.0,0.5482932417131668,1.6408320753862202
1648125361487732511,19979,19,2,1.90131902695,-1.17202293873,0.711266279221,0.0,15.0,0.6358926511538461,-0.3919809159632107,0.2378816987361204,15.0,0.0,0.9810035504840396,2.3440459746148936
1648125361487767065,19980,19,3,2.41794753075,-0.902457654476,0.481108039618,0.0,15.0,0.8086781039297658,-0.30182530250033446,0.16090569886889633,15.0,0.0,1.182801363196839,2.6253314124825113
1648125361487868309,19981,19,4,0.732966780663,0.140642747283,0.0749751925468,0.0809188112617,15.0,0.24513939152608694,0.047037708121404675,0.025075315233043478,15.0,0.010934974494824324,0.34985595398803027,0.7500946363067943
1648125361487957853,19982,19,5,0.558644652367,0.0175803434104,0.0639781877398,0.161837622523,15.0,0.18683767637692306,0.005879713515183946,0.02139738720394649,15.0,0.021869948989594594,0.26429378664447695,0.5625709951634041
1648125361487964913,19983,19,6,1.53054141998,0.193383783102,0.116069406271,0.242756426334,15.0,0.511886762535117,0.06467685053578595,0.03881919942173913,15.0,0.03280492247756756,0.7268006675234929,1.5470702740707478
1648125361488016943,19984,19,7,0.382841080427,-1.81663548946,0.264160275459,-0.404594063759,15.0,0.12804049512608695,-0.607570397812709,0.08834791821371236,15.0,-0.05467487348094594,0.6339799090527716,1.875236637216397
1648125361488019534,19985,19,8,0.190391927958,-1.90746724606,0.449749261141,-0.242756426334,15.0,0.06367623008628762,-0.6379489117257524,0.15041781309063543,15.0,-0.03280492247756756,0.6442733414693452,1.9689984202431856
1648125361488021559,19986,19,9,1.0075044632,-1.29215526581,-1.09189033508,-0.242756426334,15.0,0.33695801444816054,-0.4321589517759197,-0.36518071407357855,15.0,-0.03280492247756756,0.643306121999282,1.9689984708398194
1648125361488028539,19987,19,10,0.677301228046,0.257845044136,0.193444922566,-0.0809188112617,15.0,0.22652214984816052,0.08623580071438126,0.06469729851705684,15.0,-0.010934974494824324,0.33175470165246407,0.7500946329395254
1648125361586802333,19988,20,0,0.0126303331926,0.0439508594573,0.0103255445138,0.0,21.8999996185,0.004224191703210702,0.014699284099431437,0.003453359369163879,21.8999996185,0.0,0.015866837874218862,0.04688091544645748
1648125361586807852,19989,20,1,0.0328872464597,0.0146502861753,-0.0300269592553,0.0,21.8999996185,0.010999079083511706,0.0048997612626421405,-0.010042461289397992,21.8999996185,0.0,0.0163084990664861,0.0468809145264753
1648125361586813458,19990,20,2,0.683962523937,0.0879017189145,0.137761116028,0.0,21.8999996185,0.2287500080056856,0.02939856819882943,0.04607395184882943,21.8999996185,0.0,0.3248344318839117,0.7032137451925091
1648125361586891640,19991,20,3,0.277838021517,-1.58955609798,0.297400981188,0.0,21.8999996185,0.09292241522307691,-0.5316241130367892,0.09946521109966555,21.8999996185,0.0,0.5476251893986731,1.640832075027018
1648125361587012447,19992,20,4,2.41812443733,-0.902457654476,0.480218559504,0.0,21.8999996185,0.8087372700100334,-0.30182530250033446,0.16060821388093643,21.8999996185,0.0,1.1828822667687522,2.6253314985782175
1648125361587015086,19993,20,5,0.535330891609,-0.0,0.1729362607,0.161837622523,21.8999996185,0.1790404319762542,-0.0,0.057838214280936454,21.8999996185,0.021869948989594594,0.2532014071139562,0.5625709855438559
1648125361587016462,19994,20,6,1.59479415417,0.307656019926,0.233043804765,0.242756426334,21.8999996185,0.5333759712943144,0.10289498994180601,0.0779410718277592,21.8999996185,0.03280492247756756,0.7612931317590031,1.6408321168574376
1648125361587019117,19995,20,7,0.615543246269,0.871692061424,-1.24643063545,0.242756426334,21.8999996185,0.2058673064444816,0.29153580649632105,-0.4168664332608696,21.8999996185,0.03280492247756756,0.41201434707407036,1.6408320654367077
1648125361587020260,19996,20,8,0.829883754253,-1.78440487385,0.0643962323666,-0.161837622523,21.8999996185,0.27755309506789294,-0.5967909277090301,0.021537201460401334,21.8999996185,-0.021869948989594594,0.7143044536885784,1.968998393634617
1648125361687729692,19997,21,0,0.0126097733155,0.0439508594573,0.0103506427258,0.0,13.3000001907,0.004217315490133779,0.014699284099431437,0.0034617534199999998,13.3000001907,0.0,0.01586317915559307,0.04688091546611253
1648125361687888821,19998,21,1,0.0328744277358,0.0146502861753,-0.0300409924239,0.0,13.3000001907,0.010994791884882943,0.0048997612626421405,-0.010047154656822743,13.3000001907,0.0,0.01630271626492543,0.04688091413131083
1648125361687892647,19999,21,2,0.275624871254,-1.58955609798,0.299453228712,0.0,13.3000001907,0.09218223118862875,-0.5316241130367892,0.10015158150903009,13.3000001907,0.0,0.5473749401059391,1.6408320738165831
1648125361687899853,20000,21,3,2.42808151245,-0.902457654476,0.427031368017,0.0,13.3000001907,0.8120673954682274,-0.30182530250033446,0.14281985552408025,13.3000001907,0.0,1.1874364921100071,2.625331491163406
1648125361687904310,20001,21,4,0.679543912411,0.0439508594573,0.175493463874,0.0809188112617,13.3000001907,0.22727221150869564,0.014699284099431437,0.05869346617859531,13.3000001907,0.010934974494824324,0.3217473934644108,0.7032137390611614
1648125361687905916,20002,21,5,0.577707707882,-0.0571361146867,0.185528621078,0.242756426334,13.3000001907,0.19321328022809361,-0.0191090684570903,0.06204970604615384,13.3000001907,0.03280492247756756,0.27391221186777603,0.6094518853747768
1648125361687908594,20003,21,6,0.846863329411,1.58369588852,-1.27660274506,0.242756426334,13.3000001907,0.2832318827461538,0.5296641767625418,-0.42695743981939793,13.3000001907,0.03280492247756756,0.6640668181391111,2.203402989630123
1648125361687914506,20004,21,7,0.576615273952,-1.20132350922,-1.38523375988,-0.242756426334,13.3000001907,0.19284791770969897,-0.40178043786622075,-0.46328888290301,13.3000001907,-0.03280492247756756,0.48560082267424726,1.9221175607830747
1648125361687933542,20005,21,8,0.305099219084,-0.46880915761,-0.752502858639,-0.0809188112617,13.3000001907,0.10203987260334448,-0.15679236040468228,-0.25167319686923073,13.3000001907,-0.010934974494824324,0.21309180060031713,0.9376183189360857
1648125361687936841,20006,21,9,0.862020552158,0.0293005723506,0.367682099342,-0.0809188112617,13.3000001907,0.288301188012709,0.009799522525284281,0.12297060178662207,13.3000001907,-0.010934974494824324,0.4078371987212573,0.9376183029673623
1648125361882734417,20007,23,0,0.0126097733155,0.0439508594573,0.0103506427258,0.0,15.3999996185,0.004217315490133779,0.014699284099431437,0.0034617534199999998,15.3999996185,0.0,0.01586317915559307,0.04688091546611253
1648125361882757798,20008,23,1,0.0328744277358,0.0146502861753,-0.0300409924239,0.0,15.3999996185,0.010994791884882943,0.0048997612626421405,-0.010047154656822743,15.3999996185,0.0,0.01630271626492543,0.04688091413131083
1648125361882760158,20009,23,2,0.267108023167,-1.58955609798,0.307074278593,0.0,15.3999996185,0.08933378701237457,-0.5316241130367892,0.10270042762307692,15.3999996185,0.0,0.5464295458392577,1.6408320746618155
1648125361882913548,20010,23,3,0.60212624073,-0.143572807312,0.218182504177,0.323675245047,15.3999996185,0.20138001362207356,-0.0480176613083612,0.07297073718294314,15.3999996185,0.04373989797932432,0.28881398091224314,0.6563328164156027
1648125361882915749,20011,23,4,0.737490177155,-0.046880915761,0.128656148911,0.404594063759,15.3999996185,0.24665223316220733,-0.015679236040468225,0.04302881234481605,15.3999996185,0.05467487348094594,0.3491711424081614,0.7500946515709286
1648125361882916919,20012,23,5,0.326331198215,-1.58223080635,0.488291501999,0.566431701183,15.3999996185,0.10914086896822742,-0.5291741827257525,0.16330819464849497,15.3999996185,0.07654482448418919,0.5512247946362243,1.687712939577062
1648125361882918078,20013,23,6,1.67382097244,-0.0527410283685,0.209563031793,0.566431701183,15.3999996185,0.5598063452976588,-0.017639139922575247,0.0700879704993311,15.3999996185,0.07654482448418919,0.7918822057151249,1.687712928239761
1648125361882919329,20014,23,7,1.90706324577,0.120132349432,-0.207880198956,-0.161837622523,15.3999996185,0.6378137945719063,0.040178043288294316,-0.06952515015250835,15.3999996185,-0.021869948989594594,0.9028993012816567,1.922117629559868
1648125361987962999,20015,24,0,0.0126200383529,0.0439508594573,0.0103381248191,0.0,20.5,0.004220748613010033,0.014699284099431437,0.0034575668291304345,20.5,0.0,0.015865005223580926,0.04688091551835667
1648125361987969479,20016,24,1,0.032850060612,0.0146502861753,-0.0300676375628,0.0,20.5,0.010986642345150502,0.0048997612626421405,-0.01005606607451505,20.5,0.0,0.01629172429399039,0.046880915049070465
1648125361988143057,20017,24,2,0.250511407852,-1.58955609798,0.320757448673,0.0,20.5,0.08378307954916386,-0.5316241130367892,0.10727673868662206,20.5,0.0,0.54466816172752,1.6408320739699742
1648125361988151896,20018,24,3,0.655225932598,-0.175803437829,0.185153290629,0.404594063759,20.5,0.21913910789230767,-0.05879713639765886,0.06192417746789297,20.5,0.05467487348094594,0.31543779175019254,0.7032137744186762
1648125361988156729,20019,24,4,0.840063154697,-0.079111546278,0.0113608743995,0.485512852669,20.5,0.2809575768217391,-0.026458711129765885,0.0037996235449832775,20.5,0.06560984495527027,0.39821399189598455,0.8438565103743012
1648125361988158027,20020,24,5,0.765945076942,-0.124527432024,0.18163433671,0.566431701183,20.5,0.25616892205418057,-0.04164797057658863,0.060747269802675585,20.5,0.07654482448418919,0.36466366244246223,0.7969755168700353
1648125361988160525,20021,24,6,0.537781655788,-0.49224960804,-0.661604046822,-0.647350490093,20.5,0.17986008554782607,-0.16463197593311035,-0.22127225646220736,20.5,-0.08747979595851352,0.3029900794517584,0.9844992131479149
1648125361988161863,20022,24,7,0.941387295723,-0.0922968015075,0.272965192795,-0.647350490093,20.5,0.3148452494056856,-0.03086849548745819,0.09129270662040133,20.5,-0.08747979595851352,0.446327151493516,0.9844992313835441
1648125361988162998,20023,24,8,1.04698956013,-0.271030306816,-1.35616052151,-0.647350490093,20.5,0.35016373248494986,-0.09064558756387958,-0.45356539180936456,20.5,-0.08747979595851352,0.5034341085389269,1.7345938793666549
1648125362182821812,20024,26,0,0.0126200383529,0.0439508594573,0.0103381248191,0.0,13.3999996185,0.004220748613010033,0.014699284099431437,0.0034575668291304345,13.3999996185,0.0,0.015865005223580926,0.04688091551835667
1648125362182831290,20025,26,1,0.0328628644347,0.0146502861753,-0.0300536397845,0.0,13.3999996185,0.010990924560100333,0.0048997612626421405,-0.010051384543311037,13.3999996185,0.0,0.01629749998627157,0.04688091304750941
1648125362182866550,20026,26,2,0.260357409716,-1.58955609798,0.312818348408,0.0,13.3999996185,0.08707605676120402,-0.5316241130367892,0.10462152120668895,13.3999996185,0.0,0.5457001712335389,1.6408320720049745
1648125362182998228,20027,26,3,1.85525047779,-1.31852579117,0.560434341431,0.0,13.3999996185,0.6204851096287626,-0.44097852547491634,0.18743623459230768,13.3999996185,0.0,0.9820720963717819,2.3440459143062227
1648125362183002878,20028,26,4,0.861771285534,-0.22268435359,0.0342793576419,0.323675245047,13.3999996185,0.2882178212488294,-0.07447637243812709,0.011464668107658864,13.3999996185,0.04373989797932432,0.4143497979031569,0.8907374160015173
1648125362183005534,20029,26,5,0.727235496044,-0.298865824938,0.130298733711,0.485512852669,13.3999996185,0.24322257392775917,-0.09995512539732442,0.043578171809698994,13.3999996185,0.06560984495527027,0.3581975265538323,0.7969755379112485
1648125362183009170,20030,26,6,0.656460642815,-0.41899818182,0.676198899746,-0.647350490093,13.3999996185,0.21955205445317727,-0.14013317117725752,0.22615347817591971,13.3999996185,-0.08747979595851352,0.3406516033918179,1.031380145218653
1648125362183015381,20031,26,7,0.951702713966,-0.032230630517,-0.396192073822,-0.647350490093,13.3999996185,0.31829522206220734,-0.010779475089297658,-0.1325057103083612,13.3999996185,-0.08747979595851352,0.4502664698358746,1.0313801572035166
1648125362288089443,20032,27,0,0.0126405349001,0.0439508594573,0.0103130536154,0.0,16.5,0.004227603645518395,0.014699284099431437,0.003449181811170568,16.5,0.0,0.01586865521091812,0.046880915567745665
1648125362288094742,20033,27,1,0.0328872464597,0.0146502861753,-0.0300269592553,0.0,16.5,0.010999079083511706,0.0048997612626421405,-0.010042461289397992,16.5,0.0,0.0163084990664861,0.0468809145264753
1648125362288097904,20034,27,2,0.233919396996,-1.58955609798,0.333051085472,0.0,16.5,0.07823391203879598,-0.5316241130367892,0.11138832290033444,16.5,0.0,0.5430149975350045,1.6408320750309746
1648125362288252817,20035,27,3,1.84040558338,-1.0987714529,0.94876742363,0.0,16.5,0.615520262,-0.3674820912709029,0.31731351960869564,16.5,0.0,0.944866907701785,2.3440458701112834
1648125362288256391,20036,27,4,0.894912183285,-0.263705164194,0.0933802574873,0.242756426334,16.5,0.29930173354013373,-0.0881957070882943,0.031230855346923075,16.5,0.03280492247756756,0.43236736480574317,0.9376183135492312
1648125362288257712,20037,27,5,0.709459364414,-0.298865824938,0.206195726991,0.404594063759,16.5,0.23727737940267557,-0.09995512539732442,0.06896178160234114,16.5,0.05467487348094594,0.3501315990389861,0.7969755635525692
1648125362288259894,20038,27,6,1.16567885876,-0.879017174244,1.1768746376,-0.0809188112617,16.5,0.3898591500869565,-0.29398567700468226,0.3936035577257525,16.5,-0.010934974494824324,0.6248262895372997,1.8752366002726306
1648125362482866234,20039,29,0,0.0126097733155,0.0439508594573,0.0103506427258,0.0,12.6000003815,0.004217315490133779,0.014699284099431437,0.0034617534199999998,12.6000003815,0.0,0.01586317915559307,0.04688091546611253
1648125362482873581,20040,29,1,0.0327995419502,0.0146502861753,-0.0301227364689,0.0,12.6000003815,0.010969746471638795,0.0048997612626421405,-0.010074493802307691,12.6000003815,0.0,0.016268937756809817,0.046880913915322876
1648125362482878263,20041,29,2,0.295214831829,-1.58955609798,0.280159801245,0.0,12.6000003815,0.09873405746789296,-0.5316241130367892,0.09369893018227424,12.6000003815,0.0,0.5496553700004205,1.6408320754394297
1648125362482890094,20042,29,3,1.14217042923,-0.256380021572,-0.0579110644758,0.161837622523,12.6000003815,0.38199679907357853,-0.08574582661270903,-0.019368248988561872,12.6000003815,0.021869948989594594,0.5469876194087181,1.1720229077357753
1648125362482907806,20043,29,4,0.761869132519,-0.417533159256,0.196557059884,0.242756426334,12.6000003815,0.2548057299394649,-0.13964319707558526,0.06573814711839464,12.6000003815,0.03280492247756756,0.38646104914914486,0.8907374427707596
1648125362482935734,20044,29,5,0.893387556076,-0.36918720603,0.186542719603,0.242756426334,12.6000003815,0.2987918247745819,-0.12347398194983276,0.06238886943244147,12.6000003815,0.03280492247756756,0.4402260025518671,0.9844992151772235
1648125362586707556,20045,30,0,0.0126097733155,0.0439508594573,0.0103506427258,0.0,43.0,0.004217315490133779,0.014699284099431437,0.0034617534199999998,43.0,0.0,0.01586317915559307,0.04688091546611253
1648125362586808452,20046,30,1,0.0327995419502,0.0146502861753,-0.0301227364689,0.0,43.0,0.010969746471638795,0.0048997612626421405,-0.010074493802307691,43.0,0.0,0.016268937756809817,0.046880913915322876
1648125362586826582,20047,30,2,0.277769356966,-1.58955609798,0.297465115786,0.0,43.0,0.092899450490301,-0.5316241130367892,0.0994866607979933,43.0,0.0,0.5476173968793839,1.6408320753216301
1648125362586831240,20048,30,3,1.1236025095,-0.329631447792,-0.0499821640551,0.161837622523,43.0,0.37578679247491636,-0.11024463136856186,-0.01671644282779264,43.0,0.021869948989594594,0.5427571331108987,1.1720229125114314
1648125362586833818,20049,30,4,0.846029222012,-0.430718421936,0.260681599379,0.242756426334,43.0,0.28295291706086956,-0.14405298392508362,0.08718448139765884,43.0,0.03280492247756756,0.42529515483277147,0.9844992126701075
1648125362586949946,20050,30,5,1.37945866585,-1.19985842705,0.0178397782147,-0.161837622523,43.0,0.4613574133277592,-0.40129044382943135,0.0059664810082608695,43.0,-0.021869948989594594,0.7659865181410074,1.8283557403958104
1648125362687625470,20051,31,0,0.0126303331926,0.0439508594573,0.0103255445138,0.0,22.7999992371,0.004224191703210702,0.014699284099431437,0.003453359369163879,22.7999992371,0.0,0.015866837874218862,0.04688091544645748
1648125362687627649,20052,31,1,0.0327621363103,0.0146502861753,-0.030163416639,0.0,22.7999992371,0.0109572362241806,0.0048997612626421405,-0.010088099210367893,22.7999992371,0.0,0.016252067923063808,0.04688091470919446
1648125362687691650,20053,31,2,0.27677989006,-1.58955609798,0.298386007547,0.0,22.7999992371,0.09256852510367891,-0.5316241130367892,0.0997946513535117,22.7999992371,0.0,0.5475053070445014,1.640832077229985
1648125362687699810,20054,31,3,1.69386613369,-1.50751447678,0.367674201727,0.0,22.7999992371,0.5665104126053512,-0.5041854437391304,0.1229679604438127,22.7999992371,0.0,0.9466102983060106,2.297164925550356
1648125362687703817,20055,31,4,1.41422820091,1.72287368774,-0.555546104908,0.0,22.7999992371,0.47298602037123744,0.5762119356989966,-0.18580137287892978,22.7999992371,0.0,0.8828656442376869,2.2971649098039113
1648125362687708863,20056,31,5,1.15762960911,-0.380907416344,0.0230159591883,0.0809188112617,22.7999992371,0.38716709334782606,-0.12739378473043478,0.007697645213478261,22.7999992371,0.010934974494824324,0.5621618029809148,1.2189038133057877
1648125362687727945,20057,31,6,0.897875010967,-0.483459472656,0.154377490282,0.242756426334,22.7999992371,0.3002926458083612,-0.16169213132307692,0.05163126765284281,22.7999992371,0.03280492247756756,0.4544179701386939,1.031380146466654
1648125362687734094,20058,31,7,1.02121090889,-0.902457654476,-1.54844391346,0.485512852669,22.7999992371,0.3415421099966555,-0.30182530250033446,-0.517874218548495,22.7999992371,0.06560984495527027,0.569561707834501,2.0627603088312476
1648125362687739515,20059,31,8,1.14487969875,-1.30094540119,0.0748836174607,-0.161837622523,22.7999992371,0.38290290928093645,-0.43509879638461535,0.025044688113946487,22.7999992371,-0.021869948989594594,0.6946511631653338,1.7345939056883894
1648125362687744166,20060,31,9,1.42363488674,-1.14272224903,0.101656444371,-0.161837622523,22.7999992371,0.4761320691438127,-0.3821813541906354,0.0339988108264214,22.7999992371,-0.021869948989594594,0.774251949965465,1.8283556715949847
1648125362882748827,20061,33,0,0.0126097733155,0.0439508594573,0.0103506427258,0.0,19.8999996185,0.004217315490133779,0.014699284099431437,0.0034617534199999998,19.8999996185,0.0,0.01586317915559307,0.04688091546611253
1648125362882750816,20062,33,1,0.0327866487205,0.0146502861753,-0.0301367696375,0.0,19.8999996185,0.010965434354682274,0.0048997612626421405,-0.010079187169732442,19.8999996185,0.0,0.016263122750707536,0.04688091406450383
1648125362882756345,20063,33,2,0.286656886339,-1.58955609798,0.288910269737,0.0,19.8999996185,0.09587186834080266,-0.5316241130367892,0.09662550827324415,19.8999996185,0.0,0.5486410737818171,1.640832076438805
1648125362882758694,20064,33,3,2.41759872437,-0.902457654476,0.482857435942,0.0,19.8999996185,0.8085614462775919,-0.30182530250033446,0.161490781251505,19.8999996185,0.0,1.1826418469014364,2.625331353113785
1648125362882760046,20065,33,4,0.853014230728,-0.640217483044,0.158540442586,0.161837622523,19.8999996185,0.2852890403772575,-0.21411955954648826,0.053023559393311034,19.8999996185,0.021869948989594594,0.4567568925578847,1.0782609959351404
1648125362882761355,20066,33,5,0.840484976768,-0.712003946304,0.62357544899,0.161837622523,19.8999996185,0.2810986544374582,-0.23812841013511704,0.20855366186956517,19.8999996185,0.021869948989594594,0.46339836724634403,1.2657847195744838
1648125362882764358,20067,33,6,1.31618404388,-1.25699448586,0.174668550491,-0.161837622523,19.8999996185,0.4401953324013378,-0.4203994935986622,0.05841757541505016,19.8999996185,-0.021869948989594594,0.7511854601587149,1.8283557305342368
1648125362882953726,20068,33,7,0.999509572983,-0.857041716576,1.26859951019,-0.161837622523,19.8999996185,0.3342841381214047,-0.28663602561070234,0.424280772638796,19.8999996185,-0.021869948989594594,0.5528580117688808,1.8283557114769828
1648125362987816997,20069,34,0,0.0126303331926,0.0439508594573,0.0103255445138,0.0,15.1999998093,0.004224191703210702,0.014699284099431437,0.003453359369163879,15.1999998093,0.0,0.015866837874218862,0.04688091544645748
1648125362987822547,20070,34,1,0.0327866487205,0.0146502861753,-0.0301367696375,0.0,15.1999998093,0.010965434354682274,0.0048997612626421405,-0.010079187169732442,15.1999998093,0.0,0.016263122750707536,0.04688091406450383
1648125362987826660,20071,34,2,2.42996954918,-0.820416092873,0.560830295086,0.0,15.1999998093,0.8126988458795986,-0.2743866531347826,0.18756866056387958,15.1999998093,0.0,1.1816289026621558,2.6253314448414513
1648125362988009402,20072,34,3,0.809934020042,-0.640217483044,0.311087161303,0.161837622523,15.1999998093,0.2708809431578595,-0.21411955954648826,0.1040425288638796,15.1999998093,0.021869948989594594,0.43886234346610914,1.0782609908292835
1648125362988081913,20073,34,4,0.783157944679,-0.779395282269,0.708729743958,0.161837622523,15.1999998093,0.2619257340063545,-0.2606673184846154,0.2370333591832776,15.1999998093,0.021869948989594594,0.4529432979915864,1.3126656932775314
1648125362988083828,20074,34,5,1.22224986553,-0.527410328388,0.453852385283,0.161837622523,15.1999998093,0.4087792192408027,-0.1763914141765886,0.15179009541237456,15.1999998093,0.021869948989594594,0.6044127986413402,1.4064275224502363
1648125362988085075,20075,34,6,0.661117613316,-0.707608819008,0.177347004414,0.242756426334,15.1999998093,0.221109569670903,-0.23665846789565215,0.05931337940267558,15.1999998093,0.03280492247756756,0.39215572675510074,0.9844992124675165
1648125362988287831,20076,34,7,1.28544330597,-0.454158842564,-0.50346827507,0.323675245047,15.1999998093,0.42991414915384607,-0.15189258948628762,-0.16838403848494982,15.1999998093,0.04373989797932432,0.6266767189119129,1.4533083124871047
1648125362988308076,20077,34,8,1.03481137753,-1.44744825363,0.0878168642521,-0.0809188112617,15.1999998093,0.34609076171571906,-0.484096405896321,0.029370188713076922,15.1999998093,-0.010934974494824324,0.688409006980348,1.7814749045802314
1648125363182896806,20078,36,0,0.0126303331926,0.0439508594573,0.0103255445138,0.0,11.8999996185,0.004224191703210702,0.014699284099431437,0.003453359369163879,11.8999996185,0.0,0.015866837874218862,0.04688091544645748
1648125363182907134,20079,36,1,0.0328872464597,0.0146502861753,-0.0300269592553,0.0,11.8999996185,0.010999079083511706,0.0048997612626421405,-0.010042461289397992,11.8999996185,0.0,0.0163084990664861,0.0468809145264753
1648125363182910374,20080,36,2,2.42285656929,-0.902457654476,0.455742686987,0.0,11.8999996185,0.8103199228394647,-0.30182530250033446,0.15242230334013376,11.8999996185,0.0,1.1850465256396183,2.6253314400692656
1648125363182940687,20081,36,3,0.823121070862,-0.807230770588,0.72056722641,0.161837622523,11.8999996185,0.2752913280474916,-0.2699768463505016,0.2409923834147157,11.8999996185,0.021869948989594594,0.473770121643045,1.3595465942943266
1648125363183109430,20082,36,4,0.83836710453,-0.668053030968,0.341745883226,0.242756426334,11.8999996185,0.28039033596321067,-0.22342910734715715,0.11429628201538461,11.8999996185,0.03280492247756756,0.4551461820262494,1.1251419923038453
1648125363287900601,20083,37,0,0.0126303331926,0.0439508594573,0.0103255445138,0.0,38.9000015259,0.004224191703210702,0.014699284099431437,0.003453359369163879,38.9000015259,0.0,0.015866837874218862,0.04688091544645748
1648125363288112873,20084,37,1,0.0328628644347,0.0146502861753,-0.0300536397845,0.0,38.9000015259,0.010990924560100333,0.0048997612626421405,-0.010051384543311037,38.9000015259,0.0,0.01629749998627157,0.04688091304750941
1648125363288118562,20085,37,2,0.715317428112,-0.709073901176,0.221991315484,0.0,38.9000015259,0.23923659803076924,-0.23714846193177255,0.07424458711839464,38.9000015259,0.0,0.4131678746844642,1.0313801260641176
1648125363288121752,20086,37,3,2.37614679337,-0.984499275684,0.526358246803,0.0,38.9000015259,0.7946979242040132,-0.32926397180066885,0.1760395474257525,38.9000015259,0.0,1.171112438920485,2.6253314860113153
1648125363288123330,20087,37,4,0.756828129292,-0.73837441206,0.384654313326,0.161837622523,38.9000015259,0.25311977568294314,-0.24694796389966553,0.12864692753377924,38.9000015259,0.021869948989594594,0.43488221228024193,1.1251420045633687
1648125363288125749,20088,37,5,1.11304426193,-1.30094540119,0.278369307518,0.161837622523,38.9000015259,0.3722556059966555,-0.43509879638461535,0.09310010284882941,38.9000015259,0.021869948989594594,0.6829783561777163,1.7345938825156624
1648125363288130550,20089,37,6,0.867972373962,-0.732514321804,0.289282858372,0.323675245047,38.9000015259,0.2902917638668896,-0.24498806749297658,0.09675011985685619,38.9000015259,0.04373989797932432,0.4780771585757296,1.172022971514244
1648125363288141794,20090,37,7,0.805714011192,-0.805765748024,0.274234056473,0.323675245047,38.9000015259,0.2694695689605351,-0.26948687224882945,0.09171707574347825,38.9000015259,0.04373989797932432,0.46674497480531063,1.1720229631920251
1648125363482824071,20091,39,0,0.0126303331926,0.0439508594573,0.0103255445138,0.0,31.2999992371,0.004224191703210702,0.014699284099431437,0.003453359369163879,31.2999992371,0.0,0.015866837874218862,0.04688091544645748
1648125363482831481,20092,39,1,0.0329001024365,0.0146502861753,-0.0300128757954,0.0,31.2999992371,0.011003378741304349,0.0048997612626421405,-0.010037751102140467,31.2999992371,0.0,0.016314298877980183,0.04688091657444943
1648125363482836387,20093,39,2,0.26233291626,-1.58955609798,0.311163544655,0.0,31.2999992371,0.0877367612909699,-0.5316241130367892,0.10406807513545151,31.2999992371,0.0,0.5459117841976029,1.6408320752292551
1648125363482840768,20094,39,3,2.41374921799,-0.902457654476,0.50174677372,0.0,31.2999992371,0.8072739859498327,-0.30182530250033446,0.1678082855250836,31.2999992371,0.0,1.1808814885550876,2.6253313943973033
1648125363483007282,20095,39,4,0.804615676403,-0.673913121223,0.247146815062,0.242756426334,31.2999992371,0.26910223291070234,-0.22538900375351167,0.08265779767959866,31.2999992371,0.03280492247756756,0.4423033195987255,1.0782610212120596
1648125363483015146,20096,39,5,1.15703558922,-1.33610606194,0.223028808832,0.323675245047,31.2999992371,0.38696842448829427,-0.4468582146956522,0.07459157486020065,31.2999992371,0.04373989797932432,0.7065206204654546,1.7814748421023263
1648125363483137084,20097,39,6,0.978468775749,-0.723724126816,-0.0674443170428,0.404594063759,31.2999992371,0.327247082190301,-0.24204820294849494,-0.022556627773511705,31.2999992371,0.05467487348094594,0.5222725707470449,1.218903807834194
1648125363483158923,20098,39,7,0.808713316917,-0.953733623028,0.74059432745,0.485512852669,31.2999992371,0.2704726812431438,-0.31897445586220735,0.24769041051839463,31.2999992371,0.06560984495527027,0.49805185080501585,1.453308298505217
1648125363483172353,20099,39,8,1.14450454712,-0.380907416344,0.175343498588,-0.647350490093,31.2999992371,0.38277744050836116,-0.12739378473043478,0.05864331056454849,31.2999992371,-0.08747979595851352,0.5561171767822033,1.2189037946865608
1648125363587849025,20100,40,0,0.0126097733155,0.0439508594573,0.0103506427258,0.0,29.2999992371,0.004217315490133779,0.014699284099431437,0.0034617534199999998,29.2999992371,0.0,0.01586317915559307,0.04688091546611253
1648125363587870620,20101,40,1,0.0328872464597,0.0146502861753,-0.0300269592553,0.0,29.2999992371,0.010999079083511706,0.0048997612626421405,-0.010042461289397992,29.2999992371,0.0,0.0163084990664861,0.0468809145264753
1648125363588023206,20102,40,2,0.267266213894,-1.58955609798,0.306936591864,0.0,29.2999992371,0.08938669361003344,-0.5316241130367892,0.10265437854983278,29.2999992371,0.0,0.5464468497038123,1.640832072193777
1648125363588035460,20103,40,3,2.41660380363,-0.902457654476,0.487812638283,0.0,29.2999992371,0.8082286968662208,-0.30182530250033446,0.16314803955953175,29.2999992371,0.0,1.1821868575253056,2.625331394683332
1648125363588050104,20104,40,4,0.82936501503,-0.612381994724,0.0297817103565,0.242756426334,29.2999992371,0.2773796036889632,-0.20481003168026754,0.00996043824632107,29.2999992371,0.03280492247756756,0.44252235894038705,1.0313801364626023
1648125363588175992,20105,40,5,0.935654222965,-0.93761831522,0.704266250134,0.404594063759,29.2999992371,0.3129278337675585,-0.31358472080936456,0.2355405518842809,29.2999992371,0.05467487348094594,0.5423864262848035,1.500189281746152
1648125363588180937,20106,40,6,1.23092603683,-1.2804350853,0.137694120407,0.404594063759,29.2999992371,0.41168094877257516,-0.42823915896321063,0.046051545286622066,29.2999992371,0.05467487348094594,0.7227386695300684,1.7814748346827372
1648125363588186295,20107,40,7,0.919000387192,-0.79111546278,0.363022834063,0.485512852669,29.2999992371,0.3073579890274247,-0.26458711129765883,0.12141231908461537,29.2999992371,0.06560984495527027,0.5088656073098327,1.2657847230709462
1648125363588193050,20108,40,8,0.855655193329,-0.316446185112,-0.877454817295,0.485512852669,29.2999992371,0.286172305461204,-0.10583484451906354,-0.29346314959698994,29.2999992371,0.06560984495527027,0.41831828927305537,1.265784718795826
1648125363782805721,20109,42,0,0.0126303331926,0.0439508594573,0.0103255445138,0.0,27.6000003815,0.004224191703210702,0.014699284099431437,0.003453359369163879,27.6000003815,0.0,0.015866837874218862,0.04688091544645748
1648125363782812294,20110,42,1,0.0327995419502,0.0146502861753,-0.0301227364689,0.0,27.6000003815,0.010969746471638795,0.0048997612626421405,-0.010074493802307691,27.6000003815,0.0,0.016268937756809817,0.046880913915322876
1648125363782817947,20111,42,2,2.41394734383,-0.902457654476,0.500793218613,0.0,27.6000003815,0.8073402487725752,-0.30182530250033446,0.16748937077357856,27.6000003815,0.0,1.1809720859553563,2.6253314923481574
1648125363782821129,20112,42,3,0.994421303272,-0.820416092873,0.247254624963,0.161837622523,27.6000003815,0.33258237567625415,-0.2743866531347826,0.08269385450267558,27.6000003815,0.021869948989594594,0.5445274177113855,1.3126656632257032
1648125363782825958,20113,42,4,1.00985491276,-0.966918945312,0.662334680557,0.161837622523,27.6000003815,0.3377441179799331,-0.32338426264615383,0.221516615570903,27.6000003815,0.021869948989594594,0.5768184807955468,1.5470702701226344
1648125363782828954,20114,42,5,1.04823613167,-0.807230770588,0.312964051962,0.323675245047,27.6000003815,0.3505806460434782,-0.2699768463505016,0.10467025149230769,27.6000003815,0.04373989797932432,0.5645361603350909,1.3595466165391517
1648125363782859042,20115,42,6,1.12149906158,-0.722259104252,0.262580156326,0.566431701183,27.6000003815,0.37508329818729097,-0.24155822884682274,0.08781945027625418,27.6000003815,0.07654482448418919,0.582859622106152,1.359546504278507
1648125363782938392,20116,42,7,0.126124575734,-0.68563336134,-0.999862968922,-0.485512852669,27.6000003815,0.04218213235250835,-0.2293088165016722,-0.3344023307431438,27.6000003815,-0.06560984495527027,0.2369413385313053,1.2189037990784937
1648125363782942167,20117,42,8,1.16763520241,-0.266635209322,0.226406797767,-0.485512852669,27.6000003815,0.3905134456220736,-0.0891756552916388,0.0757213370458194,27.6000003815,-0.06560984495527027,0.5594227381148729,1.2189037446953452
1648125363887894531,20118,43,0,0.0126097733155,0.0439508594573,0.0103506427258,0.0,25.1000003815,0.004217315490133779,0.014699284099431437,0.0034617534199999998,25.1000003815,0.0,0.01586317915559307,0.04688091546611253
1648125363888084004,20119,43,1,0.0328872464597,0.0146502861753,-0.0300269592553,0.0,25.1000003815,0.010999079083511706,0.0048997612626421405,-0.010042461289397992,25.1000003815,0.0,0.0163084990664861,0.0468809145264753
1648125363888087180,20120,43,2,2.40881824493,-0.902457654476,0.524909555912,0.0,25.1000003815,0.8056248310802675,-0.30182530250033446,0.17555503542207354,25.1000003815,0.0,1.1786268494038465,2.625331445192721
1648125363888088327,20121,43,3,0.976263940334,-0.820416092873,0.311315506697,0.0809188112617,25.1000003815,0.32650967904147155,-0.2743866531347826,0.10411889856086955,25.1000003815,0.010934974494824324,0.5371267787348133,1.3126656814861417
1648125363888089381,20122,43,4,1.16141116619,-0.747164607048,0.266284495592,0.404594063759,25.1000003815,0.3884318281571906,-0.24988782844414714,0.08905835972976589,25.1000003815,0.05467487348094594,0.6034919196274345,1.4064274882014693
1648125363888090678,20123,43,5,1.22411477566,-0.237334638834,0.217775642872,-0.566431701183,25.1000003815,0.4094029350033444,-0.07937613338929765,0.07283466316789297,25.1000003815,-0.07654482448418919,0.5843989193440906,1.2657847152687183
1648125364082940768,20124,45,0,0.0126097733155,0.0439508594573,0.0103506427258,0.0,29.5,0.004217315490133779,0.014699284099431437,0.0034617534199999998,29.5,0.0,0.01586317915559307,0.04688091546611253
1648125364082943571,20125,45,1,0.0328239798546,0.0146502861753,-0.0300961062312,0.0,29.5,0.010977919683812707,0.0048997612626421405,-0.010065587368294314,29.5,0.0,0.01627996012278204,0.046880914547319234
1648125364082948803,20126,45,2,2.42800474167,-0.902457654476,0.427467793226,0.0,29.5,0.8120417196220736,-0.30182530250033446,0.14296581713244144,29.5,0.0,1.1874013736066533,2.6253315139120685
1648125364082957799,20127,45,3,1.13421738148,-0.79111546278,0.256369948387,0.0809188112617,29.5,0.37933691688294313,-0.26458711129765883,0.08574245765451505,29.5,0.010934974494824324,0.5981632991795414,1.4064274934517296
1648125364083122246,20128,45,4,1.22420918941,-0.681238293648,0.386434048414,0.404594063759,29.5,0.4094345115083612,-0.2278388941966555,0.12924215666020064,29.5,0.05467487348094594,0.6222409502250197,1.4533083038164893
1648125364083126489,20129,45,5,1.06096303463,-1.17934799194,0.41931566596,-0.404594063759,29.5,0.3548371353277592,-0.39443076653511705,0.1402393531638796,29.5,-0.05467487348094594,0.6382745606748721,1.6408320677825894
1648125364083128290,20130,45,6,0.997645497322,-0.820416092873,0.233906075358,-0.0809188112617,29.5,0.33366070144548493,-0.2743866531347826,0.07822945664147157,29.5,-0.010934974494824324,0.5458451820770186,1.3126656679677586
1648125364187951234,20131,46,0,0.0126303331926,0.0439508594573,0.0103255445138,0.0,28.3999996185,0.004224191703210702,0.014699284099431437,0.003453359369163879,28.3999996185,0.0,0.015866837874218862,0.04688091544645748
1648125364188120967,20132,46,1,0.0327995419502,0.0146502861753,-0.0301227364689,0.0,28.3999996185,0.010969746471638795,0.0048997612626421405,-0.010074493802307691,28.3999996185,0.0,0.016268937756809817,0.046880913915322876
1648125364188124883,20133,46,2,2.41517758369,-0.902457654476,0.494825363159,0.0,28.3999996185,0.8077517002307691,-0.30182530250033446,0.16549343249464882,28.3999996185,0.0,1.181534651070723,2.625331354116357
1648125364188125967,20134,46,3,1.2636269331,-0.750094652176,0.301948398352,0.161837622523,28.3999996185,0.4226177033779264,-0.2508677766474916,0.10098608640535116,28.3999996185,0.021869948989594594,0.6481867692084757,1.5001892709075362
1648125364188128853,20135,46,4,1.03314459324,-1.14565241337,0.400965183973,-0.323675245047,28.3999996185,0.34553330877591976,-0.383161342264214,0.13410206821839465,28.3999996185,-0.04373989797932432,0.620966302751594,1.593951154069676
1648125364188136561,20136,46,5,1.00724899769,-0.779395282269,0.317936629057,-0.0809188112617,28.3999996185,0.33687257447826086,-0.2606673184846154,0.10633332075484948,28.3999996185,-0.010934974494824324,0.5430595858625301,1.3126657036225227
1648125364188140065,20137,46,6,1.16121184826,-0.79111546278,-0.0613327622414,-0.0809188112617,28.3999996185,0.38836516664214044,-0.26458711129765883,-0.020512629512173912,28.3999996185,-0.010934974494824324,0.6096403405179112,1.4064275095834762
