%time,field.header.seq,field.header.frame_id,field.point_id,field.x,field.y,field.z,field.velocity,field.intensity,normalized_x,normalized_y,normalized_z,normalized_intensity,normalized_velocity,normalized_range,range
1648218233140269935,25586,0,0,0.00497833499685,0.0454158857465,0.0105087459087,0.0,42.9000015259,0.0016649949822240802,0.015189259446989964,0.0035146307386956523,42.9000015259,0.0,0.015370687009032375,0.04688091549931189
1648218233140274533,25587,0,1,0.0334662795067,0.0146502861753,-0.0293802209198,0.0,42.9000015259,0.0111927356209699,0.0048997612626421405,-0.009826160842742473,42.9000015259,0.0,0.01656992220237456,0.04688091435045831
1648218233140420462,25588,0,2,2.09583258629,-1.21890377998,0.254295140505,0.0,42.9000015259,0.7009473532742474,-0.407660127083612,0.08504854197491639,42.9000015259,0.0,1.0718400829126387,2.4378077596662577
1648218233140432142,25589,0,3,0.828221917152,0.580151319504,0.20302195847,0.161837622523,42.9000015259,0.2769972967063545,0.19403054164013378,0.06790032055852843,42.9000015259,0.021869948989594594,0.43715312632351155,1.031380149699499
1648218233140435038,25590,0,4,0.669295191765,0.474669247866,0.197045013309,0.404594063759,42.9000015259,0.22384454574080265,0.15875225681137123,0.06590134224381271,42.9000015259,0.05467487348094594,0.3541398598837981,0.8438564367588638
1648218233140440214,25591,0,5,2.25139713287,1.69796824455,0.475609719753,0.566431701183,42.9000015259,0.7529756297224081,0.5678823560367893,0.15906679590401335,42.9000015259,0.07654482448418919,1.2068284750574991,2.859735969441758
1648218233140485635,25592,0,6,1.38224542141,-0.178733497858,-2.49710679054,0.566431701183,42.9000015259,0.4622894385986622,-0.059777089584615375,-0.8351527727558529,42.9000015259,0.07654482448418919,0.6565031230077581,2.859736070274046
1648218233140490161,25593,0,7,0.700350761414,2.02173948288,0.26956525445,-0.566431701183,42.9000015259,0.2342310238842809,0.6761670511304347,0.09015560349498328,42.9000015259,-0.07654482448418919,0.7529476914993398,2.1565220036103856
1648218233140496251,25594,0,8,1.16559636593,0.820416092873,-2.20469212532,-0.566431701183,42.9000015259,0.38983156051170564,0.2743866531347826,-0.7373552258595316,42.9000015259,-0.07654482448418919,0.6158127366013882,2.6253313735911967
1648218233140521241,25595,0,9,1.09606075287,0.533270418644,0.000199074100237,-0.0809188112617,42.9000015259,0.366575502632107,0.1783513105832776,6.657996663444816e-05,42.9000015259,-0.010934974494824324,0.5482375290389527,1.2189038325533297
1648218233335051923,25596,2,0,0.00485466001555,0.0454158857465,0.0105664487928,0.0,21.3999996185,0.0016236321122240801,0.015189259446989964,0.003533929362140468,21.3999996185,0.0,0.015361834689244132,0.0468809155424314
1648218233335055822,25597,2,1,0.0334805957973,0.0146502861753,-0.029363906011,0.0,21.3999996185,0.011197523678026755,0.0048997612626421405,-0.009820704351505017,21.3999996185,0.0,0.016576390845742875,0.046880914626137686
1648218233335063120,25598,2,2,0.794276297092,0.612381994724,0.240537852049,0.0,21.3999996185,0.26564424651906354,0.20481003168026754,0.08044744215685617,21.3999996185,0.0,0.427879516329345,1.0313801442012884
1648218233335214254,25599,2,3,2.07042860985,-1.19546329975,-0.0268828645349,0.0,21.3999996185,0.692451040083612,-0.39982050158862875,-0.008990924593612039,21.3999996185,0.0,1.0577491759941648,2.390926560549312
1648218233335217770,25600,2,4,0.629134595394,0.553780794144,0.0980317518115,-0.161837622523,21.3999996185,0.2104129081585284,0.18521096794113712,0.032786539067391304,21.3999996185,-0.021869948989594594,0.3505000520472879,0.8438564637706836
1648218233440063489,25601,3,0,0.00485466001555,0.0454158857465,0.0105664487928,0.0,29.7000007629,0.0016236321122240801,0.015189259446989964,0.003533929362140468,29.7000007629,0.0,0.015361834689244132,0.0468809155424314
1648218233440078113,25602,3,1,0.0334662795067,0.0146502861753,-0.0293802209198,0.0,29.7000007629,0.0111927356209699,0.0048997612626421405,-0.009826160842742473,29.7000007629,0.0,0.01656992220237456,0.04688091435045831
1648218233440083908,25603,3,2,2.09347724915,-1.21890377998,0.2730076015,0.0,29.7000007629,0.7001596151003344,-0.407660127083612,0.09130689013377925,29.7000007629,0.0,1.070809858214204,2.437807738119429
1648218233440088355,25604,3,3,0.64176774025,0.448298752308,0.149440512061,-0.161837622523,29.7000007629,0.2146380402173913,0.14993269307959864,0.049980104368227425,29.7000007629,-0.021869948989594594,0.3385539677375323,0.7969755770358053
1648218233440091079,25605,3,4,0.796679496765,0.612381994724,0.232454612851,-0.0809188112617,29.7000007629,0.266447992229097,0.20481003168026754,0.07774401767591972,29.7000007629,-0.010934974494824324,0.4288778546424449,1.0313801796930109
1648218233440095256,25606,3,5,1.05374360085,0.609451889992,0.0626047998667,-0.0809188112617,29.7000007629,0.3524226089799331,0.20383006354247488,0.020938060156086957,29.7000007629,-0.010934974494824324,0.5384701342174653,1.2189038286565084
1648218233635269997,25607,5,0,0.00493015442044,0.0454158857465,0.0105314357206,0.0,11.5,0.001648881077070234,0.015189259446989964,0.003522219304548495,11.5,0.0,0.015367212504570061,0.04688091551031885
1648218233635308125,25608,5,1,0.0333992727101,0.0146502861753,-0.0294563733041,0.0,11.5,0.011170325321103678,0.0048997612626421405,-0.009851629867591973,11.5,0.0,0.016539649209988357,0.046880915422081
1648218233635312010,25609,5,2,1.16973507404,1.46502864361,-0.043856523931,0.0,11.5,0.391215743826087,0.489976134986622,-0.01466773375618729,11.5,0.0,0.7390372989851226,1.8752366423276907
1648218233635318028,25610,5,3,0.778690993786,0.498109728098,0.157019674778,-0.323675245047,11.5,0.26043177049698996,0.1665918823070234,0.05251494139732441,11.5,-0.04373989797932432,0.404230465723442,0.9376183356231258
1648218233635322139,25611,5,4,0.689467012882,0.609451889992,0.799331068993,-0.323675245047,11.5,0.23059097420802674,0.20383006354247488,0.26733480568327755,11.5,-0.04373989797932432,0.3845661055997305,1.21890382144152
1648218233635326895,25612,5,5,0.854119539261,0.606521844864,0.255456060171,-0.242756426334,11.5,0.28565870878294314,0.20285011533913042,0.08543680942173912,11.5,-0.03280492247756756,0.4520508434901711,1.0782609769080687
1648218233635328425,25613,5,6,0.668794810772,0.304725944996,0.149991869926,-0.161837622523,11.5,0.22367719423812707,0.10191503177123744,0.05016450499197324,11.5,-0.021869948989594594,0.3323396577981839,0.7500946350382455
1648218233635329951,25614,5,7,1.05318927765,0.512760043144,0.0388242341578,-0.0809188112617,11.5,0.3522372166053512,0.17149165322541807,0.01298469369826087,11.5,-0.010934974494824324,0.5268315676283618,1.1720229680172252
1648218233736591222,25615,6,0,0.00488125951961,0.0454158857465,0.0105541869998,0.0,16.2000007629,0.0016325282674280934,0.015189259446989964,0.0035298284280267556,16.2000007629,0.0,0.015363720240744994,0.046880915475955375
1648218233736598221,25616,6,1,0.0334805957973,0.0146502861753,-0.029363906011,0.0,16.2000007629,0.011197523678026755,0.0048997612626421405,-0.009820704351505017,16.2000007629,0.0,0.016576390845742875,0.046880914626137686
1648218233736608220,25617,6,2,1.17016756535,1.46502864361,0.0301891658455,0.0,16.2000007629,0.3913603897491639,0.489976134986622,0.010096710985117056,16.2000007629,0.0,0.7391904505509141,1.8752366366219893
1648218233736611944,25618,6,3,1.24837422371,-1.54707026482,0.550559222698,-0.404594063759,16.2000007629,0.4175164627792642,-0.5174148042876254,0.18413351929698993,16.2000007629,-0.05467487348094594,0.7850847553477389,2.0627603022192367
1648218233736617651,25619,6,4,2.29147481918,0.949338555336,0.506698846817,-0.323675245047,16.2000007629,0.7663795381872909,0.3175045335571906,0.16946449726321067,16.2000007629,-0.04373989797932432,1.1293734200580867,2.531569525205487
1648218233736619884,25620,6,5,2.05063438416,-1.78440487385,-0.0653082802892,-0.323675245047,16.2000007629,0.6858308977123745,-0.5967909277090301,-0.02184223421043478,16.2000007629,-0.04373989797932432,1.1388096644785413,2.719093103002034
1648218233736674835,25621,6,6,0.681087851524,0.257845044136,0.179658710957,-0.242756426334,16.2000007629,0.2277885791050167,0.08623580071438126,0.060086525403678925,16.2000007629,-0.03280492247756756,0.3334844627058589,0.7500946478290622
1648218233736698071,25622,6,7,0.77151954174,0.523015201092,0.316940695047,-0.242756426334,16.2000007629,0.25803329155183946,0.1749214719371237,0.10600023245719063,16.2000007629,-0.03280492247756756,0.4046725595377121,0.9844992168797699
1648218233736763324,25623,6,8,1.05519425869,0.476134330034,0.183027341962,-0.161837622523,16.2000007629,0.3529077788260869,0.15924225084749163,0.061213157846822734,16.2000007629,-0.021869948989594594,0.523875839457118,1.1720229655236878
1648218233839941076,25624,7,0,0.00493015442044,0.0454158857465,0.0105314357206,0.0,20.2999992371,0.001648881077070234,0.015189259446989964,0.003522219304548495,20.2999992371,0.0,0.015367212504570061,0.04688091551031885
1648218233839944762,25625,7,1,0.0334805957973,0.0146502861753,-0.029363906011,0.0,20.2999992371,0.011197523678026755,0.0048997612626421405,-0.009820704351505017,20.2999992371,0.0,0.016576390845742875,0.046880914626137686
1648218233839949101,25626,7,2,2.0970594883,-1.21890377998,0.243969038129,0.0,20.2999992371,0.7013576883946488,-0.407660127083612,0.08159499602976589,20.2999992371,0.0,1.0723767963521018,2.437807583441355
1648218233839954329,25627,7,3,1.66677296162,-1.57930088043,0.0681404545903,-0.566431701183,20.2999992371,0.5574491510434783,-0.5281942743913043,0.022789449695752508,20.2999992371,-0.07654482448418919,0.9489406216923932,2.297164882646923
1648218233839960207,25628,7,4,1.6894299984,0.615312039852,-2.16318535805,-0.404594063759,20.2999992371,0.5650267553177257,0.20578997988361203,-0.723473363896321,20.2999992371,-0.05467487348094594,0.8251424024192743,2.812855047662883
1648218233840119298,25629,7,5,1.24389910698,-0.79111546278,-2.395622015,-0.404594063759,20.2999992371,0.4160197682207358,-0.26458711129765883,-0.8012113762541805,20.2999992371,-0.05467487348094594,0.6450978488304772,2.8128550447095413
1648218233840126845,25630,7,6,0.829220712185,0.523015201092,0.0899268016219,-0.242756426334,20.2999992371,0.277331341867893,0.1749214719371237,0.030075853385250834,20.2999992371,-0.03280492247756756,0.42944483663113503,0.9844992228233846
1648218233840130666,25631,7,7,0.800344944,0.439508587122,0.213092297316,-0.161837622523,20.2999992371,0.26767389431438127,0.14699283850234113,0.07126832686153846,20.2999992371,-0.021869948989594594,0.4060856091587443,0.9376183417125277
1648218233840138872,25632,7,8,0.935609102249,0.366257160902,0.603431105614,-0.161837622523,20.2999992371,0.3129127432270903,0.12249403374648829,0.20181642328227425,20.2999992371,-0.021869948989594594,0.4591661551674859,1.172022951714559
1648218233840157256,25633,7,9,0.707453727722,0.210964113474,0.132835924625,-0.0809188112617,20.2999992371,0.23660659790033442,0.07055655969030099,0.0444267306438127,20.2999992371,-0.010934974494824324,0.34197016310677175,0.750094671966548
