%time,field.header.seq,field.header.frame_id,field.point_id,field.x,field.y,field.z,field.velocity,field.intensity,normalized_x,normalized_y,normalized_z,normalized_intensity,normalized_velocity,normalized_range,range
1648125371987809449,20494,0,0,0.0125994505361,0.0439508594573,0.0103632062674,0.0,13.1000003815,0.004213863055551839,0.014699284099431437,0.003465955273377926,13.1000003815,0.0,0.01586134410249293,0.04688091557326548
1648125371987822985,20495,0,1,0.0327995419502,0.0146502861753,-0.0301227364689,0.0,13.1000003815,0.010969746471638795,0.0048997612626421405,-0.010074493802307691,13.1000003815,0.0,0.016268937756809817,0.046880913915322876
1648125371987827138,20496,0,2,0.599982380867,1.02845001221,0.260841190815,0.0,13.1000003815,0.20066300363444814,0.34396321478595315,0.08723785645986622,13.1000003815,0.0,0.4459170048126499,1.2189037746234812
1648125371987899459,20497,0,3,2.39730262756,-0.984499275684,0.419603139162,0.0,13.1000003815,0.8017734540334447,-0.32926397180066885,0.14033549804749162,13.1000003815,0.0,1.180718470386312,2.625331504081533
1648125372182992104,20498,2,0,0.0126097733155,0.0439508594573,0.0103506427258,0.0,13.0,0.004217315490133779,0.014699284099431437,0.0034617534199999998,13.0,0.0,0.01586317915559307,0.04688091546611253
1648125372183038516,20499,2,1,0.0327995419502,0.0146502861753,-0.0301227364689,0.0,13.0,0.010969746471638795,0.0048997612626421405,-0.010074493802307691,13.0,0.0,0.016268937756809817,0.046880913915322876
1648125372183060724,20500,2,2,1.91278290749,-1.17202293873,0.679834663868,0.0,13.0,0.6397267249130434,-0.3919809159632107,0.22736945279866216,13.0,0.0,0.9859764721408392,2.344045944577819
1648125372183066717,20501,2,3,2.42210173607,-0.902457654476,0.45973688364,0.0,13.0,0.810067470257525,-0.30182530250033446,0.15375815506354512,13.0,0.0,1.1847012813229632,2.625331339121721
1648125372183131952,20502,2,4,0.957273066044,1.20864868164,0.12736953795,0.161837622523,13.0,0.3201582160682274,0.40423032830769223,0.04259850767558528,13.0,0.021869948989594594,0.6069635285218744,1.5470702497950721
1648125372183166449,20503,2,5,0.677792072296,1.06800591946,0.0466070175171,-0.0809188112617,13.0,0.22668631180468227,0.35719261520401335,0.015587631276622074,13.0,-0.010934974494824324,0.479958260972245,1.2657847176162087
1648125372183204784,20504,2,6,0.603686630726,1.14272236824,-0.554785013199,-0.0809188112617,13.0,0.20190188318595317,0.3821813940602007,-0.18554682715685616,13.0,-0.010934974494824324,0.47706536117587384,1.4064275203022583
1648125372288048957,20505,3,0,0.012624473311,0.0439508594573,0.0103327091783,0.0,11.1999998093,0.004222231876588629,0.014699284099431437,0.003455755578026756,11.1999998093,0.0,0.015865794561734377,0.046880915652094644
1648125372288107847,20506,3,1,0.0328516922891,0.0146502861753,-0.0300658531487,0.0,11.1999998093,0.010987188056555184,0.0048997612626421405,-0.010055469280501671,11.1999998093,0.0,0.016292460317923328,0.04688091399317096
1648125372288113895,20507,3,2,0.484287053347,-1.53828001022,0.302474111319,0.0,11.1999998093,0.16196891416287623,-0.51447491980602,0.10116191014013376,11.1999998093,0.0,0.5631627663647633,1.6408320840049972
1648125372288116125,20508,3,3,2.39377808571,-0.984499275684,0.43926435709,0.0,11.1999998093,0.8005946774949833,-0.32926397180066885,0.1469111562173913,11.1999998093,0.0,1.1791176524811018,2.6253315072305523
1648125372288123287,20509,3,4,0.737865567207,1.02845013142,0.00746363541111,-0.161837622523,11.1999998093,0.24677778167458192,0.3439632546555184,0.0024961991341505016,11.1999998093,-0.021869948989594594,0.49000945665331014,1.2657847265396567
1648125372288134785,20510,3,5,0.640604794025,1.02845001221,0.132825165987,-0.0809188112617,11.1999998093,0.2142490949916388,0.34396321478595315,0.044423132437123744,11.1999998093,-0.010934974494824324,0.45838416479560057,1.2189037921271866
1648125372483006009,20511,5,0,0.0126097733155,0.0439508594573,0.0103506427258,0.0,20.2000007629,0.004217315490133779,0.014699284099431437,0.0034617534199999998,20.2000007629,0.0,0.01586317915559307,0.04688091546611253
1648125372483016917,20512,5,1,0.0327995419502,0.0146502861753,-0.0301227364689,0.0,20.2000007629,0.010969746471638795,0.0048997612626421405,-0.010074493802307691,20.2000007629,0.0,0.016268937756809817,0.046880913915322876
1648125372483031555,20513,5,2,0.480197966099,-1.53828001022,0.308924674988,0.0,20.2000007629,0.16060132645451505,-0.51447491980602,0.10331928929364549,20.2000007629,0.0,0.5623788893862484,1.640832085042373
1648125372483034594,20514,5,3,2.39383482933,-0.984499275684,0.438954472542,0.0,20.2000007629,0.8006136552943143,-0.32926397180066885,0.14680751590033445,20.2000007629,0.0,1.1791434235127625,2.625331415821693
1648125372483039551,20515,5,4,0.984129726887,1.16030263901,0.280379712582,-0.323675245047,20.2000007629,0.32914037688528425,0.3880610832809364,0.0937724791244147,20.2000007629,-0.04373989797932432,0.606018299847082,1.5470702364998872
1648125372483154429,20516,5,5,0.574931681156,0.988894343376,0.255302518606,-0.242756426334,20.2000007629,0.19228484319598663,0.3307338941056856,0.0853854577277592,20.2000007629,-0.03280492247756756,0.428172664419532,1.172022967507242
1648125372483158501,20517,5,6,0.847141683102,1.06214570999,-0.0506392754614,-0.161837622523,20.2000007629,0.28332497762608694,0.3552326789264214,-0.016936212528896318,20.2000007629,-0.021869948989594594,0.535477676538329,1.3595465702646254
1648125372588122588,20518,6,0,0.0126097733155,0.0439508594573,0.0103506427258,0.0,20.2000007629,0.004217315490133779,0.014699284099431437,0.0034617534199999998,20.2000007629,0.0,0.01586317915559307,0.04688091546611253
1648125372588126837,20519,6,1,0.0328628644347,0.0146502861753,-0.0300536397845,0.0,20.2000007629,0.010990924560100333,0.0048997612626421405,-0.010051384543311037,20.2000007629,0.0,0.01629749998627157,0.04688091304750941
1648125372588129745,20520,6,2,0.484580665827,-1.53828001022,0.302003502846,0.0,20.2000007629,0.16206711231672238,-0.51447491980602,0.10100451600200669,20.2000007629,0.0,0.5632192653831835,1.6408320838120627
1648125372588132465,20521,6,3,2.39289736748,-0.984499275684,0.444036662579,0.0,20.2000007629,0.8003001229030099,-0.32926397180066885,0.14850724500969897,20.2000007629,0.0,1.1787176661792667,2.6253314443759916
1648125372588137225,20522,6,4,1.01877903938,1.0782610178,0.223630040884,-0.404594063759,20.2000007629,0.3407287757123746,0.3606224139799331,0.07479265581404682,20.2000007629,-0.05467487348094594,0.6018643723145786,1.5001893043122616
1648125372588142921,20523,6,5,0.585795640945,0.914177834988,0.295070827007,-0.242756426334,20.2000007629,0.19591827456354516,0.30574509531371236,0.09868589532006689,20.2000007629,-0.03280492247756756,0.41261120188902334,1.1251419643245493
1648125372588147072,20524,6,6,0.60266149044,1.10756158829,0.110984131694,-0.242756426334,20.2000007629,0.20155902690301,0.37042193588294314,0.03711843869364548,20.2000007629,-0.03280492247756756,0.46740185412067403,1.265784745287563
1648125372588319174,20525,6,7,0.888023674488,1.01965987682,0.141684696078,-0.242756426334,20.2000007629,0.29699788444414715,0.34102337017391304,0.04738618597926421,20.2000007629,-0.03280492247756756,0.5410290433362812,1.3595465655689996
1648125372783017824,20526,8,0,0.0126097733155,0.0439508594573,0.0103506427258,0.0,16.0,0.004217315490133779,0.014699284099431437,0.0034617534199999998,16.0,0.0,0.01586317915559307,0.04688091546611253
1648125372783034008,20527,8,1,0.0327995419502,0.0146502861753,-0.0301227364689,0.0,16.0,0.010969746471638795,0.0048997612626421405,-0.010074493802307691,16.0,0.0,0.016268937756809817,0.046880913915322876
1648125372783037924,20528,8,2,0.488729268312,-1.53828001022,0.295242697001,0.0,16.0,0.16345460478662205,-0.51447491980602,0.09874337692341136,16.0,0.0,0.5640206190923451,1.6408320869850304
1648125372783222447,20529,8,3,2.4224050045,-0.902457654476,0.45813703537,0.0,16.0,0.8101688978260868,-0.30182530250033446,0.15322308875250834,16.0,0.0,1.184839988875667,2.6253314775712764
1648125372783229832,20530,8,4,1.11065912247,0.835066318512,0.217114835978,-0.242756426334,16.0,0.37145790049163874,0.2792863941511705,0.07261365751772575,16.0,-0.03280492247756756,0.5949477570621435,1.4064274935597532
1648125372783329527,20531,8,5,0.664475917816,0.808695793152,0.259093850851,-0.161837622523,16.0,0.22223274843344482,0.2704668204521739,0.08665346182307691,16.0,-0.021869948989594594,0.4146409168401908,1.078260986388712
1648125372888099008,20532,9,0,0.0126097733155,0.0439508594573,0.0103506427258,0.0,43.7999992371,0.004217315490133779,0.014699284099431437,0.0034617534199999998,43.7999992371,0.0,0.01586317915559307,0.04688091546611253
1648125372888102340,20533,9,1,0.0328872464597,0.0146502861753,-0.0300269592553,0.0,43.7999992371,0.010999079083511706,0.0048997612626421405,-0.010042461289397992,43.7999992371,0.0,0.0163084990664861,0.0468809145264753
1648125372888105277,20534,9,2,2.42207455635,-0.902457654476,0.459881126881,0.0,43.7999992371,0.8100583800501672,-0.30182530250033446,0.15380639695016723,43.7999992371,0.0,1.1846888500397144,2.6253315267793726
1648125372888108707,20535,9,3,0.73788690567,0.808695793152,0.259766221046,-0.161837622523,43.7999992371,0.24678491828428092,0.2704668204521739,0.08687833479799331,43.7999992371,-0.021869948989594594,0.44154036367094107,1.125141973715988
1648125372888110529,20536,9,4,0.678640127182,0.775000095367,0.318542361259,-0.0809188112617,43.7999992371,0.22696994220133776,0.25919735631003343,0.10653590677558528,43.7999992371,-0.010934974494824324,0.4125699684221667,1.0782610101255259
1648125373083151868,20537,11,0,0.0126097733155,0.0439508594573,0.0103506427258,0.0,29.0,0.004217315490133779,0.014699284099431437,0.0034617534199999998,29.0,0.0,0.01586317915559307,0.04688091546611253
1648125373083155841,20538,11,1,0.0327995419502,0.0146502861753,-0.0301227364689,0.0,29.0,0.010969746471638795,0.0048997612626421405,-0.010074493802307691,29.0,0.0,0.016268937756809817,0.046880913915322876
1648125373083157741,20539,11,2,2.39231085777,-0.984499275684,0.447185695171,0.0,29.0,0.8001039658093645,-0.32926397180066885,0.14956043316755852,29.0,0.0,1.1784513037600226,2.625331428599468
1648125373083302491,20540,11,3,1.18665480614,0.77207005024,0.328425258398,0.161837622523,29.0,0.3968745171036789,0.25821740810702337,0.1098412235444816,29.0,0.021869948989594594,0.6178146926887266,1.4533082748565598
1648125373083307038,20541,11,4,0.801275968552,0.707608819008,0.141043752432,-0.161837622523,29.0,0.2679852737632107,0.23665846789565215,0.047171823555852845,29.0,-0.021869948989594594,0.44681030016619283,1.0782609881735226
1648125373083308814,20542,11,5,0.57979285717,0.879017233849,0.514593780041,-0.161837622523,29.0,0.19391065457190632,0.29398569693946486,0.17210494315752506,29.0,-0.021869948989594594,0.4020326776743318,1.1720229575762517
1648125373188059487,20543,12,0,0.0126141794026,0.0439508594573,0.0103452727199,0.0,29.2000007629,0.004218789097859532,0.014699284099431437,0.003459957431404682,29.2000007629,0.0,0.015863962806948167,0.0468809154847196
1648125373188065627,20544,12,1,0.0329001024365,0.0146502861753,-0.0300128757954,0.0,29.2000007629,0.011003378741304349,0.0048997612626421405,-0.010037751102140467,29.2000007629,0.0,0.016314298877980183,0.04688091657444943
1648125373188068934,20545,12,2,1.27669477463,0.635822415352,0.279079437256,0.0,29.2000007629,0.42698821893979927,0.21264963724147157,0.0933376044334448,29.2000007629,0.0,0.6402013327428282,1.4533083030557292
1648125373188072783,20546,12,3,2.39219355583,-0.984499275684,0.447812259197,0.0,29.2000007629,0.8000647343913043,-0.32926397180066885,0.1497699863535117,29.2000007629,0.0,1.1783980318887197,2.6253313413479873
1648125373188075253,20547,12,4,0.431265980005,0.779395282269,0.964180409908,-0.161837622523,29.2000007629,0.14423611371404682,0.2606673184846154,0.32246836451772576,29.2000007629,-0.021869948989594594,0.3309917883039137,1.3126656902590264
1648125373188078580,20548,12,5,0.824481129646,0.606521844864,0.339129507542,-0.0809188112617,29.2000007629,0.27574619720602,0.20285011533913042,0.113421239980602,29.2000007629,-0.010934974494824324,0.4395680832820566,1.078260962997944
1648125373383130956,20549,14,0,0.0126303331926,0.0439508594573,0.0103255445138,0.0,25.8999996185,0.004224191703210702,0.014699284099431437,0.003453359369163879,25.8999996185,0.0,0.015866837874218862,0.04688091544645748
1648125373383142998,20550,14,1,0.0328872464597,0.0146502861753,-0.0300269592553,0.0,25.8999996185,0.010999079083511706,0.0048997612626421405,-0.010042461289397992,25.8999996185,0.0,0.0163084990664861,0.0468809145264753
1648125373383146213,20551,14,2,2.39188027382,-0.984499275684,0.449482738972,0.0,25.8999996185,0.799959957799331,-0.32926397180066885,0.15032867524147156,25.8999996185,0.0,1.1782557580129056,2.625331369702752
1648125373383147764,20552,14,3,0.672470152378,0.64461261034,0.106707938015,-0.404594063759,25.8999996185,0.22490640547759197,0.21558950178595315,0.03568827358361204,25.8999996185,-0.05467487348094594,0.3842455149120384,0.9376183164188145
1648125373383151921,20553,14,4,0.766706287861,0.572826147079,0.496667355299,-0.323675245047,25.8999996185,0.2564235076458194,0.19158065119698997,0.16610948337759196,25.8999996185,-0.04373989797932432,0.4101331204131579,1.078261002004
1648125373383154734,20554,14,5,0.837307453156,0.69735366106,0.731918931007,-0.323675245047,25.8999996185,0.28003593751036787,0.23322864918394645,0.24478894013612038,25.8999996185,-0.04373989797932432,0.45960402021173585,1.312665692882541
1648125373383155659,20555,14,6,0.827716529369,0.580151319504,-0.205072671175,-0.161837622523,25.8999996185,0.27682827069197324,0.19403054164013378,-0.06858617765050166,25.8999996185,-0.021869948989594594,0.4369389362345504,1.0313801466848898
1648125373383156826,20556,14,7,1.24532842636,0.615312039852,0.220423087478,-0.161837622523,25.8999996185,0.41649780145819393,0.20578997988361203,0.07372009614648829,25.8999996185,-0.021869948989594594,0.6239313688696183,1.406427436229981
1648125373383160902,20557,14,8,0.96882045269,0.527410328388,0.221742600203,-0.0809188112617,25.8999996185,0.3240202182909699,0.1763914141765886,0.07416140475016722,25.8999996185,-0.010934974494824324,0.4910113386856483,1.12514199316601
1648125373487140867,20558,15,0,0.0126097733155,0.0439508594573,0.0103506427258,0.0,17.0,0.004217315490133779,0.014699284099431437,0.0034617534199999998,17.0,0.0,0.01586317915559307,0.04688091546611253
1648125373487150493,20559,15,1,0.032911542803,0.0146502861753,-0.0300003252923,0.0,17.0,0.01100720495083612,0.0048997612626421405,-0.010033553609464882,17.0,0.0,0.01631946022668369,0.046880913518570676
1648125373487173835,20560,15,2,0.488031178713,-1.53828001022,0.29639518261,0.0,17.0,0.16322113000434782,-0.51447491980602,0.0991288236153846,17.0,0.0,0.5638853763569358,1.6408320832775238
1648125373487180384,20561,15,3,2.3915514946,-0.984499275684,0.451229453087,0.0,17.0,0.7998499981939798,-0.32926397180066885,0.15091286056421405,17.0,0.0,1.1781064477999308,2.6253314827806045
1648125373487336454,20562,15,4,0.644963502884,0.612381994724,0.0492292121053,-0.485512852669,17.0,0.21570685715183943,0.20481003168026754,0.0164646194332107,17.0,-0.06560984495527027,0.3674316882381272,0.8907374152010531
1648125373487342837,20563,15,5,1.64682006836,-1.47674882412,0.413490563631,-0.404594063759,17.0,0.5507759425953177,-0.49389592779933106,0.1382911584050167,17.0,-0.05467487348094594,0.9223022635667135,2.2502839539277972
1648125373487349389,20564,15,6,0.766002774239,0.553780794144,0.275327503681,-0.323675245047,17.0,0.2561882188090301,0.18521096794113712,0.09208277715083611,17.0,-0.04373989797932432,0.4069003680986045,0.9844991886171439
1648125373487351390,20565,15,7,0.434975296259,0.41899818182,-1.05875563622,-0.323675245047,17.0,0.14547668771204011,0.14013317117725752,-0.3540988749899665,17.0,-0.04373989797932432,0.24892617178498413,1.2189038034035693
1648125373487353410,20566,15,8,0.720399439335,0.914177834988,-0.361980617046,-0.323675245047,17.0,0.24093626733612036,0.30574509531371236,-0.12106375152040133,17.0,-0.04373989797932432,0.45779977407608663,1.2189037834441783
1648125373487424617,20567,15,9,1.23694193363,0.615312039852,0.263446629047,-0.242756426334,17.0,0.4136929543913043,0.20578997988361203,0.08810924048394649,17.0,-0.03280492247756756,0.6201880657079021,1.4064275238757882
1648125373487437222,20568,15,10,0.978902697563,0.527410328388,0.171849891543,-0.0809188112617,17.0,0.3273922065428093,0.1763914141765886,0.057474880114715715,17.0,-0.010934974494824324,0.4954646756380881,1.1251420048197458
1648125373587956619,20569,16,0,0.0125994505361,0.0439508594573,0.0103632062674,0.0,20.1000003815,0.004213863055551839,0.014699284099431437,0.003465955273377926,20.1000003815,0.0,0.01586134410249293,0.04688091557326548
1648125373587967220,20570,16,1,0.0328872464597,0.0146502861753,-0.0300269592553,0.0,20.1000003815,0.010999079083511706,0.0048997612626421405,-0.010042461289397992,20.1000003815,0.0,0.0163084990664861,0.0468809145264753
1648125373587977365,20571,16,2,0.475825250149,-1.53828001022,0.315618216991,0.0,20.1000003815,0.15913887964849496,-0.51447491980602,0.10555793210401337,20.1000003815,0.0,0.5615468004903661,1.6408320808109462
1648125373587980760,20572,16,3,2.39152431488,-0.984499275684,0.45137321949,0.0,20.1000003815,0.799840907986622,-0.32926397180066885,0.15096094297324414,20.1000003815,0.0,1.1780941046044155,2.625331437315552
1648125373587983098,20573,16,4,1.66900849342,-1.36394166946,0.794380545616,-0.647350490093,20.1000003815,0.558196820541806,-0.4561677824280936,0.2656791122461538,20.1000003815,-0.08747979595851352,0.9117326508639069,2.297164922257565
1648125373588083326,20574,16,5,1.44100737572,-1.58369588852,0.519990086555,-0.485512852669,20.1000003815,0.48194226612709024,-0.5296641767625418,0.17390972794481604,20.1000003815,-0.06560984495527027,0.8631806507938945,2.203402962308545
1648125373588106012,20575,16,6,0.813019394875,0.49224960804,0.256765365601,-0.404594063759,20.1000003815,0.2719128410953177,0.16463197593311035,0.08587470421438126,20.1000003815,-0.05467487348094594,0.41830237126353376,0.9844991955459689
1648125373588108329,20576,16,7,2.31942820549,1.06654083729,0.612460970879,-0.404594063759,20.1000003815,0.7757284968193979,0.35670262116722407,0.20483644511003343,20.1000003815,-0.05467487348094594,1.1535797161457606,2.6253314074378995
1648125373588112660,20577,16,8,2.00832033157,-1.55879056454,0.655122995377,-0.404594063759,20.1000003815,0.6716790406588627,-0.5213346369698996,0.21910468072809364,20.1000003815,-0.05467487348094594,1.0835567687137382,2.6253313538233796
1648125373588137345,20578,16,9,1.12340986729,0.79111546278,-2.45443272591,-0.323675245047,20.1000003815,0.3757223636421404,0.26458711129765883,-0.8208805103377925,20.1000003815,-0.04373989797932432,0.593583126905165,2.8128550285061156
1648125373588141242,20579,16,10,1.34042692184,-0.351606875658,-2.44781160355,-0.323675245047,20.1000003815,0.44830331834113707,-0.11759427279531771,-0.8186660881438126,20.1000003815,-0.04373989797932432,0.6448101607958805,2.812855021908783
1648125373783253896,20580,18,0,0.0126097733155,0.0439508594573,0.0103506427258,0.0,12.8999996185,0.004217315490133779,0.014699284099431437,0.0034617534199999998,12.8999996185,0.0,0.01586317915559307,0.04688091546611253
1648125373783263309,20581,18,1,0.0327995419502,0.0146502861753,-0.0301227364689,0.0,12.8999996185,0.010969746471638795,0.0048997612626421405,-0.010074493802307691,12.8999996185,0.0,0.016268937756809817,0.046880913915322876
1648125373783273278,20582,18,2,0.283547997475,-1.58955609798,0.291962057352,0.0,12.8999996185,0.09483210617892976,-0.5316241130367892,0.09764617302742473,12.8999996185,0.0,0.5482795402774177,1.6408320750249548
1648125373783279892,20583,18,3,2.42152786255,-0.902457654476,0.462749987841,0.0,12.8999996185,0.8098755393143813,-0.30182530250033446,0.15476588222107024,12.8999996185,0.0,1.184438808714464,2.625331323561874
1648125373783284196,20584,18,4,1.19846475124,-1.64815723896,0.545752942562,-0.566431701183,12.8999996185,0.4008243315183946,-0.5512231568428093,0.1825260677464883,12.8999996185,-0.07654482448418919,0.7906751912853268,2.1096412772355606
1648125373783285827,20585,18,5,2.08177781105,0.263705164194,0.217363223433,-0.566431701183,12.8999996185,0.6962467595484949,0.0881957070882943,0.0726967302451505,12.8999996185,-0.07654482448418919,0.988583624744191,2.1096412109891807
1648125373783292428,20586,18,6,0.809941768646,0.334026515484,0.160729035735,-0.404594063759,12.8999996185,0.270883534664214,0.11171455367357858,0.053755530346153844,12.8999996185,-0.05467487348094594,0.3990437572583284,0.8907374498538255
1648125373887957253,20587,19,0,0.0126097733155,0.0439508594573,0.0103506427258,0.0,42.5999984741,0.004217315490133779,0.014699284099431437,0.0034617534199999998,42.5999984741,0.0,0.01586317915559307,0.04688091546611253
1648125373887966629,20588,19,1,0.0327995419502,0.0146502861753,-0.0301227364689,0.0,42.5999984741,0.010969746471638795,0.0048997612626421405,-0.010074493802307691,42.5999984741,0.0,0.016268937756809817,0.046880913915322876
1648125373887971523,20589,19,2,0.253098458052,-1.58955609798,0.318720072508,0.0,42.5999984741,0.08464831372976588,-0.5316241130367892,0.10659534197591973,42.5999984741,0.0,0.5449356582173153,1.6408320763299358
1648125373887976036,20590,19,3,2.4219892025,-0.902457654476,0.460330605507,0.0,42.5999984741,0.8100298336120401,-0.30182530250033446,0.15395672424983275,42.5999984741,0.0,1.184649811510776,2.6253315564925033
1648125373888134590,20591,19,4,2.26191091537,0.931758165359,0.435043275356,-0.647350490093,42.5999984741,0.7564919449397993,0.311624804467893,0.1454994231959866,42.5999984741,-0.08747979595851352,1.1143025371402746,2.4846884954085486
1648125373888255029,20592,19,5,1.8029358387,-1.7082233429,0.0712202042341,-0.647350490093,42.5999984741,0.6029885748160535,-0.5713121548160535,0.023819466299030097,42.5999984741,-0.08747979595851352,1.0264443584325227,2.484688500635134
1648125373888327206,20593,19,6,0.71839761734,0.210964113474,-0.0451770201325,-0.404594063759,42.5999984741,0.2402667616521739,0.07055655969030099,-0.015109371281772576,42.5999984741,-0.05467487348094594,0.34703668628111367,0.7500946319776673
1648125373888337669,20594,19,7,1.03281414509,-1.74045407772,0.398866832256,-0.404594063759,42.5999984741,0.34542279099999995,-0.5820916647892976,0.1334002783464883,42.5999984741,-0.05467487348094594,0.7599108601024435,2.0627603362543354
1648125373888345612,20595,19,8,0.760556995869,0.224149376154,0.08049929142,-0.242756426334,42.5999984741,0.2543668882505017,0.07496634653979932,0.026922839939799326,42.5999984741,-0.03280492247756756,0.36745745439439886,0.7969755471246452
1648125373888370655,20596,19,9,0.650781452656,0.306190997362,0.52549380064,-0.242756426334,42.5999984741,0.21765265975117054,0.10240501584013377,0.1757504349966555,42.5999984741,-0.03280492247756756,0.3243950490724784,0.8907374251134067
1648125373888393137,20597,19,10,1.20215773582,-1.01965987682,-2.21553111076,-0.161837622523,42.5999984741,0.40205944341806016,-0.34102337017391304,-0.7409803046020067,42.5999984741,-0.021869948989594594,0.6630237786746825,2.719093155618962
1648125373888402820,20598,19,11,1.56317341328,0.679773271084,-2.11845803261,-0.161837622523,42.5999984741,0.5228004726688963,0.22734892009498325,-0.7085143921772574,42.5999984741,-0.021869948989594594,0.7735167741645929,2.7190930943966443
1648125373888460443,20599,19,12,0.491643100977,0.225614413619,0.878140211105,-0.0809188112617,42.5999984741,0.16442913076153845,0.07545632562508361,0.2936923782959866,42.5999984741,-0.010934974494824324,0.2444739969052514,1.0313801591704486
1648125374082998411,20600,21,0,0.0126303331926,0.0439508594573,0.0103255445138,0.0,11.8999996185,0.004224191703210702,0.014699284099431437,0.003453359369163879,11.8999996185,0.0,0.015866837874218862,0.04688091544645748
1648125374083005593,20601,21,1,0.0327995419502,0.0146502861753,-0.0301227364689,0.0,11.8999996185,0.010969746471638795,0.0048997612626421405,-0.010074493802307691,11.8999996185,0.0,0.016268937756809817,0.046880913915322876
1648125374083010194,20602,21,2,0.810572206974,0.210964113474,0.102764733136,0.0,11.8999996185,0.2710943836033445,0.07055655969030099,0.03436947596521739,11.8999996185,0.0,0.3898237521725499,0.8438564749227709
1648125374083014823,20603,21,3,0.278849601746,-1.58955609798,0.296452701092,0.0,11.8999996185,0.09326073636989965,-0.5316241130367892,0.09914806056588628,11.8999996185,0.0,0.5477402006961555,1.6408320733713273
1648125374083167200,20604,21,4,2.39038729668,-0.984499275684,0.457356870174,0.0,11.8999996185,0.7994606343411371,-0.32926397180066885,0.15296216393779263,11.8999996185,0.0,1.1775777574530772,2.625331514046711
1648125374083171050,20605,21,5,1.99604320526,0.251984924078,0.126826062799,-0.242756426334,11.8999996185,0.667572978347826,0.08427589434046821,0.04241674341103679,11.8999996185,-0.03280492247756756,0.9478448128292204,2.0158793935730146
1648125374083234430,20606,21,6,0.196429908276,-1.29508531094,-2.05598521233,-0.161837622523,11.8999996185,0.06569562149698996,-0.4331388999799331,-0.6876204723511705,11.8999996185,-0.021869948989594594,0.44299112411376595,2.4378075938837975
1648125374083238016,20607,21,7,1.6301074028,0.076181486249,-1.81103622913,-0.161837622523,11.8999996185,0.5451864223411371,0.02547875794280936,-0.6056977354949832,11.8999996185,-0.021869948989594594,0.7714309024900193,2.4378076188928195
1648125374083241035,20608,21,8,0.633476257324,0.0615312047303,0.160295218229,-0.0809188112617,11.8999996185,0.21186496900468227,0.020578998237558526,0.05361044087926421,11.8999996185,-0.010934974494824324,0.3003281960641914,0.6563328536161112
1648125374187119720,20609,22,0,0.0126097733155,0.0439508594573,0.0103506427258,0.0,26.5,0.004217315490133779,0.014699284099431437,0.0034617534199999998,26.5,0.0,0.01586317915559307,0.04688091546611253
1648125374187244277,20610,22,1,0.0328872464597,0.0146502861753,-0.0300269592553,0.0,26.5,0.010999079083511706,0.0048997612626421405,-0.010042461289397992,26.5,0.0,0.0163084990664861,0.0468809145264753
1648125374187363798,20611,22,2,0.822326600552,0.184593603015,0.0424010530114,0.0,26.5,0.27502561891371236,0.06173699097491638,0.014180954184414715,26.5,0.0,0.3938142178392979,0.8438564365731552
1648125374187366001,20612,22,3,0.282897204161,-1.58955609798,0.292592674494,0.0,26.5,0.09461444955217391,-0.5316241130367892,0.09785708177056855,26.5,0.0,0.5482043284125679,1.6408320724300418
1648125374187367848,20613,22,4,1.90326464176,-1.24527442455,0.566944718361,0.0,26.5,0.6365433584481606,-0.4164797406521739,0.18961361818093644,26.5,0.0,0.9918821849104,2.344045861899803
1648125374187368960,20614,22,5,2.42286276817,-0.902457654476,0.455708742142,0.0,26.5,0.8103219960434782,-0.30182530250033446,0.15241095054916387,26.5,0.0,1.1850493609015582,2.6253312684633463
1648125374187374430,20615,22,6,0.63496118784,0.0410208031535,0.160979554057,0.0809188112617,26.5,0.21236160128428092,0.013719332158361203,0.05383931573812709,26.5,0.010934974494824324,0.30063785436122187,0.6563328676661961
1648125374187378324,20616,22,7,0.579060673714,0.064461261034,0.851045489311,0.161837622523,26.5,0.19366577716187292,0.021558950178595316,0.2846305984317726,26.5,0.021869948989594594,0.27473196905389,1.0313801156182936
1648125374187380700,20617,22,8,1.97989976406,0.314981162548,0.211077645421,-0.242756426334,26.5,0.6621738341337792,0.1053448704173913,0.07059453024113711,26.5,-0.03280492247756756,0.942361881097764,2.015879455940113
1648125374187387223,20618,22,9,0.449845254421,-1.38591706753,1.3930696249,-0.242756426334,26.5,0.15044991786655518,-0.46351741388963213,0.4659095735451505,26.5,-0.03280492247756756,0.5100183806011691,2.0158794236796695
1648125374187389506,20619,22,10,0.394368171692,1.77121961117,0.223918110132,-0.161837622523,26.5,0.13189570959598662,0.5923811408595318,0.07488900004414716,26.5,-0.021869948989594594,0.6210542427724796,1.8283556781660355
1648125374187417833,20620,22,11,0.350245058537,-1.31999075413,-2.07572388649,-0.161837622523,26.5,0.11713881556421404,-0.4414684796421404,-0.6942220356153845,26.5,-0.021869948989594594,0.4715266935615807,2.4846884804666005
1648125374287981087,20621,23,0,0.0126200793311,0.0439508594573,0.0103380745277,0.0,12.5,0.004220762318093645,0.014699284099431437,0.0034575500092642137,12.5,0.0,0.015865012515831067,0.0468809154592663
1648125374287986668,20622,23,1,0.0328124724329,0.0146502861753,-0.0301086530089,0.0,12.5,0.010974071047792642,0.0048997612626421405,-0.010069783615016722,12.5,0.0,0.01627476977271537,0.04688091528744241
1648125374287997298,20623,23,2,0.271769106388,-1.58955609798,0.302956849337,0.0,12.5,0.09089267772173913,-0.5316241130367892,0.10132336098227425,12.5,0.0,0.5469434662641183,1.6408320719599971
1648125374288000243,20624,23,3,2.42083406448,-0.902457654476,0.466365873814,0.0,12.5,0.809643499826087,-0.30182530250033446,0.1559752086334448,12.5,0.0,1.184121491592264,2.6253313151157465
1648125374288003233,20625,23,4,0.816918432713,0.131852567196,0.165387108922,0.0809188112617,12.5,0.2732168671280936,0.04409784856053511,0.05531341435518394,12.5,0.010934974494824324,0.3888952728103655,0.8438564575684763
1648125374288007495,20626,23,5,0.640088796616,-0.0205104015768,0.143660932779,0.161837622523,12.5,0.21407652060735785,-0.006859666079197324,0.04804713470869565,12.5,0.021869948989594594,0.302827621543054,0.6563328482813373
1648125374288010594,20627,23,6,0.649333357811,-0.0,0.860821127892,0.242756426334,12.5,0.21716834709397992,-0.0,0.28790004277324416,12.5,0.03280492247756756,0.3071224217784541,1.078261018395529
1648125374288016247,20628,23,7,1.73585999012,0.167013257742,0.364073038101,0.404594063759,12.5,0.5805551806421404,0.05585727683678929,0.12176355789331103,12.5,0.05467487348094594,0.8229268928139839,1.7814748133591713
1648125374288103756,20629,23,8,1.73373162746,0.0556710883975,0.405866980553,0.404594063759,12.5,0.5798433536655518,0.018619093109531772,0.13574146506789297,12.5,0.05467487348094594,0.8202336863409414,1.781474847434471
1648125374288115131,20630,23,9,0.833116710186,-1.49432909489,-1.67015779018,-0.161837622523,12.5,0.2786343512327759,-0.4997756170200669,-0.5585812007290969,12.5,-0.021869948989594594,0.63643528401685,2.3909265862265303
1648125374387092026,20631,24,0,0.0126303331926,0.0439508594573,0.0103255445138,0.0,17.2000007629,0.004224191703210702,0.014699284099431437,0.003453359369163879,17.2000007629,0.0,0.015866837874218862,0.04688091544645748
1648125374387096711,20632,24,1,0.0328239798546,0.0146502861753,-0.0300961062312,0.0,17.2000007629,0.010977919683812707,0.0048997612626421405,-0.010065587368294314,17.2000007629,0.0,0.01627996012278204,0.046880914547319234
1648125374387100671,20633,24,2,0.264855772257,-1.58955609798,0.309018969536,0.0,17.2000007629,0.08858052583846154,-0.5316241130367892,0.10335082593177257,17.2000007629,0.0,0.5461842332746246,1.6408320731434851
1648125374387115269,20634,24,3,2.41855502129,-0.902457654476,0.478044718504,0.0,17.2000007629,0.8088812780234114,-0.30182530250033446,0.15988117675719063,17.2000007629,0.0,1.1830791846292423,2.6253314004176627
1648125374387119344,20635,24,4,0.835309028625,0.105482056737,0.0567990131676,0.161837622523,17.2000007629,0.2793675681020067,0.035278279845150494,0.01899632547411371,17.2000007629,0.021869948989594594,0.3966573247064668,0.843856483943047
1648125374387225249,20636,24,5,0.659208714962,-0.0,0.244853869081,0.242756426334,17.2000007629,0.22047114212775917,-0.0,0.08189092611404682,17.2000007629,0.03280492247756756,0.3117932793089632,0.7032137278849061
1648125374387229487,20637,24,6,0.790198266506,-0.0,0.733643949032,0.242756426334,17.2000007629,0.2642803566909699,-0.0,0.24536586924147155,17.2000007629,0.03280492247756756,0.37374886470116875,1.0782609815533322
1648125374387233424,20638,24,7,0.460104495287,-1.38152205944,-1.25468587875,-0.161837622523,17.2000007629,0.15388110210267555,-0.4620475115183946,-0.41962738419732437,17.2000007629,-0.021869948989594594,0.5107315244519464,1.9221175826773198
1648125374387312851,20639,24,8,0.661037862301,1.74191904068,0.472528249025,-0.161837622523,17.2000007629,0.22108289709063544,0.5825816189565217,0.15803620368729096,17.2000007629,-0.021869948989594594,0.6611782191799567,1.9221175681538423
1648125374488185468,20640,25,0,0.0126097733155,0.0439508594573,0.0103506427258,0.0,27.2999992371,0.004217315490133779,0.014699284099431437,0.0034617534199999998,27.2999992371,0.0,0.01586317915559307,0.04688091546611253
1648125374488242118,20641,25,1,0.0327995419502,0.0146502861753,-0.0301227364689,0.0,27.2999992371,0.010969746471638795,0.0048997612626421405,-0.010074493802307691,27.2999992371,0.0,0.016268937756809817,0.046880913915322876
1648125374488264269,20642,25,2,0.278428524733,-1.58955609798,0.296848207712,0.0,27.2999992371,0.09311990793745818,-0.5316241130367892,0.09928033702742474,27.2999992371,0.0,0.5476922786298106,1.6408320725876322
1648125374488269836,20643,25,3,1.79038071632,-1.31852579117,0.742009341717,0.0,27.2999992371,0.5987895372307692,-0.44097852547491634,0.2481636594371237,27.2999992371,0.0,0.9547564504752555,2.344045911356321
1648125374488271816,20644,25,4,1.01034891605,-0.439508616924,-2.06895589828,0.0,27.2999992371,0.3379093364715719,-0.1469928484695652,-0.6919584944080267,27.2999992371,0.0,0.49997233608522035,2.3440459179677897
1648125374488278563,20645,25,5,2.41908669472,-0.902457654476,0.475346744061,0.0,27.2999992371,0.8090590952240801,-0.30182530250033446,0.15897884416755853,27.2999992371,0.0,1.1833223366264294,2.6253313660913458
1648125374488408921,20646,25,6,0.68078148365,-0.0879017189145,0.152707129717,0.242756426334,27.2999992371,0.22768611493311036,-0.02939856819882943,0.05107261863444816,27.2999992371,0.03280492247756756,0.32333606306567214,0.7032137712923601
1648125374488411702,20647,25,7,0.88812059164,-0.0278355441988,0.0622909478843,0.323675245047,27.2999992371,0.2970302982073578,-0.009309546554782609,0.020833092937892976,27.2999992371,0.04373989797932432,0.42016742349135,0.8907374276430465
1648125374488414556,20648,25,8,0.856656193733,-0.105482056737,0.721774280071,0.404594063759,27.2999992371,0.2865070882050167,-0.035278279845150494,0.24139608029130433,27.2999992371,0.05467487348094594,0.4067151093975575,1.1251419510117775
1648125374488417496,20649,25,9,1.73931109905,-0.167013257742,0.347211629152,0.566431701183,27.2999992371,0.5817093976755853,-0.05585727683678929,0.11612429068628762,27.2999992371,0.07654482448418919,0.8245554451119743,1.7814747943651914
1648125374488419995,20650,25,10,0.344520121813,-1.72580373287,0.276694715023,0.566431701183,27.2999992371,0.1152241210076923,-0.57719188390301,0.09254003846923077,27.2999992371,0.07654482448418919,0.5997530049674586,1.7814748395763915
1648125374488503857,20651,25,11,0.923490643501,-0.600661754608,-1.57508933544,-0.161837622523,27.2999992371,0.30885974699030094,-0.20089021893244144,-0.5267857309163879,27.2999992371,-0.021869948989594594,0.48077600468882564,1.9221175631837593
1648125374587085230,20652,26,0,0.0126097733155,0.0439508594573,0.0103506427258,0.0,20.0,0.004217315490133779,0.014699284099431437,0.0034617534199999998,20.0,0.0,0.01586317915559307,0.04688091546611253
1648125374587096564,20653,26,1,0.0327995419502,0.0146502861753,-0.0301227364689,0.0,20.0,0.010969746471638795,0.0048997612626421405,-0.010074493802307691,20.0,0.0,0.016268937756809817,0.046880913915322876
1648125374587115236,20654,26,2,0.281051129103,-1.58955609798,0.294366389513,0.0,20.0,0.09399703314481606,-0.5316241130367892,0.0984502974959866,20.0,0.0,0.5479918631167876,1.640832074610438
1648125374587160527,20655,26,3,0.711814522743,-0.117202289402,0.205488801003,0.404594063759,20.0,0.2380650577735786,-0.03919809010100334,0.06872535150602006,20.0,0.05467487348094594,0.3389490134711134,0.7500946198757632
1648125374587164610,20656,26,4,0.932346701622,-0.0879017189145,0.0461623817682,0.404594063759,20.0,0.3118216393384615,-0.02939856819882943,0.015438923668294312,20.0,0.05467487348094594,0.4419612486763883,0.9376182857133597
1648125374587167094,20657,26,5,0.964991927147,-0.219754308462,0.627802848816,0.404594063759,20.0,0.32273977496555184,-0.0734964242347826,0.20996750796521738,20.0,0.05467487348094594,0.4623025514367504,1.1720229488060283
1648125374587419456,20658,26,6,0.739557921886,1.55879044533,0.443710535765,0.485512852669,20.0,0.24734378658394648,0.5213345971003345,0.14839817249665552,20.0,0.06560984495527027,0.6278118027380003,1.7814748417604167
1648125374587424322,20659,26,7,1.05358803272,-0.0673913136125,-0.219220146537,-0.161837622523,20.0,0.3523705795050167,-0.02253890087374582,-0.07331777476153846,20.0,-0.021869948989594594,0.49883669938567987,1.0782610094448013
1648125374687946693,20660,27,0,0.0125994505361,0.0439508594573,0.0103632062674,0.0,22.1000003815,0.004213863055551839,0.014699284099431437,0.003465955273377926,22.1000003815,0.0,0.01586134410249293,0.04688091557326548
1648125374687952502,20661,27,1,0.0328872464597,0.0146502861753,-0.0300269592553,0.0,22.1000003815,0.010999079083511706,0.0048997612626421405,-0.010042461289397992,22.1000003815,0.0,0.0163084990664861,0.0468809145264753
1648125374687959341,20662,27,2,0.29680877924,-1.58955609798,0.278470575809,0.0,22.1000003815,0.09926715024749162,-0.5316241130367892,0.0931339718424749,22.1000003815,0.0,0.5498473713665175,1.6408320760061765
1648125374687979127,20663,27,3,1.8913872242,-1.31852579117,0.422723472118,0.0,22.1000003815,0.632570977993311,-0.44097852547491634,0.14137908766488294,22.1000003815,0.0,0.997373623236979,2.3440458672404327
1648125374688142634,20664,27,4,1.9248675108,-1.17202293873,0.644824564457,0.0,22.1000003815,0.6437683982608695,-0.3919809159632107,0.21566038945050164,22.1000003815,0.0,0.9912237586327765,2.3440459513349676
1648125374688147550,20665,27,5,0.919957697392,-0.175803437829,-0.0435789711773,0.242756426334,22.1000003815,0.3076781596628762,-0.05879713639765886,-0.014574906748260869,22.1000003815,0.03280492247756756,0.4390772177141893,0.9376183341169037
1648125374688150550,20666,27,6,0.776416838169,-0.190453708172,0.920125365257,0.242756426334,22.1000003815,0.2596711833341137,-0.06369689236521739,0.3077342358719063,22.1000003815,0.03280492247756756,0.37271375210107804,1.2189037736171546
1648125374688263712,20667,27,7,0.75595754385,-0.199243888259,0.154919698834,0.404594063759,22.1000003815,0.2528286099832776,-0.06663675192608695,0.05181260830568562,22.1000003815,0.05467487348094594,0.36371014387752715,0.7969755631128892
1648125374688266863,20668,27,8,0.883341491222,1.44744825363,0.546126425266,0.485512852669,22.1000003815,0.29543193686354513,0.484096405896321,0.18265097834983277,22.1000003815,0.06560984495527027,0.6394602324145161,1.7814748691532707
1648125374688268056,20669,27,9,0.952374637127,-0.571361124516,-1.45238208771,-0.0809188112617,22.1000003815,0.31851994552742474,-0.19109067709565214,-0.48574651762876253,22.1000003815,-0.010934974494824324,0.48931131018040247,1.8283557402080788
1648125374882995964,20670,29,0,0.0126097733155,0.0439508594573,0.0103506427258,0.0,15.3000001907,0.004217315490133779,0.014699284099431437,0.0034617534199999998,15.3000001907,0.0,0.01586317915559307,0.04688091546611253
1648125374882999164,20671,29,1,0.0328872464597,0.0146502861753,-0.0300269592553,0.0,15.3000001907,0.010999079083511706,0.0048997612626421405,-0.010042461289397992,15.3000001907,0.0,0.0163084990664861,0.0468809145264753
1648125374883013389,20672,29,2,0.279992669821,-1.58955609798,0.295373350382,0.0,15.3000001907,0.09364303338494984,-0.5316241130367892,0.09878707370635452,15.3000001907,0.0,0.5478706352463348,1.6408320754710954
1648125374883115530,20673,29,3,1.81055545807,-1.39177727699,0.528579115868,0.0,15.3000001907,0.6055369424983278,-0.4654773501638796,0.1767823129993311,15.3000001907,0.0,0.9746892535449609,2.3440458479356936
1648125374883119691,20674,29,4,0.911363005638,-0.307655990124,0.20977114141,0.161837622523,15.3000001907,0.3048036808153846,-0.10289497997458194,0.07015757237792641,15.3000001907,0.021869948989594594,0.4431680771233228,0.9844991965832995
1648125374883120948,20675,29,5,0.812169492245,-0.306190997362,0.200102463365,0.323675245047,15.3000001907,0.27162859272408024,-0.10240501584013377,0.0669239007909699,15.3000001907,0.04373989797932432,0.3975562501580708,0.8907374511289949
1648125374883121986,20676,29,6,1.13755023479,-0.439508587122,0.700606763363,-0.242756426334,15.3000001907,0.38045158354180597,-0.14699283850234113,0.23431664326521737,15.3000001907,-0.03280492247756756,0.5577577515462343,1.4064274498511253
1648125374883131422,20677,29,7,1.31251549721,0.0879017189145,-0.497609108686,-0.242756426334,15.3000001907,0.438968393715719,0.02939856819882943,-0.16642445106555181,15.3000001907,-0.03280492247756756,0.6214907699836404,1.406427555067026
1648125374883142861,20678,29,8,1.55403339863,-0.996219456196,0.330211102962,-0.0809188112617,15.3000001907,0.5197436115819397,-0.3331837646140468,0.11043849597391305,15.3000001907,-0.010934974494824324,0.8070181314957334,1.8752366201310018
1648125374988069082,20679,30,0,0.0126097733155,0.0439508594573,0.0103506427258,0.0,15.8000001907,0.004217315490133779,0.014699284099431437,0.0034617534199999998,15.8000001907,0.0,0.01586317915559307,0.04688091546611253
1648125374988073985,20680,30,1,0.0328239798546,0.0146502861753,-0.0300961062312,0.0,15.8000001907,0.010977919683812707,0.0048997612626421405,-0.010065587368294314,15.8000001907,0.0,0.01627996012278204,0.046880914547319234
1648125374988076730,20681,30,2,0.264870375395,-1.58955609798,0.30900645256,0.0,15.8000001907,0.08858540983110368,-0.5316241130367892,0.1033466396521739,15.8000001907,0.0,0.5461858174944146,1.6408320730991965
1648125374988078936,20682,30,3,0.803892195225,-0.334026515484,0.188671052456,0.161837622523,15.8000001907,0.26886026596153845,-0.11171455367357858,0.06310068644013377,15.8000001907,0.021869948989594594,0.3962976491581867,0.8907374139581805
1648125374988080719,20683,30,4,0.925390899181,-0.307655990124,0.135048776865,0.161837622523,15.8000001907,0.3094952840070234,-0.10289497997458194,0.045166815005016715,15.8000001907,0.021869948989594594,0.44962433046838757,0.9844992111113808
1648125374988082494,20684,30,5,1.53984868526,-1.05482065678,0.18091994524,-0.161837622523,15.8000001907,0.5149995602876254,-0.352782828354515,0.0605083428896321,15.8000001907,-0.021869948989594594,0.80926189714746,1.8752366832089185
1648125375183188226,20685,32,0,0.0126097733155,0.0439508594573,0.0103506427258,0.0,23.5,0.004217315490133779,0.014699284099431437,0.0034617534199999998,23.5,0.0,0.01586317915559307,0.04688091546611253
1648125375183189491,20686,32,1,0.0328872464597,0.0146502861753,-0.0300269592553,0.0,23.5,0.010999079083511706,0.0048997612626421405,-0.010042461289397992,23.5,0.0,0.0163084990664861,0.0468809145264753
1648125375183190638,20687,32,2,0.919770359993,-0.41899818182,0.205445915461,0.0,23.5,0.3076155050143813,-0.14013317117725752,0.06871100851538461,23.5,0.0,0.4570469379776001,1.0313801508996219
1648125375183191649,20688,32,3,0.267440885305,-1.58955609798,0.306784421206,0.0,23.5,0.08944511214214046,-0.5316241130367892,0.10260348535317726,23.5,0.0,0.546465967590291,1.64083207454414
1648125375183211560,20689,32,4,1.63317227364,-1.61153149605,0.479860275984,0.0,23.5,0.5462114627558529,-0.5389737444983277,0.1604883866167224,23.5,0.0,0.9419058452681592,2.34404593014195
1648125375183212867,20690,32,5,1.02799832821,-0.732514321804,-1.97514390945,0.0,23.5,0.34381214990301,-0.24498806749297658,-0.6605832473076922,23.5,0.0,0.5444563729591223,2.344045916249927
1648125375183214195,20691,32,6,0.793200850487,-0.46880915761,0.173719674349,0.0809188112617,23.5,0.2652845653802675,-0.15679236040468228,0.0581002255347826,23.5,0.010934974494824324,0.4066148614343389,0.9376183342534533
1648125375183215150,20692,32,7,0.982905626297,-0.438043534756,-0.0682730749249,0.161837622523,23.5,0.3287309786946488,-0.1465028544334448,-0.022833804322709032,23.5,0.021869948989594594,0.48743327652534185,1.0782610172437515
1648125375183216247,20693,32,8,1.37951672077,-1.19985842705,-0.0125748096034,-0.242756426334,23.5,0.4613768296889632,-0.40129044382943135,-0.004205621940936454,23.5,-0.03280492247756756,0.7660099074140616,1.8283557514016457
1648125375287075455,20694,33,0,0.0126979034394,0.0439508594573,0.0102423354983,0.0,21.1000003815,0.0042467904479598665,0.014699284099431437,0.0034255302669899666,21.1000003815,0.0,0.015878898301002,0.046880915469425286
1648125375287083609,20695,33,1,0.0328872464597,0.0146502861753,-0.0300269592553,0.0,21.1000003815,0.010999079083511706,0.0048997612626421405,-0.010042461289397992,21.1000003815,0.0,0.0163084990664861,0.0468809145264753
1648125375287086824,20696,33,2,1.68444764614,-1.50751447678,0.408659785986,0.0,21.1000003815,0.5633604167692308,-0.5041854437391304,0.1366755137076923,21.1000003815,0.0,0.9428429774056901,2.297164902868313
1648125375287164557,20697,33,3,0.892050564289,-0.483459472656,0.185088500381,0.0809188112617,21.1000003815,0.2983446703307692,-0.16169213132307692,0.06190250848862876,21.1000003815,0.010934974494824324,0.45184447541311146,1.031380154900427
1648125375287169424,20698,33,4,0.75163269043,-0.527410328388,0.189775645733,0.161837622523,21.1000003815,0.25138217071237456,-0.1763914141765886,0.06347011562976587,21.1000003815,0.021869948989594594,0.39686259901803256,0.937618340011945
1648125375287173004,20699,33,5,1.29154872894,-1.22476398945,0.0742150917649,-0.242756426334,21.1000003815,0.4319560966354515,-0.409620063361204,0.02482110092471572,21.1000003815,-0.03280492247756756,0.7355003298089727,1.781474902693182
1648125375388060942,20700,34,0,0.0125994505361,0.0439508594573,0.0103632062674,0.0,14.8000001907,0.004213863055551839,0.014699284099431437,0.003465955273377926,14.8000001907,0.0,0.01586134410249293,0.04688091557326548
1648125375388236214,20701,34,1,0.0329001024365,0.0146502861753,-0.0300128757954,0.0,14.8000001907,0.011003378741304349,0.0048997612626421405,-0.010037751102140467,14.8000001907,0.0,0.016314298877980183,0.04688091657444943
1648125375388265587,20702,34,2,2.42063713074,-0.902457654476,0.467388153076,0.0,14.8000001907,0.8095776356989965,-0.30182530250033446,0.15631710805217391,14.8000001907,0.0,1.1840314225886799,2.6253315262029853
1648125375388282316,20703,34,3,0.83575463295,-0.547920703888,0.255033552647,0.0809188112617,14.8000001907,0.2795165996488294,-0.18325107153444814,0.08529550255752508,14.8000001907,0.010934974494824324,0.43570633938125275,1.0313801516522705
1648125375388311163,20704,34,4,0.679620623589,-0.615312039852,0.196557864547,0.161837622523,14.8000001907,0.22729786742107022,-0.20578997988361203,0.06573841623645485,14.8000001907,0.021869948989594594,0.38167808017861105,0.9376183085401049
1648125375388322629,20705,34,5,1.0389033556,-0.988894343376,-1.5470468998,0.242756426334,14.8000001907,0.3474593162541806,-0.3307338941056856,-0.5174069898996655,14.8000001907,0.03280492247756756,0.5923182097605613,2.109641276335572
1648125375388562263,20706,34,6,1.31340932846,-0.0,0.351173400879,0.566431701183,14.8000001907,0.4392673339331103,-0.0,0.1174492979528428,14.8000001907,0.07654482448418919,0.6212178211556758,1.3595465499829973
1648125375388567207,20707,34,7,0.866645038128,-0.55231577158,-0.890078961849,0.566431701183,14.8000001907,0.28984783883879595,-0.18472099383946486,-0.29768527152140467,14.8000001907,0.07654482448418919,0.4496058105986631,1.359546575875239
1648125375388571853,20708,34,8,1.22237741947,-1.2804350853,0.199830546975,-0.242756426334,14.8000001907,0.40882187942140463,-0.42823915896321063,0.06683295885451504,14.8000001907,-0.03280492247756756,0.7194855352658711,1.7814748976063854
1648125375388618154,20709,34,9,0.922756135464,-0.5391305089,0.143199920654,-0.0809188112617,14.8000001907,0.3086140921284281,-0.18031120698996655,0.04789295005150501,14.8000001907,-0.010934974494824324,0.4722260550696948,1.0782610112762776
1648125375582985132,20710,36,0,0.012677649036,0.0439508594573,0.0102673945948,0.0,24.6000003815,0.0042400164,0.014699284099431437,0.003433911235719063,24.6000003815,0.0,0.01587527735758767,0.04688091534815267
1648125375582988293,20711,36,1,0.0329001024365,0.0146502861753,-0.0300128757954,0.0,24.6000003815,0.011003378741304349,0.0048997612626421405,-0.010037751102140467,24.6000003815,0.0,0.016314298877980183,0.04688091657444943
1648125375582992543,20712,36,2,2.42738199234,-0.902457654476,0.430990189314,0.0,24.6000003815,0.8118334422541805,-0.30182530250033446,0.14414387602474915,24.6000003815,0.0,1.1871165019297651,2.6253315406142037
1648125375583106972,20713,36,3,0.718785762787,-0.64461261034,0.362721085548,0.0809188112617,24.6000003815,0.24039657618294313,-0.21558950178595315,0.12131139984882941,24.6000003815,0.010934974494824324,0.40256659195874495,1.031380131714664
1648125375688228421,20714,37,0,0.0125994505361,0.0439508594573,0.0103632062674,0.0,27.3999996185,0.004213863055551839,0.014699284099431437,0.003465955273377926,27.3999996185,0.0,0.01586134410249293,0.04688091557326548
1648125375688249800,20715,37,1,0.0328872464597,0.0146502861753,-0.0300269592553,0.0,27.3999996185,0.010999079083511706,0.0048997612626421405,-0.010042461289397992,27.3999996185,0.0,0.0163084990664861,0.0468809145264753
1648125375688254254,20716,37,2,0.66260766983,-0.676843225956,0.268464326859,0.0,27.3999996185,0.22160791633110366,-0.22636897189163876,0.08978740028729097,27.3999996185,0.0,0.3866045118677541,0.9844992490783947
1648125375688256561,20717,37,3,2.41885519028,-0.902457654476,0.476523399353,0.0,27.3999996185,0.8089816689899665,-0.30182530250033446,0.15937237436555182,27.3999996185,0.0,1.1832164614951068,2.6253313695222853
1648125375688330502,20718,37,4,0.841120541096,-0.673913121223,0.0316873677075,0.0809188112617,27.3999996185,0.2813112177578595,-0.22538900375351167,0.010597781841973242,27.3999996185,0.010934974494824324,0.4572441421011539,1.0782609836595145
1648125375883297558,20719,39,0,0.0126097733155,0.0439508594573,0.0103506427258,0.0,26.1000003815,0.004217315490133779,0.014699284099431437,0.0034617534199999998,26.1000003815,0.0,0.01586317915559307,0.04688091546611253
1648125375883303633,20720,39,1,0.0328872464597,0.0146502861753,-0.0300269592553,0.0,26.1000003815,0.010999079083511706,0.0048997612626421405,-0.010042461289397992,26.1000003815,0.0,0.0163084990664861,0.0468809145264753
1648125375883421123,20721,39,2,0.6819704175,-0.676843225956,0.214565366507,0.0,26.1000003815,0.2280837516722408,-0.22636897189163876,0.07176099214280936,26.1000003815,0.0,0.39406510501317715,0.9844992124790819
1648125375883425918,20722,39,3,0.294549077749,-1.58955609798,0.280859649181,0.0,26.1000003815,0.09851139724046823,-0.5316241130367892,0.09393299303712373,26.1000003815,0.0,0.5495754619110023,1.6408320725675325
1648125375883433029,20723,39,4,2.12448000908,-1.04603040218,0.330053031445,0.0,26.1000003815,0.7105284311304347,-0.34984294387290965,0.11038562924581938,26.1000003815,0.0,1.0639978328300381,2.390926580811599
1648125375883435539,20724,39,5,2.38101172447,-0.984499275684,0.503894150257,0.0,26.1000003815,0.7963249914615383,-0.32926397180066885,0.16852647165785953,26.1000003815,0.0,1.173320820227098,2.6253314020422542
1648125375883438575,20725,39,6,0.865691900253,-0.640217483044,0.0578437149525,0.161837622523,26.1000003815,0.2895290636297659,-0.21411955954648826,0.01934572406438127,26.1000003815,0.021869948989594594,0.46206205552180996,1.0782610013899003
1648125375988207346,20726,40,0,0.0126097733155,0.0439508594573,0.0103506427258,0.0,35.7000007629,0.004217315490133779,0.014699284099431437,0.0034617534199999998,35.7000007629,0.0,0.01586317915559307,0.04688091546611253
1648125375988377048,20727,40,1,0.0327995419502,0.0146502861753,-0.0301227364689,0.0,35.7000007629,0.010969746471638795,0.0048997612626421405,-0.010074493802307691,35.7000007629,0.0,0.016268937756809817,0.046880913915322876
1648125375988382292,20728,40,2,0.276026427746,-1.58955609798,0.299083143473,0.0,35.7000007629,0.0923165310187291,-0.5316241130367892,0.10002780718160535,35.7000007629,0.0,0.5474202054736533,1.6408320767675506
1648125375988386861,20729,40,3,2.41521549225,-0.902457654476,0.494640141726,0.0,35.7000007629,0.8077643786789298,-0.30182530250033446,0.1654314855270903,35.7000007629,0.0,1.1815519862259694,2.6253313242205167
1648125375988391467,20730,40,4,0.742098867893,-0.615311980247,0.199797779322,0.161837622523,35.7000007629,0.24819360130200666,-0.2057899599488294,0.06682199977324414,35.7000007629,0.021869948989594594,0.406877911750269,0.9844992206119613
1648125375988396464,20731,40,5,0.765522956848,-0.892202436924,0.682873606682,0.161837622523,35.7000007629,0.2560277447652174,-0.2983954638541806,0.2283858216327759,35.7000007629,0.021869948989594594,0.4691910751792687,1.3595465967068991
1648125375988406920,20732,40,6,1.05766177177,-1.35515141487,0.231802120805,0.161837622523,35.7000007629,0.3537330340367893,-0.4532278979498327,0.07752579291137124,35.7000007629,0.021869948989594594,0.675033070462306,1.734593901723834
1648125375988413885,20733,40,7,0.875834882259,-0.703213751316,-0.0659403726459,0.242756426334,35.7000007629,0.29292136530401336,-0.23518854559063543,-0.022053636336421403,35.7000007629,0.03280492247756756,0.47636068737897846,1.1251419704936072
1648125375988452872,20734,40,8,0.741959393024,-0.646077632904,0.0363135114312,-0.242756426334,35.7000007629,0.24814695418862875,-0.2160794758876254,0.012144987100735785,35.7000007629,-0.03280492247756756,0.4121215374692977,0.9844992228274445
1648125376087224578,20735,41,0,0.0126097733155,0.0439508594573,0.0103506427258,0.0,34.0999984741,0.004217315490133779,0.014699284099431437,0.0034617534199999998,34.0999984741,0.0,0.01586317915559307,0.04688091546611253
1648125376087229623,20736,41,1,0.0327995419502,0.0146502861753,-0.0301227364689,0.0,34.0999984741,0.010969746471638795,0.0048997612626421405,-0.010074493802307691,34.0999984741,0.0,0.016268937756809817,0.046880913915322876
1648125376087250840,20737,41,2,2.41878271103,-0.902457654476,0.47689139843,0.0,34.0999984741,0.808957428438127,-0.30182530250033446,0.1594954509799331,34.0999984741,0.0,1.1831833143177237,2.6253314128308602
1648125376087274555,20738,41,3,0.892204880714,-0.849716603756,0.57473385334,0.323675245047,34.0999984741,0.2983962811752508,-0.28418615510234113,0.19221868004682274,34.0999984741,0.04373989797932432,0.5087656159670094,1.3595465633966195
1648125376087279966,20739,41,4,0.797389864922,-0.769140064716,0.382401287556,0.404594063759,34.0999984741,0.2666855735525084,-0.2572374798381271,0.12789340720936454,34.0999984741,0.05467487348094594,0.45652328671770026,1.1720229436986909
1648125376187987979,20740,42,0,0.0126141794026,0.0439508594573,0.0103452727199,0.0,30.2000007629,0.004218789097859532,0.014699284099431437,0.003459957431404682,30.2000007629,0.0,0.015863962806948167,0.0468809154847196
1648125376187994742,20741,42,1,0.0328872464597,0.0146502861753,-0.0300269592553,0.0,30.2000007629,0.010999079083511706,0.0048997612626421405,-0.010042461289397992,30.2000007629,0.0,0.0163084990664861,0.0468809145264753
1648125376187999406,20742,42,2,0.260296791792,-1.58955609798,0.31286880374,0.0,30.2000007629,0.08705578320802675,-0.5316241130367892,0.10463839589966553,30.2000007629,0.0,0.5456937019446704,1.6408320745269183
1648125376188004822,20743,42,3,2.42265892029,-0.902457654476,0.456792473793,0.0,30.2000007629,0.8102538194949832,-0.30182530250033446,0.1527734026063545,30.2000007629,0.0,1.1849561246062388,2.6253314888404016
1648125376188025569,20744,42,4,0.823976755142,-0.805765748024,0.213170602918,0.242756426334,30.2000007629,0.27557751008093645,-0.26948687224882945,0.07129451602608695,30.2000007629,0.03280492247756756,0.47382391501408433,1.1720229689095003
1648125376188034108,20745,42,5,0.936239778996,-0.922968029976,0.499623149633,0.323675245047,30.2000007629,0.31312367190501667,-0.30868495985819394,0.16709804335551837,30.2000007629,0.04373989797932432,0.5397955837696486,1.4064274598362534
1648125376188078443,20746,42,6,1.04360163212,-0.39555773139,-0.855843484402,0.323675245047,30.2000007629,0.3490306461939799,-0.13229355564882941,-0.28623527906421403,30.2000007629,0.04373989797932432,0.5110248221284209,1.4064275150960632
1648125376188082320,20747,42,7,0.833886027336,-0.523015201092,0.0181069951504,0.566431701183,30.2000007629,0.27889164793846155,-0.1749214719371237,0.006055851220869564,30.2000007629,0.07654482448418919,0.431461034074123,0.9844991977817442
1648125376188085508,20748,42,8,0.96163636446,-0.723724126816,0.192886993289,0.566431701183,30.2000007629,0.3216175131973244,-0.24204820294849494,0.06451070009665551,30.2000007629,0.07654482448418919,0.5152309988161213,1.2189038113680253
1648125376188087167,20749,42,9,0.985505282879,-1.40935754776,0.226509794593,-0.242756426334,30.2000007629,0.3296004290565217,-0.4713570393846154,0.07575578414481604,30.2000007629,-0.03280492247756756,0.6629105099829963,1.734593914164656
1648125376383077249,20750,44,0,0.0125994505361,0.0439508594573,0.0103632062674,0.0,23.0,0.004213863055551839,0.014699284099431437,0.003465955273377926,23.0,0.0,0.01586134410249293,0.04688091557326548
1648125376383082029,20751,44,1,0.0328872464597,0.0146502861753,-0.0300269592553,0.0,23.0,0.010999079083511706,0.0048997612626421405,-0.010042461289397992,23.0,0.0,0.0163084990664861,0.0468809145264753
1648125376383229004,20752,44,2,0.298704683781,-1.58955609798,0.276435911655,0.0,23.0,0.09990123203377926,-0.5316241130367892,0.09245348215886286,23.0,0.0,0.5500770035966663,1.6408320724530716
1648125376383233317,20753,44,3,2.42747139931,-0.902457654476,0.430485665798,0.0,23.0,0.8118633442508361,-0.30182530250033446,0.14397513906287626,23.0,0.0,1.1871574001393925,2.625331430705068
1648125376383235337,20754,44,4,0.784276723862,-0.999149501324,0.706197857857,0.0809188112617,23.0,0.2622999076461538,-0.3341637128173913,0.23618657453411368,23.0,0.010934974494824324,0.49926733326572204,1.4533083361866213
1648125376383236890,20755,44,5,0.829152405262,-0.876087069511,0.175226375461,0.161837622523,23.0,0.2773084967431438,-0.2930057088665552,0.05860413895016722,23.0,0.021869948989594594,0.4895430013392867,1.2189038301577901
1648125376383239186,20756,44,6,1.2481585741,-0.424858301878,0.33160597086,-0.647350490093,23.0,0.4174443391638796,-0.14209307755117057,0.11090500697658862,23.0,-0.08747979595851352,0.6072149498224654,1.359546587169416
1648125376488135869,20757,45,0,0.0126097733155,0.0439508594573,0.0103506427258,0.0,35.0999984741,0.004217315490133779,0.014699284099431437,0.0034617534199999998,35.0999984741,0.0,0.01586317915559307,0.04688091546611253
1648125376488142362,20758,45,1,0.0328872464597,0.0146502861753,-0.0300269592553,0.0,35.0999984741,0.010999079083511706,0.0048997612626421405,-0.010042461289397992,35.0999984741,0.0,0.0163084990664861,0.0468809145264753
1648125376488144220,20759,45,2,2.4152867794,-0.902457654476,0.494291961193,0.0,35.0999984741,0.807788220535117,-0.30182530250033446,0.1653150371882943,35.0999984741,0.0,1.1815845850805604,2.625331329140528
1648125376488151642,20760,45,3,0.818647742271,-0.876087069511,0.219120576978,0.0809188112617,35.0999984741,0.2737952315287625,-0.2930057088665552,0.07328447390568561,35.0999984741,0.010934974494824324,0.48557183098298634,1.2189038134918395
1648125376683345244,20761,47,0,0.0126097733155,0.0439508594573,0.0103506427258,0.0,29.6000003815,0.004217315490133779,0.014699284099431437,0.0034617534199999998,29.6000003815,0.0,0.01586317915559307,0.04688091546611253
1648125376683351387,20762,47,1,0.0327995419502,0.0146502861753,-0.0301227364689,0.0,29.6000003815,0.010969746471638795,0.0048997612626421405,-0.010074493802307691,29.6000003815,0.0,0.016268937756809817,0.046880913915322876
1648125376683482942,20763,47,2,0.847630083561,-0.83799636364,0.254974216223,0.0,29.6000003815,0.283488322261204,-0.28026634235451503,0.08527565759966554,29.6000003815,0.0,0.48916304068656163,1.2189038169478443
1648125376683488682,20764,47,3,2.42267155647,-0.902457654476,0.456724405289,0.0,29.6000003815,0.8102580456421404,-0.30182530250033446,0.15275063722040133,29.6000003815,0.0,1.1849619041492685,2.6253313069092226
1648125376683489730,20765,47,4,1.02891433239,-0.908317685127,0.477911472321,0.161837622523,29.6000003815,0.3441185058160535,-0.3037851789722408,0.15983661281638795,29.6000003815,0.021869948989594594,0.5736902710115824,1.4533083278809273
1648125376683495586,20766,47,5,1.08956444263,-0.807230770588,-0.0979527011514,0.242756426334,29.6000003815,0.36440282362207355,-0.2699768463505016,-0.032760100719531775,29.6000003815,0.03280492247756756,0.581778594735869,1.3595465873924932
1648125376683499462,20767,47,6,0.803285360336,-1.64083206654,0.422983646393,0.242756426334,29.6000003815,0.26865731114916386,-0.5487732664013377,0.14146610247257524,29.6000003815,0.03280492247756756,0.6674620585356076,1.8752366266239529
1648125376683502953,20768,47,7,1.12306308746,-0.89073741436,0.442587912083,0.323675245047,29.6000003815,0.3756063837658863,-0.29790548975250836,0.14802271307123746,29.6000003815,0.04373989797932432,0.6090221604145898,1.5001892879493293
