%time,field.header.seq,field.header.frame_id,field.point_id,field.x,field.y,field.z,field.velocity,field.intensity,normalized_x,normalized_y,normalized_z,normalized_intensity,normalized_velocity,normalized_range,range
1648126041590755091,52240,0,0,0.0126355709508,0.0439508594573,0.0103191342205,0.0,24.3999996185,0.00422594346180602,0.014699284099431437,0.003451215458361204,24.3999996185,0.0,0.015867770773506908,0.04688091542780209
1648126041590829766,52241,0,1,0.0328158736229,0.0146502861753,-0.0301049444824,0.0,24.3999996185,0.010975208569531771,0.0048997612626421405,-0.010068543305150501,24.3999996185,0.0,0.016276303840870497,0.04688091433558774
1648126041590839043,52242,0,2,0.0985101386905,-0.399952799082,-0.449182748795,0.0,24.3999996185,0.032946534679096987,-0.13376347795384613,-0.1502283440785953,24.3999996185,0.0,0.14164609535398764,0.6094519101072539
1648126041590844034,52243,0,3,0.276778995991,-1.58955609798,0.29838681221,0.0,24.3999996185,0.09256822608394648,-0.5316241130367892,0.0997949204715719,24.3999996185,0.0,0.5475052059321537,1.6408320727448118
1648126041590853160,52244,0,4,1.86143064499,-1.31852579117,0.539552509785,0.0,24.3999996185,0.622552055180602,-0.44097852547491634,0.18045234440969898,24.3999996185,0.0,0.9846848139121543,2.3440459080196474
1648126041590858064,52245,0,5,2.42069101334,-0.902457654476,0.467108815908,0.0,24.3999996185,0.8095956566354514,-0.30182530250033446,0.15622368425016722,24.3999996185,0.0,1.1840560661199258,2.6253314926093303
1648126041590861991,52246,0,6,0.687774240971,0.990359306335,0.178553983569,-0.161837622523,24.3999996185,0.2300248297561873,0.3312238482725752,0.059717051360869564,24.3999996185,-0.021869948989594594,0.4642543292993829,1.218903805571193
1648126041695832421,52247,1,0,0.0126355709508,0.0439508594573,0.0103191342205,0.0,33.9000015259,0.00422594346180602,0.014699284099431437,0.003451215458361204,33.9000015259,0.0,0.015867770773506908,0.04688091542780209
1648126041695928339,52248,1,1,0.0327914953232,0.0146502861753,-0.0301314946264,0.0,33.9000015259,0.010967055292040133,0.0048997612626421405,-0.010077422951973244,33.9000015259,0.0,0.01626530860414949,0.046880913162719064
1648126041695971422,52249,1,2,0.109929181635,-0.399952799082,-0.446525424719,0.0,33.9000015259,0.03676561258695652,-0.13376347795384613,-0.1493396069294314,33.9000015259,0.0,0.14351337419243348,0.6094519024409972
1648126041695985620,52250,1,3,0.266364127398,-1.58955609798,0.307719767094,0.0,33.9000015259,0.08908499244080266,-0.5316241130367892,0.10291631006488294,33.9000015259,0.0,0.5463483040318773,1.6408320730806938
1648126041696007569,52251,1,4,1.86375713348,-1.31852579117,0.531460344791,0.0,33.9000015259,0.6233301449765886,-0.44097852547491634,0.17774593471270903,33.9000015259,0.0,0.9856688080704904,2.344045864027287
1648126041696104761,52252,1,5,2.42082023621,-0.902457654476,0.466437757015,0.0,33.9000015259,0.809638874986622,-0.30182530250033446,0.15599924983779265,33.9000015259,0.0,1.1841151671221108,2.6253313343910225
1648126041696110148,52253,1,6,1.04589271545,1.03138017654,0.30484649539,0.161837622523,33.9000015259,0.34979689479933107,0.34494320285618724,0.10195534962876254,33.9000015259,0.021869948989594594,0.6030767351002635,1.5001893302322282
1648126041696128513,52254,1,7,0.602506518364,0.949338555336,0.0410695336759,-0.647350490093,33.9000015259,0.20150719677725754,0.3175045335571906,0.013735629991939799,33.9000015259,-0.08747979595851352,0.426637351313063,1.125141992779093
1648126041696131387,52255,1,8,0.653062701225,0.990359306335,0.280042886734,-0.242756426334,33.9000015259,0.21841561913879598,0.3312238482725752,0.09365982833913043,33.9000015259,-0.03280492247756756,0.4529017586983529,1.218903796772308
1648126041696136460,52256,1,9,0.944909870625,0.97717410326,-0.0253578871489,-0.0809188112617,33.9000015259,0.31602336810200665,0.3268140813578595,-0.008480898712006689,33.9000015259,-0.010934974494824324,0.5536686573636388,1.3595465840224805
1648126041890957352,52257,3,0,0.0126256523654,0.0439508594573,0.010331267491,0.0,20.7000007629,0.004222626209163879,0.014699284099431437,0.0034552734083612034,20.7000007629,0.0,0.015866004451040385,0.04688091544176436
1648126041891014237,52258,3,1,0.0327914953232,0.0146502861753,-0.0301314946264,0.0,20.7000007629,0.010967055292040133,0.0048997612626421405,-0.010077422951973244,20.7000007629,0.0,0.01626530860414949,0.046880913162719064
1648126041891150772,52259,3,2,0.102426812053,-0.399952799082,-0.448305845261,0.0,20.7000007629,0.034256458880602005,-0.13376347795384613,-0.14993506530468226,20.7000007629,0.0,0.14226622221871862,0.6094519047603731
1648126041891157613,52260,3,3,0.271363854408,-1.58955609798,0.303319901228,0.0,20.7000007629,0.0907571419424749,-0.5316241130367892,0.101444783019398,20.7000007629,0.0,0.5468984505274137,1.6408320732437958
1648126041891187053,52261,3,4,1.86416757107,-1.31852579117,0.530019462109,0.0,20.7000007629,0.6234674150735786,-0.44097852547491634,0.1772640341501672,20.7000007629,0.0,0.9858424292183267,2.344045994690337
1648126041891189981,52262,3,5,2.41961622238,-0.902457654476,0.472643852234,0.0,20.7000007629,0.8092361947759197,-0.30182530250033446,0.15807486696789297,20.7000007629,0.0,1.1835645107471915,2.625331349140786
1648126041891198510,52263,3,6,0.612571537495,0.769140005112,-0.0491779707372,-0.647350490093,20.7000007629,0.20487342391137123,0.2572374599036789,-0.01644748185190635,20.7000007629,-0.08747979595851352,0.387449803752736,0.9844992172767353
1648126041891205138,52264,3,7,0.668880283833,0.915642917156,0.296369671822,-0.323675245047,20.7000007629,0.22370578054615384,0.30623508934983273,0.09912029157926422,20.7000007629,-0.04373989797932432,0.44030498798972045,1.1720229384335206
1648126041891209280,52265,3,8,0.931046187878,0.97717410326,-0.163250133395,-0.242756426334,20.7000007629,0.31138668490903004,0.3268140813578595,-0.05459870682107023,20.7000007629,-0.03280492247756756,0.548389258511737,1.3595465560611106
1648126041996072321,52266,4,0,0.0126151693985,0.0439508594573,0.0103440657258,0.0,21.2999992371,0.004219120200167224,0.014699284099431437,0.00345955375444816,21.2999992371,0.0,0.01586413891652226,0.046880915538498796
1648126041996086083,52267,4,1,0.0328039452434,0.0146502861753,-0.0301179438829,0.0,21.2999992371,0.010971219144949832,0.0048997612626421405,-0.010072890930735786,21.2999992371,0.0,0.016270923744026212,0.04688091565108008
1648126041996268976,52268,4,2,0.117984600365,-0.399952799082,-0.444464862347,0.0,21.2999992371,0.039459732563545145,-0.13376347795384613,-0.14865045563444815,21.2999992371,0.0,0.14493725891668469,0.6094519023499336
1648126041996276456,52269,4,3,0.279994726181,-1.58955609798,0.295371383429,0.0,21.2999992371,0.09364372113076923,-0.5316241130367892,0.09878641586254179,21.2999992371,0.0,0.5478708703486501,1.6408320722923897
1648126041996285326,52270,4,4,1.86654126644,-1.31852579117,0.521598100662,0.0,21.2999992371,0.6242612931237458,-0.44097852547491634,0.1744475253050167,21.2999992371,0.0,0.9868466872392561,2.344045891171527
1648126041996287092,52271,4,5,2.4205224514,-0.902457654476,0.467980921268,0.0,21.2999992371,0.8095392814046822,-0.30182530250033446,0.15651535828361204,21.2999992371,0.0,1.1839789734213344,2.625331388325031
1648126041996289056,52272,4,6,0.584411561489,0.732514321804,0.0318436287344,-0.404594063759,21.2999992371,0.1954553717354515,0.24498806749297658,0.010650043054983276,21.2999992371,-0.05467487348094594,0.3693572226103482,0.937618324021539
1648126041996298268,52273,4,7,0.839037835598,0.876087069511,-0.119220145047,-0.404594063759,21.2999992371,0.28061466073511704,0.2930057088665552,-0.039872958209698994,21.2999992371,-0.05467487348094594,0.4932965852987046,1.2189038050290828
1648126041996315757,52274,4,8,0.754153966904,0.808695793152,0.207863762975,-0.242756426334,21.2999992371,0.25222540699130436,0.2704668204521739,0.06951965316889631,21.2999992371,-0.03280492247756756,0.44764675004892723,1.1251419624282568
1648126042190985568,52275,6,0,0.0126355709508,0.0439508594573,0.0103191342205,0.0,33.2000007629,0.00422594346180602,0.014699284099431437,0.003451215458361204,33.2000007629,0.0,0.015867770773506908,0.04688091542780209
1648126042190989703,52276,6,1,0.0327914953232,0.0146502861753,-0.0301314946264,0.0,33.2000007629,0.010967055292040133,0.0048997612626421405,-0.010077422951973244,33.2000007629,0.0,0.01626530860414949,0.046880913162719064
1648126042190994033,52277,6,2,1.86773395538,-1.31852579117,0.517311275005,0.0,33.2000007629,0.6246601857458194,-0.44097852547491634,0.1730138043494983,33.2000007629,0.0,0.9873513838760923,2.3440459349823315
1648126042191102124,52278,6,3,2.42025732994,-0.902457654476,0.469350904226,0.0,33.2000007629,0.8094506120200669,-0.30182530250033446,0.1569735465638796,33.2000007629,0.0,1.1838577194193312,2.6253315281214267
1648126042191104851,52279,6,4,1.32387793064,0.773535132408,0.205953642726,-0.485512852669,33.2000007629,0.44276853867558524,0.2587074021431438,0.06888081696521739,33.2000007629,-0.06560984495527027,0.6775082860050353,1.5470702244103915
1648126042191486602,52280,6,5,0.816708266735,0.673913121223,0.203655347228,-0.161837622523,33.2000007629,0.2731465775033444,0.22538900375351167,0.06811215626354514,33.2000007629,-0.021869948989594594,0.4472340646871408,1.078261001967692
1648126042191498100,52281,6,6,1.05264043808,0.779395282269,0.0870754718781,-0.161837622523,33.2000007629,0.3520536582207358,0.2606673184846154,0.029122231397357857,33.2000007629,-0.021869948989594594,0.561988440681092,1.312665622200575
1648126042295584252,52282,7,0,0.0126355709508,0.0439508594573,0.0103191342205,0.0,15.3000001907,0.00422594346180602,0.014699284099431437,0.003451215458361204,15.3000001907,0.0,0.015867770773506908,0.04688091542780209
1648126042295591820,52283,7,1,0.0327670387924,0.0146502861753,-0.0301580931991,0.0,15.3000001907,0.010958875850301001,0.0048997612626421405,-0.010086318795685618,15.3000001907,0.0,0.016254278828527258,0.04688091617754962
1648126042295597498,52284,7,2,1.86806678772,-1.31852579117,0.516107916832,0.0,15.3000001907,0.6247715009096989,-0.44097852547491634,0.17261134342207354,15.3000001907,0.0,0.9874922362367955,2.3440458969865885
1648126042295600527,52285,7,3,2.41991615295,-0.902457654476,0.471106618643,0.0,15.3000001907,0.8093365060033444,-0.30182530250033446,0.15756074202107023,15.3000001907,0.0,1.1837016824896471,2.6253314936517813
1648126042295603170,52286,7,4,0.60277736187,0.703213751316,0.145869776607,0.161837622523,15.3000001907,0.2015977798896321,0.23518854559063543,0.0487858784638796,15.3000001907,0.021869948989594594,0.36959028895507456,0.9376183230666164
1648126042295608433,52287,7,5,1.22993373871,0.703213751316,0.493276149035,-0.404594063759,15.3000001907,0.41134907649163877,0.23518854559063543,0.16497530068060198,15.3000001907,-0.05467487348094594,0.6274789059706203,1.5001893016762515
1648126042295632673,52288,7,6,0.801690578461,0.707608819008,0.138667717576,-0.242756426334,15.3000001907,0.26812393928461536,0.23665846789565215,0.04637716306889632,15.3000001907,-0.03280492247756756,0.44697664822864924,1.0782609889209414
1648126042295718560,52289,7,7,0.77196931839,0.668053030968,0.472983032465,-0.0809188112617,15.3000001907,0.2581837185250836,0.22342910734715715,0.1581883051722408,15.3000001907,-0.010934974494824324,0.4280633493220678,1.1251419598081125
1648126042395783499,52290,8,0,0.0126151693985,0.0439508594573,0.0103440657258,0.0,17.2000007629,0.004219120200167224,0.014699284099431437,0.00345955375444816,17.2000007629,0.0,0.01586413891652226,0.046880915538498796
1648126042395789239,52291,8,1,0.0327914953232,0.0146502861753,-0.0301314946264,0.0,17.2000007629,0.010967055292040133,0.0048997612626421405,-0.010077422951973244,17.2000007629,0.0,0.01626530860414949,0.046880913162719064
1648126042395796096,52292,8,2,1.9017226696,-1.24527442455,0.572095990181,0.0,17.2000007629,0.6360276486956521,-0.4164797406521739,0.19133645156555182,17.2000007629,0.0,0.9912203156636479,2.3440459309685173
1648126042395936910,52293,8,3,2.41999053955,-0.902457654476,0.470723479986,0.0,17.2000007629,0.8093613844648829,-0.30182530250033446,0.15743260200200668,17.2000007629,0.0,1.183735702999298,2.6253313360876858
1648126042395940737,52294,8,4,0.677266776562,0.64461261034,0.0700882598758,0.242756426334,17.2000007629,0.22651062761270901,0.21558950178595315,0.023440889590568562,17.2000007629,0.03280492247756756,0.38612557817803544,0.9376182955853881
1648126042395942953,52295,8,5,1.34977030754,0.499574750662,0.201619654894,-0.566431701183,17.2000007629,0.4514281965016722,0.16708185640869566,0.0674313227070234,17.2000007629,-0.07654482448418919,0.6599175554070984,1.4533083980543158
1648126042395946060,52296,8,6,1.29538607597,0.54499065876,0.370223224163,-0.323675245047,17.2000007629,0.43323949029096986,0.18227112333110365,0.12382047630869565,17.2000007629,-0.04373989797932432,0.6392305329812877,1.4533083429411187
1648126042395951333,52297,8,7,0.73053508997,0.64461261034,0.338434785604,-0.242756426334,17.2000007629,0.24432611704682275,0.21558950178595315,0.1131888915063545,17.2000007629,-0.03280492247756756,0.4072705933684274,1.031380162303721
1648126042395999933,52298,8,8,0.852697908878,0.580151319504,-0.00870437547565,-0.0809188112617,17.2000007629,0.28518324711638793,0.19403054164013378,-0.002911162366438127,17.2000007629,-0.010934974494824324,0.4475564991829046,1.0313801643814793
1648126042396003128,52299,8,9,1.03069365025,0.549385726452,0.0973848626018,-0.0809188112617,17.2000007629,0.3447135954013377,0.1837410456361204,0.032570188161137124,17.2000007629,-0.010934974494824324,0.5209757168625897,1.17202298977402
1648126042495776682,52300,9,0,0.0126355709508,0.0439508594573,0.0103191342205,0.0,17.3999996185,0.00422594346180602,0.014699284099431437,0.003451215458361204,17.3999996185,0.0,0.015867770773506908,0.04688091542780209
1648126042495792243,52301,9,1,0.0327914953232,0.0146502861753,-0.0301314946264,0.0,17.3999996185,0.010967055292040133,0.0048997612626421405,-0.010077422951973244,17.3999996185,0.0,0.01626530860414949,0.046880913162719064
1648126042495802530,52302,9,2,1.06608235836,0.476134330034,0.101991616189,0.0,17.3999996185,0.3565492837324415,0.15924225084749163,0.034110908424414714,17.3999996185,0.0,0.5287843397030679,1.1720229455160807
1648126042495815487,52303,9,3,1.90808594227,-1.24527442455,0.550500690937,0.0,17.3999996185,0.6381558335351171,-0.4164797406521739,0.18411394345719065,17.3999996185,0.0,0.9939522675277229,2.3440459394493196
1648126042495939109,52304,9,4,2.41967892647,-0.902457654476,0.472323358059,0.0,17.3999996185,0.8092571660434782,-0.30182530250033446,0.157967678280602,17.3999996185,0.0,1.18359318805697,2.625331460957543
1648126042495954914,52305,9,5,0.785042226315,0.668053030968,0.450952738523,-0.404594063759,17.3999996185,0.2625559285334448,0.22342910734715715,0.15082031388729095,17.3999996185,-0.05467487348094594,0.4333495093179017,1.125142000666821
1648126042495958111,52306,9,6,1.56562149525,-1.50751447678,0.743771493435,-0.404594063759,17.3999996185,0.523619229180602,-0.5041854437391304,0.24875300783779264,17.3999996185,-0.05467487348094594,0.8958555441664685,2.2971649045152707
1648126042495960445,52307,9,7,0.810463607311,0.547920703888,0.326613992453,-0.323675245047,17.3999996185,0.2710580626458194,0.18325107153444814,0.10923544898093644,17.3999996185,-0.04373989797932432,0.4248833979683524,1.0313801707376231
1648126042495964637,52308,9,8,1.31048750877,0.39555773139,0.322792381048,-0.323675245047,17.3999996185,0.4382901367123746,0.13229355564882941,0.10795731807625418,17.3999996185,-0.04373989797932432,0.633796554696311,1.4064275135133135
1648126042495967137,52309,9,9,1.24380719662,0.410208046436,-0.0881151407957,-0.242756426334,17.3999996185,0.41598902896989964,0.13719332656722408,-0.029469946754414715,17.3999996185,-0.03280492247756756,0.6040825715920142,1.312665708305808
1648126042496038977,52310,9,10,1.00696563721,0.79111546278,-2.50445795059,-0.242756426334,17.3999996185,0.3367778050869565,0.26458711129765883,-0.8376113547123745,17.3999996185,-0.03280492247756756,0.5448347634496313,2.812854972486996
1648126042496043069,52311,9,11,1.99621391296,-0.351606875658,-1.95029640198,-0.242756426334,17.3999996185,0.6676300712240802,-0.11759427279531771,-0.6522730441404682,17.3999996185,-0.03280492247756756,0.9514663614650811,2.81285503303693
1648126042496066567,52312,9,12,1.16450834274,0.467344135046,-0.523332357407,-0.161837622523,17.3999996185,0.3894676731571906,0.15630238630301002,-0.17502754428327758,17.3999996185,-0.021869948989594594,0.5725387085891817,1.3595466072121702
1648126042595672676,52313,10,0,0.0127222454175,0.0439508594573,0.0102120842785,0.0,15.3999996185,0.004254931577759197,0.014699284099431437,0.003415412802173913,15.3999996185,0.0,0.01588325654576613,0.04688091552870553
1648126042595678908,52314,10,1,0.0327914953232,0.0146502861753,-0.0301314946264,0.0,15.3999996185,0.010967055292040133,0.0048997612626421405,-0.010077422951973244,15.3999996185,0.0,0.01626530860414949,0.046880913162719064
1648126042595775628,52315,10,2,0.28642052412,-1.58955609798,0.289144575596,0.0,15.3999996185,0.09579281743143812,-0.5316241130367892,0.09670387143678928,15.3999996185,0.0,0.5486134570943904,1.6408320727177323
1648126042595778834,52316,10,3,1.87759757042,-1.31852579117,0.48027959466,0.0,15.3999996185,0.6279590536521739,-0.44097852547491634,0.1606286269765886,15.3999996185,0.0,0.9915277132069981,2.344045943976853
1648126042595782953,52317,10,4,2.41980195045,-0.902457654476,0.471691906452,0.0,15.3999996185,0.809298311187291,-0.30182530250033446,0.1577564904521739,15.3999996185,0.0,1.1836494524185026,2.6253313223546226
1648126042595787655,52318,10,5,0.720566630363,0.586011469364,0.128461718559,-0.566431701183,15.3999996185,0.24099218406789294,0.19599045798127088,0.04296378547123745,15.3999996185,-0.07654482448418919,0.39314974905668537,0.9376183254149708
1648126042595919306,52319,10,6,0.808871924877,0.572826147079,0.424550563097,-0.485512852669,15.3999996185,0.270525727383612,0.19158065119698997,0.1419901548819398,15.3999996185,-0.06560984495527027,0.42786853619532195,1.078260991716558
1648126042595930091,52320,10,7,0.801367580891,0.49224960804,0.291099697351,-0.323675245047,15.3999996185,0.26801591334147157,0.16463197593311035,0.09735775831137122,15.3999996185,-0.04373989797932432,0.41324175382960354,0.9844992179359366
1648126042595931282,52321,10,8,1.64440512657,-0.5186201334,-2.16277074814,-0.323675245047,15.3999996185,0.5499682697558528,-0.17345154963210702,-0.7233346983745819,15.3999996185,-0.04373989797932432,0.7968786830793456,2.7659740367667203
1648126042595933774,52322,10,9,1.34901595116,0.263705164194,0.297747969627,-0.242756426334,15.3999996185,0.45117590339799324,0.0881957070882943,0.09958126074481605,15.3999996185,-0.03280492247756756,0.6441256665921603,1.4064274967177315
1648126042595972101,52323,10,10,0.910876095295,0.483459472656,0.0177961494774,-0.161837622523,15.3999996185,0.3046408345468227,0.16169213132307692,0.005951889457324414,15.3999996185,-0.021869948989594594,0.4601699919362065,1.0313801557218878
1648126042695673274,52324,11,0,0.0126151693985,0.0439508594573,0.0103440657258,0.0,38.7000007629,0.004219120200167224,0.014699284099431437,0.00345955375444816,38.7000007629,0.0,0.01586413891652226,0.046880915538498796
1648126042695679942,52325,11,1,0.0328158736229,0.0146502861753,-0.0301049444824,0.0,38.7000007629,0.010975208569531771,0.0048997612626421405,-0.010068543305150501,38.7000007629,0.0,0.016276303840870497,0.04688091433558774
1648126042695700638,52326,11,2,1.31815183163,0.297400802374,0.149651154876,0.0,38.7000007629,0.4408534553946488,0.09946515129565217,0.05005055347023411,38.7000007629,0.0,0.6313452736728693,1.3595465996566443
1648126042695709208,52327,11,3,0.484594076872,-1.53828001022,0.301981985569,0.0,38.7000007629,0.1620715976160535,-0.51447491980602,0.10099731958829432,38.7000007629,0.0,0.5632218467149961,1.6408320842761654
1648126042695859326,52328,11,4,1.902556777,-1.24527442455,0.569315969944,0.0,38.7000007629,0.6363066143812709,-0.4164797406521739,0.19040667891103677,38.7000007629,0.0,0.9915783324500455,2.3440459372162996
1648126042695879156,52329,11,5,2.41857004166,-0.902457654476,0.477968633175,0.0,38.7000007629,0.8088863015585283,-0.30182530250033446,0.15985573015886287,38.7000007629,0.0,1.183086053897808,2.625331384575432
1648126042695883387,52330,11,6,1.33138418198,-1.6173915863,0.511906027794,-0.647350490093,38.7000007629,0.4452789906287625,-0.54093364090301,0.17120602936254178,38.7000007629,-0.08747979595851352,0.830154180168555,2.156522006554168
1648126042695886924,52331,11,7,0.819206774235,0.386767566204,0.493007153273,-0.404594063759,38.7000007629,0.27398219874080265,0.1293537010715719,0.16488533554280935,38.7000007629,-0.05467487348094594,0.4084909673843511,1.0313801153785287
1648126042695954673,52332,11,8,1.71360743046,0.6050568223,-2.0852022171,-0.323675245047,38.7000007629,0.5731128529966555,0.20236014123745819,-0.6973920458528428,38.7000007629,-0.04373989797932432,0.8353839304784215,2.765974054494773
1648126042695957841,52333,11,9,1.58908104897,-0.6914935112,-2.15575289726,-0.323675245047,38.7000007629,0.5314652337692307,-0.23126873284280935,-0.7209875910568562,38.7000007629,-0.04373989797932432,0.7863814698996187,2.7659740436728946
1648126042795632161,52334,12,0,0.0126355709508,0.0439508594573,0.0103191342205,0.0,26.5,0.00422594346180602,0.014699284099431437,0.003451215458361204,26.5,0.0,0.015867770773506908,0.04688091542780209
1648126042795641894,52335,12,1,0.0328039452434,0.0146502861753,-0.0301179438829,0.0,26.5,0.010971219144949832,0.0048997612626421405,-0.010072890930735786,26.5,0.0,0.016270923744026212,0.04688091565108008
1648126042795644460,52336,12,2,0.270481050014,-1.58955609798,0.304107397795,0.0,26.5,0.0904618896367893,-0.5316241130367892,0.10170815979765886,26.5,0.0,0.5468006076399972,1.6408320744170397
1648126042795653719,52337,12,3,1.87887740135,-1.31852579117,0.475247830153,0.0,26.5,0.6283870907525083,-0.44097852547491634,0.15894576259297657,26.5,0.0,0.9920699227266361,2.344045872279239
1648126042795806129,52338,12,4,2.39030146599,-0.984499275684,0.457805275917,0.0,26.5,0.7994319284247491,-0.32926397180066885,0.15311213241371235,26.5,0.0,1.1775387804636321,2.6253315205500627
1648126042795869825,52339,12,5,0.700324654579,0.348676800728,0.152118101716,-0.566431701183,26.5,0.23422229250133775,0.11661431462474915,0.050875619303010024,26.5,-0.07654482448418919,0.35116814061723256,0.7969755642720725
1648126042795873830,52340,12,6,1.17416751385,-1.64815723896,0.596233785152,-0.485512852669,26.5,0.39269816516722406,-0.5512231568428093,0.19940929269297658,26.5,-0.06560984495527027,0.7824772626033047,2.1096412873931016
1648126042795876023,52341,12,7,2.06020021439,0.329631447792,0.312256395817,-0.485512852669,26.5,0.6890301720367893,0.11024463136856186,0.10443357719632106,26.5,-0.06560984495527027,0.9806523516005481,2.1096411712598604
1648126042795878333,52342,12,8,0.887574195862,0.293005734682,0.0740793272853,-0.323675245047,26.5,0.2968475571444816,0.09799522899063544,0.02477569474424749,26.5,-0.04373989797932432,0.43109164834199654,0.9376182914425556
1648126042795882286,52343,12,9,0.801362276077,0.293005734682,0.803494811058,-0.242756426334,26.5,0.26801413915618727,0.09799522899063544,0.26872736155785953,26.5,-0.03280492247756756,0.3914923019424409,1.1720229389704706
1648126042795886222,52344,12,10,1.71754300594,0.594801604748,-2.02230668068,-0.242756426334,26.5,0.5744290989765887,0.19893030259130434,-0.6763567493913043,26.5,-0.03280492247756756,0.8363676492973523,2.7190930909012967
1648126042795888748,52345,12,11,1.69562375546,-1.01965987682,-1.86510622501,-0.242756426334,26.5,0.5670982459732441,-0.34102337017391304,-0.6237813461571906,26.5,-0.03280492247756756,0.8714916982832561,2.7190931236439666
1648126042895761135,52346,13,0,0.0127021931112,0.0439508594573,0.0102370148525,0.0,28.6000003815,0.004248225120802675,0.014699284099431437,0.0034237507867892975,28.6000003815,0.0,0.0158796658148034,0.04688091541298931
1648126042895768682,52347,13,1,0.0327914953232,0.0146502861753,-0.0301314946264,0.0,28.6000003815,0.010967055292040133,0.0048997612626421405,-0.010077422951973244,28.6000003815,0.0,0.01626530860414949,0.046880913162719064
1648126042895907710,52348,13,2,0.277211934328,-1.58955609798,0.297984659672,0.0,28.6000003815,0.09271302151438127,-0.5316241130367892,0.09966042129498327,28.6000003815,0.0,0.5475542039641419,1.6408320762829793
1648126042895911594,52349,13,3,1.87825620174,-1.31852579117,0.477696985006,0.0,28.6000003815,0.6281793316856187,-0.44097852547491634,0.15976487792842808,28.6000003815,0.0,0.9918067379505003,2.344045867904267
1648126042895914848,52350,13,4,2.4213540554,-0.902457654476,0.463659286499,0.0,28.6000003815,0.809817409832776,-0.30182530250033446,0.15506999548461536,28.6000003815,0.0,1.1843593153118486,2.625331448347258
1648126042895918951,52351,13,5,0.808955430984,-1.80491530895,0.58553558588,-0.485512852669,28.6000003815,0.27055365584749164,-0.603650605,0.19583129962541804,28.6000003815,-0.06560984495527027,0.7146975684174054,2.0627603069994387
1648126042895993644,52352,13,6,0.715471625328,0.187523663044,0.124808631837,-0.323675245047,28.6000003815,0.23928816900602007,0.0627169441618729,0.0417420173367893,28.6000003815,-0.04373989797932432,0.34416721333896805,0.7500946376504458
1648126042895998773,52353,13,7,0.869700551033,0.32230630517,0.13735987246,-0.323675245047,28.6000003815,0.29086974950936456,0.10779475089297658,0.04593975667558528,28.6000003815,-0.04373989797932432,0.42524126173192534,0.9376183324688508
1648126042896001001,52354,13,8,2.62187981606,-0.339886635542,0.635366797447,-0.161837622523,28.6000003815,0.8768828816254179,-0.11367446004749163,0.21249725667123742,28.6000003815,-0.021869948989594594,1.2452987830406332,2.719093169087984
1648126042896021149,52355,13,9,1.26063871384,0.594801604748,-2.33462381363,-0.161837622523,28.6000003815,0.42161829894314373,0.19893030259130434,-0.7808106400100334,28.6000003815,-0.021869948989594594,0.6285676139418004,2.71909309642227
1648126042995764867,52356,14,0,0.0126355709508,0.0439508594573,0.0103191342205,0.0,20.7000007629,0.00422594346180602,0.014699284099431437,0.003451215458361204,20.7000007629,0.0,0.015867770773506908,0.04688091542780209
1648126042995770682,52357,14,1,0.0327914953232,0.0146502861753,-0.0301314946264,0.0,20.7000007629,0.010967055292040133,0.0048997612626421405,-0.010077422951973244,20.7000007629,0.0,0.01626530860414949,0.046880913162719064
1648126042995784170,52358,14,2,0.273984253407,-1.58955609798,0.300955057144,0.0,20.7000007629,0.09163352956755852,-0.5316241130367892,0.10065386526555184,20.7000007629,0.0,0.5471906478040082,1.6408320773805414
1648126042995790498,52359,14,3,1.87741410732,-1.31852579117,0.480996221304,0.0,20.7000007629,0.6278976947558528,-0.44097852547491634,0.16086830143946487,20.7000007629,0.0,0.9914499937412171,2.344045937530524
1648126042995800000,52360,14,4,2.38227939606,-0.984499275684,0.497866719961,0.0,20.7000007629,0.7967489618929765,-0.32926397180066885,0.1665106086826087,20.7000007629,0.0,1.1738963240768,2.625331448704914
1648126042995920396,52361,14,5,0.729725301266,0.046880915761,0.167167976499,0.0809188112617,20.7000007629,0.2440552847043478,0.015679236040468225,0.055909022240468224,20.7000007629,0.010934974494824324,0.34550224663097817,0.7500946393203425
1648126042995923618,52362,14,6,1.9252178669,0.963988780975,0.468237519264,0.161837622523,20.7000007629,0.6438855742140468,0.32240427457357856,0.15660117701137122,20.7000007629,0.021869948989594594,0.9659822884635209,2.203402954369254
1648126042995934902,52363,14,7,0.736442744732,-0.0,0.142457291484,0.323675245047,20.7000007629,0.24630192131505016,-0.0,0.04764457909163879,20.7000007629,0.04373989797932432,0.34832351756229485,0.7500946581367974
1648126042995937857,52364,14,8,1.11354088783,-0.0,-1.32997846603,-0.566431701183,20.7000007629,0.37242170161538457,-0.0,-0.4448088515150501,20.7000007629,-0.07654482448418919,0.5266838213465429,1.7345939089518148
1648126042995940549,52365,14,9,1.53376460075,0.70467877388,0.399762243032,-0.566431701183,20.7000007629,0.5129647494147157,0.2356785196923077,0.1336997468334448,20.7000007629,-0.07654482448418919,0.7627647297355598,1.7345938648066306
1648126042995942810,52366,14,10,0.833767771721,0.194848805666,0.245516553521,-0.242756426334,20.7000007629,0.27885209756555185,0.06516682463745818,0.08211255970602006,20.7000007629,-0.03280492247756756,0.3997045154445285,0.8907374092755386
1648126042995945129,52367,14,11,0.8635186553,-1.86937654018,0.121437318623,-0.242756426334,20.7000007629,0.2888022258528428,-0.6252095452107023,0.04061448783377926,20.7000007629,-0.03280492247756756,0.7467934297633356,2.0627603203912983
1648126042995950777,52368,14,12,2.58453512192,-0.424858301878,0.730164647102,-0.161837622523,20.7000007629,0.8643930173645484,-0.14209307755117057,0.2442022231110368,20.7000007629,-0.021869948989594594,1.230666900353276,2.719093007785919
1648126042995955570,52369,14,13,1.32497763634,0.509829938412,-2.31904625893,-0.161837622523,20.7000007629,0.44313633322408025,0.1705116850876254,-0.7756007554949832,20.7000007629,-0.021869948989594594,0.6494719812262787,2.7190932043531615
1648126042995965023,52370,14,14,0.920980811119,0.175803437829,0.00395477470011,-0.0809188112617,20.7000007629,0.3080203381668896,0.05879713639765886,0.0013226671237826085,20.7000007629,-0.010934974494824324,0.4395567775583206,0.9376183357021314
1648126043095944222,52371,15,0,0.0126051837578,0.0439508594573,0.0103562315926,0.0,21.1000003815,0.004215780521003344,0.014699284099431437,0.003463622606220736,21.1000003815,0.0,0.015862363122761385,0.04688091549237075
1648126043095949883,52372,15,1,0.0328039452434,0.0146502861753,-0.0301179438829,0.0,21.1000003815,0.010971219144949832,0.0048997612626421405,-0.010072890930735786,21.1000003815,0.0,0.016270923744026212,0.04688091565108008
1648126043095963606,52373,15,2,0.787203431129,0.131852567196,0.273896545172,0.0,21.1000003815,0.26327873950802677,0.04409784856053511,0.091604195709699,21.1000003815,0.0,0.37493467377869805,0.8438564207936107
1648126043095968218,52374,15,3,0.274427473545,-1.58955609798,0.300550937653,0.0,21.1000003815,0.09178176372742475,-0.5316241130367892,0.1005187082451505,21.1000003815,0.0,0.5472403328227795,1.6408320733657642
1648126043095974944,52375,15,4,1.88025701046,-1.31852579117,0.469760090113,0.0,21.1000003815,0.6288484984816053,-0.44097852547491634,0.15711039803110366,21.1000003815,0.0,0.9926544857175483,2.3440459103070967
1648126043095985751,52376,15,5,2.3876812458,-0.984499275684,0.471280246973,0.0,21.1000003815,0.7985556006020067,-0.32926397180066885,0.1576188116966555,21.1000003815,0.0,1.176348952323083,2.625331526979839
1648126043095993875,52377,15,6,0.720279097557,-0.046880915761,0.204064115882,0.242756426334,21.1000003815,0.24089601924983278,-0.015679236040468225,0.06824886818795986,21.1000003815,0.03280492247756756,0.34103903387096957,0.7500946353833087
1648126043096088668,52378,15,7,0.72361856699,-0.140642747283,0.13870023191,0.566431701183,21.1000003815,0.24201289865886288,-0.047037708121404675,0.046388037428093644,21.1000003815,0.07654482448418919,0.3454750819087312,0.7500946388209015
1648126043096092813,52379,15,8,1.01760745049,-1.13393211365,-1.32001626492,-0.242756426334,21.1000003815,0.3403369399632106,-0.37924150958193975,-0.4414770116789297,21.1000003815,-0.03280492247756756,0.6127663404569743,2.0158794362046706
1648126043096095718,52380,15,9,0.101374521852,-1.1646977663,-2.19245958328,-0.161837622523,21.1000003815,0.03390452235852842,-0.38953102551839464,-0.7332640746755852,21.1000003815,-0.021869948989594594,0.3924709583066397,2.4846884522654427
1648126043096146207,52381,15,10,1.92876219749,-0.155293032527,-1.55866515636,-0.161837622523,21.1000003815,0.6450709690602007,-0.051937469072575244,-0.5212926944347825,21.1000003815,-0.021869948989594594,0.9137453753328645,2.4846884331981403
1648126043291055653,52382,17,0,0.0126151693985,0.0439508594573,0.0103440657258,0.0,12.6000003815,0.004219120200167224,0.014699284099431437,0.00345955375444816,12.6000003815,0.0,0.01586413891652226,0.046880915538498796
1648126043291194390,52383,17,1,0.0327914953232,0.0146502861753,-0.0301314946264,0.0,12.6000003815,0.010967055292040133,0.0048997612626421405,-0.010077422951973244,12.6000003815,0.0,0.01626530860414949,0.046880913162719064
1648126043291238777,52384,17,2,0.266535758972,-1.58955609798,0.30757111311,0.0,12.6000003815,0.08914239430501672,-0.5316241130367892,0.10286659301337793,12.6000003815,0.0,0.5463670290995011,1.6408320721682361
1648126043291243282,52385,17,3,1.93280088902,-1.17202293873,0.620640099049,0.0,12.6000003815,0.6464217020133779,-0.3919809159632107,0.20757193948127087,12.6000003815,0.0,0.9946713387582364,2.3440458993060185
1648126043291249268,52386,17,4,0.882894814014,0.0278355441988,0.114608705044,0.0809188112617,12.6000003815,0.2952825464929766,0.009309546554782609,0.03833067058327759,12.6000003815,0.010934974494824324,0.4176963396820822,0.8907374615483069
1648126043291251825,52387,17,5,0.745726048946,-0.124527432024,0.252102315426,0.242756426334,12.6000003815,0.24940670533311035,-0.04164797057658863,0.08431515566086956,12.6000003815,0.03280492247756756,0.3551646981097393,0.7969755321503003
1648126043291262054,52388,17,6,0.823406219482,-0.306190997362,0.147181481123,0.323675245047,12.6000003815,0.27538669547892974,-0.10240501584013377,0.0492245756264214,12.6000003815,0.04373989797932432,0.40269399221099345,0.8907374009957906
1648126043291265168,52389,17,7,0.288320869207,1.90746724606,0.394201159477,-0.242756426334,12.6000003815,0.09642838435016722,0.6379489117257524,0.13183985266789297,12.6000003815,-0.03280492247756756,0.6523616179611114,1.9689984186243046
1648126043291267251,52390,17,8,2.25263476372,-0.67244809866,-0.435866177082,-0.161837622523,12.6000003815,0.753389553083612,-0.2248990296521739,-0.14577464116454847,12.6000003815,-0.021869948989594594,1.088931224150331,2.3909264205398264
1648126043396017445,52391,18,0,0.0126256523654,0.0439508594573,0.010331267491,0.0,22.7000007629,0.004222626209163879,0.014699284099431437,0.0034552734083612034,22.7000007629,0.0,0.015866004451040385,0.04688091544176436
1648126043396019886,52392,18,1,0.0327914953232,0.0146502861753,-0.0301314946264,0.0,22.7000007629,0.010967055292040133,0.0048997612626421405,-0.010077422951973244,22.7000007629,0.0,0.01626530860414949,0.046880913162719064
1648126043396084441,52393,18,2,0.265584796667,-1.58955609798,0.308392643929,0.0,22.7000007629,0.08882434671137124,-0.5316241130367892,0.10314135248461538,22.7000007629,0.0,0.5462634224433818,1.6408320741854039
1648126043396148691,52394,18,3,2.06475067139,-1.04603040218,0.599295198917,0.0,22.7000007629,0.6905520640100334,-0.34984294387290965,0.2004331768953177,22.7000007629,0.0,1.0373593358112214,2.3909265301834925
1648126043396297613,52395,18,4,0.774358928204,-0.184593603015,0.279977023602,0.161837622523,22.7000007629,0.25898291913177257,-0.06173699097491638,0.09363780053578595,22.7000007629,0.021869948989594594,0.37142396376467873,0.8438564342993077
1648126043396315325,52396,18,5,0.882138848305,-0.0879017189145,0.305339932442,0.242756426334,22.7000007629,0.2950297151521739,-0.02939856819882943,0.1021203787431438,22.7000007629,0.03280492247756756,0.4182694603454655,0.9376183307832034
1648126043591052459,52397,20,0,0.0126051837578,0.0439508594573,0.0103562315926,0.0,39.4000015259,0.004215780521003344,0.014699284099431437,0.003463622606220736,39.4000015259,0.0,0.015862363122761385,0.04688091549237075
1648126043591075432,52398,20,1,0.0327914953232,0.0146502861753,-0.0301314946264,0.0,39.4000015259,0.010967055292040133,0.0048997612626421405,-0.010077422951973244,39.4000015259,0.0,0.01626530860414949,0.046880913162719064
1648126043591167880,52399,20,2,0.794139027596,-0.237334623933,0.158458709717,0.0,39.4000015259,0.2655983369886287,-0.07937612840568561,0.05299622398561872,39.4000015259,0.0,0.3839082220829951,0.8438564342076889
1648126043591172657,52400,20,3,0.265118926764,-1.58955609798,0.308793246746,0.0,39.4000015259,0.08866853737926421,-0.5316241130367892,0.10327533335986622,39.4000015259,0.0,0.5462127942515708,1.6408320764751751
1648126043591177443,52401,20,4,0.983126223087,-0.169943317771,0.923552393913,0.242756426334,39.4000015259,0.32880475688528427,-0.05683723002374581,0.30888039930200667,39.4000015259,0.03280492247756756,0.4684608916628516,1.3595465884179028
1648126043591188123,52402,20,5,0.966585278511,-0.184593603015,-0.0296108052135,0.323675245047,39.4000015259,0.32327266839832774,-0.06173699097491638,-0.009903279335618728,39.4000015259,0.04373989797932432,0.46132623198923695,0.9844992121345952
1648126043591195070,52403,20,6,1.2509162426,-0.079111546278,-0.176524683833,0.485512852669,39.4000015259,0.4183666363210702,-0.026458711129765885,-0.05903835579698996,39.4000015259,0.06560984495527027,0.5922510854087661,1.265784755302946
1648126043695688176,52404,21,0,0.0126151693985,0.0439508594573,0.0103440657258,0.0,19.7999992371,0.004219120200167224,0.014699284099431437,0.00345955375444816,19.7999992371,0.0,0.01586413891652226,0.046880915538498796
1648126043695698502,52405,21,1,0.0328158736229,0.0146502861753,-0.0301049444824,0.0,19.7999992371,0.010975208569531771,0.0048997612626421405,-0.010068543305150501,19.7999992371,0.0,0.016276303840870497,0.04688091433558774
1648126043695721801,52406,21,2,0.26465344429,-1.58955609798,0.309192270041,0.0,19.7999992371,0.08851285762207357,-0.5316241130367892,0.10340878596688961,19.7999992371,0.0,0.5461622922639422,1.6408320736909887
1648126043695727383,52407,21,3,2.03561592102,-1.04603040218,0.691821873188,0.0,19.7999992371,0.6808080003411372,-0.34984294387290965,0.23137855290568562,19.7999992371,0.0,1.0243969699460553,2.3909264489766953
1648126043695733535,52408,21,4,0.800426483154,-0.210964113474,0.164028450847,0.0809188112617,19.7999992371,0.2677011649344481,-0.07055655969030099,0.054859013661204006,19.7999992371,0.010934974494824324,0.38510525253474825,0.8438564716795257
1648126043695737146,52409,21,5,1.15638077259,-0.237334638834,0.456800758839,0.161837622523,19.7999992371,0.386749422270903,-0.07937613338929765,0.15277617352474915,19.7999992371,0.021869948989594594,0.5526760369380873,1.265784798171552
1648126043695888111,52410,21,6,1.00560414791,-0.225614413619,0.0400419160724,0.242756426334,19.7999992371,0.33632245749498324,-0.07545632562508361,0.013391945174715718,19.7999992371,0.03280492247756756,0.48157994965298156,1.031380104990004
1648126043695897005,52411,21,7,0.79962015152,-0.263705134392,-0.0562225319445,-0.161837622523,19.7999992371,0.2674314888026756,-0.08819569712107023,-0.01880352238946488,19.7999992371,-0.021869948989594594,0.38835252464365766,0.8438564793374647
1648126043796237376,52412,22,0,0.0127021931112,0.0439508594573,0.0102370148525,0.0,28.7000007629,0.004248225120802675,0.014699284099431437,0.0034237507867892975,28.7000007629,0.0,0.0158796658148034,0.04688091541298931
1648126043796357186,52413,22,1,0.0327914953232,0.0146502861753,-0.0301314946264,0.0,28.7000007629,0.010967055292040133,0.0048997612626421405,-0.010077422951973244,28.7000007629,0.0,0.01626530860414949,0.046880913162719064
1648126043796372472,52414,22,2,0.259939938784,-1.58955609798,0.313165336847,0.0,28.7000007629,0.08693643437591973,-0.5316241130367892,0.10473757085183945,28.7000007629,0.0,0.5456556467279983,1.6408320720302025
1648126043796383272,52415,22,3,1.83534824848,-1.39177727699,0.434745967388,0.0,28.7000007629,0.6138288456454849,-0.4654773501638796,0.14539998909297658,28.7000007629,0.0,0.985008054286118,2.3440459121152966
1648126043796388877,52416,22,4,1.19191265106,-0.152362972498,-0.204588130116,0.0809188112617,28.7000007629,0.3986329936655518,-0.05095751588561872,-0.06842412378461538,28.7000007629,0.010934974494824324,0.5660505239841694,1.2189038297296735
1648126043796393377,52417,22,5,0.465573936701,0.266635209322,-1.09447383881,0.0809188112617,28.7000007629,0.15571034672274248,0.0891756552916388,-0.36604476214381265,28.7000007629,0.010934974494824324,0.2375788745863709,1.2189037735707242
1648126043796499314,52418,22,6,1.0123487711,-0.370652228594,-0.0203393343836,0.161837622523,28.7000007629,0.3385781843143813,-0.12396395605150501,-0.006802452971103678,28.7000007629,0.021869948989594594,0.4946083664751192,1.0782610061726923
1648126043796514521,52419,22,7,0.806710720062,-0.237334623933,0.0705963745713,0.323675245047,28.7000007629,0.26980291640869564,-0.07937612840568561,0.023610827615819396,28.7000007629,0.04373989797932432,0.38972785012871625,0.843856479315636
1648126043796655815,52420,22,8,1.2312579155,-0.0,-0.455077141523,-0.566431701183,28.7000007629,0.4117919449832776,-0.0,-0.1521997128839465,28.7000007629,-0.07654482448418919,0.5823617534713466,1.3126657073368488
1648126043796705798,52421,22,9,0.96417337656,-0.451228827238,0.768019199371,-0.566431701183,28.7000007629,0.3224660122274247,-0.15091265125016723,0.2568626084852843,28.7000007629,-0.07654482448418919,0.4803574568912924,1.312665701997338
1648126043991014488,52422,24,0,0.0126151693985,0.0439508594573,0.0103440657258,0.0,18.5,0.004219120200167224,0.014699284099431437,0.00345955375444816,18.5,0.0,0.01586413891652226,0.046880915538498796
1648126043991025350,52423,24,1,0.0327914953232,0.0146502861753,-0.0301314946264,0.0,18.5,0.010967055292040133,0.0048997612626421405,-0.010077422951973244,18.5,0.0,0.01626530860414949,0.046880913162719064
1648126043991027269,52424,24,2,0.830467224121,-0.278355449438,0.162035912275,0.161837622523,18.5,0.27774823549197325,-0.09309546803946488,0.05419261280100334,18.5,0.021869948989594594,0.4036767652556886,0.8907374492171426
1648126043991248283,52425,24,3,0.954415023327,-0.474669277668,0.682636082172,-0.0809188112617,18.5,0.31920234893879595,-0.1587522667785953,0.2283063819973244,18.5,-0.010934974494824324,0.47852122350365195,1.265784729168936
1648126044096126598,52426,25,0,0.0126151693985,0.0439508594573,0.0103440657258,0.0,11.8000001907,0.004219120200167224,0.014699284099431437,0.00345955375444816,11.8000001907,0.0,0.01586413891652226,0.046880915538498796
1648126044096153626,52427,25,1,0.0327914953232,0.0146502861753,-0.0301314946264,0.0,11.8000001907,0.010967055292040133,0.0048997612626421405,-0.010077422951973244,11.8000001907,0.0,0.01626530860414949,0.046880913162719064
1648126044096185455,52428,25,2,0.255103260279,-1.58955609798,0.31711769104,0.0,11.8000001907,0.08531881614682273,-0.5316241130367892,0.10605942844147156,11.8000001907,0.0,0.5451447498963404,1.6408320730656503
1648126044096296644,52429,25,3,1.67242741585,-1.61153149605,0.317023485899,0.0,11.8000001907,0.5593402728595318,-0.5389737444983277,0.10602792170535115,11.8000001907,0.0,0.9571916103600676,2.3440458857836832
1648126044096300283,52430,25,4,1.5021084547,-1.11342179775,-0.143089324236,-0.242756426334,11.8000001907,0.5023774095986622,-0.37238187215719065,-0.04785596128294314,11.8000001907,-0.03280492247756756,0.8021436168551229,1.8752366421591646
1648126044096318017,52431,25,5,0.886733233929,-0.514225065708,0.742622196674,-0.161837622523,11.8000001907,0.2965662989729097,-0.17198162732709027,0.2483686276501672,11.8000001907,-0.021869948989594594,0.45329992224911386,1.265784726305977
1648126044096321810,52432,25,6,0.855779409409,-0.351606875658,0.152125865221,-0.0809188112617,11.8000001907,0.2862138493006689,-0.11759427279531771,0.050878215792976585,11.8000001907,-0.010934974494824324,0.4215034377763385,0.9376182973084702
1648126044195644810,52433,26,0,0.0126355709508,0.0439508594573,0.0103191342205,0.0,21.0,0.00422594346180602,0.014699284099431437,0.003451215458361204,21.0,0.0,0.015867770773506908,0.04688091542780209
1648126044195651301,52434,26,1,0.0328296348453,0.0146502861753,-0.0300899371505,0.0,21.0,0.010979810985050166,0.0048997612626421405,-0.010063524130602006,21.0,0.0,0.016282510831126296,0.04688091431291589
1648126044195654517,52435,26,2,0.278973907232,-1.58955609798,0.296335726976,0.0,21.0,0.09330231011103678,-0.5316241130367892,0.09910893878795987,21.0,0.0,0.5477543607368772,1.6408320732555437
1648126044195656715,52436,26,3,1.70207095146,-1.50751447678,0.327599406242,0.0,21.0,0.5692544988160535,-0.5041854437391304,0.10956501881003344,21.0,0.0,0.9498970104822188,2.297164946727887
1648126044195658527,52437,26,4,1.30412304401,-1.25699448586,0.249223783612,-0.242756426334,21.0,0.43616155318060196,-0.4203994935986622,0.08335243599063545,21.0,-0.03280492247756756,0.7464646911702132,1.828355694529441
1648126044195664440,52438,26,5,0.750230252743,-0.417533159256,0.237136602402,-0.0809188112617,21.0,0.2509131280076923,-0.13964319707558526,0.07930990046889631,21.0,-0.010934974494824324,0.3813332113817257,0.890737413275027
1648126044195822815,52439,26,6,0.930053710938,-0.41899818182,0.152268499136,-0.0809188112617,21.0,0.31105475282207357,-0.14013317117725752,0.050925919443478254,21.0,-0.010934974494824324,0.4616789189150801,1.0313801808388317
1648126044296143624,52440,27,0,0.0126355709508,0.0439508594573,0.0103191342205,0.0,18.7000007629,0.00422594346180602,0.014699284099431437,0.003451215458361204,18.7000007629,0.0,0.015867770773506908,0.04688091542780209
1648126044296155828,52441,27,1,0.0327914953232,0.0146502861753,-0.0301314946264,0.0,18.7000007629,0.010967055292040133,0.0048997612626421405,-0.010077422951973244,18.7000007629,0.0,0.01626530860414949,0.046880913162719064
1648126044296158607,52442,27,2,0.277398556471,-1.58955609798,0.297810941935,0.0,18.7000007629,0.09277543694682273,-0.5316241130367892,0.0996023217173913,18.7000007629,0.0,0.5475753472934118,1.6408320769944162
1648126044296161649,52443,27,3,1.70242965221,-1.50751447678,0.325730144978,0.0,18.7000007629,0.5693744656220735,-0.5041854437391304,0.10893984781872909,18.7000007629,0.0,0.9500408022202349,2.2971649365625724
1648126044296167953,52444,27,4,0.773555934429,-0.527410328388,-0.0507704541087,0.161837622523,18.7000007629,0.2587143593408026,-0.1763914141765886,-0.01698008498618729,18.7000007629,0.021869948989594594,0.406177511013917,0.9376183003712464
1648126044296173071,52445,27,5,1.11109626293,-0.424858301878,-0.658276081085,0.566431701183,18.7000007629,0.37160410131438126,-0.14209307755117057,-0.22015922444314381,18.7000007629,0.07654482448418919,0.5443984376495774,1.359546571876188
1648126044296245425,52446,27,6,1.27661895752,0.0424858294427,0.465624064207,0.566431701183,18.7000007629,0.4269628620468227,0.01420930750591973,0.15572711177491638,18.7000007629,0.07654482448418919,0.6039838371630702,1.3595465338014474
1648126044296249707,52447,27,7,0.802801072598,-0.410208016634,0.257619708776,-0.242756426334,18.7000007629,0.26849534200602004,-0.13719331659999998,0.08616043771772575,18.7000007629,-0.03280492247756756,0.40373444673147124,0.9376183090283222
1648126044296262913,52448,27,8,1.25718128681,-1.22476398945,0.305124461651,-0.242756426334,18.7000007629,0.4204619688327759,-0.409620063361204,0.10204831493344481,18.7000007629,-0.03280492247756756,0.7220561825630366,1.7814748257712034
1648126044296326273,52449,27,9,0.8356153965,-0.533270418644,0.709292650223,-0.161837622523,18.7000007629,0.2794700322742475,-0.1783513105832776,0.23722162214816053,18.7000007629,-0.021869948989594594,0.4336083346356601,1.2189038083167048
1648126044296330963,52450,27,10,0.726745784283,-0.473204255104,0.203301385045,-0.0809188112617,18.7000007629,0.2430587907301003,-0.15826229267692307,0.0679937742625418,18.7000007629,-0.010934974494824324,0.3784205395928099,0.8907374221300346
