%time,field.header.seq,field.header.frame_id,field.point_id,field.x,field.y,field.z,field.velocity,field.intensity,normalized_x,normalized_y,normalized_z,normalized_intensity,normalized_velocity,normalized_range,range
1648218657439696792,44219,0,0,0.00528081972152,0.0454158857465,0.0103600434959,0.0,30.2999992371,0.001766160441979933,0.015189259446989964,0.003464897490267558,30.2999992371,0.0,0.015393253326103725,0.04688091548068655
1648218657439745599,44220,0,1,0.0334289707243,0.0146502861753,-0.0294226650149,0.0,30.2999992371,0.011180257767324413,0.0048997612626421405,-0.009840356192274247,30.2999992371,0.0,0.016553065816292893,0.04688091493649962
1648218657439801710,44221,0,2,2.06961321831,-1.19546329975,-0.0640216246247,0.0,30.2999992371,0.692178333882943,-0.39982050158862875,-0.021411914590200667,30.2999992371,0.0,1.0573921341132233,2.3909266285003854
1648218657439810634,44222,0,3,0.776683688164,1.10463154316,0.157855927944,0.0809188112617,30.2999992371,0.25976043082408024,0.3694419876789297,0.05279462473043478,30.2999992371,0.010934974494824324,0.5209974521089158,1.3595465757344019
1648218657439818866,44223,0,4,1.10986721516,1.17934799194,0.263937294483,0.161837622523,30.2999992371,0.37119304854849494,0.39443076653511705,0.08827334263645485,30.2999992371,0.021869948989594594,0.6566157081359923,1.6408320501498408
1648218657439824287,44224,0,5,0.992162466049,1.12514197826,0.015398716554,-0.0809188112617,30.2999992371,0.33182691172207357,0.37630166496989964,0.005150072426086956,30.2999992371,-0.010934974494824324,0.6015157036563021,1.5001893049714659
1648218657544618916,44225,1,0,0.00521258730441,0.0454158857465,0.0103945415467,0.0,13.1000003815,0.0017433402355886286,0.015189259446989964,0.0034764352998996654,13.1000003815,0.0,0.015388049678306159,0.046880915504193287
1648218657544632511,44226,1,1,0.0334376059473,0.0146502861753,-0.0294128507376,0.0,13.1000003815,0.011183145801772574,0.0048997612626421405,-0.00983707382528428,13.1000003815,0.0,0.016556967128018817,0.046880914720357526
1648218657544642888,44227,1,2,2.10888147354,-1.12074685097,-0.114346332848,0.0,13.1000003815,0.70531152961204,-0.3748317227324415,-0.03824292068494983,13.1000003815,0.0,1.0655644175618484,2.390926526942055
1648218657544646231,44228,1,3,0.846341252327,1.06214570999,0.0626080259681,-0.0809188112617,13.1000003815,0.28305727502575245,0.3552326789264214,0.020939139119765884,13.1000003815,-0.010934974494824324,0.5351944488382245,1.3595465382090524
1648218657739852661,44229,3,0,0.00539573840797,0.0454158857465,0.0103006586432,0.0,13.8000001907,0.0018045947852742474,0.015189259446989964,0.003445036335518394,13.8000001907,0.0,0.015402166316010612,0.04688091551569908
1648218657739856334,44230,3,1,0.0334376059473,0.0146502861753,-0.0294128507376,0.0,13.8000001907,0.011183145801772574,0.0048997612626421405,-0.00983707382528428,13.8000001907,0.0,0.016556967128018817,0.046880914720357526
1648218657739858210,44231,3,2,1.62323701382,1.41521763802,0.113347768784,0.0,13.8000001907,0.5428886333846153,0.47331693579264206,0.03790895277056856,13.8000001907,0.0,0.9019340653421217,2.1565219875267885
1648218657740026009,44232,3,3,0.701740026474,1.06654083729,0.305193156004,-0.242756426334,13.8000001907,0.23469566102809364,0.35670262116722407,0.1020712896334448,13.8000001907,-0.03280492247756756,0.48723799785976857,1.31266571709429
1648218657844834640,44233,4,0,0.00540081458166,0.0454158857465,0.0102979978547,0.0,32.5,0.0018062925022274247,0.015189259446989964,0.0034441464396989963,32.5,0.0,0.015402564324007217,0.04688091547847609
1648218657844840570,44234,4,1,0.033385194838,0.0146502861753,-0.0294723249972,0.0,32.5,0.011165617002675585,0.0048997612626421405,-0.00985696488200669,32.5,0.0,0.01653328964640022,0.046880913601699235
1648218657844843001,44235,4,2,1.68311333656,1.34782624245,0.0328802056611,0.0,32.5,0.5629141593846153,0.45077800750836117,0.010996724301371236,32.5,0.0,0.91484726251139,2.1565220127481513
1648218657844851759,44236,4,3,0.715599238873,0.949338555336,0.434609055519,-0.323675245047,32.5,0.23933084912140468,0.3175045335571906,0.1453541991702341,32.5,-0.04373989797932432,0.46407719132889336,1.2657847346457365
1648218657844853485,44237,4,4,0.901783764362,1.04456532001,0.455822914839,-0.323675245047,32.5,0.30159992119130435,0.34935294983612036,0.15244913539765886,32.5,-0.04373989797932432,0.5513370189678912,1.453308362023289
1648218657844859878,44238,4,5,1.18467175961,1.07679605484,0.359712272882,-0.242756426334,32.5,0.3962112908394649,0.36013245981270897,0.12030510798729095,32.5,-0.03280492247756756,0.6660796968742573,1.6408320575239796
1648218658039846027,44239,6,0,0.00539573840797,0.0454158857465,0.0103006586432,0.0,11.6000003815,0.0018045947852742474,0.015189259446989964,0.003445036335518394,11.6000003815,0.0,0.015402166316010612,0.04688091551569908
1648218658039849472,44240,6,1,0.0334289707243,0.0146502861753,-0.0294226650149,0.0,11.6000003815,0.011180257767324413,0.0048997612626421405,-0.009840356192274247,11.6000003815,0.0,0.016553065816292893,0.04688091493649962
1648218658039856101,44241,6,2,2.11023521423,-1.12074685097,-0.0858133509755,0.0,11.6000003815,0.7057642856956521,-0.3748317227324415,-0.028700117383110364,11.6000003815,0.0,1.0661638121290546,2.3909266183932014
1648218658039991758,44242,6,3,0.837938129902,0.876087069511,0.126718595624,-0.404594063759,11.6000003815,0.28024686618795985,0.2930057088665552,0.04238080121204013,11.6000003815,-0.05467487348094594,0.4928782379500408,1.2189037966078173
1648218658040016169,44243,6,4,1.06532609463,0.879017174244,0.265419125557,-0.242756426334,11.6000003815,0.3562963527190635,0.29398567700468226,0.08876893831337791,11.6000003815,-0.03280492247756756,0.5833710313391607,1.4064274573283035
1648218658144915666,44244,7,0,0.00525635527447,0.0454158857465,0.0103724775836,0.0,23.2999992371,0.0017579783526655518,0.015189259446989964,0.0034690560480267556,23.2999992371,0.0,0.015391380000664505,0.046880915521487786
1648218658144917509,44245,7,1,0.0334289707243,0.0146502861753,-0.0294226650149,0.0,23.2999992371,0.011180257767324413,0.0048997612626421405,-0.009840356192274247,23.2999992371,0.0,0.016553065816292893,0.04688091493649962
1648218658144924259,44246,7,2,2.11060500145,-1.12074685097,-0.0761754065752,0.0,23.2999992371,0.7058879603511706,-0.3748317227324415,-0.0254767246070903,23.2999992371,0.0,1.0663275507572905,2.3909265293337274
1648218658144948296,44247,7,3,0.877276957035,0.703213751316,-0.0426618941128,-0.485512852669,23.2999992371,0.2934036645602006,0.23518854559063543,-0.014268192010969898,23.2999992371,-0.06560984495527027,0.47695395242281813,1.1251419806379113
1648218658145143592,44248,7,4,0.844969749451,0.876087069511,0.0649927407503,-0.323675245047,23.2999992371,0.28259857841170566,0.2930057088665552,0.021736702592073574,23.2999992371,-0.04373989797932432,0.49555651390030825,1.218903805557228
1648218658145149636,44249,7,5,0.962493479252,0.807230770588,0.519953548908,-0.242756426334,23.2999992371,0.3219041736628762,0.2699768463505016,0.17389750799598663,23.2999992371,-0.03280492247756756,0.5292750623338688,1.3595465816251904
1648218658339816234,44250,9,0,0.00543765118346,0.0454158857465,0.0102785946801,0.0,22.8999996185,0.001818612435939799,0.015189259446989964,0.0034376570836454844,22.8999996185,0.0,0.01540546347671123,0.046880915489460155
1648218658339908313,44251,9,1,0.0334148444235,0.0146502861753,-0.0294387042522,0.0,22.8999996185,0.011175533252006688,0.0048997612626421405,-0.009845720485685617,22.8999996185,0.0,0.016546683878176403,0.046880913183441654
1648218658339910367,44252,9,2,2.11088275909,-1.12074685097,-0.0680444538593,0.0,22.8999996185,0.705980855882943,-0.3748317227324415,-0.02275734242785953,22.8999996185,0.0,1.0664505418035077,2.390926509594888
1648218658339918280,44253,9,3,1.26278018951,0.681238293648,0.231096878648,-0.485512852669,22.8999996185,0.42233451154180596,0.2278388941966555,0.07728992596923076,22.8999996185,-0.06560984495527027,0.6392522514526378,1.4533083592521576
1648218658339919212,44254,9,4,0.863366186619,0.703213751316,0.161349594593,-0.323675245047,22.8999996185,0.28875123298294314,0.23518854559063543,0.053963075114715715,22.8999996185,-0.04373989797932432,0.4712411283784324,1.1251419661146234
1648218658339920314,44255,9,5,0.883845627308,0.672448158264,0.607323050499,-0.242756426334,22.8999996185,0.2956005442501672,0.22489904958662205,0.20311807708996654,22.8999996185,-0.03280492247756756,0.4746987950553024,1.265784699754081
1648218658444869622,44256,10,0,0.00539573840797,0.0454158857465,0.0103006586432,0.0,24.5,0.0018045947852742474,0.015189259446989964,0.003445036335518394,24.5,0.0,0.015402166316010612,0.04688091551569908
1648218658444871361,44257,10,1,0.0334289707243,0.0146502861753,-0.0294226650149,0.0,24.5,0.011180257767324413,0.0048997612626421405,-0.009840356192274247,24.5,0.0,0.016553065816292893,0.04688091493649962
1648218658444874460,44258,10,2,2.11137866974,-1.12074685097,-0.0503632090986,0.0,24.5,0.7061467122876254,-0.3748317227324415,-0.01684388264167224,24.5,0.0,1.0666701359444797,2.390926565962019
1648218658444877422,44259,10,3,0.891391158104,0.606521844864,0.0141352759674,-0.323675245047,24.5,0.2981241331451505,0.20285011533913042,0.004727517045953177,24.5,-0.04373989797932432,0.4678719555820731,1.0782609846738844
1648218658444999717,44260,10,4,1.12369740009,0.553780794144,0.181223765016,-0.242756426334,24.5,0.37581852845819397,0.18521096794113712,0.06060995485484949,24.5,-0.03280492247756756,0.5628341099388501,1.2657847636697004
1648218658639819402,44261,12,0,0.00521258730441,0.0454158857465,0.0103945415467,0.0,25.8999996185,0.0017433402355886286,0.015189259446989964,0.0034764352998996654,25.8999996185,0.0,0.015388049678306159,0.046880915504193287
1648218658639918159,44262,12,1,0.0334289707243,0.0146502861753,-0.0294226650149,0.0,25.8999996185,0.011180257767324413,0.0048997612626421405,-0.009840356192274247,25.8999996185,0.0,0.016553065816292893,0.04688091493649962
1648218658639920751,44263,12,2,2.11003112793,-1.12074685097,-0.0906904488802,0.0,25.8999996185,0.7056960294080268,-0.3748317227324415,-0.030331253806086957,25.8999996185,0.0,1.0660734459740937,2.3909265196385294
1648218658639996081,44264,12,3,0.721836745739,-2.10964131355,0.30355116725,0.566431701183,25.8999996185,0.24141697181906355,-0.7055656567056856,0.10152212951505016,25.8999996185,0.07654482448418919,0.7838285555445773,2.2502839977378137
1648218658639999147,44265,12,4,0.718621492386,0.556710898876,0.229748234153,-0.647350490093,25.8999996185,0.24034163624949834,0.18619093607892975,0.07683887429866221,25.8999996185,-0.08747979595851352,0.38755034370791164,0.9376183260489459
1648218658640000856,44266,12,5,0.923334598541,0.451228827238,0.0871255397797,-0.485512852669,25.8999996185,0.3088075580404682,0.15091265125016723,0.02913897651494983,25.8999996185,-0.06560984495527027,0.4620593512885427,1.0313801893944612
1648218658640002720,44267,12,6,0.973789811134,0.402882874012,0.512890398502,-0.404594063759,25.8999996185,0.32568221108160533,0.13474343612441472,0.17153525033511705,25.8999996185,-0.05467487348094594,0.47988915262654236,1.1720229380503187
1648218658640004022,44268,12,7,1.2863868475,0.424858301878,0.114329874516,-0.242756426334,25.8999996185,0.4302297148829431,0.14209307755117057,0.03823741622608696,25.8999996185,-0.03280492247756756,0.6248084969208405,1.359546622334994
1648218658741879170,44269,13,0,0.00539573840797,0.0454158857465,0.0103006586432,0.0,18.5,0.0018045947852742474,0.015189259446989964,0.003445036335518394,18.5,0.0,0.015402166316010612,0.04688091551569908
1648218658741882153,44270,13,1,0.0334289707243,0.0146502861753,-0.0294226650149,0.0,18.5,0.011180257767324413,0.0048997612626421405,-0.009840356192274247,18.5,0.0,0.016553065816292893,0.04688091493649962
1648218658741883992,44271,13,2,2.11193728447,-1.12074685097,-0.0133211975917,0.0,18.5,0.7063335399565217,-0.3748317227324415,-0.004455250030668896,18.5,0.0,1.0669175037000715,2.390926609454788
1648218658741985883,44272,13,3,0.235520333052,-2.13454675674,0.493178725243,0.566431701183,18.5,0.07876934215785954,-0.7138952363678929,0.16494271747257525,18.5,0.07654482448418919,0.72253417015165,2.2034030359928454
1648218658741987304,44273,13,4,0.67846429348,0.757419764996,-1.95473432541,0.566431701183,18.5,0.2269111349431438,0.2533176471558528,-0.6537572994682274,18.5,0.07654482448418919,0.40883634462086216,2.2034030001046108
1648218658741988467,44274,13,5,0.868958413601,0.351606875658,0.0202977415174,-0.485512852669,18.5,0.29062154301036786,0.11759427279531771,0.006788542313511705,18.5,-0.06560984495527027,0.4274928952833179,0.9376183220738884
1648218658741989536,44275,13,6,1.03702437878,0.281285494566,0.333771288395,-0.242756426334,18.5,0.34683089591304345,0.09407541624280935,0.1116291934431438,18.5,-0.03280492247756756,0.49943320340256375,1.125141930866565
1648218658741990699,44276,13,7,1.58887112141,1.38445210457,0.0967857316136,-0.0809188112617,18.5,0.5313950238829431,0.463027459722408,0.03236980990421404,18.5,-0.010934974494824324,0.882698006835913,2.1096413316350606
1648218658841849155,44277,14,0,0.00539573840797,0.0454158857465,0.0103006586432,0.0,11.5,0.0018045947852742474,0.015189259446989964,0.003445036335518394,11.5,0.0,0.015402166316010612,0.04688091551569908
1648218658841859593,44278,14,1,0.0334289707243,0.0146502861753,-0.0294226650149,0.0,11.5,0.011180257767324413,0.0048997612626421405,-0.009840356192274247,11.5,0.0,0.016553065816292893,0.04688091493649962
1648218658841967428,44279,14,2,2.1109380722,-1.12074685097,-0.0663042217493,0.0,11.5,0.7059993552508361,-0.3748317227324415,-0.02217532499976588,11.5,0.0,1.066475034680026,2.390926451910306
1648218658841971427,44280,14,3,0.760958194733,0.34281668067,0.124551601708,-0.485512852669,11.5,0.2545010684725752,0.1146544082508361,0.04165605408294314,11.5,-0.06560984495527027,0.37773962068958855,0.8438564760460936
1648218658842079296,44281,14,4,1.30707037449,-1.68478286266,0.321963816881,-0.485512852669,11.5,0.43714728243812706,-0.5634725293177257,0.10768020631471571,11.5,-0.06560984495527027,0.8364788009159554,2.1565219585162674
1648218658842085366,44282,14,5,2.13740181923,0.26956525445,0.0971382856369,-0.485512852669,11.5,0.7148501067658862,0.09015560349498328,0.032487720948795984,11.5,-0.06560984495527027,1.0149627496257891,2.156522156109434
1648218658842088838,44283,14,6,1.71656560898,0.2593100667,-2.15331673622,-0.323675245047,11.5,0.574102210361204,0.08672577481605351,-0.7201728214782608,11.5,-0.04373989797932432,0.8165219261603971,2.765973999716915
1648218658842091159,44284,14,7,1.26063632965,-0.864366889,-2.30527186394,-0.323675245047,11.5,0.42161750155518396,-0.2890859160535117,-0.7709939344280935,11.5,-0.04373989797932432,0.6626411563552095,2.765974049246732
1648218658842100566,44285,14,8,0.824633359909,0.250519901514,0.225017294288,-0.242756426334,11.5,0.2757971103374582,0.08378592023879598,0.07525662016321069,11.5,-0.03280492247756756,0.39893379472193885,0.890737437215975
1648218658842103443,44286,14,9,0.91691839695,0.26956525445,0.499241411686,-0.242756426334,11.5,0.3066616712207358,0.09015560349498328,0.16697037180133778,11.5,-0.03280492247756756,0.44295687604250367,1.0782609889142245
1648218658842111273,44287,14,10,0.906400024891,0.234404578805,0.05120068416,-0.0809188112617,11.5,0.30314382103377924,0.07839618020234114,0.017123974635451504,11.5,-0.010934974494824324,0.43581912937850475,0.9376182708040661
1648218658842115078,44288,14,11,1.0584051609,0.134782627225,0.155752748251,-0.0809188112617,11.5,0.3539816591638796,0.04507780174749164,0.052091220150836115,11.5,-0.010934974494824324,0.5026311154904879,1.0782609887263692
1648218658944901530,44289,15,0,0.00543765118346,0.0454158857465,0.0102785946801,0.0,15.6999998093,0.001818612435939799,0.015189259446989964,0.0034376570836454844,15.6999998093,0.0,0.01540546347671123,0.046880915489460155
1648218658945079889,44290,15,1,0.0335340574384,0.0146502861753,-0.0293028391898,0.0,15.6999998093,0.01121540382555184,0.0048997612626421405,-0.009800280665484948,15.6999998093,0.0,0.01660054897800956,0.046880915924108986
1648218658945085146,44291,15,2,2.11016082764,-1.21890377998,0.0663379058242,0.0,15.6999998093,0.7057394072374582,-0.407660127083612,0.022186590576655518,15.6999998093,0.0,1.078110848229246,2.437807593126456
1648218658945088009,44292,15,3,1.02809500694,0.0673913136125,0.318002849817,0.0809188112617,15.6999998093,0.34384448392642136,0.02253890087374582,0.10635546816622073,15.6999998093,0.010934974494824324,0.4867915984339198,1.078260981830053
1648218658945096947,44293,15,4,2.42420315742,0.543525636196,-0.0386815555394,-0.404594063759,15.6999998093,0.8107702867625418,0.18178114922943142,-0.012936975096789299,15.6999998093,-0.05467487348094594,1.1609226081049508,2.4846885777469803
1648218658945099602,44294,15,5,0.727868199348,0.290075659752,0.31330126524,-0.323675245047,15.6999998093,0.24343418038394646,0.09701527082006689,0.10478303185284281,15.6999998093,-0.04373989797932432,0.3576763385110881,0.8438564373183645
1648218658945101539,44295,15,6,2.37030816078,0.870226979256,0.182176366448,-0.323675245047,15.6999998093,0.7927452042742474,0.29104581246020067,0.060928550651505015,15.6999998093,-0.04373989797932432,1.1582735353750662,2.5315694738595433
1648218658945106993,44296,15,7,1.11067938805,-0.079111546278,-2.27353835106,-0.323675245047,15.6999998093,0.371464678277592,-0.026458711129765885,-0.7603807194180602,15.6999998093,-0.04373989797932432,0.5259962716696748,2.53156946843934
1648218658945109420,44297,15,8,0.748887002468,0.199243888259,0.186118736863,-0.161837622523,15.6999998093,0.25046388042408024,0.06663675192608695,0.062247069184949835,15.6999998093,-0.021869948989594594,0.36042303963736116,0.7969755665549288
1648218658945115795,44298,15,9,0.871468663216,0.139177724719,0.120768807828,-0.0809188112617,15.6999998093,0.2914610913765886,0.04654773401973244,0.04039090562809364,15.6999998093,-0.010934974494824324,0.41480818110933637,0.8907374332369984
1648218659140039622,44299,17,0,0.00529456837103,0.0454158857465,0.0103530241176,0.0,23.3999996185,0.0017707586525183944,0.015189259446989964,0.003462549872107023,23.3999996185,0.0,0.015394309824052243,0.04688091552811506
1648218659140046453,44300,17,1,0.0335114225745,0.0146502861753,-0.0293287187815,0.0,23.3999996185,0.011207833636956521,0.0048997612626421405,-0.009808936047324414,23.3999996185,0.0,0.01659032037358762,0.046880913742686436
1648218659140049379,44301,17,2,1.62120187283,1.41521763802,0.139465287328,0.0,23.3999996185,0.5422079842240802,0.47331693579264206,0.04664390880535117,23.3999996185,0.0,0.9011148195545432,2.1565219780470333
1648218659140176822,44302,17,3,0.88374042511,0.083506628871,0.0737746283412,0.0809188112617,23.3999996185,0.29556535956856184,0.027928638418394644,0.02467378874287625,23.3999996185,0.010934974494824324,0.41892454260605444,0.8907374426989608
1648218659140181498,44303,17,4,0.787927150726,0.0249054860324,0.117134861648,0.161837622523,23.3999996185,0.26352078619598657,0.00832959399076923,0.039175539012709024,23.3999996185,0.021869948989594594,0.37276774491733156,0.7969755666888406
1648218659140183805,44304,17,5,1.92122089863,-0.152362972498,-1.49285030365,-0.323675245047,23.3999996185,0.642548795528428,-0.05095751588561872,-0.49928103801003343,23.3999996185,-0.04373989797932432,0.9101288797172081,2.4378076720342374
1648218659140300822,44305,17,6,0.334857702255,1.90746724606,0.35551905632,-0.242756426334,23.3999996185,0.11199254256020066,0.6379489117257524,0.11890269442140468,23.3999996185,-0.03280492247756756,0.6573153528940797,1.9689984192370196
1648218659244891553,44306,18,0,0.00539573840797,0.0454158857465,0.0103006586432,0.0,21.0,0.0018045947852742474,0.015189259446989964,0.003445036335518394,21.0,0.0,0.015402166316010612,0.04688091551569908
1648218659244898442,44307,18,1,0.0334148444235,0.0146502861753,-0.0294387042522,0.0,21.0,0.011175533252006688,0.0048997612626421405,-0.009845720485685617,21.0,0.0,0.016546683878176403,0.046880913183441654
1648218659244906731,44308,18,2,1.62119138241,1.41521763802,0.139587149024,0.0,21.0,0.5422044757224079,0.47331693579264206,0.04668466522541805,21.0,0.0,0.901110597371354,2.1565219761310117
1648218659245052627,44309,18,3,0.929772615433,-0.101086974144,0.536610662937,0.161837622523,21.0,0.31096074094749165,-0.03380835255652174,0.17946844914280935,21.0,0.021869948989594594,0.4410625460451297,1.0782609592897248
1648218659245057298,44310,18,4,0.786236107349,-0.0498109720647,0.120505839586,0.242756426334,21.0,0.26295521984916387,-0.016659187981505015,0.04030295638327759,21.0,0.03280492247756756,0.3722477989673644,0.7969755371475747
1648218659245155327,44311,18,5,0.912219047546,-0.146502867341,0.159754186869,0.323675245047,21.0,0.3050899824568562,-0.04899761449531772,0.0534294939361204,21.0,0.04373989797932432,0.4342356054232327,0.9376183024381731
1648218659245159220,44312,18,6,0.572193682194,1.88988697529,0.405822038651,-0.323675245047,21.0,0.19136912447959867,0.6320692225050167,0.13572643433143813,21.0,-0.04373989797932432,0.6875723857502369,2.0158794399388986
1648218659245160407,44313,18,7,0.14536139369,1.84593605995,0.669585585594,-0.242756426334,21.0,0.04861585073244147,0.6173699197157191,0.2239416674227425,21.0,-0.03280492247756756,0.6211864612615696,1.9689984074738327
1648218659245164814,44314,18,8,0.923789441586,1.68185293674,-0.111891761422,-0.161837622523,21.0,0.30895967946020064,0.5624926209832776,-0.03742199378662207,21.0,-0.021869948989594594,0.7122570573359993,1.922117582116363
1648218659439908799,44315,20,0,0.00521258730441,0.0454158857465,0.0103945415467,0.0,19.7000007629,0.0017433402355886286,0.015189259446989964,0.0034764352998996654,19.7000007629,0.0,0.015388049678306159,0.046880915504193287
1648218659439924673,44316,20,1,0.0334517285228,0.0146502861753,-0.0293967872858,0.0,19.7000007629,0.011187869071170567,0.0048997612626421405,-0.009831701433377926,19.7000007629,0.0,0.016563347763607406,0.046880914335237424
1648218659439928866,44317,20,2,1.62160682678,1.41521763802,0.134674400091,0.0,19.7000007629,0.5423434203277592,0.47331693579264206,0.04504160538160535,19.7000007629,0.0,0.9012778111402504,2.1565219353538416
1648218659439936352,44318,20,3,0.915777802467,-0.146502867341,0.137898400426,0.323675245047,19.7000007629,0.30628020149397994,-0.04899761449531772,0.04611986636321069,19.7000007629,0.04373989797932432,0.43590812091611425,0.937618281855933
1648218659440091586,44319,20,4,1.01139605045,-0.175803437829,0.460560202599,0.323675245047,19.7000007629,0.3382595486454849,-0.05879713639765886,0.15403351257491638,19.7000007629,0.04373989797932432,0.4819711067566802,1.125141999854412
1648218659544901213,44320,21,0,0.00525120040402,0.0454158857465,0.0103750880808,0.0,24.1000003815,0.0017562543157257522,0.015189259446989964,0.0034699291240133778,24.1000003815,0.0,0.01539098635536347,0.04688091548281325
1648218659544903226,44321,21,1,0.0334517285228,0.0146502861753,-0.0293967872858,0.0,24.1000003815,0.011187869071170567,0.0048997612626421405,-0.009831701433377926,24.1000003815,0.0,0.016563347763607406,0.046880914335237424
1648218659544904974,44322,21,2,1.62203073502,1.41521763802,0.129469871521,0.0,24.1000003815,0.5424851956588629,0.47331693579264206,0.04330096037491639,24.1000003815,0.0,0.9014484437427387,2.156521995237724
1648218659544906600,44323,21,3,0.836381971836,-0.278355449438,0.128049224615,0.242756426334,24.1000003815,0.27972641198528425,-0.09309546803946488,0.042825827630434785,24.1000003815,0.03280492247756756,0.40639943072525214,0.8907374265004302
1648218659544907777,44324,21,4,0.996970832348,-0.316446185112,0.414554536343,0.323675245047,24.1000003815,0.33343506098595316,-0.10583484451906354,0.13864700212140466,24.1000003815,0.04373989797932432,0.48327931272069463,1.1251419875851945
