%time,field.header.seq,field.header.frame_id,field.point_id,field.x,field.y,field.z,field.velocity,field.intensity,normalized_x,normalized_y,normalized_z,normalized_intensity,normalized_velocity,normalized_range,range
1648219684657538079,83868,0,0,0.0121983094141,0.0439508594573,0.0108325183392,0.0,17.2999992371,0.004079702145183947,0.014699284099431437,0.0036229158325083613,17.2999992371,0.0,0.015791038351629535,0.046880915660496236
1648219684657545545,83869,0,1,0.0334108844399,0.0146502861753,-0.0294432006776,0.0,17.2999992371,0.011174208842775918,0.0048997612626421405,-0.009847224306889632,17.2999992371,0.0,0.01654489489101794,0.04688091456249508
1648219684657551784,83870,0,2,0.875681877136,1.13539719582,0.236980363727,0.0,17.2999992371,0.29287019302207357,0.37973150361872904,0.07925764673143812,17.2999992371,0.0,0.5619091694946027,1.453308375745674
1648219684657555621,83871,0,3,1.63886237144,-1.61153149605,0.460051894188,0.0,17.2999992371,0.5481145054983277,-0.5389737444983277,0.1538635097618729,17.2999992371,0.0,0.9441142513138445,2.3440459425167113
1648219684657558452,83872,0,4,0.976367473602,-0.723724126816,-0.0930400192738,-0.323675245047,17.2999992371,0.32654430555250835,-0.24204820294849494,-0.031117063302274244,17.2999992371,-0.04373989797932432,0.5213920785053563,1.2189038109834602
1648219684657575644,83873,0,5,1.1129270792,-0.76474493742,0.157877489924,-0.161837622523,17.2999992371,0.37221641444816045,-0.2557675375986622,0.052801836094983276,17.2999992371,-0.021869948989594594,0.5852411055783527,1.3595465437971828
1648219684762789431,83874,1,0,0.0122118405998,0.0439508594573,0.0108172614127,0.0,31.0,0.00408422762535117,0.014699284099431437,0.003617813181505017,31.0,0.0,0.015793377840954772,0.04688091554503761
1648219684762791866,83875,1,1,0.0334246940911,0.0146502861753,-0.0294275209308,0.0,31.0,0.01117882745521739,0.0048997612626421405,-0.009841980244414716,31.0,0.0,0.01655113370672634,0.04688091347482975
1648219684762794718,83876,1,2,1.0117430687,-0.672448158264,0.355528354645,-0.161837622523,31.0,0.33837560826086954,-0.22489904958662205,0.11890580422909698,31.0,-0.021869948989594594,0.5287491721381631,1.2657847263937574
1648219684762796732,83877,1,3,0.891514003277,1.13539719582,0.167872488499,-0.161837622523,31.0,0.29816521848729094,0.37973150361872904,0.05614464498294314,31.0,-0.021869948989594594,0.5674513281962504,1.4533083577512893
1648219684762802902,83878,1,4,1.16831088066,1.21304368973,-0.109313540161,-0.161837622523,31.0,0.39073942496989966,0.4057002306789298,-0.03655971242842809,31.0,-0.021869948989594594,0.6855270043000149,1.6877128775727368
1648219684957911901,83879,3,0,0.0123096564785,0.0439508594573,0.0107058184221,0.0,13.0,0.004116941966053511,0.014699284099431437,0.003580541278294314,13.0,0.0,0.01581035658483081,0.04688091549597757
1648219684958056860,83880,3,1,0.0334016978741,0.0146502861753,-0.0294536203146,0.0,13.0,0.011171136412742476,0.0048997612626421405,-0.009850709135317725,13.0,0.0,0.016540744781753033,0.0468809135526118
1648219684958063870,83881,3,2,2.06239938736,-1.19546329975,0.18413695693,0.0,13.0,0.6897656813913043,-0.39982050158862875,0.061584266531772576,13.0,0.0,1.054234235803886,2.3909266306056955
1648219684958179921,83882,3,3,0.964234650135,1.16030263901,-0.342601418495,-0.485512852669,13.0,0.3224865050618729,0.3880610832809364,-0.11458241421237457,13.0,-0.06560984495527027,0.5988209216879589,1.5470702655565851
1648219684958183009,83883,3,4,0.817096471786,1.14272236824,0.0676556974649,-0.323675245047,13.0,0.27327641196856184,0.3821813940602007,0.022627323566856185,13.0,-0.04373989797932432,0.5435279317961688,1.4064275127003971
1648219684958185534,83884,3,5,1.04586911201,-0.712003946304,0.0376720204949,-0.161837622523,13.0,0.34978900067224084,-0.23812841013511704,0.012599337958160536,13.0,-0.021869948989594594,0.5490080415586354,1.265784736887447
1648219684958191469,83885,3,6,1.08507061005,-0.738374471664,-0.0227199271321,-0.0809188112617,13.0,0.3628998695819398,-0.2469479838341137,-0.007598637836822741,13.0,-0.010934974494824324,0.5695401104443054,1.3126657168861608
1648219685062916044,83886,4,0,0.0123096564785,0.0439508594573,0.0107058184221,0.0,11.8999996185,0.004116941966053511,0.014699284099431437,0.003580541278294314,11.8999996185,0.0,0.01581035658483081,0.04688091549597757
1648219685062920122,83887,4,1,0.0335084721446,0.0146502861753,-0.0293320901692,0.0,11.8999996185,0.01120684687110368,0.0048997612626421405,-0.00981006360173913,11.8999996185,0.0,0.01658898713049176,0.046880914071482226
1648219685062927150,83888,4,2,2.08569097519,-1.21890377998,0.327220052481,0.0,11.8999996185,0.6975555100969899,-0.407660127083612,0.10943814464247491,11.8999996185,0.0,1.0674053393847953,2.437807669112601
1648219685062933473,83889,4,3,0.783989012241,1.10463154316,0.116263762116,-0.485512852669,11.8999996185,0.2622036830237458,0.3694419876789297,0.03888420137658862,11.8999996185,-0.06560984495527027,0.5234395142159144,1.3595465714127
1648219685062935264,83890,4,4,0.876686394215,1.05482065678,0.311147361994,-0.404594063759,11.8999996185,0.2932061519113712,0.352782828354515,0.10406266287424748,11.8999996185,-0.05467487348094594,0.5444220963729883,1.4064275070714858
1648219685062937927,83891,4,5,0.968550801277,-0.723724126816,0.154464364052,-0.161837622523,11.8999996185,0.32393003387190633,-0.24204820294849494,0.051660322425418057,11.8999996185,-0.021869948989594594,0.5181203202337316,1.2189038133306045
1648219685062944510,83892,4,6,1.02424967289,-0.892202436924,0.0570478700101,-0.161837622523,11.8999996185,0.3425584190267558,-0.2983954638541806,0.01907955518732441,11.8999996185,-0.021869948989594594,0.5689748621344993,1.3595466304401205
1648219685257834386,83893,6,0,0.00558515451849,0.0454158857465,0.0101991966367,0.0,22.5,0.0018679446550133778,0.015189259446989964,0.0034111025540802674,22.5,0.0,0.015417264252011769,0.04688091553253438
1648219685257936636,83894,6,1,0.0334246940911,0.0146502861753,-0.0294275209308,0.0,22.5,0.01117882745521739,0.0048997612626421405,-0.009841980244414716,22.5,0.0,0.01655113370672634,0.04688091347482975
1648219685257938569,83895,6,2,2.1185567379,-1.14272224903,0.385758548975,0.0,22.5,0.7085474039799331,-0.3821813541906354,0.1290162371153846,22.5,0.0,1.0724464717944635,2.4378077135485827
1648219685257940769,83896,6,3,0.964007914066,-0.723724126816,0.180661633611,0.0809188112617,22.5,0.32241067360066883,-0.24204820294849494,0.06042195104046822,22.5,0.010934974494824324,0.516221481007784,1.2189038091565951
1648219685257944629,83897,6,4,0.913819551468,0.870226979256,0.0992462933064,-0.566431701183,22.5,0.3056252680494983,0.29104581246020067,0.03319274023625418,22.5,-0.07654482448418919,0.5210770325885354,1.2657847347812579
1648219685257994443,83898,6,5,1.02207899094,-0.892202436924,0.0877281576395,-0.0809188112617,22.5,0.3418324384414716,-0.2983954638541806,0.02934052094966555,22.5,-0.010934974494824324,0.5681009459510137,1.359546572139724
1648219685362915148,83899,7,0,0.012287533842,0.0439508594573,0.0107312016189,0.0,11.3000001907,0.004109543090969899,0.014699284099431437,0.003589030641772575,11.3000001907,0.0,0.015806506314454016,0.04688091534024388
1648219685362923457,83900,7,1,0.0334246940911,0.0146502861753,-0.0294275209308,0.0,11.3000001907,0.01117882745521739,0.0048997612626421405,-0.009841980244414716,11.3000001907,0.0,0.01655113370672634,0.04688091347482975
1648219685362932491,83901,7,2,2.11765813828,-1.14272224903,0.390660196543,0.0,11.3000001907,0.7082468689899665,-0.3821813541906354,0.13065558412809364,11.3000001907,0.0,1.0720493656353562,2.4378075227988596
1648219685362934768,83902,7,3,0.985430002213,-0.68563336134,0.211095005274,0.0809188112617,11.3000001907,0.32957525157625417,-0.2293088165016722,0.07060033621204012,11.3000001907,0.010934974494824324,0.5194441512121395,1.218903809451562
1648219685363079344,83903,7,4,0.929762065411,0.723724126816,0.312237769365,-0.404594063759,11.3000001907,0.3109572125120401,0.24204820294849494,0.10442734761371236,11.3000001907,-0.05467487348094594,0.5019722189296056,1.2189038250128437
1648219685557770731,83904,9,0,0.0123096564785,0.0439508594573,0.0107058184221,0.0,39.0999984741,0.004116941966053511,0.014699284099431437,0.003580541278294314,39.0999984741,0.0,0.01581035658483081,0.04688091549597757
1648219685557776795,83905,9,1,0.0333728827536,0.0146502861753,-0.0294862668961,0.0,39.0999984741,0.011161499248695653,0.0048997612626421405,-0.00986162772444816,39.0999984741,0.0,0.01652772795601851,0.04688091428045918
1648219685557780141,83906,9,2,2.09258818626,-1.21890377998,0.279740691185,0.0,39.0999984741,0.6998622696521739,-0.407660127083612,0.09355875959364549,39.0999984741,0.0,1.070421025661964,2.4378077439431336
1648219685557785909,83907,9,3,0.941021859646,-0.723724126816,0.276455700397,0.0809188112617,39.0999984741,0.3147230299819398,-0.24204820294849494,0.09246010046722408,39.0999984741,0.010934974494824324,0.5066443562822167,1.2189038134115397
1648219685557787799,83908,9,4,1.66986763477,0.742769479752,-0.0521538071334,-0.647350490093,39.0999984741,0.5584841587859531,0.24841788620468228,-0.017442744860668897,39.0999984741,-0.08747979595851352,0.827961688374595,1.8283556648808565
1648219685557882650,83909,9,5,1.48508858681,-0.9713139534,0.440392553806,-0.647350490093,39.0999984741,0.496685146090301,-0.3248541650167224,0.14728847953377924,39.0999984741,-0.08747979595851352,0.7739008316458893,1.828355684266776
1648219685557885597,83910,9,6,0.890751421452,0.606521844864,-0.0366037152708,-0.404594063759,39.0999984741,0.2979101743986622,0.20285011533913042,-0.012242045241070233,39.0999984741,-0.05467487348094594,0.4675993085041734,1.078260949440169
1648219685557887365,83911,9,7,0.944721221924,0.512760043144,0.467136740685,-0.242756426334,39.0999984741,0.3159602748909699,0.17149165322541807,0.1562330236404682,39.0999984741,-0.03280492247756756,0.4786138085600347,1.1720229449530488
1648219685558212586,83912,9,8,1.21220886707,-0.726654171944,-0.338568419218,-0.161837622523,39.0999984741,0.4054210257759197,-0.24302815115183943,-0.11323358502274247,39.0999984741,-0.021869948989594594,0.6227319636365868,1.4533083628392593
1648219685662887378,83913,10,0,0.0121983094141,0.0439508594573,0.0108325183392,0.0,18.2000007629,0.004079702145183947,0.014699284099431437,0.0036229158325083613,18.2000007629,0.0,0.015791038351629535,0.046880915660496236
1648219685662889740,83914,10,1,0.0334246940911,0.0146502861753,-0.0294275209308,0.0,18.2000007629,0.01117882745521739,0.0048997612626421405,-0.009841980244414716,18.2000007629,0.0,0.01655113370672634,0.04688091347482975
1648219685662892839,83915,10,2,2.06078386307,-0.757419764996,0.185660764575,0.0,18.2000007629,0.6892253722642141,-0.2533176471558528,0.06209390119565217,18.2000007629,0.0,1.0070913850818435,2.2034029931446684
1648219685662895525,83916,10,3,2.08182168007,-1.21890377998,0.350995600224,0.0,18.2000007629,0.6962614314615384,-0.407660127083612,0.11738983285083611,18.2000007629,0.0,1.0657141929690004,2.437807589584464
1648219685662897688,83917,10,4,1.02269482613,-0.849716603756,0.283626109362,0.161837622523,18.2000007629,0.3420384033879598,-0.28418615510234113,0.09485823055585284,18.2000007629,0.021869948989594594,0.5610189921350447,1.3595465361669408
1648219685663042735,83918,10,5,1.38441646099,-1.02991509438,0.177431464195,-0.647350490093,18.2000007629,0.4630155387926421,-0.34445320882274244,0.05934162682107023,18.2000007629,-0.08747979595851352,0.7398748484677428,1.7345938901017213
1648219685663045397,83919,10,6,1.55928683281,0.75888478756,0.0391734018922,-0.647350490093,18.2000007629,0.5215006129799331,0.25380762125752504,0.013101472204749161,18.2000007629,-0.08747979595851352,0.7799641576927079,1.7345939303423252
1648219685663049492,83920,10,7,1.78353476524,-1.43572807312,0.186159282923,-0.566431701183,18.2000007629,0.5964999214849498,-0.480176613083612,0.06226062974013377,18.2000007629,-0.07654482448418919,0.9706667257177158,2.297164912970546
1648219685663115966,83921,10,8,0.887234330177,0.515690088272,0.103072755039,-0.323675245047,18.2000007629,0.2967338896913043,0.17247160142876253,0.03447249332408026,18.2000007629,-0.04373989797932432,0.4537052522090352,1.0313801513593048
1648219685857709211,83922,12,0,0.0123096564785,0.0439508594573,0.0107058184221,0.0,41.9000015259,0.004116941966053511,0.014699284099431437,0.003580541278294314,41.9000015259,0.0,0.01581035658483081,0.04688091549597757
1648219685857848351,83923,12,1,0.0334246940911,0.0146502861753,-0.0294275209308,0.0,41.9000015259,0.01117882745521739,0.0048997612626421405,-0.009841980244414716,41.9000015259,0.0,0.01655113370672634,0.04688091347482975
1648219685857854735,83924,12,2,2.07113790512,-1.21890377998,0.409349620342,0.0,41.9000015259,0.6926882625819397,-0.407660127083612,0.13690622753913043,41.9000015259,0.0,1.061047047708724,2.4378075720918857
1648219685857925138,83925,12,3,1.82513642311,-1.88695693016,-0.025208927691,-0.566431701183,41.9000015259,0.6104135194347826,-0.6310892743010033,-0.008431079495317725,41.9000015259,-0.07654482448418919,1.0693376461881825,2.625331390372832
1648219685857928175,83926,12,4,1.02973866463,0.26956525445,0.172103822231,-0.404594063759,41.9000015259,0.34439420221739125,0.09015560349498328,0.057559806766220724,41.9000015259,-0.05467487348094594,0.49532087164125377,1.0782610395758478
1648219685857934527,83927,12,5,1.14819538593,-0.7779302001,-2.39313268661,-0.404594063759,41.9000015259,0.3840118347591973,-0.26017732444816055,-0.8003788249531772,41.9000015259,-0.05467487348094594,0.6021813834944199,2.76597398690222
1648219685857939278,83928,12,6,2.19230341911,0.2593100667,-1.66648638248,-0.404594063759,41.9000015259,0.7332118458561873,0.08672577481605351,-0.5573533051772575,41.9000015259,-0.05467487348094594,1.0405386017948202,2.7659741240880455
1648219685857942950,83929,12,7,0.923763096333,0.307655990124,0.145767599344,-0.242756426334,41.9000015259,0.308950868338796,0.10289497997458194,0.04875170546622073,41.9000015259,-0.03280492247756756,0.4488748767736525,0.9844991921908434
1648219685857954428,83930,12,8,0.993149220943,-0.68563336134,0.171137139201,-0.0809188112617,41.9000015259,0.33215693008127084,-0.2293088165016722,0.05723650140501672,41.9000015259,-0.010934974494824324,0.5227226661695722,1.2189037704658958
1648219685962835902,83931,13,0,0.0123096564785,0.0439508594573,0.0107058184221,0.0,12.3000001907,0.004116941966053511,0.014699284099431437,0.003580541278294314,12.3000001907,0.0,0.01581035658483081,0.04688091549597757
1648219685962841929,83932,13,1,0.0334246940911,0.0146502861753,-0.0294275209308,0.0,12.3000001907,0.01117882745521739,0.0048997612626421405,-0.009841980244414716,12.3000001907,0.0,0.01655113370672634,0.04688091347482975
1648219685962844698,83933,13,2,2.12089014053,-1.14272224903,0.37271514535,0.0,12.3000001907,0.7093278061973243,-0.3821813541906354,0.12465389476588627,12.3000001907,0.0,1.0734777411667211,2.4378075613548362
1648219685962847383,83934,13,3,0.343631207943,-0.628497302532,-1.37125313282,-0.566431701183,12.3000001907,0.11492682539899665,-0.21019976673311033,-0.4586130878996655,12.3000001907,-0.07654482448418919,0.2657071552051937,1.5470702701012096
1648219685962853936,83935,13,4,0.956504166126,-1.20864868164,0.133021056652,-0.566431701183,12.3000001907,0.3199010589050167,-0.40423032830769223,0.04448864770969899,12.3000001907,-0.07654482448418919,0.6066922888094479,1.5470702818422049
1648219685962859176,83936,13,5,1.62484240532,0.3457467556,-2.21155118942,-0.323675245047,12.3000001907,0.543425553618729,0.11563436642140468,-0.7396492272307692,12.3000001907,-0.04373989797932432,0.7771704905291528,2.765974028178686
1648219685962973804,83937,13,6,1.56570017338,-0.864366889,-2.10999178886,-0.323675245047,12.3000001907,0.5236455429364548,-0.2890859160535117,-0.705682872528428,12.3000001907,-0.04373989797932432,0.7949716825994038,2.7659740600335216
1648219685962975657,83938,13,7,0.9627571702,0.184593603015,0.0908986181021,-0.161837622523,12.3000001907,0.32199236461538455,0.06173699097491638,0.030400875619431434,12.3000001907,-0.021869948989594594,0.4595319594934072,0.984499225910535
1648219685962976873,83939,13,8,0.970482468605,-0.723724126816,0.141822859645,-0.161837622523,12.3000001907,0.3245760764565217,-0.24204820294849494,0.04743239453010033,12.3000001907,-0.021869948989594594,0.5189283104306561,1.2189038342392404
1648219685962977953,83940,13,9,1.12396073341,-0.76474493742,-0.0156333278865,-0.161837622523,12.3000001907,0.37590659980267555,-0.2557675375986622,-0.005228537754682274,12.3000001907,-0.021869948989594594,0.5899394687929439,1.359546597398512
1648219686061516838,83941,14,0,0.00558515451849,0.0454158857465,0.0101991966367,0.0,16.8999996185,0.0018679446550133778,0.015189259446989964,0.0034111025540802674,16.8999996185,0.0,0.015417264252011769,0.04688091553253438
1648219686061519588,83942,14,1,0.0334246940911,0.0146502861753,-0.0294275209308,0.0,16.8999996185,0.01117882745521739,0.0048997612626421405,-0.009841980244414716,16.8999996185,0.0,0.01655113370672634,0.04688091347482975
1648219686061520665,83943,14,2,2.09393048286,-1.21890377998,0.269507557154,0.0,16.8999996185,0.7003111982809364,-0.407660127083612,0.09013630674046821,16.8999996185,0.0,1.0710080896469403,2.4378075427036814
1648219686061521625,83944,14,3,0.970926582813,-0.0,0.347917497158,0.0809188112617,16.8999996185,0.32472460963645483,-0.0,0.11636036694247491,16.8999996185,0.010934974494824324,0.45922994698418346,1.0313801501103346
1648219686061522568,83945,14,4,0.741118550301,-0.0,1.30434322357,-0.485512852669,16.8999996185,0.24786573588662206,-0.0,0.43623519182943143,16.8999996185,-0.06560984495527027,0.35053508533844846,1.500189304878966
1648219686061525153,83946,14,5,0.85901927948,-1.86937654018,0.149991244078,-0.404594063759,16.8999996185,0.2872974178862876,-0.6252095452107023,0.05016429567826086,16.8999996185,-0.05467487348094594,0.7456316705122105,2.0627603217033603
1648219686061526212,83947,14,6,1.1343100071,-0.0,-2.26322436333,-0.323675245047,16.8999996185,0.37936789535117055,-0.0,-0.7569312251939799,16.8999996185,-0.04373989797932432,0.5365072227345624,2.531569416582861
1648219686061527108,83948,14,7,0.918442189693,0.117202289402,0.147836595774,-0.0809188112617,16.8999996185,0.30717130090066885,0.03919809010100334,0.04944367751638795,16.8999996185,-0.010934974494824324,0.4361707308630244,0.9376183080012824
1648219686061528240,83949,14,8,0.979163050652,-0.723724126816,0.0564767234027,-0.0809188112617,16.8999996185,0.327479281154515,-0.24204820294849494,0.01888853625508361,16.8999996185,-0.010934974494824324,0.5225635767268434,1.2189038156409298
1648219686162766322,83950,15,0,0.012287533842,0.0439508594573,0.0107312016189,0.0,16.7999992371,0.004109543090969899,0.014699284099431437,0.003589030641772575,16.7999992371,0.0,0.015806506314454016,0.04688091534024388
1648219686162769651,83951,15,1,0.0334246940911,0.0146502861753,-0.0294275209308,0.0,16.7999992371,0.01117882745521739,0.0048997612626421405,-0.009841980244414716,16.7999992371,0.0,0.01655113370672634,0.04688091347482975
1648219686162773913,83952,15,2,0.936861872673,0.0293005723506,0.0236513800919,0.0,16.7999992371,0.31333172999096986,0.009799522525284281,0.007910160565852843,16.7999992371,0.0,0.44322632670001866,0.9376183017564689
1648219686162780215,83953,15,3,2.10983562469,-1.12074685097,0.0951307192445,0.0,16.7999992371,0.7056306437090301,-0.3748317227324415,0.031816294061705684,16.7999992371,0.0,1.0659868812743476,2.3909265402588575
1648219686162783009,83954,15,4,0.960593044758,-0.032230630517,0.374121874571,0.161837622523,16.7999992371,0.32126857684214044,-0.010779475089297658,0.12512437276622074,16.7999992371,0.021869948989594594,0.4544702344659652,1.0313801375891856
1648219686162789527,83955,15,5,1.63756370544,-0.102552004158,0.0140767283738,-0.647350490093,16.7999992371,0.5476801690434783,-0.034298329149832774,0.004707935910969899,16.7999992371,-0.08747979595851352,0.7752957567983048,1.6408320929372742
1648219686162795151,83956,15,6,0.659583866596,-0.13624766469,1.28782403469,-0.404594063759,16.7999992371,0.22059661090167224,-0.04556778083277591,0.43071037949498325,16.7999992371,-0.05467487348094594,0.3152810684653163,1.453308311244534
1648219686162908262,83957,15,7,0.470337063074,-1.99829912186,0.201404556632,-0.242756426334,16.7999992371,0.1573033655765886,-0.6683274655050166,0.0673593834889632,16.7999992371,-0.03280492247756756,0.7043793713559497,2.0627603178167973
1648219686162911887,83958,15,8,1.15387272835,-0.0776465162635,2.19914197922,-0.242756426334,16.7999992371,0.3859106114882943,-0.025968734536287622,0.7354989897056856,16.7999992371,-0.03280492247756756,0.546377502549249,2.4846884511916962
1648219686162914799,83959,15,9,0.9995906353,-0.68563336134,0.128265067935,-0.0809188112617,16.7999992371,0.334311249264214,-0.2293088165016722,0.042898016031772575,16.7999992371,-0.010934974494824324,0.5254622308925699,1.218903799327172
