%time,field.header.seq,field.header.frame_id,field.point_id,field.x,field.y,field.z,field.velocity,field.intensity,normalized_x,normalized_y,normalized_z,normalized_intensity,normalized_velocity,normalized_range,range
1648294529059212050,15065,0,0,0.012678119354,0.0439508594573,0.0102668134496,0.0,17.5,0.004240173696989966,0.014699284099431437,0.003433716872775919,17.5,0.0,0.015875361381621805,0.04688091526195381
1648294529059287047,15066,0,1,0.033601410687,0.0146502861753,-0.0292255785316,0.0,17.5,0.011237929995652172,0.0048997612626421405,-0.009774440980468226,17.5,0.0,0.01663098919503125,0.04688091430082548
1648294529059289484,15067,0,2,0.316584646702,-0.5845464468,-0.59286826849,0.0,17.5,0.1058811527431438,-0.19550048387959865,-0.19828370183612037,17.5,0.0,0.24625611913126363,0.890737430883123
1648294529059291830,15068,0,3,1.51067769527,-1.68478298187,0.611482262611,0.0,17.5,0.5052433763444816,-0.5634725691872909,0.20450911793010032,17.5,0.0,0.9099687219385452,2.344045936510826
1648294529059295313,15069,0,4,2.24084568024,-1.2306240797,0.597109615803,0.0,17.5,0.7494467157993311,-0.4115799597658863,0.1997022126431438,17.5,0.0,1.1369867294413314,2.6253313850773483
1648294529059301091,15070,0,5,1.15783858299,1.21304368973,-0.190550863743,-0.404594063759,17.5,0.38723698427759196,0.4057002306789298,-0.06372938586722408,17.5,-0.05467487348094594,0.6815406379356589,1.6877128929789174
1648294529059312481,15071,0,6,0.982488512993,0.892202436924,0.295055955648,-0.323675245047,17.5,0.3285914759173913,0.2983954638541806,0.09868092162140468,17.5,-0.04373989797932432,0.5522540800572602,1.359546572788029
1648294529059354695,15072,0,7,1.06451165676,1.03138017654,0.23159827292,-0.323675245047,17.5,0.35602396547157183,0.34494320285618724,0.077457616361204,17.5,-0.04373989797932432,0.6103211787058439,1.5001892867092232
1648294529161023464,15073,1,0,0.012665912509,0.0439508594573,0.0102818692103,0.0,30.0,0.004236091140133779,0.014699284099431437,0.0034387522442474914,30.0,0.0,0.015873181449565732,0.04688091531933537
1648294529161027375,15074,1,1,0.0335509069264,0.0146502861753,-0.0292835440487,0.0,30.0,0.011221039105819395,0.0048997612626421405,-0.009793827441036788,30.0,0.0,0.016608163584802046,0.0468809150151135
1648294529161034680,15075,1,2,0.301466703415,-0.5845464468,-0.600696623325,0.0,30.0,0.10082498441973242,-0.19550048387959865,-0.2009018807107023,30.0,0.0,0.24197478001567804,0.890737422032144
1648294529161039760,15076,1,3,1.50622963905,-1.68478298187,0.622358322144,0.0,30.0,0.5037557321237458,-0.5634725691872909,0.20814659603478258,30.0,0.0,0.9083176820482955,2.3440459258925275
1648294529161112131,15077,1,4,2.23949408531,-1.2306240797,0.602159261703,0.0,30.0,0.748994677361204,-0.4115799597658863,0.2013910574257525,30.0,0.0,1.1363908292096152,2.6253314381484576
1648294529161115816,15078,1,5,1.07605838776,0.953733623028,0.211176663637,-0.485512852669,30.0,0.3598857484147157,0.31897445586220735,0.07062764670133778,30.0,-0.06560984495527027,0.600649820874552,1.453308315818643
1648294529161117904,15079,1,6,0.949340879917,0.861436843872,0.282435357571,-0.404594063759,30.0,0.31750531100903007,0.28810596785016723,0.094459985809699,30.0,-0.05467487348094594,0.5335019154124598,1.312665712764676
1648294529264418036,15080,2,0,0.0126454373822,0.0439508594573,0.0103070409968,0.0,32.5999984741,0.004229243271638795,0.014699284099431437,0.003447170901939799,32.5999984741,0.0,0.015869528989141485,0.046880915389230546
1648294529264424565,15081,2,1,0.0335509069264,0.0146502861753,-0.0292835440487,0.0,32.5999984741,0.011221039105819395,0.0048997612626421405,-0.009793827441036788,32.5999984741,0.0,0.016608163584802046,0.0468809150151135
1648294529264430257,15082,2,2,0.326896905899,-0.5845464468,-0.587245285511,0.0,32.5999984741,0.1093300688625418,-0.19550048387959865,-0.19640310552207355,32.5999984741,0.0,0.2492520152619302,0.8907374253435975
1648294529264432107,15083,2,3,1.50346159935,-1.68478298187,0.629015505314,0.0,32.5999984741,0.5028299663377926,-0.5634725691872909,0.21037307870033442,32.5999984741,0.0,0.9072911805595035,2.3440458576240046
1648294529264530614,15084,2,4,2.23987555504,-1.2306240797,0.600738227367,0.0,32.5999984741,0.7491222592107022,-0.4115799597658863,0.20091579510602006,32.5999984741,0.0,1.1365590093658937,2.625331321076116
1648294529264533139,15085,2,5,1.57495117188,2.24735403061,0.3457467556,0.566431701183,32.5999984741,0.5267395223678929,0.7516234216086956,0.11563436642140468,32.5999984741,0.07654482448418919,1.0582281496725905,2.7659739969336523
1648294529264615871,15086,2,6,1.79917252064,-2.0744805336,0.331844687462,0.566431701183,32.5999984741,0.6017299400133779,-0.6938061985284281,0.11098484530501672,32.5999984741,0.07654482448418919,1.0979639714186777,2.7659739947996953
1648294529264622012,15087,2,7,0.91761058569,0.97717410326,0.226910635829,-0.647350490093,32.5999984741,0.3068931724715719,0.3268140813578595,0.07588984475886287,32.5999984741,-0.08747979595851352,0.5432994408179651,1.3595465610653616
1648294529264628316,15088,2,8,0.955836176872,1.01086974144,0.206295624375,-0.566431701183,32.5999984741,0.31967765112775914,0.33808352556521737,0.0689951920986622,32.5999984741,-0.07654482448418919,0.5645246420837,1.4064275010865384
1648294529264635254,15089,2,9,1.02183663845,0.779395282269,0.267364889383,-0.485512852669,32.5999984741,0.3417513840969899,0.2606673184846154,0.0894196954458194,32.5999984741,-0.06560984495527027,0.5491224526372752,1.3126656488903616
1648294529459310603,15090,4,0,0.0126577178016,0.0439508594573,0.0102919563651,0.0,29.0,0.004233350435317726,0.014699284099431437,0.0034421258746153843,29.0,0.0,0.01587171902637542,0.046880915443295264
1648294529459314085,15091,4,1,0.0335509069264,0.0146502861753,-0.0292835440487,0.0,29.0,0.011221039105819395,0.0048997612626421405,-0.009793827441036788,29.0,0.0,0.016608163584802046,0.0468809150151135
1648294529459477149,15092,4,2,1.49745035172,-1.68478298187,0.643194973469,0.0,29.0,0.500819515625418,-0.5634725691872909,0.21511537574214046,29.0,0.0,0.9050644787467261,2.344045866821063
1648294529459480750,15093,4,3,2.24046587944,-1.2306240797,0.598532915115,0.0,29.0,0.7493196921204013,-0.4115799597658863,0.20017823247993308,29.0,0.0,1.1368192755577795,2.6253313377454632
1648294529459584912,15094,4,4,0.88694113493,0.562570989132,0.40347713232,-0.566431701183,29.0,0.29663583108026753,0.1881508324856187,0.13494218472240802,29.0,-0.07654482448418919,0.45976773302004714,1.125141987017214
1648294529564348216,15095,5,0,0.0126351611689,0.0439508594573,0.0103196371347,0.0,33.7999992371,0.0042258064110033446,0.014699284099431437,0.003451383657090301,33.7999992371,0.0,0.015867697775113813,0.04688091568422373
1648294529564351220,15096,5,1,0.0335509069264,0.0146502861753,-0.0292835440487,0.0,33.7999992371,0.011221039105819395,0.0048997612626421405,-0.009793827441036788,33.7999992371,0.0,0.016608163584802046,0.0468809150151135
1648294529564353659,15097,5,2,0.308792978525,-0.5845464468,-0.596963584423,0.0,33.7999992371,0.10327524365384615,-0.19550048387959865,-0.1996533727167224,33.7999992371,0.0,0.2440327664488517,0.8907374322324186
1648294529564380740,15098,5,3,1.51260864735,-1.68478298187,0.606689989567,0.0,33.7999992371,0.505889179715719,-0.5634725691872909,0.2029063510257525,33.7999992371,0.0,0.9106860383982025,2.344045938004964
1648294529564475388,15099,5,4,2.24154257774,-1.2306240797,0.594488501549,0.0,33.7999992371,0.7496797918862876,-0.4115799597658863,0.19882558580234114,33.7999992371,0.0,1.1372940006903334,2.6253314708494875
1648294529564479199,15100,5,5,1.4354377985,0.227079421282,-0.00763110863045,0.404594063759,33.7999992371,0.48007953127090297,0.07594629474314381,-0.0025522102442976586,33.7999992371,0.05467487348094594,0.6831694902261021,1.4533082848285233
1648294529564552143,15101,5,6,1.00174796581,0.549385726452,0.2613697052,-0.647350490093,33.7999992371,0.3350327644849498,0.1837410456361204,0.08741461712374582,33.7999992371,-0.08747979595851352,0.5081876409440814,1.17202294611923
1648294529759365909,15102,7,0,0.012678119354,0.0439508594573,0.0102668134496,0.0,34.5999984741,0.004240173696989966,0.014699284099431437,0.003433716872775919,34.5999984741,0.0,0.015875361381621805,0.04688091526195381
1648294529759539985,15103,7,1,0.0334526263177,0.0146502861753,-0.0293957665563,0.0,34.5999984741,0.01118816933702341,0.0048997612626421405,-0.009831360052274246,34.5999984741,0.0,0.016563753398874007,0.0468809149228377
1648294529759552836,15104,7,2,1.50896835327,-1.68478298187,0.61568826437,0.0,34.5999984741,0.5046716900568562,-0.5634725691872909,0.20591580748160535,34.5999984741,0.0,0.9093340231819182,2.3440459095444544
1648294529759555696,15105,7,3,2.24120116234,-1.2306240797,0.595773696899,0.0,34.5999984741,0.7495656061337792,-0.4115799597658863,0.1992554170230769,34.5999984741,0.0,1.137143464598152,2.625331326428788
1648294529759568568,15106,7,4,0.910558760166,0.276890397072,0.251898884773,-0.647350490093,34.5999984741,0.3045347023966555,0.09260548397056856,0.08424711865317724,34.5999984741,-0.08747979595851352,0.4405207663539396,0.9844991599059971
1648294529759655459,15107,7,5,1.17890620232,0.266635209322,0.157519474626,-0.647350490093,34.5999984741,0.39428301080936456,0.0891756552916388,0.05268209853712374,34.5999984741,-0.08747979595851352,0.5646861807433295,1.2189038327961736
1648294529759806324,15108,7,6,1.24963462353,0.328166425228,-0.231972754002,-0.566431701183,34.5999984741,0.417938001180602,0.10975465726688963,-0.07758286087023411,34.5999984741,-0.07654482448418919,0.601157575393878,1.312665705185887
1648294529861112302,15109,8,0,0.00628323899582,0.0454158857465,0.00978460349143,0.0,11.6999998093,0.002101417724354515,0.015189259446989964,0.0032724426392742472,11.6999998093,0.0,0.01547725800820147,0.0468809154763667
1648294529861121681,15110,8,1,0.0335372425616,0.0146502861753,-0.0292991939932,0.0,11.6999998093,0.011216469084147156,0.0048997612626421405,-0.00979906153618729,11.6999998093,0.0,0.016601988370738802,0.04688091607791967
1648294529861128842,15111,8,2,1.50714612007,-1.68478298187,0.620135724545,0.0,11.6999998093,0.5040622475150501,-0.5634725691872909,0.20740325235618728,11.6999998093,0.0,0.9086577105634297,2.3440459552017696
1648294529861278550,15112,8,3,2.24209880829,-1.2306240797,0.592387378216,0.0,11.6999998093,0.7498658221705685,-0.4115799597658863,0.19812286896856185,11.6999998093,0.0,1.1375392590148148,2.6253315024092743
1648294529861282339,15113,8,4,0.858845710754,1.99683392048,0.360587239265,0.404594063759,11.6999998093,0.28723936814515044,0.6678374315986622,0.12059773888461539,11.6999998093,0.05467487348094594,0.7816775193576622,2.203403008525863
1648294529861285242,15114,8,5,2.56220650673,0.328166425228,-0.468795388937,0.566431701183,11.6999998093,0.8569252530869564,0.10975465726688963,-0.1567877554973244,11.6999998093,0.07654482448418919,1.2168351833950484,2.6253313128946347
1648294529861382130,15115,8,6,0.924764215946,0.276890397072,-0.193342834711,-0.647350490093,11.6999998093,0.30928569095183944,0.09260548397056856,-0.06466315542173913,11.6999998093,-0.08747979595851352,0.4470917723650668,0.9844991614110167
1648294529861385573,15116,8,7,0.887124419212,0.293005734682,-0.0792840570211,-0.566431701183,11.6999998093,0.29669713017123744,0.09799522899063544,-0.026516407030468227,11.6999998093,-0.07654482448418919,0.43088448452993,0.9376182898261382
1648294529861509865,15117,8,8,1.60856544971,0.1728733778,-2.24348926544,-0.566431701183,11.6999998093,0.5379817557558528,0.05781718321070234,-0.750330858006689,11.6999998093,-0.07654482448418919,0.7630147873578336,2.765973986663148
1648294529861530871,15118,8,9,0.993376374245,0.161153152585,0.225783094764,-0.485512852669,11.6999998093,0.33223290108528425,0.05389737544648829,0.07551274072374581,11.6999998093,-0.06560984495527027,0.4729295171662562,1.0313801265185578
1648294529861650967,15119,8,10,0.838779389858,0.167013257742,0.248935475945,-0.404594063759,11.6999998093,0.28052822403277594,0.05585727683678929,0.08325601202173913,11.6999998093,-0.05467487348094594,0.4006397438267806,0.8907374272456043
1648294529861654396,15120,8,11,1.85880506039,0.1728733778,-2.04097294807,-0.404594063759,11.6999998093,0.6216739332408026,0.05781718321070234,-0.6825996481839464,11.6999998093,-0.05467487348094594,0.8810787622094858,2.7659739753000205
1648294529861655866,15121,8,12,1.86895906925,-1.1236770153,-1.70145654678,-0.404594063759,11.6999998093,0.6250699228260869,-0.37581171080267556,-0.5690490123010034,11.6999998093,-0.05467487348094594,0.9605515388671523,2.7659740450383596
1648294529964334215,15122,9,0,0.0126577178016,0.0439508594573,0.0102919563651,0.0,17.7000007629,0.004233350435317726,0.014699284099431437,0.0034421258746153843,17.7000007629,0.0,0.01587171902637542,0.046880915443295264
1648294529964337456,15123,9,1,0.0335735455155,0.0146502861753,-0.0292575843632,0.0,17.7000007629,0.011228610540301002,0.0048997612626421405,-0.009785145271973245,17.7000007629,0.0,0.016618394921363674,0.046880913880483405
1648294529964345234,15124,9,2,1.49395275116,-1.68478298187,0.651277840137,0.0,17.7000007629,0.4996497495518394,-0.5634725691872909,0.21781867563110366,17.7000007629,0.0,0.9037704800893632,2.344045934650347
1648294529964351628,15125,9,3,2.24129247665,-1.2306240797,0.595430016518,0.0,17.7000007629,0.7495961460367893,-0.4115799597658863,0.19914047375183944,17.7000007629,0.0,1.1371837263992584,2.625331311662585
1648294529964429693,15126,9,4,0.584956467152,-1.34489631653,-2.06347370148,-0.647350490093,17.7000007629,0.195637614432107,-0.44979809917391306,-0.6901249837725751,17.7000007629,-0.08747979595851352,0.528078102539612,2.531569451423066
1648294529964445578,15127,9,5,0.948487401009,-2.29423475266,0.49568387866,-0.647350490093,17.7000007629,0.31721986655819395,-0.7673025928628762,0.16578056142474915,17.7000007629,-0.08747979595851352,0.8888251551866033,2.5315694653216845
1648294529964451073,15128,9,6,0.608055472374,-1.35954654217,-2.27494382858,-0.404594063759,17.7000007629,0.20336303423879598,-0.4546978401906354,-0.7608507787892976,17.7000007629,-0.05467487348094594,0.5380178187231796,2.7190931725493703
1648294529964452479,15129,9,7,2.66978549957,-0.254914969206,-0.448030143976,-0.404594063759,17.7000007629,0.892904849354515,-0.0852558425438127,-0.14984285751705684,17.7000007629,-0.05467487348094594,1.2656329241488125,2.7190930960801407
1648294529964605493,15130,9,8,0.860654354095,0.139177724719,0.182528987527,-0.323675245047,17.7000007629,0.28784426558361204,0.04654773401973244,0.061046484122742474,17.7000007629,-0.04373989797932432,0.4097259254686109,0.8907374403090235
1648294529964610682,15131,9,9,0.935452342033,0.0307656005025,0.30532130599,-0.323675245047,17.7000007629,0.312860315061204,0.010289498495819397,0.10211414916053511,17.7000007629,-0.04373989797932432,0.44257092907203827,0.9844992159878765
1648294529964615442,15132,9,10,1.16833376884,-0.0366257168353,-0.085396066308,-0.323675245047,17.7000007629,0.3907470798795986,-0.012249403623846153,-0.02856055729364548,17.7000007629,-0.04373989797932432,0.5527355685660248,1.1720229207171924
1648294530159319815,15133,11,0,0.012678119354,0.0439508594573,0.0102668134496,0.0,17.7999992371,0.004240173696989966,0.014699284099431437,0.003433716872775919,17.7999992371,0.0,0.015875361381621805,0.04688091526195381
1648294530159351104,15134,11,1,0.0335509069264,0.0146502861753,-0.0292835440487,0.0,17.7999992371,0.011221039105819395,0.0048997612626421405,-0.009793827441036788,17.7999992371,0.0,0.016608163584802046,0.0468809150151135
1648294530159423449,15135,11,2,1.49669253826,-1.68478298187,0.64495652914,0.0,17.7999992371,0.5005660663076923,-0.5634725691872909,0.21570452479598662,17.7999992371,0.0,0.9047840127367638,2.3440458985613413
1648294530159625266,15136,11,3,2.24254226685,-1.2306240797,0.590705573559,0.0,17.7999992371,0.7500141360702341,-0.4115799597658863,0.19756039249464882,17.7999992371,0.0,1.1377347985762096,2.6253313160018252
1648294530159628896,15137,11,4,0.787301838398,-0.250519901514,0.3328794837,0.161837622523,17.7999992371,0.2633116516381271,-0.08378592023879598,0.11133093100334447,17.7999992371,0.021869948989594594,0.3816885277383362,0.8907374228513324
1648294530264442993,15138,12,0,0.012678119354,0.0439508594573,0.0102668134496,0.0,38.2999992371,0.004240173696989966,0.014699284099431437,0.003433716872775919,38.2999992371,0.0,0.015875361381621805,0.04688091526195381
1648294530264447717,15139,12,1,0.0335509069264,0.0146502861753,-0.0292835440487,0.0,38.2999992371,0.011221039105819395,0.0048997612626421405,-0.009793827441036788,38.2999992371,0.0,0.016608163584802046,0.0468809150151135
1648294530264455778,15140,12,2,1.50349283218,-1.68478298187,0.628941178322,0.0,38.2999992371,0.5028404121003345,-0.5634725691872909,0.21034822017458193,38.2999992371,0.0,0.9073027589007954,2.34404594626566
1648294530264458176,15141,12,3,2.20101928711,-1.31266570091,0.569901823997,0.0,38.2999992371,0.736126851876254,-0.4390186290668896,0.19060261672140466,38.2999992371,0.0,1.1298242521623707,2.6253314521353035
1648294530264459957,15142,12,4,1.02198696136,-0.512760043144,-0.257405519485,-0.161837622523,38.2999992371,0.3418016593177257,-0.17149165322541807,-0.08608880250334448,38.2999992371,-0.021869948989594594,0.5128997326482909,1.1720229573247383
1648294530360983192,15143,13,0,0.0126577178016,0.0439508594573,0.0102919563651,0.0,20.8999996185,0.004233350435317726,0.014699284099431437,0.0034421258746153843,20.8999996185,0.0,0.01587171902637542,0.046880915443295264
1648294530360989316,15144,13,1,0.0335509069264,0.0146502861753,-0.0292835440487,0.0,20.8999996185,0.011221039105819395,0.0048997612626421405,-0.009793827441036788,20.8999996185,0.0,0.016608163584802046,0.0468809150151135
1648294530360996192,15145,13,2,1.51088416576,-1.68478298187,0.610971987247,0.0,20.8999996185,0.5053124300200669,-0.5634725691872909,0.20433845727324412,20.8999996185,0.0,0.9100454055112286,2.344045952523885
1648294530361088247,15146,13,3,0.879674434662,-0.430718421936,0.0994649603963,0.485512852669,20.8999996185,0.2942054965424749,-0.14405298392508362,0.0332658730422408,20.8999996185,0.06560984495527027,0.4403010453875039,0.984499237348402
1648294530361095190,15147,13,4,0.963845431805,-0.659262895584,-0.100061118603,-0.161837622523,20.8999996185,0.32235633170735783,-0.22048926273712371,-0.03346525705785953,20.8999996185,-0.021869948989594594,0.5064017418670759,1.1720229559873179
1648294530464364428,15148,14,0,0.012678119354,0.0439508594573,0.0102668134496,0.0,23.8999996185,0.004240173696989966,0.014699284099431437,0.003433716872775919,23.8999996185,0.0,0.015875361381621805,0.04688091526195381
1648294530464378329,15149,14,1,0.0335372425616,0.0146502861753,-0.0292991939932,0.0,23.8999996185,0.011216469084147156,0.0048997612626421405,-0.00979906153618729,23.8999996185,0.0,0.016601988370738802,0.04688091607791967
1648294530464404891,15150,14,2,0.325033932924,-0.5845464468,-0.588278472424,0.0,23.8999996185,0.10870700097792642,-0.19550048387959865,-0.19674865298461536,23.8999996185,0.0,0.24870637973398874,0.8907374288397584
1648294530464408651,15151,14,3,1.50607764721,-1.68478298187,0.622726023197,0.0,23.8999996185,0.5037048987324414,-0.5634725691872909,0.20826957297558527,23.8999996185,0.0,0.9082612984381997,2.3440459200687873
1648294530464535347,15152,14,4,0.850023388863,-0.580151319504,0.0680423080921,0.242756426334,23.8999996185,0.28428875881705684,-0.19403054164013378,0.022756624779966556,23.8999996185,0.03280492247756756,0.4464168991745822,1.0313801776391047
1648294530464623392,15153,14,5,0.887858867645,-0.515690088272,0.0975465774536,0.404594063759,23.8999996185,0.2969427650986622,-0.17247160142876253,0.03262427339585284,23.8999996185,0.05467487348094594,0.45397848493984877,1.0313801291331708
1648294530464625483,15154,14,6,0.917948722839,-0.5391305089,0.171333417296,0.485512852669,23.8999996185,0.30700626181906354,-0.18031120698996655,0.0573021462528428,23.8999996185,0.06560984495527027,0.4701253247362977,1.0782609625090067
1648294530464626681,15155,14,7,0.725178599358,-0.461484014988,0.479986697435,0.566431701183,23.8999996185,0.24253464861471571,-0.15434247992909697,0.16053066803846153,23.8999996185,0.07654482448418919,0.37612193856247067,0.984499226394228
1648294530464629383,15156,14,8,1.15713429451,-0.183128580451,0.0337945185602,-0.566431701183,23.8999996185,0.3870014362909699,-0.061247016873244145,0.011302514568628762,23.8999996185,-0.07654482448418919,0.5507190031753205,1.1720230040378345
1648294530464630548,15157,14,9,1.20631051064,-1.37126672268,0.0855973735452,-0.242756426334,23.8999996185,0.40344833131772573,-0.4586176330033444,0.02862788412882943,23.8999996185,-0.03280492247756756,0.7320322707283505,1.828355650076845
1648294530659207294,15158,16,0,0.0126351611689,0.0439508594573,0.0103196371347,0.0,19.3999996185,0.0042258064110033446,0.014699284099431437,0.003451383657090301,19.3999996185,0.0,0.015867697775113813,0.04688091568422373
1648294530659211296,15159,16,1,0.0335735455155,0.0146502861753,-0.0292575843632,0.0,19.3999996185,0.011228610540301002,0.0048997612626421405,-0.009785145271973245,19.3999996185,0.0,0.016618394921363674,0.046880913880483405
1648294530659229986,15160,16,2,0.353812217712,-0.5845464468,-0.571432888508,0.0,19.3999996185,0.11833184538862876,-0.19550048387959865,-0.1911146784307692,19.3999996185,0.0,0.25734274900084886,0.8907374360255582
1648294530659325807,15161,16,3,1.51514029503,-1.68478298187,0.600339651108,0.0,19.3999996185,0.506735884625418,-0.5634725691872909,0.20078249200936454,19.3999996185,0.0,0.9116270343516235,2.3440459693262925
1648294530659333805,15162,16,4,2.19871997833,-1.31266570091,0.578709185123,0.0,19.3999996185,0.735357852284281,-0.4390186290668896,0.19354822244916386,19.3999996185,0.0,1.1288222616958226,2.6253314279151017
1648294530659341144,15163,16,5,0.85484790802,-0.640217483044,0.148335233331,0.404594063759,19.3999996185,0.2859023103745819,-0.21411955954648826,0.049610445930100326,19.3999996185,0.05467487348094594,0.4575231665560004,1.0782609669689092
1648294530659564111,15164,16,6,1.13645076752,-0.656332850456,-0.0282478071749,0.566431701183,19.3999996185,0.3800838687357859,-0.21950931453377925,-0.009447427148795986,19.3999996185,0.07654482448418919,0.5806133254700704,1.3126656452405103
