%time,field.header.seq,field.header.frame_id,field.point_id,field.x,field.y,field.z,field.velocity,field.intensity,normalized_x,normalized_y,normalized_z,normalized_intensity,normalized_velocity,normalized_range,range
1648295610966008310,54859,0,0,0.0126656908542,0.0439508594573,0.0102821430191,0.0,17.3999996185,0.004236017008093645,0.014699284099431437,0.0034388438190969895,17.3999996185,0.0,0.015873141882485495,0.046880915487165234
1648295610966013114,54860,0,1,0.0334781743586,0.0146502861753,-0.0293666664511,0.0,17.3999996185,0.011196713832307692,0.0048997612626421405,-0.00982162757561873,17.3999996185,0.0,0.016575296730860337,0.04688091447330322
1648295610966026525,54861,0,2,0.59745824337,0.0703213736415,0.950811803341,0.0,17.3999996185,0.19981881049163877,0.023518854060702338,0.3179972586424749,17.3999996185,0.0,0.28356348592319763,1.1251420059415425
1648295610966038615,54862,0,3,2.24336647987,-1.2306240797,0.587567746639,0.0,17.3999996185,0.7502897925986622,-0.4115799597658863,0.19651095205317726,17.3999996185,0.0,1.138098242260472,2.625331340123037
1648295610966119102,54863,0,4,1.9136377573,-0.120132349432,0.134517386556,0.0809188112617,17.3999996185,0.6400126278595317,-0.040178043288294316,0.04498909249364549,17.3999996185,0.010934974494824324,0.9060058514169779,1.9221176277299166
1648295610966126767,54864,0,5,0.689402699471,0.398487776518,0.0331889465451,0.242756426334,17.3999996185,0.23056946470602005,0.1332735038521739,0.011099982122107022,17.3999996185,0.03280492247756756,0.35225897140978063,0.7969755932554866
1648295610966150128,54865,0,6,0.508694648743,-1.38445210457,-1.5083463192,0.404594063759,17.3999996185,0.17013198954615383,-0.463027459722408,-0.5044636519063544,17.3999996185,0.05467487348094594,0.52180860110854,2.1096413188388814
1648295610966156100,54866,0,7,0.361735999584,1.97778868675,0.638815581799,0.404594063759,17.3999996185,0.12098193966020065,0.6614677882107023,0.21365069625384614,17.3999996185,0.05467487348094594,0.6832370703410694,2.1096412895040997
1648295610966166092,54867,0,8,0.272499918938,0.448298752308,-0.660958170891,0.485512852669,17.3999996185,0.0911370966347826,0.14993269307959864,-0.22105624444515046,17.3999996185,0.06560984495527027,0.1977163453539857,0.8438564337668478
1648295610966182561,54868,0,9,2.40384054184,0.725189208984,0.586564540863,-0.647350490093,17.3999996185,0.8039600474381271,0.24253819698461535,0.19617543172675586,17.3999996185,-0.08747979595851352,1.1625524903203208,2.578450445523103
1648295610966191081,54869,0,10,1.55927860737,-1.93383789062,0.690889179707,-0.647350490093,17.3999996185,0.5214978619966555,-0.6467685252909698,0.23106661528662206,17.3999996185,-0.08747979595851352,0.9809330076214284,2.578450430245955
1648295610966200166,54870,0,11,1.20384395123,0.118667319417,0.372677832842,-0.485512852669,17.3999996185,0.4026233950602007,0.039688066694648826,0.12464141566622074,17.3999996185,-0.06560984495527027,0.5707769609379514,1.2657847205202333
1648295610966213948,54871,0,12,1.3035172224,-0.9508035779,-2.2466480732,-0.485512852669,17.3999996185,0.43595893725752505,-0.3179945076588629,-0.751387315451505,17.3999996185,-0.06560984495527027,0.6937152851499122,2.765973998007596
1648295610966217465,54872,0,13,2.1139087677,0.5186201334,-1.7067617178,-0.485512852669,17.3999996185,0.706992898896321,0.17345154963210702,-0.5708233169899666,17.3999996185,-0.06560984495527027,1.0147725647894836,2.7659740928422254
1648295611065981602,54873,1,0,0.0126655092463,0.0439508594573,0.0102823665366,0.0,19.0,0.004235956269665551,0.014699284099431437,0.0034389185741137123,19.0,0.0,0.01587310946452634,0.04688091544644195
1648295611065990615,54874,1,1,0.0334781743586,0.0146502861753,-0.0293666664511,0.0,19.0,0.011196713832307692,0.0048997612626421405,-0.00982162757561873,19.0,0.0,0.016575296730860337,0.04688091447330322
1648295611066000527,54875,1,2,2.23673725128,-1.2306240797,0.612320363522,0.0,19.0,0.7480726592909699,-0.4115799597658863,0.20478941923812707,19.0,0.0,1.135175524065867,2.6253314808581405
1648295611066010732,54876,1,3,1.91834068298,-0.120132349432,0.008549942635,0.0809188112617,19.0,0.6415855127023411,-0.040178043288294316,0.0028595125869565214,19.0,0.010934974494824324,0.9082280635289398,1.9221175455406694
1648295611066015134,54877,1,4,1.99398744106,-0.32230630517,0.418464809656,0.566431701183,19.0,0.6668854317926421,-0.10779475089297658,0.1399547858381271,19.0,0.07654482448418919,0.9492586931888464,2.062760302695826
1648295611066017438,54878,1,5,0.687845826149,0.234404578805,0.18591555953,-0.566431701183,19.0,0.23004877128729095,0.07839618020234114,0.06217911689966554,19.0,-0.07654482448418919,0.3346503181111629,0.750094648954852
1648295611066022118,54879,1,6,1.18512916565,-2.13601183891,0.664654791355,-0.566431701183,19.0,0.3963642694481605,-0.7143852304046823,0.2222925723595318,19.0,-0.07654482448418919,0.9080503981666981,2.5315694157792916
1648295611066031788,54880,1,7,1.02584385872,-1.18667316437,-1.98703181744,-0.566431701183,19.0,0.3430915915451505,-0.3968806569799331,-0.6645591362675585,19.0,-0.07654482448418919,0.6268476180562482,2.5315695260111575
1648295611066036365,54881,1,8,0.433716475964,0.235869601369,0.958593904972,-0.485512852669,19.0,0.1450556775799331,0.07888615430401337,0.3205999682180602,19.0,-0.06560984495527027,0.21978472316615552,1.078260972595257
1648295611066043754,54882,1,9,1.20194756985,0.114272229373,0.167303174734,-0.161837622523,19.0,0.4019891537959866,0.03821813691404682,0.055954239041471565,19.0,-0.021869948989594594,0.569781699889008,1.218903792491545
1648295611066051245,54883,1,10,1.90088546276,-0.240264698863,-0.15311178565,-0.161837622523,19.0,0.6357476464080267,-0.08035608657625418,-0.051207955066889625,19.0,-0.021869948989594594,0.9026667383240291,1.9221175528455483
1648295611066077672,54884,1,11,0.893950164318,0.480529397726,1.63232374191,-0.161837622523,19.0,0.2989799880662207,0.16071217315250835,0.5459276728795986,19.0,-0.021869948989594594,0.4523344659956356,1.9221176334361423
1648295611165903590,54885,2,0,0.0126656908542,0.0439508594573,0.0102821430191,0.0,20.3999996185,0.004236017008093645,0.014699284099431437,0.0034388438190969895,20.3999996185,0.0,0.015873141882485495,0.046880915487165234
1648295611165910571,54886,2,1,0.033464897424,0.0146502861753,-0.029381794855,0.0,20.3999996185,0.011192273385953177,0.0048997612626421405,-0.009826687242474916,20.3999996185,0.0,0.016569297737765474,0.04688091417110307
1648295611165912911,54887,2,2,0.396493554115,-0.0,1.05296599865,0.0,20.3999996185,0.13260653983779264,-0.0,0.352162541354515,20.3999996185,0.0,0.18753396709797446,1.1251420056009536
1648295611166092303,54888,2,3,0.587488770485,0.0703213736415,0.957003831863,0.0,20.3999996185,0.19648453862374582,0.023518854060702338,0.3200681711916388,20.3999996185,0.0,0.27886463442448406,1.1251419844789676
1648295611166098375,54889,2,4,1.08854532242,0.118667319417,-0.63497877121,0.0,20.3999996185,0.36406198074247487,0.039688066694648826,-0.21236748201003344,20.3999996185,0.0,0.5163888014686484,1.2657846939931923
1648295611166100400,54890,2,5,0.799753367901,0.593336582184,0.78138166666,0.0,20.3999996185,0.2674760427762542,0.19844032848963208,0.261331661090301,20.3999996185,0.0,0.42715972526627816,1.2657847598304943
1648295611166107540,54891,2,6,2.24041748047,-1.2306240797,0.59871417284,0.0,20.3999996185,0.749303505173913,-0.4115799597658863,0.2002388537926421,20.3999996185,0.0,1.1367979367560064,2.6253313644362115
1648295611166195734,54892,2,7,0.247832193971,0.263705164194,-0.430726021528,0.566431701183,20.3999996185,0.08288702139498327,0.0881957070882943,-0.14405552559464882,20.3999996185,0.07654482448418919,0.1466935560284399,0.5625709871761989
1648295611166205809,54893,2,8,0.662617981434,0.153828009963,0.178280517459,-0.485512852669,20.3999996185,0.22161136502809362,0.05144749497090301,0.05962559112341137,20.3999996185,-0.06560984495527027,0.3176004391653308,0.7032137575974281
1648295611166213700,54894,2,9,0.843978345394,-1.82689070702,0.118070833385,-0.485512852669,20.3999996185,0.28226700514849495,-0.6110002364615384,0.03948857303846154,20.3999996185,-0.06560984495527027,0.7298428689430738,2.0158794171741174
1648295611166217171,54895,2,10,0.511038482189,0.128922522068,0.886545956135,-0.323675245047,20.3999996185,0.17091588033076924,0.04311790035719063,0.2965036642591973,20.3999996185,-0.04373989797932432,0.24552724824283004,1.031380181753427
1648295611267936168,54896,3,0,0.0126860151067,0.0439508594573,0.0102570559829,0.0,15.5,0.0042428144169565215,0.014699284099431437,0.003430453505986622,15.5,0.0,0.015876772385761097,0.04688091534685625
1648295611267942896,54897,3,1,0.0335146933794,0.0146502861753,-0.0293249841779,0.0,15.5,0.011208927551638796,0.0048997612626421405,-0.009807687016020066,15.5,0.0,0.016591798400012674,0.04688091567330431
1648295611267954820,54898,3,2,1.3886077404,-1.68478298187,0.853127241135,0.0,15.5,0.4644173044816053,-0.5634725691872909,0.2853268365,15.5,0.0,0.8653717129826041,2.344045913002597
1648295611268058335,54899,3,3,2.01476716995,-0.879017233849,-0.813998103142,0.0,15.5,0.673835173896321,-0.29398569693946486,-0.27224016827491637,15.5,0.0,0.9972638934428304,2.344045852459088
1648295611268211745,54900,3,4,2.24175810814,-1.2306240797,0.593674480915,0.0,15.5,0.749751875632107,-0.4115799597658863,0.19855333809866219,15.5,0.0,1.137389033404408,2.6253312991389484
1648295611268216980,54901,3,5,0.508712530136,-0.064461261034,0.0547040477395,0.161837622523,15.5,0.1701379699451505,-0.021558950178595316,0.018295668140301,15.5,0.021869948989594594,0.24157534221628876,0.5156900477326954
1648295611268218225,54902,3,6,0.681159198284,1.93383789062,-0.226436212659,-0.647350490093,15.5,0.22781244089765884,0.6467685252909698,-0.07573117480234112,15.5,-0.08747979595851352,0.7225694027306682,2.062760334844517
1648295611268219244,54903,3,7,0.615146994591,0.123062409461,0.192931711674,-0.242756426334,15.5,0.20573478079966553,0.041157996475250834,0.06452565607826087,15.5,-0.03280492247756756,0.2938495886252516,0.656332862918006
1648295611268220569,54904,3,8,0.83909958601,-0.0263705141842,0.0854995474219,-0.161837622523,15.5,0.2806353130468227,-0.008819569961270902,0.028595166361839463,15.5,-0.021869948989594594,0.39697624950628735,0.843856440320178
1648295611268233579,54905,3,9,0.495593518019,-0.0,0.142559841275,-0.0809188112617,15.5,0.16575034047458193,-0.0,0.047678876680602,15.5,-0.010934974494824324,0.2344063794671119,0.5156900652977543
1648295611366128411,54906,4,0,0.0126655092463,0.0439508594573,0.0102823665366,0.0,24.3999996185,0.004235956269665551,0.014699284099431437,0.0034389185741137123,24.3999996185,0.0,0.01587310946452634,0.04688091544644195
1648295611366137148,54907,4,1,0.0335146933794,0.0146502861753,-0.0293249841779,0.0,24.3999996185,0.011208927551638796,0.0048997612626421405,-0.009807687016020066,24.3999996185,0.0,0.016591798400012674,0.04688091567330431
1648295611366141949,54908,4,2,1.40094983578,-1.68478298187,0.832704722881,0.0,24.3999996185,0.4685450955785953,-0.5634725691872909,0.2784965628364548,24.3999996185,0.0,0.8698105250041738,2.3440459240123905
1648295611366144928,54909,4,3,2.00017237663,-0.805765748024,-0.919022917747,0.0,24.3999996185,0.6689539721170569,-0.26948687224882945,-0.3073655243301003,24.3999996185,0.0,0.9836777968099276,2.3440458827136017
1648295611366149091,54910,4,4,0.446290254593,-0.096691891551,0.239607900381,0.0809188112617,24.3999996185,0.1492609547133779,-0.032338425267892976,0.08013642153210701,24.3999996185,0.010934974494824324,0.21354961707459277,0.5156900805342162
1648295611366160049,54911,4,5,0.641194880009,1.80198526382,0.1904053092,-0.404594063759,24.3999996185,0.21444644816354516,0.6026706567959866,0.0636807054180602,24.3999996185,-0.05467487348094594,0.6746750913016027,1.9221175684504157
1648295611366184743,54912,4,6,0.634921967983,0.0410208031535,0.161134108901,-0.161837622523,24.3999996185,0.21234848427525083,0.013719332158361203,0.05389100632140468,24.3999996185,-0.021869948989594594,0.30061932343557746,0.6563328521185597
1648295611468033075,54913,5,0,0.0127553893253,0.0439508594573,0.0101706553251,0.0,39.9000015259,0.004266016496755853,0.014699284099431437,0.0034015569649163877,39.9000015259,0.0,0.01588920219951222,0.04688091545199708
1648295611468042720,54914,5,1,0.0335279218853,0.0146502861753,-0.029309855774,0.0,39.9000015259,0.011213351801103678,0.0048997612626421405,-0.009802627349163878,39.9000015259,0.0,0.01659777628664511,0.04688091377583895
1648295611468045680,54915,5,2,1.41972541809,-1.68478298187,0.800273239613,0.0,39.9000015259,0.4748245545451505,-0.5634725691872909,0.26764991291404683,39.9000015259,0.0,0.8765945764288801,2.3440459075731175
1648295611468052451,54916,5,3,1.83072030544,-0.879017233849,-1.17061650753,0.0,39.9000015259,0.6122810386086956,-0.29398569693946486,-0.39151053763545146,39.9000015259,0.0,0.9144417589351816,2.3440458915848064
1648295611468058244,54917,5,4,2.22629618645,-1.2306240797,0.649257004261,0.0,39.9000015259,0.7445806643645484,-0.4115799597658863,0.21714281078963207,39.9000015259,0.0,1.1305745418909774,2.6253314063030695
1648295611468066573,54918,5,5,0.63966947794,-0.0615312047303,0.133453115821,0.0809188112617,39.9000015259,0.21393628024749162,-0.020578998237558526,0.04463314910401338,39.9000015259,0.010934974494824324,0.3032506540483103,0.6563328913637708
1648295611468183301,54919,5,6,0.476513653994,-0.193383783102,0.228086739779,0.242756426334,39.9000015259,0.1593691150481605,-0.06467685053578595,0.07628319056153846,39.9000015259,0.03280492247756756,0.23447840979010423,0.562570982963544
1648295611468187326,54920,5,7,0.483379811049,-0.34281668067,0.142310574651,0.404594063759,39.9000015259,0.16166548864515048,-0.1146544082508361,0.04759550991672241,39.9000015259,0.05467487348094594,0.25576765583063854,0.6094518996055895
1648295611468189702,54921,5,8,2.04283499718,-0.688563466072,0.455730885267,-0.647350490093,39.9000015259,0.6832224070836119,-0.23028878463946487,0.15241835627658862,39.9000015259,-0.08747979595851352,0.9932867860859578,2.2034030753129894
1648295611468191289,54922,5,9,0.814503550529,0.105482056737,0.193781390786,-0.161837622523,39.9000015259,0.2724092142237458,0.035278279845150494,0.06480982969431438,39.9000015259,-0.021869948989594594,0.386856713806068,0.8438564602660641
1648295611663014085,54923,7,0,0.0126773277298,0.0439508594573,0.0102677913383,0.0,15.1000003815,0.004239908939732441,0.014699284099431437,0.003434043925852842,15.1000003815,0.0,0.015875219956594112,0.04688091535338192
1648295611663178830,54924,7,1,0.0335279218853,0.0146502861753,-0.029309855774,0.0,15.1000003815,0.011213351801103678,0.0048997612626421405,-0.009802627349163878,15.1000003815,0.0,0.01659777628664511,0.04688091377583895
1648295611663184217,54925,7,2,0.492392957211,-0.323771327734,0.155412048101,0.242756426334,15.1000003815,0.16467991879966554,-0.10828472499464883,0.05197727361237458,15.1000003815,0.03280492247756756,0.2568356147011072,0.6094518862622205
1648295611663186327,54926,7,3,0.623207092285,-0.307656019926,0.107099317014,0.566431701183,15.1000003815,0.2084304656471572,-0.10289498994180601,0.03581916956989966,15.1000003815,0.07654482448418919,0.3122080988297804,0.7032137443024682
1648295611663188868,54927,7,4,0.303339928389,-0.0659262910485,-0.630989849567,0.566431701183,15.1000003815,0.10145148106655517,-0.022048926772073575,-0.21103339450401337,15.1000003815,0.07654482448418919,0.1451584003528403,0.7032137500525999
1648295611663250957,54928,7,5,1.81522452831,-0.171408340335,0.135881334543,-0.0809188112617,15.1000003815,0.6070985044515049,-0.05732720412541805,0.04544526238896321,15.1000003815,-0.010934974494824324,0.8604787019719577,1.8283557215136905
1648295611768077219,54929,8,0,0.0127668203786,0.0439508594573,0.0101563036442,0.0,15.5,0.004269839591505016,0.014699284099431437,0.003396757071638796,15.5,0.0,0.015891255875800543,0.046880915662217644
1648295611768083043,54930,8,1,0.0335146933794,0.0146502861753,-0.0293249841779,0.0,15.5,0.011208927551638796,0.0048997612626421405,-0.009807687016020066,15.5,0.0,0.016591798400012674,0.04688091567330431
1648295611768085487,54931,8,2,1.46242904663,-1.68478298187,0.719276547432,0.0,15.5,0.4891067045585284,-0.5634725691872909,0.24056071820468225,15.5,0.0,0.8921614613480754,2.344045896332151
1648295611768089057,54932,8,3,0.613314986229,-0.0,-0.886843562126,0.161837622523,15.5,0.2051220689729097,-0.0,-0.2966031980354515,15.5,0.021869948989594594,0.2900864118835183,1.0782609962422878
1648295611768264608,54933,8,4,0.90910243988,-0.404347896576,0.415550559759,0.161837622523,15.5,0.3040476387558528,-0.13523341022608695,0.13898012032073578,15.5,0.021869948989594594,0.4507527132557232,1.0782609773970413
1648295611768268367,54934,8,5,0.517444014549,-0.369187235832,0.16347874701,0.242756426334,15.5,0.17305819884581938,-0.12347399191705685,0.054675166224080265,15.5,0.03280492247756756,0.2741242547740928,0.6563328606871807
1648295611768271421,54935,8,6,0.951149344444,-0.24612480402,0.0630573704839,0.242756426334,15.5,0.31811014864347825,-0.08231598796655518,0.02108942156652174,15.5,0.03280492247756756,0.45734456946033775,0.9844992262884101
1648295611768274186,54936,8,7,0.649363696575,-0.351606875658,0.131686776876,0.404594063759,15.5,0.21717849383779264,-0.11759427279531771,0.04404240029297658,15.5,0.05467487348094594,0.32887901934535724,0.7500946691208505
1648295611768335597,54937,8,8,1.86831474304,-0.117202289402,0.110344134271,-0.0809188112617,15.5,0.6248544291103678,-0.03919809010100334,0.03690439273277592,15.5,-0.010934974494824324,0.8845465535658672,1.8752365673881541
1648295611962920338,54938,10,0,0.0127553893253,0.0439508594573,0.0101706553251,0.0,18.7000007629,0.004266016496755853,0.014699284099431437,0.0034015569649163877,18.7000007629,0.0,0.01588920219951222,0.04688091545199708
1648295611962927304,54939,10,1,0.0335279218853,0.0146502861753,-0.029309855774,0.0,18.7000007629,0.011213351801103678,0.0048997612626421405,-0.009802627349163878,18.7000007629,0.0,0.01659777628664511,0.04688091377583895
1648295611962932057,54940,10,2,0.59745824337,0.0703213736415,0.950811803341,0.0,18.7000007629,0.19981881049163877,0.023518854060702338,0.3179972586424749,18.7000007629,0.0,0.28356348592319763,1.1251420059415425
1648295611962938759,54941,10,3,0.875929772854,-0.483459472656,-0.250517576933,0.161837622523,18.7000007629,0.2929531012889632,-0.16169213132307692,-0.0837851427869565,18.7000007629,0.021869948989594594,0.4447329360879877,1.0313801845223027
1648295611963057245,54942,10,4,0.681739151478,-0.474669247866,0.148372963071,0.404594063759,18.7000007629,0.22800640517658863,-0.15875225681137123,0.049623064572240805,18.7000007629,0.05467487348094594,0.35941079650701224,0.8438564461435878
1648295611963063608,54943,10,5,0.608966469765,-0.307656019926,0.170344337821,-0.647350490093,18.7000007629,0.2036677156404682,-0.10289498994180601,0.05697135044180602,18.7000007629,-0.08747979595851352,0.3058569203786921,0.7032137522278905
1648295611963066972,54944,10,6,1.860465765,-0.234404578805,0.0152954040095,-0.242756426334,18.7000007629,0.6222293528428093,-0.07839618020234114,0.005115519735618729,18.7000007629,-0.03280492247756756,0.883450449175663,1.8752366033878494
1648295611963070716,54945,10,7,1.86989045143,-0.117202289402,-0.0792811438441,-0.0809188112617,18.7000007629,0.6253814218829431,-0.03919809010100334,-0.02651543272377926,18.7000007629,-0.010934974494824324,0.885291102372677,1.875236565545635
1648295612068067076,54946,11,0,0.0126656908542,0.0439508594573,0.0102821430191,0.0,16.7000007629,0.004236017008093645,0.014699284099431437,0.0034388438190969895,16.7000007629,0.0,0.015873141882485495,0.046880915487165234
1648295612068069266,54947,11,1,0.033464897424,0.0146502861753,-0.029381794855,0.0,16.7000007629,0.011192273385953177,0.0048997612626421405,-0.009826687242474916,16.7000007629,0.0,0.016569297737765474,0.04688091417110307
1648295612068071055,54948,11,2,1.8683218956,-0.117202289402,0.110223695636,0.0,16.7000007629,0.624856821270903,-0.03919809010100334,0.03686411225284281,16.7000007629,0.0,0.8845499332683944,1.8752366104838891
1648295612068073161,54949,11,3,0.599607467651,-0.375047326088,0.249904677272,-0.566431701183,16.7000007629,0.20053761459899666,-0.1254338883237458,0.08358015962274247,16.7000007629,-0.07654482448418919,0.31010374083220177,0.750094633890302
1648295612263019419,54950,13,0,0.0127345351502,0.0439508594573,0.0101967547089,0.0,29.6000003815,0.00425904185625418,0.014699284099431437,0.003410285855819398,29.6000003815,0.0,0.015885459644040773,0.04688091551069038
1648295612263026869,54951,13,1,0.0334299989045,0.0146502861753,-0.0294214971364,0.0,29.6000003815,0.011180601640301002,0.0048997612626421405,-0.009839965597458193,29.6000003815,0.0,0.016553530333711035,0.04688091515233305
1648295612263032876,54952,13,2,2.2346765995,-1.2306240797,0.619798243046,0.0,29.6000003815,0.7473834780936455,-0.4115799597658863,0.20729038228963206,29.6000003815,0.0,1.1342672480220868,2.6253314061225232
1648295612263040081,54953,13,3,1.80819916725,-0.228544458747,0.145147129893,0.0809188112617,29.6000003815,0.604748885367893,-0.07643627382842809,0.04854419059966555,29.6000003815,0.010934974494824324,0.858652975691689,1.8283556785767172
1648295612263044171,54954,13,4,0.64084893465,-0.676843225956,0.31691417098,0.161837622523,29.6000003815,0.21433074737458194,-0.22636897189163876,0.10599136153177258,29.6000003815,0.021869948989594594,0.3783097275719609,0.984499213474803
1648295612263238789,54955,13,5,0.932794034481,-0.659262895584,0.262498766184,-0.647350490093,29.6000003815,0.311971248990301,-0.22048926273712371,0.08779222949297658,29.6000003815,-0.08747979595851352,0.49322168988751613,1.1720229854850386
1648295612368167347,54956,14,0,0.0127553893253,0.0439508594573,0.0101706553251,0.0,23.8999996185,0.004266016496755853,0.014699284099431437,0.0034015569649163877,23.8999996185,0.0,0.01588920219951222,0.04688091545199708
1648295612368181327,54957,14,1,0.0335279218853,0.0146502861753,-0.029309855774,0.0,23.8999996185,0.011213351801103678,0.0048997612626421405,-0.009802627349163878,23.8999996185,0.0,0.01659777628664511,0.04688091377583895
1648295612368198672,54958,14,2,0.662369430065,-0.707608819008,0.1726128757,0.0,23.8999996185,0.2215282374799331,-0.23665846789565215,0.0577300587625418,23.8999996185,0.0,0.3926280051507389,0.984499216596922
1648295612368201785,54959,14,3,1.84955000877,-0.175803437829,0.254500240088,0.0809188112617,23.8999996185,0.618578598250836,-0.05879713639765886,0.08511713715317724,23.8999996185,0.010934974494824324,0.8767759506718369,1.8752366399733267
1648295612563072480,54960,16,0,0.0127553893253,0.0439508594573,0.0101706553251,0.0,11.5,0.004266016496755853,0.014699284099431437,0.0034015569649163877,11.5,0.0,0.01588920219951222,0.04688091545199708
1648295612563078125,54961,16,1,0.0334781743586,0.0146502861753,-0.0293666664511,0.0,11.5,0.011196713832307692,0.0048997612626421405,-0.00982162757561873,11.5,0.0,0.016575296730860337,0.04688091447330322
1648295612563233526,54962,16,2,1.86654233932,-0.175803437829,0.0403134599328,0.0,11.5,0.6242616519464883,-0.05879713639765886,0.013482762519331103,11.5,0.0,0.8847950742575831,1.8752366059456143
1648295612563237947,54963,16,3,0.517176985741,-0.805765748024,0.383424788713,0.0809188112617,11.5,0.1729688915521739,-0.26948687224882945,0.12823571528862876,11.5,0.010934974494824324,0.36395006416269843,1.0313801645699958
1648295612563245529,54964,16,4,0.675186157227,-1.57197570801,0.286062777042,0.161837622523,11.5,0.2258147683033445,-0.5257443839498328,0.09567316957926421,11.5,0.021869948989594594,0.6151355756437564,1.7345938677089474
1648295612563298621,54965,16,5,0.386522889137,-0.34281668067,-0.667210996151,0.242756426334,11.5,0.12927186927658862,-0.1146544082508361,-0.223147490351505,11.5,0.03280492247756756,0.2157963523877923,0.8438564651391965
