%time,field.header.seq,field.header.frame_id,field.point_id,field.x,field.y,field.z,field.velocity,field.intensity,normalized_x,normalized_y,normalized_z,normalized_intensity,normalized_velocity,normalized_range,range
1648125576786023437,31068,0,0,0.0126516576856,0.0439508594573,0.0102994060144,0.0,13.1000003815,0.004231323640668896,0.014699284099431437,0.0034446173961204013,13.1000003815,0.0,0.015870638063416508,0.04688091566382207
1648125576786032069,31069,0,1,0.0329044498503,0.0146502861753,-0.0300081074238,0.0,13.1000003815,0.011004832725852842,0.0048997612626421405,-0.0100361563290301,13.1000003815,0.0,0.016316260205049806,0.046880915265461856
1648125576786043874,31070,0,2,1.87457358837,-1.31852579117,0.491950184107,0.0,13.1000003815,0.6269476884180601,-0.44097852547491634,0.16453183414949832,13.1000003815,0.0,0.9902468722270874,2.344045943201149
1648125576786047956,31071,0,3,2.39296770096,-0.984499275684,0.443657368422,0.0,13.1000003815,0.80032364580602,-0.32926397180066885,0.14838039077658863,13.1000003815,0.0,1.178749608355579,2.6253314271183443
1648125576786071370,31072,0,4,0.53775447607,1.02552008629,0.181015238166,-0.0809188112617,13.1000003815,0.17985099534113713,0.342983306451505,0.06054021343344481,13.1000003815,-0.010934974494824324,0.4270015334337834,1.1720229692142825
1648125576786076048,31073,0,5,0.635391056538,1.1485824585,0.0113039426506,-0.0809188112617,13.1000003815,0.21250537007959863,0.38414129046822737,0.0037805828262876253,13.1000003815,-0.010934974494824324,0.4877310690000478,1.3126656991868981
1648125576891167384,31074,1,0,0.00653255125508,0.0454158857465,0.00961994472891,0.0,17.7000007629,0.002184799750862876,0.015189259446989964,0.003217372819033445,17.7000007629,0.0,0.015500332333557073,0.046880915526754295
1648125576891190996,31075,1,1,0.0327667072415,0.0146502861753,-0.030158450827,0.0,17.7000007629,0.010958764963712373,0.0048997612626421405,-0.010086438403678928,17.7000007629,0.0,0.016254129305830818,0.0468809145042301
1648125576891194343,31076,1,2,0.489872068167,-1.53828001022,0.293342620134,0.0,17.7000007629,0.1638368120959866,-0.51447491980602,0.09810789971036787,17.7000007629,0.0,0.5642423637985382,1.6408320833649426
1648125576891197376,31077,1,3,1.87343978882,-1.31852579117,0.496250420809,0.0,17.7000007629,0.6265684912441472,-0.44097852547491634,0.16597004040434782,17.7000007629,0.0,0.9897667444251526,2.3440459433354777
1648125576891203348,31078,1,4,2.39320063591,-0.984499275684,0.442398279905,0.0,17.7000007629,0.8004015504715718,-0.32926397180066885,0.1479592909381271,17.7000007629,0.0,1.1788553970358466,2.625331283020345
1648125576891341563,31079,1,5,0.562490344048,0.988894343376,0.281656473875,-0.161837622523,17.7000007629,0.18812386088561872,0.3307338941056856,0.09419948959030099,17.7000007629,-0.021869948989594594,0.4244597540160128,1.1720229429426654
1648125576891344834,31080,1,6,0.56686937809,1.10756158829,0.232760459185,-0.161837622523,17.7000007629,0.18958842076588628,0.37042193588294314,0.07784630741973243,17.7000007629,-0.021869948989594594,0.4572744790170043,1.265784734870674
1648125577086107238,31081,3,0,0.0126552544534,0.0439508594573,0.0102949859574,0.0,30.3999996185,0.004232526573043478,0.014699284099431437,0.003443139116187291,30.3999996185,0.0,0.015871279577237503,0.0468809156072991
1648125577086133770,31082,3,1,0.0328173004091,0.0146502861753,-0.0301033910364,0.0,30.3999996185,0.010975685755551837,0.0048997612626421405,-0.010068023757993311,30.3999996185,0.0,0.016276947380886118,0.04688091555259676
1648125577086137952,31083,3,2,0.482911109924,-1.53828001022,0.304666042328,0.0,30.3999996185,0.16150873241605349,-0.51447491980602,0.1018949974341137,30.3999996185,0.0,0.5628983783976388,1.6408320838154888
1648125577086153185,31084,3,3,1.87800657749,-1.31852579117,0.478677630424,0.0,30.3999996185,0.6280958453143812,-0.44097852547491634,0.16009285298461537,30.3999996185,0.0,0.9917009840331942,2.344045912721104
1648125577086161354,31085,3,4,2.39379119873,-0.984499275684,0.439192116261,0.0,30.3999996185,0.8005990631204012,-0.32926397180066885,0.1468869954050167,30.3999996185,0.0,1.1791236079667304,2.625331377545575
1648125577086306105,31086,3,5,0.629078447819,0.914177834988,0.185697749257,-0.242756426334,30.3999996185,0.21039412970535115,0.30574509531371236,0.062106270654515044,30.3999996185,-0.03280492247756756,0.42662799127264883,1.125141973962764
1648125577086316918,31087,3,6,0.614312887192,0.988894343376,-0.496909141541,-0.161837622523,30.3999996185,0.20545581511438124,0.3307338941056856,-0.16619034834147156,30.3999996185,-0.021869948989594594,0.44023754115129765,1.2657847529016277
1648125577191209866,31088,4,0,0.00653255125508,0.0454158857465,0.00961994472891,0.0,25.6000003815,0.002184799750862876,0.015189259446989964,0.003217372819033445,25.6000003815,0.0,0.015500332333557073,0.046880915526754295
1648125577191216373,31089,4,1,0.0328052677214,0.0146502861753,-0.0301165021956,0.0,25.6000003815,0.01097166144528428,0.0048997612626421405,-0.010072408761070234,25.6000003815,0.0,0.01627152021695464,0.04688091487789562
1648125577191225557,31090,4,2,0.490701496601,-1.53828001022,0.291953057051,0.0,25.6000003815,0.16411421291003342,-0.51447491980602,0.09764316289331103,25.6000003815,0.0,0.5644035726920678,1.6408320865129158
1648125577191231602,31091,4,3,1.82739496231,-1.39177727699,0.467048794031,0.0,25.6000003815,0.6111688837157191,-0.4654773501638796,0.1562036100438127,25.6000003815,0.0,0.9816944394057773,2.3440458427742996
1648125577191412064,31092,4,4,2.39330601692,-0.984499275684,0.441829144955,0.0,25.6000003815,0.8004367949565216,-0.32926397180066885,0.14776894480100333,25.6000003815,0.0,1.1789032566612447,2.6253315043589183
1648125577191417671,31093,4,5,0.406247079372,0.892202436924,-0.0904255881906,-0.242756426334,25.6000003815,0.1358685884187291,0.2983954638541806,-0.03024267163565217,25.6000003815,-0.03280492247756756,0.35490900169838974,0.9844991949976497
1648125577191421486,31094,4,6,0.546218514442,0.988894343376,0.312043428421,-0.242756426334,25.6000003815,0.18268177740535116,0.3307338941056856,0.10436235064247491,25.6000003815,-0.03280492247756756,0.4196786536175832,1.1720229473440387
1648125577191496672,31095,4,7,0.943522393703,0.97717410326,0.0571237206459,-0.161837622523,25.6000003815,0.3155593289976588,0.3268140813578595,0.019104923292943145,25.6000003815,-0.021869948989594594,0.5531390638968532,1.3595465622631153
1648125577386177645,31096,6,0,0.0126552544534,0.0439508594573,0.0102949859574,0.0,13.6000003815,0.004232526573043478,0.014699284099431437,0.003443139116187291,13.6000003815,0.0,0.015871279577237503,0.0468809156072991
1648125577386201673,31097,6,1,0.0327790863812,0.0146502861753,-0.0301449969411,0.0,13.6000003815,0.010962905144214047,0.0048997612626421405,-0.010081938776287625,13.6000003815,0.0,0.016259712138686776,0.046880915408973045
1648125577386288304,31098,6,2,2.39217352867,-0.984499275684,0.447919309139,0.0,13.6000003815,0.8000580363444815,-0.32926397180066885,0.149805789009699,13.6000003815,0.0,1.1783889367117832,2.6253313548181603
1648125577386290970,31099,6,3,1.12416124344,0.98449921608,0.132629796863,-0.323675245047,13.6000003815,0.37597366001337784,0.3292639518662207,0.044357791592976585,13.6000003815,-0.04373989797932432,0.6254015798239327,1.5001892783014488
1648125577386292132,31100,6,4,0.730046749115,0.915642917156,-0.0476188510656,-0.242756426334,13.6000003815,0.24416279234615382,0.30623508934983273,-0.015926037145685617,13.6000003815,-0.03280492247756756,0.46153100468077124,1.1720229360418408
1648125577386293148,31101,6,5,0.624164700508,0.842391431332,0.251876652241,-0.0809188112617,13.6000003815,0.20875073595585283,0.2817362646595318,0.0842396830237458,13.6000003815,-0.010934974494824324,0.4080797254808503,1.07826098180633
1648125577491164341,31102,7,0,0.00653255125508,0.0454158857465,0.00961994472891,0.0,23.7000007629,0.002184799750862876,0.015189259446989964,0.003217372819033445,23.7000007629,0.0,0.015500332333557073,0.046880915526754295
1648125577491168167,31103,7,1,0.0327667072415,0.0146502861753,-0.030158450827,0.0,23.7000007629,0.010958764963712373,0.0048997612626421405,-0.010086438403678928,23.7000007629,0.0,0.016254129305830818,0.0468809145042301
1648125577491173503,31104,7,2,0.753218114376,0.741304457188,0.213955417275,0.0,23.7000007629,0.25191241283478255,0.24792791210301002,0.07155699574414716,23.7000007629,0.0,0.4340368383907542,1.0782609826253808
1648125577491177636,31105,7,3,2.39158892632,-0.984499275684,0.451030880213,0.0,23.7000007629,0.7998625171638795,-0.32926397180066885,0.15084644823177257,23.7000007629,0.0,1.1781234467802713,2.625331459306517
1648125577491253824,31106,7,4,0.74410378933,0.843856453896,0.0126592097804,-0.323675245047,23.7000007629,0.24886414358862874,0.28222623876120395,0.004233849424882943,23.7000007629,-0.04373989797932432,0.45113010736759673,1.1251419553413964
1648125577491256772,31107,7,5,1.17132866383,0.817485928535,0.26797580719,-0.242756426334,23.7000007629,0.39174871699999997,0.2734066650618729,0.0896240157826087,23.7000007629,-0.03280492247756756,0.6178068622494794,1.453308334560026
1648125577491263408,31108,7,6,0.569514334202,0.799905598164,-0.0710151791573,-0.161837622523,23.7000007629,0.1904730214722408,0.26752695590769227,-0.02375089603923077,23.7000007629,-0.021869948989594594,0.3796453818430638,0.9844992120395005
1648125577686136692,31109,9,0,0.0126552544534,0.0439508594573,0.0102949859574,0.0,22.1000003815,0.004232526573043478,0.014699284099431437,0.003443139116187291,22.1000003815,0.0,0.015871279577237503,0.0468809156072991
1648125577686139110,31110,9,1,0.0327422693372,0.0146502861753,-0.0301849804819,0.0,22.1000003815,0.010950591751571906,0.0048997612626421405,-0.010095311197959865,22.1000003815,0.0,0.016243108687996822,0.046880914379527815
1648125577686141519,31111,9,2,2.39181280136,-0.984499275684,0.449842721224,0.0,22.1000003815,0.7999373917591972,-0.32926397180066885,0.15044907064347823,22.1000003815,0.0,1.1782251162638515,2.625331555139294
1648125577686147666,31112,9,3,0.777138590813,0.707608819008,0.240815639496,-0.0809188112617,22.1000003815,0.25991257217826086,0.23665846789565215,0.08054034765752507,22.1000003815,-0.010934974494824324,0.4371685267483888,1.0782610084272635
1648125577791177676,31113,10,0,0.00656197406352,0.0454158857465,0.00959989894181,0.0,37.9000015259,0.002194640155023411,0.015189259446989964,0.0032106685424113713,37.9000015259,0.0,0.015503112376811833,0.04688091553545446
1648125577791185949,31114,10,1,0.0327790863812,0.0146502861753,-0.0301449969411,0.0,37.9000015259,0.010962905144214047,0.0048997612626421405,-0.010081938776287625,37.9000015259,0.0,0.016259712138686776,0.046880915408973045
1648125577791193755,31115,10,2,2.3910908699,-0.984499275684,0.453663527966,0.0,37.9000015259,0.7996959431103678,-0.32926397180066885,0.15172693243010033,37.9000015259,0.0,1.1778972646119494,2.6253314016611347
1648125577791203993,31116,10,3,1.486312747,0.167013257742,2.21442961693,-0.242756426334,37.9000015259,0.49709456421404674,0.05585727683678929,0.7406119120167224,37.9000015259,-0.03280492247756756,0.705213476131822,2.672212105820387
1648125577791206998,31117,10,4,0.651616275311,0.673913180828,0.0191142689437,-0.0809188112617,37.9000015259,0.21793186465250833,0.2253890236882943,0.00639273208819398,37.9000015259,-0.010934974494824324,0.3818230051489838,0.937618312972366
1648125577791277969,31118,10,5,0.769812762737,0.707608819008,0.263296037912,-0.0809188112617,37.9000015259,0.25746246245384613,0.23665846789565215,0.08805887555585284,37.9000015259,-0.010934974494824324,0.43425921932909345,1.0782609767541558
1648125577986103734,31119,12,0,0.00650562345982,0.0454158857465,0.00963817536831,0.0,32.4000015259,0.002175793799270903,0.015189259446989964,0.0032234700228461533,32.4000015259,0.0,0.015497798548886397,0.04688091551122268
1648125577986109307,31120,12,1,0.032754637301,0.0146502861753,-0.0301715619862,0.0,32.4000015259,0.010954728194314381,0.0048997612626421405,-0.010090823406755852,32.4000015259,0.0,0.016248686102374597,0.046880916185857074
1648125577986111467,31121,12,2,0.973469614983,0.622637212276,0.195748999715,0.0,32.4000015259,0.32557512206789296,0.20823987032642138,0.0654678928812709,32.4000015259,0.0,0.5053337152937765,1.172022977716479
1648125577986282780,31122,12,3,2.39091062546,-0.984499275684,0.454613149166,0.0,32.4000015259,0.7996356606889632,-0.32926397180066885,0.15204453149364547,32.4000015259,0.0,1.1778154111816084,2.625331513952948
1648125577986287303,31123,12,4,0.652200579643,0.94347846508,0.6384152174,-0.242756426334,32.4000015259,0.21812728416153845,0.31554463715050163,0.21351679511705682,32.4000015259,-0.03280492247756756,0.44127932449392965,1.3126656847667906
1648125577986292407,31124,12,5,0.802538573742,0.64461261034,0.064432002604,-0.0809188112617,32.4000015259,0.2684075497464883,0.21558950178595315,0.021549164750501674,32.4000015259,-0.010934974494824324,0.4365364346788738,1.031380173705484
1648125578090333176,31125,13,0,0.0126552544534,0.0439508594573,0.0102949859574,0.0,31.3999996185,0.004232526573043478,0.014699284099431437,0.003443139116187291,31.3999996185,0.0,0.015871279577237503,0.0468809156072991
1648125578090343040,31126,13,1,0.0327790863812,0.0146502861753,-0.0301449969411,0.0,31.3999996185,0.010962905144214047,0.0048997612626421405,-0.010081938776287625,31.3999996185,0.0,0.016259712138686776,0.046880915408973045
1648125578090347743,31127,13,2,2.3906929493,-0.984499275684,0.455755740404,0.0,31.3999996185,0.7995628592976588,-0.32926397180066885,0.15242666903143812,31.3999996185,0.0,1.1777165597300765,2.625331387952053
1648125578090424602,31128,13,3,0.64668482542,0.612381994724,0.0141497841105,-0.242756426334,31.3999996185,0.2162825503076923,0.20481003168026754,0.004732369267725752,31.3999996185,-0.03280492247756756,0.3681079083802345,0.8907374401477771
1648125578090433179,31129,13,4,0.780802190304,0.64461261034,0.196386098862,-0.242756426334,31.3999996185,0.2611378562889632,0.21558950178595315,0.06568096951906355,31.3999996185,-0.03280492247756756,0.42762693233086463,1.0313801324531648
1648125578090436751,31130,13,5,1.87411046028,-1.31852579117,0.493711233139,-0.242756426334,31.3999996185,0.6267927960802675,-0.44097852547491634,0.16512081375886287,31.3999996185,-0.03280492247756756,0.9900507453490811,2.34404587434611
1648125578090454136,31131,13,6,1.00722420216,0.586011469364,0.125410780311,-0.0809188112617,31.3999996185,0.33686428165886284,0.19599045798127088,0.04194340478628762,31.3999996185,-0.010934974494824324,0.5151381835340801,1.1720229944251164
1648125578190290608,31132,14,0,0.0126552544534,0.0439508594573,0.0102949859574,0.0,15.3999996185,0.004232526573043478,0.014699284099431437,0.003443139116187291,15.3999996185,0.0,0.015871279577237503,0.0468809156072991
1648125578190297347,31133,14,1,0.032854527235,0.0146502861753,-0.0300627574325,0.0,15.3999996185,0.010988136198996655,0.0048997612626421405,-0.010054433923913043,15.3999996185,0.0,0.016293739125390765,0.04688091540593973
1648125578190303195,31134,14,2,0.486845046282,-1.53828001022,0.29833945632,0.0,15.3999996185,0.16282443019464882,-0.51447491980602,0.09977908238127088,15.3999996185,0.0,0.5636559529055245,1.64083208163696
1648125578190312038,31135,14,3,1.83673501015,-1.39177727699,0.428848832846,0.0,15.3999996185,0.614292645535117,-0.4654773501638796,0.14342770329297658,15.3999996185,0.0,0.9855861566766513,2.344045820305097
1648125578190318489,31136,14,4,2.39050912857,-0.984499275684,0.456719785929,0.0,15.3999996185,0.7995013807926421,-0.32926397180066885,0.15274909228394648,15.3999996185,0.0,1.1776330833093278,2.6253315372458874
1648125578190337090,31137,14,5,0.642187416553,0.612381994724,0.0774390548468,-0.323675245047,15.3999996185,0.21477840018494984,0.20481003168026754,0.025899349447090297,15.3999996185,-0.04373989797932432,0.3663422872791034,0.89073744316534
1648125578190367249,31138,14,6,0.828469991684,0.572826147079,0.384908467531,-0.323675245047,15.3999996185,0.2770802647772575,0.19158065119698997,0.12873192894013377,15.3999996185,-0.04373989797932432,0.43617667540932653,1.0782610306763953
1648125578190370125,31139,14,7,1.69693112373,-1.43572807312,0.57972073555,-0.323675245047,15.3999996185,0.5675354928862876,-0.480176613083612,0.19388653362876254,15.3999996185,-0.04373989797932432,0.9352874697780419,2.2971648765064865
1648125578190372173,31140,14,8,0.717086851597,0.580151319504,0.461471438408,-0.242756426334,15.3999996185,0.23982837846053512,0.19403054164013378,0.15433827371505016,15.3999996185,-0.03280492247756756,0.39074691722287846,1.031380140744371
1648125578190599365,31141,14,9,1.03464007378,0.549385726452,0.0365114472806,-0.0809188112617,15.3999996185,0.3460334694916387,0.1837410456361204,0.01221118638147157,15.3999996185,-0.010934974494824324,0.522722771522627,1.172022970970791
1648125578290324590,31142,15,0,0.00653255125508,0.0454158857465,0.00961994472891,0.0,14.6999998093,0.002184799750862876,0.015189259446989964,0.003217372819033445,14.6999998093,0.0,0.015500332333557073,0.046880915526754295
1648125578290347508,31143,15,1,0.0327422693372,0.0146502861753,-0.0301849804819,0.0,14.6999998093,0.010950591751571906,0.0048997612626421405,-0.010095311197959865,14.6999998093,0.0,0.016243108687996822,0.046880914379527815
1648125578290355631,31144,15,2,0.489401996136,-1.53828001022,0.294126182795,0.0,14.6999998093,0.16367959736989965,-0.51447491980602,0.09836996080100334,14.6999998093,0.0,0.5641511005925236,1.6408320800953102
1648125578290363895,31145,15,3,1.87672221661,-1.31852579117,0.483688741922,0.0,14.6999998093,0.627666293180602,-0.44097852547491634,0.16176881000735785,14.6999998093,0.0,0.9911569053990322,2.3440459337137813
1648125578290369600,31146,15,4,2.390822649,-0.984499275684,0.455075562,0.0,14.6999998093,0.7996062371237458,-0.32926397180066885,0.1521991846153846,14.6999998093,0.0,1.1777754590839222,2.6253315085762625
1648125578290374308,31147,15,5,1.59340286255,-1.54707026482,0.36251732707,-0.485512852669,14.6999998093,0.5329106563712375,-0.5174148042876254,0.1212432532006689,14.6999998093,-0.06560984495527027,0.9141693579660435,2.250283959659033
1648125578290450500,31148,15,6,0.783002436161,0.584546387196,0.120213925838,-0.404594063759,14.6999998093,0.26187372446856183,0.1955004639451505,0.04020532636722408,14.6999998093,-0.05467487348094594,0.4187793291661392,0.9844992035463213
1648125578290523176,31149,15,7,0.568570792675,0.547920703888,-0.108074896038,-0.323675245047,14.6999998093,0.19015745574414714,0.18325107153444814,-0.036145450179933106,14.6999998093,-0.04373989797932432,0.325423833129502,0.7969755499297476
1648125578290530103,31150,15,8,1.43280172348,0.879017174244,-2.25534057617,-0.242756426334,14.6999998093,0.47919790082943137,0.29398567700468226,-0.7542945070802676,14.6999998093,-0.03280492247756756,0.7387075433502547,2.812854970655614
1648125578290537969,31151,15,9,1.52849972248,-0.439508587122,-2.32005906105,-0.242756426334,14.6999998093,0.5112039205618729,-0.14699283850234113,-0.7759394853010032,14.6999998093,-0.03280492247756756,0.7377437165890569,2.812854999201989
1648125578391238218,31152,16,0,0.0126552544534,0.0439508594573,0.0102949859574,0.0,15.5,0.004232526573043478,0.014699284099431437,0.003443139116187291,15.5,0.0,0.015871279577237503,0.0468809156072991
1648125578391242566,31153,16,1,0.0327790863812,0.0146502861753,-0.0301449969411,0.0,15.5,0.010962905144214047,0.0048997612626421405,-0.010081938776287625,15.5,0.0,0.016259712138686776,0.046880915408973045
1648125578391247310,31154,16,2,0.475682467222,-1.53828001022,0.315833359957,0.0,15.5,0.15909112616120402,-0.51447491980602,0.10562988627324414,15.5,0.0,0.5615197378150575,1.640832078771798
1648125578391254563,31155,16,3,2.39097905159,-0.984499275684,0.454251974821,0.0,15.5,0.7996585456822742,-0.32926397180066885,0.15192373739832774,15.5,0.0,1.1778464851122712,2.6253313134904164
1648125578391257208,31156,16,4,0.938513100147,1.12514197826,0.322205781937,0.161837622523,15.5,0.3138839799822742,0.37630166496989964,0.1077611310826087,15.5,0.021869948989594594,0.5819357772453452,1.5001892801590047
1648125578391267216,31157,16,5,0.628581464291,0.473204225302,0.127016320825,-0.485512852669,15.5,0.21022791447859532,0.158262282709699,0.04248037485785953,15.5,-0.06560984495527027,0.3368063274057123,0.796975559129515
1648125578391361253,31158,16,6,1.46746325493,-1.51483952999,0.637806892395,-0.485512852669,15.5,0.490790386264214,-0.5066352943110367,0.21331334193812707,15.5,-0.06560984495527027,0.8593193399082693,2.2034030131087325
1648125578391368104,31159,16,7,0.783018231392,0.46880915761,0.215008199215,-0.404594063759,15.5,0.261879007154515,0.15679236040468228,0.07190909672742475,15.5,-0.05467487348094594,0.4021754257258154,0.9376183139641262
1648125578391456772,31160,16,8,1.01860892773,0.421928226948,0.224403634667,-0.242756426334,15.5,0.34067188218394645,0.14111311938060198,0.07505138283177257,15.5,-0.03280492247756756,0.5020234806090542,1.1251420210793406
1648125578391461152,31161,16,9,1.14238655567,0.703213751316,-2.47236657143,-0.242756426334,15.5,0.3820690821638795,0.23518854559063543,-0.8268784519832775,15.5,-0.03280492247756756,0.5892938308417432,2.8128549706908137
1648125578391475287,31162,16,10,1.93580543995,-0.439508587122,-1.99289810658,-0.242756426334,15.5,0.6474265685451505,-0.14699283850234113,-0.6665211058795986,15.5,-0.03280492247756756,0.9273236856067423,2.8128550198515634
1648125578490451655,31163,17,0,0.0126621415839,0.0439508594573,0.010286513716,0.0,18.5,0.004234829961170568,0.014699284099431437,0.003440305590635451,18.5,0.0,0.015872508391424896,0.04688091553026159
1648125578490457752,31164,17,1,0.032754637301,0.0146502861753,-0.0301715619862,0.0,18.5,0.010954728194314381,0.0048997612626421405,-0.010090823406755852,18.5,0.0,0.016248686102374597,0.046880916185857074
1648125578490460328,31165,17,2,0.461275666952,-1.53828001022,0.336525350809,0.0,18.5,0.15427279831170568,-0.51447491980602,0.112550284551505,18.5,0.0,0.5588243334960094,1.6408320884543843
1648125578490546761,31166,17,3,2.39054918289,-0.984499275684,0.456510007381,0.0,18.5,0.7995147768862876,-0.32926397180066885,0.15267893223444814,18.5,0.0,1.17765127268008,2.6253315231561456
1648125578490550034,31167,17,4,0.669195532799,0.328166425228,0.0844166055322,-0.485512852669,18.5,0.22381121498294312,0.10975465726688963,0.028232978438862872,18.5,-0.06560984495527027,0.33500597710496866,0.7500946787270532
1648125578490555478,31168,17,5,1.46172654629,-1.55000019073,0.333829492331,-0.404594063759,18.5,0.4888717546120401,-0.518394712618729,0.11164865964247492,18.5,-0.05467487348094594,0.864132086538837,2.1565220187472933
1648125578490585123,31169,17,6,0.845207393169,0.380907446146,0.140221640468,-0.242756426334,18.5,0.2826780579160535,0.12739379469765885,0.04689686972173913,18.5,-0.03280492247756756,0.4195747225249069,0.9376183277072507
1648125578490592025,31170,17,7,1.0428674221,0.351606875658,0.233975887299,-0.242756426334,18.5,0.3487850910033445,0.11759427279531771,0.0782528051167224,18.5,-0.03280492247756756,0.5070803608962609,1.1251420225575233
1648125578590262234,31171,18,0,0.00656197406352,0.0454158857465,0.00959989894181,0.0,11.8000001907,0.002194640155023411,0.015189259446989964,0.0032106685424113713,11.8000001907,0.0,0.015503112376811833,0.04688091553545446
1648125578590268587,31172,18,1,0.0327667072415,0.0146502861753,-0.030158450827,0.0,11.8000001907,0.010958764963712373,0.0048997612626421405,-0.010086438403678928,11.8000001907,0.0,0.016254129305830818,0.0468809145042301
1648125578590279251,31173,18,2,0.469227343798,-1.53828001022,0.325346291065,0.0,11.8000001907,0.15693222200602006,-0.51447491980602,0.10881146858361204,11.8000001907,0.0,0.5603033889928779,1.640832075234977
1648125578590284057,31174,18,3,2.42071986198,-0.902457654476,0.46695831418,0.0,11.8000001907,0.8096053050100334,-0.30182530250033446,0.15617334922408024,11.8000001907,0.0,1.184069260233622,2.625331319184042
1648125578590340400,31175,18,4,1.39081954956,-1.4489133358,0.173323258758,-0.647350490093,11.8000001907,0.46515703998662206,-0.4845863999331103,0.05796764506956521,11.8000001907,-0.08747979595851352,0.8170471973505351,2.015879417555489
1648125578590343882,31176,18,5,0.655229747295,0.241729721427,0.0821600109339,-0.323675245047,11.8000001907,0.21914038371070235,0.08084606067792642,0.02747826452638796,11.8000001907,-0.04373989797932432,0.32028284542398877,0.7032137280785289
1648125578590352605,31177,18,6,1.32233512402,-1.55000019073,0.706764578819,-0.323675245047,11.8000001907,0.4422525498394649,-0.518394712618729,0.23637611331739128,11.8000001907,-0.04373989797932432,0.8123470402174624,2.15652195475799
1648125578590363206,31178,18,7,2.1049861908,0.404347896576,0.236902192235,-0.323675245047,11.8000001907,0.704008759464883,0.13523341022608695,0.07923150241973244,11.8000001907,-0.04373989797932432,1.0047610372859528,2.156521906591695
1648125578590365908,31179,18,8,0.798900187016,0.389697611332,0.0575101710856,-0.242756426334,11.8000001907,0.2671906979986622,0.13033364927491636,0.019234170931638796,11.8000001907,-0.03280492247756756,0.39971064325001593,0.8907374230772844
1648125578590412860,31180,18,9,1.59032833576,0.5186201334,-2.20283937454,-0.161837622523,11.8000001907,0.531882386541806,0.17345154963210702,-0.7367355767692306,11.8000001907,-0.021869948989594594,0.7719347033892139,2.7659740360879717
1648125578590418311,31181,18,10,1.44187664986,-0.6914935112,-2.25686526299,-0.161837622523,11.8000001907,0.482232993264214,-0.23126873284280935,-0.7548044357826086,11.8000001907,-0.021869948989594594,0.7201267571586585,2.765974035441064
1648125578690284261,31182,19,0,0.00656197406352,0.0454158857465,0.00959989894181,0.0,19.7000007629,0.002194640155023411,0.015189259446989964,0.0032106685424113713,19.7000007629,0.0,0.015503112376811833,0.04688091553545446
1648125578690293237,31183,19,1,0.0327790863812,0.0146502861753,-0.0301449969411,0.0,19.7000007629,0.010962905144214047,0.0048997612626421405,-0.010081938776287625,19.7000007629,0.0,0.016259712138686776,0.046880915408973045
1648125578690306086,31184,19,2,0.459965437651,-1.53828001022,0.33831396699,0.0,19.7000007629,0.15383459453210702,-0.51447491980602,0.11314848394314381,19.7000007629,0.0,0.5585826779082271,1.6408320858443834
1648125578690318729,31185,19,3,1.87210428715,-1.31852579117,0.501264750957,0.0,19.7000007629,0.6261218351672241,-0.44097852547491634,0.16764707389866218,19.7000007629,0.0,0.9892012762205559,2.3440458772169683
1648125578690328711,31186,19,4,2.4201529026,-0.902457654476,0.469888925552,0.0,19.7000007629,0.8094156864882942,-0.30182530250033446,0.15715348680668895,19.7000007629,0.0,1.1838099595357574,2.625331501437855
1648125578690340058,31187,19,5,1.0351241827,-1.66134238243,0.213106334209,-0.404594063759,19.7000007629,0.3461953788294314,-0.5556329038227424,0.07127302147458194,19.7000007629,-0.05467487348094594,0.7405608715400781,1.9689984497069897
1648125578690344844,31188,19,6,1.94805431366,0.24612480402,0.146498933434,-0.404594063759,19.7000007629,0.6515231818260869,0.08231598796655518,0.048996298807357855,19.7000007629,-0.05467487348094594,0.9250626112801699,1.9689984676531662
1648125578690362835,31189,19,7,1.46152889729,-1.51630473137,0.123852722347,-0.242756426334,19.7000007629,0.4888056512675585,-0.5071253282173913,0.04142231516622073,19.7000007629,-0.03280492247756756,0.857343588033293,2.1096412616417832
1648125578690435256,31190,19,8,0.672349870205,0.175803437829,0.107463158667,-0.161837622523,19.7000007629,0.22486617732608696,0.05879713639765886,0.03594085574147157,19.7000007629,-0.021869948989594594,0.32339866830130776,0.7032137137370575
1648125578690445102,31191,19,9,0.819807708263,0.334026515484,0.0987663120031,-0.0809188112617,19.7000007629,0.2741831800210702,0.11171455367357858,0.033032211372274245,19.7000007629,-0.010934974494824324,0.403525679375452,0.8907374337932075
1648125578791215656,31192,20,0,0.00656197406352,0.0454158857465,0.00959989894181,0.0,23.7000007629,0.002194640155023411,0.015189259446989964,0.0032106685424113713,23.7000007629,0.0,0.015503112376811833,0.04688091553545446
1648125578791224832,31193,20,1,0.0327790863812,0.0146502861753,-0.0301449969411,0.0,23.7000007629,0.010962905144214047,0.0048997612626421405,-0.010081938776287625,23.7000007629,0.0,0.016259712138686776,0.046880915408973045
1648125578791227678,31194,20,2,0.657283604145,0.131852582097,0.21237410605,0.0,23.7000007629,0.21982729235618728,0.04409785354414715,0.07102812911371237,23.7000007629,0.0,0.31399474138352435,0.7032137659375162
1648125578791232762,31195,20,3,0.469926387072,-1.53828001022,0.324335813522,0.0,23.7000007629,0.15716601574314382,-0.51447491980602,0.10847351622809365,23.7000007629,0.0,0.5604344351648629,1.6408320813056905
1648125578791237851,31196,20,4,2.41507673264,-0.902457654476,0.495317906141,0.0,23.7000007629,0.8077179707826085,-0.30182530250033446,0.1656581625889632,23.7000007629,0.0,1.1814885331139562,2.625331459226687
1648125578791253818,31197,20,5,1.13462042809,0.219754308462,-0.194890543818,-0.242756426334,23.7000007629,0.37947171508026756,0.0734964242347826,-0.06518078388561872,23.7000007629,-0.03280492247756756,0.5416634466781183,1.1720229502857111
1648125578791256143,31198,20,6,0.812406778336,-1.74191904068,0.0157887265086,-0.161837622523,23.7000007629,0.27170795262073577,-0.5825816189565217,0.00528051053799331,23.7000007629,-0.021869948989594594,0.6978909411797132,1.9221175826818124
1648125578791356272,31199,20,7,2.06685996056,0.395557761192,0.149031445384,-0.161837622523,23.7000007629,0.6912575118929766,0.1322935656160535,0.049843292770568565,23.7000007629,-0.021869948989594594,0.9864965701918817,2.109641299064501
1648125578791357849,31200,20,8,1.4003688097,-1.51630473137,0.436318039894,-0.161837622523,23.7000007629,0.46835077247491635,-0.5071253282173913,0.1459257658508361,23.7000007629,-0.021869948989594594,0.8341948157806416,2.109641266540969
1648125578791360970,31201,20,9,0.75012499094,0.34281668067,0.178557872772,-0.0809188112617,23.7000007629,0.2508779233913043,0.1146544082508361,0.059718352097658856,23.7000007629,-0.010934974494824324,0.3728606954636218,0.8438564406978201
1648125578986266082,31202,22,0,0.00650562345982,0.0454158857465,0.00963817536831,0.0,25.5,0.002175793799270903,0.015189259446989964,0.0032234700228461533,25.5,0.0,0.015497798548886397,0.04688091551122268
1648125578986272844,31203,22,1,0.0327667072415,0.0146502861753,-0.030158450827,0.0,25.5,0.010958764963712373,0.0048997612626421405,-0.010086438403678928,25.5,0.0,0.016254129305830818,0.0468809145042301
1648125578986417076,31204,22,2,0.772275984287,0.316446185112,0.124680802226,0.0,25.5,0.2582862823702341,0.10583484451906354,0.04169926495852842,25.5,0.0,0.38029543993538356,0.8438564370923005
1648125578986421146,31205,22,3,0.30333173275,-1.58955609798,0.271350651979,0.0,25.5,0.10144874005016723,-0.5316241130367892,0.09075272641438126,25.5,0.0,0.5506431614736405,1.640832077041386
1648125578986423695,31206,22,4,2.39031243324,-0.984499275684,0.457747399807,0.0,25.5,0.7994355964013378,-0.32926397180066885,0.15309277585518394,25.5,0.0,1.1775437608484352,2.625331414194048
1648125578986425282,31207,22,5,0.669266879559,0.131852582097,0.170898631215,0.0809188112617,25.5,0.22383507677558526,0.04409785354414715,0.05715673284782609,25.5,0.010934974494824324,0.3196074214993534,0.7032137666680366
1648125578986426803,31208,22,6,0.668464422226,-1.80198526382,0.023245671764,0.161837622523,25.5,0.2235666963966555,-0.6026706567959866,0.007774472161872909,25.5,0.021869948989594594,0.6805703902156885,1.9221175656192664
1648125578986428693,31209,22,7,0.634756684303,-1.86937654018,0.597909271717,-0.161837622523,25.5,0.21229320545250835,-0.6252095452107023,0.19996965609264214,25.5,-0.021869948989594594,0.6935587830783885,2.0627603337391958
1648125578986526627,31210,22,8,0.694260716438,-1.08705127239,-2.12367582321,-0.161837622523,25.5,0.2321942195444816,-0.363562298458194,-0.710259472645485,25.5,-0.021869948989594594,0.48990392531592025,2.4846885948304256
1648125579090306267,31211,23,0,0.00650562345982,0.0454158857465,0.00963817536831,0.0,11.5,0.002175793799270903,0.015189259446989964,0.0032234700228461533,11.5,0.0,0.015497798548886397,0.04688091551122268
1648125579090329633,31212,23,1,0.0327667072415,0.0146502861753,-0.030158450827,0.0,11.5,0.010958764963712373,0.0048997612626421405,-0.010086438403678928,11.5,0.0,0.016254129305830818,0.0468809145042301
1648125579090333376,31213,23,2,0.485549747944,-1.53828001022,0.300442963839,0.0,11.5,0.16239122004816053,-0.51447491980602,0.10048259660167223,11.5,0.0,0.5634059458391177,1.640832082234891
1648125579090339631,31214,23,3,2.37453436852,-0.984499275684,0.533585071564,0.0,11.5,0.7941586516789297,-0.32926397180066885,0.1784565456735786,11.5,0.0,1.1703805753680907,2.6253314685389646
1648125579090348850,31215,23,4,0.660158276558,0.131852582097,0.203262209892,0.0809188112617,11.5,0.22078872125685617,0.04409785354414715,0.06798067220468226,11.5,0.010934974494824324,0.3153409893364269,0.7032137509206247
1648125579090375850,31216,23,5,0.840370893478,0.278355449438,0.098530292511,0.0809188112617,11.5,0.2810604994909699,0.09309546803946488,0.03295327508729097,11.5,0.010934974494824324,0.40823617541530294,0.89073745479751
1648125579090378831,31217,23,6,0.667781710625,-1.82689070702,0.529440939426,-0.161837622523,11.5,0.22333836475752508,-0.6110002364615384,0.17707054830301003,11.5,-0.021869948989594594,0.6878090863758537,2.015879405317087
1648125579090413920,31218,23,7,0.874552190304,-1.07093596458,-1.46697795391,-0.161837622523,11.5,0.2924923713391304,-0.3581725634046823,-0.4906280782307692,11.5,-0.021869948989594594,0.5471664826714596,2.015879384054113
1648125579190184382,31219,24,0,0.0126418694854,0.0439508594573,0.0103114163503,0.0,36.2999992371,0.004228049995117057,0.014699284099431437,0.0034486342308695647,36.2999992371,0.0,0.01586889304766456,0.04688091528831811
1648125579190189698,31220,24,1,0.0327790863812,0.0146502861753,-0.0301449969411,0.0,36.2999992371,0.010962905144214047,0.0048997612626421405,-0.010081938776287625,36.2999992371,0.0,0.016259712138686776,0.046880915408973045
1648125579190196912,31221,24,2,0.673806488514,0.10987714678,0.168586552143,0.0,36.2999992371,0.2253533406401338,0.03674820962541806,0.056383462255183946,36.2999992371,0.0,0.32080942502677506,0.7032137633120852
1648125579190200311,31222,24,3,0.276404887438,-1.58955609798,0.298733413219,0.0,36.2999992371,0.09244310616655518,-0.5316241130367892,0.09991084054147156,36.2999992371,0.0,0.5474629241488367,1.6408320762949788
1648125579190206909,31223,24,4,2.39980649948,-0.984499275684,0.405036687851,0.0,36.2999992371,0.8026108693913042,-0.32926397180066885,0.13546377520100333,36.2999992371,0.0,1.1818558196565612,2.6253313652326025
1648125579190212850,31224,24,5,0.767930388451,0.306190997362,0.331576764584,0.242756426334,36.2999992371,0.25683290583645485,0.10240501584013377,0.11089523899130434,36.2999992371,0.03280492247756756,0.37737656301102296,0.8907374243760242
1648125579190218364,31225,24,6,0.64453625679,0.351606875658,-1.72553122044,-0.647350490093,36.2999992371,0.21556396548160534,0.11759427279531771,-0.5771007426220736,36.2999992371,-0.08747979595851352,0.32674769994992936,1.875236618147161
1648125579190226368,31226,24,7,1.5440223217,1.05482065678,0.1409278512,-0.647350490093,36.2999992371,0.5163954253177258,0.352782828354515,0.04713306060200669,36.2999992371,-0.08747979595851352,0.8110389599519624,1.8752365736411762
1648125579190233636,31227,24,8,0.388119131327,-1.88988697529,0.584346354008,-0.0809188112617,36.2999992371,0.12980572954080266,-0.6320692225050167,0.1954335632133779,36.2999992371,-0.010934974494824324,0.658187326588211,2.0158794361060517
1648125579190247323,31228,24,9,0.958572745323,-1.13393211365,-1.3634904623,-0.0809188112617,36.2999992371,0.32059289141237457,-0.37924150958193975,-0.4560168770234113,36.2999992371,-0.010934974494824324,0.5910869027801933,2.0158794575137415
1648125579291234831,31229,25,0,0.0127415880561,0.0439508594573,0.010187940672,0.0,18.7000007629,0.004261400687658862,0.014699284099431437,0.0034073380173913043,18.7000007629,0.0,0.015886724793907545,0.04688091560926342
1648125579291246311,31230,25,1,0.032754637301,0.0146502861753,-0.0301715619862,0.0,18.7000007629,0.010954728194314381,0.0048997612626421405,-0.010090823406755852,18.7000007629,0.0,0.016248686102374597,0.046880916185857074
1648125579291254786,31231,25,2,0.690088629723,0.0879017189145,-0.102764718235,0.0,18.7000007629,0.23079887281705683,0.02939856819882943,-0.034369470981605345,18.7000007629,0.0,0.32772017819992283,0.7032137771510243
1648125579291285441,31232,25,3,0.276362150908,-1.58955609798,0.298772931099,0.0,18.7000007629,0.09242881301270901,-0.5316241130367892,0.09992405722374581,18.7000007629,0.0,0.5474580974942552,1.6408320728939287
1648125579291313844,31233,25,4,2.4223241806,-0.902457654476,0.458563327789,0.0,18.7000007629,0.8101418664214046,-0.30182530250033446,0.15336566146789296,18.7000007629,0.0,1.1848030218930623,2.6253313275917587
1648125579291317796,31234,25,5,0.662927210331,0.10987714678,0.207277879119,0.161837622523,18.7000007629,0.2217147860638796,0.03674820962541806,0.0693237053909699,18.7000007629,0.021869948989594594,0.3156981527177146,0.7032137603558581
1648125579291357065,31235,25,6,0.864026427269,0.167013257742,0.137761190534,0.242756426334,18.7000007629,0.2889720492538461,0.05585727683678929,0.04607397676722407,18.7000007629,0.03280492247756756,0.41246784829312,0.8907374702448378
1648125579291365143,31236,25,7,0.691544175148,-1.43572807312,0.390872716904,0.242756426334,18.7000007629,0.2312856773070234,-0.480176613083612,0.13072666117190634,18.7000007629,0.03280492247756756,0.5809954464599408,1.640832083714208
1648125579291397932,31237,25,8,0.750398814678,0.109877154231,0.893569469452,0.323675245047,18.7000007629,0.2509695032367893,0.0367482121173913,0.29885266536856187,18.7000007629,0.04373989797932432,0.3568218241695235,1.172022937842421
1648125579291400890,31238,25,9,0.876455187798,-1.25992465019,-1.30697596073,-0.0809188112617,18.7000007629,0.29312882535050166,-0.4213794816688963,-0.43711570592976584,18.7000007629,-0.010934974494824324,0.5911088597494353,2.0158794562920987
1648125579486049650,31239,27,0,0.00650562345982,0.0454158857465,0.00963817536831,0.0,15.8000001907,0.002175793799270903,0.015189259446989964,0.0032234700228461533,15.8000001907,0.0,0.015497798548886397,0.04688091551122268
1648125579486071088,31240,27,1,0.032754637301,0.0146502861753,-0.0301715619862,0.0,15.8000001907,0.010954728194314381,0.0048997612626421405,-0.010090823406755852,15.8000001907,0.0,0.016248686102374597,0.046880916185857074
1648125579486080214,31241,27,2,0.263508409262,-1.58955609798,0.310168713331,0.0,15.8000001907,0.08812990276321069,-0.5316241130367892,0.10373535562909698,15.8000001907,0.0,0.5460384208865332,1.640832075840365
1648125579486168505,31242,27,3,2.41548800468,-0.902457654476,0.493308782578,0.0,15.8000001907,0.807855519959866,-0.30182530250033446,0.1649862149090301,15.8000001907,0.0,1.181676603597054,2.6253315359862417
1648125579486172721,31243,27,4,0.982285916805,0.061531201005,0.0238118190318,0.242756426334,15.8000001907,0.32852371799498326,0.020578996991638794,0.007963819074180601,15.8000001907,0.03280492247756756,0.4650582347273043,0.9844992197945919
1648125579486174922,31244,27,5,0.495011121035,0.152362972498,1.10339295864,0.323675245047,15.8000001907,0.16555555887458193,0.05095751588561872,0.36902774536454847,15.8000001907,0.04373989797932432,0.23961209187723273,1.2189038134787693
1648125579486177909,31245,27,6,0.783104240894,0.0249054860324,0.145936593413,0.485512852669,15.8000001907,0.2619077728742475,0.00832959399076923,0.048808225221739124,15.8000001907,0.06560984495527027,0.3704871726793626,0.7969755483311074
1648125579486180919,31246,27,7,0.354270845652,-1.37126672268,1.98419392109,-0.0809188112617,15.8000001907,0.11848523265953177,-0.4586176330033444,0.6636100070535116,15.8000001907,-0.010934974494824324,0.48827004210616587,2.4378075751172488
1648125579486186500,31247,27,8,0.878134131432,-0.076181486249,-2.27287983894,-0.0809188112617,15.8000001907,0.2936903449605351,-0.02547875794280936,-0.760160481250836,15.8000001907,-0.010934974494824324,0.41612162230817146,2.4378076080554143
1648125579590315147,31248,28,0,0.0126754716039,0.0439508594573,0.0102700833231,0.0,12.6000003815,0.0042392881618394645,0.014699284099431437,0.0034348104759531766,12.6000003815,0.0,0.015874888386191013,0.04688091550812579
1648125579590319544,31249,28,1,0.0327790863812,0.0146502861753,-0.0301449969411,0.0,12.6000003815,0.010962905144214047,0.0048997612626421405,-0.010081938776287625,12.6000003815,0.0,0.016259712138686776,0.046880915408973045
1648125579590326858,31250,28,2,0.270974189043,-1.58955609798,0.30366808176,0.0,12.6000003815,0.09062681907792643,-0.5316241130367892,0.10156123135785952,12.6000003815,0.0,0.5468552260283513,1.6408320766101305
1648125579590330583,31251,28,3,2.41600656509,-0.902457654476,0.49076294899,0.0,12.6000003815,0.808028951535117,-0.30182530250033446,0.16413476554849496,12.6000003815,0.0,1.1819137389282262,2.6253315624472395
1648125579590333257,31252,28,4,1.03045547009,-0.0,-0.0436651296914,0.161837622523,12.6000003815,0.3446339364849498,-0.0,-0.014603722304816052,12.6000003815,0.021869948989594594,0.4873859870310438,1.0313802011815862
1648125579590472000,31253,28,5,0.815915882587,-0.039555773139,0.966916561127,0.242756426334,12.6000003815,0.27288156608260866,-0.013229355564882942,0.32338346525986617,12.6000003815,0.03280492247756756,0.38613950078185,1.2657847458505773
1648125579590508069,31254,28,6,1.9220649004,-0.0,-0.0142260175198,0.404594063759,12.6000003815,0.642831070367893,-0.0,-0.004757865391237458,12.6000003815,0.05467487348094594,0.9091004180290877,1.922117546073636
1648125579590511515,31255,28,7,0.820831477642,-0.0,0.195778802037,0.485512852669,12.6000003815,0.27452557780668896,-0.0,0.06547786021304347,12.6000003815,0.06560984495527027,0.3882377953525299,0.8438564178905035
1648125579590514134,31256,28,8,0.171622529626,-0.158223092556,-0.810928404331,-0.647350490093,12.6000003815,0.05739883933979933,-0.05291742225953177,-0.2712135131541806,12.6000003815,-0.08747979595851352,0.09689946900631488,0.8438564549993285
1648125579590528258,31257,28,9,0.833470284939,0.131852567196,0.00599204842001,-0.647350490093,12.6000003815,0.2787526036585284,0.04409784856053511,0.002004029571909699,12.6000003815,-0.08747979595851352,0.39667448662661065,0.8438564569858675
1648125579691174112,31258,29,0,0.00653255125508,0.0454158857465,0.00961994472891,0.0,37.9000015259,0.002184799750862876,0.015189259446989964,0.003217372819033445,37.9000015259,0.0,0.015500332333557073,0.046880915526754295
1648125579691180351,31259,29,1,0.032754637301,0.0146502861753,-0.0301715619862,0.0,37.9000015259,0.010954728194314381,0.0048997612626421405,-0.010090823406755852,37.9000015259,0.0,0.016248686102374597,0.046880916185857074
1648125579691188523,31260,29,2,0.278703987598,-1.58955609798,0.296589612961,0.0,37.9000015259,0.09321203598595318,-0.5316241130367892,0.09919385048862876,37.9000015259,0.0,0.5477236208777617,1.6408320754558603
1648125579691198708,31261,29,3,1.88943636417,-1.24527442455,0.611451804638,0.0,37.9000015259,0.631918516444816,-0.4164797406521739,0.20449893131705682,37.9000015259,0.0,0.9859499973250857,2.344045962877296
1648125579691241757,31262,29,4,2.38989853859,-0.984499275684,0.459903568029,0.0,37.9000015259,0.7992971700969899,-0.32926397180066885,0.1538139023508361,37.9000015259,0.0,1.1773558066175511,2.625331434402663
1648125579691248475,31263,29,5,0.981261909008,-0.061531201005,0.0507708601654,0.161837622523,37.9000015259,0.328181240470903,-0.020578996991638794,0.016980220791103676,37.9000015259,0.021869948989594594,0.4645743732829258,0.9844992143262873
1648125579691259556,31264,29,6,0.889801800251,-0.079111546278,0.896774888039,0.161837622523,37.9000015259,0.29759257533478256,-0.026458711129765885,0.2999247117187291,37.9000015259,0.021869948989594594,0.4216903427675631,1.2657847685533972
1648125579691287495,31265,29,7,0.861095190048,-0.0278355441988,0.226171210408,0.323675245047,37.9000015259,0.28799170235719057,-0.009309546554782609,0.07564254528695652,37.9000015259,0.04373989797932432,0.40738815509319976,0.890737424981158
1648125579691293028,31266,29,8,0.880075037479,-0.083506628871,0.109122574329,0.485512852669,37.9000015259,0.2943394774177257,-0.027928638418394644,0.03649584425719063,37.9000015259,0.06560984495527027,0.4171947564111816,0.890737427577426
1648125579691323524,31267,29,9,1.10505604744,0.212429150939,-0.762949287891,0.485512852669,37.9000015259,0.369583962354515,0.07104653877558528,-0.2551669859167224,37.9000015259,0.06560984495527027,0.5274772233294228,1.3595464788104024
1648125579691365797,31268,29,10,2.10396099091,0.471739202738,0.0373784899712,-0.647350490093,37.9000015259,0.7036658832474916,0.15777230860802674,0.012501167214448161,37.9000015259,-0.08747979595851352,1.007563125494602,2.1565219401117623
1648125579691371565,31269,29,11,0.654272079468,-0.336956560612,-2.02706074715,-0.647350490093,37.9000015259,0.2188200934675585,-0.11269450187692308,-0.6779467381772576,37.9000015259,-0.08747979595851352,0.3293395168569814,2.1565219568432794
1648125579886127924,31270,31,0,0.00650562345982,0.0454158857465,0.00963817536831,0.0,12.0,0.002175793799270903,0.015189259446989964,0.0032234700228461533,12.0,0.0,0.015497798548886397,0.04688091551122268
1648125579886134446,31271,31,1,0.032754637301,0.0146502861753,-0.0301715619862,0.0,12.0,0.010954728194314381,0.0048997612626421405,-0.010090823406755852,12.0,0.0,0.016248686102374597,0.046880916185857074
1648125579886140440,31272,31,2,0.860700845718,-0.083506628871,0.213620811701,0.0,12.0,0.28785981462140464,-0.027928638418394644,0.07144508752541806,12.0,0.0,0.40805214690238345,0.8907374215092085
1648125579886237288,31273,31,3,2.06321501732,-1.04603040218,0.604561030865,0.0,12.0,0.6900384673311036,-0.34984294387290965,0.20219432470401336,12.0,0.0,1.0366755800012755,2.3909265672580102
1648125579886355707,31274,31,4,1.55947268009,-1.64376199245,-0.763296425343,0.0,12.0,0.5215627692608695,-0.5497531747324415,-0.25528308539899663,12.0,0.0,0.919936953104142,2.3909265904062558
1648125579886359250,31275,31,5,2.41951227188,-0.902457654476,0.473176121712,0.0,12.0,0.809201428722408,-0.30182530250033446,0.15825288351571906,12.0,0.0,1.1835169697651957,2.6253314255649043
1648125579886363955,31276,31,6,1.02285957336,-0.096691891551,0.0902987122536,0.0809188112617,12.0,0.34209350279598666,-0.032338425267892976,0.030200238211906354,12.0,0.010934974494824324,0.4848728730907335,1.0313800881055297
1648125579991252023,31277,32,0,0.0126552544534,0.0439508594573,0.0102949859574,0.0,31.1000003815,0.004232526573043478,0.014699284099431437,0.003443139116187291,31.1000003815,0.0,0.015871279577237503,0.0468809156072991
1648125579991285454,31278,32,1,0.0327790863812,0.0146502861753,-0.0301449969411,0.0,31.1000003815,0.010962905144214047,0.0048997612626421405,-0.010081938776287625,31.1000003815,0.0,0.016259712138686776,0.046880915408973045
1648125579991294179,31279,32,2,1.89192140102,-1.17202293873,0.735898733139,0.0,31.1000003815,0.6327496324481605,-0.3919809159632107,0.24611997763846152,31.1000003815,0.0,0.9769305160582927,2.3440459257408697
1648125579991297653,31280,32,3,2.42022776604,-0.902457654476,0.469502866268,0.0,31.1000003815,0.8094407244280936,-0.30182530250033446,0.15702436998929764,31.1000003815,0.0,1.1838441983448549,2.6253314455639996
1648125579991302672,31281,32,4,1.01307284832,-0.064461261034,0.182409450412,0.0809188112617,31.1000003815,0.33882035060869564,-0.021558950178595316,0.06100650515451504,31.1000003815,0.010934974494824324,0.4796490887159091,1.031380171312644
1648125579991375989,31282,32,5,0.855131685734,-0.139177724719,0.206863492727,-0.0809188112617,31.1000003815,0.2859972193090301,-0.04654773401973244,0.0691851146244147,31.1000003815,-0.010934974494824324,0.40713082718871424,0.8907374156436025
1648125579991381528,31283,32,6,2.09151124954,-1.04603040218,0.497926682234,-0.0809188112617,31.1000003815,0.6995020901471571,-0.34984294387290965,0.16653066295451505,31.1000003815,-0.010934974494824324,1.0492837717310541,2.390926575643381
1648125580186271468,31284,34,0,0.00653255125508,0.0454158857465,0.00961994472891,0.0,16.2999992371,0.002184799750862876,0.015189259446989964,0.003217372819033445,16.2999992371,0.0,0.015500332333557073,0.046880915526754295
1648125580186276217,31285,34,1,0.0328668281436,0.0146502861753,-0.0300493054092,0.0,16.2999992371,0.010992250215250835,0.0048997612626421405,-0.010049934919464881,16.2999992371,0.0,0.016299288021881585,0.046880913310370774
1648125580186283461,31286,34,2,0.84192019701,-0.250519901514,0.147726982832,0.0,16.2999992371,0.28157866120735786,-0.08378592023879598,0.04940701766956521,16.2999992371,0.0,0.40693140125200206,0.8907373915159212
1648125580186378961,31287,34,3,1.00425755978,-0.193383783102,0.133470699191,0.0,16.2999992371,0.33587209357190634,-0.06467685053578595,0.04463902982976588,16.2999992371,0.0,0.4793779526386035,1.0313801246313874
1648125580186383315,31288,34,4,1.86527645588,-1.31852579117,0.526103436947,0.0,16.2999992371,0.6238382795585283,-0.44097852547491634,0.17595432673812708,16.2999992371,0.0,0.9863115420672722,2.34404593496121
1648125580186463255,31289,34,5,0.730811536312,-0.527410328388,-1.64446508884,-0.242756426334,16.2999992371,0.24441857401739128,-0.1763914141765886,-0.5499883240267558,16.2999992371,-0.03280492247756756,0.38806547082239456,1.8752366742655695
1648125580291288796,31290,35,0,0.00653255125508,0.0454158857465,0.00961994472891,0.0,16.2000007629,0.002184799750862876,0.015189259446989964,0.003217372819033445,16.2000007629,0.0,0.015500332333557073,0.046880915526754295
1648125580291314063,31291,35,1,0.032754637301,0.0146502861753,-0.0301715619862,0.0,16.2000007629,0.010954728194314381,0.0048997612626421405,-0.010090823406755852,16.2000007629,0.0,0.016248686102374597,0.046880916185857074
1648125580291321784,31292,35,2,0.984634697437,-0.257845044136,0.166599661112,0.0,16.2000007629,0.3293092633568562,-0.08623580071438126,0.055718950204682274,16.2000007629,0.0,0.4736304415787914,1.0313801439163843
1648125580291333944,31293,35,3,1.99328911304,-1.12074685097,0.698036491871,0.0,16.2000007629,0.6666518772709029,-0.3748317227324415,0.23345702069264213,16.2000007629,0.0,1.0145680220193263,2.39092658526073
1648125580291338508,31294,35,4,0.825119554996,-0.306190997362,0.137251392007,0.161837622523,16.2000007629,0.27595971738996655,-0.10240501584013377,0.04590347558762542,16.2000007629,0.021869948989594594,0.4034777794539849,0.8907374200684467
1648125580291345568,31295,35,5,0.184754937887,-1.56172049046,-1.10518360138,-0.323675245047,16.2000007629,0.06179094912608696,-0.5223145453043477,-0.369626622535117,16.2000007629,-0.04373989797932432,0.529574099653951,1.922117600500947
1648125580291424656,31296,35,6,0.351941049099,-0.799905598164,1.60598039627,-0.242756426334,16.2000007629,0.11770603648795985,-0.26752695590769227,0.5371171893879598,16.2000007629,-0.03280492247756756,0.3150874389572618,1.8283556823601248
1648125580486288452,31297,37,0,0.0126621415839,0.0439508594573,0.010286513716,0.0,13.8999996185,0.004234829961170568,0.014699284099431437,0.003440305590635451,13.8999996185,0.0,0.015872508391424896,0.04688091553026159
1648125580486388260,31298,37,1,0.032754637301,0.0146502861753,-0.0301715619862,0.0,13.8999996185,0.010954728194314381,0.0048997612626421405,-0.010090823406755852,13.8999996185,0.0,0.016248686102374597,0.046880916185857074
1648125580486402904,31299,37,2,0.753387570381,-0.417533159256,0.226906239986,0.0809188112617,13.8999996185,0.2519690870839465,-0.13964319707558526,0.07588837457725753,13.8999996185,0.010934974494824324,0.3827232213771795,0.8907374540387683
1648125580486406733,31300,37,3,1.35749685764,-0.263705164194,-0.256320208311,0.485512852669,13.8999996185,0.4540123269698996,-0.0881957070882943,-0.08572582217759196,13.8999996185,0.06560984495527027,0.6480994281975956,1.406427453270752
1648125580486412152,31301,37,4,0.769097089767,-0.628497242928,-1.53504574299,-0.242756426334,13.8999996185,0.25722310694548495,-0.2101997467986622,-0.5133932250802675,13.8999996185,-0.03280492247756756,0.42013258270169723,1.8283556959541234
1648125580591282338,31302,38,0,0.00653523253277,0.0454158857465,0.00961812306195,0.0,20.2999992371,0.0021856964992541805,0.015189259446989964,0.003216763565869565,20.2999992371,0.0,0.015500585179975556,0.04688091545214674
1648125580591291243,31303,38,1,0.0327790863812,0.0146502861753,-0.0301449969411,0.0,20.2999992371,0.010962905144214047,0.0048997612626421405,-0.010081938776287625,20.2999992371,0.0,0.016259712138686776,0.046880915408973045
1648125580591299931,31304,38,2,0.812959194183,-0.430718421936,0.350453525782,0.0,20.2999992371,0.2718927070846154,-0.14405298392508362,0.11720853705083611,20.2999992371,0.0,0.4106124091029414,0.984499204740535
1648125580591312538,31305,38,3,1.69827020168,-1.50751447678,0.346763521433,0.0,20.2999992371,0.5679833450434782,-0.5041854437391304,0.11597442188394648,20.2999992371,0.0,0.9483739358354286,2.2971648864224177
1648125580591315867,31306,38,4,0.748773872852,-0.498109728098,0.265240430832,0.0809188112617,20.2999992371,0.25042604443210703,-0.1665918823070234,0.08870917419130434,20.2999992371,0.010934974494824324,0.39138122426915223,0.9376183125555898
1648125580591323402,31307,38,5,0.789672970772,-0.584546387196,0.0629353150725,0.242756426334,20.2999992371,0.26410467249899666,-0.1955004639451505,0.02104860035869565,20.2999992371,0.03280492247756756,0.4215720430417245,0.9844992297787982
1648125580591426652,31308,38,6,1.27339315414,-1.22476398945,0.22820083797,-0.161837622523,20.2999992371,0.42588399804013377,-0.409620063361204,0.07632135049163878,20.2999992371,-0.021869948989594594,0.7283837971024164,1.7814748320743428
1648125580786295468,31309,40,0,0.0126454373822,0.0439508594573,0.0103070409968,0.0,25.5,0.004229243271638795,0.014699284099431437,0.003447170901939799,25.5,0.0,0.015869528989141485,0.046880915389230546
1648125580786311524,31310,40,1,0.0327790863812,0.0146502861753,-0.0301449969411,0.0,25.5,0.010962905144214047,0.0048997612626421405,-0.010081938776287625,25.5,0.0,0.016259712138686776,0.046880915408973045
1648125580786317975,31311,40,2,0.87320291996,-0.451228827238,0.312496840954,0.0809188112617,25.5,0.292041110354515,-0.15091265125016723,0.10451399363010032,25.5,0.010934974494824324,0.43971655481861344,1.0313801770266289
1648125580786451407,31312,40,3,0.748275220394,-0.527410328388,0.202609553933,-0.0809188112617,25.5,0.25025927103478257,-0.1763914141765886,0.06776239261973244,25.5,-0.010934974494824324,0.3954406864157232,0.9376183078902398
1648125580891269107,31313,41,0,0.0127415880561,0.0439508594573,0.010187940672,0.0,33.0,0.004261400687658862,0.014699284099431437,0.0034073380173913043,33.0,0.0,0.015886724793907545,0.04688091560926342
1648125580891290031,31314,41,1,0.0327790863812,0.0146502861753,-0.0301449969411,0.0,33.0,0.010962905144214047,0.0048997612626421405,-0.010081938776287625,33.0,0.0,0.016259712138686776,0.046880915408973045
1648125580891297340,31315,41,2,0.284766644239,-1.58955609798,0.290773570538,0.0,33.0,0.09523968034749163,-0.5316241130367892,0.09724868579866221,33.0,0.0,0.5484208156038004,1.640832075387351
1648125580891343285,31316,41,3,0.835782766342,-0.483459472656,0.362600564957,0.0809188112617,33.0,0.2795260088100334,-0.16169213132307692,0.12127109195886286,33.0,0.010934974494824324,0.42709943167175124,1.031380174291827
1648125580891407075,31317,41,4,1.15376210213,-0.380907416344,0.0973084568977,0.242756426334,33.0,0.3858736127525083,-0.12739378473043478,0.032544634413946484,33.0,0.03280492247756756,0.5603802873275343,1.2189037631909705
1648125580891415751,31318,41,5,0.748340904713,-0.527410328388,0.202366992831,-0.0809188112617,33.0,0.25028123903444816,-0.1763914141765886,0.06768126850535117,33.0,-0.010934974494824324,0.39546849207042273,0.937618346633891
1648125580990629528,31319,42,0,0.00653523253277,0.0454158857465,0.00961812306195,0.0,30.2000007629,0.0021856964992541805,0.015189259446989964,0.003216763565869565,30.2000007629,0.0,0.015500585179975556,0.04688091545214674
1648125580990653756,31320,42,1,0.0327790863812,0.0146502861753,-0.0301449969411,0.0,30.2000007629,0.010962905144214047,0.0048997612626421405,-0.010081938776287625,30.2000007629,0.0,0.016259712138686776,0.046880915408973045
1648125580990661526,31321,42,2,0.278479009867,-1.58955609798,0.296800851822,0.0,30.2000007629,0.09313679259765886,-0.5316241130367892,0.09926449893712373,30.2000007629,0.0,0.5476980206582013,1.6408320734323099
1648125580990664516,31322,42,3,0.89433324337,-0.483459472656,0.173724010587,0.161837622523,30.2000007629,0.29910810815050165,-0.16169213132307692,0.05810167578160534,30.2000007629,0.021869948989594594,0.4528528083765668,1.0313801645135285
1648125580990735518,31323,42,4,1.07320261002,-0.527410328388,0.740346431732,0.242756426334,30.2000007629,0.35893063880267556,-0.1763914141765886,0.247607502251505,30.2000007629,0.03280492247756756,0.5373791379815654,1.4064275081291546
1648125580990779950,31324,42,5,0.88108164072,-0.451228827238,0.289538860321,0.323675245047,30.2000007629,0.29467613402006687,-0.15091265125016723,0.09683573923779264,30.2000007629,0.04373989797932432,0.4432185422896694,1.0313801742230706
1648125580990783213,31325,42,6,0.717962145805,-0.501039803028,0.164020270109,-0.161837622523,30.2000007629,0.24012111899832772,-0.16757184047759197,0.05485627762842809,30.2000007629,-0.021869948989594594,0.3786774686973938,0.8907374338343967
1648125580991010817,31326,42,7,0.913362264633,-0.572826147079,0.0169213525951,-0.0809188112617,30.2000007629,0.3054723293086956,-0.19158065119698997,0.005659315249197324,30.2000007629,-0.010934974494824324,0.4725778601030978,1.0782609857574104
1648125580991034014,31327,42,8,1.27386844158,-1.22476398945,0.225532636046,-0.0809188112617,30.2000007629,0.42604295705016715,-0.409620063361204,0.07542897526622072,30.2000007629,-0.010934974494824324,0.7285696938606065,1.7814748401896656
1648125581091333884,31328,43,0,0.00653523253277,0.0454158857465,0.00961812306195,0.0,14.3999996185,0.0021856964992541805,0.015189259446989964,0.003216763565869565,14.3999996185,0.0,0.015500585179975556,0.04688091545214674
1648125581091536161,31329,43,1,0.032754637301,0.0146502861753,-0.0301715619862,0.0,14.3999996185,0.010954728194314381,0.0048997612626421405,-0.010090823406755852,14.3999996185,0.0,0.016248686102374597,0.046880916185857074
1648125581091539810,31330,43,2,0.281896829605,-1.58955609798,0.293556600809,0.0,14.3999996185,0.09427987612207357,-0.5316241130367892,0.0981794651535117,14.3999996185,0.0,0.5480890325899068,1.6408320721650003
1648125581091540859,31331,43,3,2.41898036003,-0.902457654476,0.475888311863,0.0,14.3999996185,0.8090235317826087,-0.30182530250033446,0.15915997052274247,14.3999996185,0.0,1.1832737059469502,2.6253315001540294
1648125581091542068,31332,43,4,1.28674066067,-1.22476398945,0.133807346225,0.0809188112617,14.3999996185,0.4303480470468227,-0.409620063361204,0.04475162081103679,14.3999996185,0.010934974494824324,0.7336126222346951,1.7814748843524921
1648125581091543327,31333,43,5,0.908638417721,-0.483459472656,0.0662432909012,0.242756426334,14.3999996185,0.3038924473983277,-0.16169213132307692,0.022154946789698995,14.3999996185,0.03280492247756756,0.4591792509503123,1.0313801478837765
1648125581091544354,31334,43,6,0.999574661255,-0.404347896576,-8.69574723765e-05,0.404594063759,14.3999996185,0.3343059067742475,-0.13523341022608695,-2.9082766681103678e-05,14.3999996185,0.05467487348094594,0.49174073844830146,1.0782609760396997
1648125581091623392,31335,43,7,0.7314671278,-0.501039803028,0.0856046229601,-0.242756426334,14.3999996185,0.24463783538461537,-0.16757184047759197,0.028630308682307693,14.3999996185,-0.03280492247756756,0.38441600217002914,0.8907374443361296
1648125581091626266,31336,43,8,0.73870575428,-0.473204255104,0.154287770391,-0.0809188112617,14.3999996185,0.24705878069565215,-0.15826229267692307,0.05160126100033444,14.3999996185,-0.010934974494824324,0.38356620748053494,0.8907374329998381
1648125581091628011,31337,43,9,1.22879874706,-1.22476398945,0.40454852581,-0.0809188112617,14.3999996185,0.4109694806220735,-0.409620063361204,0.1353005103043478,14.3999996185,-0.010934974494824324,0.7110417880220475,1.7814748666104583
1648125581286139100,31338,45,0,0.0126621415839,0.0439508594573,0.010286513716,0.0,17.7999992371,0.004234829961170568,0.014699284099431437,0.003440305590635451,17.7999992371,0.0,0.015872508391424896,0.04688091553026159
1648125581286148297,31339,45,1,0.0328052677214,0.0146502861753,-0.0301165021956,0.0,17.7999992371,0.01097166144528428,0.0048997612626421405,-0.010072408761070234,17.7999992371,0.0,0.01627152021695464,0.04688091487789562
1648125581286151172,31340,45,2,0.275056809187,-1.58955609798,0.299975097179,0.0,17.7999992371,0.09199224387525082,-0.5316241130367892,0.10032611945785953,17.7999992371,0.0,0.5473110116090851,1.6408320742334017
1648125581286243607,31341,45,3,2.4142677784,-0.902457654476,0.49924620986,0.0,17.7999992371,0.8074474175250836,-0.30182530250033446,0.166971976541806,17.7999992371,0.0,1.181118612741867,2.6253315032586593
1648125581286249509,31342,45,4,1.33719968796,-1.19985842705,0.339295387268,0.242756426334,17.7999992371,0.44722397590635454,-0.40129044382943135,0.11347671814983278,17.7999992371,0.03280492247756756,0.7490344381667623,1.8283557121809104
1648125581286252374,31343,45,5,0.805278658867,-0.76474493742,0.784256517887,0.323675245047,17.7999992371,0.26932396617625415,-0.2557675375986622,0.26229314979498325,17.7999992371,0.04373989797932432,0.4587895277827288,1.3595465507235844
1648125581286257289,31344,45,6,0.872157096863,-0.632892370224,0.323625952005,0.404594063759,17.7999992371,0.29169133674347825,-0.21166968903812708,0.10823610434949832,17.7999992371,0.05467487348094594,0.4636504384985437,1.1251419957975934
1648125581286370975,31345,45,7,0.785727083683,-0.417533159256,0.041378878057,0.566431701183,17.7999992371,0.26278497782040133,-0.13964319707558526,0.013839089651170568,17.7999992371,0.07654482448418919,0.3970039189046229,0.8907374476581439
1648125581391298927,31346,46,0,0.0126621415839,0.0439508594573,0.010286513716,0.0,31.6000003815,0.004234829961170568,0.014699284099431437,0.003440305590635451,31.6000003815,0.0,0.015872508391424896,0.04688091553026159
1648125581391304002,31347,46,1,0.0327790863812,0.0146502861753,-0.0301449969411,0.0,31.6000003815,0.010962905144214047,0.0048997612626421405,-0.010081938776287625,31.6000003815,0.0,0.016259712138686776,0.046880915408973045
1648125581391309519,31348,46,2,0.286475390196,-1.58955609798,0.28909021616,0.0,31.6000003815,0.0958111672896321,-0.5316241130367892,0.09668569102341137,31.6000003815,0.0,0.5486198657695113,1.6408320727279773
1648125581391312568,31349,46,3,2.4112226963,-0.902457654476,0.513751089573,0.0,31.6000003815,0.8064289954180601,-0.30182530250033446,0.17182310688060198,31.6000003815,0.0,1.179726223549931,2.625331386951371
1648125581391314372,31350,46,4,0.87002658844,-0.835066318512,0.723710119724,0.323675245047,31.6000003815,0.29097879212040134,-0.2792863941511705,0.24204351830234114,31.6000003815,0.04373989797932432,0.4973310817610925,1.406427516190101
1648125581391412802,31351,46,5,0.951326310635,-0.622637212276,0.284497648478,0.485512852669,31.6000003815,0.3181693346605351,-0.20823987032642138,0.09514971521003344,31.6000003815,0.06560984495527027,0.49580973632051634,1.1720229346760842
1648125581391413933,31352,46,6,0.966184139252,-0.184593603015,0.0406462103128,-0.242756426334,31.6000003815,0.3231385081110368,-0.06173699097491638,0.013594050271839466,31.6000003815,-0.03280492247756756,0.46113820802779953,0.9844992146411189
