%time,field.header.seq,field.header.frame_id,field.point_id,field.x,field.y,field.z,field.velocity,field.intensity,normalized_x,normalized_y,normalized_z,normalized_intensity,normalized_velocity,normalized_range,range
1648294341163095211,5743,0,0,0.0127159571275,0.0439508594573,0.0102199139073,0.0,30.1000003815,0.004252828470735786,0.014699284099431437,0.0034180314071237455,30.1000003815,0.0,0.015882129990615227,0.04688091565846788
1648294341163102552,5744,0,1,0.0334649384022,0.0146502861753,-0.0293817501515,0.0,30.1000003815,0.01119228709103679,0.0048997612626421405,-0.009826672291471572,30.1000003815,0.0,0.016569316252859262,0.046880915405380016
1648294341163104662,5745,0,2,0.109656520188,1.58955609798,0.391939729452,0.0,30.1000003815,0.036674421467558525,0.5316241130367892,0.13108352155585284,30.1000003815,0.0,0.534148129213342,1.640832073238469
1648294341163113195,5746,0,3,1.71620249748,-1.43572807312,0.519904315472,0.0,30.1000003815,0.5739807683879599,-0.480176613083612,0.17388104196387957,30.1000003815,0.0,0.9431211081886114,2.2971649069119673
1648294341163116781,5747,0,4,1.83486163616,-1.44744825363,0.693600952625,0.0,30.1000003815,0.6136660990501672,-0.484096405896321,0.2319735627508361,30.1000003815,0.0,0.9937411596832623,2.4378076118247307
1648294341163217458,5748,0,5,2.34370017052,-1.06654083729,0.511786401272,0.0,30.1000003815,0.7838462108762542,-0.35670262116722407,0.1711660204923077,30.1000003815,0.0,1.1645026940963643,2.625331439538573
1648294341163228241,5749,0,6,0.946453750134,1.33317601681,-0.138553023338,0.242756426334,30.1000003815,0.31653971576387957,0.44587826649163875,-0.046338803791973235,30.1000003815,0.03280492247756756,0.631824510320187,1.6408320856249095
1648294341163236972,5750,0,7,0.985538125038,1.16030263901,0.275388419628,0.323675245047,30.1000003815,0.32961141305618724,0.3880610832809364,0.09210315037725751,30.1000003815,0.04373989797932432,0.6065301077365961,1.5470702607387274
1648294341163242500,5751,0,8,0.765196859837,1.18081307411,0.363674789667,0.485512852669,30.1000003815,0.2559186822197324,0.39492076057190634,0.12163036443712374,30.1000003815,0.06560984495527027,0.5356782158617819,1.4533083303046366
1648294341358415131,5752,2,0,0.00633364822716,0.0454158857465,0.00975204911083,0.0,24.7999992371,0.002118276999050167,0.015189259446989964,0.0032615548865652173,24.7999992371,0.0,0.015481853811394289,0.046880915518626436
1648294341358424039,5753,2,1,0.0335360355675,0.0146502861753,-0.0293005723506,0.0,24.7999992371,0.011216065407190634,0.0048997612626421405,-0.009799522525284281,24.7999992371,0.0,0.01660144291523015,0.046880914098122665
1648294341358426037,5754,2,2,0.448369890451,-0.5845464468,-0.500682592392,0.0,24.7999992371,0.1499564851006689,-0.19550048387959865,-0.16745237203745816,24.7999992371,0.0,0.2884342802869511,0.8907374278955165
1648294341358524455,5755,2,3,1.71738028526,-1.43572807312,0.516000390053,0.0,24.7999992371,0.5743746773444816,-0.480176613083612,0.17257538128862876,24.7999992371,0.0,0.9436006145089157,2.2971648932280493
1648294341358537633,5756,2,4,2.34259748459,-1.06654083729,0.516809642315,0.0,24.7999992371,0.7834774195953177,-0.35670262116722407,0.17284603421906355,24.7999992371,0.0,1.1640062259193646,2.625331319815541
1648294341358547353,5757,2,5,1.02146434784,1.16030263901,0.0611135140061,0.0809188112617,24.7999992371,0.341626872187291,0.3880610832809364,0.020439302343177257,24.7999992371,0.010934974494824324,0.6196847940349328,1.5470702923900843
1648294341358553347,5758,2,6,0.930025815964,1.20864868164,0.260089993477,0.323675245047,24.7999992371,0.3110454233993311,0.40423032830769223,0.08698661989197325,24.7999992371,0.04373989797932432,0.5974116412985966,1.5470702824036404
1648294341463396252,5759,3,0,0.0126124918461,0.0439508594573,0.0103473290801,0.0,27.2000007629,0.004218224697692308,0.014699284099431437,0.0034606451772909697,27.2000007629,0.0,0.01586366263623381,0.04688091527151703
1648294341463408706,5760,3,1,0.033480156213,0.0146502861753,-0.0293644089252,0.0,27.2000007629,0.01119737665986622,0.0048997612626421405,-0.009820872550234113,27.2000007629,0.0,0.016576192221276938,0.04688091569702361
1648294341463414530,5761,3,2,0.408110797405,-0.612381994724,-0.501843631268,0.0,27.2000007629,0.13649190548662207,-0.20481003168026754,-0.16784067935384614,27.2000007629,0.0,0.2814377899352007,0.8907374252073068
1648294341463439656,5762,3,3,1.71872591972,-1.43572807312,0.511500597,0.0,27.2000007629,0.5748247223143812,-0.480176613083612,0.17107043377926417,27.2000007629,0.0,0.9441485595604432,2.2971649370024747
1648294341463533593,5763,3,4,2.34418606758,-1.06654083729,0.509555518627,0.0,27.2000007629,0.7840087182541805,-0.35670262116722407,0.17041990589531772,27.2000007629,0.0,1.1647214690837866,2.6253313131120555
1648294341463543369,5764,3,5,0.962208271027,1.24527430534,0.2532338202,0.161837622523,27.2000007629,0.3218087862966555,0.41647970078260865,0.08469358535117057,27.2000007629,0.021869948989594594,0.6169093377794052,1.5939511347798194
1648294341658339717,5765,5,0,0.0126022109762,0.0439508594573,0.0103598479182,0.0,31.7999992371,0.004214786279665552,0.014699284099431437,0.0034648320796655517,31.7999992371,0.0,0.015861834692188412,0.04688091527916478
1648294341658430511,5766,5,1,0.0335646085441,0.0146502861753,-0.0292678363621,0.0,31.7999992371,0.011225621586655517,0.0048997612626421405,-0.009788574034147157,31.7999992371,0.0,0.01661435585403362,0.04688091378221547
1648294341658439551,5767,5,2,0.479764670134,-0.5845464468,-0.470685124397,0.0,31.7999992371,0.1604564114160535,-0.19550048387959865,-0.1574197740458194,31.7999992371,0.0,0.29952121648756846,0.8907374324142386
1648294341658456659,5768,5,3,1.72307789326,-1.43572807312,0.496642947197,0.0,31.7999992371,0.5762802318595317,-0.480176613083612,0.1661013201327759,31.7999992371,0.0,0.9459214507645971,2.2971649359997444
1648294341658463006,5769,5,4,2.3440721035,-1.06654083729,0.510079681873,0.0,31.7999992371,0.7839706031772574,-0.35670262116722407,0.17059521132876254,31.7999992371,0.0,1.1646701564133055,2.6253313440161854
1648294341658478579,5770,5,5,1.01241922379,1.16030263901,0.148766547441,0.0809188112617,31.7999992371,0.3386017470869565,0.3880610832809364,0.049754698140802675,31.7999992371,0.010934974494824324,0.6163551659699563,1.5470702584015479
1648294341658487111,5771,5,6,1.03415751457,1.19546329975,0.205099925399,0.161837622523,31.7999992371,0.34587207845150497,0.39982050158862875,0.06859529277558528,31.7999992371,0.021869948989594594,0.6317526595079048,1.5939511427234632
1648294341658517626,5772,5,7,1.00960886478,1.40935754776,0.0567211210728,-0.161837622523,31.7999992371,0.33766182768561864,0.4713570393846154,0.018970274606287623,31.7999992371,-0.021869948989594594,0.6709757658287031,1.7345939129508658
1648294341763399883,5773,6,0,0.00636331317946,0.0454158857465,0.00973271857947,0.0,22.6000003815,0.002128198387779264,0.015189259446989964,0.0032550898259096983,22.6000003815,0.0,0.015484574882878329,0.046880915559598356
1648294341763401605,5774,6,1,0.0335029289126,0.0146502861753,-0.0293384213001,0.0,22.6000003815,0.011204992947357858,0.0048997612626421405,-0.009812181036822742,22.6000003815,0.0,0.01658648227719088,0.04688091397491176
1648294341763403283,5775,6,2,0.483479201794,1.53828001022,0.303763717413,0.0,22.6000003815,0.16169872969698995,0.51447491980602,0.10159321652608695,22.6000003815,0.0,0.5630074613010481,1.6408320829464456
1648294341763404365,5776,6,3,1.72318041325,-1.43572807312,0.496286928654,0.0,22.6000003815,0.5763145194816053,-0.480176613083612,0.16598225038595316,22.6000003815,0.0,0.9459632289275709,2.2971648944092213
1648294341763405473,5777,6,4,2.34462451935,-1.06654083729,0.507534503937,0.0,22.6000003815,0.7841553576421404,-0.35670262116722407,0.16974398124983275,22.6000003815,0.0,1.1649188854960306,2.6253313632817954
1648294341763408001,5778,6,5,1.10676157475,1.14565241337,0.0569182485342,0.242756426334,22.6000003815,0.37015437282608693,0.383161342264214,0.01903620352314381,22.6000003815,0.03280492247756756,0.6487226939534809,1.5939511669495416
1648294341958369139,5779,8,0,0.012589732185,0.0439508594573,0.0103750098497,0.0,32.5,0.00421061277090301,0.014699284099431437,0.003469902959765886,32.5,0.0,0.015859617676627042,0.04688091544441868
1648294341958374642,5780,8,1,0.0336009934545,0.0146502861753,-0.0292260590941,0.0,32.5,0.011237790453010033,0.0048997612626421405,-0.009774601703712374,32.5,0.0,0.016630800610987297,0.04688091484089622
1648294341958523786,5781,8,2,0.410463422537,-0.5845464468,-0.532201468945,0.0,32.5,0.13727873663444815,-0.19550048387959865,-0.17799380232274245,32.5,0.0,0.2755201304098442,0.8907374322742414
1648294341958536051,5782,8,3,0.242017790675,-1.58955609798,0.327213525772,0.0,32.5,0.08094240490802676,-0.5316241130367892,0.10943596179665552,32.5,0.0,0.5438083700962526,1.6408320727840358
1648294341958555662,5783,8,4,1.72200059891,-1.43572807312,0.500365018845,0.0,32.5,0.5759199327458193,-0.480176613083612,0.16734616014882941,32.5,0.0,0.9454824787484679,2.2971648427300604
1648294341958578353,5784,8,5,2.34361195564,-1.06654083729,0.512189924717,0.0,32.5,0.7838167075719064,-0.35670262116722407,0.17130097816622072,32.5,0.0,1.1644629758327634,2.625331383884253
1648294341958583550,5785,8,6,0.900396466255,1.24527430534,0.423389077187,-0.242756426334,32.5,0.3011359418913043,0.41647970078260865,0.14160169805585282,32.5,-0.03280492247756756,0.5956685757713741,1.5939511293216522
1648294341958589823,5786,8,7,0.830363869667,1.30534052849,-0.00289104855619,-0.0809188112617,32.5,0.27771366878494985,0.436568738625418,-0.0009669058716354514,32.5,-0.010934974494824324,0.5872325154527652,1.5470702665130183
1648294342063433465,5787,9,0,0.012589732185,0.0439508594573,0.0103750098497,0.0,15.0,0.00421061277090301,0.014699284099431437,0.003469902959765886,15.0,0.0,0.015859617676627042,0.04688091544441868
1648294342063434620,5788,9,1,0.0334510691464,0.0146502861753,-0.0293975379318,0.0,15.0,0.011187648543946488,0.0048997612626421405,-0.009831952485551838,15.0,0.0,0.016563049849488,0.04688091454426887
1648294342063436373,5789,9,2,0.51044011116,-0.5845464468,-0.43722936511,0.0,15.0,0.17071575624080265,-0.19550048387959865,-0.14623055689297657,15.0,0.0,0.31065765410640617,0.8907374322784645
1648294342063442770,5790,9,3,1.10308814049,1.17934799194,-0.290971904993,0.0,15.0,0.3689257994949832,0.39443076653511705,-0.09731501839230769,15.0,0.0,0.6540551357917046,1.6408320393257354
1648294342063444275,5791,9,4,1.72515821457,-1.43572807312,0.489367455244,0.0,15.0,0.5769759914949832,-0.480176613083612,0.163668045232107,15.0,0.0,0.9467693326654,2.2971648768634796
1648294342063445842,5792,9,5,2.34358668327,-1.06654083729,0.512305915356,0.0,15.0,0.7838082552742474,-0.35670262116722407,0.17133977102207357,15.0,0.0,1.164451597113288,2.6253314553626335
1648294342063447278,5793,9,6,1.13520145416,1.17934799194,0.11307541281,0.161837622523,15.0,0.37966603818060196,0.39443076653511705,0.03781786381605351,15.0,0.021869948989594594,0.6662343661842945,1.6408321293179386
1648294342063450016,5794,9,7,0.965064644814,1.20864868164,0.0352849550545,-0.161837622523,15.0,0.32276409525551836,0.40423032830769223,0.011800988312541805,15.0,-0.021869948989594594,0.6097175417322117,1.5470702738897415
1648294342258400448,5795,11,0,0.00636331317946,0.0454158857465,0.00973271857947,0.0,35.5,0.002128198387779264,0.015189259446989964,0.0032550898259096983,35.5,0.0,0.015484574882878329,0.046880915559598356
1648294342258416061,5796,11,1,0.0335872508585,0.0146502861753,-0.0292418505996,0.0,35.5,0.011233194267056856,0.0048997612626421405,-0.00977988314367893,35.5,0.0,0.01662458923744483,0.046880914365435775
1648294342258421463,5797,11,2,1.72460269928,-1.43572807312,0.491321623325,0.0,35.5,0.5767902004280936,-0.480176613083612,0.16432161315217392,35.5,0.0,0.9465428941005313,2.2971648847776347
1648294342258427236,5798,11,3,2.34384322166,-1.06654083729,0.511130750179,0.0,35.5,0.7838940540668895,-0.35670262116722407,0.17094673919030098,35.5,0.0,1.1645671023820032,2.6253314170038284
1648294342258504872,5799,11,4,0.833569169044,1.18081307411,0.151486188173,-0.647350490093,35.5,0.2787856752655518,0.39492076057190634,0.05066427698093645,35.5,-0.08747979595851352,0.5580370172284562,1.453308343324636
1648294342258508372,5800,11,5,0.905066788197,1.17202293873,0.240383446217,-0.404594063759,35.5,0.30269792247391303,0.3919809159632107,0.08039580141036788,35.5,-0.05467487348094594,0.5804318246094056,1.5001892751322081
1648294342363246585,5801,12,0,0.012589732185,0.0439508594573,0.0103750098497,0.0,27.0,0.00421061277090301,0.014699284099431437,0.003469902959765886,27.0,0.0,0.015859617676627042,0.04688091544441868
1648294342363252401,5802,12,1,0.0334510691464,0.0146502861753,-0.0293975379318,0.0,27.0,0.011187648543946488,0.0048997612626421405,-0.009831952485551838,27.0,0.0,0.016563049849488,0.04688091454426887
1648294342363256319,5803,12,2,0.457648843527,-0.556710898876,-0.523491799831,0.0,27.0,0.15305981388862877,-0.18619093607892975,-0.17508086950869564,27.0,0.0,0.28552001319205533,0.8907374211288219
1648294342363258677,5804,12,3,1.72399830818,-1.43572807312,0.49343842268,0.0,27.0,0.5765880629364548,-0.480176613083612,0.16502957280267558,27.0,0.0,0.9462965541488964,2.297164936074312
1648294342363260460,5805,12,4,2.34322237968,-1.06654083729,0.513969779015,0.0,27.0,0.7836864146086955,-0.35670262116722407,0.17189624716220733,27.0,0.0,1.16428757308151,2.6253314861139314
1648294342363263298,5806,12,5,0.945747971535,1.08998131752,0.172065615654,-0.566431701183,27.0,0.31630366940969895,0.3645422466622073,0.057547028646822734,27.0,-0.07654482448418919,0.5770503203063055,1.4533083204521993
1648294342558350601,5807,14,0,0.0126807661727,0.0439508594573,0.0102635445073,0.0,30.8999996185,0.004241058920635451,0.014699284099431437,0.003432623581036789,30.8999996185,0.0,0.01587583429531818,0.04688091534532317
1648294342558356181,5808,14,1,0.0335360355675,0.0146502861753,-0.0293005723506,0.0,30.8999996185,0.011216065407190634,0.0048997612626421405,-0.009799522525284281,30.8999996185,0.0,0.01660144291523015,0.046880914098122665
1648294342558358221,5809,14,2,0.495915234089,-0.556710898876,-0.487395346165,0.0,30.8999996185,0.165857937822408,-0.18619093607892975,-0.16300847697826087,30.8999996185,0.0,0.2994741654222475,0.8907374292080533
1648294342558360284,5810,14,3,1.72665393353,-1.43572807312,0.484063655138,0.0,30.8999996185,0.5774762319498328,-0.480176613083612,0.16189419904280936,30.8999996185,0.0,0.9473791092727362,2.2971648892373944
1648294342558362144,5811,14,4,2.34264492989,-1.06654083729,0.516594946384,0.0,30.8999996185,0.7834932875886287,-0.35670262116722407,0.17277422955986624,30.8999996185,0.0,1.1640275870186425,2.625331400752306
1648294342558559068,5812,14,5,0.855132937431,0.909782767296,0.207975938916,-0.647350490093,30.8999996185,0.2859976379367893,0.30427517300869567,0.06955717020602006,30.8999996185,-0.08747979595851352,0.506135040004461,1.2657847429622977
1648294342558590090,5813,14,6,0.924106180668,0.79111546278,0.349821507931,-0.485512852669,30.8999996185,0.3090656122635451,0.26458711129765883,0.1169971598431438,30.8999996185,-0.06560984495527027,0.5109299803618101,1.2657847352569591
1648294342558679022,5814,14,7,1.05979561806,0.922968029976,0.0547870099545,-0.485512852669,30.8999996185,0.35444669500334447,0.30868495985819394,0.01832341470050167,30.8999996185,-0.06560984495527027,0.5886860994114288,1.4064275142632523
1648294342659948922,5815,15,0,0.00633084960282,0.0454158857465,0.00975386612117,0.0,26.2000007629,0.0021173410042876254,0.015189259446989964,0.0032621625823311034,26.2000007629,0.0,0.015481597734240782,0.04688091551092379
1648294342659951725,5816,15,1,0.0335360355675,0.0146502861753,-0.0293005723506,0.0,26.2000007629,0.011216065407190634,0.0048997612626421405,-0.009799522525284281,26.2000007629,0.0,0.01660144291523015,0.046880914098122665
1648294342659956338,5817,15,2,0.527026832104,-0.556710898876,-0.453573465347,0.0,26.2000007629,0.17626315454983277,-0.18619093607892975,-0.1516968111528428,26.2000007629,0.0,0.31113415752961704,0.890737444565899
1648294342659959601,5818,15,3,1.72856271267,-1.43572807312,0.477202802896,0.0,26.2000007629,0.5781146196220736,-0.480176613083612,0.15959959963076922,26.2000007629,0.0,0.9481574798492065,2.2971649193450907
1648294342659966327,5819,15,4,2.34234070778,-1.06654083729,0.517972111702,0.0,26.2000007629,0.7833915410635451,-0.35670262116722407,0.17323481996722406,26.2000007629,0.0,1.1638906190735452,2.625331304317913
1648294342659970009,5820,15,5,1.49642109871,2.0949909687,0.141927748919,0.566431701183,26.2000007629,0.5004752838494982,0.7006658758193979,0.047467474554849495,26.2000007629,0.07654482448418919,0.9959335766135388,2.578450455120715
1648294342660043037,5821,15,6,0.996109247208,0.75155967474,0.212450832129,-0.485512852669,26.2000007629,0.3331469054207358,0.25135775074916383,0.071053790009699,26.2000007629,-0.06560984495527027,0.5339985393655156,1.2657847104230986
1648294342660056694,5822,15,7,1.22229397297,0.77207005024,-0.148358687758,-0.485512852669,26.2000007629,0.40879397089297653,0.25821740810702337,-0.04961829022006689,26.2000007629,-0.06560984495527027,0.6331676327217023,1.4533083014521244
1648294342763488870,5823,16,0,0.00636331317946,0.0454158857465,0.00973271857947,0.0,12.8999996185,0.002128198387779264,0.015189259446989964,0.0032550898259096983,12.8999996185,0.0,0.015484574882878329,0.046880915559598356
1648294342763495060,5824,16,1,0.0334510691464,0.0146502861753,-0.0293975379318,0.0,12.8999996185,0.011187648543946488,0.0048997612626421405,-0.009831952485551838,12.8999996185,0.0,0.016563049849488,0.04688091454426887
1648294342763586205,5825,16,2,0.483627170324,-0.5845464468,-0.466715544462,0.0,12.8999996185,0.16174821749966553,-0.19550048387959865,-0.15609215533846152,12.8999996185,0.0,0.30090764517671437,0.8907374404304367
1648294342763593454,5826,16,3,1.72757995129,-1.43572807312,0.4807485044,0.0,12.8999996185,0.5777859368862877,-0.480176613083612,0.1607854529765886,12.8999996185,0.0,0.947756697406871,2.2971649293263345
1648294342763603771,5827,16,4,1.82168519497,-1.44744825363,0.727504491806,0.0,12.8999996185,0.6092592625317725,-0.484096405896321,0.2433125390655518,12.8999996185,0.0,0.9883031054101036,2.4378076589647777
1648294342763610952,5828,16,5,2.34293723106,-1.06654083729,0.51526761055,0.0,12.8999996185,0.7835910471772575,-0.35670262116722407,0.17233030453177256,12.8999996185,0.0,1.1641591894497376,2.6253313956101354
1648294342763662272,5829,16,6,1.50368750095,-0.73837441206,0.205187812448,-0.566431701183,12.8999996185,0.5029055187123745,-0.24694796389966553,0.06862468643745818,12.8999996185,-0.07654482448418919,0.7528686594465968,1.6877129232412136
1648294342763665533,5830,16,7,1.50288796425,0.73837441206,-0.210964113474,-0.566431701183,12.8999996185,0.5026381151337792,0.24694796389966553,-0.07055655969030099,12.8999996185,-0.07654482448418919,0.7525114261223327,1.6877129088344174
1648294342763667574,5831,16,8,0.855386435986,0.703213751316,0.199371352792,-0.485512852669,12.8999996185,0.2860824200622073,0.23518854559063543,0.06667938220468227,12.8999996185,-0.06560984495527027,0.46797430924607053,1.1251419782511292
1648294342763669850,5832,16,9,0.984969139099,0.68563336134,0.213234871626,-0.485512852669,12.8999996185,0.3294211167555184,0.2293088165016722,0.07131601057725752,12.8999996185,-0.06560984495527027,0.5192485701995754,1.2189037786622736
1648294342763674318,5833,16,10,1.22885656357,0.726654171944,-0.272011429071,-0.404594063759,12.8999996185,0.4109888172474916,0.24302815115183943,-0.0909737220973244,12.8999996185,-0.05467487348094594,0.6299891253484186,1.4533082800899255
1648294342859764678,5834,17,0,0.0126022109762,0.0439508594573,0.0103598479182,0.0,15.0,0.004214786279665552,0.014699284099431437,0.0034648320796655517,15.0,0.0,0.015861834692188412,0.04688091527916478
1648294342859919587,5835,17,1,0.0335029289126,0.0146502861753,-0.0293384213001,0.0,15.0,0.011204992947357858,0.0048997612626421405,-0.009812181036822742,15.0,0.0,0.01658648227719088,0.04688091397491176
1648294342859928878,5836,17,2,0.48707896471,-0.5845464468,-0.463111966848,0.0,15.0,0.16290266378260868,-0.19550048387959865,-0.1548869454341137,15.0,0.0,0.30215061630269185,0.8907374249279604
1648294342859933506,5837,17,3,1.724391222,-1.43572807312,0.492063164711,0.0,15.0,0.5767194722408027,-0.480176613083612,0.16456962030468225,15.0,0.0,0.9464566968836285,2.297164849226308
1648294342859936238,5838,17,4,2.34251451492,-1.06654083729,0.517185330391,0.0,15.0,0.7834496705418059,-0.35670262116722407,0.1729716824050167,15.0,0.0,1.1639688709289853,2.6253312698000197
1648294342859939903,5839,17,5,1.33015322685,-1.86791145802,0.676852226257,0.566431701183,15.0,0.44486729994983276,-0.6247195511772575,0.2263719820257525,15.0,0.07654482448418919,0.8866162342030643,2.3909265480334034
1648294342859946592,5840,17,6,0.98786842823,0.622637212276,0.100382611156,-0.485512852669,15.0,0.33039077867224076,0.20823987032642138,0.03357277965083612,15.0,-0.06560984495527027,0.5115466516915773,1.1720229512372766
