%time,field.header.seq,field.header.frame_id,field.point_id,field.x,field.y,field.z,field.velocity,field.intensity,normalized_x,normalized_y,normalized_z,normalized_intensity,normalized_velocity,normalized_range,range
1648294535659212848,15396,0,0,0.00628323899582,0.0454158857465,0.00978460349143,0.0,15.1000003815,0.002101417724354515,0.015189259446989964,0.0032724426392742472,15.1000003815,0.0,0.01547725800820147,0.0468809154763667
1648294535659217085,15397,0,1,0.0335372425616,0.0146502861753,-0.0292991939932,0.0,15.1000003815,0.011216469084147156,0.0048997612626421405,-0.00979906153618729,15.1000003815,0.0,0.016601988370738802,0.04688091607791967
1648294535659219892,15398,0,2,0.310653299093,-0.5845464468,-0.59599763155,0.0,15.1000003815,0.10389742444581938,-0.19550048387959865,-0.1993303115551839,15.1000003815,0.0,0.24456039910440672,0.8907374458936145
1648294535659226306,15399,0,3,1.50449466705,-1.68478298187,0.626540839672,0.0,15.1000003815,0.5031754739297658,-0.5634725691872909,0.2095454313284281,15.1000003815,0.0,0.9076741989036679,2.3440459302150103
1648294535659248039,15400,0,4,2.23837900162,-1.2306240797,0.60629093647,0.0,15.1000003815,0.7486217396722407,-0.4115799597658863,0.20277288845150498,15.1000003815,0.0,1.1358992391496143,2.6253313848115423
1648294535659336964,15401,0,5,0.965619564056,1.20864868164,-0.0131793897599,-0.0809188112617,15.1000003815,0.32294968697525084,0.40423032830769223,-0.0044078226621739125,15.1000003815,-0.010934974494824324,0.6099140586661121,1.547070287489309
1648294535764313063,15402,1,0,0.00628323899582,0.0454158857465,0.00978460349143,0.0,20.3999996185,0.002101417724354515,0.015189259446989964,0.0032724426392742472,20.3999996185,0.0,0.01547725800820147,0.0468809154763667
1648294535764315519,15403,1,1,0.0335372425616,0.0146502861753,-0.0292991939932,0.0,20.3999996185,0.011216469084147156,0.0048997612626421405,-0.00979906153618729,20.3999996185,0.0,0.016601988370738802,0.04688091607791967
1648294535764317460,15404,1,2,0.310557872057,-0.5845464468,-0.596047341824,0.0,20.3999996185,0.10386550904916386,-0.19550048387959865,-0.19934693706488293,20.3999996185,0.0,0.24453328431369234,0.8907374327255667
1648294535764327316,15405,1,3,1.50752568245,-1.68478298187,0.619212448597,0.0,20.3999996185,0.5041891914548495,-0.5634725691872909,0.20709446441371235,20.3999996185,0.0,0.9087985573196715,2.3440459542727825
1648294535764351049,15406,1,4,2.23728179932,-1.2306240797,0.610327064991,0.0,20.3999996185,0.7482547823812707,-0.4115799597658863,0.20412276421103676,20.3999996185,0.0,1.1354155635685879,2.6253313317306324
1648294535764447539,15407,1,5,0.940302550793,1.20864868164,0.220058858395,-0.323675245047,20.3999996185,0.3144824584591973,0.40423032830769223,0.07359828039966555,20.3999996185,-0.04373989797932432,0.6009996603000922,1.5470702711305788
1648294535764450458,15408,1,6,1.02249801159,1.16030263901,-0.0402743965387,-0.161837622523,20.3999996185,0.3419725791270903,0.3880610832809364,-0.013469697839030098,20.3999996185,-0.021869948989594594,0.6200660401173749,1.547070271453637
1648294535764467600,15409,1,7,1.17323327065,1.21304368973,0.0205802358687,-0.0809188112617,20.3999996185,0.3923857092474916,0.4057002306789298,0.006883022029665551,20.3999996185,-0.010934974494824324,0.6874050965887952,1.687712904099
1648294535959423811,15410,3,0,0.00642727734521,0.0454158857465,0.00969059672207,0.0,15.0,0.002149591085354515,0.015189259446989964,0.0032410022481839463,15.0,0.0,0.015490483730873129,0.046880915488513926
1648294535959432220,15411,3,1,0.0335598774254,0.0146502861753,-0.0292732641101,0.0,15.0,0.01122403927270903,0.0048997612626421405,-0.009790389334481604,15.0,0.0,0.016612217661152825,0.046880915621238965
1648294535959437074,15412,3,2,0.300057113171,-0.5845464468,-0.601401984692,0.0,15.0,0.10035354955551838,-0.19550048387959865,-0.20113778752240802,15.0,0.0,0.2415825097434435,0.8907374286637427
1648294535959524813,15413,3,3,1.50279808044,-1.68478298187,0.630599319935,0.0,15.0,0.5026080536588629,-0.5634725691872909,0.2109027825869565,15.0,0.0,0.9070452289891762,2.3440459186789413
1648294535959529163,15414,3,4,2.23745036125,-1.2306240797,0.609708487988,0.0,15.0,0.7483111576086956,-0.4115799597658863,0.2039158822702341,15.0,0.0,1.1354898680676198,2.625331252417462
1648294535959594355,15415,3,5,0.974351942539,1.04456532001,0.267631739378,-0.485512852669,15.0,0.3258702148959866,0.34935294983612036,0.08950894293578594,15.0,-0.06560984495527027,0.5782994704060447,1.4533083511834681
1648294535959620160,15416,3,6,1.07382023335,1.11195671558,-0.0623593069613,-0.404594063759,15.0,0.35913720178929764,0.37189187812040136,-0.020855955505451503,15.0,-0.05467487348094594,0.6294939463013229,1.5470702356518928
1648294535959887159,15417,3,7,1.12070679665,1.17934799194,-0.213271185756,-0.404594063759,15.0,0.37481832663879594,0.39443076653511705,-0.07132815577123745,15.0,-0.05467487348094594,0.6607217156701407,1.6408321086644377
1648294535959896654,15418,3,8,1.01810991764,1.0782610178,0.226656839252,-0.323675245047,15.0,0.34050498917725747,0.3606224139799331,0.07580496296053511,15.0,-0.04373989797932432,0.6016110211539701,1.5001893046158297
1648294536061129805,15419,4,0,0.0126678450033,0.0439508594573,0.0102794887498,0.0,25.2000007629,0.004236737459297658,0.014699284099431437,0.0034379561036120398,25.2000007629,0.0,0.015873526439762208,0.046880915445629195
1648294536061135067,15420,4,1,0.0335509069264,0.0146502861753,-0.0292835440487,0.0,25.2000007629,0.011221039105819395,0.0048997612626421405,-0.009793827441036788,25.2000007629,0.0,0.016608163584802046,0.0468809150151135
1648294536061144745,15421,4,2,0.312732845545,-0.5845464468,-0.594909071922,0.0,25.2000007629,0.10459292493143812,-0.19550048387959865,-0.19896624478996655,25.2000007629,0.0,0.2451526036749031,0.890737438869768
1648294536061152616,15422,4,3,1.50816464424,-1.68478298187,0.617654383183,0.0,25.2000007629,0.5044028910501672,-0.5634725691872909,0.20657337230200667,25.2000007629,0.0,0.9090356919428741,2.344045909789206
1648294536061275440,15423,4,4,2.24106526375,-1.2306240797,0.596284806728,0.0,25.2000007629,0.7495201551003343,-0.4115799597658863,0.1994263567652174,25.2000007629,0.0,1.1370835453405115,2.6253313529265174
1648294536061281977,15424,4,5,0.603566586971,2.10964131355,1.75990748405,-0.647350490093,25.2000007629,0.20186173477290967,0.7055656567056856,0.5885978207525083,25.2000007629,-0.08747979595851352,0.761130222664678,2.812855035219553
1648294536061284035,15425,4,6,0.900595366955,1.05482065678,0.233065769076,-0.566431701183,25.2000007629,0.30120246386454846,0.352782828354515,0.07794841775117056,25.2000007629,-0.07654482448418919,0.553083693899902,1.4064274903689806
1648294536061286221,15426,4,7,0.989365756512,1.12514197826,0.0760182067752,-0.566431701183,25.2000007629,0.33089155736187287,0.37630166496989964,0.02542414942314381,25.2000007629,-0.07654482448418919,0.6004842949868463,1.5001892677801376
1648294536164439932,15427,5,0,0.00628323899582,0.0454158857465,0.00978460349143,0.0,26.6000003815,0.002101417724354515,0.015189259446989964,0.0032724426392742472,26.6000003815,0.0,0.01547725800820147,0.0468809154763667
1648294536164447748,15428,5,1,0.0335598774254,0.0146502861753,-0.0292732641101,0.0,26.6000003815,0.01122403927270903,0.0048997612626421405,-0.009790389334481604,26.6000003815,0.0,0.016612217661152825,0.046880915621238965
1648294536164451019,15429,5,2,0.271763235331,-0.5845464468,-0.614705920219,0.0,26.6000003815,0.09089071415752507,-0.19550048387959865,-0.20558726428729093,26.6000003815,0.0,0.2339715432211513,0.8907374320732038
1648294536164474631,15430,5,3,1.50559210777,-1.68478298187,0.623899102211,0.0,26.6000003815,0.5035425109598662,-0.5634725691872909,0.20866190709397991,26.6000003815,0.0,0.908081195110911,2.3440459425356344
1648294536164596411,15431,5,4,2.2416164875,-1.2306240797,0.594209492207,0.0,26.6000003815,0.7497045108695651,-0.4115799597658863,0.19873227164113713,26.6000003815,0.0,1.1373265892070037,2.6253314120693814
1648294536164598892,15432,5,5,1.71614253521,2.1609172821,-0.189483180642,0.485512852669,26.6000003815,0.5739607141170568,0.7227148100668895,-0.0633723012180602,26.6000003815,0.06560984495527027,1.0868203620606047,2.7659740738086582
1648294536164600977,15433,5,6,1.44671177864,-2.24735403061,0.712065339088,0.485512852669,26.6000003815,0.4838500931906354,-0.7516234216086956,0.23814894283879595,26.6000003815,0.06560984495527027,1.0164445844569865,2.7659739977962974
1648294536164604614,15434,5,7,1.00880730152,0.966918885708,0.159417927265,-0.647350490093,26.6000003815,0.3373937463277592,0.3233842427117057,0.05331703253010033,26.6000003815,-0.08747979595851352,0.5764082308194289,1.4064275234338717
1648294536164611210,15435,5,8,1.16453123093,1.01526486874,-0.0808121487498,-0.566431701183,26.6000003815,0.3894753280702341,0.3395534678060201,-0.02702747449826087,26.6000003815,-0.07654482448418919,0.6470537998110566,1.5470702456238212
1648294536164615686,15436,5,9,0.938888788223,0.934688270092,0.305307269096,-0.485512852669,26.6000003815,0.3140096281682274,0.31260477260602004,0.10210945454715717,26.6000003815,-0.06560984495527027,0.5430707477122648,1.3595465595047806
1648294536359330278,15437,7,0,0.0126577178016,0.0439508594573,0.0102919563651,0.0,30.1000003815,0.004233350435317726,0.014699284099431437,0.0034421258746153843,30.1000003815,0.0,0.01587171902637542,0.046880915443295264
1648294536359338609,15438,7,1,0.0334526263177,0.0146502861753,-0.0293957665563,0.0,30.1000003815,0.01118816933702341,0.0048997612626421405,-0.009831360052274246,30.1000003815,0.0,0.016563753398874007,0.0468809149228377
1648294536359351635,15439,7,2,0.314206033945,-0.5845464468,-0.594132304192,0.0,30.1000003815,0.1050856300819398,-0.19550048387959865,-0.19870645625150501,30.1000003815,0.0,0.2455736518777896,0.8907374333205308
1648294536359356347,15440,7,3,1.51617705822,-1.68478298187,0.597716331482,0.0,30.1000003815,0.507082628167224,-0.5634725691872909,0.19990512758595316,30.1000003815,0.0,0.9120125655957185,2.344045942551409
1648294536359360146,15441,7,4,2.2424492836,-1.2306240797,0.591059327126,0.0,30.1000003815,0.749983037993311,-0.4115799597658863,0.19767870472441468,30.1000003815,0.0,1.1376937979246617,2.6253315111121234
1648294536359512289,15442,7,5,0.986096322536,0.79111546278,0.0629389509559,-0.566431701183,30.1000003815,0.32979810118260866,0.26458711129765883,0.021049816373210704,30.1000003815,-0.07654482448418919,0.536227483958206,1.2657847148374268
1648294536464456564,15443,8,0,0.00631333654746,0.0454158857465,0.00976521056145,0.0,35.5999984741,0.0021114837951371236,0.015189259446989964,0.0032659567095150496,35.5999984741,0.0,0.015479997744903816,0.04688091545405326
1648294536464460020,15444,8,1,0.0335372425616,0.0146502861753,-0.0292991939932,0.0,35.5999984741,0.011216469084147156,0.0048997612626421405,-0.00979906153618729,35.5999984741,0.0,0.016601988370738802,0.04688091607791967
1648294536464464368,15445,8,2,0.297181010246,-0.5845464468,-0.602828383446,0.0,35.5999984741,0.09939164222274248,-0.19550048387959865,-0.2016148439618729,35.5999984741,0.0,0.24078587226958417,0.8907374255107147
1648294536464473876,15446,8,3,1.50896453857,-1.68478298187,0.615697741508,0.0,35.5999984741,0.5046704142374582,-0.5634725691872909,0.2059189770929766,35.5999984741,0.0,0.9093326070474663,2.3440459431416
1648294536464493223,15447,8,4,2.24220848083,-1.2306240797,0.591971635818,0.0,35.5999984741,0.7499025019498328,-0.4115799597658863,0.1979838246882943,35.5999984741,0.0,1.137587617786923,2.625331391397377
1648294536464609576,15448,8,5,1.40131795406,-1.97778868675,0.730413496494,0.566431701183,35.5999984741,0.46866821206020065,-0.6614677882107023,0.24428545033244145,35.5999984741,0.07654482448418919,0.9363970423019121,2.5315694684657157
1648294536464611778,15449,8,6,0.895169913769,0.695888638496,0.29672819376,-0.566431701183,35.5999984741,0.29938793102642136,0.23273867508227425,0.09924019858193979,35.5999984741,-0.07654482448418919,0.48314962213336654,1.1720229488696403
1648294536659400001,15450,10,0,0.00631333654746,0.0454158857465,0.00976521056145,0.0,38.9000015259,0.0021114837951371236,0.015189259446989964,0.0032659567095150496,38.9000015259,0.0,0.015479997744903816,0.04688091545405326
1648294536659408038,15451,10,1,0.0335372425616,0.0146502861753,-0.0292991939932,0.0,38.9000015259,0.011216469084147156,0.0048997612626421405,-0.00979906153618729,38.9000015259,0.0,0.016601988370738802,0.04688091607791967
1648294536659440328,15452,10,2,0.30488216877,-0.5845464468,-0.598970353603,0.0,38.9000015259,0.10196728052508361,-0.19550048387959865,-0.20032453297759195,38.9000015259,0.0,0.24293022000673237,0.8907374303327029
1648294536659444807,15453,10,3,1.51426589489,-1.68478298187,0.602541565895,0.0,38.9000015259,0.5064434431070234,-0.5634725691872909,0.20151891835953176,38.9000015259,0.0,0.9113019578376422,2.3440459114652556
1648294536659462560,15454,10,4,2.24206709862,-1.2306240797,0.59250664711,0.0,38.9000015259,0.7498552169297659,-0.4115799597658863,0.19816275823076923,38.9000015259,0.0,1.137525277079354,2.625331336635685
1648294536659605802,15455,10,5,0.500669956207,-1.2965502739,-2.39142203331,0.404594063759,38.9000015259,0.16744814588862877,-0.4336288541471572,-0.7998067001036789,38.9000015259,0.05467487348094594,0.49407666031907993,2.7659740344404935
1648294536659609858,15456,10,6,0.616318881512,1.2965502739,-2.36425900459,0.404594063759,38.9000015259,0.20612671622474915,0.4336288541471572,-0.7907220751137123,38.9000015259,0.05467487348094594,0.5225039994413182,2.765974008779415
1648294536659611514,15457,10,7,0.587576210499,0.632892370224,-0.721211433411,0.485512852669,38.9000015259,0.19651378277558526,0.21166968903812708,-0.241207837261204,38.9000015259,0.06560984495527027,0.3493413672885552,1.1251419853133502
1648294536659614874,15458,10,8,1.18596327305,0.435113489628,-0.079865321517,-0.647350490093,38.9000015259,0.39664323513377925,0.14552290623010034,-0.026710809871906355,38.9000015259,-0.08747979595851352,0.5795072287663334,1.2657847777014615
1648294536764478167,15459,11,0,0.00631333654746,0.0454158857465,0.00976521056145,0.0,24.6000003815,0.0021114837951371236,0.015189259446989964,0.0032659567095150496,24.6000003815,0.0,0.015479997744903816,0.04688091545405326
1648294536764497129,15460,11,1,0.0335509069264,0.0146502861753,-0.0292835440487,0.0,24.6000003815,0.011221039105819395,0.0048997612626421405,-0.009793827441036788,24.6000003815,0.0,0.016608163584802046,0.0468809150151135
1648294536764503832,15461,11,2,0.310653299093,-0.5845464468,-0.59599763155,0.0,24.6000003815,0.10389742444581938,-0.19550048387959865,-0.1993303115551839,24.6000003815,0.0,0.24456039910440672,0.8907374458936145
1648294536764524906,15462,11,3,1.5117251873,-1.68478298187,0.608888030052,0.0,24.6000003815,0.5055937081270903,-0.5634725691872909,0.20364148162274245,24.6000003815,0.0,0.910357804174781,2.3440459404748433
1648294536764601800,15463,11,4,2.24064993858,-1.2306240797,0.59784424305,0.0,24.6000003815,0.749381250361204,-0.4115799597658863,0.1999479073745819,24.6000003815,0.0,1.1369004266279135,2.625331505113984
1648294536764635395,15464,11,5,1.11843597889,0.263705164194,-0.810924768448,0.161837622523,24.6000003815,0.37405885581605347,0.0881957070882943,-0.27121229713979933,24.6000003815,0.021869948989594594,0.5363007905808403,1.4064275425988568
1648294536764638963,15465,11,6,1.18375349045,0.266635209322,-0.115584224463,-0.323675245047,24.6000003815,0.39590417740802675,0.0891756552916388,-0.038656931258528426,24.6000003815,-0.04373989797932432,0.5669502031703895,1.2189037590997323
1648294536959416068,15466,13,0,0.0126577178016,0.0439508594573,0.0102919563651,0.0,29.2000007629,0.004233350435317726,0.014699284099431437,0.0034421258746153843,29.2000007629,0.0,0.01587171902637542,0.046880915443295264
1648294536959421486,15467,13,1,0.0335509069264,0.0146502861753,-0.0292835440487,0.0,29.2000007629,0.011221039105819395,0.0048997612626421405,-0.009793827441036788,29.2000007629,0.0,0.016608163584802046,0.0468809150151135
1648294536959424724,15468,13,2,1.49673449993,-1.68478298187,0.644859313965,0.0,29.2000007629,0.5005801003110367,-0.5634725691872909,0.21567201135953173,29.2000007629,0.0,0.9047995412694138,2.3440459453873523
1648294536959514934,15469,13,3,2.24244379997,-1.2306240797,0.591079294682,0.0,29.2000007629,0.7499812040033444,-0.4115799597658863,0.1976853828367893,29.2000007629,0.0,1.1376913799433925,2.6253313227406436
1648294536959526890,15470,13,4,2.22473311424,0.079111546278,-1.20546615124,-0.566431701183,29.2000007629,0.7440578977391304,0.026458711129765885,-0.4031659368695652,29.2000007629,-0.07654482448418919,1.0525893661683063,2.5315696135275214
1648294536959558425,15471,13,5,0.824036955833,0.158223092556,0.0895671322942,-0.485512852669,29.2000007629,0.27559764409130433,0.05291742225953177,0.02995556264020067,29.2000007629,-0.06560984495527027,0.3933298570359846,0.843856458637314
1648294536959563325,15472,13,6,1.63810026646,0.0864366889,-2.22705388069,-0.404594063759,29.2000007629,0.547859620889632,0.02890859160535117,-0.7448340738093646,29.2000007629,-0.05467487348094594,0.7753296299453979,2.7659741090004273
1648294536959565852,15473,13,7,1.41390097141,-0.9508035779,-2.1788687706,-0.404594063759,29.2000007629,0.47287657906688957,-0.3179945076588629,-0.7287186523745819,29.2000007629,-0.05467487348094594,0.7405032241396463,2.765974063543897
1648294536959568994,15474,13,8,0.860136210918,0.0879017189145,0.362721711397,-0.323675245047,29.2000007629,0.28767097355117055,0.02939856819882943,0.12131160916287624,29.2000007629,-0.04373989797932432,0.4078890214995958,0.9376182877052188
1648294537061149617,15475,14,0,0.012678119354,0.0439508594573,0.0102668134496,0.0,42.0999984741,0.004240173696989966,0.014699284099431437,0.003433716872775919,42.0999984741,0.0,0.015875361381621805,0.04688091526195381
1648294537061155283,15476,14,1,0.0335509069264,0.0146502861753,-0.0292835440487,0.0,42.0999984741,0.011221039105819395,0.0048997612626421405,-0.009793827441036788,42.0999984741,0.0,0.016608163584802046,0.0468809150151135
1648294537061162643,15477,14,2,1.49183106422,-1.68478298187,0.656123220921,0.0,42.0999984741,0.498940155257525,-0.5634725691872909,0.21943920432140465,42.0999984741,0.0,0.9029860980565164,2.344045925574474
1648294537061172348,15478,14,3,2.24136424065,-1.2306240797,0.595159649849,0.0,42.0999984741,0.7496201473745818,-0.4115799597658863,0.19905005011672242,42.0999984741,0.0,1.1372153683364765,2.625331273117815
1648294537061274608,15479,14,4,0.727860808372,0.377977371216,-1.84149980545,0.566431701183,42.0999984741,0.2434317084856187,0.1264138365270903,-0.6158862225585284,42.0999984741,0.07654482448418919,0.36674030519967726,2.015879406856394
1648294537061277475,15480,14,5,1.25441741943,1.57490575314,-0.0993918925524,0.566431701183,42.0999984741,0.41953759847157185,0.5267243321538461,-0.033241435636254174,42.0999984741,0.07654482448418919,0.7933864853559726,2.0158794462338365
1648294537061361266,15481,14,6,0.791815161705,-1.47528386116,-1.83582222462,-0.566431701183,42.0999984741,0.2648211243160535,-0.49340597363210703,-0.6139873660936455,42.0999984741,-0.07654482448418919,0.6194432262797656,2.484688503960567
1648294537061362545,15482,14,7,0.54251986742,-2.40704202652,0.292400091887,-0.566431701183,42.0999984741,0.18144477171237458,-0.8050307781003344,0.09779267287190635,42.0999984741,-0.07654482448418919,0.8449372545061209,2.4846884991311184
1648294537061363686,15483,14,8,1.2589956522,0.169943317771,-2.40406250954,-0.323675245047,42.0999984741,0.42106878,0.05683723002374581,-0.8040342841270903,42.0999984741,-0.04373989797932432,0.598187517170117,2.719093108609796
1648294537061364663,15484,14,9,2.63257646561,-0.679773271084,0.0302841886878,-0.323675245047,42.0999984741,0.8804603563913044,-0.22734892009498325,0.01012849119993311,42.0999984741,-0.04373989797932432,1.265744211846043,2.7190931722632015
1648294537061603607,15485,14,10,0.835401296616,-0.0556710883975,0.30400416255,-0.242756426334,42.0999984741,0.2793984269618729,-0.018619093109531772,0.10167363295986621,42.0999984741,-0.03280492247756756,0.3955674817344816,0.8907374064890187
1648294537164524115,15486,15,0,0.00631333654746,0.0454158857465,0.00976521056145,0.0,43.0999984741,0.0021114837951371236,0.015189259446989964,0.0032659567095150496,43.0999984741,0.0,0.015479997744903816,0.04688091545405326
1648294537164533807,15487,15,1,0.0335509069264,0.0146502861753,-0.0292835440487,0.0,43.0999984741,0.011221039105819395,0.0048997612626421405,-0.009793827441036788,43.0999984741,0.0,0.016608163584802046,0.0468809150151135
1648294537164536739,15488,15,2,1.49818861485,-1.68478298187,0.641473710537,0.0,43.0999984741,0.5010664263712374,-0.5634725691872909,0.21453970252073576,43.0999984741,0.0,0.9053377621083811,2.3440459344848676
1648294537164539436,15489,15,3,2.19716215134,-1.31266570091,0.584595859051,0.0,43.0999984741,0.7348368399130435,-0.4390186290668896,0.19551700971605349,43.0999984741,0.0,1.1281434834517048,2.6253314228961906
1648294537164541086,15490,15,4,0.787166416645,-0.124527432024,-0.0056522237137,0.0809188112617,43.0999984741,0.26326636008193977,-0.04164797057658863,-0.0018903758239799328,43.0999984741,0.010934974494824324,0.37463703254581693,0.7969755306489223
1648294537164622659,15491,15,5,0.882722616196,-0.234404578805,0.212092921138,0.161837622523,43.0999984741,0.2952249552494983,-0.07839618020234114,0.07093408733712374,43.0999984741,0.021869948989594594,0.42480761466157185,0.9376183290153356
1648294537164625541,15492,15,6,0.85869115591,-1.55879044533,0.0804642438889,-0.647350490093,43.0999984741,0.2871876775618729,-0.5213345971003345,0.026911118357491638,43.0999984741,-0.08747979595851352,0.6608655585068212,1.7814748519793269
1648294537164627574,15493,15,7,1.00927591324,1.66134238243,0.313462346792,-0.566431701183,43.0999984741,0.33755047265551835,0.5556329038227424,0.10483690528160536,43.0999984741,-0.07654482448418919,0.7325357103857945,1.9689984823663456
1648294537164635458,15494,15,8,2.2027053833,-0.83799636364,0.623503506184,-0.404594063759,43.0999984741,0.7366907636454849,-0.28026634235451503,0.20852960073043475,43.0999984741,-0.05467487348094594,1.0788770945468782,2.4378075258962517
1648294537164638506,15495,15,9,1.22654688358,-0.0439508594573,-0.686796486378,-0.161837622523,43.0999984741,0.4102163490234113,-0.014699284099431437,-0.22969782153110366,43.0999984741,-0.021869948989594594,0.5803197178842282,1.4064275130158723
1648294537164646486,15496,15,10,0.877218365669,-0.111342176795,0.107256837189,-0.0809188112617,43.0999984741,0.29338406878561873,-0.037238186219063545,0.03587185190267558,43.0999984741,-0.010934974494824324,0.4165754507256698,0.8907374307416457
1648294537359442692,15497,17,0,0.00631333654746,0.0454158857465,0.00976521056145,0.0,28.2000007629,0.0021114837951371236,0.015189259446989964,0.0032659567095150496,28.2000007629,0.0,0.015479997744903816,0.04688091545405326
1648294537359448842,15498,17,1,0.0335372425616,0.0146502861753,-0.0292991939932,0.0,28.2000007629,0.011216469084147156,0.0048997612626421405,-0.00979906153618729,28.2000007629,0.0,0.016601988370738802,0.04688091607791967
1648294537359452640,15499,17,2,1.50747561455,-1.68478298187,0.619334280491,0.0,28.2000007629,0.5041724463377926,-0.5634725691872909,0.20713521086655518,28.2000007629,0.0,0.9087799775077546,2.3440459414126193
1648294537359455553,15500,17,3,0.723846256733,-0.323771327734,0.0799293890595,0.0809188112617,28.2000007629,0.2420890490745819,-0.10828472499464883,0.026732237143645483,28.2000007629,0.010934974494824324,0.35908188067742625,0.7969755223872552
1648294537359502927,15501,17,4,0.779447555542,-0.46880915761,0.227612763643,0.161837622523,28.2000007629,0.26068480118461534,-0.15679236040468228,0.07612467011471571,28.2000007629,0.021869948989594594,0.4006207376292404,0.9376183062806533
1648294537359520148,15502,17,5,0.52522444725,-0.146502867341,-0.762760937214,0.161837622523,28.2000007629,0.1756603502508361,-0.04899761449531772,-0.2551039923792642,28.2000007629,0.021869948989594594,0.2532071948557635,0.9376182898534895
1648294537359545494,15503,17,6,0.881972372532,-0.386767566204,-0.58179038763,0.161837622523,28.2000007629,0.2949740376361204,-0.1293537010715719,-0.19457872495986622,28.2000007629,0.021869948989594594,0.43675135459392034,1.1251419782924093
1648294537359549725,15504,17,7,1.83653008938,-1.39177727699,0.429725676775,-0.242756426334,28.2000007629,0.6142241101605351,-0.4654773501638796,0.14372096213210703,28.2000007629,-0.03280492247756756,0.9855007247691852,2.3440458432427347
