%time,field.header.seq,field.header.frame_id,field.point_id,field.x,field.y,field.z,field.velocity,field.intensity,normalized_x,normalized_y,normalized_z,normalized_intensity,normalized_velocity,normalized_range,range
1648127143608341751,97117,0,0,0.0126303331926,0.0439508594573,0.0103255445138,0.0,19.5,0.004224191703210702,0.014699284099431437,0.003453359369163879,19.5,0.0,0.015866837874218862,0.04688091544645748
1648127143608349590,97118,0,1,0.0327995419502,0.0146502861753,-0.0301227364689,0.0,19.5,0.010969746471638795,0.0048997612626421405,-0.010074493802307691,19.5,0.0,0.016268937756809817,0.046880913915322876
1648127143608353863,97119,0,2,0.655759036541,0.398487776518,0.215308129787,0.0,19.5,0.21931740352541804,0.1332735038521739,0.0720094079555184,19.5,0.0,0.3375826918064632,0.7969755408993526
1648127143608357231,97120,0,3,2.42232179642,-0.902457654476,0.458577185869,0.0,19.5,0.8101410690367892,-0.30182530250033446,0.1533702962772575,19.5,0.0,1.1848019314254858,2.6253315483826554
1648127143608430771,97121,0,4,0.678924322128,0.501039743423,0.0107078906149,0.161837622523,19.5,0.22706499067826086,0.16757182054280934,0.0035812343193645482,19.5,0.021869948989594594,0.36221172678899954,0.8438564561510273
1648127143608434816,97122,0,5,1.19852375984,0.509829938412,-2.3868560791,0.161837622523,19.5,0.4008440668361204,0.1705116850876254,-0.7982796251170569,19.5,0.021869948989594594,0.5919680452413474,2.7190931781273733
1648127143608456156,97123,0,6,1.37874543667,-0.594801604748,-2.26687884331,0.161837622523,19.5,0.46111887514046823,-0.19893030259130434,-0.7581534593010032,19.5,0.021869948989594594,0.68178772305659,2.71909316103653
1648127143608461218,97124,0,7,1.29108452797,-1.58223104477,0.529369413853,0.242756426334,19.5,0.4318008454749164,-0.529174262464883,0.17704662670668894,19.5,0.03280492247756756,0.8080404323800623,2.1096412760752843
1648127143608464599,97125,0,8,2.06331562996,0.395557761192,0.19196075201,0.242756426334,19.5,0.6900721170434782,0.1322935656160535,0.06420092040468227,19.5,0.03280492247756756,0.9848353369701682,2.1096412637196647
1648127143608489244,97126,0,9,0.824405014515,0.779395282269,-0.660295844078,0.485512852669,19.5,0.2757207406404682,0.2606673184846154,-0.22083473046086954,19.5,0.06560984495527027,0.46903230652548505,1.3126656983738587
1648127143608492728,97127,0,10,1.13150584698,0.580151319504,0.881218194962,-0.242756426334,19.5,0.3784300491571906,0.19403054164013378,0.2947218043351171,19.5,-0.03280492247756756,0.5692683508674894,1.5470703094572802
1648127143608495546,97128,0,11,0.633564651012,0.263705164194,0.153508886695,-0.0809188112617,19.5,0.21189453211103676,0.0881957070882943,0.05134076478093646,19.5,-0.010934974494824324,0.31237328347013704,0.7032137363055988
1648127143704240080,97129,1,0,0.0125994505361,0.0439508594573,0.0103632062674,0.0,18.2000007629,0.004213863055551839,0.014699284099431437,0.003465955273377926,18.2000007629,0.0,0.01586134410249293,0.04688091557326548
1648127143704265566,97130,1,1,0.0328872464597,0.0146502861753,-0.0300269592553,0.0,18.2000007629,0.010999079083511706,0.0048997612626421405,-0.010042461289397992,18.2000007629,0.0,0.0163084990664861,0.0468809145264753
1648127143704268215,97131,1,2,0.483287721872,-1.53828001022,0.304068267345,0.0,18.2000007629,0.16163468958929764,-0.51447491980602,0.10169507269063544,18.2000007629,0.0,0.56297068206672,1.640832082560815
1648127143704399675,97132,1,3,2.42501592636,-0.902457654476,0.444109350443,0.0,18.2000007629,0.8110421158394648,-0.30182530250033446,0.14853155533210702,18.2000007629,0.0,1.186034207162732,2.6253314412418245
1648127143704404987,97133,1,4,0.685604691505,0.474669247866,0.129340797663,0.0809188112617,18.2000007629,0.22929922792809365,0.15875225681137123,0.04325779186053511,18.2000007629,0.010934974494824324,0.3610520058101648,0.8438564628083626
1648127143704407847,97134,1,5,1.35398173332,-1.51630473137,0.564038693905,0.242756426334,18.2000007629,0.45283670010702337,-0.5071253282173913,0.18864170364715718,18.2000007629,0.03280492247756756,0.8168832550904893,2.109641254043288
1648127143704412509,97135,1,6,1.40180158615,0.6914935112,-2.28197312355,0.242756426334,18.2000007629,0.46882996192307685,0.23126873284280935,-0.7632017135618728,18.2000007629,0.03280492247756756,0.7022024588281546,2.7659740236612675
1648127143704415302,97136,1,7,1.74399089813,-0.5186201334,-2.08330059052,0.242756426334,18.2000007629,0.5832745478695652,-0.17345154963210702,-0.6967560503411371,18.2000007629,0.03280492247756756,0.8429138962282392,2.7659740501293753
1648127143704510344,97137,1,8,0.615368843079,0.225614413619,0.0345273986459,-0.0809188112617,18.2000007629,0.20580897761839462,0.07545632562508361,0.011547624965183946,18.2000007629,-0.010934974494824324,0.30067977586378564,0.6563328560435513
1648127143808336156,97138,2,0,0.0126097733155,0.0439508594573,0.0103506427258,0.0,19.1000003815,0.004217315490133779,0.014699284099431437,0.0034617534199999998,19.1000003815,0.0,0.01586317915559307,0.04688091546611253
1648127143808345291,97139,2,1,0.0328872464597,0.0146502861753,-0.0300269592553,0.0,19.1000003815,0.010999079083511706,0.0048997612626421405,-0.010042461289397992,19.1000003815,0.0,0.0163084990664861,0.0468809145264753
1648127143808348964,97140,2,2,0.479580253363,-1.53828001022,0.309882760048,0.0,19.1000003815,0.16039473356622072,-0.51447491980602,0.10363971907959867,19.1000003815,0.0,0.5622609574040941,1.6408320859347945
1648127143808351951,97141,2,3,1.89154589176,-1.24527442455,0.604894220829,0.0,19.1000003815,0.6326240440668897,-0.4164797406521739,0.20230575947458193,19.1000003815,0.0,0.9868544657834781,2.3440459192312746
1648127143808354552,97142,2,4,2.42438673973,-0.902457654476,0.447531700134,0.0,19.1000003815,0.8108316855284281,-0.30182530250033446,0.1496761538909699,19.1000003815,0.0,1.185746413759351,2.625331503739254
1648127143808456745,97143,2,5,0.664640665054,0.501039743423,0.138944864273,0.0809188112617,19.1000003815,0.22228784784414715,0.16757182054280934,0.046469854271906356,19.1000003815,0.010934974494824324,0.35623600272627826,0.8438564531012674
1648127143808459798,97144,2,6,0.869493305683,0.461484014988,-0.0158913768828,0.0809188112617,19.1000003815,0.29080043668327754,0.15434247992909697,-0.005314841766822741,19.1000003815,0.010934974494824324,0.43926232374406243,0.984499182618364
1648127143808463339,97145,2,7,1.36756050587,-1.4489133358,0.306917250156,0.242756426334,19.1000003815,0.45737809560869563,-0.4845863999331103,0.10264790975117057,19.1000003815,0.03280492247756756,0.8082161986036945,2.0158794086744907
1648127143808473199,97146,2,8,1.19747364521,-0.6050568223,-2.41879630089,0.242756426334,19.1000003815,0.4004928579297659,-0.20236014123745819,-0.808961973541806,19.1000003815,0.03280492247756756,0.6014471591645831,2.7659740480314428
1648127143808568976,97147,2,9,1.20579218864,0.864366889,-2.33442664146,0.242756426334,19.1000003815,0.40327497947826085,0.2890859160535117,-0.7807446961404682,19.1000003815,0.03280492247756756,0.63939978495999,2.765974089781572
1648127144003479176,97148,4,0,0.0126200793311,0.0439508594573,0.0103380745277,0.0,11.6999998093,0.004220762318093645,0.014699284099431437,0.0034575500092642137,11.6999998093,0.0,0.015865012515831067,0.0468809154592663
1648127144003486304,97149,4,1,0.0328872464597,0.0146502861753,-0.0300269592553,0.0,11.6999998093,0.010999079083511706,0.0048997612626421405,-0.010042461289397992,11.6999998093,0.0,0.0163084990664861,0.0468809145264753
1648127144003618295,97150,4,2,1.88763570786,-1.24527442455,0.616988122463,0.0,11.6999998093,0.6313162902541806,-0.4164797406521739,0.20635054262976588,11.6999998093,0.0,0.9851781011849094,2.344045925592516
1648127144003621853,97151,4,3,2.42431998253,-0.902457654476,0.447892040014,0.0,11.6999998093,0.8108093587056856,-0.30182530250033446,0.14979666890100335,11.6999998093,0.0,1.1857158789351134,2.6253313077256526
1648127144003622922,97152,4,4,0.632011532784,0.612381994724,0.137705683708,0.161837622523,11.6999998093,0.21137509457658862,0.20481003168026754,0.04605541261137123,11.6999998093,0.021869948989594594,0.3623617119556035,0.890737413809263
1648127144003624006,97153,4,5,0.515619874001,0.461484014988,0.125212684274,0.323675245047,11.6999998093,0.17244811839498325,0.15434247992909697,0.04187715193110368,11.6999998093,0.04373989797932432,0.2886144628853586,0.7032137419429118
1648127144108361061,97154,5,0,0.0126097733155,0.0439508594573,0.0103506427258,0.0,36.0,0.004217315490133779,0.014699284099431437,0.0034617534199999998,36.0,0.0,0.01586317915559307,0.04688091546611253
1648127144108364508,97155,5,1,0.0327995419502,0.0146502861753,-0.0301227364689,0.0,36.0,0.010969746471638795,0.0048997612626421405,-0.010074493802307691,36.0,0.0,0.016268937756809817,0.046880913915322876
1648127144108371683,97156,5,2,0.589169442654,0.580151319504,0.168515622616,0.0,36.0,0.19704663633913042,0.19403054164013378,0.05635974000535117,36.0,0.0,0.3395623725831452,0.8438564455789358
1648127144108380159,97157,5,3,1.89490258694,-1.24527442455,0.5942953825,0.0,36.0,0.6337466845953177,-0.4164797406521739,0.19876099749163878,36.0,0.0,0.9882940325858576,2.344045905713252
1648127144108387463,97158,5,4,2.42296910286,-0.902457654476,0.455144375563,0.0,36.0,0.8103575594849497,-0.30182530250033446,0.15222219918494984,36.0,0.0,1.18509799664763,2.6253315017618535
1648127144303469559,97159,7,0,0.0126097733155,0.0439508594573,0.0103506427258,0.0,13.8000001907,0.004217315490133779,0.014699284099431437,0.0034617534199999998,13.8000001907,0.0,0.01586317915559307,0.04688091546611253
1648127144303492778,97160,7,1,0.0329001024365,0.0146502861753,-0.0300128757954,0.0,13.8000001907,0.011003378741304349,0.0048997612626421405,-0.010037751102140467,13.8000001907,0.0,0.016314298877980183,0.04688091657444943
1648127144303590768,97161,7,2,1.86805534363,-1.31852579117,0.516149222851,0.0,13.8000001907,0.6247676734548495,-0.44097852547491634,0.17262515814414714,13.8000001907,0.0,0.9874873930934016,2.3440458717983237
1648127144303594732,97162,7,3,2.42539906502,-0.902457654476,0.442012429237,0.0,13.8000001907,0.8111702558595317,-0.30182530250033446,0.14783024389197325,13.8000001907,0.0,1.186209459249021,2.6253314896070186
1648127144303600879,97163,7,4,0.464303940535,0.527410328388,0.0277451705188,-0.404594063759,13.8000001907,0.15528559884113713,0.1763914141765886,0.009279321243745819,13.8000001907,-0.05467487348094594,0.281675638652188,0.7032137642095638
1648127144303603964,97164,7,5,0.852267742157,0.580151319504,-0.0284464731812,-0.161837622523,13.8000001907,0.2850393786478261,0.19403054164013378,-0.009513870629163878,13.8000001907,-0.021869948989594594,0.4473731617442437,1.031380172235278
1648127144303609496,97165,7,6,0.5759100914,0.553780794144,0.271566092968,-0.0809188112617,13.8000001907,0.19261207070234113,0.18521096794113712,0.09082478025685618,13.8000001907,-0.010934974494824324,0.32939629962429784,0.8438564713202241
1648127144303972492,97166,7,7,0.791341841221,0.584546387196,0.0363639779389,-0.0809188112617,13.8000001907,0.2646628231508361,0.1955004639451505,0.012161865531404682,13.8000001907,-0.010934974494824324,0.4222715374248075,0.9844992266845511
