%time,field.header.seq,field.header.frame_id,field.point_id,field.x,field.y,field.z,field.velocity,field.intensity,normalized_x,normalized_y,normalized_z,normalized_intensity,normalized_velocity,normalized_range,range
1648294555064318642,16254,0,0,0.00628323899582,0.0454158857465,0.00978460349143,0.0,15.0,0.002101417724354515,0.015189259446989964,0.0032724426392742472,15.0,0.0,0.01547725800820147,0.0468809154763667
1648294555064349027,16255,0,1,0.0335877910256,0.0146502861753,-0.0292412284762,0.0,15.0,0.011233374924949833,0.0048997612626421405,-0.009779675075652174,15.0,0.0,0.016624833377807784,0.04688091332082697
1648294555064354701,16256,0,2,0.373122513294,-0.5845464468,-0.559015393257,0.0,15.0,0.12479013822541804,-0.19550048387959865,-0.18696166998561872,15.0,0.0,0.26337349220032585,0.890737429488407
1648294555064449775,16257,0,3,1.50289356709,-1.68478298187,0.63037186861,0.0,15.0,0.5026399889933111,-0.5634725691872909,0.210826711909699,15.0,0.0,0.9070806211671144,2.34404596003025
1648294555064462005,16258,0,4,2.23605060577,-1.2306240797,0.614822626114,0.0,15.0,0.7478430119632107,-0.4115799597658863,0.2056262963591973,15.0,0.0,1.1348728582380065,2.625331369310086
1648294555064681176,16259,0,5,0.790018975735,1.10463154316,0.063451603055,-0.0809188112617,15.0,0.26422039322240803,0.3694419876789297,0.021221271924749163,15.0,-0.010934974494824324,0.525463809076673,1.35954659136628
1648294555259403336,16260,2,0,0.00631333654746,0.0454158857465,0.00976521056145,0.0,17.5,0.0021114837951371236,0.015189259446989964,0.0032659567095150496,17.5,0.0,0.015479997744903816,0.04688091545405326
1648294555259414654,16261,2,1,0.0335509069264,0.0146502861753,-0.0292835440487,0.0,17.5,0.011221039105819395,0.0048997612626421405,-0.009793827441036788,17.5,0.0,0.016608163584802046,0.0468809150151135
1648294555259611250,16262,2,2,0.365866959095,-0.5845464468,-0.563790738583,0.0,17.5,0.12236353146989966,-0.19550048387959865,-0.1885587754458194,17.5,0.0,0.26108639731844985,0.8907374344529887
1648294555259614420,16263,2,3,1.49917376041,-1.68478298187,0.639167845249,0.0,17.5,0.5013959064916388,-0.5634725691872909,0.2137685101167224,17.5,0.0,0.9057025153546118,2.3440459027717178
1648294555259618909,16264,2,4,2.23722815514,-1.2306240797,0.610524237156,0.0,17.5,0.7482368411839464,-0.4115799597658863,0.20418870807892975,17.5,0.0,1.1353919166044601,2.625331462471647
1648294555259656422,16265,2,5,0.783163964748,1.10463154316,0.121697500348,-0.323675245047,17.5,0.26192774740735786,0.3694419876789297,0.04070150513311037,17.5,-0.04373989797932432,0.52316314088814,1.35954658743818
1648294555364400249,16266,3,0,0.0126678450033,0.0439508594573,0.0102794887498,0.0,30.5,0.004236737459297658,0.014699284099431437,0.0034379561036120398,30.5,0.0,0.015873526439762208,0.046880915445629195
1648294555364409846,16267,3,1,0.033601410687,0.0146502861753,-0.0292255785316,0.0,30.5,0.011237929995652172,0.0048997612626421405,-0.009774440980468226,30.5,0.0,0.01663098919503125,0.04688091430082548
1648294555364416645,16268,3,2,0.356556236744,-0.5845464468,-0.569724738598,0.0,30.5,0.11924957750635451,-0.19550048387959865,-0.1905433908354515,30.5,0.0,0.2581886183936955,0.8907374339265798
1648294555364421335,16269,3,3,1.5072491169,-1.68478298187,0.619885325432,0.0,30.5,0.5040966946153845,-0.5634725691872909,0.2073195068334448,30.5,0.0,0.9086959289392897,2.344045949438819
1648294555364425526,16270,3,4,2.23874568939,-1.2306240797,0.604935348034,0.0,30.5,0.748744377722408,-0.4115799597658863,0.20231951439264212,30.5,0.0,1.136060891687906,2.6253313433928285
1648294555364431031,16271,3,5,0.886326611042,1.01965987682,0.15194003284,-0.323675245047,30.5,0.29643030469632103,0.34102337017391304,0.05081606449498327,30.5,-0.04373989797932432,0.5404061343929037,1.3595465786125882
1648294555364511043,16272,3,6,1.08662497997,1.03138017654,-0.0779040381312,-0.323675245047,30.5,0.36341972574247494,0.34494320285618724,-0.026054862251237456,30.5,-0.04373989797932432,0.6189778730408351,1.5001893063249159
1648294555559501130,16273,5,0,0.0126556539908,0.0439508594573,0.0102944942191,0.0,22.2000007629,0.004232660197591973,0.014699284099431437,0.003442974655217391,22.2000007629,0.0,0.01587135084774943,0.04688091547951333
1648294555559634743,16274,5,1,0.0335509069264,0.0146502861753,-0.0292835440487,0.0,22.2000007629,0.011221039105819395,0.0048997612626421405,-0.009793827441036788,22.2000007629,0.0,0.016608163584802046,0.0468809150151135
1648294555559637482,16275,5,2,0.360310196877,-0.5845464468,-0.567358076572,0.0,22.2000007629,0.12050508256755851,-0.19550048387959865,-0.1897518650742475,22.2000007629,0.0,0.2593518633948586,0.8907374324072875
1648294555559776082,16276,5,3,1.50746941566,-1.68478298187,0.619349360466,0.0,22.2000007629,0.5041703731304347,-0.5634725691872909,0.20714025433645483,22.2000007629,0.0,0.9087776771639419,2.3440459392807798
1648294555559780043,16277,5,4,2.23984146118,-1.2306240797,0.600865662098,0.0,22.2000007629,0.7491108565819398,-0.4115799597658863,0.2009584154173913,22.2000007629,0.0,1.1365439781102813,2.6253313963473066
1648294555559781143,16278,5,5,0.768927574158,0.879017233849,0.0985742658377,-0.647350490093,22.2000007629,0.25716641276187285,0.29398569693946486,0.032967981885518395,22.2000007629,-0.08747979595851352,0.46765020871437957,1.1720229509653366
1648294555559782134,16279,5,6,0.810040354729,0.909782767296,0.344007134438,-0.485512852669,22.2000007629,0.2709165065983278,0.30427517300869567,0.11505255332374582,22.2000007629,-0.06560984495527027,0.48925953031530744,1.265784724391354
1648294555664500685,16280,6,0,0.0126351611689,0.0439508594573,0.0103196371347,0.0,37.2999992371,0.0042258064110033446,0.014699284099431437,0.003451383657090301,37.2999992371,0.0,0.015867697775113813,0.04688091568422373
1648294555664504605,16281,6,1,0.033601410687,0.0146502861753,-0.0292255785316,0.0,37.2999992371,0.011237929995652172,0.0048997612626421405,-0.009774440980468226,37.2999992371,0.0,0.01663098919503125,0.04688091430082548
1648294555664510759,16282,6,2,0.344161957502,-0.612381994724,-0.547680556774,0.0,37.2999992371,0.11510433361270903,-0.20481003168026754,-0.183170754773913,37.2999992371,0.0,0.26162026739097227,0.890737420748692
1648294555664520470,16283,6,3,1.51651024818,-1.68478298187,0.596870183945,0.0,37.2999992371,0.5071940629364547,-0.5634725691872909,0.1996221350986622,37.2999992371,0.0,0.912136487145703,2.344045870992347
1648294555664524596,16284,6,4,2.24174642563,-1.2306240797,0.593718528748,0.0,37.2999992371,0.7497479684381271,-0.4115799597658863,0.1985680698153846,37.2999992371,0.0,1.1373838822645088,2.6253312845698242
1648294555664625619,16285,6,5,0.873988628387,0.732514321804,0.270563155413,-0.485512852669,37.2999992371,0.2923038890926421,0.24498806749297658,0.09048934963645484,37.2999992371,-0.06560984495527027,0.48052292387700973,1.1720229414413366
1648294555664627818,16286,6,6,1.10591292381,0.69735366106,0.117242373526,-0.0809188112617,37.2999992371,0.36987054308026757,0.23322864918394645,0.039211496162541805,37.2999992371,-0.010934974494824324,0.5727163696605436,1.3126657220304712
1648294555859454566,16287,8,0,0.00628323899582,0.0454158857465,0.00978460349143,0.0,12.6999998093,0.002101417724354515,0.015189259446989964,0.0032724426392742472,12.6999998093,0.0,0.01547725800820147,0.0468809154763667
1648294555859543867,16288,8,1,0.0335509069264,0.0146502861753,-0.0292835440487,0.0,12.6999998093,0.011221039105819395,0.0048997612626421405,-0.009793827441036788,12.6999998093,0.0,0.016608163584802046,0.0468809150151135
1648294555859546117,16289,8,2,0.377872735262,-0.5845464468,-0.555815458298,0.0,12.6999998093,0.12637884122474916,-0.19550048387959865,-0.18589145762474918,12.6999998093,0.0,0.2648842430492571,0.8907374339298347
1648294555859547244,16290,8,3,1.51393389702,-1.68478298187,0.603375375271,0.0,12.6999998093,0.5063324070301003,-0.5634725691872909,0.20179778437157192,12.6999998093,0.0,0.911178549486497,2.344045943241803
1648294555859548363,16291,8,4,2.24021100998,-1.2306240797,0.599486112595,0.0,12.6999998093,0.7492344514983277,-0.4115799597658863,0.2004970276237458,12.6999998093,0.0,1.1367069058930224,2.6253313303214414
1648294555859549393,16292,8,5,0.787473082542,0.64461261034,0.167647629976,-0.485512852669,12.6999998093,0.26336892392709027,0.21558950178595315,0.056069441463545144,12.6999998093,-0.06560984495527027,0.4303547530367737,1.0313801437753773
1648294555859550304,16293,8,6,1.15713322163,0.615312039852,-0.0743297040462,-0.485512852669,12.6999998093,0.38700107746822743,0.20578997988361203,-0.024859432791371237,12.6999998093,-0.06560984495527027,0.58471290711223,1.3126656481717833
1648294555961129902,16294,9,0,0.012665912509,0.0439508594573,0.0102818692103,0.0,23.6000003815,0.004236091140133779,0.014699284099431437,0.0034387522442474914,23.6000003815,0.0,0.015873181449565732,0.04688091531933537
1648294555961136356,16295,9,1,0.0335281863809,0.0146502861753,-0.0293095558882,0.0,23.6000003815,0.011213440261170568,0.0048997612626421405,-0.0098025270529097,23.6000003815,0.0,0.016597895812800207,0.04688091544940301
1648294555961138621,16296,9,2,0.416011840105,-0.556710898876,-0.557153761387,0.0,23.6000003815,0.13913439468394648,-0.18619093607892975,-0.18633905063110368,23.6000003815,0.0,0.27089448913937786,0.8907374415968794
1648294555961145351,16297,9,3,1.51790261269,-1.68478298187,0.593320310116,0.0,23.6000003815,0.5076597366856187,-0.5634725691872909,0.19843488632642137,23.6000003815,0.0,0.9126544541774558,2.3440458672999647
1648294555961148410,16298,9,4,2.2408592701,-1.2306240797,0.597058653831,0.0,23.6000003815,0.74945126090301,-0.4115799597658863,0.19968516850535115,23.6000003815,0.0,1.1369927212691873,2.6253313943281644
1648294555961150890,16299,9,5,0.869613945484,0.483459472656,0.27163118124,-0.647350490093,23.6000003815,0.2908407844428093,0.16169213132307692,0.090846548909699,23.6000003815,-0.08747979595851352,0.44195143299056794,1.031380130942469
1648294555961155522,16300,9,6,1.14410448074,0.514225065708,-0.169731065631,-0.485512852669,23.6000003815,0.38264363904347826,0.17198162732709027,-0.05676624268595317,23.6000003815,-0.06560984495527027,0.5678115789053139,1.2657847825329458
1648294556061049178,16301,10,0,0.00628323899582,0.0454158857465,0.00978460349143,0.0,20.5,0.002101417724354515,0.015189259446989964,0.0032724426392742472,20.5,0.0,0.01547725800820147,0.0468809154763667
1648294556061057775,16302,10,1,0.0335509069264,0.0146502861753,-0.0292835440487,0.0,20.5,0.011221039105819395,0.0048997612626421405,-0.009793827441036788,20.5,0.0,0.016608163584802046,0.0468809150151135
1648294556061060559,16303,10,2,0.376990407705,-0.5845464468,-0.556414306164,0.0,20.5,0.12608374839632105,-0.19550048387959865,-0.18609174119197322,20.5,0.0,0.26460283901819875,0.8907374450824738
1648294556061068905,16304,10,3,1.52286458015,-1.68478298187,0.580466449261,0.0,20.5,0.5093192575752508,-0.5634725691872909,0.1941359362076923,20.5,0.0,0.9145018034430198,2.3440459731395795
1648294556061071573,16305,10,4,2.23943567276,-1.2306240797,0.602376401424,0.0,20.5,0.7489751413913043,-0.4115799597658863,0.20146367940602003,20.5,0.0,1.1363650769559654,2.6253314242129573
1648294556061074729,16306,10,5,0.305502563715,1.50311934948,-2.18815398216,0.566431701183,20.5,0.10217477047324414,0.5027155014983277,-0.7318240743010033,20.5,0.07654482448418919,0.5230700171958199,2.6722120883006797
1648294556061095763,16307,10,6,0.782005131245,0.417533159256,0.0868746861815,-0.647350490093,20.5,0.261540177673913,0.13964319707558526,0.029055078990468226,20.5,-0.08747979595851352,0.3953564866862497,0.8907374335183966
1648294556061147255,16308,10,7,0.738165318966,0.483459472656,0.533969938755,-0.566431701183,20.5,0.24687803309899664,0.16169213132307692,0.17858526379765885,20.5,-0.07654482448418919,0.3847620976466597,1.031380141033854
1648294556061166463,16309,10,8,1.98418569565,-0.625567257404,-1.96208119392,-0.566431701183,20.5,0.6636072560702341,-0.20921981852976587,-0.6562144461270902,20.5,-0.07654482448418919,0.9615207294092825,2.859735980801824
1648294556061291767,16310,10,9,2.33969330788,1.60860145092,0.341067314148,-0.566431701183,20.5,0.7825061230367893,0.5379937962943143,0.11406933583545151,20.5,-0.07654482448418919,1.2304751074407407,2.8597360569850703
1648294556164417379,16311,11,0,0.00631333654746,0.0454158857465,0.00976521056145,0.0,15.5,0.0021114837951371236,0.015189259446989964,0.0032659567095150496,15.5,0.0,0.015479997744903816,0.04688091545405326
1648294556164425671,16312,11,1,0.0335509069264,0.0146502861753,-0.0292835440487,0.0,15.5,0.011221039105819395,0.0048997612626421405,-0.009793827441036788,15.5,0.0,0.016608163584802046,0.0468809150151135
1648294556164429946,16313,11,2,1.50682163239,-1.68478298187,0.620923697948,0.0,15.5,0.5039537232073579,-0.5634725691872909,0.2076667886113712,15.5,0.0,0.9085373115594333,2.344045939505165
1648294556164436286,16314,11,3,2.19499635696,-1.31266570091,0.592676281929,0.0,15.5,0.7341124939665551,-0.4390186290668896,0.19821949228394647,15.5,0.0,1.1271999220472657,2.625331488512336
1648294556164523905,16315,11,4,0.718089461327,-1.92797756195,-0.788818597794,-0.647350490093,15.5,0.24016369944046823,-0.6448085491471571,-0.2638189290280936,15.5,-0.08747979595851352,0.7287902785514669,2.203402989486322
1648294556164528610,16316,11,5,2.1852221489,0.275425374508,0.0626906901598,-0.647350490093,15.5,0.7308435280602006,0.0921155098688963,0.020966786006622072,15.5,-0.08747979595851352,1.0376655492852065,2.2034030724310787
1648294556164540988,16317,11,6,0.769408047199,0.34281668067,0.0508105792105,-0.566431701183,15.5,0.25732710608662207,0.1146544082508361,0.016993504752675585,15.5,-0.07654482448418919,0.38154961982051655,0.8438564656384887
1648294556164547500,16318,11,7,1.44451844692,-0.703213751316,-2.30889797211,-0.485512852669,15.5,0.4831165374314381,-0.23518854559063543,-0.7722066796354514,15.5,-0.06560984495527027,0.722576521523169,2.8128549498944593
1648294556164555795,16319,11,8,0.861973106861,0.32230630517,0.179580360651,-0.323675245047,15.5,0.2882853200204013,0.10779475089297658,0.060060321287959864,15.5,-0.04373989797932432,0.4217067224963449,0.9376183110602552
1648294556164560686,16320,11,9,1.62774527073,0.723724126816,-0.0179354399443,-0.161837622523,15.5,0.5443964116153845,0.24204820294849494,-0.005998474897759197,15.5,-0.021869948989594594,0.8070453757441463,1.7814749389552067
1648294556261224813,16321,12,0,0.00628323899582,0.0454158857465,0.00978460349143,0.0,12.8000001907,0.002101417724354515,0.015189259446989964,0.0032724426392742472,12.8000001907,0.0,0.01547725800820147,0.0468809154763667
1648294556261231476,16322,12,1,0.0335509069264,0.0146502861753,-0.0292835440487,0.0,12.8000001907,0.011221039105819395,0.0048997612626421405,-0.009793827441036788,12.8000001907,0.0,0.016608163584802046,0.0468809150151135
1648294556261238734,16323,12,2,1.50896310806,-1.68478298187,0.615701138973,0.0,12.8000001907,0.50466993580602,-0.5634725691872909,0.20592011336889632,12.8000001907,0.0,0.9093320759983292,2.3440459146564327
1648294556261291365,16324,12,3,2.23941850662,-1.2306240797,0.602439820766,0.0,12.8000001907,0.7489694002073578,-0.4115799597658863,0.2014848898882943,12.8000001907,0.0,1.1363575089622224,2.6253313335604314
1648294556261411516,16325,12,4,1.16837882996,-1.71408355236,0.38392034173,-0.647350490093,12.8000001907,0.39076215048829427,-0.573272091090301,0.12840145208361203,12.8000001907,-0.08747979595851352,0.7962606400742906,2.1096412831483593
1648294556261419451,16326,12,5,0.77164286375,0.199243888259,0.00626057107002,-0.485512852669,12.8000001907,0.25807453637123745,0.06663675192608695,0.0020938364782675583,12.8000001907,-0.06560984495527027,0.37100591552388645,0.7969755522818682
1648294556261423738,16327,12,6,1.79767799377,0.3457467556,-2.07350564003,-0.404594063759,12.8000001907,0.6012300982508361,0.11563436642140468,-0.6934801471672241,12.8000001907,-0.05467487348094594,0.8580947318234156,2.76597408294602
1648294556261424934,16328,12,7,0.94914919138,-1.1236770153,2.342451334,-0.404594063759,12.8000001907,0.3174412011304348,-0.37581171080267556,0.7834285397993311,12.8000001907,-0.05467487348094594,0.5854675689794441,2.765974055259594
1648294556261425908,16329,12,8,0.81914806366,0.167013257742,0.307434886694,-0.242756426334,12.8000001907,0.27396256309698996,0.05585727683678929,0.10282103233913042,12.8000001907,-0.03280492247756756,0.39144732382910236,0.8907374405603908
1648294556361071775,16330,13,0,0.0126699265093,0.0439508594573,0.0102769229561,0.0,44.0,0.004237433615150501,0.014699284099431437,0.0034370979786287623,44.0,0.0,0.015873898082116214,0.04688091541589194
1648294556361077608,16331,13,1,0.0335509069264,0.0146502861753,-0.0292835440487,0.0,44.0,0.011221039105819395,0.0048997612626421405,-0.009793827441036788,44.0,0.0,0.016608163584802046,0.0468809150151135
1648294556361085685,16332,13,2,1.50635266304,-1.68478298187,0.622060418129,0.0,44.0,0.5037968772709029,-0.5634725691872909,0.20804696258494984,44.0,0.0,0.9083633212114813,2.344045905107085
1648294556361093159,16333,13,3,2.23979234695,-1.2306240797,0.601048886776,0.0,44.0,0.7490944304180601,-0.4115799597658863,0.20101969457391303,44.0,0.0,1.136522324746683,2.625331435702534
1648294556361100889,16334,13,4,0.713523745537,-1.93383789062,0.0783265903592,-0.566431701183,44.0,0.23863670419297658,-0.6467685252909698,0.026196184066622073,44.0,-0.07654482448418919,0.7295234598580284,2.062760329606922
1648294556361314268,16335,13,5,1.35866189003,-2.13601183891,0.0183075815439,-0.485512852669,44.0,0.454401969909699,-0.7143852304046823,0.006122936971204014,44.0,-0.06560984495527027,0.9608894618716458,2.5315694489635394
1648294556361318522,16336,13,6,0.898995399475,-1.10463154316,-2.31626081467,-0.323675245047,44.0,0.3006673576839465,-0.3694419876789297,-0.7746691687859532,44.0,-0.04373989797932432,0.5632842108682355,2.719093182661637
1648294556361323553,16337,13,7,1.33783268929,0.0849716588855,-2.36568188667,-0.323675245047,44.0,0.4474356820367893,0.028418615011872907,-0.7911979554080267,44.0,-0.04373989797932432,0.6334074492762511,2.719093098123931
1648294556361332065,16338,13,8,0.743532896042,0.093761831522,0.031774006784,-0.161837622523,44.0,0.2486732093785953,0.03135847208093645,0.01062675812173913,44.0,-0.021869948989594594,0.35307234937977267,0.7500946847259172
1648294556361400765,16339,13,9,0.735001564026,0.0263705141842,0.413728147745,-0.0809188112617,44.0,0.24581992107892975,0.008819569961270902,0.13837061797491637,44.0,-0.010934974494824324,0.3477537232191832,0.8438564352871369
1648294556464513213,16340,14,0,0.0126556539908,0.0439508594573,0.0102944942191,0.0,25.5,0.004232660197591973,0.014699284099431437,0.003442974655217391,25.5,0.0,0.01587135084774943,0.04688091547951333
1648294556464521163,16341,14,1,0.0335372425616,0.0146502861753,-0.0292991939932,0.0,25.5,0.011216469084147156,0.0048997612626421405,-0.00979906153618729,25.5,0.0,0.016601988370738802,0.04688091607791967
1648294556464525650,16342,14,2,0.815831303596,-0.0278355441988,0.356451451778,0.0,25.5,0.2728532787946488,-0.009309546554782609,0.11921453236722407,25.5,0.0,0.38598509188184504,0.890737430965285
1648294556464533222,16343,14,3,1.49639284611,-1.68478298187,0.645651757717,0.0,25.5,0.500465834819398,-0.5634725691872909,0.2159370427147157,25.5,0.0,0.9046731121623326,2.3440459547822448
1648294556464621416,16344,14,4,2.24014425278,-1.2306240797,0.599735975266,0.0,25.5,0.7492121246755852,-0.4115799597658863,0.20058059373444814,25.5,0.0,1.1366774735177512,2.625331434091512
1648294556464627739,16345,14,5,0.749561607838,-0.0,-0.0282739922404,0.161837622523,25.5,0.25068950094916387,-0.0,-0.009456184695785953,25.5,0.021869948989594594,0.35452849218685045,0.7500946757456007
1648294556464756853,16346,14,6,0.592490434647,-0.171408340335,-1.72117948532,-0.485512852669,25.5,0.19815733600234112,-0.05732720412541805,-0.5756453128160535,25.5,-0.06560984495527027,0.28604032575132965,1.8283556970597954
1648294556464762083,16347,14,7,1.77029776573,0.457088917494,2.7200426833899996e-14,-0.485512852669,25.5,0.5920728313478261,0.15287254765685618,9.09713272036789e-15,25.5,-0.06560984495527027,0.8511583231500238,1.8283556704986224
1648294556464764754,16348,14,8,0.663726389408,1.88988697529,0.227078080177,-0.485512852669,25.5,0.2219820700361204,0.6320692225050167,0.07594584621304348,25.5,-0.06560984495527027,0.7057361977914541,2.0158794492390255
1648294556464769269,16349,14,9,2.00312781334,-0.155293032527,-1.46186172962,-0.323675245047,25.5,0.6699424124882942,-0.051937469072575244,-0.4889169664280936,25.5,-0.04373989797932432,0.948864148756257,2.4846884470804986
1648294556464771875,16350,14,10,2.65767860413,-0.424858301878,-0.386919796467,-0.242756426334,25.5,0.888855720444816,-0.14209307755117057,-0.12940461420301003,25.5,-0.03280492247756756,1.2650373220671827,2.719093059904921
1648294556659437525,16351,16,0,0.0126577178016,0.0439508594573,0.0102919563651,0.0,11.6000003815,0.004233350435317726,0.014699284099431437,0.0034421258746153843,11.6000003815,0.0,0.01587171902637542,0.046880915443295264
1648294556659448432,16352,16,1,0.0335509069264,0.0146502861753,-0.0292835440487,0.0,11.6000003815,0.011221039105819395,0.0048997612626421405,-0.009793827441036788,11.6000003815,0.0,0.016608163584802046,0.0468809150151135
1648294556659517942,16353,16,2,1.50269198418,-1.68478298187,0.630851924419,0.0,11.6000003815,0.5025725699598662,-0.5634725691872909,0.2109872656919732,11.6000003815,0.0,0.9070059053714346,2.3440458711084875
1648294556659524782,16354,16,3,2.19235539436,-1.31266570091,0.602372229099,0.0,11.6000003815,0.7332292288829431,-0.4390186290668896,0.20146228397959864,11.6000003815,0.0,1.126049537473517,2.6253315447605146
1648294556659526148,16355,16,4,0.881963908672,-0.263705164194,0.178121998906,0.161837622523,11.6000003815,0.29497120691371237,-0.0881957070882943,0.05957257488494983,11.6000003815,0.021869948989594594,0.42637367245770286,0.9376183638969778
1648294556659527281,16356,16,5,0.77624976635,-0.174338400364,-0.0470362082124,0.242756426334,11.6000003815,0.2596153064715719,-0.058307157312374576,-0.015731173315183946,11.6000003815,0.03280492247756756,0.3717525242718688,0.7969755218843978
1648294556659528716,16357,16,6,0.743295252323,-0.600661754608,1.66770911217,-0.323675245047,11.6000003815,0.248593729873913,-0.20089021893244144,0.5577622448729097,11.6000003815,-0.04373989797932432,0.4049130340307315,1.9221175974402616
1648294556659530388,16358,16,7,1.29684960842,-0.457088917494,-2.012996912,-0.242756426334,11.6000003815,0.43372896602675587,-0.15287254765685618,-0.6732431143812709,11.6000003815,-0.03280492247756756,0.6321484380811007,2.4378075709695546
1648294556659531572,16359,16,8,1.72941052914,-1.52362966537,-0.794101834297,-0.242756426334,11.6000003815,0.5783981702809364,-0.5095751389197325,-0.26558589775819397,11.6000003815,-0.03280492247756756,0.9637197253214936,2.437807592639266
