%time,field.header.seq,field.header.frame_id,field.point_id,field.x,field.y,field.z,field.velocity,field.intensity,normalized_x,normalized_y,normalized_z,normalized_intensity,normalized_velocity,normalized_range,range
1648218456836345007,36026,0,0,0.00513887451962,0.0454158857465,0.0104311807081,0.0,27.6000003815,0.0017186871303076921,0.015189259446989964,0.0034886892000334448,27.6000003815,0.0,0.01538250218435689,0.04688091552468423
1648218456836355048,36027,0,1,0.0335253626108,0.0146502861753,-0.0293127838522,0.0,27.6000003815,0.011212495856454847,0.0048997612626421405,-0.009803606639531772,27.6000003815,0.0,0.01659661974900078,0.04688091424417414
1648218456836441304,36028,0,2,2.07026600838,-1.19546329975,0.0373587682843,0.0,27.6000003815,0.6923966583210702,-0.39982050158862875,0.012494571332541806,27.6000003815,0.0,1.0576779748103637,2.390926499094135
1648218456836446381,36029,0,3,1.17942941189,0.747164607048,0.169498279691,-0.161837622523,27.6000003815,0.3944579972876254,0.24988782844414714,0.056688387856521735,27.6000003815,-0.021869948989594594,0.6112594784973564,1.4064275148313161
1648218456836455551,36030,0,4,0.770528256893,0.73837441206,0.356418162584,-0.0809188112617,27.6000003815,0.25770175815819396,0.24694796389966553,0.11920339885752508,27.6000003815,-0.010934974494824324,0.44023140413859513,1.1251419793409498
1648218456941168946,36031,1,0,0.0052032484673,0.0454158857465,0.01039921958,0.0,24.3999996185,0.001740216878695652,0.015189259446989964,0.0034779998595317724,24.3999996185,0.0,0.015387342594410783,0.0468809155267328
1648218456941174981,36032,1,1,0.0334436409175,0.0146502861753,-0.0294059887528,0.0,24.3999996185,0.011185164186454849,0.0048997612626421405,-0.0098347788470903,24.3999996185,0.0,0.016559693722614344,0.046880914852066045
1648218456941178355,36033,1,2,2.07024049759,-1.19546329975,0.0387548878789,0.0,24.3999996185,0.6923881262842809,-0.39982050158862875,0.01296150096284281,24.3999996185,0.0,1.0576668040217094,2.390926632133524
1648218456941181438,36034,1,3,1.17194008827,0.747164607048,0.215267062187,0.0809188112617,24.3999996185,0.39195320677926415,0.24988782844414714,0.0719956729722408,24.3999996185,0.010934974494824324,0.6080284199061987,1.4064275411773297
1648218456941196739,36035,1,4,0.602812230587,0.876087069511,0.178145036101,-0.323675245047,24.3999996185,0.20160944166789294,0.2930057088665552,0.05958027963244147,24.3999996185,-0.04373989797932432,0.4088338040911876,1.0782610039304366
1648218456941211773,36036,1,5,0.759677112103,0.707608819008,0.291251033545,-0.161837622523,24.3999996185,0.25407261274347825,0.23665846789565215,0.09740837242307691,24.3999996185,-0.021869948989594594,0.43024762116636084,1.0782609702349804
1648218456941227301,36037,1,6,0.930413305759,0.779395282269,0.499965280294,-0.161837622523,24.3999996185,0.311175018648495,0.2606673184846154,0.1672124683257525,24.3999996185,-0.021869948989594594,0.5114755472041086,1.3126656874680707
1648218457136239722,36038,3,0,0.00513267470524,0.0454158857465,0.0104342326522,0.0,13.1000003815,0.0017166136137926422,0.015189259446989964,0.0034897099171237456,13.1000003815,0.0,0.01538203910884673,0.04688091550737025
1648218457136245798,36039,3,1,0.0335027687252,0.0146502861753,-0.0293386057019,0.0,13.1000003815,0.011204939372976588,0.0048997612626421405,-0.00981224270966555,13.1000003815,0.0,0.01658640989289275,0.04688091489939147
1648218457136248299,36040,3,2,2.0703868866,-1.19546329975,0.0299222618341,0.0,13.1000003815,0.692437085819398,-0.39982050158862875,0.010007445429464882,13.1000003815,0.0,1.0577309058199553,2.390926536514175
1648218457136251666,36041,3,3,0.718710720539,0.808695793152,0.308885812759,-0.404594063759,13.1000003815,0.2403714784411371,0.2704668204521739,0.10330629189264214,13.1000003815,-0.05467487348094594,0.4344067175602428,1.1251419603779866
1648218457136256345,36042,3,4,0.74824911356,0.64461261034,0.297225236893,-0.242756426334,13.1000003815,0.2502505396521739,0.21558950178595315,0.09940643374347825,13.1000003815,-0.03280492247756756,0.41440258019554377,1.0313801407816492
1648218457136261086,36043,3,5,0.908662855625,0.695888638496,0.252405643463,-0.242756426334,13.1000003815,0.3039006206103679,0.23273867508227425,0.08441660316488293,13.1000003815,-0.03280492247756756,0.48875194658823196,1.1720229482533042
1648218457241304780,36044,4,0,0.00524778757244,0.0454158857465,0.0103768147528,0.0,29.7000007629,0.0017551129004816054,0.015189259446989964,0.003470506606287625,29.7000007629,0.0,0.015390725945674161,0.04688091548763233
1648218457241310169,36045,4,1,0.0335027687252,0.0146502861753,-0.0293386057019,0.0,29.7000007629,0.011204939372976588,0.0048997612626421405,-0.00981224270966555,29.7000007629,0.0,0.01658640989289275,0.04688091489939147
1648218457241314137,36046,4,2,2.07049679756,-1.19546329975,0.020979385823,0.0,29.7000007629,0.6924738453377927,-0.39982050158862875,0.007016516997658863,29.7000007629,0.0,1.0577790347914828,2.3909265200722682
1648218457241318487,36047,4,3,0.826300382614,0.580151319504,0.210706338286,-0.404594063759,29.7000007629,0.2763546430147157,0.19403054164013378,0.0704703472528428,29.7000007629,-0.05467487348094594,0.4363388918269211,1.0313801611550268
1648218457241323269,36048,4,4,1.01274526119,0.712003946304,0.26383420825,-0.323675245047,29.7000007629,0.33871078969565216,0.23812841013511704,0.0882388656354515,29.7000007629,-0.04373989797932432,0.5349347042639719,1.2657847656920882
1648218457338160744,36049,5,0,0.0052032484673,0.0454158857465,0.01039921958,0.0,15.5,0.001740216878695652,0.015189259446989964,0.0034779998595317724,15.5,0.0,0.015387342594410783,0.0468809155267328
1648218457338164390,36050,5,1,0.0335027687252,0.0146502861753,-0.0293386057019,0.0,15.5,0.011204939372976588,0.0048997612626421405,-0.00981224270966555,15.5,0.0,0.01658640989289275,0.04688091489939147
1648218457338293254,36051,5,2,2.07053041458,-1.19546329975,0.017345873639,0.0,15.5,0.6924850884882943,-0.39982050158862875,0.005801295531438127,15.5,0.0,1.0577937554400028,2.3909265103892854
1648218457338299927,36052,5,3,0.66392147541,0.5845464468,0.104531951249,-0.404594063759,15.5,0.22204731619063545,0.19550048387959865,0.03496051881237458,15.5,-0.05467487348094594,0.3699060157014012,0.8907374488641532
1648218457338303206,36053,5,4,0.784681737423,0.49224960804,0.333472013474,-0.404594063759,15.5,0.262435363686622,0.16463197593311035,0.11152910149632107,15.5,-0.05467487348094594,0.40601518164509487,0.984499207430415
1648218457338308935,36054,5,5,1.06995356083,0.571361124516,0.120301067829,-0.323675245047,15.5,0.35784400027759194,0.19109067709565214,0.040234470845819395,15.5,-0.04373989797932432,0.5409439009196917,1.218903812391192
1648218457338365491,36055,5,6,1.02564656734,0.512760043144,0.242412880063,-0.242756426334,15.5,0.34302560780602004,0.17149165322541807,0.0810745418270903,15.5,-0.03280492247756756,0.5145313618695813,1.1720229295375582
1648218457438140556,36056,6,0,0.0052032484673,0.0454158857465,0.01039921958,0.0,16.7000007629,0.001740216878695652,0.015189259446989964,0.0034779998595317724,16.7000007629,0.0,0.015387342594410783,0.0468809155267328
1648218457438149439,36057,6,1,0.0335027687252,0.0146502861753,-0.0293386057019,0.0,16.7000007629,0.011204939372976588,0.0048997612626421405,-0.00981224270966555,16.7000007629,0.0,0.01658640989289275,0.04688091489939147
1648218457438151839,36058,6,2,2.0706012249,-1.19546329975,0.00288543081842,0.0,16.7000007629,0.6925087708695651,-0.39982050158862875,0.0009650270295719064,16.7000007629,0.0,1.057824762875749,2.390926652851891
1648218457438157811,36059,6,3,1.79276669025,-1.43572807312,-0.0404874719679,-0.647350490093,16.7000007629,0.5995875218227424,-0.480176613083612,-0.01354096052438127,16.7000007629,-0.08747979595851352,0.9744639410483715,2.297164935524038
1648218457438160681,36060,6,4,1.52286112309,-1.6173915863,0.358770877123,-0.566431701183,16.7000007629,0.5093181013678929,-0.54093364090301,0.11999025990735784,16.7000007629,-0.07654482448418919,0.9007880220243701,2.2502840011706464
1648218457438162569,36061,6,5,1.89510917664,-1.72287368774,0.576743006706,-0.566431701183,16.7000007629,0.6338157781404682,-0.5762119356989966,0.19289063769431436,16.7000007629,-0.07654482448418919,1.0655820362982849,2.625331413569769
1648218457438168796,36062,6,6,0.65796905756,0.527410268784,0.0317620337009,-0.485512852669,16.7000007629,0.22005654098996655,0.17639139424214045,0.0106227537461204,16.7000007629,-0.06560984495527027,0.35772012303981987,0.8438564446101142
1648218457438175553,36063,6,7,1.66965913773,-0.615312039852,-2.17848181725,-0.404594063759,16.7000007629,0.5584144273344481,-0.20578997988361203,-0.7285892365384614,16.7000007629,-0.05467487348094594,0.8160899834767099,2.812855056820557
1648218457438335564,36064,6,8,1.24762916565,0.79111546278,-2.39368152618,-0.404594063759,16.7000007629,0.41726727948160536,0.26458711129765883,-0.8005623833377926,16.7000007629,-0.05467487348094594,0.6467072788494034,2.8128550370052032
1648218457438349618,36065,6,9,1.02959394455,0.549385726452,-0.108394354582,-0.323675245047,16.7000007629,0.3443458008528428,0.1837410456361204,-0.03625229250234113,16.7000007629,-0.04373989797932432,0.5204890325275128,1.1720229106926487
1648218457438356548,36066,6,10,0.773189306259,0.46880915761,0.248041078448,-0.242756426334,16.7000007629,0.2585917412237458,0.15679236040468228,0.08295688242408027,16.7000007629,-0.03280492247756756,0.39789850658117476,0.9376183158246848
1648218457541379151,36067,7,0,0.0052032484673,0.0454158857465,0.01039921958,0.0,41.2999992371,0.001740216878695652,0.015189259446989964,0.0034779998595317724,41.2999992371,0.0,0.015387342594410783,0.0468809155267328
1648218457541385490,36068,7,1,0.0335027687252,0.0146502861753,-0.0293386057019,0.0,41.2999992371,0.011204939372976588,0.0048997612626421405,-0.00981224270966555,41.2999992371,0.0,0.01658640989289275,0.04688091489939147
1648218457541397730,36069,7,2,1.13539922237,1.4284029007,0.115836940706,0.0,41.2999992371,0.3797321813946488,0.47772672264214044,0.03874145174113712,41.2999992371,0.0,0.7187599604178557,1.8283556649948338
1648218457541404995,36070,7,3,2.07059717178,-1.19546329975,0.00500217126682,0.0,41.2999992371,0.6925074153110367,-0.39982050158862875,0.001672966978869565,41.2999992371,0.0,1.0578229880335026,2.3909266342884457
1648218457541419657,36071,7,4,0.852461993694,0.49224960804,-0.0154113518074,-0.566431701183,41.2999992371,0.28510434571705684,0.16463197593311035,-0.0051542982633444815,41.2999992371,-0.07654482448418919,0.4355142516533097,0.9844991808390774
1648218457541531086,36072,7,5,1.55914950371,-1.6173915863,0.129904508591,-0.566431701183,41.2999992371,0.5214546835150502,-0.54093364090301,0.043446323943478256,41.2999992371,-0.07654482448418919,0.9145704881419195,2.2502839597938387
1648218457541537844,36073,7,6,0.641255319118,0.473204225302,-0.00627938518301,-0.323675245047,41.2999992371,0.21446666191237457,0.158262282709699,-0.0021001288237491636,41.2999992371,-0.04373989797932432,0.34210940979774035,0.7969755666386961
1648218457541545311,36074,7,7,1.86044645309,-0.703213751316,-1.98906576633,-0.323675245047,41.2999992371,0.6222228940100334,-0.23518854559063543,-0.6652393867324414,41.2999992371,-0.04373989797932432,0.9108437361246334,2.812854992288268
1648218457541547860,36075,7,8,1.79231190681,0.615312039852,-2.07874059677,-0.323675245047,41.2999992371,0.5994354203377926,0.20578997988361203,-0.6952309688193979,41.2999992371,-0.04373989797932432,0.8723503666140054,2.8128550169426476
1648218457541549128,36076,7,9,0.847065210342,0.351606875658,0.1948877424,-0.161837622523,41.2999992371,0.2832994014521739,0.11759427279531771,0.06517984695652174,41.2999992371,-0.021869948989594594,0.41754702096959045,0.937618311318356
1648218457736328690,36077,9,0,0.00520934164524,0.0454158857465,0.0103961685672,0.0,43.2000007629,0.001742254730849498,0.015189259446989964,0.0034769794539130433,43.2000007629,0.0,0.015387803795288944,0.0468809155136033
1648218457736334210,36078,9,1,0.0335027687252,0.0146502861753,-0.0293386057019,0.0,43.2000007629,0.011204939372976588,0.0048997612626421405,-0.00981224270966555,43.2000007629,0.0,0.01658640989289275,0.04688091489939147
1648218457736337374,36079,9,2,0.997759878635,-1.78000986576,0.535374999046,-0.404594063759,43.2000007629,0.3336989560652174,-0.5953210253377926,0.17905518362742476,43.2000007629,-0.05467487348094594,0.7596822426299515,2.1096412697945044
1648218457736339672,36080,9,3,2.09484386444,0.197778880596,0.151984170079,-0.404594063759,43.2000007629,0.7006166770702341,0.06614678280802674,0.05083082611337792,43.2000007629,-0.05467487348094594,0.9930271160717242,2.1096413178420454
1648218457736518875,36081,9,4,1.25629210472,-1.18667316437,-1.84996783733,-0.323675245047,43.2000007629,0.4201645835183946,-0.3968806569799331,-0.6187183402441471,43.2000007629,-0.04373989797932432,0.7145563731233494,2.531569483654982
1648218457736526453,36082,9,5,1.19194877148,-2.13601183891,0.652346134186,-0.323675245047,43.2000007629,0.3986450740735785,-0.7143852304046823,0.21817596461070232,43.2000007629,-0.04373989797932432,0.9100450799749477,2.5315694595613567
1648218457736529264,36083,9,6,0.80822455883,0.306190997362,0.215483978391,-0.242756426334,43.2000007629,0.270309217,0.10240501584013377,0.07206822019765886,43.2000007629,-0.03280492247756756,0.3957536264641478,0.8907374525103888
1648218457736673499,36084,9,7,0.801139831543,0.219754308462,0.8267531991,-0.161837622523,43.2000007629,0.26793974299096984,0.0734964242347826,0.2765060866555184,43.2000007629,-0.021869948989594594,0.3859859273645,1.172022968202604
1648218457736686111,36085,9,8,0.697984993458,0.373582303524,0.0917781740427,-0.0809188112617,43.2000007629,0.2334397971431438,0.12494391422207357,0.03069504148585284,43.2000007629,-0.010934974494824324,0.35298620296209476,0.7969755465693251
1648218457841366155,36086,10,0,0.00516439788043,0.0454158857465,0.0104185678065,0.0,24.5,0.0017272233713812707,0.015189259446989964,0.0034844708382943145,24.5,0.0,0.01538441431115482,0.046880915506687465
1648218457841373923,36087,10,1,0.0335253626108,0.0146502861753,-0.0293127838522,0.0,24.5,0.011212495856454847,0.0048997612626421405,-0.009803606639531772,24.5,0.0,0.01659661974900078,0.04688091424417414
1648218457841383181,36088,10,2,0.684927046299,-1.86937654018,0.539709627628,-0.404594063759,24.5,0.2290725907354515,-0.6252095452107023,0.1805048921832776,24.5,-0.05467487348094594,0.7041558627712167,2.0627603326323625
1648218457841395759,36089,10,3,0.520123362541,-1.24234426022,-2.08799648285,-0.323675245047,24.5,0.17395430185317726,-0.41549975258193983,-0.6983265828929766,24.5,-0.04373989797932432,0.4828666924339531,2.4846884886352467
1648218457841549652,36090,10,4,2.11567282677,0.155293032527,1.29363405704,-0.323675245047,24.5,0.7075828852073578,0.051937469072575244,0.43265353078260865,24.5,-0.04373989797932432,1.0020202490820245,2.4846884129439983
1648218457841553147,36091,10,5,0.788062512875,0.250519901514,0.331074595451,-0.242756426334,24.5,0.26356605781772574,0.08378592023879598,0.11072728944849497,24.5,-0.03280492247756756,0.3820395452010372,0.8907374096817126
1648218457841558065,36092,10,6,0.671096265316,0.304725944996,0.139333873987,-0.161837622523,24.5,0.22444691147692306,0.10191503177123744,0.04659995785518394,24.5,-0.021869948989594594,0.3333759227118716,0.7500946789006128
1648218457841560082,36093,10,7,1.301897645,-0.0410208031535,0.162699311972,-0.161837622523,24.5,0.43541727257525076,-0.013719332158361203,0.054414485609364543,24.5,-0.021869948989594594,0.6159258255574382,1.3126657040023808
1648218457841563050,36094,10,8,0.869115650654,0.194848805666,0.00922349933535,-0.0809188112617,24.5,0.29067413065351166,0.06516682463745818,0.0030847823864046824,24.5,-0.010934974494824324,0.4162086201602254,0.8907374159768868
1648218457938098972,36095,11,0,0.0052032484673,0.0454158857465,0.01039921958,0.0,28.0,0.001740216878695652,0.015189259446989964,0.0034779998595317724,28.0,0.0,0.015387342594410783,0.0468809155267328
1648218457938104233,36096,11,1,0.0335027687252,0.0146502861753,-0.0293386057019,0.0,28.0,0.011204939372976588,0.0048997612626421405,-0.00981224270966555,28.0,0.0,0.01658640989289275,0.04688091489939147
1648218457938262228,36097,11,2,1.01202762127,-0.0,-0.198859721422,0.242756426334,28.0,0.3384707763444815,-0.0,-0.06650826803411371,28.0,0.03280492247756756,0.4786699623733163,1.0313801893663896
1648218457938309120,36098,11,3,1.2200204134,-1.19692838192,-1.06896317005,-0.485512852669,28.0,0.408033583076923,-0.40031049562541804,-0.35751276590301,28.0,-0.06560984495527027,0.7023042807395184,2.015879366301883
1648218457938315782,36099,11,4,0.70405125618,0.257845044136,0.0216731783003,-0.323675245047,28.0,0.23546864755183944,0.08623580071438126,0.007248554615484949,28.0,-0.04373989797932432,0.34398776327746783,0.7500946372103778
1648218457938332597,36100,11,5,0.83186930418,0.105482056737,0.750207543373,-0.323675245047,28.0,0.2782171585886288,0.035278279845150494,0.25090553290066886,28.0,-0.04373989797932432,0.39503687384229486,1.1251419295645047
1648218457938342213,36101,11,6,0.804440677166,0.158223092556,0.199835941195,-0.242756426334,28.0,0.2690437047377926,0.05291742225953177,0.06683476294147157,28.0,-0.03280492247756756,0.3841474764939458,0.8438564768315574
1648218457938346355,36102,11,7,1.2515141964,-0.082041606307,0.387392252684,-0.161837622523,28.0,0.4185666208695652,-0.027438664316722407,0.12956262631571905,28.0,-0.021869948989594594,0.5925781910531457,1.3126657481612578
1648218457938365905,36103,11,8,1.52361702919,1.38445210457,0.460944831371,-0.161837622523,28.0,0.5095709127725752,0.463027459722408,0.15416215096020067,28.0,-0.021869948989594594,0.8565742575776703,2.109641348441413
1648218458041336254,36104,12,0,0.00513887451962,0.0454158857465,0.0104311807081,0.0,25.3999996185,0.0017186871303076921,0.015189259446989964,0.0034886892000334448,25.3999996185,0.0,0.01538250218435689,0.04688091552468423
1648218458041340814,36105,12,1,0.0335027687252,0.0146502861753,-0.0293386057019,0.0,25.3999996185,0.011204939372976588,0.0048997612626421405,-0.00981224270966555,25.3999996185,0.0,0.01658640989289275,0.04688091489939147
1648218458041342499,36106,12,2,1.10382699966,-0.451228827238,0.548680067062,-0.566431701183,25.3999996185,0.36917290958528426,-0.15091265125016723,0.18350503915117056,25.3999996185,-0.07654482448418919,0.5434628806557846,1.312665728851081
1648218458041344201,36107,12,3,0.988637149334,0.082041606307,-0.859626114368,-0.566431701183,25.3999996185,0.33064787603143814,0.027438664316722407,-0.28750037269832773,25.3999996185,-0.07654482448418919,0.46841105468134325,1.312665720856653
1648218458041347304,36108,12,4,0.709646582603,0.187523663044,0.154526904225,-0.485512852669,25.3999996185,0.2373399941816053,0.0627169441618729,0.05168123887123746,25.3999996185,-0.06560984495527027,0.3414585783975157,0.7500946343835012
1648218458041348544,36109,12,5,1.52368485928,-1.94116294384,-0.289737582207,-0.485512852669,25.3999996185,0.5095935984214047,-0.6492183758662207,-0.09690220140702341,25.3999996185,-0.06560984495527027,0.9699772011065647,2.484688509950462
1648218458041350943,36110,12,6,0.690592586994,0.131852582097,-0.0143650164828,-0.404594063759,25.3999996185,0.23096742039933107,0.04409785354414715,-0.004804353338729097,25.3999996185,-0.05467487348094594,0.32960054499203084,0.703213750089731
1648218458041351950,36111,12,7,0.576925516129,0.0336956568062,0.910312235355,-0.323675245047,25.3999996185,0.19295167763511706,0.011269450436856187,0.3044522526270903,25.3999996185,-0.04373989797932432,0.273107488578327,1.0782610139874904
1648218458041353739,36112,12,8,0.81793397665,0.079111546278,0.191883265972,-0.242756426334,25.3999996185,0.2735565139297659,0.026458711129765885,0.06417500534180602,25.3999996185,-0.03280492247756756,0.3877710613512318,0.843856513083273
1648218458041354682,36113,12,9,1.91437792778,1.05482065678,0.535059332848,-0.0809188112617,25.3999996185,0.6402601765150501,0.352782828354515,0.17894960964816053,25.3999996185,-0.010934974494824324,0.9717622709510683,2.2502839727485027
1648218458041355676,36114,12,10,1.7744038105,-1.26578474045,0.559515714645,-0.0809188112617,25.3999996185,0.5934460904682274,-0.42333937807692307,0.1871290015535117,25.3999996185,-0.010934974494824324,0.939985507130085,2.2502839213769668
1648218458236443414,36115,14,0,0.0052032484673,0.0454158857465,0.01039921958,0.0,12.0,0.001740216878695652,0.015189259446989964,0.0034779998595317724,12.0,0.0,0.015387342594410783,0.0468809155267328
1648218458236450589,36116,14,1,0.0335027687252,0.0146502861753,-0.0293386057019,0.0,12.0,0.011204939372976588,0.0048997612626421405,-0.00981224270966555,12.0,0.0,0.01658640989289275,0.04688091489939147
1648218458236632722,36117,14,2,0.844920158386,-0.351606875658,0.20398670435,0.161837622523,12.0,0.2825819927712374,-0.11759427279531771,0.06822297804347825,12.0,0.021869948989594594,0.4165736168690799,0.9376182829961124
1648218458236637977,36118,14,3,1.46238315105,-1.17202293873,0.0656535625458,0.566431701183,12.0,0.48909135486622074,-0.3919809159632107,0.021957713226020064,12.0,0.07654482448418919,0.7950281411931962,1.8752366889700052
1648218458236641104,36119,14,4,0.644786953926,-0.102552011609,0.0671242922544,-0.161837622523,12.0,0.21564781067759198,-0.03429833164180602,0.022449596071705685,12.0,-0.021869948989594594,0.30689465953888545,0.6563328436463288
1648218458236805444,36120,14,5,0.764744222164,-0.174338400364,0.141217812896,-0.0809188112617,12.0,0.25576729838260864,-0.058307157312374576,0.04723003775785953,12.0,-0.010934974494824324,0.36637896560491395,0.7969755792079387
1648218458341398297,36121,15,0,0.00516439788043,0.0454158857465,0.0104185678065,0.0,24.8999996185,0.0017272233713812707,0.015189259446989964,0.0034844708382943145,24.8999996185,0.0,0.01538441431115482,0.046880915506687465
1648218458341406871,36122,15,1,0.0335027687252,0.0146502861753,-0.0293386057019,0.0,24.8999996185,0.011204939372976588,0.0048997612626421405,-0.00981224270966555,24.8999996185,0.0,0.01658640989289275,0.04688091489939147
1648218458341409704,36123,15,2,0.768697082996,-0.199243888259,-0.0676512271166,0.0,24.8999996185,0.2570893254167224,-0.06663675192608695,-0.0226258284670903,24.8999996185,0.0,0.3696353597719104,0.7969755460147483
1648218458341414344,36124,15,3,1.13649535179,1.4284029007,0.104536741972,0.0,24.8999996185,0.38009877986287627,0.47772672264214044,0.034962121060869565,24.8999996185,0.0,0.7191474024377027,1.8283556715777625
1648218458341420611,36125,15,4,2.06958889961,-1.19546329975,0.0647982954979,0.0,24.8999996185,0.6921702005384615,-0.39982050158862875,0.021671670735083613,24.8999996185,0.0,1.0573814858023052,2.3909265010739085
1648218458341428346,36126,15,5,0.60284280777,-0.225614413619,0.128263384104,0.242756426334,24.8999996185,0.20161966815050164,-0.07545632562508361,0.042897452877591974,24.8999996185,0.03280492247756756,0.29494853491257667,0.6563328501716736
1648218458341533441,36127,15,6,1.24390602112,-0.703213751316,-1.21437251568,-0.242756426334,24.8999996185,0.4160220806421404,-0.23518854559063543,-0.4061446540735786,24.8999996185,-0.03280492247756756,0.6336106021372034,1.8752366187384146
