%time,field.header.seq,field.header.frame_id,field.point_id,field.x,field.y,field.z,field.velocity,field.intensity,normalized_x,normalized_y,normalized_z,normalized_intensity,normalized_velocity,normalized_range,range
1648295623866230974,55683,0,0,0.0126567855477,0.0439508594573,0.0102931028232,0.0,20.7000007629,0.004233038644715719,0.014699284099431437,0.00344250930541806,20.7000007629,0.0,0.01587155270826113,0.04688091544717074
1648295623866280950,55684,0,1,0.033464897424,0.0146502861753,-0.029381794855,0.0,20.7000007629,0.011192273385953177,0.0048997612626421405,-0.009826687242474916,20.7000007629,0.0,0.016569297737765474,0.04688091417110307
1648295623866294119,55685,0,2,2.19605469704,-1.31266570091,0.588742315769,0.0,20.7000007629,0.7344664538595318,-0.4390186290668896,0.1969037845381271,20.7000007629,0.0,1.127660986448393,2.625331405577976
1648295623866299619,55686,0,3,1.06091821194,0.922968029976,0.0249151661992,-0.242756426334,20.7000007629,0.3548221444615384,0.30868495985819394,0.008332831504749163,20.7000007629,-0.03280492247756756,0.5891382798997401,1.4064274607282379
1648295623866365582,55687,0,4,0.8328602314,0.909782767296,0.284341663122,-0.0809188112617,20.7000007629,0.2785485723745819,0.30427517300869567,0.09509754619464882,20.7000007629,-0.010934974494824324,0.4977569640430027,1.265784748724448
1648295623968278933,55688,1,0,0.0127659924328,0.0439508594573,0.0101573430002,0.0,32.2000007629,0.0042695626865551835,0.014699284099431437,0.0033971046823411373,32.2000007629,0.0,0.015891107076117968,0.046880915377724396
1648295623968300925,55689,1,1,0.0335146933794,0.0146502861753,-0.0293249841779,0.0,32.2000007629,0.011208927551638796,0.0048997612626421405,-0.009807687016020066,32.2000007629,0.0,0.016591798400012674,0.04688091567330431
1648295623968303628,55690,1,2,0.366623967886,-0.0,1.06373465061,0.0,32.2000007629,0.12261671166755851,-0.0,0.35576409719397994,32.2000007629,0.0,0.17340621661385258,1.1251420091423365
1648295623968400002,55691,1,3,0.567809820175,1.23208904266,0.0889688059688,0.0,32.2000007629,0.18990294989130435,0.4120699139331103,0.0297554535012709,32.2000007629,0.0,0.4918616418503068,1.3595465602050982
1648295623968403188,55692,1,4,2.19364142418,-1.31266570091,0.59767138958,0.0,32.2000007629,0.7336593391906354,-0.4390186290668896,0.19989009684949832,32.2000007629,0.0,1.1266096966700805,2.6253314133926953
1648295623968411892,55693,1,5,1.18826365471,0.843856453896,0.355673611164,0.161837622523,32.2000007629,0.39741259354849495,0.28222623876120395,0.11895438500468226,32.2000007629,0.021869948989594594,0.6289079335381123,1.5001893032431401
1648295623968415096,55694,1,6,0.709384799004,0.990359306335,0.041087795049,-0.566431701183,32.2000007629,0.2372524411384615,0.3312238482725752,0.01374173747458194,32.2000007629,-0.07654482448418919,0.47147288290718503,1.218903833616203
1648295623968438913,55695,1,7,0.672055780888,1.02552008629,0.468765288591,-0.404594063759,32.2000007629,0.22476781969498327,0.342983306451505,0.1567776884919732,32.2000007629,-0.05467487348094594,0.4676309378615577,1.3126657288879877
1648295623968442565,55696,1,8,0.688864827156,0.97717410326,0.647273421288,-0.323675245047,32.2000007629,0.23038957429966553,0.3268140813578595,0.21647940511304348,32.2000007629,-0.04373989797932432,0.46148256268871507,1.3595465641457536
1648295623968530391,55697,1,9,0.836518108845,0.83799636364,0.28935444355,-0.161837622523,32.2000007629,0.27977194275752504,0.28026634235451503,0.09677406138795987,32.2000007629,-0.021869948989594594,0.48486482916934487,1.2189037886156595
1648295623968539155,55698,1,10,1.12864053249,0.835066318512,0.0829039663076,-0.161837622523,32.2000007629,0.3774717499966555,0.2792863941511705,0.027727079032642137,32.2000007629,-0.021869948989594594,0.6024705254608212,1.4064274867628361
1648295624163289842,55699,3,0,0.0127574298531,0.0439508594573,0.0101680960506,0.0,22.5,0.004266698947525083,0.014699284099431437,0.0034007010202675584,22.5,0.0,0.015889568680534445,0.04688091552845711
1648295624163297668,55700,3,1,0.0333795510232,0.0146502861753,-0.0294787157327,0.0,22.5,0.011163729439197323,0.0048997612626421405,-0.00985910225173913,22.5,0.0,0.016530740165343186,0.046880912883367924
1648295624163300710,55701,3,2,2.1992816925,-1.31266570091,0.576570689678,0.0,22.5,0.7355457165551839,-0.4390186290668896,0.19283300658127087,22.5,0.0,1.1290670303188952,2.6253314010819606
1648295624163303319,55702,3,3,1.29362261295,0.821881055832,0.210899010301,0.0809188112617,22.5,0.43264970332775915,0.27487660730167224,0.07053478605384615,22.5,0.010934974494824324,0.6707672329660072,1.5470702399106027
1648295624163305918,55703,3,4,0.745048582554,0.775000095367,0.0832118615508,-0.566431701183,22.5,0.24918012794448158,0.25919735631003343,0.027830054030367892,22.5,-0.07654482448418919,0.4374525595341361,1.0782609851456804
1648295624163309166,55704,3,5,0.852271199226,0.909782767296,0.219408512115,-0.566431701183,22.5,0.285040534858194,0.30427517300869567,0.0733807732826087,22.5,-0.07654482448418919,0.5050540505074307,1.2657847273084828
1648295624163491043,55705,3,6,0.858806669712,0.769140064716,0.21097971499,-0.404594063759,22.5,0.28722631094046824,0.2572374798381271,0.07056177758862876,22.5,-0.05467487348094594,0.4808004039374468,1.1720229414266645
1648295624163496753,55706,3,7,1.09392690659,0.807230770588,0.00832394510508,-0.242756426334,22.5,0.3658618416688963,0.2699768463505016,0.002783928128789297,22.5,-0.03280492247756756,0.583607121224609,1.3595465722099316
1648295624268394958,55707,4,0,0.0127460183576,0.0439508594573,0.0101823974401,0.0,29.7000007629,0.0042628823938461536,0.014699284099431437,0.00340548409367893,29.7000007629,0.0,0.015887519807802754,0.04688091561217387
1648295624268453521,55708,4,1,0.033464897424,0.0146502861753,-0.029381794855,0.0,29.7000007629,0.011192273385953177,0.0048997612626421405,-0.009826687242474916,29.7000007629,0.0,0.016569297737765474,0.04688091417110307
1648295624268457047,55709,4,2,0.472910732031,1.27457487583,-0.0134589886293,0.0,29.7000007629,0.1581641244250836,0.4262792226856187,-0.0045013339897324416,29.7000007629,0.0,0.4813997883295774,1.3595465490162812
1648295624268579186,55710,4,3,1.91538417339,-0.0600661747158,-0.149101436138,0.0,29.7000007629,0.6405967135083612,-0.020089021644080267,-0.04986670104949833,29.7000007629,0.0,0.90616326757712,1.9221175081862962
1648295624268584492,55711,4,4,2.20238041878,-1.31266570091,0.564619004726,0.0,29.7000007629,0.7365820798595316,-0.4390186290668896,0.18883578753377925,29.7000007629,0.0,1.1304174792562958,2.625331478474459
1648295624268585535,55712,4,5,0.855418920517,0.703213751316,0.199232131243,-0.485512852669,29.7000007629,0.28609328445384613,0.23518854559063543,0.06663281981371237,29.7000007629,-0.06560984495527027,0.4679875925665306,1.125142014031126
1648295624268586522,55713,4,6,0.74692183733,0.709073901176,0.0553801655769,-0.404594063759,29.7000007629,0.2498066345585284,0.23714846193177255,0.018521794507324413,29.7000007629,-0.05467487348094594,0.42549512610078355,1.031380139012139
1648295624268587563,55714,4,7,0.946175694466,0.761814832687,0.100579448044,-0.404594063759,29.7000007629,0.31644672055719064,0.2547875694605351,0.03363861138595318,29.7000007629,-0.05467487348094594,0.514969668480007,1.2189038146912885
1648295624463410950,55715,6,0,0.0127668203786,0.0439508594573,0.0101563036442,0.0,26.2000007629,0.004269839591505016,0.014699284099431437,0.003396757071638796,26.2000007629,0.0,0.015891255875800543,0.046880915662217644
1648295624463567129,55716,6,1,0.0334287770092,0.0146502861753,-0.029422884807,0.0,26.2000007629,0.011180192979665552,0.0048997612626421405,-0.009840429701337793,26.2000007629,0.0,0.016552978298663184,0.04688091474912789
1648295624463570569,55717,6,2,2.19816255569,-1.31266570091,0.580822885036,0.0,26.2000007629,0.7351714233076924,-0.4390186290668896,0.19425514549698994,26.2000007629,0.0,1.1285793724697823,2.6253314242900223
1648295624463572475,55718,6,3,0.985084891319,0.622637212276,0.124773673713,-0.404594063759,26.2000007629,0.3294598298725752,0.20823987032642138,0.04173032565652173,26.2000007629,-0.05467487348094594,0.5103443960629892,1.1720229566299598
1648295624463574365,55719,6,4,0.929398417473,0.574291229248,0.727667152882,-0.323675245047,26.2000007629,0.3108355911280936,0.1920706452334448,0.2433669407632107,26.2000007629,-0.04373989797932432,0.4797172731769147,1.3126657304035525
1648295624463693605,55720,6,5,0.879856705666,0.5391305089,0.31278949976,-0.242756426334,26.2000007629,0.2942664567444816,0.18031120698996655,0.10461187282943142,26.2000007629,-0.03280492247756756,0.4535390021774117,1.0782610070350824
1648295624566545369,55721,7,0,0.0127460183576,0.0439508594573,0.0101823974401,0.0,45.2000007629,0.0042628823938461536,0.014699284099431437,0.00340548409367893,45.2000007629,0.0,0.015887519807802754,0.04688091561217387
1648295624566554226,55722,7,1,0.033464897424,0.0146502861753,-0.029381794855,0.0,45.2000007629,0.011192273385953177,0.0048997612626421405,-0.009826687242474916,45.2000007629,0.0,0.016569297737765474,0.04688091417110307
1648295624566556738,55723,7,2,1.86469662189,-0.175803437829,0.0922587364912,0.0,45.2000007629,0.6236443551471572,-0.05879713639765886,0.03085576471277592,45.2000007629,0.0,0.8839240163398617,1.8752365223884229
1648295624566562132,55724,7,3,2.19846844673,-1.31266570091,0.5796636343,0.0,45.2000007629,0.7352737280033445,-0.4390186290668896,0.19386743622073577,45.2000007629,0.0,1.1287126591172987,2.6253313471908353
1648295624566583929,55725,7,4,1.29541480541,0.483459442854,0.257305026054,-0.647350490093,45.2000007629,0.4332490987993311,0.16169212135585284,0.08605519266020067,45.2000007629,-0.08747979595851352,0.6336828112939634,1.4064275407545097
1648295624566628978,55726,7,5,1.5508441925,-1.68478298187,0.500938951969,-0.485512852669,45.2000007629,0.5186769874581939,-0.5634725691872909,0.16753811102642138,45.2000007629,-0.06560984495527027,0.9249610645124158,2.344045912308363
1648295624566634568,55727,7,6,1.72380387783,-0.625567257404,-2.19436907768,-0.323675245047,45.2000007629,0.5765230360635452,-0.20921981852976587,-0.7339027015652173,45.2000007629,-0.04373989797932432,0.8417425703203348,2.859735975896356
1648295624566640500,55728,7,7,1.0752376318,0.714933991432,-2.55163145065,-0.323675245047,45.2000007629,0.3596112480936455,0.2391083583384615,-0.8533884450334448,45.2000007629,-0.04373989797932432,0.5619726919862326,2.859735938314932
1648295624566643763,55729,7,8,0.874820888042,0.50543487072,0.376657426357,-0.242756426334,45.2000007629,0.29258223680334444,0.16904176278260868,0.12597238339698996,45.2000007629,-0.03280492247756756,0.44697186505455616,1.0782610127071346
1648295624566654489,55730,7,9,1.10397601128,0.553780794144,0.277082502842,-0.242756426334,45.2000007629,0.3692227462474916,0.18521096794113712,0.09266973339197324,45.2000007629,-0.03280492247756756,0.5540342727113297,1.26578470318836
1648295624566665287,55731,7,10,0.718091070652,0.586011469364,0.14164711535,-0.0809188112617,45.2000007629,0.24016423767625414,0.19599045798127088,0.04737361717391304,45.2000007629,-0.010934974494824324,0.3921351574864729,0.9376183302726467
1648295624666527477,55732,8,0,0.0127659924328,0.0439508594573,0.0101573430002,0.0,22.5,0.0042695626865551835,0.014699284099431437,0.0033971046823411373,22.5,0.0,0.015891107076117968,0.046880915377724396
1648295624666537676,55733,8,1,0.0334420129657,0.0146502861753,-0.0294078402221,0.0,22.5,0.011184619720969898,0.0048997612626421405,-0.009835398067591972,22.5,0.0,0.01655895821108037,0.04688091490942552
1648295624666555468,55734,8,2,1.86166155338,-0.175803437829,0.140790551901,0.0,22.5,0.6226292820668896,-0.05879713639765886,0.04708714110401338,22.5,0.0,0.8824916707951558,1.8752366697540654
1648295624666604959,55735,8,3,2.20123744011,-1.31266570091,0.569058775902,0.0,22.5,0.7361998127458194,-0.4390186290668896,0.1903206608367893,22.5,0.0,1.1299193268732641,2.625331483930867
1648295624666609965,55736,8,4,1.32078921795,0.254914969206,0.197233349085,-0.647350490093,22.5,0.4417355243979933,0.0852558425438127,0.06596433079765886,22.5,-0.08747979595851352,0.6304990925593753,1.3595465397585895
1648295624666618083,55737,8,5,1.42684292793,-1.72287368774,0.522294938564,-0.566431701183,22.5,0.477204992618729,-0.5762119356989966,0.17468058145953175,22.5,-0.07654482448418919,0.8873947288565935,2.2971648803993707
1648295624666620617,55738,8,6,1.32029116154,0.307656019926,0.374456226826,-0.485512852669,22.5,0.441568950347826,0.10289498994180601,0.12523619626287624,22.5,-0.06560984495527027,0.6328930832120746,1.4064275465327443
1648295624666623284,55739,8,7,0.88028550148,0.399952799082,0.185402110219,-0.404594063759,22.5,0.294409866715719,0.13376347795384613,0.062007394722073575,22.5,-0.05467487348094594,0.43731797044421117,0.98449923721813
1648295624666634798,55740,8,8,0.984913647175,0.549385726452,0.318995714188,-0.323675245047,22.5,0.329402557583612,0.1837410456361204,0.10668752982876253,22.5,-0.04373989797932432,0.5007722653429446,1.1720229667080182
1648295624666637270,55741,8,9,1.64510464668,-0.80430072546,-2.19654750824,-0.323675245047,22.5,0.5502022229698996,-0.26899689814715716,-0.7346312736588628,22.5,-0.04373989797932432,0.8232887121385974,2.8597359863209335
1648295624666652030,55742,8,10,1.78948676586,0.625567257404,-2.14114284515,-0.323675245047,22.5,0.5984905571438127,0.20921981852976587,-0.7161012860033444,22.5,-0.04373989797932432,0.8718685832430544,2.859735995168275
1648295624666659795,55743,8,11,1.95211338997,0.24612480402,0.0750380977988,-0.242756426334,22.5,0.6528807324314381,0.08231598796655518,0.025096353778862872,22.5,-0.03280492247756756,0.9269748774564132,1.9689984313288091
1648295624766425125,55744,9,0,0.0126567855477,0.0439508594573,0.0102931028232,0.0,16.7000007629,0.004233038644715719,0.014699284099431437,0.00344250930541806,16.7000007629,0.0,0.01587155270826113,0.04688091544717074
1648295624766530232,55745,9,1,0.033464897424,0.0146502861753,-0.029381794855,0.0,16.7000007629,0.011192273385953177,0.0048997612626421405,-0.009826687242474916,16.7000007629,0.0,0.016569297737765474,0.04688091417110307
1648295624766535166,55746,9,2,1.86693632603,-0.175803437829,-0.0124099599198,0.0,16.7000007629,0.624393420076923,-0.05879713639765886,-0.004150488267491638,16.7000007629,0.0,0.8849810107111218,1.8752365454278297
1648295624766540658,55747,9,3,2.2474219799,-1.2306240797,0.571859896183,0.0,16.7000007629,0.7516461471237458,-0.4115799597658863,0.19125749036220735,16.7000007629,0.0,1.1398868032628644,2.6253313928221593
1648295624766546401,55748,9,4,1.31555950642,-1.75803434849,0.492337614298,-0.566431701183,16.7000007629,0.4399864569966555,-0.5879713540100334,0.16466140946421404,16.7000007629,-0.07654482448418919,0.8560878914091308,2.250283962493476
1648295624766551242,55749,9,5,2.19648623466,0.351606875658,0.33999851346,-0.566431701183,16.7000007629,0.7346107808227424,0.11759427279531771,0.11371187741137122,16.7000007629,-0.07654482448418919,1.0455306841964316,2.250284018344319
1648295624766560367,55750,9,6,1.26859951019,0.123062409461,0.314009577036,-0.485512852669,16.7000007629,0.424280772638796,0.041157996475250834,0.10501992543010033,16.7000007629,-0.06560984495527027,0.6014335613646815,1.3126656422512866
1648295624766622116,55751,9,7,0.858898222446,0.338421612978,0.342057585716,-0.323675245047,16.7000007629,0.28725693058394647,0.11318448594581938,0.11440053033979931,16.7000007629,-0.04373989797932432,0.421715326014884,0.9844992313848642
1648295624766626941,55752,9,8,1.26666128635,-0.966918885708,-2.31792807579,-0.323675245047,16.7000007629,0.42363253724080263,-0.3233842427117057,-0.7752267812006688,16.7000007629,-0.04373989797932432,0.6808130592551699,2.812855046107454
1648295624766629666,55753,9,9,1.82002091408,0.439508587122,-2.09916877747,-0.323675245047,16.7000007629,0.6087026468494984,0.14699283850234113,-0.702063136277592,16.7000007629,-0.04373989797932432,0.8732953218322801,2.812855041083253
1648295624766632710,55754,9,10,0.740690469742,0.556710898876,0.143452912569,-0.161837622523,16.7000007629,0.24772256513110366,0.18619093607892975,0.04797756273210702,16.7000007629,-0.021869948989594594,0.39673669256600896,0.9376183312086415
1648295624866517086,55755,10,0,0.0126567855477,0.0439508594573,0.0102931028232,0.0,43.0999984741,0.004233038644715719,0.014699284099431437,0.00344250930541806,43.0999984741,0.0,0.01587155270826113,0.04688091544717074
1648295624866527133,55756,10,1,0.033464897424,0.0146502861753,-0.029381794855,0.0,43.0999984741,0.011192273385953177,0.0048997612626421405,-0.009826687242474916,43.0999984741,0.0,0.016569297737765474,0.04688091417110307
1648295624866543476,55757,10,2,0.452910006046,0.0703213736415,1.02755630016,0.0,43.0999984741,0.15147491841003344,0.023518854060702338,0.3436643144347826,43.0999984741,0.0,0.21550507722784906,1.1251419995564664
1648295624866610187,55758,10,3,0.0950726345181,-0.0,1.1211180687,0.0,43.0999984741,0.03179686773180602,-0.0,0.37495587581939793,43.0999984741,0.0,0.04496756158730351,1.1251420042820506
1648295624866614941,55759,10,4,1.86657607555,-0.175803437829,-0.0387218669057,0.0,43.0999984741,0.6242729349665551,-0.05879713639765886,-0.01295045715909699,43.0999984741,0.0,0.8848109955872374,1.875236645744957
1648295624866621061,55760,10,5,2.24319648743,-1.2306240797,0.588216662407,0.0,43.0999984741,0.7502329389397994,-0.4115799597658863,0.19672798073812708,43.0999984741,0.0,1.1380232812299518,2.625331397878941
1648295624866628224,55761,10,6,0.796048402786,0.461484014988,0.35011151433,-0.647350490093,43.0999984741,0.26623692400869564,0.15434247992909697,0.11709415194983276,43.0999984741,-0.08747979595851352,0.4069223519565958,0.9844991762993163
1648295624866640787,55762,10,7,0.98324161768,-1.85912132263,0.657182216644,-0.647350490093,43.0999984741,0.3288433503946488,-0.6217797065652174,0.21979338349297659,43.0999984741,-0.08747979595851352,0.7764572761548979,2.203402967427571
1648295624866648445,55763,10,8,2.17598938942,0.137712687254,0.317946314812,-0.647350490093,43.0999984741,0.7277556486354515,0.04605775493444815,0.10633656013779262,43.0999984741,-0.08747979595851352,1.030231956906412,2.203402928699532
1648295624866654594,55764,10,9,1.02692341805,0.118667319417,-0.730450093746,-0.566431701183,43.0999984741,0.3434526481772575,0.039688066694648826,-0.2442976902160535,43.0999984741,-0.07654482448418919,0.48733416227256315,1.2657847284157964
1648295624866661358,55765,10,10,0.880172610283,0.293005734682,0.136278495193,-0.485512852669,43.0999984741,0.2943721104625418,0.09799522899063544,0.04557809203779264,43.0999984741,-0.06560984495527027,0.42768322826745137,0.9376182659808825
1648295624866668699,55766,10,11,0.406522780657,0.615312039852,0.579015016556,-0.485512852669,43.0999984741,0.1359607962063545,0.20578997988361203,0.19365050720936453,43.0999984741,-0.06560984495527027,0.28163840652622146,0.9376182949245783
1648295624866675422,55767,10,12,1.19787418842,0.082041606307,0.530525922775,-0.323675245047,43.0999984741,0.40062681886956514,0.027438664316722407,0.1774334189882943,43.0999984741,-0.04373989797932432,0.56723590885502,1.312665666186395
1648295624866679063,55768,10,13,1.77480924129,-0.9508035779,-1.89648020267,-0.323675245047,43.0999984741,0.5935816860501673,-0.3179945076588629,-0.6342743152742475,43.0999984741,-0.04373989797932432,0.8976630453179641,2.7659740501015317
1648295624866682143,55769,10,14,1.55101251602,0.1728733778,-2.28365659714,-0.323675245047,43.0999984741,0.5187332829498327,0.05781718321070234,-0.7637647482073577,43.0999984741,-0.04373989797932432,0.7358744895389718,2.7659740568674387
1648295624866685715,55770,10,15,0.889856815338,0.293005734682,-0.0378226712346,-0.242756426334,43.0999984741,0.2976109750294314,0.09799522899063544,-0.012649722820936455,43.0999984741,-0.03280492247756756,0.43214308952112696,0.9376182948403612
1648295624966493352,55771,11,0,0.0127460183576,0.0439508594573,0.0101823974401,0.0,40.9000015259,0.0042628823938461536,0.014699284099431437,0.00340548409367893,40.9000015259,0.0,0.015887519807802754,0.04688091561217387
1648295624966499975,55772,11,1,0.033464897424,0.0146502861753,-0.029381794855,0.0,40.9000015259,0.011192273385953177,0.0048997612626421405,-0.009826687242474916,40.9000015259,0.0,0.016569297737765474,0.04688091417110307
1648295624966588026,55773,11,2,0.714316904545,0.105482056737,0.862884283066,0.0,40.9000015259,0.23890197476421401,0.035278279845150494,0.28859006122608694,40.9000015259,0.0,0.3396952518380483,1.1251419423230755
1648295624966601535,55774,11,3,0.33721652627,1.317060709,0.00171114120167,0.0,40.9000015259,0.11278144691304347,0.44048853143812705,0.0005722880273143812,40.9000015259,0.0,0.46847567264919654,1.3595465511652773
1648295624966607724,55775,11,4,1.86624240875,-0.175803437829,-0.0523925498128,0.0,40.9000015259,0.6241613407190635,-0.05879713639765886,-0.01752259191063545,40.9000015259,0.0,0.8846535263847665,1.8752366667291316
1648295624966652187,55776,11,5,2.24230194092,-1.2306240797,0.591617703438,0.0,40.9000015259,0.7499337595050167,-0.4115799597658863,0.19786545265484948,40.9000015259,0.0,1.1376288281208178,2.6253314318029113
1648295624966665884,55777,11,6,1.12350165844,1.71408355236,0.500247776508,0.566431701183,40.9000015259,0.3757530630234113,0.573272091090301,0.16730694866488294,40.9000015259,0.07654482448418919,0.7816787186344514,2.1096412583398405
1648295624966672333,55778,11,7,0.838953137398,0.22268435359,0.199956208467,-0.647350490093,40.9000015259,0.2805863335779264,0.07447637243812709,0.06687498610936454,40.9000015259,-0.08747979595851352,0.403737676261393,0.8907374323493101
1648295624966680582,55779,11,8,1.12477433681,-1.26578474045,-1.88189148903,-0.566431701183,40.9000015259,0.3761787079632107,-0.42333937807692307,-0.6293951468327759,40.9000015259,-0.07654482448418919,0.6798801877392053,2.531569452807092
1648295624966722405,55780,11,9,1.02315199375,-2.21512317657,0.674709737301,-0.566431701183,40.9000015259,0.34219130225752503,-0.7408438717625419,0.2256554305354515,40.9000015259,-0.07654482448418919,0.8848951446411689,2.5315694577279433
1648295624966727332,55781,11,10,0.743941307068,0.210964113474,0.817306518555,-0.485512852669,40.9000015259,0.24880980169498326,0.07055655969030099,0.27334666172408023,40.9000015259,-0.06560984495527027,0.3588744389815535,1.1251419780669503
1648295624966732677,55782,11,11,1.45460391045,0.338421612978,0.403762996197,-0.404594063759,40.9000015259,0.48648960215719056,0.11318448594581938,0.1350377913702341,40.9000015259,-0.05467487348094594,0.6972481580276441,1.5470702251433324
1648295624966735174,55783,11,12,1.25181210041,-0.0,0.187556996942,-0.242756426334,40.9000015259,0.41866625431772575,-0.0,0.06272809262274247,40.9000015259,-0.03280492247756756,0.5920834949640711,1.2657848007599068
1648295624966737916,55784,11,13,1.19818270206,-0.114272229373,0.192423209548,-0.0809188112617,40.9000015259,0.4007300006889632,-0.03821813691404682,0.06435558847759197,40.9000015259,-0.010934974494824324,0.5680050113278348,1.2189038606446498
1648295625066495548,55785,12,0,0.0127460183576,0.0439508594573,0.0101823974401,0.0,21.0,0.0042628823938461536,0.014699284099431437,0.00340548409367893,21.0,0.0,0.015887519807802754,0.04688091561217387
1648295625066503332,55786,12,1,0.033464897424,0.0146502861753,-0.029381794855,0.0,21.0,0.011192273385953177,0.0048997612626421405,-0.009826687242474916,21.0,0.0,0.016569297737765474,0.04688091417110307
1648295625066529744,55787,12,2,1.86595642567,-0.175803437829,-0.0617425255477,0.0,21.0,0.6240656942040134,-0.05879713639765886,-0.020649674096220736,21.0,0.0,0.8845185609207074,1.8752366172599837
1648295625066536406,55788,12,3,2.1991045475,-1.31266570091,0.577245891094,0.0,21.0,0.735486470735786,-0.4390186290668896,0.1930588264528428,21.0,0.0,1.128989837836699,2.625331383266811
1648295625066542662,55789,12,4,1.20124948025,-0.152362972498,0.139683902264,0.161837622523,21.0,0.4017556790133779,-0.05095751588561872,0.04671702416856187,21.0,0.021869948989594594,0.5704488755920496,1.2189037622966876
1648295625066548504,55790,12,5,0.756763339043,0.451228827238,-1.86512243748,0.566431701183,21.0,0.2530981067033444,0.15091265125016723,-0.6237867683879598,21.0,0.07654482448418919,0.3884481066255693,2.0627602654311112
1648295625066571940,55791,12,6,1.42213451862,-0.310586065054,2.01364016533,-0.566431701183,21.0,0.4756302737859532,-0.10387493814515049,0.6734582492742475,21.0,-0.07654482448418919,0.6806161307653973,2.4846885133325056
1648295625066577497,55792,12,7,0.812480390072,0.131852567196,0.185968205333,-0.485512852669,21.0,0.27173257193043476,0.04409784856053511,0.06219672419163879,21.0,-0.06560984495527027,0.3868097743639963,0.8438564197317585
1648295625066581127,55793,12,8,0.836516618729,0.101086974144,0.672806143761,-0.323675245047,21.0,0.27977144439096985,0.03380835255652174,0.22501877717759197,21.0,-0.04373989797932432,0.3970983844034185,1.0782609780725334
1648295625066587719,55794,12,9,0.408301234245,-1.52948987484,-2.21075057983,-0.323675245047,21.0,0.13655559673745818,-0.5115350751973244,-0.7393814648260869,21.0,-0.04373989797932432,0.5467750864457698,2.719093102735313
1648295625066660105,55795,12,10,1.54790234566,0.169943317771,-2.22903227806,-0.323675245047,21.0,0.51769309219398,0.05683723002374581,-0.7454957451705685,21.0,-0.04373989797932432,0.7343314960748323,2.7190931024126592
1648295625168426289,55796,13,0,0.0127574298531,0.0439508594573,0.0101680960506,0.0,20.0,0.004266698947525083,0.014699284099431437,0.0034007010202675584,20.0,0.0,0.015889568680534445,0.04688091552845711
1648295625168436663,55797,13,1,0.0335146933794,0.0146502861753,-0.0293249841779,0.0,20.0,0.011208927551638796,0.0048997612626421405,-0.009807687016020066,20.0,0.0,0.016591798400012674,0.04688091567330431
1648295625168439702,55798,13,2,1.39510250092,-1.68478298187,0.84246468544,0.0,20.0,0.46658946519063543,-0.5634725691872909,0.281760764361204,20.0,0.0,0.8677054766914248,2.3440459531087536
1648295625168441660,55799,13,3,1.98429369926,-0.879017233849,-0.885696768761,0.0,20.0,0.6636433776789297,-0.29398569693946486,-0.2962196551040134,20.0,0.0,0.9835002061408934,2.3440459783289573
1648295625168442912,55800,13,4,2.19937992096,-1.31266570091,0.576196074486,0.0,20.0,0.735578568882943,-0.4390186290668896,0.19270771721939797,20.0,0.0,1.129109834634137,2.6253314448504654
1648295625168444990,55801,13,5,0.393599450588,0.205104023218,-0.483512789011,0.485512852669,20.0,0.1316386122367893,0.06859666328361204,-0.16170996287993308,20.0,0.06560984495527027,0.19840098456635943,0.6563328461844502
1648295625168449493,55802,13,6,0.776273488998,0.0747164562345,0.164276823401,-0.485512852669,20.0,0.2596232404675585,0.024988781349331104,0.05494208140501672,20.0,-0.06560984495527027,0.3680120829199445,0.7969755035508264
1648295625168538167,55803,13,7,0.796382665634,0.0249054860324,0.01801157929,-0.323675245047,20.0,0.26634871760334444,0.00832959399076923,0.006023939561872909,20.0,-0.04373989797932432,0.37676605589402995,0.7969755644593788
1648295625168541640,55804,13,8,1.66220796108,-0.533270418644,-1.70164418221,-0.323675245047,20.0,0.5559223950100334,-0.1783513105832776,-0.569111766625418,20.0,-0.04373989797932432,0.8061690942563824,2.437807533036113
1648295625168544562,55805,13,9,0.69592744112,-0.0,0.823608994484,-0.161837622523,20.0,0.23275165254849497,-0.0,0.2754545132053512,20.0,-0.021869948989594594,0.3291605436988319,1.0782609976711468
1648295625363557813,55806,15,0,0.0127668203786,0.0439508594573,0.0101563036442,0.0,11.3999996185,0.004269839591505016,0.014699284099431437,0.003396757071638796,11.3999996185,0.0,0.015891255875800543,0.046880915662217644
1648295625363563110,55807,15,1,0.0335146933794,0.0146502861753,-0.0293249841779,0.0,11.3999996185,0.011208927551638796,0.0048997612626421405,-0.009807687016020066,11.3999996185,0.0,0.016591798400012674,0.04688091567330431
1648295625363588527,55808,15,2,0.713134288788,-0.117202289402,0.200860902667,0.0,11.3999996185,0.23850645109966553,-0.03919809010100334,0.06717755942040134,11.3999996185,0.0,0.33956905733573645,0.7500946558311417
1648295625363591917,55809,15,3,1.41665410995,-1.68478298187,0.80569756031,0.0,11.3999996185,0.47379736118729093,-0.5634725691872909,0.269464066993311,11.3999996185,0.0,0.8754822757558298,2.3440458873337957
1648295625363594299,55810,15,4,0.540213227272,-0.190453708172,0.208155497909,0.323675245047,11.3999996185,0.18067332015785953,-0.06369689236521739,0.06961722338093645,11.3999996185,0.04373989797932432,0.26333057424217743,0.6094519318090956
1648295625363597229,55811,15,5,0.575724244118,-0.287145614624,0.129853084683,0.566431701183,11.3999996185,0.1925499144207358,-0.0960353226167224,0.04342912531204013,11.3999996185,0.07654482448418919,0.28874508182298675,0.6563328674268322
1648295625363702947,55812,15,6,1.42497599125,-1.00207960606,-0.372736394405,-0.485512852669,11.3999996185,0.4765805990802675,-0.3351436809565217,-0.12466100147324415,11.3999996185,-0.06560984495527027,0.7527147014138227,1.7814748194219092
1648295625468439439,55813,16,0,0.0126773277298,0.0439508594573,0.0102677913383,0.0,17.2999992371,0.004239908939732441,0.014699284099431437,0.003434043925852842,17.2999992371,0.0,0.015875219956594112,0.04688091535338192
1648295625468445006,55814,16,1,0.0334024913609,0.0146502861753,-0.0294527225196,0.0,17.2999992371,0.011171401792943143,0.0048997612626421405,-0.009850408869431436,17.2999992371,0.0,0.016541103242215586,0.04688091485828469
1648295625468446977,55815,16,2,0.698113143444,-0.164083212614,0.219901680946,0.161837622523,17.2999992371,0.2334826566702341,-0.054877328633444813,0.07354571269096989,17.2999992371,0.021869948989594594,0.33472350250546185,0.7500946680212242
1648295625468448585,55816,16,3,0.72659355402,-0.249054864049,0.212611168623,0.323675245047,17.2999992371,0.24300787759866221,-0.0832959411535117,0.07110741425518394,17.2999992371,0.04373989797932432,0.35361542806085555,0.7969755498590395
1648295625468449665,55817,16,4,0.534114480019,-0.287145614624,0.251081496477,0.485512852669,17.2999992371,0.17863360535752507,-0.0960353226167224,0.08397374464113712,17.2999992371,0.06560984495527027,0.2702641543308213,0.6563328421135812
1648295625468454297,55818,16,5,2.06975269318,-1.19546329975,0.0593369416893,-0.242756426334,17.2999992371,0.6922249809966554,-0.39982050158862875,0.019845130999765887,17.2999992371,-0.03280492247756756,1.0574532056418489,2.390926511757327
