%time,field.header.seq,field.header.frame_id,field.point_id,field.x,field.y,field.z,field.velocity,field.intensity,normalized_x,normalized_y,normalized_z,normalized_intensity,normalized_velocity,normalized_range,range
1648295649663878884,57329,0,0,0.0127438921481,0.0439508594573,0.0101850572973,0.0,31.5,0.004262171286989967,0.014699284099431437,0.0034063736780267557,31.5,0.0,0.015887138231760977,0.04688091537360406
1648295649663888963,57330,0,1,0.0334914848208,0.0146502861753,-0.0293514840305,0.0,31.5,0.011201165491906353,0.0048997612626421405,-0.009816549842976587,31.5,0.0,0.016581311081607385,0.04688091355032194
1648295649663893899,57331,0,2,0.47271463275,1.27457487583,0.0191458836198,0.0,31.5,0.1580985393812709,0.4262792226856187,0.006403305558461537,31.5,0.0,0.4813566993430525,1.3595465431431946
1648295649663896860,57332,0,3,2.19908165932,-1.31266570091,0.577333271503,0.0,31.5,0.7354788158260869,-0.4390186290668896,0.19308805066989965,31.5,0.0,1.1289798641807822,2.625331425379947
1648295649664027408,57333,0,4,0.804801464081,0.64461261034,0.0226763021201,-0.647350490093,31.5,0.26916436925785947,0.21558950178595315,0.007584047531806019,31.5,-0.08747979595851352,0.4374674258002282,1.0313801572039825
1648295649664029944,57334,0,5,1.33363139629,0.54499065876,0.191095650196,-0.323675245047,31.5,0.44603056732107016,0.18227112333110365,0.06391158869431438,31.5,-0.04373989797932432,0.6565891381753842,1.453308317883685
1648295649664032176,57335,0,6,0.909265220165,0.527410328388,0.401272505522,-0.242756426334,31.5,0.30410208032274244,0.1763914141765886,0.1342048513451505,31.5,-0.03280492247756756,0.46483339112896804,1.1251419993849432
1648295649664090930,57336,0,7,1.21608436108,0.492249637842,0.0438212007284,-0.242756426334,31.5,0.4067171776187291,0.16463198590033443,0.01465591997605351,31.5,-0.03280492247756756,0.5982820538189138,1.3126656759633089
1648295649767157696,57337,1,0,0.0127438921481,0.0439508594573,0.0101850572973,0.0,22.7999992371,0.004262171286989967,0.014699284099431437,0.0034063736780267557,22.7999992371,0.0,0.015887138231760977,0.04688091537360406
1648295649767184384,57338,1,1,0.0335142984986,0.0146502861753,-0.0293254330754,0.0,22.7999992371,0.011208795484481605,0.0048997612626421405,-0.00980783714896321,22.7999992371,0.0,0.016591619958785185,0.04688091417550657
1648295649767187080,57339,1,2,0.472581356764,1.27457487583,0.0221934579313,0.0,22.7999992371,0.15805396547290967,0.4262792226856187,0.007422561181036788,22.7999992371,0.0,0.48132742254818467,1.3595465429447096
1648295649767196701,57340,1,3,2.20227742195,-1.31266570091,0.565020561218,0.0,22.7999992371,0.7365476327591972,-0.4390186290668896,0.1889700873638796,22.7999992371,0.0,1.1303725878285114,2.6253314686293203
1648295649767340903,57341,1,4,1.90365982056,-1.9016071558,0.640766561031,-0.485512852669,22.7999992371,0.636675525270903,-0.6359890153177258,0.21430319766923078,22.7999992371,-0.06560984495527027,1.1023581435099805,2.765974018883726
1648295649767345902,57342,1,5,2.38956260681,1.2101136446,0.690092504025,-0.485512852669,22.7999992371,0.7991848183311037,0.40472028247491637,0.2308001685702341,22.7999992371,-0.06560984495527027,1.2004962535336852,2.765973996411245
1648295649767348465,57343,1,6,0.783074021339,0.498109728098,0.133453831077,-0.404594063759,22.7999992371,0.2618976659996655,0.1665918823070234,0.04463338832006689,22.7999992371,-0.05467487348094594,0.4061202163925626,0.9376183387450485
1648295649767353079,57344,1,7,1.01493322849,0.586011469364,-0.0117914592847,-0.404594063759,22.7999992371,0.3394425513344481,0.19599045798127088,-0.003943631867792642,22.7999992371,-0.05467487348094594,0.518512054761109,1.172023011306242
1648295649767356320,57345,1,8,0.820295631886,-0.79111546278,-2.57165408134,-0.404594063759,22.7999992371,0.2743463651792642,-0.26458711129765883,-0.8600849770367893,22.7999992371,-0.05467487348094594,0.46961494401156795,2.812855011054346
1648295649767361515,57346,1,9,2.03763127327,-1.93383777142,0.143119946122,-0.404594063759,22.7999992371,0.68148203119398,-0.6467684854247491,0.04786620271638795,22.7999992371,-0.05467487348094594,1.1606657535307783,2.8128549644367657
1648295649767364561,57347,1,10,0.958125293255,0.49224960804,0.325008749962,-0.242756426334,22.7999992371,0.3204432418913043,0.16463197593311035,0.1086985785826087,22.7999992371,-0.03280492247756756,0.48215291147856626,1.1251419651503427
1648295649767367996,57348,1,11,1.23236036301,0.451228827238,0.0277835056186,-0.242756426334,22.7999992371,0.41216065652508355,0.15091265125016723,0.00929214234735786,22.7999992371,-0.03280492247756756,0.6021025177506987,1.312665776971876
1648295649767370776,57349,1,12,1.34608900547,0.454158842564,0.306413650513,-0.161837622523,22.7999992371,0.4501969917959866,0.15189258948628762,0.10247948177692308,22.7999992371,-0.021869948989594594,0.6545426048662999,1.4533083603100165
1648295649867037879,57350,2,0,0.0127238156274,0.0439508594573,0.0102101275697,0.0,17.7000007629,0.004255456731571906,0.014699284099431437,0.00341475838451505,17.7000007629,0.0,0.01588353792529735,0.04688091547895533
1648295649867072523,57351,2,1,0.0334914848208,0.0146502861753,-0.0293514840305,0.0,17.7000007629,0.011201165491906353,0.0048997612626421405,-0.009816549842976587,17.7000007629,0.0,0.016581311081607385,0.04688091355032194
1648295649867079195,57352,2,2,1.86641478539,-0.175803437829,0.0458404496312,0.0,17.7000007629,0.6242189917692307,-0.05879713639765886,0.015331254057257524,17.7000007629,0.0,0.8847348770221249,1.87523661085669
1648295649867178672,57353,2,3,2.19682574272,-1.31266570091,0.585858464241,0.0,17.7000007629,0.7347243286688964,-0.4390186290668896,0.19593928569933108,17.7000007629,0.0,1.1279969126481209,2.6253313555331723
1648295649867185197,57354,2,4,1.8045194149,-1.95434820652,0.563649058342,-0.323675245047,17.7000007629,0.6035181989632106,-0.653628162715719,0.18851139074983275,17.7000007629,-0.04373989797932432,1.0750340497187618,2.7190931378032643
1648295649867189823,57355,2,5,1.45781731606,-0.849716603756,-2.13218617439,-0.323675245047,17.7000007629,0.48756431975250836,-0.28418615510234113,-0.7131057439431439,17.7000007629,-0.04373989797932432,0.7457879742549516,2.7190931422007
1648295649867193538,57356,2,6,1.39575088024,-0.879017174244,-2.27845597267,-0.323675245047,17.7000007629,0.4668063144615384,-0.29398567700468226,-0.7620254089197325,17.7000007629,-0.04373989797932432,0.7226644094780307,2.81285501434081
1648295649867195702,57357,2,7,2.21109843254,1.4943292141,0.888918817043,-0.323675245047,17.7000007629,0.7394978035250835,0.49977565688963205,0.2972972632250836,17.7000007629,-0.04373989797932432,1.1590900353537292,2.81285490948017
1648295649867198963,57358,2,8,1.36290705204,0.307656019926,0.160843461752,-0.242756426334,17.7000007629,0.45582175653511703,0.10289498994180601,0.05379379991705686,17.7000007629,-0.03280492247756756,0.6527896494404942,1.4064275588473931
1648295649867225688,57359,2,9,0.95061892271,0.404347896576,0.308987319469,-0.161837622523,17.7000007629,0.3179327500702341,0.13523341022608695,0.1033402406250836,17.7000007629,-0.021869948989594594,0.46952161012654253,1.0782609708564965
1648295649867263755,57360,2,10,0.748568713665,0.527410328388,0.20152258873,-0.0809188112617,17.7000007629,0.250357429319398,0.1763914141765886,0.06739885910702341,17.7000007629,-0.010934974494824324,0.395564932502935,0.9376183271122912
1648295649969032207,57361,3,0,0.0127438921481,0.0439508594573,0.0101850572973,0.0,18.8999996185,0.004262171286989967,0.014699284099431437,0.0034063736780267557,18.8999996185,0.0,0.015887138231760977,0.04688091537360406
1648295649969033396,57362,3,1,0.0334781743586,0.0146502861753,-0.0293666664511,0.0,18.8999996185,0.011196713832307692,0.0048997612626421405,-0.00982162757561873,18.8999996185,0.0,0.016575296730860337,0.04688091447330322
1648295649969034973,57363,3,2,1.87154173851,-0.117202289402,-0.0103643722832,0.0,18.8999996185,0.6259336918093645,-0.03919809010100334,-0.003466345245217391,18.8999996185,0.0,0.8860713647058952,1.8752365919635121
1648295649969037407,57364,3,3,2.2437081337,-1.2306240797,0.586261630058,0.0,18.8999996185,0.7504040580936455,-0.4115799597658863,0.19607412376521738,18.8999996185,0.0,1.1382489025198799,2.6253313150243103
1648295649969039299,57365,3,4,0.811939239502,0.46880915761,0.010035969317,0.323675245047,18.8999996185,0.2715515851177257,0.15679236040468228,0.0033565114772575247,18.8999996185,0.04373989797932432,0.41480642598828027,0.9376182995133018
1648295649969075030,57366,3,5,0.999395787716,0.404347896576,0.0189090594649,-0.566431701183,18.8999996185,0.33424608284816054,0.13523341022608695,0.006324100155484949,18.8999996185,-0.07654482448418919,0.49165939738812675,1.078260967715964
1648295649969174576,57367,3,6,0.950154483318,0.354536950588,0.187763169408,-0.323675245047,18.8999996185,0.31777741916989966,0.11857423096588628,0.06279704662474916,18.8999996185,-0.04373989797932432,0.46478470770639124,1.031380142957809
1648295649969178135,57368,3,7,1.02374327183,0.356001973152,0.653776168823,-0.323675245047,18.8999996185,0.34238905412374576,0.11906420506755852,0.2186542370645485,18.8999996185,-0.04373989797932432,0.4986349503352891,1.265784725151236
1648295649969191114,57369,3,8,0.796709179878,0.527410328388,0.59416949749,-0.242756426334,18.8999996185,0.2664579196916388,0.1763914141765886,0.19871889548160535,18.8999996185,-0.03280492247756756,0.41606919728334674,1.1251420192756703
1648295649969224574,57370,3,9,1.3251491785,0.297400802374,0.0624460652471,-0.242756426334,18.8999996185,0.44319370518394646,0.09946515129565217,0.020884971654548494,18.8999996185,-0.03280492247756756,0.6346137699038815,1.3595466500259448
1648295649969302319,57371,3,10,1.48342704773,-0.966918885708,-2.18555831909,-0.242756426334,18.8999996185,0.49612944740133774,-0.3233842427117057,-0.7309559595618729,18.8999996185,-0.03280492247756756,0.7725711783335804,2.8128549737978408
1648295649969325576,57372,3,11,1.38966691494,0.263705164194,-2.43134498596,-0.242756426334,18.8999996185,0.464771543458194,0.0881957070882943,-0.813158858180602,18.8999996185,-0.03280492247756756,0.6631769431801954,2.812854953397753
1648295650067321699,57373,4,0,0.0127323288471,0.0439508594573,0.0101995095611,0.0,17.7000007629,0.004258303962240802,0.014699284099431437,0.003411207211070234,17.7000007629,0.0,0.015885064000672747,0.046880915522129064
1648295650067322857,57374,4,1,0.0335142984986,0.0146502861753,-0.0293254330754,0.0,17.7000007629,0.011208795484481605,0.0048997612626421405,-0.00980783714896321,17.7000007629,0.0,0.016591619958785185,0.04688091417550657
1648295650067324556,57375,4,2,2.19540452957,-1.31266570091,0.591161847115,0.0,17.7000007629,0.7342490065451506,-0.4390186290668896,0.19771299234615383,17.7000007629,0.0,1.1273777378912768,2.625331335333968
1648295650067325676,57376,4,3,1.30166316032,-1.82835566998,-0.162991583347,-0.566431701183,17.7000007629,0.43533884960535113,-0.6114901906287625,-0.054512235233110364,17.7000007629,-0.07654482448418919,0.8677327245106188,2.2502839143370834
1648295650067326984,57377,4,4,1.34005689621,0.0849716588855,0.21305885911,-0.485512852669,17.7000007629,0.4481795639498327,0.028418615011872907,0.07125714351505016,17.7000007629,-0.06560984495527027,0.6344583995532863,1.359546521947295
1648295650067329459,57378,4,5,0.961868822575,0.290075659752,0.233258590102,-0.323675245047,17.7000007629,0.3216952583862876,0.09701527082006689,0.07801290638862876,17.7000007629,-0.04373989797932432,0.4651748502538928,1.0313801869721697
1648295650067338695,57379,4,6,0.589039444923,0.276890397072,1.08562207222,-0.323675245047,17.7000007629,0.19700315883712372,0.09260548397056856,0.363084305090301,17.7000007629,-0.04373989797932432,0.2935920040550035,1.2657847539598241
1648295650067343687,57380,4,7,1.57198929787,0.175803437829,-2.32596135139,-0.242756426334,17.7000007629,0.5257489290535117,0.05879713639765886,-0.7779134954481606,17.7000007629,-0.03280492247756756,0.7458424606110822,2.8128550281751648
1648295650067347680,57381,4,8,1.84568405151,-0.966918885708,-1.88962209225,-0.242756426334,17.7000007629,0.6172856359565216,-0.3233842427117057,-0.6319806328595318,17.7000007629,-0.03280492247756756,0.9309460140903543,2.8128550266688888
1648295650167050751,57382,5,0,0.0127438921481,0.0439508594573,0.0101850572973,0.0,20.3999996185,0.004262171286989967,0.014699284099431437,0.0034063736780267557,20.3999996185,0.0,0.015887138231760977,0.04688091537360406
1648295650167060419,57383,5,1,0.0335142984986,0.0146502861753,-0.0293254330754,0.0,20.3999996185,0.011208795484481605,0.0048997612626421405,-0.00980783714896321,20.3999996185,0.0,0.016591619958785185,0.04688091417550657
1648295650167069091,57384,5,2,1.91302812099,-0.180198520422,-0.0488677509129,0.0,20.3999996185,0.6398087361170568,-0.06026706368628762,-0.016343729402307692,20.3999996185,0.0,0.906831051844156,1.9221176227120162
1648295650167071500,57385,5,3,2.2416677475,-1.2306240797,0.594016313553,0.0,20.3999996185,0.7497216546822743,-0.4115799597658863,0.19866766339565217,20.3999996185,0.0,1.1373491910050946,2.625331464117682
1648295650167080074,57386,5,4,0.933641970158,0.24612480402,0.192286089063,-0.485512852669,20.3999996185,0.3122548395177257,0.08231598796655518,0.06430972878361203,20.3999996185,-0.06560984495527027,0.4492016156241998,0.9844992065215386
1648295650167088954,57387,5,5,0.824105501175,0.266635209322,0.857602596283,-0.485512852669,20.3999996185,0.2756205689548495,0.0891756552916388,0.2868236107969899,20.3999996185,-0.06560984495527027,0.39985709141977593,1.2189037800697917
1648295650167283624,57388,5,6,1.2961512804,0.0424858294427,0.408109873533,-0.485512852669,20.3999996185,0.4334954115050167,0.01420930750591973,0.1364915964993311,20.3999996185,-0.06560984495527027,0.6132197387654814,1.3595465627410908
1648295650167296377,57389,5,7,1.83839774132,-1.1236770153,-1.73443245888,-0.242756426334,20.3999996185,0.6148487429163879,-0.37581171080267556,-0.580077745444816,20.3999996185,-0.03280492247756756,0.9472657469306904,2.765974013692196
1648295650167299331,57390,5,8,1.96091854572,-0.0,-1.95074617863,-0.242756426334,20.3999996185,0.6558256005752507,-0.0,-0.6524234711137123,20.3999996185,-0.03280492247756756,0.9274774588849999,2.7659740050094808
1648295650167301117,57391,5,9,0.852579832077,0.49224960804,-0.00605412432924,-0.0809188112617,20.3999996185,0.28514375654749163,0.16463197593311035,-0.002024790745565217,20.3999996185,-0.010934974494824324,0.43556585184753704,0.9844992123416724
1648295650268966240,57392,6,0,0.0127238156274,0.0439508594573,0.0102101275697,0.0,29.7000007629,0.004255456731571906,0.014699284099431437,0.00341475838451505,29.7000007629,0.0,0.01588353792529735,0.04688091547895533
1648295650268967445,57393,6,1,0.0334292426705,0.0146502861753,-0.0294223539531,0.0,29.7000007629,0.011180348719230768,0.0048997612626421405,-0.009840252158227423,29.7000007629,0.0,0.0165531886776566,0.04688091362892647
1648295650268972463,57394,6,2,1.87412011623,-0.0586011447012,0.0274206418544,0.0,29.7000007629,0.6267960254949833,-0.019599045050568562,0.00917078322889632,29.7000007629,0.0,0.8866400835285475,1.8752365706272762
1648295650268973541,57395,6,3,2.24447727203,-1.2306240797,0.5833106637,0.0,29.7000007629,0.750661294993311,-0.4115799597658863,0.19508717849498325,29.7000007629,0.0,1.1385880830585564,2.625331442043621
1648295650268974742,57396,6,4,0.726305425167,-2.08180570602,0.644617497921,0.566431701183,29.7000007629,0.24291151343377926,-0.6962560889698995,0.21559113642842806,29.7000007629,0.07654482448418919,0.776392006749837,2.297164836678112
1648295650268975794,57397,6,5,0.870933115482,0.205104008317,0.280242651701,-0.566431701183,29.7000007629,0.2912819784220736,0.06859665829999999,0.09372663936488293,29.7000007629,-0.07654482448418919,0.4176073316368879,0.9376183070435916
1648295650268976922,57398,6,6,0.825465142727,-1.34489631653,-1.97957193851,-0.485512852669,29.7000007629,0.276075298570903,-0.44979809917391306,-0.6620641934816053,29.7000007629,-0.06560984495527027,0.5956118459051094,2.531569446768053
1648295650268978171,57399,6,7,1.80477237701,-0.0,1.77528607845,-0.485512852669,29.7000007629,0.6036028016755852,-0.0,0.593741163361204,29.7000007629,-0.06560984495527027,0.8536232684160102,2.5315694723148927
1648295650268979185,57400,6,8,1.25591480732,-0.082041606307,0.372878402472,-0.404594063759,29.7000007629,0.4200383970969899,-0.027438664316722407,0.12470849581003343,29.7000007629,-0.05467487348094594,0.5946573722498553,1.3126656586660352
1648295650268981186,57401,6,9,1.26666009426,-0.0,0.34447568655,-0.404594063759,29.7000007629,0.4236321385484949,-0.0,0.11520925971571905,29.7000007629,-0.05467487348094594,0.5991063157923996,1.3126657202101553
1648295650464215407,57402,8,0,0.0127353817225,0.0439508594573,0.0101956976578,0.0,23.6000003815,0.004259324990802675,0.014699284099431437,0.003409932327023411,23.6000003815,0.0,0.01588561147045811,0.046880915577475576
1648295650464320020,57403,8,1,0.0334158502519,0.0146502861753,-0.0294375643134,0.0,23.6000003815,0.011175869649464881,0.0048997612626421405,-0.009845339235250836,23.6000003815,0.0,0.01654713828051694,0.04688091430188998
1648295650464323514,57404,8,2,1.41660714149,-1.68478298187,0.805780291557,0.0,23.6000003815,0.4737816526722408,-0.5634725691872909,0.26949173630668893,23.6000003815,0.0,0.8754652734656047,2.3440459397334603
1648295650464324963,57405,8,3,1.98769891262,-0.879017233849,-0.878028035164,0.0,23.6000003815,0.6647822450234113,-0.29398569693946486,-0.29365486125886286,23.6000003815,0.0,0.9850372869093416,2.34404596694865
1648295650464330263,57406,8,4,2.24417328835,-1.2306240797,0.584478378296,0.0,23.6000003815,0.7505596282107022,-0.4115799597658863,0.19547771849364548,23.6000003815,0.0,1.1384540281805249,2.6253312835481633
1648295650464334157,57407,8,5,1.96047210693,-0.061531201005,0.172388672829,-0.647350490093,23.6000003815,0.6556762899431438,-0.020578996991638794,0.05765507452474916,23.6000003815,-0.08747979595851352,0.9274946304450462,1.9689984320124319
1648295650464339466,57408,8,6,0.809654116631,0.0527410283685,0.23188868165,-0.566431701183,23.6000003815,0.27078732997692306,0.017639139922575247,0.07755474302675586,23.6000003815,-0.07654482448418919,0.3833571382004908,0.8438564838456044
1648295650464341517,57409,8,7,1.2207556963,-0.46587908268,-2.11338329315,-0.404594063759,23.6000003815,0.4082794970903009,-0.1558124022341137,-0.7068171548996656,23.6000003815,-0.05467487348094594,0.5980483259558406,2.484688458035171
1648295650464343210,57410,8,8,0.0894403085113,0.307656019926,-0.625985443592,-0.0809188112617,23.6000003815,0.029913146659297656,0.10289498994180601,-0.20935968013110368,23.6000003815,-0.010934974494824324,0.11125183882186246,0.7032137448687823
1648295650569016046,57411,9,0,0.0127238156274,0.0439508594573,0.0102101275697,0.0,30.2000007629,0.004255456731571906,0.014699284099431437,0.00341475838451505,30.2000007629,0.0,0.01588353792529735,0.04688091547895533
1648295650569026142,57412,9,1,0.0335142984986,0.0146502861753,-0.0293254330754,0.0,30.2000007629,0.011208795484481605,0.0048997612626421405,-0.00980783714896321,30.2000007629,0.0,0.016591619958785185,0.04688091417550657
1648295650569028838,57413,9,2,1.38301753998,-1.68478298187,0.862160205841,0.0,30.2000007629,0.4625476722341137,-0.5634725691872909,0.2883478949301003,30.2000007629,0.0,0.863366685948051,2.3440459535655216
1648295650569031464,57414,9,3,2.02058649063,-0.879017233849,-0.799443900585,0.0,30.2000007629,0.675781434993311,-0.29398569693946486,-0.2673725420016722,30.2000007629,0.0,0.9998943373018072,2.3440459922327816
1648295650569218103,57415,9,4,2.24463868141,-1.2306240797,0.582689225674,0.0,30.2000007629,0.7507152780635451,-0.4115799597658863,0.194879339690301,30.2000007629,0.0,1.1386592645374385,2.6253314399016485
1648295650569221600,57416,9,5,0.285875499249,0.0952268540859,-0.529753386974,0.404594063759,30.2000007629,0.09561053486588629,0.03184844618257525,-0.17717504581070231,30.2000007629,0.05467487348094594,0.13891390239614645,0.6094518896684027
1648295650569227996,57417,9,6,0.755257487297,-0.0249054860324,0.253250688314,-0.485512852669,30.2000007629,0.2525944773568562,-0.00832959399076923,0.08469922686086956,30.2000007629,-0.06560984495527027,0.3573196357862491,0.7969755745844429
1648295650569232470,57418,9,7,1.04284262657,1.66134238243,0.17139326036,-0.404594063759,30.2000007629,0.3487767981839464,0.5556329038227424,0.05732216065551839,30.2000007629,-0.05467487348094594,0.7429794302087935,1.9689984522966073
1648295650569235552,57419,9,8,0.718279182911,-0.0234404578805,0.214866399765,-0.323675245047,30.2000007629,0.2402271514752508,-0.007839618020234113,0.07186167216220735,30.2000007629,-0.04373989797932432,0.33982293657510726,0.7500946669700526
1648295650569238898,57420,9,9,0.751843035221,-0.064461261034,0.703080236912,-0.0809188112617,30.2000007629,0.25145252014080266,-0.021558950178595316,0.23514389194381266,30.2000007629,-0.010934974494824324,0.3562604778853875,1.0313801546086938
1648295650764069621,57421,11,0,0.0127438921481,0.0439508594573,0.0101850572973,0.0,14.6000003815,0.004262171286989967,0.014699284099431437,0.0034063736780267557,14.6000003815,0.0,0.015887138231760977,0.04688091537360406
1648295650764113411,57422,11,1,0.0335142984986,0.0146502861753,-0.0293254330754,0.0,14.6000003815,0.011208795484481605,0.0048997612626421405,-0.00980783714896321,14.6000003815,0.0,0.016591619958785185,0.04688091417550657
1648295650764132378,57423,11,2,0.715726852417,-0.140642747283,0.174918830395,0.0,14.6000003815,0.23937352923645483,-0.047037708121404675,0.05850128106856187,14.6000003815,0.0,0.3417775870117089,0.7500945986079427
1648295650764140470,57424,11,3,2.18545365334,-1.31266570091,0.626949548721,0.0,14.6000003815,0.7309209542943144,-0.4390186290668896,0.20968212331806016,14.6000003815,0.0,1.1230441841355991,2.6253313409709182
1648295650764148776,57425,11,4,0.507412552834,-0.285680562258,0.179863035679,0.485512852669,14.6000003815,0.16970319492775918,-0.09554533854782607,0.06015486143110368,14.6000003815,0.06560984495527027,0.2583162024643378,0.609451879994827
1648295650764152318,57426,11,5,0.556633353233,-0.20949909091,0.133045300841,-0.566431701183,14.6000003815,0.1861650010812709,-0.07006658558862876,0.04449675613411371,14.6000003815,-0.07654482448418919,0.272441079265275,0.6094518939993562
1648295650764157846,57427,11,6,0.286772042513,-0.93761831522,1.59848248959,-0.242756426334,14.6000003815,0.09591038211137122,-0.31358472080936456,0.5346095282909699,14.6000003815,-0.03280492247756756,0.34166208440297496,1.8752366727773093
1648295650869007082,57428,12,0,0.0127438921481,0.0439508594573,0.0101850572973,0.0,21.8999996185,0.004262171286989967,0.014699284099431437,0.0034063736780267557,21.8999996185,0.0,0.015887138231760977,0.04688091537360406
1648295650869020684,57429,12,1,0.0335009843111,0.0146502861753,-0.0293406434357,0.0,21.8999996185,0.01120434257896321,0.0048997612626421405,-0.00981292422598662,21.8999996185,0.0,0.016585603567082642,0.046880915008686
1648295650869040341,57430,12,2,1.87523150444,-0.0,0.00440340442583,0.0,21.8999996185,0.6271677272374582,-0.0,0.0014727105103110368,21.8999996185,0.0,0.8869491057419233,1.8752366744533457
1648295650869045720,57431,12,3,0.687694966793,-0.257845044136,0.152425542474,0.242756426334,21.8999996185,0.22999831665317724,-0.08623580071438126,0.05097844229899665,21.8999996185,0.03280492247756756,0.3365041822198364,0.7500946474521827
1648295650869070579,57432,12,4,0.707992494106,-0.473204255104,0.261223226786,0.404594063759,21.8999996185,0.23678678732642136,-0.15826229267692307,0.08736562768762542,21.8999996185,0.05467487348094594,0.37038212509257495,0.8907374545686602
1648295650869133474,57433,12,5,0.504108071327,-0.369187235832,0.200869634748,0.485512852669,21.8999996185,0.16859801716622072,-0.12347399191705685,0.06718047984882942,21.8999996185,0.06560984495527027,0.2685077456325905,0.6563328217010752
1648295650869136858,57434,12,6,1.20153832436,-0.9713139534,-0.977619230747,-0.242756426334,21.8999996185,0.40185228239464876,-0.3248541650167224,-0.32696295342709025,21.8999996185,-0.03280492247756756,0.6545996809197886,1.82835568238287
1648295650869147138,57435,12,7,1.86501598358,-1.39177727699,0.281464636326,-0.161837622523,21.8999996185,0.6237511650769231,-0.4654773501638796,0.09413532987491638,21.8999996185,-0.021869948989594594,0.9973967091309379,2.3440458505022255
1648295650869238841,57436,12,8,0.413543373346,-0.659262895584,-2.21108698845,-0.161837622523,21.8999996185,0.13830882051705684,-0.22048926273712371,-0.739493976070234,21.8999996185,-0.021869948989594594,0.2947442529516042,2.3440459376098155
1648295651063999808,57437,14,0,0.0127438921481,0.0439508594573,0.0101850572973,0.0,19.3999996185,0.004262171286989967,0.014699284099431437,0.0034063736780267557,19.3999996185,0.0,0.015887138231760977,0.04688091537360406
1648295651064018774,57438,14,1,0.0335009843111,0.0146502861753,-0.0293406434357,0.0,19.3999996185,0.01120434257896321,0.0048997612626421405,-0.00981292422598662,19.3999996185,0.0,0.016585603567082642,0.046880915008686
1648295651064160699,57439,14,2,1.86766314507,-0.117202289402,-0.120872795582,0.0,19.3999996185,0.624636503367893,-0.03919809010100334,-0.04042568414113712,19.3999996185,0.0,0.8842386628885338,1.875236580489417
1648295651064164680,57440,14,3,0.533972501755,-0.49224960804,0.187631681561,0.404594063759,19.3999996185,0.1785861209882943,-0.16463197593311035,0.06275307075618729,19.3999996185,0.05467487348094594,0.3014791746023788,0.7500946321441286
1648295651064279153,57441,14,4,0.816756784916,-0.184593603015,0.104533582926,-0.647350490093,19.3999996185,0.27316280431973244,-0.06173699097491638,0.03496106452374582,19.3999996185,-0.08747979595851352,0.39121259103239225,0.8438564533969788
1648295651169053572,57442,15,0,0.0127438921481,0.0439508594573,0.0101850572973,0.0,44.7000007629,0.004262171286989967,0.014699284099431437,0.0034063736780267557,44.7000007629,0.0,0.015887138231760977,0.04688091537360406
1648295651169057699,57443,15,1,0.0334781743586,0.0146502861753,-0.0293666664511,0.0,44.7000007629,0.011196713832307692,0.0048997612626421405,-0.00982162757561873,44.7000007629,0.0,0.016575296730860337,0.04688091447330322
1648295651169060535,57444,15,2,1.86591219902,-0.175803437829,-0.0630631372333,0.0,44.7000007629,0.6240509026822743,-0.05879713639765886,-0.021091350245250832,44.7000007629,0.0,0.8844976888187371,1.875236556406112
1648295651169062861,57445,15,3,0.552863359451,-0.547920703888,0.171157956123,0.161837622523,44.7000007629,0.18490413359565214,-0.18325107153444814,0.057243463586287624,44.7000007629,0.021869948989594594,0.3193118107117884,0.7969755566620408
1648295651169065422,57446,15,4,0.716251730919,-0.501039803028,0.171335086226,0.242756426334,44.7000007629,0.23954907388595315,-0.16757184047759197,0.057302704423411364,44.7000007629,0.03280492247756756,0.3779521653864193,0.8907374125043089
1648295651169093253,57447,15,5,0.771166205406,-0.527410328388,0.0791776254773,0.485512852669,44.7000007629,0.25791511886488294,-0.1763914141765886,0.026480811196421403,44.7000007629,0.06560984495527027,0.40515965750971583,0.9376182950576692
