%time,field.header.seq,field.header.frame_id,field.point_id,field.x,field.y,field.z,field.velocity,field.intensity,normalized_x,normalized_y,normalized_z,normalized_intensity,normalized_velocity,normalized_range,range
1648127080704035398,93326,0,0,0.0125787733123,0.0439508594573,0.0103882942349,0.0,28.8999996185,0.004206947596086956,0.014699284099431437,0.003474345897959866,28.8999996185,0.0,0.01585767224999437,0.04688091554341088
1648127080704039838,93327,0,1,0.0328369177878,0.0146502861753,-0.0300819892436,0.0,28.8999996185,0.010982246751772574,0.0048997612626421405,-0.010060865967759198,28.8999996185,0.0,0.016285795892879384,0.046880914364728306
1648127080704058264,93328,0,2,0.476116120815,-1.53828001022,0.315179258585,0.0,28.8999996185,0.1592361608076923,-0.51447491980602,0.10541112327257525,28.8999996185,0.0,0.5616019523888403,1.6408320801911929
1648127080704322374,93329,0,3,2.42382311821,-0.902457654476,0.450573563576,0.0,28.8999996185,0.810643183347826,-0.30182530250033446,0.1506934995237458,28.8999996185,0.0,1.1854886143046726,2.6253313814993238
1648127080704337026,93330,0,4,0.47023370862,0.451228827238,0.077753610909,-0.242756426334,28.8999996185,0.1572687988695652,0.15091265125016723,0.02600455214347826,28.8999996185,-0.03280492247756756,0.26877793529809346,0.6563328570645295
1648127080704352336,93331,0,5,1.29021310806,-1.45037841797,0.826037943363,-0.242756426334,28.8999996185,0.43150940068896315,-0.4850763939698996,0.2762668706899665,28.8999996185,-0.03280492247756756,0.7795510462777517,2.109641226227431
1648127080704361421,93332,0,6,1.62801492214,-1.54707026482,0.141134724021,-0.161837622523,28.8999996185,0.5444865960334447,-0.5174148042876254,0.047202248836454845,28.8999996185,-0.021869948989594594,0.9277119090623862,2.2502839823731624
1648127080704367539,93333,0,7,0.279935508966,-0.527410328388,-2.74875020981,-0.161837622523,28.8999996185,0.09362391604214046,-0.1763914141765886,-0.9193144514414715,28.8999996185,-0.021869948989594594,0.22055567620296776,2.812855001524414
1648127080704370051,93334,0,8,1.29527676105,0.879017174244,-2.33703660965,-0.161837622523,28.8999996185,0.43320293011705685,0.29398567700468226,-0.7816175952006689,28.8999996185,-0.021869948989594594,0.6795271411856252,2.8128549900726223
1648127080704376861,93335,0,9,0.572536945343,0.421928226948,0.238369479775,-0.0809188112617,28.8999996185,0.19148392820836121,0.14111311938060198,0.07972223403846153,28.8999996185,-0.010934974494824324,0.30536060974777623,0.7500946549378822
1648127080803662660,93336,1,0,0.0125994505361,0.0439508594573,0.0103632062674,0.0,28.8999996185,0.004213863055551839,0.014699284099431437,0.003465955273377926,28.8999996185,0.0,0.01586134410249293,0.04688091557326548
1648127080803674689,93337,1,1,0.032885145396,0.0146502861753,-0.0300292614847,0.0,28.8999996185,0.010998376386622074,0.0048997612626421405,-0.010043231265785952,28.8999996185,0.0,0.016307551217595504,0.04688091528597467
1648127080803682540,93338,1,2,0.60736989975,0.421928226948,0.125380933285,0.0,28.8999996185,0.20313374573578594,0.14111311938060198,0.041933422503344475,28.8999996185,0.0,0.320061790557114,0.7500946621921967
1648127080803694578,93339,1,3,2.42417526245,-0.902457654476,0.448675274849,0.0,28.8999996185,0.8107609573411371,-0.30182530250033446,0.1500586203508361,28.8999996185,0.0,1.1856496839820996,2.625331412118797
1648127080803703073,93340,1,4,0.855879306793,0.380907446146,-0.0388369262218,0.0809188112617,28.8999996185,0.28624725979698995,0.12739379469765885,-0.012988938535719063,28.8999996185,0.010934974494824324,0.4243868122480247,0.9376183536835718
1648127080803710654,93341,1,5,0.930787146091,0.902457654476,0.205661565065,0.404594063759,28.8999996185,0.3113000488598662,0.30182530250033446,0.06878313212876254,28.8999996185,0.05467487348094594,0.5337733171204125,1.3126656881306593
1648127080803717111,93342,1,6,1.22037386894,-1.48260903358,0.753351151943,-0.242756426334,28.8999996185,0.408151795632107,-0.49585586407357857,0.2519569070043478,28.8999996185,-0.03280492247756756,0.7609525704612488,2.0627602586288236
1648127080803720335,93343,1,7,1.31384170055,0.7779302001,-2.30635142326,-0.242756426334,28.8999996185,0.4394119399832776,0.26017732444816055,-0.7713549910568562,28.8999996185,-0.03280492247756756,0.6736897996531775,2.765974023360518
1648127080803724675,93344,1,8,0.970453083515,-0.5186201334,-2.53768920898,-0.242756426334,28.8999996185,0.32456624866722406,-0.17345154963210702,-0.8487254879531771,28.8999996185,-0.03280492247756756,0.4906851736272535,2.7659740691924686
1648127080803729088,93345,1,9,0.504962980747,0.410208046436,0.0866863802075,-0.161837622523,28.8999996185,0.16888394004916385,0.13719332656722408,0.02899210040384615,28.8999996185,-0.021869948989594594,0.27543706952340336,0.6563328285246852
1648127080903711670,93346,2,0,0.0125787733123,0.0439508594573,0.0103882942349,0.0,34.2000007629,0.004206947596086956,0.014699284099431437,0.003474345897959866,34.2000007629,0.0,0.01585767224999437,0.04688091554341088
1648127080903721341,93347,2,1,0.0328124724329,0.0146502861753,-0.0301086530089,0.0,34.2000007629,0.010974071047792642,0.0048997612626421405,-0.010069783615016722,34.2000007629,0.0,0.01627476977271537,0.04688091528744241
1648127080903725304,93348,2,2,0.532989442348,0.369187235832,0.101960033178,0.0,34.2000007629,0.17825733857792642,0.12347399191705685,0.0341003455444816,34.2000007629,0.0,0.28070836146026074,0.6563328493389339
1648127080903744009,93349,2,3,0.482543855906,-1.53828001022,0.305247366428,0.0,34.2000007629,0.16138590498528427,-0.51447491980602,0.10208942021003344,34.2000007629,0.0,0.5628279166541484,1.6408320808133607
1648127080903748158,93350,2,4,2.42388033867,-0.902457654476,0.450265109539,0.0,34.2000007629,0.810662320625418,-0.30182530250033446,0.15059033763846152,34.2000007629,0.0,1.1855147866614715,2.62533129017682
1648127080903753711,93351,2,5,0.593641161919,0.323771327734,0.421820223331,0.161837622523,34.2000007629,0.1985421946217391,0.10828472499464883,0.1410769977695652,34.2000007629,0.021869948989594594,0.3009378470010042,0.7969755345041605
1648127080903764123,93352,2,6,0.568348050117,0.637287437916,-1.05792820454,-0.647350490093,34.2000007629,0.19008295990535115,0.21313961134314377,-0.35382214198662204,34.2000007629,-0.08747979595851352,0.3430620311492734,1.3595465679992589
1648127080903767844,93353,2,7,0.672103226185,1.14711737633,0.284193336964,-0.647350490093,34.2000007629,0.22478368768729093,0.3836512964314381,0.09504793878394649,34.2000007629,-0.08747979595851352,0.4982406343867572,1.3595465694492563
1648127080903771391,93354,2,8,1.97443389893,-1.58223092556,0.0836679190397,-0.323675245047,34.2000007629,0.6603457855953178,-0.5291742225953177,0.027982581618628762,34.2000007629,-0.04373989797932432,1.0733771336144409,2.5315695218023957
1648127080903774689,93355,2,9,1.12414479256,-1.54707026482,0.773209095001,-0.242756426334,34.2000007629,0.37596815804682276,-0.5174148042876254,0.258598359532107,34.2000007629,-0.03280492247756756,0.7419044355078646,2.06276034078665
1648127080903777611,93356,2,10,2.03573203087,0.257845044136,0.21045447886,-0.242756426334,34.2000007629,0.6808468330668896,0.08623580071438126,0.07038611333110367,34.2000007629,-0.03280492247756756,0.966716832127835,2.06276030017252
1648127080903780631,93357,2,11,1.48257756233,0.509829938412,-2.22159957886,-0.242756426334,34.2000007629,0.49584533857190627,0.1705116850876254,-0.7430098925953176,34.2000007629,-0.03280492247756756,0.7216643501783903,2.7190931361791337
1648127080903786232,93358,2,12,1.58393585682,-0.679773271084,-2.10297942162,-0.242756426334,34.2000007629,0.5297444337190634,-0.22734892009498325,-0.7033375992040134,34.2000007629,-0.03280492247756756,0.7829085908208042,2.7190930374589133
1648127081003713248,93359,3,0,0.0125994505361,0.0439508594573,0.0103632062674,0.0,19.0,0.004213863055551839,0.014699284099431437,0.003465955273377926,19.0,0.0,0.01586134410249293,0.04688091557326548
1648127081003725078,93360,3,1,0.0328369177878,0.0146502861753,-0.0300819892436,0.0,19.0,0.010982246751772574,0.0048997612626421405,-0.010060865967759198,19.0,0.0,0.016285795892879384,0.046880914364728306
1648127081003885676,93361,3,2,0.473407953978,-1.53828001022,0.319232553244,0.0,19.0,0.15833041939063544,-0.51447491980602,0.10676674021538461,19.0,0.0,0.5610895530289614,1.6408320766558542
1648127081003892469,93362,3,3,2.42271399498,-0.902457654476,0.456499606371,0.0,19.0,0.8102722391237458,-0.30182530250033446,0.15267545363578594,19.0,0.0,1.1849813147128674,2.625331371505539
1648127081003895868,93363,3,4,0.58539056778,0.287145614624,0.0750873461366,0.161837622523,19.0,0.19578279858862874,0.0960353226167224,0.025112824794849494,19.0,0.021869948989594594,0.2930607302872377,0.6563328655441711
1648127081003898390,93364,3,5,0.665907979012,0.281285494566,0.200217470527,0.242756426334,19.0,0.22271169866622073,0.09407541624280935,0.06696236472474916,19.0,0.03280492247756756,0.3287114013642436,0.7500946616723223
1648127081004035769,93365,3,6,0.623120367527,0.26956525445,0.837676763535,0.323675245047,19.0,0.2084014607113712,0.09015560349498328,0.2801594526872909,19.0,0.04373989797932432,0.3082050786324116,1.078260997625412
1648127081004058689,93366,3,7,0.935102641582,1.01086974144,0.28594365716,-0.404594063759,19.0,0.3127433583886287,0.33808352556521737,0.09563333015384613,19.0,-0.05467487348094594,0.556702152583411,1.4064275166259521
1648127081004142256,93367,3,8,0.688165783882,0.527410328388,-1.10738635063,-0.404594063759,19.0,0.2301557805625418,0.1763914141765886,-0.3703633279698996,19.0,-0.05467487348094594,0.37021250336519246,1.4064275061864706
1648127081004221881,93368,3,9,1.69892048836,-1.78586983681,0.313073545694,-0.242756426334,19.0,0.5682008322274247,-0.5972808818762542,0.1047068714695652,19.0,-0.03280492247756756,1.0012236629958122,2.484688500559088
1648127081004226127,93369,3,10,2.40135502815,0.621172130108,0.14600199461,-0.242756426334,19.0,0.8031287719565217,0.20774987629030098,0.048830098531772566,19.0,-0.03280492247756756,1.1546391903046669,2.4846885858944767
1648127081004233604,93370,3,11,2.00856375694,0.257845044136,0.392642408609,-0.161837622523,19.0,0.671760453826087,0.08623580071438126,0.13131853130735785,19.0,-0.021869948989594594,0.9539186694756063,2.062760406231587
1648127081004252832,93371,3,12,1.64995086193,-1.10463154316,-1.85766494274,-0.161837622523,19.0,0.5518230307458194,-0.3694419876789297,-0.6212926229899666,19.0,-0.021869948989594594,0.8634261385799955,2.719093182002559
1648127081004267755,93372,3,13,1.54783844948,0.594801604748,-2.15496516228,-0.161837622523,19.0,0.5176717222341136,0.19893030259130434,-0.720724134541806,19.0,-0.021869948989594594,0.7586443760357908,2.719093169668872
1648127081103769835,93373,4,0,0.0125787733123,0.0439508594573,0.0103882942349,0.0,19.5,0.004206947596086956,0.014699284099431437,0.003474345897959866,19.5,0.0,0.01585767224999437,0.04688091554341088
1648127081103781099,93374,4,1,0.0328369177878,0.0146502861753,-0.0300819892436,0.0,19.5,0.010982246751772574,0.0048997612626421405,-0.010060865967759198,19.5,0.0,0.016285795892879384,0.046880914364728306
1648127081103791035,93375,4,2,0.483030259609,-1.53828001022,0.304477095604,0.0,19.5,0.1615485818090301,-0.51447491980602,0.10183180454983276,19.5,0.0,0.5629212482030044,1.6408320825995049
1648127081103796900,93376,4,3,2.41959381104,-0.902457654476,0.472758769989,0.0,19.5,0.8092286993444815,-0.30182530250033446,0.15811330099966556,19.5,0.0,1.1835542610775989,2.6253313853963096
1648127081103800496,93377,4,4,0.761995732784,0.199243888259,0.121796600521,0.161837622523,19.5,0.2548480711652174,0.06663675192608695,0.04073464900367892,19.5,0.021869948989594594,0.3665181243274639,0.7969755552638124
1648127081103804042,93378,4,5,0.6523193717,0.241729721427,0.102741144598,0.242756426334,19.5,0.21816701394648827,0.08084606067792642,0.034361586822073575,19.5,0.03280492247756756,0.3189510581198836,0.7032137397047677
1648127081104018025,93379,4,6,1.02754366398,0.064461261034,-0.0611866973341,0.323675245047,19.5,0.3436600882876254,0.021558950178595316,-0.020463778372608696,19.5,0.04373989797932432,0.48648669138684575,1.031380166325779
1648127081104024203,93380,4,7,0.882589876652,0.328166425228,-1.16786551476,-0.323675245047,19.5,0.2951805607531772,0.10975465726688963,-0.3905904731638795,19.5,-0.04373989797932432,0.43163550790556227,1.500189305914809
1648127081104030981,93381,4,8,1.12254011631,0.93761831522,0.33368191123,-0.323675245047,19.5,0.37543147702675583,0.31358472080936456,0.11159930141471572,19.5,-0.04373989797932432,0.6166303309196444,1.5001893332654268
1648127081104046057,93382,4,9,0.605057895184,-0.776465177536,-2.28137755394,-0.242756426334,19.5,0.20236050006153844,-0.25968735034648827,-0.7630025264013378,19.5,-0.03280492247756756,0.3864415400811506,2.484688465798431
1648127081104073133,93383,4,10,1.80382287502,-1.7082233429,0.0432798527181,-0.242756426334,19.5,0.6032852424816053,-0.5713121548160535,0.014474867129799328,19.5,-0.03280492247756756,1.026792942044666,2.4846885316524423
1648127081104116467,93384,4,11,1.32019138336,-1.41521763802,-0.36222743988,-0.161837622523,19.5,0.44153557971906354,-0.47331693579264206,-0.12114630096321069,19.5,-0.021869948989594594,0.7835408464297411,1.9689984687304654
1648127081208015047,93385,5,0,0.0125787733123,0.0439508594573,0.0103882942349,0.0,22.8999996185,0.004206947596086956,0.014699284099431437,0.003474345897959866,22.8999996185,0.0,0.01585767224999437,0.04688091554341088
1648127081208018952,93386,5,1,0.0327840410173,0.0146502861753,-0.030139606446,0.0,22.8999996185,0.010964562213143812,0.0048997612626421405,-0.010080135935117055,22.8999996185,0.0,0.016261946669531627,0.046880914103310314
1648127081208178148,93387,5,2,0.480167239904,-1.53828001022,0.308972418308,0.0,22.8999996185,0.16059105013511704,-0.51447491980602,0.1033352569591973,22.8999996185,0.0,0.5623730202244859,1.6408320826320293
1648127081208185974,93388,5,3,2.3885011673,-0.984499275684,0.467106163502,0.0,22.8999996185,0.7988298218394648,-0.32926397180066885,0.15622279715785953,22.8999996185,0.0,1.1767212633610789,2.625331372988435
1648127081208190415,93389,5,4,0.767628610134,0.139177724719,0.429871022701,0.161837622523,22.8999996185,0.25673197663344477,0.04654773401973244,0.143769572809699,22.8999996185,0.021869948989594594,0.3660454988039097,0.8907374575666042
1648127081208194141,93390,5,5,0.697124123573,0.0703213736415,0.880350708961,0.161837622523,22.8999996185,0.2331518807936455,0.023518854060702338,0.2944316752377926,22.8999996185,0.021869948989594594,0.3305642683829533,1.1251419954949624
1648127081208197059,93391,5,6,0.660318732262,0.153828009963,0.186616554856,0.242756426334,22.8999996185,0.22084238537190634,0.05144749497090301,0.06241356349698997,22.8999996185,0.03280492247756756,0.3165273496750135,0.7032137821257446
1648127081208200147,93392,5,7,0.957716524601,-0.0307656005025,0.225989505649,0.323675245047,22.8999996185,0.32030652996688963,-0.010289498495819397,0.07558177446454849,22.8999996185,0.04373989797932432,0.4530986868863729,0.9844992231239071
1648127081208202562,93393,5,8,0.561553180218,-1.88988697529,0.420422643423,-0.242756426334,22.8999996185,0.1878104281665552,-0.6320692225050167,0.14060957974013377,22.8999996185,-0.03280492247756756,0.6856070418937555,2.015879448946915
1648127081208225523,93394,5,9,0.470347911119,-1.13393211365,-1.59898114204,-0.242756426334,22.8999996185,0.15730699368528425,-0.37924150958193975,-0.5347763016856186,22.8999996185,-0.03280492247756756,0.4396761343473086,2.0158794330168424
1648127081208227502,93395,5,10,2.53755497932,-0.0,0.97687381506,-0.161837622523,22.8999996185,0.8486805950903009,-0.0,0.3267136505217391,22.8999996185,-0.021869948989594594,1.2002156076995727,2.719093180385991
1648127081208231876,93396,5,11,1.32931470871,-1.10463154316,-2.09909009933,-0.161837622523,22.8999996185,0.4445868591003344,-0.3694419876789297,-0.7020368225183946,22.8999996185,-0.021869948989594594,0.7292477856185507,2.7190931734756765
1648127081303893860,93397,6,0,0.0126674417406,0.0439508594573,0.0102799860761,0.0,14.0,0.004236602588829431,0.014699284099431437,0.0034381224334782603,14.0,0.0,0.015873454445304285,0.04688091553086012
1648127081303900295,93398,6,1,0.0327595062554,0.0146502861753,-0.0301662702113,0.0,14.0,0.01095635660715719,0.0048997612626421405,-0.010089053582374581,14.0,0.0,0.016250881841835,0.046880912891889635
1648127081303938816,93399,6,2,2.4222676754,-0.902457654476,0.458862245083,0.0,14.0,0.810122968361204,-0.30182530250033446,0.1534656338070234,14.0,0.0,1.1847771777689489,2.6253314208634033
1648127081303943177,93400,6,3,0.68921071291,0.0879017189145,0.108496382833,0.0809188112617,14.0,0.23050525515384615,0.02939856819882943,0.036286415663210704,14.0,0.010934974494824324,0.3273066163694536,0.7032137541785421
1648127081303946159,93401,6,4,0.841823101044,-0.0,-0.0585452914238,0.323675245047,14.0,0.2815461876401338,-0.0,-0.019580365024682272,14.0,0.04373989797932432,0.39816643699511745,0.8438564360122132
1648127081303953711,93402,6,5,1.64690279961,0.210964113474,0.302622318268,0.566431701183,14.0,0.550803611909699,0.07055655969030099,0.10121147768160535,14.0,0.07654482448418919,0.7821428679601135,1.687712936506391
1648127081303978911,93403,6,6,0.564120173454,-1.23062396049,-1.42978596687,-0.161837622523,14.0,0.18866895433244146,-0.41157991989632103,-0.4781892865785953,14.0,-0.021869948989594594,0.49049972387316976,1.9689984289704867
1648127081408046195,93404,7,0,0.0125994505361,0.0439508594573,0.0103632062674,0.0,30.6000003815,0.004213863055551839,0.014699284099431437,0.003465955273377926,30.6000003815,0.0,0.01586134410249293,0.04688091557326548
1648127081408054326,93405,7,1,0.0328369177878,0.0146502861753,-0.0300819892436,0.0,30.6000003815,0.010982246751772574,0.0048997612626421405,-0.010060865967759198,30.6000003815,0.0,0.016285795892879384,0.046880914364728306
1648127081408058801,93406,7,2,0.700153827667,0.0219754297286,0.0617356523871,0.0,30.6000003815,0.23416515975484947,0.007349642049698997,0.020647375380301,30.6000003815,0.0,0.33124109244519623,0.70321376030633
1648127081408167883,93407,7,3,2.39348578453,-0.984499275684,0.440854072571,0.0,30.6000003815,0.80049691790301,-0.32926397180066885,0.14744283363578595,30.6000003815,0.0,1.1789848999331536,2.6253314719996688
1648127081408176570,93408,7,4,0.822854816914,-0.0556710883975,0.336487561464,0.161837622523,30.6000003815,0.2752022799043478,-0.018619093109531772,0.11253764597458193,30.6000003815,0.021869948989594594,0.3896399111453079,0.8907374466260661
1648127081408182293,93409,7,5,1.14356410503,-0.424858301878,0.600102901459,-0.647350490093,30.6000003815,0.3824629113812709,-0.14209307755117057,0.20070331152474916,30.6000003815,-0.08747979595851352,0.5592371588623549,1.3595465903481325
1648127081408188819,93410,7,6,1.1436675787,0.127457484603,-0.723979175091,-0.647350490093,30.6000003815,0.38249751795986614,0.04262792127190635,-0.24213350337491635,30.6000003815,-0.08747979595851352,0.542610211996494,1.3595465372381663
1648127081408193615,93411,7,7,0.0905051529408,1.90746724606,0.479929476976,-0.323675245047,30.6000003815,0.03026928192,0.6379489117257524,0.160511530761204,30.6000003815,-0.04373989797932432,0.6393835099750202,1.96899842061161
1648127081408276223,93412,7,8,0.377654850483,-1.64376199245,-1.69468379021,-0.242756426334,30.6000003815,0.126305970061204,-0.5497531747324415,-0.5667838763244147,30.6000003815,-0.03280492247756756,0.578044072086724,2.390926561548276
1648127081408285142,93413,7,9,0.939716279507,-0.224149376154,-2.18705749512,-0.242756426334,30.6000003815,0.31428638110602003,-0.07496634653979932,-0.7314573562274247,30.6000003815,-0.03280492247756756,0.4507458394826981,2.3909266228308375
