%time,field.header.seq,field.header.frame_id,field.point_id,field.x,field.y,field.z,field.velocity,field.intensity,normalized_x,normalized_y,normalized_z,normalized_intensity,normalized_velocity,normalized_range,range
1648125564385768236,30423,0,0,0.0126355709508,0.0439508594573,0.0103191342205,0.0,13.0,0.00422594346180602,0.014699284099431437,0.003451215458361204,13.0,0.0,0.015867770773506908,0.04688091542780209
1648125564385785687,30424,0,1,0.032754637301,0.0146502861753,-0.0301715619862,0.0,13.0,0.010954728194314381,0.0048997612626421405,-0.010090823406755852,13.0,0.0,0.016248686102374597,0.046880916185857074
1648125564385799671,30425,0,2,1.87214434147,-1.31852579117,0.501115500927,0.0,13.0,0.6261352312608696,-0.44097852547491634,0.16759715750066886,13.0,0.0,0.9892182345580962,2.3440459557244036
1648125564385810103,30426,0,3,2.42189049721,-0.902457654476,0.460849136114,0.0,13.0,0.8099968218093645,-0.30182530250033446,0.15413014585752507,13.0,0.0,1.18460466650776,2.625331469520648
1648125564385820848,30427,0,4,0.954112708569,1.20864868164,0.14921027422,0.161837622523,13.0,0.3191012403240802,0.40423032830769223,0.04990310174581939,13.0,0.021869948989594594,0.6058492894082467,1.5470702641495604
1648125564385833965,30428,0,5,0.877325892448,1.0987714529,-0.0322304740548,-0.161837622523,13.0,0.2934200309190635,0.3674820912709029,-0.010779422760802675,13.0,-0.021869948989594594,0.554286673566959,1.4064274708371751
1648125564385838828,30429,0,6,0.529527783394,1.06654083729,0.26041790843,-0.0809188112617,13.0,0.17709959310836118,0.35670262116722407,0.08709629044481605,13.0,-0.010934974494824324,0.4358500793918275,1.2189038182007936
1648125564385842898,30430,0,7,0.516569197178,1.1896033287,-0.202710151672,-0.0809188112617,13.0,0.17276561778528426,0.3978606450501672,-0.06779603734849497,13.0,-0.010934974494824324,0.46689293232731316,1.3126656926720257
1648125564490791340,30431,1,0,0.00657510245219,0.0454158857465,0.00959091167897,0.0,19.7999992371,0.002199030920464883,0.015189259446989964,0.0032076627688862876,19.7999992371,0.0,0.015504356695016248,0.04688091549052492
1648125564490796242,30432,1,1,0.0327790863812,0.0146502861753,-0.0301449969411,0.0,19.7999992371,0.010962905144214047,0.0048997612626421405,-0.010081938776287625,19.7999992371,0.0,0.016259712138686776,0.046880915408973045
1648125564490802946,30433,1,2,0.281846314669,-1.58955609798,0.29360511899,0.0,19.7999992371,0.09426298149464883,-0.5316241130367892,0.09819569196989966,19.7999992371,0.0,0.5480832208001573,1.640832075385849
1648125564490813408,30434,1,3,1.88019549847,-1.31852579117,0.470006018877,0.0,19.7999992371,0.6288279259096989,-0.44097852547491634,0.15719264845384615,19.7999992371,0.0,0.9926284202750892,2.3440458682005207
1648125564490836906,30435,1,4,2.42265248299,-0.902457654476,0.456826001406,0.0,19.7999992371,0.8102516665518393,-0.30182530250033446,0.15278461585484948,19.7999992371,0.0,1.1849531803111397,2.6253313823250064
1648125564490842088,30436,1,5,0.940189182758,1.20864868164,0.22054259479,0.161837622523,19.7999992371,0.3144445427284281,0.40423032830769223,0.07376006514715719,19.7999992371,0.021869948989594594,0.6009599813857202,1.5470702541003016
1648125564490866508,30437,1,6,0.873178958893,1.0987714529,-0.0910939499736,-0.242756426334,19.7999992371,0.2920330966197324,0.3674820912709029,-0.030466204004548494,19.7999992371,-0.03280492247756756,0.5528198137254635,1.4064274981964882
1648125564490886579,30438,1,7,0.590234339237,1.02845001221,0.282206326723,-0.161837622523,19.7999992371,0.19740278904247488,0.34396321478595315,0.09438338686387959,19.7999992371,-0.021869948989594594,0.4429970828000828,1.2189037753948324
1648125564685878425,30439,3,0,0.0126657225192,0.0439508594573,0.0102821039036,0.0,30.0,0.004236027598394649,0.014699284099431437,0.003438830736989966,30.0,0.0,0.015873147534894275,0.046880915463044584
1648125564685883216,30440,3,1,0.0327790863812,0.0146502861753,-0.0301449969411,0.0,30.0,0.010962905144214047,0.0048997612626421405,-0.010081938776287625,30.0,0.0,0.016259712138686776,0.046880915408973045
1648125564685888107,30441,3,2,0.276009470224,-1.58955609798,0.299098789692,0.0,30.0,0.09231085960668896,-0.5316241130367892,0.10003304003076922,30.0,0.0,0.5474182926837616,1.6408320761960853
1648125564685891502,30442,3,3,2.39300751686,-0.984499275684,0.443442553282,0.0,30.0,0.8003369621605351,-0.32926397180066885,0.14830854624816053,30.0,0.0,1.178767690907186,2.6253314262454643
1648125564685894489,30443,3,4,0.585860311985,1.02845001221,0.291178166866,-0.323675245047,30.0,0.19593990367391304,0.34396321478595315,0.09738400229632106,30.0,-0.04373989797932432,0.441696258563928,1.2189037934280764
1648125564685898386,30444,3,5,0.669584572315,1.06800591946,0.1150252074,-0.242756426334,30.0,0.2239413285334448,0.35719261520401335,0.03846996903010033,30.0,-0.03280492247756756,0.4773740688463617,1.2657847138519545
1648125564791133969,30445,4,0,0.00650562345982,0.0454158857465,0.00963817536831,0.0,32.7999992371,0.002175793799270903,0.015189259446989964,0.0032234700228461533,32.7999992371,0.0,0.015497798548886397,0.04688091551122268
1648125564791139471,30446,4,1,0.0327790863812,0.0146502861753,-0.0301449969411,0.0,32.7999992371,0.010962905144214047,0.0048997612626421405,-0.010081938776287625,32.7999992371,0.0,0.016259712138686776,0.046880915408973045
1648125564791142788,30447,4,2,0.287076175213,-1.58955609798,0.28849363327,0.0,32.7999992371,0.09601209873344481,-0.5316241130367892,0.09648616497324414,32.7999992371,0.0,0.5486901163394091,1.6408320741129039
1648125564791148977,30448,4,3,1.85628414154,-1.31852579117,0.557001233101,0.0,32.7999992371,0.6208308165685619,-0.44097852547491634,0.1862880378264214,32.7999992371,0.0,0.9825089646066371,2.3440459572690555
1648125564791152785,30449,4,4,2.4217069149,-0.902457654476,0.461813122034,0.0,32.7999992371,0.8099354230434782,-0.30182530250033446,0.1544525491752508,32.7999992371,0.0,1.1845207014783043,2.6253315142053184
1648125564791246505,30450,4,5,0.643768489361,0.914177834988,0.125640198588,-0.404594063759,32.7999992371,0.2153071870772575,0.30574509531371236,0.04202013330702341,32.7999992371,-0.05467487348094594,0.4315025294510258,1.12514196498874
1648125564791253200,30451,4,6,0.867803275585,0.984499275684,0.0277464389801,-0.242756426334,32.7999992371,0.2902352092257525,0.32926397180066885,0.009279745478294313,32.7999992371,-0.03280492247756756,0.5262012129162991,1.3126656900423856
1648125564985912492,30452,6,0,0.00653255125508,0.0454158857465,0.00961994472891,0.0,32.0999984741,0.002184799750862876,0.015189259446989964,0.003217372819033445,32.0999984741,0.0,0.015500332333557073,0.046880915526754295
1648125564985918687,30453,6,1,0.032754637301,0.0146502861753,-0.0301715619862,0.0,32.0999984741,0.010954728194314381,0.0048997612626421405,-0.010090823406755852,32.0999984741,0.0,0.016248686102374597,0.046880916185857074
1648125564985924530,30454,6,2,0.285880446434,-1.58955609798,0.289678573608,0.0,32.0999984741,0.09561218944280936,-0.5316241130367892,0.0968824660896321,32.0999984741,0.0,0.5485504344198883,1.6408320737620508
1648125564985927873,30455,6,3,1.82842230797,-1.39177727699,0.463010698557,0.0,32.0999984741,0.6115124775819397,-0.4654773501638796,0.15485307644046822,32.0999984741,0.0,0.9821222856612061,2.3440458681532412
1648125564985934624,30456,6,4,2.39129686356,-0.984499275684,0.452576547861,0.0,32.0999984741,0.7997648373110368,-0.32926397180066885,0.1513633939334448,32.0999984741,0.0,1.1779908119863456,2.6253314162535735
1648125564986014985,30457,6,5,1.29991662502,-2.05690026283,-0.698728919029,-0.566431701183,32.0999984741,0.43475472408695653,-0.6879265093076923,-0.2336886016819398,32.0999984741,-0.07654482448418919,0.9226408957119329,2.5315694787070226
1648125564986027370,30458,6,6,0.72451967001,0.915642917156,-0.101523809135,-0.485512852669,32.0999984741,0.2423142709063545,0.30623508934983273,-0.033954451215719064,32.0999984741,-0.06560984495527027,0.4595784391361896,1.1720229467850145
1648125564986032605,30459,6,7,0.720154941082,0.775000095367,0.208322972059,-0.242756426334,32.0999984741,0.24085449534515047,0.25919735631003343,0.06967323480234112,32.0999984741,-0.03280492247756756,0.42802458501124047,1.0782609830978642
1648125565090895059,30460,7,0,0.0064396969974,0.0454158857465,0.00968234799802,0.0,39.7000007629,0.0021537448151839464,0.015189259446989964,0.0032382434775986625,39.7000007629,0.0,0.01549163761536647,0.046880915502069985
1648125565090898347,30461,7,1,0.0327790863812,0.0146502861753,-0.0301449969411,0.0,39.7000007629,0.010962905144214047,0.0048997612626421405,-0.010081938776287625,39.7000007629,0.0,0.016259712138686776,0.046880915408973045
1648125565090904476,30462,7,2,2.39246487617,-0.984499275684,0.446360528469,0.0,39.7000007629,0.8001554769799331,-0.32926397180066885,0.1492844576819398,39.7000007629,0.0,1.1785212504693838,2.625331356020527
1648125565090907718,30463,7,3,1.1560652256,0.79111546278,0.125251665711,-0.242756426334,39.7000007629,0.3866438881605351,0.26458711129765883,0.04189018920100334,39.7000007629,-0.03280492247756756,0.607448213404758,1.4064275527216366
1648125565090960750,30464,7,4,0.773186326027,0.707608819008,0.253218203783,-0.161837622523,39.7000007629,0.2585907444906354,0.23665846789565215,0.08468836246923075,39.7000007629,-0.021869948989594594,0.4355979530474857,1.0782610046830572
1648125565091193499,30465,7,5,0.953991353512,0.83067125082,0.0457911379635,-0.161837622523,39.7000007629,0.319060653348495,0.2778164718461538,0.015314761860702339,39.7000007629,-0.021869948989594594,0.5298880948458663,1.2657847596769813
1648125565285874589,30466,9,0,0.00650562345982,0.0454158857465,0.00963817536831,0.0,17.8999996185,0.002175793799270903,0.015189259446989964,0.0032234700228461533,17.8999996185,0.0,0.015497798548886397,0.04688091551122268
1648125565285881930,30467,9,1,0.0327790863812,0.0146502861753,-0.0301449969411,0.0,17.8999996185,0.010962905144214047,0.0048997612626421405,-0.010081938776287625,17.8999996185,0.0,0.016259712138686776,0.046880915408973045
1648125565285886561,30468,9,2,1.23926889896,0.615312039852,0.252273470163,0.0,17.8999996185,0.41447120366555185,0.20578997988361203,0.08437239804782608,17.8999996185,0.0,0.6212264266404321,1.4064274649140076
1648125565285977453,30469,9,3,1.83646941185,-1.39177727699,0.429984986782,0.0,17.8999996185,0.6142038166722408,-0.4654773501638796,0.1438076878869565,17.8999996185,0.0,0.9854754285851485,2.3440458566897324
1648125565285980167,30470,9,4,2.42003941536,-0.902457654476,0.47047317028,0.0,17.8999996185,0.8093777308896319,-0.30182530250033446,0.1573488863812709,17.8999996185,0.0,1.1837580562553809,2.6253315207743966
1648125565285982512,30471,9,5,1.69535589218,-1.36394166946,0.736476898193,-0.323675245047,17.8999996185,0.5670086595919732,-0.4561677824280936,0.2463133438772575,17.8999996185,-0.04373989797932432,0.9225435956256685,2.297164926689148
1648125565285989882,30472,9,6,0.762911438942,0.64461261034,0.257265836,-0.161837622523,17.8999996185,0.25515432740535116,0.21558950178595315,0.0860420856187291,17.8999996185,-0.021869948989594594,0.4203406890460044,1.0313801391585358
1648125565285991876,30473,9,7,0.814559459686,0.580151319504,0.252314001322,-0.161837622523,17.8999996185,0.2724279129384615,0.19403054164013378,0.08438595361939799,17.8999996185,-0.021869948989594594,0.4313719816877026,1.031380154040836
1648125565285997178,30474,9,8,0.733453273773,0.712003946304,0.746530413628,-0.161837622523,17.8999996185,0.24530209825183943,0.23812841013511704,0.24967572362140467,17.8999996185,-0.021869948989594594,0.42077473608450955,1.2657847300518337
1648125565390057785,30475,10,0,0.00650562345982,0.0454158857465,0.00963817536831,0.0,13.3000001907,0.002175793799270903,0.015189259446989964,0.0032234700228461533,13.3000001907,0.0,0.015497798548886397,0.04688091551122268
1648125565390067507,30476,10,1,0.0327790863812,0.0146502861753,-0.0301449969411,0.0,13.3000001907,0.010962905144214047,0.0048997612626421405,-0.010081938776287625,13.3000001907,0.0,0.016259712138686776,0.046880915408973045
1648125565390078114,30477,10,2,1.88014638424,-1.31852579117,0.470202922821,0.0,13.3000001907,0.6288114997458193,-0.44097852547491634,0.15725850261571905,13.3000001907,0.0,0.9926076084511968,2.344045963026457
1648125565390173897,30478,10,3,2.42027521133,-0.902457654476,0.469258248806,0.0,13.3000001907,0.8094565924180601,-0.30182530250033446,0.15694255812909697,13.3000001907,0.0,1.1838658974932648,2.6253314496979754
1648125565390182852,30479,10,4,1.05349326134,0.637287437916,-0.576526999474,-0.647350490093,13.3000001907,0.35233888339130437,0.21313961134314377,-0.1928183944729097,13.3000001907,-0.08747979595851352,0.5419537539517267,1.3595465094423298
1648125565390187000,30480,10,5,1.74393844604,-1.40642750263,0.210756495595,-0.404594063759,13.3000001907,0.5832570053645485,-0.47037709118060195,0.07048712227257525,13.3000001907,-0.05467487348094594,0.949543088290977,2.250283965228823
1648125565390191753,30481,10,6,0.740264236927,0.584546387196,0.282051622868,-0.242756426334,13.3000001907,0.24758001235016722,0.1955004639451505,0.09433164644414715,13.3000001907,-0.03280492247756756,0.4010139105235465,0.9844992317008086
1648125565390197982,30482,10,7,0.887131154537,0.474669277668,0.768048405647,-0.242756426334,13.3000001907,0.2966993827882943,0.1587522667785953,0.25687237647056854,13.3000001907,-0.03280492247756756,0.44862381758133596,1.2657847217947096
1648125565390204201,30483,10,8,0.633922219276,0.612381994724,0.128623649478,-0.161837622523,13.3000001907,0.21201412015919732,0.20481003168026754,0.04301794296923077,13.3000001907,-0.021869948989594594,0.3631075920035676,0.8907374084201212
1648125565390210568,30484,10,9,0.909222900867,0.5391305089,0.212835073471,-0.0809188112617,13.3000001907,0.3040879267113712,0.18031120698996655,0.07118229881973244,13.3000001907,-0.010934974494824324,0.4663164866369396,1.078260987696013
1648125565390217142,30485,10,10,1.2931650877,0.483459442854,0.268382757902,-0.0809188112617,13.3000001907,0.4324966848494983,0.16169212135585284,0.08976011969966555,13.3000001907,-0.010934974494824324,0.6326540183387508,1.406427488948482
1648125565490063065,30486,11,0,0.0126454373822,0.0439508594573,0.0103070409968,0.0,14.3000001907,0.004229243271638795,0.014699284099431437,0.003447170901939799,14.3000001907,0.0,0.015869528989141485,0.046880915389230546
1648125565490145180,30487,11,1,0.032754637301,0.0146502861753,-0.0301715619862,0.0,14.3000001907,0.010954728194314381,0.0048997612626421405,-0.010090823406755852,14.3000001907,0.0,0.016248686102374597,0.046880916185857074
1648125565490152436,30488,11,2,0.487985789776,-1.53828001022,0.296469897032,0.0,14.3000001907,0.16320594975785951,-0.51447491980602,0.09915381171638796,14.3000001907,0.0,0.5638765886097247,1.6408320818145634
1648125565490166259,30489,11,3,1.87263429165,-1.31852579117,0.499281108379,0.0,14.3000001907,0.6262990941973244,-0.44097852547491634,0.16698364828729095,14.3000001907,0.0,0.9894256772061303,2.3440458778420132
1648125565490172769,30490,11,4,2.39041447639,-0.984499275684,0.457214474678,0.0,14.3000001907,0.7994697245451505,-0.32926397180066885,0.15291454002608695,14.3000001907,0.0,1.1775901001853528,2.625331458809016
1648125565490188210,30491,11,5,1.11259412766,0.287145614624,-0.634643912315,-0.485512852669,14.3000001907,0.37210505941806016,0.0960353226167224,-0.21225548906856184,14.3000001907,-0.06560984495527027,0.5349272227874874,1.3126656818625984
1648125565490192054,30492,11,6,1.54391479492,-1.54707026482,0.535423636436,-0.404594063759,14.3000001907,0.5163594631839464,-0.5174148042876254,0.17907145031304347,14.3000001907,-0.05467487348094594,0.8949705414901814,2.2502839306890676
1648125565490195740,30493,11,7,0.7518247962,0.527410328388,0.189012974501,-0.323675245047,14.3000001907,0.2514464201337792,0.1763914141765886,0.06321504163913043,14.3000001907,-0.04373989797932432,0.39694399528321733,0.9376183035762609
1648125565490327968,30494,11,8,1.25039517879,0.483459442854,0.425225794315,-0.161837622523,14.3000001907,0.4181923674882943,0.16169212135585284,0.1422159847207358,14.3000001907,-0.021869948989594594,0.613118303885543,1.4064274286918608
1648125565490330405,30495,11,9,0.852271974087,0.49224960804,-0.0236953329295,-0.0809188112617,14.3000001907,0.28504079400903004,0.16463197593311035,-0.007924860511538461,14.3000001907,-0.010934974494824324,0.435431046203916,0.9844991941247719
1648125565490334581,30496,11,10,1.02799093723,0.457088917494,0.0157756507397,-0.0809188112617,14.3000001907,0.34380967800334444,0.15287254765685618,0.005276137371137124,14.3000001907,-0.010934974494824324,0.5096863792614283,1.1251419984513562
1648125565589997069,30497,12,0,0.00653523253277,0.0454158857465,0.00961812306195,0.0,15.6000003815,0.0021856964992541805,0.015189259446989964,0.003216763565869565,15.6000003815,0.0,0.015500585179975556,0.04688091545214674
1648125565590006193,30498,12,1,0.0327790863812,0.0146502861753,-0.0301449969411,0.0,15.6000003815,0.010962905144214047,0.0048997612626421405,-0.010081938776287625,15.6000003815,0.0,0.016259712138686776,0.046880915408973045
1648125565590012875,30499,12,2,2.39142632484,-0.984499275684,0.45189216733,0.0,15.6000003815,0.7998081353979932,-0.32926397180066885,0.1511345041237458,15.6000003815,0.0,1.1780496042287782,2.6253314499038543
1648125565590021696,30500,12,3,0.692212879658,0.474669247866,0.087316416204,-0.485512852669,15.6000003815,0.23150932430033444,0.15875225681137123,0.029202814783946488,15.6000003815,-0.06560984495527027,0.36386180552333114,0.8438564582752242
1648125565590028822,30501,12,4,1.33900201321,-1.6173915863,0.809256434441,-0.485512852669,15.6000003815,0.44782676027090296,-0.54093364090301,0.2706543259,15.6000003815,-0.06560984495527027,0.8328906400542944,2.250283962414216
1648125565590035984,30502,12,5,0.780396282673,0.46880915761,0.224338427186,-0.404594063759,15.6000003815,0.2610021012284281,0.15679236040468228,0.07502957430969899,15.6000003815,-0.05467487348094594,0.40103371176570807,0.937618320096788
1648125565590202454,30503,12,6,1.95791244507,-1.72287368774,0.301081895828,-0.404594063759,15.6000003815,0.6548202157424748,-0.5762119356989966,0.10069628623010032,15.6000003815,-0.05467487348094594,1.0906875009515913,2.6253314446869744
1648125565590207054,30504,12,7,0.238741070032,0.6050568223,-2.68840503693,-0.323675245047,15.6000003815,0.07984651171638796,0.20236014123745819,-0.8991321193745818,15.6000003815,-0.04373989797932432,0.23173380769364357,2.7659740959239643
1648125565590213949,30505,12,8,1.37028110027,-0.5186201334,-2.34605526924,-0.323675245047,15.6000003815,0.45828799340133775,-0.17345154963210702,-0.7846338693110367,15.6000003815,-0.04373989797932432,0.6709256366106667,2.765974053177969
1648125565590292143,30506,12,9,1.33032166958,0.351606875658,0.290955662727,-0.242756426334,15.6000003815,0.44492363531103674,0.11759427279531771,0.09730958619632107,15.6000003815,-0.03280492247756756,0.6401113149375165,1.4064275087031703
1648125565590358610,30507,12,10,0.843122780323,0.410208016634,-0.00121913442854,-0.0809188112617,15.6000003815,0.28198086298428093,0.13719331659999998,-0.00040773726707023407,15.6000003815,-0.010934974494824324,0.421720784759807,0.9376183263456088
1648125565690249508,30508,13,0,0.00650562345982,0.0454158857465,0.00963817536831,0.0,23.8999996185,0.002175793799270903,0.015189259446989964,0.0032234700228461533,23.8999996185,0.0,0.015497798548886397,0.04688091551122268
1648125565690257606,30509,13,1,0.0327790863812,0.0146502861753,-0.0301449969411,0.0,23.8999996185,0.010962905144214047,0.0048997612626421405,-0.010081938776287625,23.8999996185,0.0,0.016259712138686776,0.046880915408973045
1648125565690266371,30510,13,2,0.486349314451,-1.53828001022,0.299146920443,0.0,23.8999996185,0.16265863359565216,-0.51447491980602,0.10004913727190635,23.8999996185,0.0,0.5635602055466833,1.640832083279679
1648125565690270571,30511,13,3,1.87166798115,-1.31852579117,0.502891778946,0.0,23.8999996185,0.6259759134280937,-0.44097852547491634,0.1681912304167224,23.8999996185,0.0,0.9890165561376127,2.3440459541088488
1648125565690279098,30512,13,4,2.39048957825,-0.984499275684,0.456821143627,0.0,23.8999996185,0.7994948422240802,-0.32926397180066885,0.15278299117959865,23.8999996185,0.0,1.1776242051740298,2.625331370476661
1648125565690283122,30513,13,5,1.27990651131,-1.6173915863,0.629659295082,-0.647350490093,23.8999996185,0.4280623783645485,-0.54093364090301,0.21058839300401336,23.8999996185,-0.08747979595851352,0.8118398877874962,2.156521979718947
1648125565690394829,30514,13,6,2.1095366478,0.336956560612,0.294792741537,-0.647350490093,23.8999996185,0.7055306514381271,0.11269450187692308,0.09859289014615384,23.8999996185,-0.08747979595851352,1.0041150586415404,2.156522050110694
1648125565690398226,30515,13,7,0.662211596966,0.423393249512,0.131848275661,-0.566431701183,23.8999996185,0.22147545049030098,0.14160309348227423,0.04409641326454849,23.8999996185,-0.07654482448418919,0.34373563449766625,0.796975539576573
1648125565690403812,30516,13,8,2.38206243515,0.966918945312,0.198121830821,-0.566431701183,23.8999996185,0.796676399715719,0.32338426264615383,0.0662614818799331,23.8999996185,-0.07654482448418919,1.1721620848053382,2.578450300394383
1648125565690407682,30517,13,9,0.767811119556,0.32230630517,0.430944114923,-0.404594063759,23.8999996185,0.256793016573913,0.10779475089297658,0.14412846652943143,23.8999996185,-0.05467487348094594,0.3788205578401716,0.9376183124560564
1648125565690410427,30518,13,10,0.619107961655,0.316446185112,0.884596884251,-0.404594063759,23.8999996185,0.20705951894816052,0.10583484451906354,0.2958518007528428,23.8999996185,-0.05467487348094594,0.3113652245971949,1.1251419927649684
1648125565690414113,30519,13,11,1.74178731441,0.6050568223,-2.06172156334,-0.323675245047,23.8999996185,0.582537563347826,0.20236014123745819,-0.6895389843946488,23.8999996185,-0.04373989797932432,0.8483216678737429,2.765974080065196
1648125565690486523,30520,13,12,1.24014723301,-0.7779302001,-2.3468003273,-0.323675245047,23.8999996185,0.4147649608729097,-0.26017732444816055,-0.7848830526086956,23.8999996185,-0.04373989797932432,0.6416791921924974,2.7659740295211326
1648125565790068325,30521,14,0,0.00650562345982,0.0454158857465,0.00963817536831,0.0,28.1000003815,0.002175793799270903,0.015189259446989964,0.0032234700228461533,28.1000003815,0.0,0.015497798548886397,0.04688091551122268
1648125565790083954,30522,14,1,0.0328296348453,0.0146502861753,-0.0300899371505,0.0,28.1000003815,0.010979810985050166,0.0048997612626421405,-0.010063524130602006,28.1000003815,0.0,0.016282510831126296,0.04688091431291589
1648125565790094323,30523,14,2,0.286709308624,-1.58955609798,0.288858234882,0.0,28.1000003815,0.09588940087759197,-0.5316241130367892,0.09660810531170569,28.1000003815,0.0,0.5486472017275582,1.6408320743257674
1648125565790153836,30524,14,3,2.42061686516,-0.902457654476,0.467492461205,0.0,28.1000003815,0.8095708579130434,-0.30182530250033446,0.15635199371404682,28.1000003815,0.0,1.1840221540129816,2.6253314128511196
1648125565790161861,30525,14,4,1.15006875992,0.0849716588855,-0.720061600208,0.161837622523,28.1000003815,0.3846383812441471,0.028418615011872907,-0.24082327766153847,28.1000003815,0.021869948989594594,0.5447026586417849,1.3595466315841416
1648125565790254197,30526,14,5,0.645284831524,-1.91186249256,0.615610003471,-0.647350490093,28.1000003815,0.21581432492441469,-0.639418893832776,0.20588963326789297,28.1000003815,-0.08747979595851352,0.7085253470945782,2.1096412919324123
1648125565790263312,30527,14,6,2.06241226196,0.395557761192,0.201435700059,-0.647350490093,28.1000003815,0.689769987277592,0.1322935656160535,0.06736979935083612,28.1000003815,-0.08747979595851352,0.9844119352188229,2.1096413491350727
1648125565790268003,30528,14,7,0.676683425903,0.304725944996,0.10901208967,-0.485512852669,28.1000003815,0.2263155270578595,0.10191503177123744,0.036458892866220734,28.1000003815,-0.06560984495527027,0.3358930027194461,0.7500946581197244
1648125565790280709,30529,14,8,0.832784235477,0.278355449438,0.14967238903,-0.404594063759,28.1000003815,0.2785231556779264,0.09309546803946488,0.05005765519397993,28.1000003815,-0.05467487348094594,0.4047432058318804,0.8907374265903448
1648125565790283094,30530,14,9,1.48171520233,0.509829938412,-2.22217488289,-0.323675245047,28.1000003815,0.49555692385618727,0.1705116850876254,-0.7432023019698997,28.1000003815,-0.04373989797932432,0.7212680252964465,2.7190931791801844
1648125565790288419,30531,14,10,2.61090707779,-0.339886635542,0.679049313068,-0.323675245047,28.1000003815,0.8732130694949831,-0.11367446004749163,0.2271067936682274,28.1000003815,-0.04373989797932432,1.2401306432552939,2.71909298543689
1648125565790290773,30532,14,11,0.816188275814,0.281285494566,0.721567451954,-0.242756426334,28.1000003815,0.27297266749632104,0.09407541624280935,0.24132690700802673,28.1000003815,-0.03280492247756756,0.3973390722561424,1.125141954932291
1648125565890819923,30533,15,0,0.0126552544534,0.0439508594573,0.0102949859574,0.0,14.6000003815,0.004232526573043478,0.014699284099431437,0.003443139116187291,14.6000003815,0.0,0.015871279577237503,0.0468809156072991
1648125565890840592,30534,15,1,0.0328034497797,0.0146502861753,-0.0301184803247,0.0,14.6000003815,0.010971053438026753,0.0048997612626421405,-0.01007307034270903,14.6000003815,0.0,0.016270700277215045,0.046880913595372976
1648125565890847983,30535,15,2,0.280041337013,-1.58955609798,0.295327186584,0.0,14.6000003815,0.09365931003779263,-0.5316241130367892,0.09877163430903009,14.6000003815,0.0,0.5478761997711377,1.6408320712970759
1648125565890852622,30536,15,3,2.41768431664,-0.902457654476,0.482428640127,0.0,14.6000003815,0.8085900724548494,-0.30182530250033446,0.1613473712799331,14.6000003815,0.0,1.182680989859267,2.6253313440143384
1648125565890861249,30537,15,4,1.6772493124,0.37944239378,0.227319359779,0.161837622523,14.6000003815,0.5609529472909699,0.12690381062876252,0.07602654173210702,14.6000003815,0.021869948989594594,0.8033934249799112,1.7345938652820447
1648125565890969932,30538,15,5,0.840550482273,0.278355449438,0.0969860255718,-0.485512852669,14.6000003815,0.28112056263311036,0.09309546803946488,0.032436797850100334,14.6000003815,-0.06560984495527027,0.40831887984735665,0.890737424069191
1648125565890980597,30539,15,6,0.696738421917,-1.88988697529,0.0815641433001,-0.485512852669,14.6000003815,0.23302288358428092,-0.6320692225050167,0.02727897769234114,14.6000003815,-0.06560984495527027,0.7128189325389465,2.0158794401993525
1648125565890983860,30540,15,7,0.665792822838,0.153828009963,0.166031420231,-0.323675245047,14.6000003815,0.22267318489565216,0.05144749497090301,0.05552890308729097,14.6000003815,-0.04373989797932432,0.31908233934507824,0.7032137456674835
1648125565890987894,30541,15,8,0.683983206749,0.276890397072,1.02845013142,-0.161837622523,14.6000003815,0.2287569253341137,0.09260548397056856,0.3439632546555184,14.6000003815,-0.021869948989594594,0.33650443895743454,1.2657847336427908
1648125565890994402,30542,15,9,0.883749485016,0.111342176795,0.0017317563761,-0.0809188112617,14.6000003815,0.2955683896374582,0.037238186219063545,0.0005791827344816053,14.6000003815,-0.010934974494824324,0.4196522708369946,0.8907374650140413
1648125566085828157,30543,17,0,0.00653523253277,0.0454158857465,0.00961812306195,0.0,22.1000003815,0.0021856964992541805,0.015189259446989964,0.003216763565869565,22.1000003815,0.0,0.015500585179975556,0.04688091545214674
1648125566086046399,30544,17,1,0.0327790863812,0.0146502861753,-0.0301449969411,0.0,22.1000003815,0.010962905144214047,0.0048997612626421405,-0.010081938776287625,22.1000003815,0.0,0.016259712138686776,0.046880915408973045
1648125566086054034,30545,17,2,0.275301933289,-1.58955609798,0.29975014925,0.0,22.1000003815,0.09207422518026755,-0.5316241130367892,0.10025088603678929,22.1000003815,0.0,0.5473385820926988,1.640832074001926
1648125566086057563,30546,17,3,1.87464344501,-1.31852579117,0.491683930159,0.0,22.1000003815,0.6269710518428093,-0.44097852547491634,0.1644427860063545,22.1000003815,0.0,0.9902764561615048,2.344045945598344
1648125566086063825,30547,17,4,0.781559824944,0.0249054860324,0.153993502259,0.0809188112617,22.1000003815,0.26139124580066886,0.00832959399076923,0.05150284356488294,22.1000003815,0.010934974494824324,0.3697568780949212,0.7969755591854738
1648125566086065809,30548,17,5,0.649713873863,-0.10987714678,0.245577901602,0.404594063759,22.1000003815,0.21729560998762537,-0.03674820962541806,0.08213307745886286,22.1000003815,0.05467487348094594,0.3094918337379228,0.7032137733504809
1648125566086077532,30549,17,6,0.380815297365,1.90746724606,0.305782914162,-0.242756426334,22.1000003815,0.12736297570735786,0.6379489117257524,0.10226853316454848,22.1000003815,-0.03280492247756756,0.6628887305831483,1.9689984195250942
1648125566190870781,30550,18,0,0.0126454373822,0.0439508594573,0.0103070409968,0.0,26.7999992371,0.004229243271638795,0.014699284099431437,0.003447170901939799,26.7999992371,0.0,0.015869528989141485,0.046880915389230546
1648125566190876310,30551,18,1,0.032754637301,0.0146502861753,-0.0301715619862,0.0,26.7999992371,0.010954728194314381,0.0048997612626421405,-0.010090823406755852,26.7999992371,0.0,0.016248686102374597,0.046880916185857074
1648125566190879592,30552,18,2,0.284117281437,-1.58955609798,0.291408091784,0.0,26.7999992371,0.0950225021528428,-0.5316241130367892,0.09746090026220736,26.7999992371,0.0,0.5483454653709893,1.6408320737338562
1648125566191080517,30553,18,3,0.791973352432,-0.0527410283685,0.286513984203,0.161837622523,26.7999992371,0.26487403091371237,-0.017639139922575247,0.09582407498428093,26.7999992371,0.021869948989594594,0.3750035249996521,0.843856427468337
1648125566191086832,30554,18,4,0.65762668848,-0.234404578805,0.274269223213,0.404594063759,26.7999992371,0.21994203628093645,-0.07839618020234114,0.09172883719498327,26.7999992371,0.05467487348094594,0.32077244226574,0.7500946438735467
1648125566191091483,30555,18,5,0.787233233452,1.74191904068,0.201290339231,-0.242756426334,26.7999992371,0.2632887068401338,0.5825816189565217,0.06732118368929765,26.7999992371,-0.03280492247756756,0.6914067030663658,1.922117558528238
1648125566191094587,30556,18,6,2.24467253685,-0.821880996227,-0.0498659946024,-0.161837622523,26.7999992371,0.7507266009531772,-0.2748765873668896,-0.016677590168026755,26.7999992371,-0.021869948989594594,1.0966941219136215,2.390926554092657
1648125566385866975,30557,20,0,0.0126454373822,0.0439508594573,0.0103070409968,0.0,21.1000003815,0.004229243271638795,0.014699284099431437,0.003447170901939799,21.1000003815,0.0,0.015869528989141485,0.046880915389230546
1648125566385873895,30558,20,1,0.0327277109027,0.0146502861753,-0.0302007645369,0.0,21.1000003815,0.010945722709933109,0.0048997612626421405,-0.010100590146120402,21.1000003815,0.0,0.016236543712144506,0.04688091428888916
1648125566385884470,30559,20,2,0.275459885597,-1.58955609798,0.29960501194,0.0,21.1000003815,0.09212705203913044,-0.5316241130367892,0.10020234513043477,21.1000003815,0.0,0.5473563601503084,1.6408320756183685
1648125566385897248,30560,20,3,0.856090664864,-0.167013257742,0.180633530021,0.404594063759,21.1000003815,0.2863179481150501,-0.05585727683678929,0.06041255184648829,21.1000003815,0.05467487348094594,0.4087492754748891,0.8907374062521056
1648125566491032838,30561,21,0,0.0126454373822,0.0439508594573,0.0103070409968,0.0,43.7999992371,0.004229243271638795,0.014699284099431437,0.003447170901939799,43.7999992371,0.0,0.015869528989141485,0.046880915389230546
1648125566491036812,30562,21,1,0.0327667072415,0.0146502861753,-0.030158450827,0.0,43.7999992371,0.010958764963712373,0.0048997612626421405,-0.010086438403678928,43.7999992371,0.0,0.016254129305830818,0.0468809145042301
1648125566491065476,30563,21,2,0.274989396334,-1.58955609798,0.300036907196,0.0,43.7999992371,0.09196969777056856,-0.5316241130367892,0.10034679170434782,43.7999992371,0.0,0.5473034333696184,1.6408320762348847
1648125566491481853,30564,21,3,1.80276501179,-1.46502864361,0.31349760294,0.0,43.7999992371,0.6029314420702341,-0.489976134986622,0.1048486966354515,43.7999992371,0.0,0.9834273031242383,2.3440459384109946
1648125566491506116,30565,21,4,0.745165288448,-0.34281668067,0.198240235448,0.323675245047,43.7999992371,0.2492191600160535,-0.1146544082508361,0.0663010820896321,43.7999992371,0.04373989797932432,0.3706292119754782,0.8438564893415623
1648125566491515475,30566,21,5,0.874018669128,-0.263705164194,0.213726699352,0.485512852669,43.7999992371,0.29231393616321066,-0.0881957070882943,0.07148050145551839,43.7999992371,0.06560984495527027,0.42269771385620647,0.9376183389966116
1648125566491523266,30567,21,6,0.929078578949,-0.0586011447012,0.111834451556,-0.647350490093,43.7999992371,0.31072862172207355,-0.019599045050568562,0.03740282660735786,43.7999992371,-0.08747979595851352,0.43987347644691327,0.9376182829792813
1648125566491525364,30568,21,7,0.262756466866,-0.410208016634,-0.80113452673,-0.647350490093,43.7999992371,0.08787841701204013,-0.13719331659999998,-0.26793796880602005,43.7999992371,-0.08747979595851352,0.18511412283451492,0.9376183166457471
1648125566685818741,30569,23,0,0.00654576485977,0.0454158857465,0.00961095839739,0.0,39.5,0.002189219016645485,0.015189259446989964,0.0032143673569866218,39.5,0.0,0.015501579350300353,0.046880915488660226
1648125566685828846,30570,23,1,0.0327790863812,0.0146502861753,-0.0301449969411,0.0,39.5,0.010962905144214047,0.0048997612626421405,-0.010081938776287625,39.5,0.0,0.016259712138686776,0.046880915408973045
1648125566685833277,30571,23,2,0.284181445837,-1.58955609798,0.291345506907,0.0,39.5,0.09504396181839464,-0.5316241130367892,0.09743996886521739,39.5,0.0,0.5483529036290642,1.6408320715960876
1648125566685835936,30572,23,3,1.38876402378,-1.11342179775,-0.0726567357779,0.0,39.5,0.46446957317056853,-0.37238187215719065,-0.02429991163140468,39.5,0.0,0.755071008259352,1.7814748425684708
1648125566685842136,30573,23,4,0.777785301208,-0.389697611332,0.19130846858,0.161837622523,39.5,0.2601288632802676,-0.13033364927491636,0.06398276541137124,39.5,0.021869948989594594,0.390283116668253,0.8907374097923084
1648125566685866126,30574,23,5,1.18804180622,-0.266635209322,-0.0564702004194,0.161837622523,39.5,0.397338396729097,-0.0891756552916388,-0.018886354655317725,39.5,0.021869948989594594,0.5689533377414986,1.2189038320196035
1648125566685958541,30575,23,6,0.965938925743,-0.354536950588,0.0707855671644,0.323675245047,39.5,0.32305649690401333,-0.11857423096588628,0.02367410273056856,39.5,0.04373989797932432,0.472007254852017,1.0313801695381606
1648125566685965278,30576,23,7,1.46316277981,-1.17202293873,0.0450489148498,-0.161837622523,39.5,0.489352100270903,-0.3919809159632107,0.015066526705618727,39.5,-0.021869948989594594,0.7953489765872873,1.875236650095069
1648125566790920282,30577,24,0,0.0126454373822,0.0439508594573,0.0103070409968,0.0,23.2000007629,0.004229243271638795,0.014699284099431437,0.003447170901939799,23.2000007629,0.0,0.015869528989141485,0.046880915389230546
1648125566790930771,30578,24,1,0.0327790863812,0.0146502861753,-0.0301449969411,0.0,23.2000007629,0.010962905144214047,0.0048997612626421405,-0.010081938776287625,23.2000007629,0.0,0.016259712138686776,0.046880915408973045
1648125566790933448,30579,24,2,0.296591311693,-1.58955609798,0.278702169657,0.0,23.2000007629,0.09919441862642141,-0.5316241130367892,0.09321142797892976,23.2000007629,0.0,0.5498211190336547,1.6408320737262228
1648125566790937958,30580,24,3,0.805720865726,-0.439508587122,0.191765934229,0.161837622523,23.2000007629,0.2694718614468227,-0.14699283850234113,0.0641357639561873,23.2000007629,0.021869948989594594,0.40845692893401453,0.9376183046159843
1648125566790942796,30581,24,4,1.15704500675,-0.451228827238,-0.42512434721,0.161837622523,23.2000007629,0.38697157416387956,-0.15091265125016723,-0.1421820559230769,23.2000007629,0.021869948989594594,0.5676870852230976,1.3126657277336133
1648125566791158665,30582,24,5,0.988173186779,-0.404347896576,0.150543376803,0.242756426334,23.2000007629,0.33049270460836117,-0.13523341022608695,0.05034895545250836,23.2000007629,0.03280492247756756,0.4865582502024563,1.0782609966207857
1648125566791162406,30583,24,6,1.41508805752,-1.14272224903,0.186000570655,-0.0809188112617,23.2000007629,0.4732735978327759,-0.3821813541906354,0.062207548714046816,23.2000007629,-0.010934974494824324,0.7707388560998778,1.8283556987763332
1648125566985927866,30584,26,0,0.00654576485977,0.0454158857465,0.00961095839739,0.0,20.6000003815,0.002189219016645485,0.015189259446989964,0.0032143673569866218,20.6000003815,0.0,0.015501579350300353,0.046880915488660226
1648125566985938325,30585,26,1,0.0327790863812,0.0146502861753,-0.0301449969411,0.0,20.6000003815,0.010962905144214047,0.0048997612626421405,-0.010081938776287625,20.6000003815,0.0,0.016259712138686776,0.046880915408973045
1648125566985943583,30586,26,2,1.68727719784,-1.50751447678,0.396814972162,0.0,20.6000003815,0.5643067551304348,-0.5041854437391304,0.13271403751237457,20.6000003815,0.0,0.9439741466004803,2.2971648530708477
1648125566986018271,30587,26,3,0.861044704914,-0.483459472656,0.297681063414,0.0809188112617,20.6000003815,0.28797481769698996,-0.16169213132307692,0.09955888408494984,20.6000003815,0.010934974494824324,0.43818185332921805,1.0313801729122705
1648125566986022105,30588,26,4,0.993159294128,-0.527410328388,0.0376486927271,0.161837622523,20.6000003815,0.33216029903946487,-0.1763914141765886,0.012591536029130435,20.6000003815,0.021869948989594594,0.5017717205175978,1.1251419741824695
1648125566986038542,30589,26,5,0.813240766525,-0.523015201092,0.185292482376,0.242756426334,20.6000003815,0.2719868784364548,-0.1749214719371237,0.061970729891638786,20.6000003815,0.03280492247756756,0.4225532456719078,0.9844992376515763
1648125566986164076,30590,26,6,1.2468444109,-0.467344135046,-0.274472624063,0.242756426334,20.6000003815,0.41700481969899666,-0.15630238630301002,-0.09179686423511704,20.6000003815,0.03280492247756756,0.6100954640614867,1.3595465225267178
1648125566986176863,30591,26,7,1.34186661243,-1.11342179775,0.365155488253,-0.161837622523,20.6000003815,0.4487848202107023,-0.37238187215719065,0.12212558135551838,20.6000003815,-0.021869948989594594,0.735855888346624,1.7814748485062855
1648125567091072879,30592,27,0,0.00654576485977,0.0454158857465,0.00961095839739,0.0,25.1000003815,0.002189219016645485,0.015189259446989964,0.0032143673569866218,25.1000003815,0.0,0.015501579350300353,0.046880915488660226
1648125567091079380,30593,27,1,0.0327790863812,0.0146502861753,-0.0301449969411,0.0,25.1000003815,0.010962905144214047,0.0048997612626421405,-0.010081938776287625,25.1000003815,0.0,0.016259712138686776,0.046880915408973045
1648125567091081265,30594,27,2,2.44419050217,-0.820416092873,0.495191723108,0.0,25.1000003815,0.8174550174481605,-0.2743866531347826,0.16561596090568562,25.1000003815,0.0,1.1881723134801838,2.625331335084718
1648125567091101502,30595,27,3,0.948390305042,-0.597731649876,-0.0960058271885,0.0809188112617,25.1000003815,0.3171873929906354,-0.19991025079464883,-0.03210897230384615,25.1000003815,0.010934974494824324,0.49110059348077656,1.1251419531842597
1648125567091114393,30596,27,4,0.768080115318,-0.584546387196,0.193899735808,0.161837622523,25.1000003815,0.25688298171170565,-0.1955004639451505,0.06484940996923076,25.1000003815,0.021869948989594594,0.4125508017068469,0.9844991873420823
1648125567091263518,30597,27,5,0.828165888786,-0.612381994724,0.0536150969565,0.404594063759,25.1000003815,0.276978558122408,-0.20481003168026754,0.017931470554013375,25.1000003815,0.05467487348094594,0.4420196742182507,1.0313801556324929
1648125567091277463,30598,27,6,1.15490531921,-1.33610606194,0.233809486032,-0.242756426334,25.1000003815,0.3862559596020067,-0.4468582146956522,0.07819715251906353,25.1000003815,-0.03280492247756756,0.705740459869717,1.7814748330669494
1648125567091393973,30599,27,7,0.92873364687,-0.527410328388,0.353887975216,-0.0809188112617,25.1000003815,0.31061325982274246,-0.1763914141765886,0.11835718234648829,25.1000003815,-0.010934974494824324,0.4733657416318146,1.1251420089576551
1648125567091401130,30600,27,8,0.976948738098,-0.656332850456,0.581282794476,-0.0809188112617,25.1000003815,0.3267387083939799,-0.21950931453377925,0.19440896136321067,25.1000003815,-0.010934974494824324,0.5115669128208177,1.3126657360549945
1648125567286011406,30601,29,0,0.00650562345982,0.0454158857465,0.00963817536831,0.0,11.6000003815,0.002175793799270903,0.015189259446989964,0.0032234700228461533,11.6000003815,0.0,0.015497798548886397,0.04688091551122268
1648125567286017850,30602,29,1,0.0327790863812,0.0146502861753,-0.0301449969411,0.0,11.6000003815,0.010962905144214047,0.0048997612626421405,-0.010081938776287625,11.6000003815,0.0,0.016259712138686776,0.046880915408973045
1648125567286033374,30603,29,2,0.871589779854,-0.668053030968,0.244910106063,0.0,11.6000003815,0.2915015986133779,-0.22342910734715715,0.08190973446923076,11.6000003815,0.0,0.4688997014269226,1.1251420161842973
1648125567286229623,30604,29,3,2.41774296761,-0.902457654476,0.482134997845,0.0,11.6000003815,0.8086096881638796,-0.30182530250033446,0.16124916315886287,11.6000003815,0.0,1.1827078121050827,2.625331413687981
1648125567286298526,30605,29,4,0.919686436653,-0.799905598164,-0.00737493764609,0.242756426334,11.6000003815,0.30758743700769225,-0.26752695590769227,-0.0024665343297959864,11.6000003815,0.03280492247756756,0.5106767421247598,1.2189038097581297
1648125567286400903,30606,29,5,1.10975325108,-1.39177715778,-0.0711100548506,-0.161837622523,11.6000003815,0.37115493347157186,-0.46547731029431433,-0.023782627040334445,11.6000003815,-0.021869948989594594,0.7015561956674627,1.781474831453327
1648125567390988285,30607,30,0,0.00653523253277,0.0454158857465,0.00961812306195,0.0,17.7999992371,0.0021856964992541805,0.015189259446989964,0.003216763565869565,17.7999992371,0.0,0.015500585179975556,0.04688091545214674
1648125567391001628,30608,30,1,0.032754637301,0.0146502861753,-0.0301715619862,0.0,17.7999992371,0.010954728194314381,0.0048997612626421405,-0.010090823406755852,17.7999992371,0.0,0.016248686102374597,0.046880916185857074
1648125567391031927,30609,30,2,2.42010116577,-0.902457654476,0.47015479207,0.0,17.7999992371,0.8093983832006688,-0.30182530250033446,0.15724240537458192,17.7999992371,0.0,1.1837862977265499,2.6253314074969696
1648125567391036887,30610,30,3,0.82145768404,-0.703213751316,0.31087321043,0.0809188112617,17.7999992371,0.27473501138461537,-0.23518854559063543,0.10397097338795985,17.7999992371,0.010934974494824324,0.4541721093793055,1.1251419731177645
1648125567586009586,30611,32,0,0.0126552544534,0.0439508594573,0.0102949859574,0.0,26.6000003815,0.004232526573043478,0.014699284099431437,0.003443139116187291,26.6000003815,0.0,0.015871279577237503,0.0468809156072991
1648125567586035020,30612,32,1,0.0327790863812,0.0146502861753,-0.0301449969411,0.0,26.6000003815,0.010962905144214047,0.0048997612626421405,-0.010081938776287625,26.6000003815,0.0,0.016259712138686776,0.046880915408973045
1648125567586041489,30613,32,2,0.617681741714,-0.707608819008,0.294953733683,0.0,26.6000003815,0.2065825223123746,-0.23665846789565215,0.09864673367324414,26.6000003815,0.0,0.3759785997588199,0.9844992025381631
1648125567586044136,30614,32,3,2.42331933975,-0.902457654476,0.453275471926,0.0,26.6000003815,0.8104746955685618,-0.30182530250033446,0.1515971478013378,26.6000003815,0.0,1.185258190245199,2.625331425549627
1648125567586250817,30615,32,4,0.846084654331,-0.703213751316,0.235744953156,0.0809188112617,26.6000003815,0.2829714562979933,-0.23518854559063543,0.07884446593846153,26.6000003815,0.010934974494824324,0.4641759818601698,1.1251419933825477
1648125567586258816,30616,32,5,0.783785104752,-0.79111546278,0.858985185623,0.242756426334,26.6000003815,0.26213548653913044,-0.26458711129765883,0.28728601525852837,26.6000003815,0.03280492247756756,0.45545182629017195,1.4064275007978537
1648125567586263480,30617,32,6,0.81815546751,-0.843856453896,0.93225312233,0.323675245047,26.6000003815,0.2736305911404682,-0.28222623876120395,0.31179034191638794,26.6000003815,0.04373989797932432,0.47895620954431767,1.5001893106846456
1648125567586267935,30618,32,7,0.713163375854,-0.808695793152,-0.00747645506635,-0.242756426334,26.6000003815,0.2385161792153846,-0.2704668204521739,-0.0025004866442642137,26.6000003815,-0.03280492247756756,0.43235660797600795,1.0782609998982506
1648125567690403285,30619,33,0,0.00654576485977,0.0454158857465,0.00961095839739,0.0,24.8999996185,0.002189219016645485,0.015189259446989964,0.0032143673569866218,24.8999996185,0.0,0.015501579350300353,0.046880915488660226
1648125567690411865,30620,33,1,0.0327790863812,0.0146502861753,-0.0301449969411,0.0,24.8999996185,0.010962905144214047,0.0048997612626421405,-0.010081938776287625,24.8999996185,0.0,0.016259712138686776,0.046880915408973045
1648125567690422550,30621,33,2,0.729189634323,-0.709073901176,0.171001940966,0.0,24.8999996185,0.24387613188060198,-0.23714846193177255,0.05719128460401337,24.8999996185,0.0,0.4185576763107982,1.0313801355209444
1648125567690437656,30622,33,3,2.41558027267,-0.902457654476,0.492856502533,0.0,24.8999996185,0.807886378819398,-0.30182530250033446,0.1648349506799331,24.8999996185,0.0,1.181718797088909,2.6253314845793962
1648125567690566746,30623,33,4,0.908459544182,-0.732514321804,0.108452044427,0.161837622523,24.8999996185,0.30383262347224077,-0.24498806749297658,0.03627158676488294,24.8999996185,0.021869948989594594,0.494618721224735,1.172022960954152
1648125567690571017,30624,33,5,0.837448298931,-0.849716603756,0.651942372322,0.161837622523,24.8999996185,0.2800830431207358,-0.28418615510234113,0.2180409271979933,24.8999996185,0.021869948989594594,0.48749850547401247,1.3595465482689049
1648125567690572293,30625,33,6,1.00287401676,-1.35515141487,0.408196359873,0.161837622523,24.8999996185,0.33540937015384614,-0.4532278979498327,0.13652052169665552,24.8999996185,0.021869948989594594,0.6560597675928799,1.7345938772318052
1648125567690579767,30626,33,7,0.680541813374,-0.773535132408,-0.0474474281073,-0.242756426334,24.8999996185,0.2276059576501672,-0.2587074021431438,-0.015868705052608695,24.8999996185,-0.03280492247756756,0.4129630296277788,1.0313801526371504
1648125567790950068,30627,34,0,0.00654576485977,0.0454158857465,0.00961095839739,0.0,29.1000003815,0.002189219016645485,0.015189259446989964,0.0032143673569866218,29.1000003815,0.0,0.015501579350300353,0.046880915488660226
1648125567790954909,30628,34,1,0.0327790863812,0.0146502861753,-0.0301449969411,0.0,29.1000003815,0.010962905144214047,0.0048997612626421405,-0.010081938776287625,29.1000003815,0.0,0.016259712138686776,0.046880915408973045
1648125567790958077,30629,34,2,0.766853153706,-0.676843225956,0.132531106472,0.0,29.1000003815,0.25647262665752507,-0.22636897189163876,0.04432478477324415,29.1000003815,0.0,0.4275503805219895,1.0313801462380665
1648125567790963024,30630,34,3,0.284516364336,-1.58955609798,0.291018456221,0.0,29.1000003815,0.09515597469431439,-0.5316241130367892,0.09733058736488293,29.1000003815,0.0,0.5483917546810883,1.640832073084151
1648125567790970073,30631,34,4,2.4222137928,-0.902457654476,0.459146559238,0.0,29.1000003815,0.8101049474247491,-0.30182530250033446,0.15356072215317726,29.1000003815,0.0,1.1847525331956583,2.6253314150813374
1648125567791074819,30632,34,5,0.838401019573,-0.805765748024,0.146502867341,0.0809188112617,29.1000003815,0.2804016787869565,-0.26948687224882945,0.04899761449531772,29.1000003815,0.010934974494824324,0.4794511208116464,1.1720229521851766
1648125567791079543,30633,34,6,0.773632049561,0.219754308462,0.852548718452,0.0809188112617,29.1000003815,0.25873981590668893,0.0734964242347826,0.2851333506528428,29.1000003815,0.010934974494824324,0.3732215281118624,1.1720229611785398
1648125567791083067,30634,34,7,0.748806655407,-0.676843225956,0.211935967207,0.161837622523,29.1000003815,0.25043700849732436,-0.22636897189163876,0.07088159438361204,29.1000003815,0.021869948989594594,0.42033356026548174,1.0313801500418307
1648125567791089806,30635,34,8,0.917456448078,-1.08412122726,0.995876908302,0.242756426334,29.1000003815,0.3068416214307692,-0.36258235025418056,0.3330692001010033,29.1000003815,0.03280492247756756,0.5654816725592194,1.734593896566219
1648125567791166948,30636,34,9,0.914757013321,-0.732514321804,0.0167388170958,0.323675245047,29.1000003815,0.305938800441806,-0.24498806749297658,0.0055982665872240794,29.1000003815,0.04373989797932432,0.4972084597485099,1.1720229575676822
1648125567791180192,30637,34,10,1.08273792267,-1.35515141487,0.00770006235689,-0.0809188112617,29.1000003815,0.3621197065785953,-0.4532278979498327,0.0025752716912675585,29.1000003815,-0.010934974494824324,0.6838690600291549,1.734593917138017
1648125567985846796,30638,36,0,0.0126418694854,0.0439508594573,0.0103114163503,0.0,12.5,0.004228049995117057,0.014699284099431437,0.0034486342308695647,12.5,0.0,0.01586889304766456,0.04688091528831811
1648125567985941310,30639,36,1,0.0327790863812,0.0146502861753,-0.0301449969411,0.0,12.5,0.010962905144214047,0.0048997612626421405,-0.010081938776287625,12.5,0.0,0.016259712138686776,0.046880915408973045
1648125567985951397,30640,36,2,2.42288017273,-0.902457654476,0.455617070198,0.0,12.5,0.8103278169665551,-0.30182530250033446,0.15238029103612039,12.5,0.0,1.185057321452842,2.625331419875648
1648125567985981375,30641,36,3,0.795683026314,-0.876087069511,0.291695892811,0.161837622523,12.5,0.26611472451973245,-0.2930057088665552,0.09755715478628763,12.5,0.021869948989594594,0.47695538432941365,1.2189038213129795
1648125567985991196,30642,36,4,0.694664180279,-0.999149501324,0.794510602951,0.242756426334,12.5,0.23232915728394649,-0.3341637128173913,0.26572260968260863,12.5,0.03280492247756756,0.46863531835793326,1.4533083456583653
1648125567985998851,30643,36,5,0.850618600845,-0.580151319504,0.0601454675198,0.566431701183,12.5,0.2844878263695652,-0.19403054164013378,0.02011554097652174,12.5,0.07654482448418919,0.4466704577136521,1.0313801602168393
1648125567986344689,30644,36,6,0.856078028679,-0.83067125082,0.423469871283,0.566431701183,12.5,0.2863137219662207,-0.2778164718461538,0.14162871949264214,12.5,0.07654482448418919,0.49105303868456557,1.2657847565878753
1648125568090925274,30645,37,0,0.0126552544534,0.0439508594573,0.0102949859574,0.0,28.2999992371,0.004232526573043478,0.014699284099431437,0.003443139116187291,28.2999992371,0.0,0.015871279577237503,0.0468809156072991
1648125568090926630,30646,37,1,0.0327790863812,0.0146502861753,-0.0301449969411,0.0,28.2999992371,0.010962905144214047,0.0048997612626421405,-0.010081938776287625,28.2999992371,0.0,0.016259712138686776,0.046880915408973045
1648125568090929969,30647,37,2,0.503447234631,-1.53828001022,0.269379734993,0.0,28.2999992371,0.16837700154882942,-0.51447491980602,0.09009355685384615,28.2999992371,0.0,0.5669092276639706,1.6408320905945688
1648125568090949676,30648,37,3,2.42425823212,-0.902457654476,0.448226034641,0.0,28.2999992371,0.8107887063946488,-0.30182530250033446,0.1499083727896321,28.2999992371,0.0,1.1856876342711997,2.625331288095639
1648125568091011902,30649,37,4,0.824041485786,-0.876087069511,0.197872683406,0.161837622523,28.2999992371,0.2755991591257525,-0.2930057088665552,0.06617815498528427,28.2999992371,0.021869948989594594,0.4876085914440354,1.2189038200362905
1648125568091017160,30650,37,5,1.00456547737,-0.849716603756,0.342340260744,0.566431701183,28.2999992371,0.3359750760434782,-0.28418615510234113,0.11449507048294313,28.2999992371,0.07654482448418919,0.553642731548689,1.359546600579957
1648125568091027121,30651,37,6,1.06024360657,-0.351606875658,0.134909585118,-0.404594063759,28.2999992371,0.35459652393645485,-0.11759427279531771,0.0451202625812709,28.2999992371,-0.05467487348094594,0.5150784431228832,1.1251419894569983
1648125568091165264,30652,37,7,1.00485503674,-1.40935754776,0.113109737635,-0.161837622523,28.2999992371,0.3360719186421404,-0.4713570393846154,0.037829343690635446,28.2999992371,-0.021869948989594594,0.669377417886986,1.7345939452902763
1648125568091176284,30653,37,8,0.877732217312,-1.0987714529,0.0180468391627,-0.0809188112617,28.2999992371,0.293555925522408,-0.3674820912709029,0.006035732161438127,28.2999992371,-0.010934974494824324,0.554430563933367,1.4064274739278884
1648125568285934341,30654,39,0,0.00654576485977,0.0454158857465,0.00961095839739,0.0,14.6000003815,0.002189219016645485,0.015189259446989964,0.0032143673569866218,14.6000003815,0.0,0.015501579350300353,0.046880915488660226
1648125568285941708,30655,39,1,0.0327790863812,0.0146502861753,-0.0301449969411,0.0,14.6000003815,0.010962905144214047,0.0048997612626421405,-0.010081938776287625,14.6000003815,0.0,0.016259712138686776,0.046880915408973045
1648125568285947439,30656,39,2,2.42145061493,-0.902457654476,0.463154554367,0.0,14.6000003815,0.8098497039899665,-0.30182530250033446,0.154901188751505,14.6000003815,0.0,1.1844034782685717,2.6253314152499097
1648125568285953096,30657,39,3,0.850815534592,-0.83799636364,0.244134187698,0.0809188112617,14.6000003815,0.28455369049899665,-0.28026634235451503,0.0816502299993311,14.6000003815,0.010934974494824324,0.4903986421371656,1.2189038030049362
1648125568285974547,30658,39,4,1.0440466404,-0.879017174244,0.339608162642,0.485512852669,14.6000003815,0.3491794783946488,-0.29398567700468226,0.11358132529832775,14.6000003815,0.06560984495527027,0.5747000909585968,1.4064274898051121
1648125568390879417,30659,40,0,0.00653255125508,0.0454158857465,0.00961994472891,0.0,33.5,0.002184799750862876,0.015189259446989964,0.003217372819033445,33.5,0.0,0.015500332333557073,0.046880915526754295
1648125568390890109,30660,40,1,0.0327790863812,0.0146502861753,-0.0301449969411,0.0,33.5,0.010962905144214047,0.0048997612626421405,-0.010081938776287625,33.5,0.0,0.016259712138686776,0.046880915408973045
1648125568390894260,30661,40,2,2.41861748695,-0.902457654476,0.477728903294,0.0,33.5,0.8089021695484949,-0.30182530250033446,0.1597755529411371,33.5,0.0,1.1831077520792188,2.6253314593294967
1648125568390899040,30662,40,3,0.83769506216,-0.83799636364,0.285929322243,0.0809188112617,33.5,0.2801655726287625,-0.28026634235451503,0.09562853586722407,33.5,0.010934974494824324,0.48531919272740803,1.2189038107904375
1648125568390931195,30663,40,4,1.02468669415,-0.820416092873,0.00507345749065,0.242756426334,33.5,0.3427045799832775,-0.2743866531347826,0.0016968085253010032,33.5,0.03280492247756756,0.5569388599312647,1.3126656568159174
1648125568390939060,30664,40,5,1.15323400497,-0.89073741436,0.356659561396,0.485512852669,33.5,0.38569699162876253,-0.29790548975250836,0.11928413424615385,33.5,0.06560984495527027,0.621507859586375,1.5001892728236232
1648125568585943672,30665,42,0,0.00647589145228,0.0454158857465,0.00965817738324,0.0,30.6000003815,0.0021658499840401337,0.015189259446989964,0.003230159659946488,30.6000003815,0.0,0.01549501258001126,0.046880915505213665
1648125568585966115,30666,42,1,0.0327790863812,0.0146502861753,-0.0301449969411,0.0,30.6000003815,0.010962905144214047,0.0048997612626421405,-0.010081938776287625,30.6000003815,0.0,0.016259712138686776,0.046880915408973045
1648125568585990592,30667,42,2,2.0325191021,-1.19546329975,0.395302176476,0.0,30.6000003815,0.6797722749498328,-0.39982050158862875,0.13220808577792642,30.6000003815,0.0,1.0411710354555226,2.3909266429937186
1648125568586137712,30668,42,3,2.42076253891,-0.902457654476,0.466737359762,0.0,30.6000003815,0.8096195782307691,-0.30182530250033446,0.15609945142541803,30.6000003815,0.0,1.184088778824694,2.6253313792567052
1648125568586150275,30669,42,4,0.868336260319,-0.870226979256,0.301509857178,0.0809188112617,30.6000003815,0.2904134649896321,-0.29104581246020067,0.10083941711638796,30.6000003815,0.010934974494824324,0.5033762273341749,1.2657847567360363
1648125568586152609,30670,42,5,1.14717793465,-0.966918945312,0.377461105585,0.242756426334,30.6000003815,0.3836715500501672,-0.32338426264615383,0.12624117243645486,30.6000003815,0.03280492247756756,0.6316526719352911,1.5470702462333636
1648125568586157674,30671,42,6,1.2280921936,-0.77207005024,0.0883311107755,0.485512852669,30.6000003815,0.4107331751170568,-0.25821740810702337,0.02954217751688963,30.6000003815,0.06560984495527027,0.6356726454182111,1.4533082892455027
1648125568586180134,30672,42,7,0.74478572607,-1.18081307411,0.403831392527,-0.0809188112617,30.6000003815,0.24909221607692308,-0.39492076057190634,0.13506066639698996,30.6000003815,-0.010934974494824324,0.529203430970471,1.4533083249390066
1648125568690916904,30673,43,0,0.0126251038164,0.0439508594573,0.0103319380432,0.0,19.7000007629,0.004222442747959866,0.014699284099431437,0.0034554976733110363,19.7000007629,0.0,0.01586590679902651,0.04688091548955436
1648125568690947244,30674,43,1,0.0328668281436,0.0146502861753,-0.0300493054092,0.0,19.7000007629,0.010992250215250835,0.0048997612626421405,-0.010049934919464881,19.7000007629,0.0,0.016299288021881585,0.046880913310370774
1648125568691006798,30675,43,2,2.41981625557,-0.902457654476,0.471619009972,0.0,19.7000007629,0.8093030955083611,-0.30182530250033446,0.1577321103585284,19.7000007629,0.0,1.1836559948009595,2.6253314113479287
1648125568691011319,30676,43,3,0.874315738678,-0.870226979256,0.283704161644,0.161837622523,19.7000007629,0.2924132905277592,-0.29104581246020067,0.0948843349979933,19.7000007629,0.021869948989594594,0.5056863948191228,1.2657847596093121
1648125568691022251,30677,43,4,1.20472919941,-0.918572962284,0.313493013382,0.242756426334,19.7000007629,0.4029194646856187,-0.30721503755317725,0.10484716166622073,19.7000007629,0.03280492247756756,0.6473555972909256,1.5470703281976514
1648125568691027190,30678,43,5,1.25712835789,-0.796975553036,0.187153086066,0.404594063759,19.7000007629,0.4204442668528428,-0.2665470077043478,0.06259300537324415,19.7000007629,0.05467487348094594,0.6516088323334719,1.5001893273758062
1648125568691040844,30679,43,6,0.870938837528,-1.0987714529,0.110476695001,-0.0809188112617,19.7000007629,0.29128389214983275,-0.3674820912709029,0.03694872742508361,19.7000007629,-0.010934974494824324,0.5520287121669913,1.4064274828660541
1648125568885962992,30680,45,0,0.00654576485977,0.0454158857465,0.00961095839739,0.0,18.0,0.002189219016645485,0.015189259446989964,0.0032143673569866218,18.0,0.0,0.015501579350300353,0.046880915488660226
1648125568885965781,30681,45,1,0.0327790863812,0.0146502861753,-0.0301449969411,0.0,18.0,0.010962905144214047,0.0048997612626421405,-0.010081938776287625,18.0,0.0,0.016259712138686776,0.046880915408973045
1648125568885967973,30682,45,2,2.4188349247,-0.902457654476,0.476626157761,0.0,18.0,0.8089748912040133,-0.30182530250033446,0.15940674172608693,18.0,0.0,1.183207193363237,2.6253313515312295
1648125568885975437,30683,45,3,0.972301721573,-0.861436843872,0.188804537058,0.0809188112617,18.0,0.3251845222652174,-0.28810596785016723,0.06314533011973243,18.0,0.010934974494824324,0.5426739313368544,1.312665695052498
1648125568885987963,30684,45,4,1.29130280018,-0.896597504616,0.263306051493,0.242756426334,18.0,0.4318738462140468,-0.2998653861591973,0.08806222457959866,18.0,0.03280492247756756,0.6804037682904415,1.5939510920317415
1648125568990965475,30685,46,0,0.00654576485977,0.0454158857465,0.00961095839739,0.0,25.2000007629,0.002189219016645485,0.015189259446989964,0.0032143673569866218,25.2000007629,0.0,0.015501579350300353,0.046880915488660226
1648125568990975482,30686,46,1,0.0327790863812,0.0146502861753,-0.0301449969411,0.0,25.2000007629,0.010962905144214047,0.0048997612626421405,-0.010081938776287625,25.2000007629,0.0,0.016259712138686776,0.046880915408973045
1648125568990982217,30687,46,2,2.41674017906,-0.902457654476,0.487136781216,0.0,25.2000007629,0.8082743073779264,-0.30182530250033446,0.16292200040668894,25.2000007629,0.0,1.182249222949185,2.625331437136799
1648125568990984755,30688,46,3,0.986939609051,-0.861436843872,0.0834749788046,0.0809188112617,25.2000007629,0.3300801368063545,-0.28810596785016723,0.027918053111906354,25.2000007629,0.010934974494824324,0.5485534086477678,1.312665722863335
