%time,field.header.seq,field.header.frame_id,field.point_id,field.x,field.y,field.z,field.velocity,field.intensity,normalized_x,normalized_y,normalized_z,normalized_intensity,normalized_velocity,normalized_range,range
1648125527185283806,28468,0,0,0.00646429089829,0.0454158857465,0.00966594554484,0.0,12.8999996185,0.00216197020009699,0.015189259446989964,0.0032327577073043476,12.8999996185,0.0,0.015493928902644052,0.04688091550122148
1648125527185289421,28469,0,1,0.0327896587551,0.0146502861753,-0.0301334951073,0.0,12.8999996185,0.010966441055217392,0.0048997612626421405,-0.010078092009130433,12.8999996185,0.0,0.01626448029498648,0.04688091438608856
1648125527185382555,28470,0,2,1.87345421314,-1.31852579117,0.49619603157,0.0,12.8999996185,0.6265733154314381,-0.44097852547491634,0.16595185002341134,12.8999996185,0.0,0.9897728523007289,2.34404595783835
1648125527185388875,28471,0,3,2.39469003677,-0.984499275684,0.434265047312,0.0,12.8999996185,0.8008996778494983,-0.32926397180066885,0.14523914625819398,12.8999996185,0.0,1.1795318355537558,2.625331469994735
1648125527185391178,28472,0,4,0.519133269787,1.06654083729,0.280566871166,-0.0809188112617,12.8999996185,0.17362316715284282,0.35670262116722407,0.09383507396856186,12.8999996185,-0.010934974494824324,0.43304361015022047,1.2189038020298713
1648125527290382111,28473,1,0,0.0126923779026,0.0439508594573,0.0102491816506,0.0,31.5,0.004244942442341137,0.014699284099431437,0.0034278199500334446,31.5,0.0,0.015877909991978672,0.04688091539597687
1648125527290411904,28474,1,1,0.0327896587551,0.0146502861753,-0.0301334951073,0.0,31.5,0.010966441055217392,0.0048997612626421405,-0.010078092009130433,31.5,0.0,0.01626448029498648,0.04688091438608856
1648125527290417505,28475,1,2,1.87161552906,-1.31852579117,0.503086984158,0.0,31.5,0.6259583709230769,-0.44097852547491634,0.16825651644080267,31.5,0.0,0.9889943499269226,2.3440459603489456
1648125527290421894,28476,1,3,2.3935983181,-0.984499275684,0.440242290497,0.0,31.5,0.800534554548495,-0.32926397180066885,0.14723822424648828,31.5,0.0,1.1790360084315772,2.625331408903553
1648125527290447015,28477,1,4,0.562466144562,0.988894343376,0.281704813242,-0.161837622523,31.5,0.1881157674120401,0.3307338941056856,0.09421565660267557,31.5,-0.021869948989594594,0.4244525799289626,1.1720229468501036
1648125527290544071,28478,1,5,0.847864031792,1.06214570999,0.0366046130657,-0.161837622523,31.5,0.2835665658167224,0.3552326789264214,0.012242345506923076,31.5,-0.021869948989594594,0.5357333764807091,1.3595465506390123
1648125527485485480,28479,3,0,0.00646429089829,0.0454158857465,0.00966594554484,0.0,20.1000003815,0.00216197020009699,0.015189259446989964,0.0032327577073043476,20.1000003815,0.0,0.015493928902644052,0.04688091550122148
1648125527485491441,28480,3,1,0.0327771268785,0.0146502861753,-0.0301471278071,0.0,20.1000003815,0.010962249792140466,0.0048997612626421405,-0.010082651440501671,20.1000003815,0.0,0.01625882841540115,0.04688091558880965
1648125527485666808,28481,3,2,0.480197966099,-1.53828001022,0.308924674988,0.0,20.1000003815,0.16060132645451505,-0.51447491980602,0.10331928929364549,20.1000003815,0.0,0.5623788893862484,1.640832085042373
1648125527485674558,28482,3,3,2.3938369751,-0.984499275684,0.438942819834,0.0,20.1000003815,0.8006143729431439,-0.32926397180066885,0.14680361867357858,20.1000003815,0.0,1.1791443980498055,2.625331424080027
1648125527485680800,28483,3,4,0.358629256487,0.966918945312,0.0140654910356,-0.323675245047,20.1000003815,0.11994289514615383,0.32338426264615383,0.004704177603879599,20.1000003815,-0.04373989797932432,0.36517116194913185,1.0313801570952204
1648125527485726268,28484,3,5,0.587543129921,0.952268660069,0.348733842373,-0.323675245047,20.1000003815,0.19650271903712374,0.3184845016953177,0.1166333920979933,20.1000003815,-0.04373989797932432,0.4226807483173091,1.172022961926604
1648125527485743291,28485,3,6,1.03010094166,1.11195671558,0.309630095959,-0.242756426334,20.1000003815,0.3445153651036789,0.37189187812040136,0.10355521603979932,20.1000003815,-0.03280492247756756,0.6129316785718959,1.5470702904703004
1648125527485752247,28486,3,7,0.762326896191,1.06654083729,0.0666303262115,-0.161837622523,20.1000003815,0.2549588281575251,0.35670262116722407,0.02228439003729097,20.1000003815,-0.021869948989594594,0.5071930284009087,1.3126657055909203
1648125527590489947,28487,4,0,0.0126256523654,0.0439508594573,0.010331267491,0.0,25.2000007629,0.004222626209163879,0.014699284099431437,0.0034552734083612034,25.2000007629,0.0,0.015866004451040385,0.04688091544176436
1648125527590520741,28488,4,1,0.0328283309937,0.0146502861753,-0.0300913602114,0.0,25.2000007629,0.010979374914280936,0.0048997612626421405,-0.01006400007070234,25.2000007629,0.0,0.01628192271961673,0.046880914669216275
1648125527590524121,28489,4,2,0.485498905182,-1.53828001022,0.300525128841,0.0,25.2000007629,0.1623742157799331,-0.51447491980602,0.1005100765354515,25.2000007629,0.0,0.5633961439428807,1.6408320845961855
1648125527590530329,28490,4,3,2.39272069931,-0.984499275684,0.444986969233,0.0,25.2000007629,0.8002410365585283,-0.32926397180066885,0.14882507332207356,25.2000007629,0.0,1.178637432084391,2.6253313260455386
1648125527590533754,28491,4,4,0.643211960793,0.914177834988,0.12845915556,-0.323675245047,25.2000007629,0.21512105712140467,0.30574509531371236,0.04296292828093645,25.2000007629,-0.04373989797932432,0.4313168229300271,1.1251419888786085
1648125527590535450,28492,4,5,1.02918422222,1.0782610178,0.169413432479,-0.323675245047,25.2000007629,0.3442087699732441,0.3606224139799331,0.056660010862541806,25.2000007629,-0.04373989797932432,0.6058117530369493,1.5001892870161402
1648125527590622901,28493,4,6,0.797484755516,1.02552008629,0.18819630146,-0.0809188112617,25.2000007629,0.2667173095371237,0.342983306451505,0.06294190684280936,25.2000007629,-0.010934974494824324,0.5098174133136791,1.3126656964162224
1648125527785581637,28494,6,0,0.0126923779026,0.0439508594573,0.0102491816506,0.0,15.8000001907,0.004244942442341137,0.014699284099431437,0.0034278199500334446,15.8000001907,0.0,0.015877909991978672,0.04688091539597687
1648125527785585295,28495,6,1,0.0327771268785,0.0146502861753,-0.0301471278071,0.0,15.8000001907,0.010962249792140466,0.0048997612626421405,-0.010082651440501671,15.8000001907,0.0,0.01625882841540115,0.04688091558880965
1648125527785687027,28496,6,2,0.486229419708,-1.53828001022,0.299341738224,0.0,15.8000001907,0.16261853501939796,-0.51447491980602,0.10011429372040133,15.8000001907,0.0,0.5635370608692218,1.6408320799749703
1648125527785690183,28497,6,3,2.39191555977,-0.984499275684,0.449295699596,0.0,15.8000001907,0.7999717591204013,-0.32926397180066885,0.15026612026622074,15.8000001907,0.0,1.1782717826997007,2.6253315018426937
1648125527785693288,28498,6,4,0.474361240864,0.861436843872,0.0463324226439,-0.323675245047,15.8000001907,0.15864924443612038,0.28810596785016723,0.015495793526387958,15.8000001907,-0.04373989797932432,0.3651632706491514,0.9844992210267306
1648125527785696754,28499,6,5,0.781038284302,0.808695793152,0.0439869388938,-0.323675245047,15.8000001907,0.2612168174923077,0.2704668204521739,0.014711350800602006,15.8000001907,-0.04373989797932432,0.45784358950096443,1.1251420080151664
1648125527785705452,28500,6,6,0.500961124897,0.87022703886,0.235558733344,-0.161837622523,15.8000001907,0.16754552672140466,0.2910458323946488,0.07878218506488294,15.8000001907,-0.021869948989594594,0.37530079083716283,1.031380174657115
1648125527785814069,28501,6,7,0.355044186115,0.257845044136,-0.933383405209,-0.161837622523,15.8000001907,0.11874387495484949,0.08623580071438126,-0.3121683629461538,15.8000001907,-0.021869948989594594,0.1887771940766054,1.031380153968025
1648125527785976133,28502,6,8,0.883600175381,0.769140064716,0.0362219363451,-0.161837622523,15.8000001907,0.29551845330468224,0.2572374798381271,0.012114359981638794,15.8000001907,-0.021869948989594594,0.4907478308873654,1.1720229254401362
1648125527890703972,28503,7,0,0.00646429089829,0.0454158857465,0.00966594554484,0.0,30.0,0.00216197020009699,0.015189259446989964,0.0032327577073043476,30.0,0.0,0.015493928902644052,0.04688091550122148
1648125527890709043,28504,7,1,0.0329282097518,0.0146502861753,-0.029982034117,0.0,30.0,0.011012779181204012,0.0048997612626421405,-0.010027436159531772,30.0,0.0,0.016326979849892922,0.04688091565093065
1648125527890713075,28505,7,2,2.39201593399,-0.984499275684,0.44876074791,0.0,30.0,0.8000053290936454,-0.32926397180066885,0.15008720665886285,30.0,0.0,1.1783173665368831,2.6253314573876407
1648125527890717452,28506,7,3,1.13885998726,0.79111546278,0.234888389707,0.161837622523,30.0,0.3808896278461538,0.26458711129765883,0.07855798986856187,30.0,0.021869948989594594,0.6001334490481287,1.4064274960518257
1648125527890866936,28507,7,4,0.54148453474,0.761814892292,-0.0745699033141,-0.323675245047,30.0,0.1810985066020067,0.2547875893953177,-0.024939766994682273,30.0,-0.04373989797932432,0.3612617526072074,0.937618313580073
1648125527890870234,28508,7,5,0.753979742527,0.741304457188,0.211255848408,-0.0809188112617,30.0,0.2521671379688963,0.24792791210301002,0.07065412990234113,30.0,-0.010934974494824324,0.43433256905579465,1.0782609998856771
1648125528085561056,28509,9,0,0.012629323639,0.0439508594573,0.0103267794475,0.0,30.7000007629,0.0042238540598662205,0.014699284099431437,0.003453772390468227,30.7000007629,0.0,0.015866658100365513,0.04688091548136884
1648125528085566768,28510,9,1,0.0327771268785,0.0146502861753,-0.0301471278071,0.0,30.7000007629,0.010962249792140466,0.0048997612626421405,-0.010082651440501671,30.7000007629,0.0,0.01625882841540115,0.04688091558880965
1648125528085587343,28511,9,2,2.3911242485,-0.984499275684,0.453488111496,0.0,30.7000007629,0.7997071065217392,-0.32926397180066885,0.15166826471438125,30.7000007629,0.0,1.1779124227075186,2.6253314958030005
1648125528085631652,28512,9,3,0.749792039394,0.64461261034,0.293311238289,-0.0809188112617,30.7000007629,0.2507665683591973,0.21558950178595315,0.09809740411003344,30.7000007629,-0.010934974494824324,0.4150259954431908,1.0313801443961335
1648125528189726148,28513,10,0,0.00650530029088,0.0454158857465,0.00963839329779,0.0,27.0,0.0021756857160133776,0.015189259446989964,0.003223542908959866,27.0,0.0,0.015497768201186361,0.04688091547076004
1648125528189737306,28514,10,1,0.0328283309937,0.0146502861753,-0.0300913602114,0.0,27.0,0.010979374914280936,0.0048997612626421405,-0.01006400007070234,27.0,0.0,0.01628192271961673,0.046880914669216275
1648125528189741544,28515,10,2,0.98051571846,0.527410328388,0.162393644452,0.0,27.0,0.3279316784147157,0.1763914141765886,0.05431225566956521,27.0,0.0,0.496177692375425,1.1251419574417578
1648125528189911654,28516,10,3,1.87789428234,-1.31852579117,0.479117840528,0.0,27.0,0.6280582884080267,-0.44097852547491634,0.16024008044414714,27.0,0.0,0.9916534108276296,2.3440458832407596
1648125528189918694,28517,10,4,2.39087939262,-0.984499275684,0.454777479172,0.0,27.0,0.7996252149230769,-0.32926397180066885,0.1520994913618729,27.0,0.0,1.1778012276303271,2.625331531338345
1648125528189923933,28518,10,5,1.75540065765,-1.43572807312,0.36636030674,-0.323675245047,27.0,0.5870905209531773,-0.480176613083612,0.12252853068227423,27.0,-0.04373989797932432,0.9591246735115279,2.297164870699869
1648125528189959937,28519,10,6,0.828489899635,0.612381994724,0.0483518466353,-0.161837622523,27.0,0.2770869229548495,0.20481003168026754,0.016171186165652173,27.0,-0.021869948989594594,0.442155487155871,1.0313802026083305
1648125528189963565,28520,10,7,1.2868834734,0.590406537056,0.327805221081,-0.161837622523,27.0,0.43039581050167225,0.1974603802862876,0.10963385320434782,27.0,-0.021869948989594594,0.6398997649457202,1.4533083692308628
1648125528189978035,28521,10,8,0.61469066143,0.640217542648,0.0754325985909,-0.0809188112617,27.0,0.2055821610133779,0.21411957948093643,0.025228293843110365,27.0,-0.010934974494824324,0.36107512261433067,0.8907374406039472
1648125528290509823,28522,11,0,0.0126965874806,0.0439508594573,0.0102439671755,0.0,18.2999992371,0.004246350327959866,0.014699284099431437,0.003426075978428093,18.2999992371,0.0,0.015878662892426666,0.04688091556465794
1648125528290518058,28523,11,1,0.0328408256173,0.0146502861753,-0.0300777256489,0.0,18.2999992371,0.010983553718160535,0.0048997612626421405,-0.010059440016354514,18.2999992371,0.0,0.016287558595146318,0.04688091607951567
1648125528290527564,28524,11,2,0.485472738743,-1.53828001022,0.300567388535,0.0,18.2999992371,0.1623654644625418,-0.51447491980602,0.10052421021237457,18.2999992371,0.0,0.5633910996898022,1.6408320831077816
1648125528290549004,28525,11,3,1.87716495991,-1.31852579117,0.481967836618,0.0,18.2999992371,0.6278143678628763,-0.44097852547491634,0.16119325639397994,18.2999992371,0.0,0.9913444511975428,2.3440459774135447
1648125528290561308,28526,11,4,2.39083766937,-0.984499275684,0.454995721579,0.0,18.2999992371,0.7996112606588629,-0.32926397180066885,0.1521724821334448,18.2999992371,0.0,1.1777822801650837,2.6253313489455175
1648125528290566694,28527,11,5,1.25414276123,-1.65108728409,0.988940536976,-0.404594063759,18.2999992371,0.419445739541806,-0.5522031050468227,0.3307493434702341,18.2999992371,-0.05467487348094594,0.8104305806562937,2.297164920266649
1648125528290704521,28528,11,6,0.672040343285,0.5845464468,0.0089653423056,-0.323675245047,18.2999992371,0.22476265661705683,0.19550048387959865,0.002998442242675585,18.2999992371,-0.04373989797932432,0.37317146570480336,0.8907374185649677
1648125528290709368,28529,11,7,0.749420881271,0.5391305089,0.557093679905,-0.323675245047,18.2999992371,0.2506424352076923,0.18031120698996655,0.18631895648996655,18.2999992371,-0.04373989797932432,0.397687555776973,1.078260975414519
1648125528290711548,28530,11,8,1.33209729195,0.499574750662,0.296727448702,-0.323675245047,18.2999992371,0.4455174889464883,0.16708185640869566,0.09923994939866221,18.2999992371,-0.04373989797932432,0.6518343444889543,1.4533084000076244
1648125528290713868,28531,11,9,1.67334008217,-1.47674882412,-0.287964761257,-0.242756426334,18.2999992371,0.5596455124314381,-0.49389592779933106,-0.09630928470133779,18.2999992371,-0.03280492247756756,0.9329198179190192,2.250283942941936
1648125528290781188,28532,11,10,0.806658506393,0.553780794144,0.108938418329,-0.161837622523,18.2999992371,0.26978545364314377,0.18521096794113712,0.03643425362173913,18.2999992371,-0.021869948989594594,0.42411258486464026,0.9844992091855478
1648125528290786750,28533,11,11,1.04037857056,0.512760043144,0.168307229877,-0.0809188112617,18.2999992371,0.34795269918394645,0.17149165322541807,0.056290043437123745,18.2999992371,-0.010934974494824324,0.5211060821606047,1.1720229330326155
1648125528389658810,28534,12,0,0.0126088457182,0.0439508594573,0.0103517724201,0.0,11.6999998093,0.004217005256923077,0.014699284099431437,0.0034621312441806018,11.6999998093,0.0,0.01586301420631122,0.04688091540934595
1648125528389666378,28535,12,1,0.0328408256173,0.0146502861753,-0.0300777256489,0.0,11.6999998093,0.010983553718160535,0.0048997612626421405,-0.010059440016354514,11.6999998093,0.0,0.016287558595146318,0.04688091607951567
1648125528389670063,28536,12,2,1.08624053001,0.439508616924,0.0234827362001,0.0,11.6999998093,0.36329114716053507,0.1469928484695652,0.007853757926454848,11.6999998093,0.0,0.5343854533121496,1.1720229316384114
1648125528389772480,28537,12,3,1.87353503704,-1.31852579117,0.495890408754,0.0,11.6999998093,0.6266003468361203,-0.44097852547491634,0.1658496350347826,11.6999998093,0.0,0.9898070767782599,2.3440458814816654
1648125528389777603,28538,12,4,2.39117240906,-0.984499275684,0.453233331442,0.0,11.6999998093,0.7997232137324415,-0.32926397180066885,0.15158305399397992,11.6999998093,0.0,1.1779342937070134,2.625331363162018
1648125528389808341,28539,12,5,0.624239802361,0.553780794144,0.125479847193,-0.404594063759,11.6999998093,0.20877585363244144,0.18521096794113712,0.041966504077926424,11.6999998093,-0.05467487348094594,0.34853667922559045,0.8438564397254064
1648125528389816725,28540,12,6,1.61897647381,-1.54707026482,0.221960961819,-0.404594063759,11.6999998093,0.5414637036153847,-0.5174148042876254,0.0742344353909699,11.6999998093,-0.05467487348094594,0.9241666323568385,2.250283958884323
1648125528389888930,28541,12,7,0.795533180237,0.49224960804,0.306685417891,-0.323675245047,11.6999998093,0.2660646087749164,0.16463197593311035,0.10257037387658863,11.6999998093,-0.04373989797932432,0.41071211278064207,0.9844991940171948
1648125528389893997,28542,12,8,1.2959676981,0.527410328388,0.142633423209,-0.323675245047,11.6999998093,0.43343401274247484,0.1763914141765886,0.04770348602307692,11.6999998093,-0.04373989797932432,0.6378432548826588,1.4064274678863706
1648125528489639066,28543,13,0,0.0126825124025,0.0439508594573,0.0102613866329,0.0,14.0,0.004241642943979933,0.014699284099431437,0.0034319018839130432,14.0,0.0,0.015876146344885694,0.04688091534414363
1648125528489648702,28544,13,1,0.0327896587551,0.0146502861753,-0.0301334951073,0.0,14.0,0.010966441055217392,0.0048997612626421405,-0.010078092009130433,14.0,0.0,0.01626448029498648,0.04688091438608856
1648125528489654538,28545,13,2,0.478951215744,-1.53828001022,0.310854107141,0.0,14.0,0.16018435309163878,-0.51447491980602,0.10396458432809363,14.0,0.0,0.5621409939331807,1.6408320855076937
1648125528489661346,28546,13,3,2.39061760902,-0.984499275684,0.456151604652,0.0,14.0,0.7995376618795986,-0.32926397180066885,0.15255906510100334,14.0,0.0,1.1776823462435626,2.625331533883943
1648125528489664193,28547,13,4,1.36822116375,-1.6173915863,0.403239876032,-0.566431701183,14.0,0.4575990514214046,-0.54093364090301,0.13486283479331104,14.0,-0.07654482448418919,0.8434470864162881,2.1565219901475006
1648125528489815290,28548,13,5,2.08561253548,0.471739202738,0.279766857624,-0.566431701183,14.0,0.6975292760802676,0.15777230860802674,0.09356751091103678,14.0,-0.07654482448418919,0.9989926342779665,2.1565219725697222
1648125528489820306,28549,13,6,0.800350785255,0.410208016634,0.26513427496,-0.485512852669,14.0,0.2676758479113712,0.13719331659999998,0.08867367055518395,14.0,-0.06560984495527027,0.4026446637295109,0.9376183552638355
1648125528489826351,28550,13,7,0.673501670361,0.423393249512,0.0479969121516,-0.404594063759,14.0,0.22525139476956518,0.14160309348227423,0.016052478980468226,14.0,-0.05467487348094594,0.3486084017562094,0.7969755625409578
1648125528489843792,28551,13,8,0.82605022192,0.41899818182,0.792343378067,-0.404594063759,14.0,0.2762709772307692,0.14013317117725752,0.26499778530668894,14.0,-0.05467487348094594,0.4150766331465588,1.218903800252166
1648125528489960470,28552,13,9,1.39615631104,0.6050568223,-2.30981945992,-0.323675245047,14.0,0.4669419100468227,0.20236014123745819,-0.7725148695384615,14.0,-0.04373989797932432,0.6906657089200202,2.7659739949055404
1648125528489965600,28553,13,10,1.54210364819,-0.6050568223,-2.21504735947,-0.323675245047,14.0,0.5157537284916387,-0.20236014123745819,-0.7408185148729097,14.0,-0.04373989797932432,0.7569368822218256,2.765974010121516
1648125528589661496,28554,14,0,0.0125951459631,0.0439508594573,0.0103684375063,0.0,28.0,0.0042124233990301,0.014699284099431437,0.0034677048516053507,28.0,0.0,0.015860579271299975,0.0468809155754149
1648125528589671483,28555,14,1,0.0327896587551,0.0146502861753,-0.0301334951073,0.0,28.0,0.010966441055217392,0.0048997612626421405,-0.010078092009130433,28.0,0.0,0.01626448029498648,0.04688091438608856
1648125528589701398,28556,14,2,0.280736505985,-1.58955609798,0.294666439295,0.0,28.0,0.09389180802173912,-0.5316241130367892,0.09855064859364548,28.0,0.0,0.5479557836078884,1.6408320708911266
1648125528589705468,28557,14,3,2.42022061348,-0.902457654476,0.46953985095,0.0,28.0,0.8094383322675586,-0.30182530250033446,0.15703673944816052,28.0,0.0,1.1838409271171493,2.6253314662468776
1648125528589758184,28558,14,4,1.30560159683,-1.58223104477,0.492479026318,-0.566431701183,28.0,0.436656052451505,-0.529174262464883,0.1647087044541806,28.0,-0.07654482448418919,0.8132419174761688,2.1096412491326904
1648125528589763172,28559,14,5,2.07322621346,0.329631447792,0.208955004811,-0.566431701183,28.0,0.6933866934648829,0.11024463136856186,0.06988461699364548,28.0,-0.07654482448418919,0.9867745903163079,2.1096412058894525
1648125528589766431,28560,14,6,0.664087593555,0.328166425228,0.118052832782,-0.485512852669,28.0,0.2221028740986622,0.10975465726688963,0.03948255276989966,28.0,-0.06560984495527027,0.33272429751604377,0.7500946646180402
1648125528589769836,28561,14,7,0.77460116148,0.351606875658,0.394326895475,-0.323675245047,28.0,0.2590639336053512,0.11759427279531771,0.1318819048411371,28.0,-0.04373989797932432,0.38478130981690783,0.9376182884687654
1648125528589778166,28562,14,8,1.54020440578,0.6050568223,-2.21636843681,-0.323675245047,28.0,0.5151185303612039,0.20236014123745819,-0.7412603467591972,28.0,-0.04373989797932432,0.7560713110577713,2.7659740449764705
1648125528589783586,28563,14,9,1.44597625732,-0.9508035779,-2.15771579742,-0.323675245047,28.0,0.48360409943812704,-0.3179945076588629,-0.7216440794046822,28.0,-0.04373989797932432,0.7542322963702406,2.7659740134203035
1648125528589786266,28564,14,10,0.648800313473,0.328166425228,0.184409677982,-0.242756426334,28.0,0.21699007139565218,0.10975465726688963,0.061675477585953174,28.0,-0.03280492247756756,0.32590714469055887,0.7500946465233654
1648125528589799574,28565,14,11,0.44606128335,0.293005734682,1.04346287251,-0.242756426334,28.0,0.14918437570234114,0.09799522899063544,0.3489842382976588,28.0,-0.03280492247756756,0.23262635450937547,1.17202295001728
1648125528689634129,28566,15,0,0.00646429089829,0.0454158857465,0.00966594554484,0.0,18.7999992371,0.00216197020009699,0.015189259446989964,0.0032327577073043476,18.7999992371,0.0,0.015493928902644052,0.04688091550122148
1648125528689660011,28567,15,1,0.0327896587551,0.0146502861753,-0.0301334951073,0.0,18.7999992371,0.010966441055217392,0.0048997612626421405,-0.010078092009130433,18.7999992371,0.0,0.01626448029498648,0.04688091438608856
1648125528689670370,28568,15,2,0.277773946524,-1.58955609798,0.297460824251,0.0,18.7999992371,0.09290098545953177,-0.5316241130367892,0.09948522550200668,18.7999992371,0.0,0.5476179176769668,1.6408320742711626
1648125528689698356,28569,15,3,1.87084949017,-1.31852579117,0.505928277969,0.0,18.7999992371,0.625702170625418,-0.44097852547491634,0.16920678192943142,18.7999992371,0.0,0.9886700524344564,2.3440459678296626
1648125528689704604,28570,15,4,2.42071509361,-0.902457654476,0.466983169317,0.0,18.7999992371,0.8096037102374581,-0.30182530250033446,0.15618166197892977,18.7999992371,0.0,1.1840670793877914,2.625331343464848
1648125528689747105,28571,15,5,1.62884545326,0.542060613632,0.248694047332,0.161837622523,18.7999992371,0.5447643656387959,0.18129117512775916,0.08317526666622073,18.7999992371,0.021869948989594594,0.7914562011374244,1.73459388579438
1648125528689756463,28572,15,6,1.4749301672,0.498109728098,0.342268407345,0.323675245047,18.7999992371,0.4932876813377926,0.1665918823070234,0.1144710392458194,18.7999992371,0.04373989797932432,0.7172296203935169,1.5939510538310033
1648125528689776730,28573,15,7,2.32553243637,0.776465177536,0.403332531452,-0.647350490093,18.7999992371,0.7777700456086957,0.25968735034648827,0.13489382322809362,18.7999992371,-0.08747979595851352,1.1301725565692546,2.4846883940370628
1648125528689792121,28574,15,8,0.705763578415,-0.854111671448,-2.22397565842,-0.647350490093,18.7999992371,0.2360413305735786,-0.2856560774073579,-0.7438045680334447,18.7999992371,-0.08747979595851352,0.43935226645329745,2.484688452334722
1648125528689796021,28575,15,9,0.99888330698,-1.74045407772,0.47752687335,-0.485512852669,18.7999992371,0.33407468460869566,-0.5820916647892976,0.1597079843979933,18.7999992371,-0.06560984495527027,0.7496949352970014,2.0627603283917653
1648125528689799818,28576,15,10,2.03678441048,0.32230630517,0.0510730557144,-0.485512852669,18.7999992371,0.6811987994916388,0.10779475089297658,0.017081289536588627,18.7999992371,-0.06560984495527027,0.9693726410301554,2.062760418988765
1648125528689813266,28577,15,11,0.668232440948,0.197778865695,0.0941198468208,-0.323675245047,18.7999992371,0.22348911068494984,0.06614677782441471,0.031478209639063545,18.7999992371,-0.04373989797932432,0.32290890573976433,0.7032137800246054
1648125528689818947,28578,15,12,0.842923760414,0.380907446146,0.153353229165,-0.323675245047,18.7999992371,0.281914301141806,0.12739379469765885,0.05128870540635451,18.7999992371,-0.04373989797932432,0.4185457266584083,0.9376183452211669
1648125528689822343,28579,15,13,0.607985138893,0.24612480402,0.914177834988,-0.161837622523,18.7999992371,0.20333951133545147,0.08231598796655518,0.30574509531371236,18.7999992371,-0.021869948989594594,0.2991150875753185,1.1251419742645685
1648125528689841067,28580,15,14,1.58387112617,0.594801604748,-2.12862181664,-0.161837622523,18.7999992371,0.5297227846722408,0.19893030259130434,-0.7119136510501671,18.7999992371,-0.021869948989594594,0.7751036849937525,2.7190931450764233
1648125528689862257,28581,15,15,1.25471353531,-1.10463154316,-2.14451646805,-0.161837622523,18.7999992371,0.41963663388294314,-0.3694419876789297,-0.7172295879765885,18.7999992371,-0.021869948989594594,0.6990544980567488,2.7190931914099243
1648125528790525397,28582,16,0,0.0126188620925,0.0439508594573,0.0103395609185,0.0,20.2000007629,0.004220355214882943,0.014699284099431437,0.00345804712993311,20.2000007629,0.0,0.015864795911557678,0.04688091560040442
1648125528790662324,28583,16,1,0.0327771268785,0.0146502861753,-0.0301471278071,0.0,20.2000007629,0.010962249792140466,0.0048997612626421405,-0.010082651440501671,20.2000007629,0.0,0.01625882841540115,0.04688091558880965
1648125528790668420,28584,16,2,0.673302769661,0.0879017189145,0.182883188128,0.0,20.2000007629,0.22518487279632105,0.02939856819882943,0.06116494586220735,20.2000007629,0.0,0.3198135858351421,0.7032137600482223
1648125528790672728,28585,16,3,0.864387512207,0.167013257742,0.135476708412,0.0,20.2000007629,0.2890928134471572,0.05585727683678929,0.04530993592374581,20.2000007629,0.0,0.4126370620160135,0.8907374125089573
1648125528790682028,28586,16,4,0.28081575036,-1.58955609798,0.294590950012,0.0,20.2000007629,0.09391831115719063,-0.5316241130367892,0.098525401341806,20.2000007629,0.0,0.5479648673988056,1.6408320761444866
1648125528790686450,28587,16,5,2.41658878326,-0.902457654476,0.487887024879,0.0,20.2000007629,0.8082236733311036,-0.30182530250033446,0.16317291801973244,20.2000007629,0.0,1.182179988620626,2.6253313913762684
1648125528790690095,28588,16,6,1.47864878178,-0.0747164562345,-1.87737727165,-0.566431701183,20.2000007629,0.4945313651438127,-0.024988781349331104,-0.6278853751337792,20.2000007629,-0.07654482448418919,0.6998192491031743,2.390926638104925
1648125528790692338,28589,16,7,0.76412832737,-1.80491530895,0.642937541008,-0.323675245047,20.2000007629,0.2555613135016722,-0.603650605,0.21502927792909698,20.2000007629,-0.04373989797932432,0.7035746036023941,2.0627602998915706
1648125528790696208,28590,16,8,1.33272826672,-2.09645605087,-0.0488335639238,-0.242756426334,20.2000007629,0.44572851729765883,-0.7011558698561873,-0.01633229562668896,20.2000007629,-0.03280492247756756,0.9428506647918987,2.484688576685101
1648125528790813280,28591,16,9,2.6024787426,-0.339886635542,0.710667729378,-0.161837622523,20.2000007629,0.8703942282943142,-0.11367446004749163,0.23768151484214048,20.2000007629,-0.021869948989594594,1.2361610365009885,2.7190930753257083
1648125528790816995,28592,16,10,1.19545006752,0.509829938412,-2.38839697838,-0.161837622523,20.2000007629,0.39981607609364544,0.1705116850876254,-0.7987949760468226,20.2000007629,-0.021869948989594594,0.5905760104823603,2.7190931496308597
1648125528889566122,28593,17,0,0.0126923779026,0.0439508594573,0.0102491816506,0.0,19.2999992371,0.004244942442341137,0.014699284099431437,0.0034278199500334446,19.2999992371,0.0,0.015877909991978672,0.04688091539597687
1648125528889573581,28594,17,1,0.0327896587551,0.0146502861753,-0.0301334951073,0.0,19.2999992371,0.010966441055217392,0.0048997612626421405,-0.010078092009130433,19.2999992371,0.0,0.01626448029498648,0.04688091438608856
1648125528889586337,28595,17,2,0.270441919565,-1.58955609798,0.304142206907,0.0,19.2999992371,0.09044880253010033,-0.5316241130367892,0.10171980164113711,19.2999992371,0.0,0.5467962777126514,1.6408320762666928
1648125528889697536,28596,17,3,2.4176170826,-0.902457654476,0.482765853405,0.0,19.2999992371,0.8085675861538462,-0.30182530250033446,0.1614601516404682,19.2999992371,0.0,1.1826502424583243,2.625331416300715
1648125528889704592,28597,17,4,0.677229106426,-0.0219754297286,0.188115343451,0.161837622523,19.2999992371,0.2264980289050167,-0.007349642049698997,0.06291483058561873,19.2999992371,0.021869948989594594,0.32040089174965514,0.7032137402980709
1648125528889707407,28598,17,5,0.689061105251,-0.131852582097,0.0481592752039,0.485512852669,19.2999992371,0.23045521914749162,-0.04409785354414715,0.01610678100464883,19.2999992371,0.06560984495527027,0.32888270971858313,0.7032137839686738
1648125528889712228,28599,17,6,0.696819603443,-1.82689070702,0.490594118834,-0.242756426334,19.2999992371,0.23305003459632104,-0.6110002364615384,0.16407830061337791,19.2999992371,-0.03280492247756756,0.6942232538648851,2.0158794122102157
1648125528889716358,28600,17,7,1.96536386013,0.440973609686,0.0815909802914,-0.242756426334,19.2999992371,0.6573123278026756,0.14748281260401339,0.027287953274715716,19.2999992371,-0.03280492247756756,0.9412067639877726,2.0158794396514654
1648125528889718669,28601,17,8,0.828625917435,0.105482056737,0.11977635324,-0.0809188112617,19.2999992371,0.2771324138578595,0.035278279845150494,0.0400589810167224,19.2999992371,-0.010934974494824324,0.3935089664165235,0.8438564748426929
1648125528990389300,28602,18,0,0.0126923779026,0.0439508594573,0.0102491816506,0.0,27.0,0.004244942442341137,0.014699284099431437,0.0034278199500334446,27.0,0.0,0.015877909991978672,0.04688091539597687
1648125528990413670,28603,18,1,0.0328408256173,0.0146502861753,-0.0300777256489,0.0,27.0,0.010983553718160535,0.0048997612626421405,-0.010059440016354514,27.0,0.0,0.016287558595146318,0.04688091607951567
1648125528990417023,28604,18,2,0.781344234943,0.0527410283685,0.314345747232,0.0,27.0,0.26131914212140467,0.017639139922575247,0.10513235693377924,27.0,0.0,0.36998179324845426,0.8438564323123177
1648125528990420181,28605,18,3,0.286721915007,-1.58955609798,0.288845717907,0.0,27.0,0.09589361705919731,-0.5316241130367892,0.09660391903244146,27.0,0.0,0.548648675517899,1.6408320736516262
1648125528990432750,28606,18,4,2.4235227108,-0.902457654476,0.452186316252,0.0,27.0,0.8105427126421404,-0.30182530250033446,0.1512328816896321,27.0,0.0,1.185351210090907,2.6253313338493593
1648125528990575534,28607,18,5,0.70598089695,-0.0703213736415,0.243490874767,0.242756426334,27.0,0.2361140123578595,-0.023518854060702338,0.08143507517290968,27.0,0.03280492247756756,0.33474287170869443,0.7500946130615476
1648125528990589840,28608,18,6,0.721606969833,-0.187523663044,0.0822205469012,0.404594063759,27.0,0.24134012368996655,-0.0627169441618729,0.027498510669297656,27.0,0.05467487348094594,0.34702092975839394,0.7500946349933029
1648125528990715260,28609,18,7,1.93599402905,0.12306240201,0.33725002408,-0.242756426334,27.0,0.6474896418227424,0.04115799398327759,0.11279265019397992,27.0,-0.03280492247756756,0.9166131425002666,1.9689984291633358
1648125528990720962,28610,18,8,0.169706717134,-1.34782636166,-1.29270112514,-0.161837622523,27.0,0.05675809937591973,-0.45077804737792637,-0.43234151342474914,27.0,-0.021869948989594594,0.457868771251534,1.875236643723734
1648125528990725345,28611,18,9,0.245595633984,1.69943320751,0.753738641739,-0.161837622523,27.0,0.08213900802140468,0.5683723102040134,0.2520865022538461,27.0,-0.021869948989594594,0.5801212944584331,1.8752366203416255
1648125529185617985,28612,20,0,0.00646429089829,0.0454158857465,0.00966594554484,0.0,16.6000003815,0.00216197020009699,0.015189259446989964,0.0032327577073043476,16.6000003815,0.0,0.015493928902644052,0.04688091550122148
1648125529185626715,28613,20,1,0.0327896587551,0.0146502861753,-0.0301334951073,0.0,16.6000003815,0.010966441055217392,0.0048997612626421405,-0.010078092009130433,16.6000003815,0.0,0.01626448029498648,0.04688091438608856
1648125529185634628,28614,20,2,0.290288895369,-1.58955609798,0.28526070714,0.0,16.6000003815,0.0970865870799331,-0.5316241130367892,0.09540491877591974,16.6000003815,0.0,0.5490681272335991,1.6408320762460644
1648125529185756349,28615,20,3,2.01956534386,-1.04603040218,0.737364649773,0.0,16.6000003815,0.6754399143344482,-0.34984294387290965,0.24661025076020066,16.6000003815,0.0,1.0172650790870181,2.3909266837651195
1648125529185784563,28616,20,4,0.706699371338,-0.187523663044,0.167489901185,0.161837622523,16.6000003815,0.23635430479531772,-0.0627169441618729,0.056016689359531774,16.6000003815,0.021869948989594594,0.3400884147917411,0.7500946557934706
1648125529185790661,28617,20,5,0.877402067184,-0.083506628871,0.128861933947,0.242756426334,16.6000003815,0.293445507419398,-0.027928638418394644,0.0430976367715719,16.6000003815,0.03280492247756756,0.41593333659753867,0.8907374150582855
1648125529185793458,28618,20,6,0.70865547657,-0.109877154231,0.927023291588,0.242756426334,16.6000003815,0.23700852059197325,-0.0367482121173913,0.31004123464481603,16.6000003815,0.03280492247756756,0.3371891290658944,1.1720229334962722
1648125529185796414,28619,20,7,1.95997357368,0.184593603015,0.0371995903552,-0.161837622523,16.6000003815,0.6555095564147156,0.06173699097491638,0.01244133456695652,16.6000003815,-0.021869948989594594,0.929083964535322,1.9689984807816903
1648125529185822923,28620,20,8,0.630612611771,-1.84593605995,-0.26795989275,-0.161837622523,16.6000003815,0.21090722801705686,-0.6173699197157191,-0.08961869322742473,16.6000003815,-0.021869948989594594,0.6856451964605826,1.9689984021504345
1648125529290609139,28621,21,0,0.0126965874806,0.0439508594573,0.0102439671755,0.0,20.0,0.004246350327959866,0.014699284099431437,0.003426075978428093,20.0,0.0,0.015878662892426666,0.04688091556465794
1648125529290616010,28622,21,1,0.0327896587551,0.0146502861753,-0.0301334951073,0.0,20.0,0.010966441055217392,0.0048997612626421405,-0.010078092009130433,20.0,0.0,0.01626448029498648,0.04688091438608856
1648125529290622978,28623,21,2,0.26946246624,-1.58955609798,0.305010288954,0.0,20.0,0.09012122616722407,-0.5316241130367892,0.10201013008494983,20.0,0.0,0.546688090572605,1.6408320711472426
1648125529290730095,28624,21,3,0.743422865868,-0.224149376154,0.179581433535,0.161837622523,20.0,0.24863640998929765,-0.07496634653979932,0.06006068011204013,20.0,0.021869948989594594,0.3595275814986348,0.7969755276017597
1648125529290734270,28625,21,4,0.92497754097,-0.0879017189145,0.12576931715,0.404594063759,20.0,0.3093570371137123,-0.02939856819882943,0.04206331677257525,20.0,0.05467487348094594,0.4384835557186732,0.9376183043346631
1648125529290735375,28626,21,5,0.597461044788,-0.228544458747,1.03756165504,0.404594063759,20.0,0.19981974742073577,-0.07643627382842809,0.3470105869698996,20.0,0.05467487348094594,0.2927428340290292,1.2189037934441223
1648125529290846241,28627,21,6,0.858426749706,-0.139177724719,0.192733556032,0.485512852669,20.0,0.287099247393311,-0.04654773401973244,0.0644593832882943,20.0,0.06560984495527027,0.4086791495170544,0.8907374176992372
1648125529290849276,28628,21,7,0.74819868803,-0.273960351944,0.0177332311869,-0.0809188112617,20.0,0.2502336749264214,-0.09162553576722407,0.005930846550802675,20.0,-0.010934974494824324,0.36555303710815307,0.7969755446031087
1648125529485612164,28629,23,0,0.00646429089829,0.0454158857465,0.00966594554484,0.0,18.7000007629,0.00216197020009699,0.015189259446989964,0.0032327577073043476,18.7000007629,0.0,0.015493928902644052,0.04688091550122148
1648125529485774398,28630,23,1,0.0329019762576,0.0146502861753,-0.0300108194351,0.0,18.7000007629,0.011004005437324415,0.0048997612626421405,-0.010037063356220734,18.7000007629,0.0,0.016315144245768073,0.046880915198404954
1648125529485780688,28631,23,2,0.285297363997,-1.58955609798,0.290252864361,0.0,18.7000007629,0.09541717859431438,-0.5316241130367892,0.09707453657558528,18.7000007629,0.0,0.5484825188681508,1.6408320754418488
1648125529485789947,28632,23,3,1.90887081623,-1.17202293873,0.690743029118,0.0,18.7000007629,0.6384183331872909,-0.3919809159632107,0.23101773549096988,18.7000007629,0.0,0.984278911070757,2.3440459667504396
1648125529485797472,28633,23,4,0.781356930733,-0.290075659752,0.132027074695,0.242756426334,18.7000007629,0.2613233882050167,-0.09701527082006689,0.04415621227257525,18.7000007629,0.03280492247756756,0.3820887190407362,0.8438564392345249
1648125529485834715,28634,23,5,0.953181326389,-0.24612480402,0.0103251449764,0.242756426334,18.7000007629,0.31878974126722404,-0.08231598796655518,0.0034532257446153844,18.7000007629,0.03280492247756756,0.45828999568980044,0.9844991969267219
1648125529485843939,28635,23,6,0.983041226864,-0.276890397072,0.747778475285,0.242756426334,18.7000007629,0.32877633005484946,-0.09260548397056856,0.2500931355468227,18.7000007629,0.03280492247756756,0.4740923180880427,1.265784734385957
1648125529485851744,28636,23,7,1.56308341026,-0.93761831522,0.440629810095,-0.0809188112617,18.7000007629,0.5227703713244146,-0.31358472080936456,0.1473678294632107,18.7000007629,-0.010934974494824324,0.803064816434153,1.8752366469356283
1648125529590737916,28637,24,0,0.0125951459631,0.0439508594573,0.0103684375063,0.0,12.1000003815,0.0042124233990301,0.014699284099431437,0.0034677048516053507,12.1000003815,0.0,0.015860579271299975,0.0468809155754149
1648125529590760486,28638,24,1,0.0328651405871,0.0146502861753,-0.0300511550158,0.0,12.1000003815,0.010991685815083611,0.0048997612626421405,-0.010050553516989965,12.1000003815,0.0,0.01629852675998383,0.04688091582522333
1648125529590884049,28639,24,2,0.259528398514,-1.58955609798,0.313506484032,0.0,12.1000003815,0.0867987954896321,-0.5316241130367892,0.10485166690033444,12.1000003815,0.0,0.5456118211320707,1.6408320736110542
1648125529590925663,28640,24,3,1.87004256248,-1.31852579117,0.508902430534,0.0,12.1000003815,0.6254322951438126,-0.44097852547491634,0.17020148178394648,12.1000003815,0.0,0.9883284735085525,2.3440458893269667
1648125529590928629,28641,24,4,0.985388875008,-0.290075659752,0.0927898064256,0.161837622523,12.1000003815,0.32956149665819395,-0.09701527082006689,0.031033380075451502,12.1000003815,0.021869948989594594,0.4760604194127763,1.0313801779880154
1648125529590930122,28642,24,5,0.541986465454,-0.356001973152,1.08707141876,0.161837622523,12.1000003815,0.18126637640602006,-0.11906420506755852,0.3635690363745819,12.1000003815,0.021869948989594594,0.28265046145213973,1.265784738061064
1648125529590932011,28643,24,6,0.782078623772,-0.290075659752,0.127682551742,0.242756426334,12.1000003815,0.26156475711438126,-0.09701527082006689,0.0427031945625418,12.1000003815,0.03280492247756756,0.38241888957124154,0.8438564428627728
1648125529590933057,28644,24,7,1.16144096851,-0.0,-0.50325524807,-0.485512852669,12.1000003815,0.3884417954882943,-0.0,-0.1683127919966555,12.1000003815,-0.06560984495527027,0.5493396553721019,1.265784724210023
1648125529590934955,28645,24,8,0.857695102692,-0.474669277668,0.800786614418,-0.485512852669,12.1000003815,0.2868545493953177,-0.1587522667785953,0.26782161017324413,12.1000003815,-0.06560984495527027,0.43562982820845014,1.2657847424324342
1648125529590935939,28646,24,9,1.34758329391,-0.820416033268,-1.01363170147,-0.161837622523,12.1000003815,0.4506967538160535,-0.27438663319999995,-0.3390072580167224,12.1000003815,-0.021869948989594594,0.693933103605447,1.87523663250628
1648125529785597555,28647,26,0,0.0126923779026,0.0439508594573,0.0102491816506,0.0,22.5,0.004244942442341137,0.014699284099431437,0.0034278199500334446,22.5,0.0,0.015877909991978672,0.04688091539597687
1648125529785755806,28648,26,1,0.0327771268785,0.0146502861753,-0.0301471278071,0.0,22.5,0.010962249792140466,0.0048997612626421405,-0.010082651440501671,22.5,0.0,0.01625882841540115,0.04688091558880965
1648125529785762443,28649,26,2,0.817038595676,-0.32230630517,0.328168570995,0.0,22.5,0.2732570554100334,-0.10779475089297658,0.10975537491471572,22.5,0.0,0.4011963920361237,0.9376182763606135
1648125529785770174,28650,26,3,1.77442491055,-1.46502864361,0.446831405163,0.0,22.5,0.5934531473411371,-0.489976134986622,0.14944194152608695,22.5,0.0,0.9718281170220541,2.3440458601354353
1648125529785789030,28651,26,4,0.947024106979,-0.386767566204,0.131534039974,0.161837622523,22.5,0.3167304705615384,-0.1293537010715719,0.04399131771705685,22.5,0.021869948989594594,0.4662282294597579,1.0313801496725732
1648125529785797578,28652,26,5,0.782151639462,-0.417533159256,0.0855453386903,0.242756426334,22.5,0.26158917707759194,-0.13964319707558526,0.02861048116732441,22.5,0.03280492247756756,0.39542131659503926,0.8907374086469192
1648125529785800997,28653,26,6,1.47487819195,-1.11342179775,0.318651765585,-0.242756426334,22.5,0.49327029831103675,-0.37238187215719065,0.10657249685117057,22.5,-0.03280492247756756,0.7907587704875696,1.875236712659226
1648125529785803191,28654,26,7,0.933386027813,-0.336956560612,0.421779125929,-0.0809188112617,22.5,0.3121692400712374,-0.11269450187692308,0.14106325281906354,22.5,-0.010934974494824324,0.45563068339017243,1.078261022074632
1648125529890664723,28655,27,0,0.00646429089829,0.0454158857465,0.00966594554484,0.0,14.1000003815,0.00216197020009699,0.015189259446989964,0.0032327577073043476,14.1000003815,0.0,0.015493928902644052,0.04688091550122148
1648125529890670626,28656,27,1,0.0327896587551,0.0146502861753,-0.0301334951073,0.0,14.1000003815,0.010966441055217392,0.0048997612626421405,-0.010078092009130433,14.1000003815,0.0,0.01626448029498648,0.04688091438608856
1648125529890674044,28657,27,2,0.796585977077,-0.439508587122,0.22674010694,0.0,14.1000003815,0.26641671474147155,-0.14699283850234113,0.07583281168561871,14.1000003815,0.0,0.40442876549307494,0.9376183088681972
1648125529890687599,28658,27,3,0.777883112431,-0.498109728098,0.160973951221,0.161837622523,14.1000003815,0.2601615760638796,-0.1665918823070234,0.053837441879933105,14.1000003815,0.021869948989594594,0.40388234248439325,0.9376182862993363
1648125529890691564,28659,27,4,0.962737739086,-0.471739202738,0.115086704493,0.161837622523,14.1000003815,0.32198586591505013,-0.15777230860802674,0.03849053661973244,14.1000003815,0.021869948989594594,0.4819148234508207,1.0782609977233555
1648125529890841650,28660,27,5,1.28993487358,-1.22476398945,0.0983554273844,-0.323675245047,14.1000003815,0.4314163456789297,-0.409620063361204,0.03289479176735786,14.1000003815,-0.04373989797932432,0.7348664660643867,1.7814748378877818
1648125529890844801,28661,27,6,1.28636562824,-1.25699448586,0.328805536032,-0.242756426334,14.1000003815,0.4302226181404682,-0.4203994935986622,0.10996840669966555,14.1000003815,-0.03280492247756756,0.7395395435926938,1.8283557497174958
1648125529890846462,28662,27,7,0.863401949406,-0.386767566204,0.410722434521,-0.161837622523,14.1000003815,0.2887631937812709,-0.1293537010715719,0.13736536271605349,14.1000003815,-0.021869948989594594,0.42836986839229624,1.0313801407455467
1648125529890849583,28663,27,8,0.907471597195,-0.370652228594,0.449175864458,-0.0809188112617,14.1000003815,0.3035022064197324,-0.12396395605150501,0.15022604162474915,14.1000003815,-0.010934974494824324,0.4467597128247255,1.0782609755940047
1648125530085454087,28664,29,0,0.0126256523654,0.0439508594573,0.010331267491,0.0,19.1000003815,0.004222626209163879,0.014699284099431437,0.0034552734083612034,19.1000003815,0.0,0.015866004451040385,0.04688091544176436
1648125530085534114,28665,29,1,0.0328283309937,0.0146502861753,-0.0300913602114,0.0,19.1000003815,0.010979374914280936,0.0048997612626421405,-0.01006400007070234,19.1000003815,0.0,0.01628192271961673,0.046880914669216275
1648125530085537208,28666,29,2,2.42177796364,-0.902457654476,0.461439907551,0.0,19.1000003815,0.8099591851638795,-0.30182530250033446,0.1543277282779264,19.1000003815,0.0,1.1845531969869862,2.625331428900988
1648125530085540941,28667,29,3,0.823664605618,-0.547920703888,0.291726857424,0.0809188112617,19.1000003815,0.27547311224682275,-0.18325107153444814,0.09756751084414715,19.1000003815,0.010934974494824324,0.43052505892273524,1.031380162519844
1648125530085544126,28668,29,4,0.676460087299,-0.615312039852,0.207173585892,0.161837622523,19.1000003815,0.22624083187257524,-0.20578997988361203,0.06928882471304347,19.1000003815,0.021869948989594594,0.3804199571963689,0.9376182862907216
1648125530085560579,28669,29,5,0.70461332798,-0.646077632904,0.235249862075,0.242756426334,19.1000003815,0.2356566314314381,-0.2160794758876254,0.07867888363712375,19.1000003815,0.03280492247756756,0.39718816167541576,0.984499236826618
1648125530085562996,28670,29,6,1.2864638567,-1.22476398945,0.136442422867,-0.242756426334,19.1000003815,0.4302554704682274,-0.409620063361204,0.04563291734682274,19.1000003815,-0.03280492247756756,0.7335040122887592,1.7814748438321366
1648125530190469743,28671,30,0,0.0127124926075,0.0439508594573,0.0102242222056,0.0,21.2999992371,0.004251669768394649,0.014699284099431437,0.0034194723095652174,21.2999992371,0.0,0.015881509521287952,0.046880915467176654
1648125530190474871,28672,30,1,0.0327896587551,0.0146502861753,-0.0301334951073,0.0,21.2999992371,0.010966441055217392,0.0048997612626421405,-0.010078092009130433,21.2999992371,0.0,0.01626448029498648,0.04688091438608856
1648125530190478247,28673,30,2,0.746345221996,-0.64461261034,0.301974207163,0.0,21.2999992371,0.24961378662073574,-0.21558950178595315,0.1009947181147157,21.2999992371,0.0,0.41363379724413224,1.031380157651547
1648125530190499074,28674,30,3,2.41751790047,-0.902457654476,0.483262985945,0.0,21.2999992371,0.8085344148729097,-0.30182530250033446,0.16162641670401337,21.2999992371,0.0,1.182604884691914,2.6253315468335954
1648125530190586687,28675,30,4,1.23831021786,-0.57136118412,0.343762069941,-0.161837622523,21.2999992371,0.41415057453511706,-0.19109069703010034,0.1149705919535117,21.2999992371,-0.021869948989594594,0.616082016672281,1.4064274453755552
1648125530190771448,28676,30,5,1.28431844711,-1.11342179775,0.533357977867,-0.161837622523,21.2999992371,0.4295379421772575,-0.37238187215719065,0.17838059460434783,21.2999992371,-0.021869948989594594,0.7125124183135619,1.7814748681489332
1648125530385487017,28677,32,0,0.0126923779026,0.0439508594573,0.0102491816506,0.0,16.3999996185,0.004244942442341137,0.014699284099431437,0.0034278199500334446,16.3999996185,0.0,0.015877909991978672,0.04688091539597687
1648125530385489015,28678,32,1,0.0327896587551,0.0146502861753,-0.0301334951073,0.0,16.3999996185,0.010966441055217392,0.0048997612626421405,-0.010078092009130433,16.3999996185,0.0,0.01626448029498648,0.04688091438608856
1648125530385490606,28679,32,2,2.41184902191,-0.902457654476,0.510802745819,0.0,16.3999996185,0.8066384688662207,-0.30182530250033446,0.17083703873545147,16.3999996185,0.0,1.1800126067712582,2.6253314015085367
1648125530385593508,28680,32,3,0.830118060112,-0.673913121223,0.139254748821,0.0809188112617,16.3999996185,0.2776314582314381,-0.22538900375351167,0.046573494588963205,16.3999996185,0.010934974494824324,0.45272359802911755,1.0782609951907913
1648125530490521066,28681,33,0,0.00646429089829,0.0454158857465,0.00966594554484,0.0,26.7999992371,0.00216197020009699,0.015189259446989964,0.0032327577073043476,26.7999992371,0.0,0.015493928902644052,0.04688091550122148
1648125530490531218,28682,33,1,0.0327896587551,0.0146502861753,-0.0301334951073,0.0,26.7999992371,0.010966441055217392,0.0048997612626421405,-0.010078092009130433,26.7999992371,0.0,0.01626448029498648,0.04688091438608856
1648125530490534206,28683,33,2,2.41436386108,-0.902457654476,0.498781323433,0.0,26.7999992371,0.8074795522006688,-0.30182530250033446,0.16681649613143812,26.7999992371,0.0,1.181162549217424,2.6253314991476837
1648125530490541383,28684,33,3,0.798205316067,-0.707608819008,0.157495424151,0.0809188112617,26.7999992371,0.2669582996879598,-0.23665846789565215,0.0526740549,26.7999992371,0.010934974494824324,0.44557905917052537,1.0782609962175296
1648125530685630697,28685,35,0,0.0126051837578,0.0439508594573,0.0103562315926,0.0,27.6000003815,0.004215780521003344,0.014699284099431437,0.003463622606220736,27.6000003815,0.0,0.015862363122761385,0.04688091549237075
1648125530685645240,28686,35,1,0.0328140594065,0.0146502861753,-0.0301069207489,0.0,27.6000003815,0.01097460180819398,0.0048997612626421405,-0.010069204263846153,27.6000003815,0.0,0.016275485557356428,0.04688091356545905
1648125530685679541,28687,35,2,2.41520142555,-0.902457654476,0.494709223509,0.0,27.6000003815,0.8077596740969899,-0.30182530250033446,0.16545458980234112,27.6000003815,0.0,1.1815455536812658,2.6253314000190437
1648125530685693367,28688,35,3,0.76960682869,-0.892202436924,0.678267657757,0.242756426334,27.6000003815,0.2573935881906354,-0.2983954638541806,0.22684537048729098,27.6000003815,0.03280492247756756,0.4706833025847129,1.3595465695512494
1648125530685702847,28689,35,4,0.600860714912,-0.805765748024,0.23119905591,-0.242756426334,27.6000003815,0.20095676084013375,-0.26948687224882945,0.07732409896655518,27.6000003815,-0.03280492247756756,0.3916508825078457,1.0313801640844715
1648125530790816909,28690,36,0,0.00646429089829,0.0454158857465,0.00966594554484,0.0,38.0,0.00216197020009699,0.015189259446989964,0.0032327577073043476,38.0,0.0,0.015493928902644052,0.04688091550122148
1648125530790837302,28691,36,1,0.0327771268785,0.0146502861753,-0.0301471278071,0.0,38.0,0.010962249792140466,0.0048997612626421405,-0.010082651440501671,38.0,0.0,0.01625882841540115,0.04688091558880965
1648125530790844145,28692,36,2,0.299497812986,-1.58955609798,0.27557644248,0.0,38.0,0.10016649263745818,-0.5316241130367892,0.0921660342742475,38.0,0.0,0.5501734726945064,1.6408320768008937
1648125530790846714,28693,36,3,2.4202246666,-0.902457654476,0.469518750906,0.0,38.0,0.8094396878260869,-0.30182530250033446,0.1570296825772575,38.0,0.0,1.1838427808139915,2.62533142905686
1648125530790851277,28694,36,4,0.741552650928,-0.773535132408,0.343056261539,0.323675245047,38.0,0.24801092004280936,-0.2587074021431438,0.11473453563177256,38.0,0.04373989797932432,0.4358306469772587,1.1251420060369806
1648125530790854185,28695,36,5,1.06867432594,-1.70089828968,0.169262960553,-0.323675245047,38.0,0.35741616252173913,-0.5688623042408026,0.05660968580367892,38.0,-0.04373989797932432,0.7609841967148122,2.0158794003051943
1648125530790858824,28696,36,6,0.614859938622,-0.805765748024,0.190876588225,-0.242756426334,38.0,0.20563877545886283,-0.26948687224882945,0.06383832382107023,38.0,-0.03280492247756756,0.39648176031048155,1.0313801708115888
1648125530985612232,28697,38,0,0.0126923779026,0.0439508594573,0.0102491816506,0.0,37.2000007629,0.004244942442341137,0.014699284099431437,0.0034278199500334446,37.2000007629,0.0,0.015877909991978672,0.04688091539597687
1648125530985627231,28698,38,1,0.0327017493546,0.0146502861753,-0.0302288755774,0.0,37.2000007629,0.01093703991792642,0.0048997612626421405,-0.010109991831906355,37.2000007629,0.0,0.016224837280032132,0.04688091524856568
1648125530985634576,28699,38,2,0.504262685776,-1.53828001022,0.267850130796,0.0,37.2000007629,0.1686497276842809,-0.51447491980602,0.08958198354381271,37.2000007629,0.0,0.5670713397848413,1.6408320872886117
1648125530985653293,28700,38,3,2.41698694229,-0.902457654476,0.48591119051,0.0,37.2000007629,0.8083568368862876,-0.30182530250033446,0.1625121038494983,37.2000007629,0.0,1.1823620700576565,2.625331480477376
1648125530985655362,28701,38,4,0.653810739517,-0.707608819008,0.202632531524,0.0809188112617,37.2000007629,0.2186657991695652,-0.23665846789565215,0.06777007743277591,37.2000007629,0.010934974494824324,0.38940556477745236,0.9844991958744749
1648125530985658148,28702,38,5,0.883004665375,-0.769140064716,0.0486217327416,0.242756426334,37.2000007629,0.2953192860785953,-0.2572374798381271,0.016261449077458193,37.2000007629,0.03280492247756756,0.4905079841281009,1.1720229311409158
1648125530985663025,28703,38,6,0.779677629471,-0.966918885708,0.659703731537,0.323675245047,37.2000007629,0.26076174898695653,-0.3233842427117057,0.22063669951070233,37.2000007629,0.04373989797932432,0.49048011978437656,1.406427513539237
1648125530985813976,28704,38,7,0.940580248833,-0.761814832687,0.143782436848,0.485512852669,37.2000007629,0.3145753340578595,-0.2547875694605351,0.04808777152107023,37.2000007629,0.06560984495527027,0.5126714222061093,1.218903783299822
1648125530985819430,28705,38,8,0.619290351868,-0.640217542648,-0.0037536106538,-0.161837622523,37.2000007629,0.20712051901939796,-0.21411957948093643,-0.001255388178528428,37.2000007629,-0.021869948989594594,0.3628291789738287,0.890737408793397
1648125531090671276,28706,39,0,0.0126051837578,0.0439508594573,0.0103562315926,0.0,19.5,0.004215780521003344,0.014699284099431437,0.003463622606220736,19.5,0.0,0.015862363122761385,0.04688091549237075
1648125531090676837,28707,39,1,0.0327896587551,0.0146502861753,-0.0301334951073,0.0,19.5,0.010966441055217392,0.0048997612626421405,-0.010078092009130433,19.5,0.0,0.01626448029498648,0.04688091438608856
1648125531090681792,28708,39,2,0.502835988998,-1.53828001022,0.270518928766,0.0,19.5,0.16817257157123744,-0.51447491980602,0.09047455811571906,19.5,0.0,0.5667878534047608,1.640832079310599
1648125531090687301,28709,39,3,2.42151165009,-0.902457654476,0.462834954262,0.0,19.5,0.8098701170869564,-0.30182530250033446,0.1547942990842809,19.5,0.0,1.1844313936781223,2.625331347569412
1648125531090691436,28710,39,4,0.945200800896,-0.761814832687,0.109361805022,0.242756426334,19.5,0.3161206691959866,-0.2547875694605351,0.036575854522408024,19.5,0.03280492247756756,0.5145690046412082,1.2189037688488913
1648125531091409131,28711,39,5,0.67464619875,-0.64461261034,-0.0919521376491,0.323675245047,19.5,0.22563418018394646,-0.21558950178595315,-0.030753223294013376,19.5,0.04373989797932432,0.38509790938783184,0.9376183160089249
1648125531091500266,28712,39,6,0.64851975441,-0.741304516792,0.30599796772,0.323675245047,19.5,0.21689623893311036,-0.2479279320374582,0.10234045743143812,19.5,0.04373989797932432,0.39440615665963974,1.0313801504416291
1648125531285408943,28713,41,0,0.0126825124025,0.0439508594573,0.0102613866329,0.0,21.3999996185,0.004241642943979933,0.014699284099431437,0.0034319018839130432,21.3999996185,0.0,0.015876146344885694,0.04688091534414363
1648125531285431609,28714,41,1,0.0327896587551,0.0146502861753,-0.0301334951073,0.0,21.3999996185,0.010966441055217392,0.0048997612626421405,-0.010078092009130433,21.3999996185,0.0,0.01626448029498648,0.04688091438608856
1648125531285445071,28715,41,2,0.659128308296,-0.949338555336,0.516253054142,0.0,21.3999996185,0.22044425026622072,-0.3175045335571906,0.17265988432842808,21.3999996185,0.0,0.4449724303597263,1.2657847507990974
1648125531285459433,28716,41,3,1.93592500687,-1.24527442455,0.442760646343,0.0,21.3999996185,0.6474665574816053,-0.4164797406521739,0.14808048372675583,21.3999996185,0.0,1.0059230887537396,2.344045864443146
1648125531285491059,28717,41,4,2.42360687256,-0.902457654476,0.451735645533,0.0,21.3999996185,0.8105708603879599,-0.30182530250033446,0.1510821556966555,21.3999996185,0.0,1.1853897049702995,2.6253314427491827
1648125531285600706,28718,41,5,0.765266895294,-0.741304457188,0.165774092078,0.323675245047,21.3999996185,0.2559421054494983,-0.24792791210301002,0.05544284015986622,21.3999996185,0.04373989797932432,0.4387265347384428,1.0782609929344558
1648125531285606660,28719,41,6,0.748524487019,-0.709073901176,-0.0258909538388,0.485512852669,21.3999996185,0.2503426377989966,-0.23714846193177255,-0.008659181885886286,21.3999996185,0.06560984495527027,0.4261247066258006,1.0313801658392951
1648125531285614619,28720,41,7,0.616281330585,-1.04456532001,0.800740778446,-0.161837622523,21.3999996185,0.2061141573862876,-0.34935294983612036,0.2678062804167224,21.3999996185,-0.021869948989594594,0.4549874452216429,1.4533083569778018
1648125531390524107,28721,42,0,0.00646429089829,0.0454158857465,0.00966594554484,0.0,14.5,0.00216197020009699,0.015189259446989964,0.0032327577073043476,14.5,0.0,0.015493928902644052,0.04688091550122148
1648125531390529701,28722,42,1,0.0327896587551,0.0146502861753,-0.0301334951073,0.0,14.5,0.010966441055217392,0.0048997612626421405,-0.010078092009130433,14.5,0.0,0.01626448029498648,0.04688091438608856
1648125531390535336,28723,42,2,2.42254948616,-0.902457654476,0.457371801138,0.0,14.5,0.8102172194515049,-0.30182530250033446,0.15296715757123747,14.5,0.0,1.1849060716448687,2.6253313687023625
1648125531390540787,28724,42,3,0.831593394279,-0.673913121223,0.130154982209,0.161837622523,14.5,0.2781248810297659,-0.22538900375351167,0.04353009438428093,14.5,0.021869948989594594,0.4533289113972805,1.0782610016868919
1648125531390545583,28725,42,4,0.912655174732,-0.94347846508,0.000437210546806,-0.323675245047,14.5,0.3052358443919732,-0.31554463715050163,0.0001462242631458194,14.5,-0.04373989797932432,0.5347020286456781,1.3126657126579762
1648125531390883329,28726,42,5,0.78760176897,-0.876087069511,0.312860101461,-0.161837622523,14.5,0.2634119628662207,-0.2930057088665552,0.10463548543846153,14.5,-0.021869948989594594,0.47394521813228896,1.2189038284193023
1648125531390887608,28727,42,6,0.860642373562,-0.870226979256,0.32281690836,-0.0809188112617,14.5,0.28784025871638796,-0.29104581246020067,0.10796552119063543,14.5,-0.010934974494824324,0.5004115246738954,1.2657847553666322
1648125531585559007,28728,44,0,0.0125951459631,0.0439508594573,0.0103684375063,0.0,25.5,0.0042124233990301,0.014699284099431437,0.0034677048516053507,25.5,0.0,0.015860579271299975,0.0468809155754149
1648125531585565225,28729,44,1,0.0327896587551,0.0146502861753,-0.0301334951073,0.0,25.5,0.010966441055217392,0.0048997612626421405,-0.010078092009130433,25.5,0.0,0.01626448029498648,0.04688091438608856
1648125531585635113,28730,44,2,0.953239917755,-0.79111546278,0.2601557374,0.0,25.5,0.31880933704180603,-0.26458711129765883,0.08700860782608694,25.5,0.0,0.5227667990939281,1.2657847462950842
1648125531585637255,28731,44,3,2.41630983353,-0.902457654476,0.489266842604,0.0,25.5,0.8081303791070235,-0.30182530250033446,0.16363439551973244,25.5,0.0,1.182052423753169,2.625331421555722
1648125531585639202,28732,44,4,0.829771876335,-0.612381994724,0.0145587669685,-0.323675245047,25.5,0.27751567770401336,-0.20481003168026754,0.004869152832274247,25.5,-0.04373989797932432,0.44269295433732375,1.0313801587747822
1648125531585663956,28733,44,5,0.833740949631,-0.805765748024,0.171042025089,-0.242756426334,25.5,0.2788431269668896,-0.26948687224882945,0.057204690665217384,25.5,-0.03280492247756756,0.4776297239785258,1.1720229460752138
1648125531690706520,28734,45,0,0.00646429089829,0.0454158857465,0.00966594554484,0.0,40.5,0.00216197020009699,0.015189259446989964,0.0032327577073043476,40.5,0.0,0.015493928902644052,0.04688091550122148
1648125531690723192,28735,45,1,0.0327896587551,0.0146502861753,-0.0301334951073,0.0,40.5,0.010966441055217392,0.0048997612626421405,-0.010078092009130433,40.5,0.0,0.01626448029498648,0.04688091438608856
1648125531690732046,28736,45,2,2.41961979866,-0.902457654476,0.472626179457,0.0,40.5,0.8092373908561872,-0.30182530250033446,0.15806895634013376,40.5,0.0,1.1835661463344063,2.6253314635866274
1648125531690913495,28737,45,3,0.947081565857,-0.723724126816,0.254924178123,0.0809188112617,40.5,0.3167496875775919,-0.24204820294849494,0.08525892244916387,40.5,0.010934974494824324,0.5091640813250675,1.2189037864874386
1648125531690917964,28738,45,4,0.834073841572,-0.523015201092,-0.00382985617034,-0.161837622523,40.5,0.27895446206421404,-0.1749214719371237,-0.0012808883512842807,40.5,-0.021869948989594594,0.43154224029139954,0.9844992339084193
1648125531690924355,28739,45,5,0.791443943977,-0.773535132408,0.202988639474,-0.161837622523,40.5,0.2646969712297659,-0.2587074021431438,0.06788917708160534,40.5,-0.021869948989594594,0.4550368040939956,1.1251419933869842
1648125531690926126,28740,45,6,0.741883397102,-0.934688270092,0.651409029961,-0.161837622523,40.5,0.24812153749230767,-0.31260477260602004,0.2178625518264214,40.5,-0.021869948989594594,0.4699471657443577,1.3595465646523146
1648125531690927767,28741,45,7,0.859204769135,-1.47674882412,-1.46449923515,-0.161837622523,40.5,0.2873594545602006,-0.49389592779933106,-0.4897990753010033,40.5,-0.021869948989594594,0.6395968259357093,2.250283967547
