%time,field.header.seq,field.header.frame_id,field.point_id,field.x,field.y,field.z,field.velocity,field.intensity,normalized_x,normalized_y,normalized_z,normalized_intensity,normalized_velocity,normalized_range,range
1648219691157793104,84141,0,0,0.00575314089656,0.0454158857465,0.010105391033,0.0,24.0,0.0019241273901538462,0.015189259446989964,0.0033797294424749162,24.0,0.0,0.015431076922076901,0.04688091548001862
1648219691157797008,84142,0,1,0.0334246940911,0.0146502861753,-0.0294275209308,0.0,24.0,0.01117882745521739,0.0048997612626421405,-0.009841980244414716,24.0,0.0,0.01655113370672634,0.04688091347482975
1648219691157799557,84143,0,2,2.13589596748,-1.14272224903,0.273935168982,0.0,24.0,0.7143464774180602,-0.3821813541906354,0.09161711337190634,24.0,0.0,1.0801131269872477,2.4378076624563114
1648219691157805989,84144,0,3,0.811573684216,1.02552008629,-0.112906731665,0.161837622523,24.0,0.27142932582474916,0.342983306451505,-0.0377614487173913,24.0,0.021869948989594594,0.5147672351070556,1.3126656932941658
1648219691157810282,84145,0,4,1.29605460167,-0.527410328388,0.141841828823,-0.0809188112617,24.0,0.43346307748160534,-0.1763914141765886,0.0474387387367893,24.0,-0.010934974494824324,0.6378827557434558,1.4064274916980875
1648219691263271272,84146,1,0,0.0123096564785,0.0439508594573,0.0107058184221,0.0,25.3999996185,0.004116941966053511,0.014699284099431437,0.003580541278294314,25.3999996185,0.0,0.01581035658483081,0.04688091549597757
1648219691263322364,84147,1,1,0.0335084721446,0.0146502861753,-0.0293320901692,0.0,25.3999996185,0.01120684687110368,0.0048997612626421405,-0.00981006360173913,25.3999996185,0.0,0.01658898713049176,0.046880914071482226
1648219691263331939,84148,1,2,2.14457988739,-1.14272224903,0.194599479437,0.0,25.3999996185,0.717250798458194,-0.3821813541906354,0.06508343793879598,25.3999996185,0.0,1.0839557201605705,2.437807619403762
1648219691263402097,84149,1,3,1.28474748135,-0.483459442854,0.306151896715,-0.161837622523,25.3999996185,0.42968143188963204,-0.16169212135585284,0.10239193870066889,25.3999996185,-0.021869948989594594,0.6288056996640575,1.406427427058382
1648219691458252427,84150,3,0,0.0122046079487,0.0439508594573,0.0108254207298,0.0,37.0999984741,0.0040818086784949826,0.014699284099431437,0.0036205420501003345,37.0999984741,0.0,0.0157921270641884,0.046880915479478334
1648219691458287765,84151,3,1,0.0334246940911,0.0146502861753,-0.0294275209308,0.0,37.0999984741,0.01117882745521739,0.0048997612626421405,-0.009841980244414716,37.0999984741,0.0,0.01655113370672634,0.04688091347482975
1648219691458312676,84152,3,2,2.07008957863,-1.19546329975,0.0461095385253,0.0,37.0999984741,0.692337651715719,-0.39982050158862875,0.0154212503429097,37.0999984741,0.0,1.0576007192967747,2.390926484470969
1648219691458505126,84153,3,3,1.55729603767,-0.298865824938,-0.161828041077,0.161837622523,37.0999984741,0.5208347952073579,-0.09995512539732442,-0.05412309066120401,37.0999984741,0.021869948989594594,0.7433228066530555,1.5939510799072139
1648219691458518944,84154,3,4,1.20427668095,-0.369187235832,0.369472175837,-0.323675245047,37.0999984741,0.40276812071906354,-0.12347399191705685,0.12356928957759196,37.0999984741,-0.04373989797932432,0.5828294302924877,1.3126656954834113
1648219691458534777,84155,3,5,1.35431396961,-0.499574750662,0.168416395783,-0.323675245047,37.0999984741,0.45294781592307687,-0.16708185640869566,0.05632655377357859,37.0999984741,-0.04373989797932432,0.6619968237385637,1.453308412604954
1648219691458553414,84156,3,6,0.809559166431,1.14272236824,0.12976102531,-0.161837622523,37.0999984741,0.27075557405719064,0.3821813940602007,0.043398336224080264,37.0999984741,-0.021869948989594594,0.5409988722094309,1.4064275233790016
1648219691458560153,84157,3,7,1.34952640533,-0.39555773139,-0.018730789423,-0.161837622523,37.0999984741,0.4513466238561873,-0.13229355564882941,-0.006264478067892976,37.0999984741,-0.021869948989594594,0.6518658869729012,1.406427488361104
1648219691563211764,84158,4,0,0.0122118405998,0.0439508594573,0.0108172614127,0.0,31.7000007629,0.00408422762535117,0.014699284099431437,0.003617813181505017,31.7000007629,0.0,0.015793377840954772,0.04688091554503761
1648219691563228803,84159,4,1,0.0334246940911,0.0146502861753,-0.0294275209308,0.0,31.7000007629,0.01117882745521739,0.0048997612626421405,-0.009841980244414716,31.7000007629,0.0,0.01655113370672634,0.04688091347482975
1648219691563263666,84160,4,2,2.11161994934,-1.12074685097,-0.0389609523118,0.0,31.7000007629,0.70622740780602,-0.3748317227324415,-0.013030418833377926,31.7000007629,0.0,1.0667769792413928,2.3909266551307837
1648219691563275862,84161,4,3,1.23415839672,-0.369187235832,0.25227984786,-0.323675245047,31.7000007629,0.41276200559197324,-0.12347399191705685,0.08437453105685619,31.7000007629,-0.04373989797932432,0.5966496234814447,1.3126657171313718
1648219691563331802,84162,4,4,1.45508956909,-0.328166425228,-0.159965783358,-0.323675245047,31.7000007629,0.4866520297959866,-0.10975465726688963,-0.053500261992642136,31.7000007629,-0.04373989797932432,0.6969264530787163,1.5001892909119119
1648219691563362764,84163,4,5,1.02349162102,1.0782610178,-0.200962513685,-0.323675245047,31.7000007629,0.34230488997324415,0.3606224139799331,-0.06721154303846154,31.7000007629,-0.04373989797932432,0.6036503962260804,1.5001892722959438
1648219691758410933,84164,6,0,0.0123096564785,0.0439508594573,0.0107058184221,0.0,12.8000001907,0.004116941966053511,0.014699284099431437,0.003580541278294314,12.8000001907,0.0,0.01581035658483081,0.04688091549597757
1648219691758454578,84165,6,1,0.0334246940911,0.0146502861753,-0.0294275209308,0.0,12.8000001907,0.01117882745521739,0.0048997612626421405,-0.009841980244414716,12.8000001907,0.0,0.01655113370672634,0.04688091347482975
1648219691758474444,84166,6,2,1.23341858387,-0.276890397072,-0.064971588552,0.0,12.8000001907,0.4125145765451505,-0.09260548397056856,-0.021729628278260867,12.8000001907,0.0,0.5906880118860318,1.2657847377597569
1648219691758484199,84167,6,3,2.13371157646,-1.14272224903,0.290458619595,0.0,12.8000001907,0.7136159118595318,-0.3821813541906354,0.09714335103511705,12.8000001907,0.0,1.0791468513641738,2.4378075066839533
1648219691758538633,84168,6,4,1.20232522488,-0.158223092556,0.362754255533,-0.242756426334,12.8000001907,0.40211545982608693,-0.05291742225953177,0.12132249348929765,12.8000001907,-0.03280492247756756,0.5711339069262866,1.2657847934416135
1648219691863078296,84169,7,0,0.0123096564785,0.0439508594573,0.0107058184221,0.0,31.7999992371,0.004116941966053511,0.014699284099431437,0.003580541278294314,31.7999992371,0.0,0.01581035658483081,0.04688091549597757
1648219691863192763,84170,7,1,0.0334246940911,0.0146502861753,-0.0294275209308,0.0,31.7999992371,0.01117882745521739,0.0048997612626421405,-0.009841980244414716,31.7999992371,0.0,0.01655113370672634,0.04688091347482975
1648219691863211169,84171,7,2,2.13682770729,-1.14272224903,0.266568094492,0.0,31.7999992371,0.7146580960836121,-0.3821813541906354,0.08915320886020066,31.7999992371,0.0,1.0805253241302095,2.43780748585107
1648219691863237662,84172,7,3,1.21041095257,-0.039555773139,0.368173241615,0.0809188112617,31.7999992371,0.4048197165785953,-0.013229355564882942,0.12313486341638795,31.7999992371,0.010934974494824324,0.5726543649621563,1.265784685138565
1648219691863439008,84173,7,4,0.881589472294,1.95434808731,-0.232186704874,0.566431701183,31.7999992371,0.29484597735585283,0.6536281228461538,-0.07765441634581939,31.7999992371,0.07654482448418919,0.7753051165194532,2.1565219938484548
1648219691863459196,84174,7,5,2.01058125496,-0.46587908268,-1.38354504108,0.566431701183,31.7999992371,0.6724352023277591,-0.1558124022341137,-0.46272409400668896,31.7999992371,0.07654482448418919,0.963647086515138,2.484688548525216
1648219691863511452,84175,7,6,1.21340191364,-0.114272229373,-0.0180043913424,-0.242756426334,31.7999992371,0.405820038006689,-0.03821813691404682,-0.006021535566020066,31.7999992371,-0.03280492247756756,0.5751873020892254,1.218903812668867
1648219691863751003,84176,7,7,0.697417080402,1.1075617075,0.100038595498,-0.0809188112617,31.7999992371,0.23324985966622072,0.3704219757525083,0.03345772424682274,31.7999992371,-0.010934974494824324,0.4960074940855382,1.3126657002245383
1648219692058283803,84177,9,0,0.00575314089656,0.0454158857465,0.010105391033,0.0,14.8000001907,0.0019241273901538462,0.015189259446989964,0.0033797294424749162,14.8000001907,0.0,0.015431076922076901,0.04688091548001862
1648219692058347660,84178,9,1,0.0334246940911,0.0146502861753,-0.0294275209308,0.0,14.8000001907,0.01117882745521739,0.0048997612626421405,-0.009841980244414716,14.8000001907,0.0,0.01655113370672634,0.04688091347482975
1648219692058582214,84179,9,2,1.25648927689,0.246124818921,0.289393663406,0.0,14.8000001907,0.42023052738795985,0.08231599295016721,0.0967871783966555,14.8000001907,0.0,0.5999694283818949,1.3126657692832533
1648219692058608403,84180,9,3,2.1423971653,-1.14272224903,0.217314854264,0.0,14.8000001907,0.716520791070234,-0.3821813541906354,0.07268055326555183,14.8000001907,0.0,1.0829896931932528,2.4378075186932704
1648219692058621158,84181,9,4,1.19298863411,0.237334638834,0.350230544806,0.0809188112617,14.8000001907,0.3989928542173913,0.07937613338929765,0.11713396147357859,14.8000001907,0.010934974494824324,0.5698167828213877,1.2657847551701735
1648219692058666189,84182,9,5,1.24914288521,0.197778865695,-0.0523131750524,-0.161837622523,14.8000001907,0.4177735402040133,0.06614677782441471,-0.017496045168026754,14.8000001907,-0.021869948989594594,0.5945122858324637,1.2657847746241961
1648219692163414468,84183,10,0,0.00554603198543,0.0454158857465,0.0102205229923,0.0,35.9000015259,0.0018548601957959865,0.015189259446989964,0.003418235114481605,35.9000015259,0.0,0.015414104425488706,0.04688091551109777
1648219692163443000,84184,10,1,0.0334246940911,0.0146502861753,-0.0294275209308,0.0,35.9000015259,0.01117882745521739,0.0048997612626421405,-0.009841980244414716,35.9000015259,0.0,0.01655113370672634,0.04688091347482975
1648219692163461045,84185,10,2,1.21769464016,0.328166425228,0.364167243242,0.0,35.9000015259,0.40725573249498326,0.10975465726688963,0.12179506462943143,35.9000015259,0.0,0.5863109653518541,1.3126656925401055
1648219692163500080,84186,10,3,2.14083790779,-1.14272224903,0.232174351811,0.0,35.9000015259,0.715999300264214,-0.3821813541906354,0.07765028488662207,35.9000015259,0.0,1.0822996735879928,2.437807624792757
1648219692163555430,84187,10,4,1.20674419403,0.351606875658,-2.51640510559,0.323675245047,35.9000015259,0.4035933759297659,0.11759427279531771,-0.8416070587257525,35.9000015259,0.04373989797932432,0.5827552137759303,2.812855062080966
1648219692163566321,84188,10,5,1.44107270241,-0.703213751316,-2.31105017662,0.323675245047,35.9000015259,0.48196411451839466,-0.23518854559063543,-0.7729264804749163,35.9000015259,0.04373989797932432,0.7210356907560393,2.8128549611607268
1648219692163586672,84189,10,6,1.4333012104,0.697353601456,-0.00505116209388,-0.242756426334,35.9000015259,0.4793649533110368,0.2332286292494983,-0.0016893518708628761,35.9000015259,-0.03280492247756756,0.7169219695527436,1.5939510404765442
1648219692163598553,84190,10,7,1.1453268528,0.219754308462,0.116499744356,-0.0809188112617,35.9000015259,0.3830524591304348,0.0734964242347826,0.03896312520267558,35.9000015259,-0.010934974494824324,0.5466809830852414,1.1720229290706639
1648219692358188167,84191,12,0,0.0122118405998,0.0439508594573,0.0108172614127,0.0,19.0,0.00408422762535117,0.014699284099431437,0.003617813181505017,19.0,0.0,0.015793377840954772,0.04688091554503761
1648219692358203452,84192,12,1,0.0334246940911,0.0146502861753,-0.0294275209308,0.0,19.0,0.01117882745521739,0.0048997612626421405,-0.009841980244414716,19.0,0.0,0.01655113370672634,0.04688091347482975
1648219692358233734,84193,12,2,2.14138317108,-1.14272224903,0.227090120316,0.0,19.0,0.7161816625685619,-0.3821813541906354,0.07594987301538461,19.0,0.0,1.0825409623150188,2.4378076106530546
1648219692358266161,84194,12,3,1.0739235878,0.571361124516,0.0772079154849,0.242756426334,19.0,0.3591717684949832,0.19109067709565214,0.02582204531267558,19.0,0.03280492247756756,0.5427009908232179,1.218903798195303
1648219692358321377,84195,12,4,0.0850899219513,0.647542655468,1.45400428772,-0.647350490093,19.0,0.02845816787668896,0.21656944998929767,0.486289059438127,19.0,-0.08747979595851352,0.22027723737704383,1.5939511454798017
1648219692358403332,84196,12,5,2.51271891594,-1.01965987682,0.200012251735,-0.566431701183,19.0,0.8403742193779263,-0.34102337017391304,0.06689372967725753,19.0,-0.07654482448418919,1.2364281605475071,2.719093142164014
1648219692358432869,84197,12,6,1.0876789093,0.514225065708,0.393367826939,-0.0809188112617,19.0,0.36377221046822744,0.17198162732709027,0.1315611461334448,19.0,-0.010934974494824324,0.5424372059104674,1.2657847665417474
1648219692463329471,84198,13,0,0.0121893091127,0.0439508594573,0.0108426446095,0.0,18.8999996185,0.004076692010936455,0.014699284099431437,0.003626302544983277,18.8999996185,0.0,0.01578948347919792,0.04688091558201703
1648219692463398301,84199,13,1,0.0334385335445,0.0146502861753,-0.0294117927551,0.0,18.8999996185,0.011183456034949833,0.0048997612626421405,-0.009836719984983276,18.8999996185,0.0,0.01655738621287189,0.046880912573176205
1648219692463414144,84200,13,2,1.0154286623,0.712003946304,0.253310322762,0.0,18.8999996185,0.33960824826086955,0.23812841013511704,0.08471917149230769,18.8999996185,0.0,0.5360715104229204,1.2657847792538135
1648219692463429665,84201,13,3,2.13958883286,-1.14272224903,0.243415355682,0.0,18.8999996185,0.715581549451505,-0.3821813541906354,0.08140981795384615,18.8999996185,0.0,1.0817469645540132,2.437807528807226
1648219692463439613,84202,13,4,0.635484218597,1.1485824585,-0.00306829810143,0.0809188112617,18.8999996185,0.21253652795886285,0.38414129046822737,-0.0010261866559966553,18.8999996185,0.010934974494824324,0.48775822133123703,1.3126657116390994
1648219692463469393,84203,13,5,1.06713700294,0.738374471664,0.19777032733,0.0809188112617,18.8999996185,0.3569020076722408,0.2469479838341137,0.06614392218394648,18.8999996185,0.010934974494824324,0.5619087051120369,1.3126657403242732
1648219692463536461,84204,13,6,0.988410353661,0.622637212276,0.0948980525136,0.161837622523,18.8999996185,0.33057202463578594,0.20823987032642138,0.03173847910153846,18.8999996185,0.021869948989594594,0.511780783673215,1.1720229373634143
1648219692658315563,84205,15,0,0.0123096564785,0.0439508594573,0.0107058184221,0.0,37.5,0.004116941966053511,0.014699284099431437,0.003580541278294314,37.5,0.0,0.01581035658483081,0.04688091549597757
1648219692658335453,84206,15,1,0.0334016978741,0.0146502861753,-0.0294536203146,0.0,37.5,0.011171136412742476,0.0048997612626421405,-0.009850709135317725,37.5,0.0,0.016540744781753033,0.0468809135526118
1648219692658372225,84207,15,2,0.709936618805,1.14711737633,0.168755993247,0.0,37.5,0.23743699625585282,0.3836512964314381,0.05644013152073578,37.5,0.0,0.5098440660001123,1.3595465652397787
1648219692658384016,84208,15,3,2.14044690132,-1.14272224903,0.235751137137,0.0,37.5,0.7158685288695651,-0.3821813541906354,0.07884653415953176,37.5,0.0,1.082126650971474,2.4378075548451235
1648219692658400324,84209,15,4,1.01849651337,0.75155967474,-0.0058305170387,0.485512852669,37.5,0.3406342854080267,0.25135775074916383,-0.0019500056985618727,37.5,0.06560984495527027,0.5433637378888592,1.2657847713458554
