%time,field.header.seq,field.header.frame_id,field.point_id,field.x,field.y,field.z,field.velocity,field.intensity,normalized_x,normalized_y,normalized_z,normalized_intensity,normalized_velocity,normalized_range,range
1648295728065932164,62325,0,0,0.0127004906535,0.0439508594573,0.0102391270921,0.0,16.6000003815,0.004247655736956521,0.014699284099431437,0.003424457221438127,16.6000003815,0.0,0.01587936118221376,0.046880915450566385
1648295728065944265,62326,0,1,0.0335041433573,0.0146502861753,-0.0293370354921,0.0,16.6000003815,0.011205399116153847,0.0048997612626421405,-0.009811717555886288,16.6000003815,0.0,0.016587031052466603,0.046880914651800804
1648295728065946649,62327,0,2,0.754781246185,0.676843225956,0.189561516047,0.0,16.6000003815,0.25243519939297654,0.22636897189163876,0.06339850035016723,16.6000003815,0.0,0.4227173656480429,1.0313801677757544
1648295728066047317,62328,0,3,2.19658255577,-1.31266570091,0.586770415306,0.0,16.6000003815,0.7346429952408027,-0.4390186290668896,0.19624428605551839,16.6000003815,0.0,1.1278909599693259,2.6253315384798515
1648295728066051252,62329,0,4,1.1087744236,0.656332850456,0.250874042511,0.404594063759,16.6000003815,0.37082756642140463,0.21950931453377925,0.0839043620438127,16.6000003815,0.05467487348094594,0.5685160571198778,1.3126657298120572
1648295728170936780,62330,1,0,0.0127004906535,0.0439508594573,0.0102391270921,0.0,33.0999984741,0.004247655736956521,0.014699284099431437,0.003424457221438127,33.0999984741,0.0,0.01587936118221376,0.046880915450566385
1648295728170941662,62331,1,1,0.0335134975612,0.0146502861753,-0.0293263476342,0.0,33.0999984741,0.01120852761244147,0.0048997612626421405,-0.009808143021471571,33.0999984741,0.0,0.016591258026702325,0.04688091370019032
1648295728170944175,62332,1,2,0.765895903111,0.64461261034,0.248240053654,0.0,33.0999984741,0.25615247595685614,0.21558950178595315,0.08302342931571906,33.0999984741,0.0,0.42155309885940945,1.0313801801710676
1648295728170947791,62333,1,3,2.19868826866,-1.31266570091,0.578829348087,0.0,33.0999984741,0.7353472470434781,-0.4390186290668896,0.19358841073143812,33.0999984741,0.0,1.128808444394626,2.6253313618085374
1648295728171004768,62334,1,4,1.19983649254,0.659262895584,0.322185188532,0.242756426334,33.0999984741,0.40128310787290966,0.22048926273712371,0.10775424365618728,33.0999984741,0.03280492247756756,0.6088282026242238,1.40642755591388
1648295728171010198,62335,1,5,1.0277813673,0.647542655468,-0.100401677191,-0.242756426334,33.0999984741,0.34373958772575247,0.21656944998929767,-0.03357915625117057,33.0999984741,-0.03280492247756756,0.5321805473788078,1.2189038216374466
1648295728365894095,62336,3,0,0.0127004906535,0.0439508594573,0.0102391270921,0.0,31.2999992371,0.004247655736956521,0.014699284099431437,0.003424457221438127,31.2999992371,0.0,0.01587936118221376,0.046880915450566385
1648295728365899565,62337,3,1,0.0334790125489,0.0146502861753,-0.0293657127768,0.0,31.2999992371,0.011196994163511704,0.0048997612626421405,-0.009821308621003345,31.2999992371,0.0,0.016575675462143884,0.04688091566039538
1648295728365920399,62338,3,2,2.19909930229,-1.31266570091,0.577265560627,0.0,31.2999992371,0.7354847164849498,-0.4390186290668896,0.1930654048919732,31.2999992371,0.0,1.1289875522049237,2.625331314551348
1648295728365943282,62339,3,3,1.20837974548,0.659262895584,0.288494735956,0.0809188112617,31.2999992371,0.4041403831036789,0.22048926273712371,0.0964865337645485,31.2999992371,0.010934974494824324,0.6125964523997319,1.4064275265560013
1648295728365960772,62340,3,4,0.727152943611,0.775000095367,0.18240121007,-0.404594063759,31.2999992371,0.24319496441839464,0.25919735631003343,0.06100374918729097,31.2999992371,-0.05467487348094594,0.4306632686392455,1.0782609854093774
1648295728366140066,62341,3,5,0.746235966682,0.615311980247,0.183743909001,-0.242756426334,31.2999992371,0.2495772463819398,0.2057899599488294,0.06145281237491638,31.2999992371,-0.03280492247756756,0.40856714434585134,0.9844992509394159
1648295728366149272,62342,3,6,1.0352602005,0.549385726452,-0.00702930241823,-0.0809188112617,31.2999992371,0.34624086973244145,0.1837410456361204,-0.0023509372636220734,31.2999992371,-0.010934974494824324,0.5229973724576538,1.1720229393066413
1648295728470937494,62343,4,0,0.0127121871337,0.0439508594573,0.0102246021852,0.0,24.7999992371,0.004251567603244147,0.014699284099431437,0.003419599393043478,24.7999992371,0.0,0.01588145482018912,0.04688091550517269
1648295728470968795,62344,4,1,0.0334561355412,0.0146502861753,-0.0293917711824,0.0,24.7999992371,0.011189342990367892,0.0048997612626421405,-0.00983002380682274,24.7999992371,0.0,0.016565338920259937,0.04688091406540503
1648295728470976465,62345,4,2,2.20210790634,-1.31266570091,0.565680682659,0.0,24.7999992371,0.7364909385752508,-0.4390186290668896,0.1891908637655518,24.7999992371,0.0,1.1302987047124664,2.6253314282665783
1648295728470996105,62346,4,3,0.546400010586,0.668053030968,0.220375478268,-0.485512852669,24.7999992371,0.18274247845685615,0.22342910734715715,0.07370417333377925,24.7999992371,-0.06560984495527027,0.3416287354352039,0.8907374333527036
1648295728471000552,62347,4,4,0.759349703789,0.584546387196,0.225681841373,-0.323675245047,24.7999992371,0.25396311163511703,0.1955004639451505,0.07547887671337791,24.7999992371,-0.04373989797932432,0.40891925308739246,0.9844992356288785
1648295728471002403,62348,4,5,0.953109443188,0.597731649876,0.0156124262139,-0.161837622523,24.7999992371,0.3187657000628762,0.19991025079464883,0.005221547228729096,24.7999992371,-0.021869948989594594,0.4931401945146334,1.1251419838446652
1648295728471089906,62349,4,6,1.25049865246,0.615312039852,0.188897952437,-0.0809188112617,24.7999992371,0.4182269740668896,0.20578997988361203,0.06317657272140467,24.7999992371,-0.010934974494824324,0.6262404645939057,1.4064274679577315
1648295728569098916,62350,5,0,0.0127004906535,0.0439508594573,0.0102391270921,0.0,16.5,0.004247655736956521,0.014699284099431437,0.003424457221438127,16.5,0.0,0.01587936118221376,0.046880915450566385
1648295728569103596,62351,5,1,0.0335410349071,0.0146502861753,-0.0292948503047,0.0,16.5,0.011217737427123745,0.0048997612626421405,-0.009797608797558527,16.5,0.0,0.016603702189532134,0.046880914688519765
1648295728569109791,62352,5,2,0.4103474617,-0.0,1.04764473438,0.0,16.5,0.1372399537458194,-0.0,0.3503828543076923,16.5,0.0,0.19408660388679405,1.1251420038367486
1648295728569257393,62353,5,3,0.473101347685,1.27457487583,-0.000905326218344,0.0,16.5,0.1582278754799331,0.4262792226856187,-0.0003027846884093645,16.5,0.0,0.4814416858262709,1.3595465489985934
1648295728569270914,62354,5,4,2.20387148857,-1.31266570091,0.558770596981,0.0,16.5,0.7370807654080267,-0.4390186290668896,0.18687979832140467,16.5,0.0,1.131067401235106,2.6253314763145226
1648295728569280520,62355,5,5,0.606180548668,0.580151319504,0.089795589447,-0.485512852669,16.5,0.20273596945418057,0.19403054164013378,0.030031969714715716,16.5,-0.06560984495527027,0.3461958949933066,0.8438564208381684
1648295728569306448,62356,5,6,0.767373561859,0.498109728098,0.205311119556,-0.404594063759,16.5,0.25664667620702336,0.1665918823070234,0.0686659262729097,16.5,-0.05467487348094594,0.39935934703825643,0.9376183341207499
1648295728569312669,62357,5,7,0.92469984293,0.5391305089,-0.130058646202,-0.323675245047,16.5,0.30926416151505015,0.18031120698996655,-0.043497874983946486,16.5,-0.04373989797932432,0.47307586554525544,1.078260987235204
1648295728569325040,62358,5,8,1.01142442226,0.49224960804,-0.025603402406,-0.161837622523,16.5,0.3382690375451505,0.16463197593311035,-0.00856301083812709,16.5,-0.021869948989594594,0.5059205184839661,1.1251420233793918
1648295728669198927,62359,6,0,0.0127004906535,0.0439508594573,0.0102391270921,0.0,25.7000007629,0.004247655736956521,0.014699284099431437,0.003424457221438127,25.7000007629,0.0,0.01587936118221376,0.046880915450566385
1648295728669202370,62360,6,1,0.0335134975612,0.0146502861753,-0.0293263476342,0.0,25.7000007629,0.01120852761244147,0.0048997612626421405,-0.009808143021471571,25.7000007629,0.0,0.016591258026702325,0.04688091370019032
1648295728669204364,62361,6,2,0.366623967886,-0.0,1.06373465061,0.0,25.7000007629,0.12261671166755851,-0.0,0.35576409719397994,25.7000007629,0.0,0.17340621661385258,1.1251420091423365
1648295728669207996,62362,6,3,2.19999098778,-1.31266570091,0.573858439922,0.0,25.7000007629,0.7357829390568562,-0.4390186290668896,0.19192589963946488,25.7000007629,0.0,1.1293761213528741,2.6253314262638296
1648295728669235815,62363,6,4,1.41555833817,-1.6173915863,0.666345894337,-0.566431701183,25.7000007629,0.4734308823311037,-0.54093364090301,0.2228581586411371,25.7000007629,-0.07654482448418919,0.8607454934823657,2.2502839383278768
1648295728669309995,62364,6,5,1.50020349026,-1.79319500923,-0.500371158123,-0.566431701183,25.7000007629,0.5017402977458194,-0.5997307723177256,-0.16734821341906356,25.7000007629,-0.07654482448418919,0.929066010587484,2.3909266298230523
1648295728669336487,62365,6,6,1.93730473518,-0.625567257404,-2.00838398933,-0.404594063759,25.7000007629,0.647928005076923,-0.20921981852976587,-0.6717003308795986,25.7000007629,-0.05467487348094594,0.9398905957565223,2.85973605059696
1648295728669357503,62366,6,7,2.35556197166,1.5192347765,0.566872596741,-0.404594063759,25.7000007629,0.7878133684481604,0.5081052764214047,0.18958949723779261,25.7000007629,-0.05467487348094594,1.2245287987379252,2.8597361852789214
1648295728669369954,62367,6,8,0.74397611618,0.417533159256,0.256083518267,-0.323675245047,25.7000007629,0.24882144353846153,0.13964319707558526,0.08564666162775919,25.7000007629,-0.04373989797932432,0.37858214963019365,0.890737429803294
1648295728669383529,62368,6,9,1.03170478344,0.421928226948,-0.153317600489,-0.242756426334,25.7000007629,0.34505176703678925,0.14111311938060198,-0.05127678946120401,25.7000007629,-0.03280492247756756,0.5079708223232368,1.125141980146579
1648295728669386242,62369,6,10,0.569977760315,0.402882874012,-0.941513955593,-0.161837622523,25.7000007629,0.1906280134832776,0.13474343612441472,-0.3148876105662207,25.7000007629,-0.021869948989594594,0.30138658335728147,1.1720229460220692
1648295728769095034,62370,7,0,0.0127004906535,0.0439508594573,0.0102391270921,0.0,16.3999996185,0.004247655736956521,0.014699284099431437,0.003424457221438127,16.3999996185,0.0,0.01587936118221376,0.046880915450566385
1648295728769102667,62371,7,1,0.0334906764328,0.0146502861753,-0.0293524079025,0.0,16.3999996185,0.011200895128026755,0.0048997612626421405,-0.009816858830267557,16.3999996185,0.0,0.01658094580441645,0.04688091448147568
1648295728769110304,62372,7,2,1.7571657896,-0.111342176795,0.271337300539,0.0,16.3999996185,0.5876808660869565,-0.037238186219063545,0.09074826104983277,16.3999996185,0.0,0.8319400719056127,1.7814748449354632
1648295728769125289,62373,7,3,2.24320912361,-1.2306240797,0.588168740273,0.0,16.3999996185,0.7502371650869564,-0.4115799597658863,0.19671195326856186,16.3999996185,0.0,1.138028853340861,2.625331458086568
1648295728769130518,62374,7,4,0.809301555157,0.46880915761,-0.0661593303084,-0.566431701183,16.3999996185,0.2706694164404682,0.15679236040468228,-0.0221268663238796,16.3999996185,-0.07654482448418919,0.41365167746996867,0.9376183074286638
1648295728769181356,62375,7,5,1.35187578201,-1.65255224705,0.544506847858,-0.485512852669,16.3999996185,0.4521323685652174,-0.5526930592140468,0.18210931366488292,16.3999996185,-0.06560984495527027,0.8451727486805103,2.203402996861765
1648295728769185803,62376,7,6,1.25670731068,0.328166425228,0.189960002899,-0.404594063759,16.3999996185,0.4203034483879598,0.10975465726688963,0.06353177354481605,16.3999996185,-0.05467487348094594,0.6044469060599063,1.3126657114684113
1648295728769294822,62377,7,7,0.546974122524,0.439508587122,-0.0464872084558,-0.242756426334,16.3999996185,0.18293448913846153,0.14699283850234113,-0.015547561356454848,16.3999996185,-0.03280492247756756,0.29755159082699445,0.703213729540948
1648295728769312123,62378,7,8,1.90476357937,0.240264698863,0.0931897237897,-0.242756426334,16.3999996185,0.6370446753745819,0.08035608657625418,0.0311671317022408,16.3999996185,-0.03280492247756756,0.9044937465212589,1.9221175155109906
1648295728769316609,62379,7,9,0.571520447731,-0.420463234186,-1.78636813164,-0.242756426334,16.3999996185,0.19114396245183943,-0.14062315524615385,-0.5974475356655518,16.3999996185,-0.03280492247756756,0.30470789381793884,1.922117596614676
1648295728769324292,62380,7,10,0.775940716267,0.389697611332,0.198657736182,-0.161837622523,16.3999996185,0.2595119452397993,0.13033364927491636,0.06644071444214046,16.3999996185,-0.021869948989594594,0.3894608575680053,0.8907374021471023
1648295728769327736,62381,7,11,0.838401019573,0.366257160902,0.732514321804,-0.161837622523,16.3999996185,0.2804016787869565,0.12249403374648829,0.24498806749297658,16.3999996185,-0.021869948989594594,0.41503613244701104,1.1720229559104265
1648295728869244560,62382,8,0,0.0127004906535,0.0439508594573,0.0102391270921,0.0,15.8999996185,0.004247655736956521,0.014699284099431437,0.003424457221438127,15.8999996185,0.0,0.01587936118221376,0.046880915450566385
1648295728869252622,62383,8,1,0.0334906764328,0.0146502861753,-0.0293524079025,0.0,15.8999996185,0.011200895128026755,0.0048997612626421405,-0.009816858830267557,15.8999996185,0.0,0.01658094580441645,0.04688091448147568
1648295728869262535,62384,8,2,1.75846016407,-0.111342176795,0.262818068266,0.0,15.8999996185,0.5881137672474915,-0.037238186219063545,0.08789901948695653,15.8999996185,0.0,0.8325516734503384,1.7814748288880233
1648295728869275464,62385,8,3,0.954180538654,1.50311934948,-0.0618425123394,0.0,15.8999996185,0.31912392597123745,0.5027155014983277,-0.02068311449478261,15.8999996185,0.0,0.6755760769160692,1.7814748876870716
1648295728869282005,62386,8,4,2.24469208717,-1.2306240797,0.58248347044,0.0,15.8999996185,0.750733139521739,-0.4115799597658863,0.19481052523076922,15.8999996185,0.0,1.138682816605758,2.625331442899526
1648295728869284245,62387,8,5,0.828106343746,0.316446185112,0.692853629589,-0.242756426334,15.8999996185,0.276958643393311,0.10583484451906354,0.23172362193612037,15.8999996185,-0.03280492247756756,0.4057255163468287,1.1251419717790985
1648295728869296082,62388,8,6,1.74818396568,0.3457467556,-2.11540174484,-0.242756426334,15.8999996185,0.5846769115986622,0.11563436642140468,-0.707492222354515,15.8999996185,-0.03280492247756756,0.8349044787344115,2.765974066932063
1648295728869298152,62389,8,7,1.65920102596,-0.9508035779,-1.99840855598,-0.242756426334,15.8999996185,0.554916731090301,-0.3179945076588629,-0.6683640655451505,15.8999996185,-0.03280492247756756,0.8467500598105049,2.7659740137803586
1648295728869308235,62390,8,8,0.772488772869,0.263705134392,0.214043110609,-0.161837622523,15.8999996185,0.25835744912006686,0.08819569712107023,0.07158632461839465,15.8999996185,-0.021869948989594594,0.37586649760563584,0.8438564779111035
1648295728869315119,62391,8,9,1.23254847527,0.197778865695,0.209568277001,-0.161837622523,15.8999996185,0.4122235703244147,0.06614677782441471,0.07008972474949833,15.8999996185,-0.021869948989594594,0.5867128259025601,1.2657847709350791
1648295728969119093,62392,9,0,0.0127004906535,0.0439508594573,0.0102391270921,0.0,14.3999996185,0.004247655736956521,0.014699284099431437,0.003424457221438127,14.3999996185,0.0,0.01587936118221376,0.046880915450566385
1648295728969138939,62393,9,1,0.0335134975612,0.0146502861753,-0.0293263476342,0.0,14.3999996185,0.01120852761244147,0.0048997612626421405,-0.009808143021471571,14.3999996185,0.0,0.016591258026702325,0.04688091370019032
1648295728969142186,62394,9,2,2.2447783947,-1.2306240797,0.582150638103,0.0,14.3999996185,0.7507620049163879,-0.4115799597658863,0.19469921006789298,14.3999996185,0.0,1.138720878588356,2.6253314138015242
1648295728969269151,62395,9,3,0.579388260841,0.373582303524,-0.138762697577,0.0809188112617,14.3999996185,0.19377533807391303,0.12494391422207357,-0.04640892895551839,14.3999996185,0.010934974494824324,0.3011789252129894,0.7032137516754794
1648295728969273399,62396,9,4,1.04020178318,-1.78000986576,0.447360426188,-0.485512852669,14.3999996185,0.3478935729698996,-0.5953210253377926,0.1496188716347826,14.3999996185,-0.06560984495527027,0.7723127601152051,2.1096412545390018
1648295728969277002,62397,9,5,2.09111166,0.0659262910485,0.271092951298,-0.485512852669,14.3999996185,0.6993684481605351,0.022048926772073575,0.09066653889565217,14.3999996185,-0.06560984495527027,0.9893020811343471,2.109641116086532
1648295728969330405,62398,9,6,0.751462042332,0.316446185112,0.217394277453,-0.242756426334,14.3999996185,0.25132509776989964,0.10583484451906354,0.07270711620501671,14.3999996185,-0.03280492247756756,0.370849866998053,0.8438564220334113
1648295728969336978,62399,9,7,0.400465935469,0.210964113474,1.03008043766,-0.242756426334,14.3999996185,0.13393509547458193,0.07055655969030099,0.34450850757859525,14.3999996185,-0.03280492247756756,0.20212730571326024,1.1251420046797422
1648295728969342912,62400,9,8,0.937408447266,-1.1236770153,-2.34717440605,-0.242756426334,14.3999996185,0.313514530858194,-0.37581171080267556,-0.7850081625585285,14.3999996185,-0.03280492247756756,0.5812204092208917,2.765974028102097
1648295728969347318,62401,9,9,1.22606110573,0.0864366889,-2.47788524628,-0.242756426334,14.3999996185,0.4100538815150501,0.02890859160535117,-0.8287241626354515,14.3999996185,-0.03280492247756756,0.5806238697812228,2.765974047221695
1648295728969350544,62402,9,10,1.25009024143,0.039555773139,0.19473284483,-0.161837622523,14.3999996185,0.4180903817491638,0.013229355564882942,0.06512804174916388,14.3999996185,-0.021869948989594594,0.5914170698170498,1.2657847967813187
1648295728969353926,62403,9,11,0.607537567616,0.375047326088,0.229955658317,-0.0809188112617,14.3999996185,0.20318982194515048,0.1254338883237458,0.07690824692876254,14.3999996185,-0.010934974494824324,0.3135376657185191,0.7500946591347849
1648295729069126027,62404,10,0,0.0127004906535,0.0439508594573,0.0102391270921,0.0,17.2000007629,0.004247655736956521,0.014699284099431437,0.003424457221438127,17.2000007629,0.0,0.01587936118221376,0.046880915450566385
1648295729069278294,62405,10,1,0.0334906764328,0.0146502861753,-0.0293524079025,0.0,17.2000007629,0.011200895128026755,0.0048997612626421405,-0.009816858830267557,17.2000007629,0.0,0.01658094580441645,0.04688091448147568
1648295729069296417,62406,10,2,2.24283838272,-1.2306240797,0.589580893517,0.0,17.2000007629,0.7501131714782608,-0.4115799597658863,0.19718424532341136,17.2000007629,0.0,1.1378653713560485,2.6253314584143164
1648295729069400130,62407,10,3,1.12109398842,-1.72140860558,0.796797096729,-0.485512852669,17.2000007629,0.37494782221404677,-0.5757219416655518,0.26648732332073577,17.2000007629,-0.06560984495527027,0.7827052401008094,2.2034030343067306
1648295729069420156,62408,10,4,0.418571084738,-1.93383789062,0.583137571812,-0.404594063759,17.2000007629,0.1399903293438127,-0.6467685252909698,0.1950292882314381,17.2000007629,-0.05467487348094594,0.676390501061801,2.06276032728845
1648295729069431992,62409,10,5,1.51368498802,-1.39763724804,-1.38890063763,-0.404594063759,17.2000007629,0.5062491598729096,-0.46743720670234107,-0.46451526342140464,17.2000007629,-0.05467487348094594,0.8550286345811705,2.484688532044802
1648295729069438496,62410,10,6,0.785273432732,0.184593603015,0.247718706727,-0.323675245047,17.2000007629,0.26263325509431434,0.06173699097491638,0.08284906579498327,17.2000007629,-0.04373989797932432,0.37651548363580917,0.8438564570418691
1648295729069441465,62411,10,7,0.735660851002,0.202173948288,0.761955082417,-0.323675245047,17.2000007629,0.2460404183953177,0.06761670511304348,0.25483447572474915,17.2000007629,-0.04373989797932432,0.3544626831961727,1.0782609798580505
1648295729069450739,62412,10,8,1.20172226429,-0.076181486249,0.189173102379,-0.242756426334,17.2000007629,0.4019138007658863,-0.02547875794280936,0.06326859611337793,17.2000007629,-0.03280492247756756,0.5689627172306366,1.2189038034238333
1648295729069452766,62413,10,9,0.618415236473,0.307656019926,0.131984606385,-0.161837622523,17.2000007629,0.20682783828528428,0.10289498994180601,0.044142008824414714,17.2000007629,-0.021869948989594594,0.3100691670170573,0.7032137424860717
1648295729069461313,62414,10,10,0.93154489994,0.0586011447012,0.0889835134149,-0.0809188112617,17.2000007629,0.31155347824080265,0.019599045050568562,0.029760372379565216,17.2000007629,-0.010934974494824324,0.44103884429240336,0.9376182914300335
1648295729169099373,62415,11,0,0.0127217965201,0.0439508594573,0.010212643072,0.0,16.2999992371,0.004254781444849498,0.014699284099431437,0.0034155996896321067,16.2999992371,0.0,0.015883176109414296,0.046880915437416903
1648295729169104494,62416,11,1,0.0334906764328,0.0146502861753,-0.0293524079025,0.0,16.2999992371,0.011200895128026755,0.0048997612626421405,-0.009816858830267557,16.2999992371,0.0,0.01658094580441645,0.04688091448147568
1648295729169117177,62417,11,2,2.24230504036,-1.2306240797,0.591605842113,0.0,16.2999992371,0.7499347961070233,-0.4115799597658863,0.19786148565652173,16.2999992371,0.0,1.1376301947931295,2.625331406124485
1648295729169143761,62418,11,3,0.978476345539,-1.25992465019,-1.23245441914,-0.485512852669,16.2999992371,0.3272496138926421,-0.4213794816688963,-0.41219211342474915,16.2999992371,-0.06560984495527027,0.625895588063468,2.015879455273421
1648295729169278909,62419,11,4,0.853123903275,-1.63057684898,-1.66945374012,-0.404594063759,16.2999992371,0.28532572015886287,-0.5453434277525083,-0.5583457324816054,16.2999992371,-0.05467487348094594,0.6783958927950572,2.484688520754538
1648295729169290627,62420,11,5,0.514747083187,-0.310586065054,-2.41086053848,-0.404594063759,16.2999992371,0.17215621511270904,-0.10387493814515049,-0.8063078724013378,16.2999992371,-0.05467487348094594,0.26469893762258573,2.484688471308894
1648295729169300876,62421,11,6,0.643727242947,0.263705164194,0.102880507708,-0.323675245047,16.2999992371,0.21529339228996655,0.0881957070882943,0.03440819655785953,16.2999992371,-0.04373989797932432,0.31698733772226145,0.7032137483020268
1648295729169315153,62422,11,7,0.76434969902,0.124527432024,0.188235074282,-0.323675245047,16.2999992371,0.25563535084280936,0.04164797057658863,0.06295487434180602,16.2999992371,-0.04373989797932432,0.3639140264598232,0.7969755246608309
1648295729169336527,62423,11,8,0.56533396244,0.101086974144,0.912592828274,-0.323675245047,16.2999992371,0.18907490382608694,0.03380835255652174,0.3052149927337792,16.2999992371,-0.04373989797932432,0.26952113686364954,1.078260977522065
1648295729169397871,62424,11,9,2.65849113464,-0.424858301878,-0.38129684329,-0.242756426334,16.2999992371,0.8891274697792643,-0.14209307755117057,-0.1275240278561873,16.2999992371,-0.03280492247756756,1.2654192023673878,2.719093042236152
1648295729169405683,62425,11,10,1.18186414242,-0.190453708172,0.22945779562,-0.161837622523,16.2999992371,0.39527228843478257,-0.06369689236521739,0.07674173766555183,16.2999992371,-0.021869948989594594,0.5626167950798536,1.2189037476623892
1648295729169408169,62426,11,11,0.936793148518,-0.0,0.0393280498683,-0.0809188112617,16.2999992371,0.3133087453237458,-0.0,0.013153193935886286,16.2999992371,-0.010934974494824324,0.44308547684693933,0.9376183117968159
1648295729270810311,62427,12,0,0.0127016305923,0.0439508594573,0.0102377133444,0.0,20.7000007629,0.0042480369873913034,0.014699284099431437,0.0034239843961204014,20.7000007629,0.0,0.01587956515551629,0.04688091553351634
1648295729270907942,62428,12,1,0.0335134975612,0.0146502861753,-0.0293263476342,0.0,20.7000007629,0.01120852761244147,0.0048997612626421405,-0.009808143021471571,20.7000007629,0.0,0.016591258026702325,0.04688091370019032
1648295729270910186,62429,12,2,1.13276362419,-0.304725944996,0.331232815981,0.0,20.7000007629,0.37885071043143814,-0.10191503177123744,0.11078020601371237,20.7000007629,0.0,0.5453827970240197,1.2189038141807875
1648295729270912131,62430,12,3,1.42091107368,-1.68478298187,0.798166334629,0.0,20.7000007629,0.47522109487625414,-0.5634725691872909,0.26694526241772576,20.7000007629,0.0,0.8770242381241797,2.344045962228623
1648295729270913836,62431,12,4,1.99232852459,-0.879017233849,-0.867471635342,0.0,20.7000007629,0.6663306102307692,-0.29398569693946486,-0.29012429275652174,20.7000007629,0.0,0.9871274255464698,2.3440459222083168
1648295729270915432,62432,12,5,2.24185705185,-1.2306240797,0.593301415443,0.0,20.7000007629,0.749784967173913,-0.4115799597658863,0.19842856703779263,20.7000007629,0.0,1.1374326605478058,2.625331452604359
1648295729270917202,62433,12,6,0.626633644104,0.184593617916,0.0634687840939,-0.566431701183,20.7000007629,0.20957646959999998,0.061736995958528426,0.02122701809160535,20.7000007629,-0.07654482448418919,0.3027475018724065,0.6563328532480565
1648295729271045864,62434,12,7,0.885550498962,1.72287368774,0.352790862322,-0.566431701183,20.7000007629,0.29617073543879596,0.5762119356989966,0.11799025495719064,20.7000007629,-0.07654482448418919,0.7123583395333414,1.9689984313494449
1648295729271050261,62435,12,8,0.712681233883,0.046880915761,0.229193508625,-0.404594063759,20.7000007629,0.23835492772006686,0.015679236040468225,0.07665334736622073,20.7000007629,-0.05467487348094594,0.3374492281509758,0.750094677882348
1648295729271051932,62436,12,9,0.69398444891,0.064461261034,0.760246872902,-0.404594063759,20.7000007629,0.2321018223779264,0.021558950178595316,0.25426316819464884,20.7000007629,-0.05467487348094594,0.32894878056486565,1.0313801322792095
1648295729465925632,62437,14,0,0.0127217965201,0.0439508594573,0.010212643072,0.0,18.2000007629,0.004254781444849498,0.014699284099431437,0.0034155996896321067,18.2000007629,0.0,0.015883176109414296,0.046880915437416903
1648295729465932428,62438,14,1,0.0335134975612,0.0146502861753,-0.0293263476342,0.0,18.2000007629,0.01120852761244147,0.0048997612626421405,-0.009808143021471571,18.2000007629,0.0,0.016591258026702325,0.04688091370019032
1648295729465943260,62439,14,2,2.18737268448,-1.31266570091,0.620221376419,0.0,18.2000007629,0.7315627707290969,-0.4390186290668896,0.20743189846789295,18.2000007629,0.0,1.1238796784805025,2.6253314188730275
1648295729465947619,62440,14,3,0.884692788124,-0.0,0.103594578803,-0.323675245047,18.2000007629,0.29588387562675583,-0.0,0.03464701632207358,18.2000007629,-0.04373989797932432,0.4184429897988721,0.8907374282671564
1648295729466112658,62441,14,4,0.506516575813,-0.096691891551,-0.00528469495475,-0.161837622523,18.2000007629,0.169403537061204,-0.032338425267892976,-0.001767456506605351,18.2000007629,-0.021869948989594594,0.24174550768628678,0.5156901118557556
1648295729466117218,62442,14,5,0.65355026722,-0.197778865695,0.168122366071,-0.0809188112617,18.2000007629,0.2185786846889632,-0.06614677782441471,0.056228216077257524,18.2000007629,-0.010934974494824324,0.31611497752758705,0.7032137381139859
1648295729570957218,62443,15,0,0.0127004906535,0.0439508594573,0.0102391270921,0.0,22.7000007629,0.004247655736956521,0.014699284099431437,0.003424457221438127,22.7000007629,0.0,0.01587936118221376,0.046880915450566385
1648295729570963915,62444,15,1,0.033477243036,0.0146502861753,-0.0293677262962,0.0,22.7000007629,0.011196402353177256,0.0048997612626421405,-0.009821982038862875,22.7000007629,0.0,0.016574875919274777,0.046880913324274236
1648295729570990342,62445,15,2,1.39350831509,-1.7580344677,0.679706156254,0.0,22.7000007629,0.4660562926722408,-0.5879713938795986,0.22732647366354514,22.7000007629,0.0,0.8832481508044638,2.344045876832572
1648295729571104598,62446,15,3,0.660288572311,-0.241729721427,0.00976450648159,0.0809188112617,22.7000007629,0.22083229843177257,-0.08084606067792642,0.003265721231301003,22.7000007629,0.010934974494824324,0.3225986571398863,0.7032137673087059
1648295729571107858,62447,15,4,0.48409062624,-0.263705164194,0.11225848645,0.323675245047,22.7000007629,0.16190321947826086,-0.0881957070882943,0.03754464429765886,22.7000007629,0.04373989797932432,0.24536460157010428,0.5625709873572088
