%time,field.header.seq,field.header.frame_id,field.point_id,field.x,field.y,field.z,field.velocity,field.intensity,normalized_x,normalized_y,normalized_z,normalized_intensity,normalized_velocity,normalized_range,range
1648127054702824146,91827,0,0,0.0126877604052,0.0439508594573,0.0102548981085,0.0,13.8999996185,0.004243398128829431,0.014699284099431437,0.003429731808862876,13.8999996185,0.0,0.015877084379548535,0.04688091558780411
1648127054702827719,91828,0,1,0.0328124724329,0.0146502861753,-0.0301086530089,0.0,13.8999996185,0.010974071047792642,0.0048997612626421405,-0.010069783615016722,13.8999996185,0.0,0.01627476977271537,0.04688091528744241
1648127054702830836,91829,0,2,2.42008781433,-0.902457654476,0.470223933458,0.0,13.8999996185,0.8093939178361204,-0.30182530250033446,0.15726552958461537,13.8999996185,0.0,1.183780191458544,2.6253314828393752
1648127054702835575,91830,0,3,0.839859843254,0.640217483044,0.217724040151,-0.0809188112617,13.8999996185,0.280889579683612,0.21411955954648826,0.07281740473277591,13.8999996185,-0.010934974494824324,0.45127053718368826,1.0782609793391866
1648127055002744773,91831,3,0,0.0126674417406,0.0439508594573,0.0102799860761,0.0,27.0,0.004236602588829431,0.014699284099431437,0.0034381224334782603,27.0,0.0,0.015873454445304285,0.04688091553086012
1648127055002751333,91832,3,1,0.0329001024365,0.0146502861753,-0.0300128757954,0.0,27.0,0.011003378741304349,0.0048997612626421405,-0.010037751102140467,27.0,0.0,0.016314298877980183,0.04688091657444943
1648127055002777550,91833,3,2,2.42033839226,-0.902457654476,0.468931466341,0.0,27.0,0.8094777231638796,-0.30182530250033446,0.15683326633478262,27.0,0.0,1.183894793394487,2.625331306958184
1648127055002779696,91834,3,3,0.864584803581,0.703213751316,0.154686689377,-0.161837622523,27.0,0.2891587971842809,0.23518854559063543,0.05173467872140468,27.0,-0.021869948989594594,0.47174068295532723,1.125141961929042
1648127055002822423,91835,3,4,0.794221282005,0.580151319504,0.310454398394,-0.0809188112617,27.0,0.2656258468244147,0.19403054164013378,0.1038309024729097,27.0,-0.010934974494824324,0.42280259234250034,1.0313801102377718
1648127055302774497,91836,6,0,0.0125994505361,0.0439508594573,0.0103632062674,0.0,23.6000003815,0.004213863055551839,0.014699284099431437,0.003465955273377926,23.6000003815,0.0,0.01586134410249293,0.04688091557326548
1648127055302785746,91837,6,1,0.0328124724329,0.0146502861753,-0.0301086530089,0.0,23.6000003815,0.010974071047792642,0.0048997612626421405,-0.010069783615016722,23.6000003815,0.0,0.01627476977271537,0.04688091528744241
1648127055302792181,91838,6,2,0.177065372467,-0.399952799082,-0.424402207136,0.0,23.6000003815,0.059219188116053506,-0.13376347795384613,-0.14194053750367894,23.6000003815,0.0,0.15781790936569318,0.6094519021566118
1648127055302811947,91839,6,3,2.42102742195,-0.902457654476,0.465361386538,0.0,23.6000003815,0.8097081678762541,-0.30182530250033446,0.15563925971170567,23.6000003815,0.0,1.1842099254272693,2.6253313726150376
1648127055302815464,91840,6,4,0.618105053902,0.640217542648,0.0384812504053,-0.323675245047,23.6000003815,0.20672409829498326,0.21411957948093643,0.012869983413143812,23.6000003815,-0.04373989797932432,0.3623767375934069,0.8907374283177919
1648127055302841427,91841,6,5,1.88353967667,-1.29215526581,0.244089215994,-0.323675245047,23.6000003815,0.6299463801571906,-0.4321589517759197,0.08163518929565217,23.6000003815,-0.04373989797932432,0.9901647556575406,2.2971648808727694
1648127055302931019,91842,6,6,0.764641821384,0.523015201092,0.333191633224,-0.242756426334,23.6000003815,0.2557330506301003,0.1749214719371237,0.11143532883745817,23.6000003815,-0.03280492247756756,0.4017415932086257,0.9844992026574845
1648127055302935175,91843,6,7,1.01427531242,0.586011469364,-0.0383933633566,-0.161837622523,23.6000003815,0.3392225125150501,0.19599045798127088,-0.012840589751371236,23.6000003815,-0.021869948989594594,0.5182239724421815,1.1720229954914172
1648127055302953301,91844,6,8,0.929928779602,0.632892370224,-0.0249836388975,-0.0809188112617,23.6000003815,0.3110129697665552,0.21166968903812708,-0.008355732072742475,23.6000003815,-0.010934974494824324,0.48812108332208076,1.1251419775443359
