%time,field.header.seq,field.header.frame_id,field.point_id,field.x,field.y,field.z,field.velocity,field.intensity,normalized_x,normalized_y,normalized_z,normalized_intensity,normalized_velocity,normalized_range,range
1648126024890795918,51183,0,0,0.0126256523654,0.0439508594573,0.010331267491,0.0,19.7000007629,0.004222626209163879,0.014699284099431437,0.0034552734083612034,19.7000007629,0.0,0.015866004451040385,0.04688091544176436
1648126024890806195,51184,0,1,0.0327914953232,0.0146502861753,-0.0301314946264,0.0,19.7000007629,0.010967055292040133,0.0048997612626421405,-0.010077422951973244,19.7000007629,0.0,0.01626530860414949,0.046880913162719064
1648126024890808339,51185,0,2,0.109929181635,-0.399952799082,-0.446525424719,0.0,19.7000007629,0.03676561258695652,-0.13376347795384613,-0.1493396069294314,19.7000007629,0.0,0.14351337419243348,0.6094519024409972
1648126024890817622,51186,0,3,0.279554992914,-1.58955609798,0.295787632465,0.0,19.7000007629,0.09349665314849498,-0.5316241130367892,0.09892562958695651,19.7000007629,0.0,0.5478206329284183,1.6408320773948197
1648126024890850523,51187,0,4,1.86543619633,-1.31852579117,0.525536775589,0.0,19.7000007629,0.6238917044581939,-0.44097852547491634,0.17576480788929766,19.7000007629,0.0,0.9863791247352774,2.3440459396212985
1648126024890906707,51188,0,5,2.42061853409,-0.902457654476,0.467483907938,0.0,19.7000007629,0.8095714160836119,-0.30182530250033446,0.15634913308963208,19.7000007629,0.0,1.1840229173072065,2.6253314285787477
1648126024890917076,51189,0,6,0.601245701313,0.914177834988,0.262158274651,0.161837622523,19.7000007629,0.20108551883377926,0.30574509531371236,0.08767835272608696,19.7000007629,0.021869948989594594,0.41755339188861995,1.1251419769516635
1648126024890919956,51190,0,7,1.00251913071,1.16030263901,0.205132767558,0.161837622523,19.7000007629,0.3352906791672241,0.3880610832809364,0.06860627677525083,19.7000007629,0.021869948989594594,0.6127243127459613,1.547070222665768
1648126024890929318,51191,0,8,0.698835551739,1.1075617075,0.0895945206285,-0.0809188112617,19.7000007629,0.23372426479565217,0.3704219757525083,0.029964722618227423,19.7000007629,-0.010934974494824324,0.49645392941231525,1.3126657009388638
1648126024996001163,51192,1,0,0.0126256523654,0.0439508594573,0.010331267491,0.0,20.6000003815,0.004222626209163879,0.014699284099431437,0.0034552734083612034,20.6000003815,0.0,0.015866004451040385,0.04688091544176436
1648126024996006349,51193,1,1,0.0328039452434,0.0146502861753,-0.0301179438829,0.0,20.6000003815,0.010971219144949832,0.0048997612626421405,-0.010072890930735786,20.6000003815,0.0,0.016270923744026212,0.04688091565108008
1648126024996011418,51194,1,2,0.117984600365,-0.399952799082,-0.444464862347,0.0,20.6000003815,0.039459732563545145,-0.13376347795384613,-0.14865045563444815,20.6000003815,0.0,0.14493725891668469,0.6094519023499336
1648126024996106752,51195,1,3,0.294280618429,-1.58955609798,0.2811409235,0.0,20.6000003815,0.0984216115147157,-0.5316241130367892,0.09402706471571905,20.6000003815,0.0,0.549543287456466,1.6408320724177692
1648126024996129133,51196,1,4,1.86675131321,-1.31852579117,0.520846009254,0.0,20.6000003815,0.6243315428795986,-0.44097852547491634,0.17419598971705685,20.6000003815,0.0,0.9869355656773503,2.3440459237624913
1648126024996134524,51197,1,5,2.4203016758,-0.902457654476,0.469121098518,0.0,20.6000003815,0.8094654434113713,-0.30182530250033446,0.15689668846755853,20.6000003815,0.0,1.1838780010557481,2.6253313362464072
1648126024996136681,51198,1,6,0.62263250351,1.1485824585,0.127194315195,-0.242756426334,20.6000003815,0.20823829548829428,0.38414129046822737,0.042539904747491634,20.6000003815,-0.03280492247756756,0.4840360590476038,1.3126657199069989
1648126024996141728,51199,1,7,0.420813471079,1.04456532001,0.918642759323,-0.242756426334,20.6000003815,0.14074029133076923,0.34935294983612036,0.3072383810444816,20.6000003815,-0.03280492247756756,0.40207355392631633,1.4533083652362722
1648126024996144843,51200,1,8,1.01204907894,0.966918885708,0.137342244387,-0.161837622523,20.6000003815,0.33847795282274246,0.3233842427117057,0.04593386099899665,20.6000003815,-0.021869948989594594,0.5776781262332621,1.406427517441038
1648126025190870691,51201,3,0,0.0126355709508,0.0439508594573,0.0103191342205,0.0,21.5,0.00422594346180602,0.014699284099431437,0.003451215458361204,21.5,0.0,0.015867770773506908,0.04688091542780209
1648126025190874151,51202,3,1,0.0328039452434,0.0146502861753,-0.0301179438829,0.0,21.5,0.010971219144949832,0.0048997612626421405,-0.010072890930735786,21.5,0.0,0.016270923744026212,0.04688091565108008
1648126025190880684,51203,3,2,0.273149549961,-1.58955609798,0.301712840796,0.0,21.5,0.0913543645354515,-0.5316241130367892,0.10090730461404683,21.5,0.0,0.5470972833066393,1.6408320765911704
1648126025190979988,51204,3,3,1.8618029356,-1.31852579117,0.538266718388,0.0,21.5,0.622676567090301,-0.44097852547491634,0.18002231384214046,21.5,0.0,0.9848422586062986,2.3440459665103495
1648126025190983102,51205,3,4,2.42127466202,-0.902457654476,0.464073419571,0.0,21.5,0.8097908568628762,-0.30182530250033446,0.15520850152876253,21.5,0.0,1.1843230036382983,2.6253313973315273
1648126025190986020,51206,3,5,0.571360766888,0.799905598164,-0.0541904754937,-0.485512852669,21.5,0.1910905574876254,0.26752695590769227,-0.018123904847391303,21.5,-0.06560984495527027,0.38026553151593856,0.984499212568087
1648126025190990000,51207,3,6,0.633806765079,0.952268660069,0.255168944597,-0.323675245047,21.5,0.21197550671538462,0.3184845016953177,0.08534078414615384,21.5,-0.04373989797932432,0.4373781072648733,1.1720229548504
1648126025191478940,51208,3,7,0.527834951878,0.830671191216,-0.0247857999057,-0.242756426334,21.5,0.1765334287217391,0.2778164519117057,-0.008289565185852842,21.5,-0.03280492247756756,0.3735104869549391,0.9844992129083824
1648126025191482664,51209,3,8,0.574623167515,0.988894343376,0.255996078253,-0.0809188112617,21.5,0.19218166137625417,0.3307338941056856,0.08561741747591974,21.5,-0.010934974494824324,0.4280800049628402,1.1720229516041647
1648126025295938588,51210,4,0,0.0126256523654,0.0439508594573,0.010331267491,0.0,16.0,0.004222626209163879,0.014699284099431437,0.0034552734083612034,16.0,0.0,0.015866004451040385,0.04688091544176436
1648126025295951599,51211,4,1,0.0327914953232,0.0146502861753,-0.0301314946264,0.0,16.0,0.010967055292040133,0.0048997612626421405,-0.010077422951973244,16.0,0.0,0.01626530860414949,0.046880913162719064
1648126025295954408,51212,4,2,0.271831482649,-1.58955609798,0.302900910378,0.0,16.0,0.09091353934749162,-0.5316241130367892,0.10130465230033443,16.0,0.0,0.5469504007088107,1.6408320770549247
1648126025295956290,51213,4,3,1.86777865887,-1.31852579117,0.517149746418,0.0,16.0,0.6246751367458194,-0.44097852547491634,0.17295978141070234,16.0,0.0,0.9873703017950499,2.3440459126755373
1648126025296049671,51214,4,4,2.42199110985,-0.902457654476,0.460320085287,0.0,16.0,0.810030471521739,-0.30182530250033446,0.15395320578160535,16.0,0.0,1.184650683879801,2.6253314714971494
1648126025296059098,51215,4,5,0.41211566329,0.892202436924,-0.058087579906,0.242756426334,16.0,0.13783132551505015,0.2983954638541806,-0.019427284249498324,16.0,0.03280492247756756,0.35641941787060794,0.9844992002644881
1648126025296061923,51216,4,6,1.08292937279,1.06361079216,0.29903614521,-0.485512852669,16.0,0.3621837367190635,0.3557226729632107,0.10001208869899665,16.0,-0.06560984495527027,0.6236126508880807,1.5470703150770562
1648126025296063182,51217,4,7,0.642493665218,0.842391431332,0.20056258142,-0.404594063759,16.0,0.2148808244876254,0.2817362646595318,0.06707778642809364,16.0,-0.05467487348094594,0.4143945707767768,1.0782609992449366
1648126025296084991,51218,4,8,0.790215790272,0.914177834988,0.159888595343,-0.404594063759,16.0,0.2642862174822742,0.30574509531371236,0.05347444660301003,16.0,-0.05467487348094594,0.48288142727854727,1.2189037993620768
1648126025296091852,51219,4,9,0.819376647472,1.02552008629,0.00465752882883,-0.242756426334,16.0,0.27403901253244145,0.342983306451505,0.0015577019494414713,16.0,-0.03280492247756756,0.5175251774396278,1.3126656963528431
1648126025490920341,51220,6,0,0.0126256523654,0.0439508594573,0.010331267491,0.0,21.7000007629,0.004222626209163879,0.014699284099431437,0.0034552734083612034,21.7000007629,0.0,0.015866004451040385,0.04688091544176436
1648126025490926285,51221,6,1,0.0328283309937,0.0146502861753,-0.0300913602114,0.0,21.7000007629,0.010979374914280936,0.0048997612626421405,-0.01006400007070234,21.7000007629,0.0,0.01628192271961673,0.046880914669216275
1648126025490932806,51222,6,2,0.267235696316,-1.58955609798,0.306963175535,0.0,21.7000007629,0.08937648706220735,-0.5316241130367892,0.102663269409699,21.7000007629,0.0,0.5464435107504843,1.6408320746333038
1648126025490935831,51223,6,3,1.86653804779,-1.31852579117,0.521609842777,0.0,21.7000007629,0.6242602166521739,-0.44097852547491634,0.17445145243377924,21.7000007629,0.0,0.9868453253267554,2.3440459410834986
1648126025490942103,51224,6,4,2.42015838623,-0.902457654476,0.469860583544,0.0,21.7000007629,0.8094175204782608,-0.30182530250033446,0.15714400787424748,21.7000007629,0.0,1.1838124674726862,2.625331483933034
1648126025491031738,51225,6,5,1.10466110706,0.862901806831,0.383704662323,-0.485512852669,21.7000007629,0.369451875270903,0.28859592201705686,0.12832931850267557,21.7000007629,-0.06560984495527027,0.5968894223281637,1.4533082802941835
1648126025491033112,51226,6,6,0.700121164322,0.709073901176,0.266063153744,-0.242756426334,21.7000007629,0.23415423555919732,0.23714846193177255,0.08898433235585285,21.7000007629,-0.03280492247756756,0.40730308746341404,1.0313801645565752
1648126025491034299,51227,6,7,0.607865273952,0.952268660069,0.311964780092,-0.161837622523,21.7000007629,0.20329942272642137,0.3184845016953177,0.10433604685351171,21.7000007629,-0.021869948989594594,0.42906140397605935,1.1720229589236717
1648126025595952247,51228,7,0,0.0126355709508,0.0439508594573,0.0103191342205,0.0,29.5,0.00422594346180602,0.014699284099431437,0.003451215458361204,29.5,0.0,0.015867770773506908,0.04688091542780209
1648126025595980328,51229,7,1,0.0327914953232,0.0146502861753,-0.0301314946264,0.0,29.5,0.010967055292040133,0.0048997612626421405,-0.010077422951973244,29.5,0.0,0.01626530860414949,0.046880913162719064
1648126025596088764,51230,7,2,0.273382276297,-1.58955609798,0.301501959562,0.0,29.5,0.09143219943043478,-0.5316241130367892,0.10083677577324414,29.5,0.0,0.547123287520762,1.6408320722238636
1648126025596093539,51231,7,3,1.86499238014,-1.31852579117,0.527109801769,0.0,29.5,0.6237432709498327,-0.44097852547491634,0.17629090360167224,29.5,0.0,0.9861913587333972,2.344045985701153
1648126025596097382,51232,7,4,2.42031002045,-0.902457654476,0.469078660011,0.0,29.5,0.809468234264214,-0.30182530250033446,0.15688249498695653,29.5,0.0,1.1838818174949166,2.6253314462160238
1648126025596101039,51233,7,5,1.12290728092,0.722259104252,0.25649112463,-0.323675245047,29.5,0.3755542745551839,0.24155822884682274,0.08578298482608696,29.5,-0.04373989797932432,0.5834658552108726,1.3595464950607654
1648126025596169602,51234,7,6,0.743232607841,0.615311980247,0.195538267493,-0.242756426334,29.5,0.24857277854214044,0.2057899599488294,0.06539741387725752,29.5,-0.03280492247756756,0.4073405946871252,0.9844992414663315
1648126025790889239,51235,9,0,0.0126355709508,0.0439508594573,0.0103191342205,0.0,37.2999992371,0.00422594346180602,0.014699284099431437,0.003451215458361204,37.2999992371,0.0,0.015867770773506908,0.04688091542780209
1648126025790895114,51236,9,1,0.0327914953232,0.0146502861753,-0.0301314946264,0.0,37.2999992371,0.010967055292040133,0.0048997612626421405,-0.010077422951973244,37.2999992371,0.0,0.01626530860414949,0.046880913162719064
1648126025791058833,51237,9,2,0.277277946472,-1.58955609798,0.297923237085,0.0,37.2999992371,0.09273509915451504,-0.5316241130367892,0.09963987862374582,37.2999992371,0.0,0.5475616812675521,1.6408320765454147
1648126025791071431,51238,9,3,1.90723872185,-1.24527442455,0.553428828716,0.0,37.2999992371,0.6378724822240802,-0.4164797406521739,0.18509325375117056,37.2999992371,0.0,0.9935884366935442,2.344045947292057
1648126025791073436,51239,9,4,2.42012739182,-0.902457654476,0.470020323992,0.0,37.2999992371,0.8094071544548495,-0.30182530250033446,0.15719743277324413,37.2999992371,0.0,1.183798292191204,2.6253315058722286
1648126025791075219,51240,9,5,1.69426643848,-1.33610606194,0.638795435429,-0.404594063759,37.2999992371,0.56664429380602,-0.4468582146956522,0.21364395833745817,37.2999992371,-0.05467487348094594,0.9175258990605288,2.250283933559817
1648126025791076858,51241,9,6,0.78343808651,0.523015201092,0.286214292049,-0.242756426334,37.2999992371,0.2620194269264214,0.1749214719371237,0.09572384349464882,37.2999992371,-0.03280492247756756,0.4097632017621281,0.9844992417167551
1648126025791078502,51242,9,7,1.21007525921,0.509829938412,0.352360725403,-0.242756426334,37.2999992371,0.40470744455183943,0.1705116850876254,0.11784639645585283,37.2999992371,-0.03280492247756756,0.5972021986754419,1.359546534643026
1648126025895413618,51243,10,0,0.0127222454175,0.0439508594573,0.0102120842785,0.0,31.3999996185,0.004254931577759197,0.014699284099431437,0.003415412802173913,31.3999996185,0.0,0.01588325654576613,0.04688091552870553
1648126025895418268,51244,10,1,0.0328039452434,0.0146502861753,-0.0301179438829,0.0,31.3999996185,0.010971219144949832,0.0048997612626421405,-0.010072890930735786,31.3999996185,0.0,0.016270923744026212,0.04688091565108008
1648126025895426214,51245,10,2,0.270380288363,-1.58955609798,0.304196983576,0.0,31.3999996185,0.09042819008795985,-0.5316241130367892,0.10173812159732441,31.3999996185,0.0,0.5467894591955127,1.6408320736069855
1648126025895430282,51246,10,3,1.86927163601,-1.31852579117,0.511727035046,0.0,31.3999996185,0.6251744602040133,-0.44097852547491634,0.1711461655672241,31.3999996185,0.0,0.9880021615931771,2.344045918826879
1648126025895485253,51247,10,4,2.41948008537,-0.902457654476,0.473340272903,0.0,31.3999996185,0.8091906640033444,-0.30182530250033446,0.15830778357959865,31.3999996185,0.0,1.1835022495330396,2.6253313534821148
1648126025895488911,51248,10,5,1.61116921902,-1.44598317146,0.410184115171,-0.485512852669,31.3999996185,0.5388525816120401,-0.48360641185953174,0.13718532279966555,31.3999996185,-0.06560984495527027,0.9025515891136483,2.2034029574278176
1648126025895493725,51249,10,6,0.646696090698,0.483459472656,0.641713440418,-0.404594063759,31.3999996185,0.21628631795919734,0.16169213132307692,0.21461987973846153,31.3999996185,-0.05467487348094594,0.34598249667359354,1.0313801602891146
1648126025895506354,51250,10,7,0.552173495293,0.83799636364,-0.237931802869,-0.404594063759,31.3999996185,0.18467340979698996,0.28026634235451503,-0.07957585380234114,31.3999996185,-0.05467487348094594,0.38308975348979535,1.0313801516387855
1648126025895510686,51251,10,8,1.22724962234,0.328166425228,0.330539733171,-0.323675245047,31.3999996185,0.4104513787090301,0.10975465726688963,0.11054840574280936,31.3999996185,-0.04373989797932432,0.5907510079213235,1.3126657432055402
1648126025895512682,51252,10,9,0.823221921921,0.523015201092,0.134162217379,-0.242756426334,31.3999996185,0.27532505749866215,0.1749214719371237,0.04487030681571906,31.3999996185,-0.03280492247756756,0.42685512286715405,0.9844992300030814
1648126025895519609,51253,10,10,0.709735512733,0.586011469364,0.178869366646,-0.161837622523,31.3999996185,0.23736973669999997,0.19599045798127088,0.05982253065083612,31.3999996185,-0.021869948989594594,0.38871717664873384,0.93761836084031
1648126025895528107,51254,10,11,0.904441654682,0.451228827238,0.205238506198,-0.0809188112617,31.3999996185,0.30248884771973245,0.15091265125016723,0.06864164086889632,31.3999996185,-0.010934974494824324,0.45362278855562094,1.0313801460571566
1648126025995537823,51255,11,0,0.0126355709508,0.0439508594573,0.0103191342205,0.0,13.8999996185,0.00422594346180602,0.014699284099431437,0.003451215458361204,13.8999996185,0.0,0.015867770773506908,0.04688091542780209
1648126025995547629,51256,11,1,0.0328039452434,0.0146502861753,-0.0301179438829,0.0,13.8999996185,0.010971219144949832,0.0048997612626421405,-0.010072890930735786,13.8999996185,0.0,0.016270923744026212,0.04688091565108008
1648126025995550838,51257,11,2,0.272067546844,-1.58955609798,0.302688896656,0.0,13.8999996185,0.09099249058327757,-0.5316241130367892,0.10123374470100334,13.8999996185,0.0,0.5469766578632479,1.6408320775844012
1648126025995558133,51258,11,3,1.90405058861,-1.24527442455,0.564299762249,0.0,13.8999996185,0.6368062169264214,-0.4164797406521739,0.18872901747458193,13.8999996185,0.0,0.9922195776167607,2.3440459163802014
1648126025995565557,51259,11,4,2.41957116127,-0.902457654476,0.472874641418,0.0,13.8999996185,0.8092211241705685,-0.30182530250033446,0.15815205398595317,13.8999996185,0.0,1.1835439023699863,2.625331378905905
1648126025995577385,51260,11,5,0.7690294981,0.34281668067,0.0562500655651,0.404594063759,13.8999996185,0.25720050103678926,0.1146544082508361,0.018812730958227424,13.8999996185,0.05467487348094594,0.3813788520598648,0.8438564542442113
1648126025995581021,51261,11,6,1.29804515839,-1.6173915863,0.591363012791,-0.485512852669,13.8999996185,0.4341288155150501,-0.54093364090301,0.19778027183645483,13.8999996185,-0.06560984495527027,0.8182572094284214,2.1565219659328765
1648126025995584745,51262,11,7,2.08750295639,0.471739202738,0.265293926001,-0.485512852669,13.8999996185,0.6981615238762541,0.15777230860802674,0.0887270655521739,13.8999996185,-0.06560984495527027,0.9998755563598567,2.1565220461451116
1648126025995744322,51263,11,8,0.720154881477,0.44536870718,0.276472061872,-0.404594063759,13.8999996185,0.2408544754103679,0.14895274487625418,0.09246557253244148,13.8999996185,-0.05467487348094594,0.3717642759284134,0.8907374134087394
1648126025995750891,51264,11,9,0.459480822086,0.512760043144,0.948468387127,-0.404594063759,13.8999996185,0.1536725157478261,0.17149165322541807,0.31721350740033444,13.8999996185,-0.05467487348094594,0.2768390711560035,1.1720229388067265
1648126025995753306,51265,11,10,0.633525311947,0.6050568223,-2.62357854843,-0.323675245047,13.8999996185,0.21188137523311035,0.20236014123745819,-0.8774510195418059,13.8999996185,-0.04373989797932432,0.361575802706697,2.7659740560734445
1648126025996013982,51266,11,11,1.65045082569,-0.5186201334,-2.15816068649,-0.323675245047,13.8999996185,0.5519902427056855,-0.17345154963210702,-0.7217928717357859,13.8999996185,-0.04373989797932432,0.7996698669790819,2.7659740272641073
1648126025996021690,51267,11,12,0.810258507729,0.46880915761,-0.0531716048717,-0.242756426334,13.8999996185,0.27098946746789293,0.15679236040468228,-0.017783145442040134,13.8999996185,-0.03280492247756756,0.41407055828486067,0.9376183099592584
1648126025996024098,51268,11,13,1.18442451954,0.316446185112,0.314978390932,-0.242756426334,13.8999996185,0.3961286018528428,0.10583484451906354,0.10534394345551838,13.8999996185,-0.03280492247756756,0.5701199459115165,1.2657847436723235
1648126026095611645,51269,12,0,0.0126256523654,0.0439508594573,0.010331267491,0.0,22.8999996185,0.004222626209163879,0.014699284099431437,0.0034552734083612034,22.8999996185,0.0,0.015866004451040385,0.04688091544176436
1648126026095616483,51270,12,1,0.0328039452434,0.0146502861753,-0.0301179438829,0.0,22.8999996185,0.010971219144949832,0.0048997612626421405,-0.010072890930735786,22.8999996185,0.0,0.016270923744026212,0.04688091565108008
1648126026095622622,51271,12,2,1.17497479916,0.228544458747,0.230061352253,0.0,22.8999996185,0.3929681602541805,0.07643627382842809,0.07694359607123745,22.8999996185,0.0,0.5609727746547822,1.2189038411972948
1648126026095627910,51272,12,3,1.90531027317,-1.24527442455,0.560032069683,0.0,22.8999996185,0.6372275161103679,-0.4164797406521739,0.18730169554615383,22.8999996185,0.0,0.992760388487615,2.344045978337221
1648126026095674224,51273,12,4,2.41750264168,-0.902457654476,0.483338475227,0.0,22.8999996185,0.8085293115986621,-0.30182530250033446,0.1616516639555184,22.8999996185,0.0,1.182597906584411,2.6253313928505984
1648126026095677268,51274,12,5,0.701832771301,0.257845044136,0.0599056184292,0.404594063759,22.8999996185,0.23472667936488292,0.08623580071438126,0.020035323889364548,22.8999996185,0.05467487348094594,0.3429720707815428,0.7500946532117946
1648126026095757968,51275,12,6,1.32362496853,-1.58223104477,0.441755741835,-0.647350490093,22.8999996185,0.44268393596321065,-0.529174262464883,0.1477443952625418,22.8999996185,-0.08747979595851352,0.819733819221223,2.10964126613844
1648126026095761879,51276,12,7,2.07044172287,0.329631447792,0.234947219491,-0.647350490093,22.8999996185,0.6924554257090301,0.11024463136856186,0.07857766538160535,22.8999996185,-0.08747979595851352,0.985465834990406,2.1096412053050386
1648126026095767791,51277,12,8,0.737026691437,0.36918720603,0.180516555905,-0.566431701183,22.8999996185,0.24649722121638792,0.12347398194983276,0.06037343006856186,22.8999996185,-0.07654482448418919,0.36982101664636285,0.8438564830245789
1648126026095770566,51278,12,9,0.638980269432,0.389697611332,0.482962906361,-0.485512852669,22.8999996185,0.21370577572976587,0.13033364927491636,0.16152605563913042,22.8999996185,-0.06560984495527027,0.3291309424740234,0.8907374371395433
1648126026095778226,51279,12,10,1.28723704815,-0.6914935112,-2.34850382805,-0.323675245047,22.8999996185,0.43051406292642136,-0.23126873284280935,-0.7854527853010034,22.8999996185,-0.04373989797932432,0.6512833051334481,2.7659741004801788
1648126026095780335,51280,12,11,2.07119750977,0.4321834445,-1.78156411648,-0.323675245047,22.8999996185,0.6927081972474917,0.14454295802675585,-0.5958408416321069,22.8999996185,-0.04373989797932432,0.9902433841146651,2.7659740337368492
1648126026195477091,51281,13,0,0.0126256523654,0.0439508594573,0.010331267491,0.0,27.7000007629,0.004222626209163879,0.014699284099431437,0.0034552734083612034,27.7000007629,0.0,0.015866004451040385,0.04688091544176436
1648126026195486638,51282,13,1,0.0328039452434,0.0146502861753,-0.0301179438829,0.0,27.7000007629,0.010971219144949832,0.0048997612626421405,-0.010072890930735786,27.7000007629,0.0,0.016270923744026212,0.04688091565108008
1648126026195494206,51283,13,2,0.277504354715,-1.58955609798,0.297712355852,0.0,27.7000007629,0.09281082097491639,-0.5316241130367892,0.09956934978327758,27.7000007629,0.0,0.5475873396475021,1.6408320762156439
1648126026195588318,51284,13,3,1.87643623352,-1.31852579117,0.484796881676,0.0,27.7000007629,0.6275706466622073,-0.44097852547491634,0.162139425309699,27.7000007629,0.0,0.9910357677874565,2.3440459075986486
1648126026195595412,51285,13,4,2.41906619072,-0.902457654476,0.475451797247,0.0,27.7000007629,0.8090522376989967,-0.30182530250033446,0.15901397901237457,27.7000007629,0.0,1.183312959398707,2.625331496156685
1648126026195644620,51286,13,5,1.13089716434,0.205104023218,-0.634109735489,0.0809188112617,27.7000007629,0.37822647636789297,0.06859666328361204,-0.21207683461170565,27.7000007629,0.010934974494824324,0.53927361984895,1.3126656898442925
1648126026195653208,51287,13,6,1.03074598312,-0.574291229248,0.575190007687,0.0809188112617,27.7000007629,0.3447310980334448,-0.1920706452334448,0.19237124002909697,27.7000007629,0.010934974494824324,0.5239944586186774,1.3126657010267944
1648126026195654354,51288,13,7,1.20270216465,-1.61153149605,0.459841221571,-0.566431701183,27.7000007629,0.402241526638796,-0.5389737444983277,0.15379305069264212,27.7000007629,-0.07654482448418919,0.7836384298667128,2.062760337186765
1648126026195659294,51289,13,8,2.03090667725,0.32230630517,0.162839144468,-0.566431701183,27.7000007629,0.6792330024247492,0.10779475089297658,0.05446125233043478,27.7000007629,-0.07654482448418919,0.9666098755371566,2.0627602558276235
1648126026195665469,51290,13,9,0.568062841892,-0.303260922432,-0.864860773087,-0.485512852669,27.7000007629,0.1899875725391304,-0.10142505766956521,-0.2892510946779264,27.7000007629,-0.06560984495527027,0.2871891323882178,1.078260977795898
1648126026195676820,51291,13,10,0.961008429527,0.235869601369,0.428339898586,-0.485512852669,27.7000007629,0.32140750151404684,0.07888615430401337,0.1432574911658863,27.7000007629,-0.06560984495527027,0.46133349043818683,1.0782609791662623
1648126026195681037,51292,13,11,0.720634758472,0.273960351944,0.20199328661,-0.404594063759,27.7000007629,0.24101496938862874,0.09162553576722407,0.06755628314715718,27.7000007629,-0.05467487348094594,0.3529471203217759,0.7969755437846181
1648126026195683169,51293,13,12,1.86682534218,0.594801604748,-1.88537573814,-0.242756426334,27.7000007629,0.6243563017324415,0.19893030259130434,-0.6305604475384615,27.7000007629,-0.03280492247756756,0.9051048824943388,2.719093135805249
1648126026195686409,51294,13,13,1.51300024986,-1.10463154316,-1.97080874443,-0.242756426334,27.7000007629,0.5060201504548494,-0.3694419876789297,-0.659133359341137,27.7000007629,-0.03280492247756756,0.8053571677168182,2.7190931777602287
1648126026295821385,51295,14,0,0.0126256523654,0.0439508594573,0.010331267491,0.0,26.2999992371,0.004222626209163879,0.014699284099431437,0.0034552734083612034,26.2999992371,0.0,0.015866004451040385,0.04688091544176436
1648126026295960773,51296,14,1,0.0327914953232,0.0146502861753,-0.0301314946264,0.0,26.2999992371,0.010967055292040133,0.0048997612626421405,-0.010077422951973244,26.2999992371,0.0,0.01626530860414949,0.046880913162719064
1648126026295963626,51297,14,2,0.25178694725,-1.58955609798,0.319757163525,0.0,26.2999992371,0.08420968135451505,-0.5316241130367892,0.10694219515886287,26.2999992371,0.0,0.5447997232284638,1.6408320752156302
1648126026295966462,51298,14,3,1.8760176897,-1.31852579117,0.486413896084,0.0,26.2999992371,0.6274306654515049,-0.44097852547491634,0.16268023280401336,26.2999992371,0.0,0.9908584862773635,2.3440458852913726
1648126026295968204,51299,14,4,2.38807988167,-0.984499275684,0.469255983829,0.0,26.2999992371,0.7986889236354514,-0.32926397180066885,0.15694180061170568,26.2999992371,0.0,1.1765299641751006,2.625331507337434
1648126026295970710,51300,14,5,0.576535522938,0.190453708172,0.0525908507407,-0.485512852669,26.2999992371,0.1928212451297659,0.06369689236521739,0.017588913291204013,26.2999992371,-0.06560984495527027,0.28003099693386196,0.6094519027351454
1648126026296107657,51301,14,6,0.670932710171,-1.82689070702,0.525442183018,-0.485512852669,26.2999992371,0.22439221075953175,-0.6110002364615384,0.17573317157792642,26.2999992371,-0.06560984495527027,0.6884947475871955,2.0158794221550456
1648126026296111456,51302,14,7,0.78207463026,0.316446185112,-0.0177419874817,-0.404594063759,26.2999992371,0.2615634214916388,0.10583484451906354,-0.005933775077491639,26.2999992371,-0.05467487348094594,0.38474908867884244,0.8438564412789978
1648126026296116958,51303,14,8,0.569553732872,0.152362972498,0.154355630279,-0.242756426334,26.2999992371,0.1904861982849498,0.05095751588561872,0.05162395661505017,26.2999992371,-0.03280492247756756,0.27416537326828766,0.6094518771943221
1648126026296121885,51304,14,9,0.777256846428,0.124527432024,0.124638542533,-0.242756426334,26.2999992371,0.25995212255117056,0.04164797057658863,0.0416851312819398,26.2999992371,-0.03280492247756756,0.3699794122527171,0.7969755660811955
1648126026490814158,51305,16,0,0.0126256523654,0.0439508594573,0.010331267491,0.0,29.5,0.004222626209163879,0.014699284099431437,0.0034552734083612034,29.5,0.0,0.015866004451040385,0.04688091544176436
1648126026490821869,51306,16,1,0.0328039452434,0.0146502861753,-0.0301179438829,0.0,29.5,0.010971219144949832,0.0048997612626421405,-0.010072890930735786,29.5,0.0,0.016270923744026212,0.04688091565108008
1648126026490825095,51307,16,2,0.662033975124,0.046880915761,0.34950709343,0.0,29.5,0.22141604519197322,0.015679236040468225,0.11689200449163879,29.5,0.0,0.3135218789490146,0.7500946692511298
1648126026490892295,51308,16,3,0.281381398439,-1.58955609798,0.294050693512,0.0,29.5,0.0941074911167224,-0.5316241130367892,0.09834471354916388,29.5,0.0,0.5480297777773766,1.6408320725679941
1648126026490897111,51309,16,4,2.42398333549,-0.902457654476,0.44971126318,0.0,29.5,0.810696767722408,-0.30182530250033446,0.1504051047424749,29.5,0.0,1.1855618970009698,2.6253314550902904
1648126026490899641,51310,16,5,0.628251671791,-0.082041606307,0.171294599771,0.404594063759,29.5,0.21011761598361203,-0.027438664316722407,0.05728916380301003,29.5,0.05467487348094594,0.2984153236560735,0.6563328638612623
1648126026490977470,51311,16,6,0.120442330837,-1.86205136776,0.461296319962,-0.323675245047,29.5,0.04028171599899665,-0.6227596547692307,0.1542797056729097,29.5,-0.04373989797932432,0.6253597531788715,1.92211756821606
1648126026490980023,51312,16,7,1.79043519497,-0.228544458747,-1.63860154152,-0.161837622523,29.5,0.5988077575150501,-0.07643627382842809,-0.5480272714113712,29.5,-0.021869948989594594,0.8502846375639046,2.4378075742114964
1648126026595856963,51313,17,0,0.0126256523654,0.0439508594573,0.010331267491,0.0,17.3999996185,0.004222626209163879,0.014699284099431437,0.0034552734083612034,17.3999996185,0.0,0.015866004451040385,0.04688091544176436
1648126026595871077,51314,17,1,0.032842002809,0.0146502861753,-0.0300764385611,0.0,17.3999996185,0.010983947427759197,0.0048997612626421405,-0.010059009552207357,17.3999996185,0.0,0.016288089594008386,0.04688091498727572
1648126026595877962,51315,17,2,0.27888122201,-1.58955609798,0.296422958374,0.0,17.3999996185,0.0932713117090301,-0.5316241130367892,0.09913811316856187,17.3999996185,0.0,0.5477438020991191,1.6408320739388258
1648126026595891752,51316,17,3,1.88744187355,-1.31852579117,0.440004914999,0.0,17.3999996185,0.6312514627257525,-0.44097852547491634,0.14715883444782607,17.3999996185,0.0,0.9957001949968854,2.344045949471487
1648126026595901961,51317,17,4,0.731896221638,0.0249054860324,0.314448237419,0.0809188112617,17.3999996185,0.24478134502943144,0.00832959399076923,0.10516663458829431,17.3999996185,0.010934974494824324,0.3462732965229721,0.7969755683196358
1648126026595969433,51318,17,5,0.59795153141,-0.143572807312,0.229376494884,0.404594063759,17.3999996185,0.19998378976923076,-0.0480176613083612,0.07671454678394649,17.3999996185,0.05467487348094594,0.2868670914177021,0.6563328129236589
1648126026596001922,51319,17,6,0.7382183671,-0.093761831522,0.0942568182945,-0.566431701183,17.3999996185,0.24689577494983275,-0.03135847208093645,0.031524019496488295,17.3999996185,-0.07654482448418919,0.35056868249660833,0.7500946516068172
1648126026596030309,51320,17,7,0.243715688586,-1.3214558363,-1.37437009811,-0.242756426334,17.3999996185,0.08151026374113712,-0.4419584736789297,-0.45965555120735785,17.3999996185,-0.03280492247756756,0.4567440625196005,1.9221175902460212
1648126026596036481,51321,17,8,0.549038052559,1.80198526382,0.382023900747,-0.242756426334,17.3999996185,0.18362476674214043,0.6026706567959866,0.12776719088528427,17.3999996185,-0.03280492247756756,0.656237785017837,1.9221175653232474
1648126026596049467,51322,17,9,0.458402752876,-0.0747164562345,-2.34538149834,-0.161837622523,17.3999996185,0.15331195748361204,-0.024988781349331104,-0.7844085278729097,17.3999996185,-0.021869948989594594,0.2182511209781943,2.39092659975837
1648126026596060514,51323,17,10,0.379340469837,-1.64376199245,-1.69430732727,-0.161837622523,17.3999996185,0.12686972235351168,-0.5497531747324415,-0.566657968986622,17.3999996185,-0.021869948989594594,0.5782909354542163,2.390926598438388
1648126026791005035,51324,19,0,0.0126256523654,0.0439508594573,0.010331267491,0.0,18.8999996185,0.004222626209163879,0.014699284099431437,0.0034552734083612034,18.8999996185,0.0,0.015866004451040385,0.04688091544176436
1648126026791018580,51325,19,1,0.0328039452434,0.0146502861753,-0.0301179438829,0.0,18.8999996185,0.010971219144949832,0.0048997612626421405,-0.010072890930735786,18.8999996185,0.0,0.016270923744026212,0.04688091565108008
1648126026791119174,51326,19,2,0.271983087063,-1.58955609798,0.302764773369,0.0,18.8999996185,0.09096424316488294,-0.5316241130367892,0.10125912152809363,18.8999996185,0.0,0.5469672610232469,1.640832074365596
1648126026791122247,51327,19,3,1.87935936451,-1.31852579117,0.47333881259,0.0,18.8999996185,0.628548282444816,-0.44097852547491634,0.158307295180602,18.8999996185,0.0,0.9922741287863388,2.3440459710628576
1648126026791127963,51328,19,4,0.66559112072,-0.234404578805,0.254332333803,0.242756426334,18.8999996185,0.22260572599331102,-0.07839618020234114,0.08506098120501672,18.8999996185,0.03280492247756756,0.32442653954375567,0.7500946490701929
1648126026791140041,51329,19,5,1.68838715553,-0.108412116766,0.382637649775,0.566431701183,18.8999996185,0.5646779784381271,-0.03625823303210702,0.1279724581187291,18.8999996185,0.07654482448418919,0.7993979597975907,1.7345938847596878
1648126026791204126,51330,19,6,0.765170991421,-0.527410328388,1.62876152992,-0.161837622523,18.8999996185,0.25591003057558526,-0.1763914141765886,0.544736297632107,18.8999996185,-0.021869948989594594,0.4026087660416881,1.8752366309215147
1648126026896239040,51331,20,0,0.0126256523654,0.0439508594573,0.010331267491,0.0,26.2000007629,0.004222626209163879,0.014699284099431437,0.0034552734083612034,26.2000007629,0.0,0.015866004451040385,0.04688091544176436
1648126026896258561,51332,20,1,0.0328039452434,0.0146502861753,-0.0301179438829,0.0,26.2000007629,0.010971219144949832,0.0048997612626421405,-0.010072890930735786,26.2000007629,0.0,0.016270923744026212,0.04688091565108008
1648126026896264337,51333,20,2,0.280733644962,-1.58955609798,0.294669181108,0.0,26.2000007629,0.09389085115785951,-0.5316241130367892,0.09855156558795986,26.2000007629,0.0,0.5479554556936609,1.640832073776568
1648126026896268561,51334,20,3,0.672582685947,-0.257845044136,0.209261596203,0.242756426334,26.2000007629,0.22494404212274247,-0.08623580071438126,0.06998715592073577,26.2000007629,0.03280492247756756,0.32960014790331443,0.7500946286080203
1648126026896271933,51335,20,4,0.836725950241,-0.167013257742,0.255752593279,0.485512852669,26.2000007629,0.2798414549301003,-0.05585727683678929,0.08553598437424749,26.2000007629,0.06560984495527027,0.39967801436958283,0.8907374096989716
1648126027091015938,51336,22,0,0.0126256523654,0.0439508594573,0.010331267491,0.0,49.9000015259,0.004222626209163879,0.014699284099431437,0.0034552734083612034,49.9000015259,0.0,0.015866004451040385,0.04688091544176436
1648126027091020968,51337,22,1,0.0328039452434,0.0146502861753,-0.0301179438829,0.0,49.9000015259,0.010971219144949832,0.0048997612626421405,-0.010072890930735786,49.9000015259,0.0,0.016270923744026212,0.04688091565108008
1648126027091145973,51338,22,2,0.276713192463,-1.58955609798,0.298447847366,0.0,49.9000015259,0.09254621821505017,-0.5316241130367892,0.09981533356722407,49.9000015259,0.0,0.5474977649031713,1.6408320746212477
1648126027091150579,51339,22,3,1.79192721844,-1.39177727699,0.58864569664,0.0,49.9000015259,0.5993067620200668,-0.4654773501638796,0.19687147044816053,49.9000015259,0.0,0.9669572656128816,2.344045840231075
1648126027091152512,51340,22,4,0.704181551933,-0.323771327734,0.185662418604,0.161837622523,49.9000015259,0.23551222472675584,-0.10828472499464883,0.062094454382608695,49.9000015259,0.021869948989594594,0.350225067147768,0.7969755732939954
1648126027091154270,51341,22,5,0.640950739384,-0.356001973152,1.03182160854,0.242756426334,49.9000015259,0.214364795780602,-0.11906420506755852,0.3450908389765886,49.9000015259,0.03280492247756756,0.32570050087233215,1.2657847712210346
1648126027091174355,51342,22,6,0.705626130104,-0.290075659752,0.360612779856,0.323675245047,49.9000015259,0.23599536123879597,-0.09701527082006689,0.1206062808882943,49.9000015259,0.04373989797932432,0.3475623452342767,0.8438564456479414
1648126027091246724,51343,22,7,0.899280369282,-0.263705164194,0.0297068525106,0.323675245047,49.9000015259,0.30076266531170565,-0.0881957070882943,0.009935402177458193,49.9000015259,0.04373989797932432,0.4343901983696298,0.9376183089534041
1648126027091250862,51344,22,8,0.95484238863,-0.370652228594,-0.336956560612,0.566431701183,49.9000015259,0.3193452804782609,-0.12396395605150501,-0.11269450187692308,49.9000015259,0.07654482448418919,0.4683266794956462,1.0782610006050535
1648126027195934989,51345,23,0,0.0126256523654,0.0439508594573,0.010331267491,0.0,22.1000003815,0.004222626209163879,0.014699284099431437,0.0034552734083612034,22.1000003815,0.0,0.015866004451040385,0.04688091544176436
1648126027195942557,51346,23,1,0.0327914953232,0.0146502861753,-0.0301314946264,0.0,22.1000003815,0.010967055292040133,0.0048997612626421405,-0.010077422951973244,22.1000003815,0.0,0.01626530860414949,0.046880913162719064
1648126027195944801,51347,23,2,0.279444813728,-1.58955609798,0.295891702175,0.0,22.1000003815,0.09345980392240802,-0.5316241130367892,0.09896043551003343,22.1000003815,0.0,0.5478080571336851,1.6408320730534551
1648126027195949490,51348,23,3,0.694386839867,-0.348676800728,0.177260890603,0.242756426334,22.1000003815,0.23223640129331102,-0.11661431462474915,0.05928457879698996,22.1000003815,0.03280492247756756,0.3485202871379736,0.7969755442193699
1648126027195953805,51349,23,4,0.871073544025,-0.32230630517,0.128364980221,0.242756426334,22.1000003815,0.29132894448996655,-0.10779475089297658,0.04293143151204014,22.1000003815,0.03280492247756756,0.4258694824888899,0.9376182813916059
1648126027195966399,51350,23,5,1.36478292942,-1.14272224903,0.41765743494,-0.0809188112617,22.1000003815,0.4564491402742475,-0.3821813541906354,0.13968476084949832,22.1000003815,-0.010934974494824324,0.750169462725048,1.8283556316606127
1648126027390922451,51351,25,0,0.00652140192688,0.0454158857465,0.00962750613689,0.0,11.5,0.0021810708785551837,0.015189259446989964,0.0032199017180234114,11.5,0.0,0.015499282012484863,0.046880915473643536
1648126027390926771,51352,25,1,0.0327914953232,0.0146502861753,-0.0301314946264,0.0,11.5,0.010967055292040133,0.0048997612626421405,-0.010077422951973244,11.5,0.0,0.01626530860414949,0.046880913162719064
1648126027391077126,51353,25,2,0.82125544548,-0.386767566204,0.489586949348,0.0,11.5,0.2746673730702341,-0.1293537010715719,0.16374145463143813,11.5,0.0,0.40941019972580056,1.031380161710414
1648126027391081038,51354,25,3,0.282016545534,-1.58955609798,0.293441593647,0.0,11.5,0.09431991489431438,-0.5316241130367892,0.09814100121973243,11.5,0.0,0.5481028099303034,1.6408320722921117
1648126027391085876,51355,25,4,0.866140842438,-0.430718421936,0.183085769415,0.161837622523,11.5,0.28967921151772574,-0.14405298392508362,0.061232698801003335,11.5,0.021869948989594594,0.4342572432887942,0.9844992213793412
1648126027391159218,51356,25,5,1.13056278229,-0.41899818182,-0.178870484233,0.161837622523,11.5,0.3781146429063545,-0.14013317117725752,-0.059822904425752506,11.5,0.021869948989594594,0.5527917076300933,1.2189037415635082
1648126027391163725,51357,25,6,1.28651547432,-1.25699448586,0.328218370676,-0.161837622523,11.5,0.4302727338862876,-0.4203994935986622,0.1097720303264214,11.5,-0.021869948989594594,0.739597853748895,1.82835568257286
1648126027496068341,51358,26,0,0.0126355709508,0.0439508594573,0.0103191342205,0.0,20.1000003815,0.00422594346180602,0.014699284099431437,0.003451215458361204,20.1000003815,0.0,0.015867770773506908,0.04688091542780209
1648126027496076590,51359,26,1,0.0328039452434,0.0146502861753,-0.0301179438829,0.0,20.1000003815,0.010971219144949832,0.0048997612626421405,-0.010072890930735786,20.1000003815,0.0,0.016270923744026212,0.04688091565108008
1648126027496080121,51360,26,2,0.911047518253,-0.483459472656,0.00209409301169,0.0,20.1000003815,0.3046981666397993,-0.16169213132307692,0.0007003655557491639,20.1000003815,0.0,0.46024590257720815,1.0313801566063356
1648126027496083158,51361,26,3,1.68136882782,-1.50751447678,0.421147584915,0.0,20.1000003815,0.562330711645485,-0.5041854437391304,0.14085203508862876,20.1000003815,0.0,0.941612776144132,2.29716484413849
1648126027496086517,51362,26,4,0.708273231983,-0.501039803028,0.201795324683,0.242756426334,20.1000003815,0.23688067959297657,-0.16757184047759197,0.06749007514481604,20.1000003815,0.03280492247756756,0.37457340328687033,0.8907374520170906
1648126027496111006,51363,26,5,1.1682921648,-0.451228827238,-0.393163025379,0.323675245047,20.1000003815,0.3907331654849498,-0.15091265125016723,-0.13149265062842808,20.1000003815,0.04373989797932432,0.5728171100160442,1.3126656853094085
1648126027496161864,51364,26,6,0.937454164028,0.0410208031535,0.91792601347,0.323675245047,20.1000003815,0.31352982074515046,0.013719332158361203,0.3069986667123746,20.1000003815,0.04373989797932432,0.4436103211917457,1.3126656779811534
1648126027496164106,51365,26,7,1.20118272305,-1.24673938751,0.107782676816,-0.242756426334,20.1000003815,0.40173335219063544,-0.41696969481939794,0.0360477179986622,20.1000003815,-0.03280492247756756,0.704729096123065,1.7345939409395634
