%time,field.header.seq,field.header.frame_id,field.point_id,field.x,field.y,field.z,field.velocity,field.intensity,normalized_x,normalized_y,normalized_z,normalized_intensity,normalized_velocity,normalized_range,range
1648125876694514938,42176,0,0,0.0125683275983,0.0439508594573,0.0104009294882,0.0,20.8999996185,0.004203454046254181,0.014699284099431437,0.003478571735183946,20.8999996185,0.0,0.01585581927475648,0.046880915518705844
1648125876694537388,42177,0,1,0.0328498929739,0.0146502861753,-0.030067820102,0.0,20.8999996185,0.01098658627889632,0.0048997612626421405,-0.010056127124414714,20.8999996185,0.0,0.01629164867526164,0.04688091465725798
1648125876694668661,42178,0,2,1.32621371746,0.131852582097,0.449233233929,0.0,20.8999996185,0.4435497382809364,0.04409785354414715,0.15024522873879598,20.8999996185,0.0,0.6288222016956585,1.4064275403486048
1648125876694673066,42179,0,3,1.88139557838,-1.31852579117,0.465178996325,0.0,20.8999996185,0.6292292904280936,-0.44097852547491634,0.1555782596404682,20.8999996185,0.0,0.9931369793715848,2.34404587901991
1648125876694680867,42180,0,4,2.41516947746,-0.902457654476,0.494865715504,0.0,20.8999996185,0.8077489891170568,-0.30182530250033446,0.16550692826220734,20.8999996185,0.0,1.181530944185836,2.625331502755037
1648125876694684372,42181,0,5,1.63582324982,-0.105482056737,0.401659727097,0.0809188112617,20.8999996185,0.5470980768628763,-0.035278279845150494,0.13433435688862874,20.8999996185,0.010934974494824324,0.7745173777540101,1.6877128622241315
1648125876694691770,42182,0,6,1.57569956779,0.36918720603,0.478797078133,-0.242756426334,20.8999996185,0.5269898220033444,0.12347398194983276,0.16013280205117056,20.8999996185,-0.03280492247756756,0.7554352184064369,1.6877129385824263
1648125876694695031,42183,0,7,1.54657101631,-0.0,0.0393009968102,-0.0809188112617,20.8999996185,0.517247831541806,-0.0,0.013144146090367893,20.8999996185,-0.010934974494824324,0.731498898474496,1.5470702882676084
1648125876889633544,42184,2,0,0.0125994505361,0.0439508594573,0.0103632062674,0.0,18.6000003815,0.004213863055551839,0.014699284099431437,0.003465955273377926,18.6000003815,0.0,0.01586134410249293,0.04688091557326548
1648125876889666657,42185,2,1,0.0328722037375,0.0146502861753,-0.0300434287637,0.0,18.6000003815,0.010994048072742475,0.0048997612626421405,-0.01004796948618729,18.6000003815,0.0,0.01630171299227273,0.04688091589823531
1648125876889673255,42186,2,2,0.163754031062,-0.380907416344,-0.446683079004,0.0,18.6000003815,0.05476723446889632,-0.12739378473043478,-0.14939233411505015,18.6000003815,0.0,0.14909083248371272,0.6094518976780773
1648125876889698036,42187,2,3,1.87179911137,-1.31852579117,0.502403140068,0.0,18.6000003815,0.6260197696889632,-0.44097852547491634,0.16802780604280937,18.6000003815,0.0,0.9890720722034753,2.3440458806209796
1648125876889702220,42188,2,4,2.41712832451,-0.902457654476,0.485207825899,0.0,18.6000003815,0.808404121909699,-0.30182530250033446,0.16227686484916387,18.6000003815,0.0,1.1824267257934427,2.625331558029286
1648125876889710787,42189,2,5,1.54628324509,-0.0483459457755,0.00986819434911,0.0809188112617,18.6000003815,0.517151586986622,-0.016169212633946488,0.003300399447862876,18.6000003815,0.010934974494824324,0.7315415034588025,1.547070323475536
1648125876889721113,42190,2,6,1.68675649166,-0.108412116766,0.389763236046,0.161837622523,18.6000003815,0.5641326059063545,-0.03625823303210702,0.13035559733979932,18.6000003815,0.021869948989594594,0.7986274810924046,1.7345939090726354
1648125876889726877,42191,2,7,1.48282015324,0.290075659752,0.332456052303,-0.566431701183,18.6000003815,0.49592647265551837,0.09701527082006689,0.11118931515150501,18.6000003815,-0.07654482448418919,0.708024078215833,1.5470703028460442
1648125876889731071,42192,2,8,1.34373581409,0.0879017189145,0.405814796686,-0.161837622523,18.6000003815,0.4494099712675585,0.02939856819882943,0.1357240122695652,18.6000003815,-0.021869948989594594,0.6362412438388105,1.40642749527501
1648125876993979354,42193,3,0,0.0126674417406,0.0439508594573,0.0102799860761,0.0,39.5,0.004236602588829431,0.014699284099431437,0.0034381224334782603,39.5,0.0,0.015873454445304285,0.04688091553086012
1648125876993985889,42194,3,1,0.0329373031855,0.0146502861753,-0.0299720410258,0.0,39.5,0.011015820463377925,0.0048997612626421405,-0.010024093988561873,39.5,0.0,0.016331082676713148,0.04688091370060926
1648125876993988713,42195,3,2,1.54082739353,-0.0483459457755,-0.130153760314,0.0,39.5,0.5153268874682274,-0.016169212633946488,-0.04352968572374582,39.5,0.0,0.7289616213029215,1.547070259700333
1648125876994017657,42196,3,3,0.472687900066,-1.53828001022,0.320297807455,0.0,39.5,0.1580895986842809,-0.51447491980602,0.10712301252675585,39.5,0.0,0.56095372851397,1.6408320834782968
1648125876994021937,42197,3,4,2.41937589645,-0.902457654476,0.473872512579,0.0,39.5,0.8091558182107023,-0.30182530250033446,0.15848579016020065,39.5,0.0,1.1834545996859704,2.625331351396143
1648125876994114599,42198,3,5,1.66874504089,-0.162618175149,0.444591104984,0.0809188112617,39.5,0.5581087093277591,-0.05438734954816053,0.14869267725217392,39.5,0.010934974494824324,0.7911565247445463,1.7345938812917139
1648125876994172730,42199,3,6,1.66735470295,-0.210964113474,0.154263496399,0.485512852669,39.5,0.557643713361204,-0.07055655969030099,0.0515931426083612,39.5,0.06560984495527027,0.7917772731127588,1.6877128869996216
1648125876994177181,42200,3,7,1.33902311325,0.0879017189145,0.421104252338,-0.242756426334,39.5,0.44783381714046816,0.02939856819882943,0.14083754258795986,39.5,-0.03280492247756756,0.6340146144698446,1.4064275314935326
1648125877093979276,42201,4,0,0.0126674417406,0.0439508594573,0.0102799860761,0.0,40.9000015259,0.004236602588829431,0.014699284099431437,0.0034381224334782603,40.9000015259,0.0,0.015873454445304285,0.04688091553086012
1648125877093985923,42202,4,1,0.0329373031855,0.0146502861753,-0.0299720410258,0.0,40.9000015259,0.011015820463377925,0.0048997612626421405,-0.010024093988561873,40.9000015259,0.0,0.016331082676713148,0.04688091370060926
1648125877093990861,42203,4,2,0.293739169836,-1.58955609798,0.281706601381,0.0,40.9000015259,0.09824052502876254,-0.5316241130367892,0.09421625464247492,40.9000015259,0.0,0.5494784791763975,1.6408320748275795
1648125877093992865,42204,4,3,1.90164220333,-1.24527442455,0.572363495827,0.0,40.9000015259,0.6360007368996655,-0.4164797406521739,0.19142591833678926,40.9000015259,0.0,0.9911857792803209,2.3440459537473695
1648125877094113209,42205,4,4,2.38992547989,-0.984499275684,0.459763526917,0.0,40.9000015259,0.7993061805652173,-0.32926397180066885,0.15376706585852842,40.9000015259,0.0,1.1773680408884313,2.6253314312545237
1648125877094117550,42206,4,5,1.70735275745,-0.162618175149,0.259456396103,0.242756426334,40.9000015259,0.5710209891137124,-0.05438734954816053,0.08677471441571905,40.9000015259,0.03280492247756756,0.8093750204989517,1.7345938229855618
1648125877094127608,42207,4,6,1.30805540085,0.254914969206,0.26902833581,-0.647350490093,40.9000015259,0.4374767226923077,0.0852558425438127,0.08997603204347826,40.9000015259,-0.08747979595851352,0.6245320844304638,1.359546548922415
1648125877094187232,42208,4,7,1.37511599064,0.181663542986,0.433773428202,-0.566431701183,40.9000015259,0.45990501359197317,0.06075703778795986,0.14507472515117056,40.9000015259,-0.07654482448418919,0.6532355323272254,1.4533083009389887
1648125877094190082,42209,4,8,0.397773325443,-1.40642750263,-1.71099853516,-0.485512852669,40.9000015259,0.1330345570043478,-0.47037709118060195,-0.5722403127625417,40.9000015259,-0.06560984495527027,0.5066073377105887,2.25028396561583
1648125877094305536,42210,4,9,1.32101762295,-0.0,0.321370899677,-0.323675245047,40.9000015259,0.4418119140301003,-0.0,0.10748190624648829,40.9000015259,-0.04373989797932432,0.6248164008393837,1.3595465476781854
1648125877094312019,42211,4,10,1.49388194084,-0.0,0.555874824524,-0.242756426334,40.9000015259,0.4996260671705685,-0.0,0.18591131254983279,40.9000015259,-0.03280492247756756,0.706577960307749,1.5939510888692516
1648125877094316372,42212,4,11,1.40928018093,0.079111546278,-2.10155057907,-0.242756426334,40.9000015259,0.4713311641906354,0.026458711129765885,-0.7028597254414715,40.9000015259,-0.03280492247756756,0.6670878473403993,2.53156949371453
1648125877194423903,42213,5,0,0.0125994505361,0.0439508594573,0.0103632062674,0.0,17.2000007629,0.004213863055551839,0.014699284099431437,0.003465955273377926,17.2000007629,0.0,0.01586134410249293,0.04688091557326548
1648125877194463823,42214,5,1,0.0328498929739,0.0146502861753,-0.030067820102,0.0,17.2000007629,0.01098658627889632,0.0048997612626421405,-0.010056127124414714,17.2000007629,0.0,0.01629164867526164,0.04688091465725798
1648125877194484121,42215,5,2,0.289483934641,-1.58955609798,0.286077558994,0.0,17.2000007629,0.09681736944515049,-0.5316241130367892,0.09567811337591972,17.2000007629,0.0,0.5489730445246929,1.640832077575461
1648125877194486101,42216,5,3,2.38889193535,-0.984499275684,0.465103298426,0.0,17.2000007629,0.7989605134949833,-0.32926397180066885,0.1555529426173913,17.2000007629,0.0,1.176898707355177,2.625331327815469
1648125877194488233,42217,5,4,1.29309558868,0.164083212614,0.155150711536,-0.647350490093,17.2000007629,0.43247344103010027,0.054877328633444813,0.051889870078929756,17.2000007629,-0.08747979595851352,0.6140668331629501,1.3126657020793733
1648125877194645965,42218,5,5,0.689807653427,2.06569027901,0.334773987532,-0.566431701183,17.2000007629,0.23070490081170567,0.6908663140501672,0.1119645443250836,17.2000007629,-0.07654482448418919,0.7640325689434595,2.203402947772139
1648125877194657315,42219,5,6,1.41508579254,-0.0,0.33111512661,-0.485512852669,17.2000007629,0.4732728403143812,-0.0,0.11074084502006687,17.2000007629,-0.06560984495527027,0.669308869475434,1.453308304290083
1648125877194695963,42220,5,7,2.37367796898,-0.69881862402,0.225792214274,-0.323675245047,17.2000007629,0.7938722304280936,-0.23371860335117053,0.0755157907270903,17.2000007629,-0.04373989797932432,1.1467740065253371,2.4846884500325146
1648125877194719818,42221,5,8,1.32326543331,-0.0424858294427,0.309079647064,-0.242756426334,17.2000007629,0.4425636900702341,-0.01420930750591973,0.10337111941939799,17.2000007629,-0.03280492247756756,0.6260408484731346,1.3595464982580563
1648125877194730029,42222,5,9,1.42742335796,-0.0498109720647,0.707574486732,-0.161837622523,17.2000007629,0.4773991163745819,-0.016659187981505015,0.23664698552909696,17.2000007629,-0.021869948989594594,0.6753498065259709,1.5939511379154274
1648125877389567221,42223,7,0,0.0125994505361,0.0439508594573,0.0103632062674,0.0,16.7999992371,0.004213863055551839,0.014699284099431437,0.003465955273377926,16.7999992371,0.0,0.01586134410249293,0.04688091557326548
1648125877389573822,42224,7,1,0.0329244062304,0.0146502861753,-0.0299862083048,0.0,16.7999992371,0.011011507100468228,0.0048997612626421405,-0.010028832208963211,16.7999992371,0.0,0.016325263785869217,0.046880914017768956
1648125877389733385,42225,7,2,0.189904376864,-0.380907416344,-0.436208069324,0.0,16.7999992371,0.06351316951973243,-0.12739378473043478,-0.14588898639598663,16.7999992371,0.0,0.1558750197845341,0.609451894673679
1648125877389739977,42226,7,3,0.29787710309,-1.58955609798,0.277327477932,0.0,16.7999992371,0.09962444919397992,-0.5316241130367892,0.09275166486020067,16.7999992371,0.0,0.549976598880862,1.6408320715986808
1648125877389748920,42227,7,4,1.91039955616,-1.17202293873,0.686503410339,0.0,16.7999992371,0.638929617444816,-0.3919809159632107,0.2295998027889632,16.7999992371,0.0,0.9849422067186052,2.3440458966267506
1648125877389751972,42228,7,5,2.41314721107,-0.902457654476,0.504634559155,0.0,16.7999992371,0.8070726458428094,-0.30182530250033446,0.16877410005183946,16.7999992371,0.0,1.1806062106243742,2.625331468350388
1648125877389768878,42229,7,6,1.3679060936,-0.307656019926,0.110539138317,0.0809188112617,16.7999992371,0.45749367678929764,-0.10289498994180601,0.036969611477257525,16.7999992371,0.010934974494824324,0.6551246503983078,1.4064274629729698
1648125877389776097,42230,7,7,1.28734135628,-0.123062409461,0.225164368749,-0.323675245047,16.7999992371,0.43054894858862874,-0.041157996475250834,0.07530580894615384,16.7999992371,-0.04373989797932432,0.6102776211982577,1.3126656532283125
1648125877389797958,42231,7,8,2.30581378937,-0.761814832687,0.213932529092,-0.161837622523,16.7999992371,0.7711751803913044,-0.2547875694605351,0.07154934083344482,16.7999992371,-0.021869948989594594,1.1199727779078956,2.4378076621330202
1648125877494698440,42232,8,0,0.0125683275983,0.0439508594573,0.0104009294882,0.0,22.1000003815,0.004203454046254181,0.014699284099431437,0.003478571735183946,22.1000003815,0.0,0.01585581927475648,0.046880915518705844
1648125877494720197,42233,8,1,0.0329373031855,0.0146502861753,-0.0299720410258,0.0,22.1000003815,0.011015820463377925,0.0048997612626421405,-0.010024093988561873,22.1000003815,0.0,0.016331082676713148,0.04688091370060926
1648125877494723760,42234,8,2,0.202213510871,-0.380907416344,-0.430640041828,0.0,22.1000003815,0.06762993674615385,-0.12739378473043478,-0.14402676984214044,22.1000003815,0.0,0.15930095127312296,0.6094518926299753
1648125877494745671,42235,8,3,1.39874529839,-0.363327085972,0.153656631708,0.0809188112617,22.1000003815,0.4678077921036789,-0.12151407557591971,0.05139017782876254,22.1000003815,0.010934974494824324,0.6726469588639408,1.4533084124289941
1648125877494749273,42236,8,4,1.27368450165,-0.164083212614,0.271837681532,-0.242756426334,22.1000003815,0.42598143867892974,-0.054877328633444813,0.09091561255250835,22.1000003815,-0.03280492247756756,0.6049230474993366,1.3126656983047258
1648125877494758528,42237,8,5,2.24762010574,-0.914177834988,0.235347315669,-0.242756426334,22.1000003815,0.7517124099464881,-0.30574509531371236,0.07871147681237457,22.1000003815,-0.03280492247756756,1.1061750123029832,2.4378075421785534
1648125877494766838,42238,8,6,1.27678334713,-0.219754293561,0.547330677509,-0.161837622523,22.1000003815,0.4270178418494983,-0.07349641925117056,0.1830537382973244,22.1000003815,-0.021869948989594594,0.6083503909412323,1.4064275792195777
1648125877494888048,42239,8,7,1.29505300522,-0.338421612978,0.775715887547,-0.161837622523,22.1000003815,0.4331280953913043,-0.11318448594581938,0.2594367516879599,22.1000003815,-0.021869948989594594,0.6229049862486389,1.547070332161022
1648125877494907440,42240,8,8,1.6452755928,-0.487854540348,0.252749085426,-0.161837622523,22.1000003815,0.5502593955852842,-0.16316205362809363,0.08453146669765886,22.1000003815,-0.021869948989594594,0.795105439928505,1.734593880130225
1648125877594174566,42241,9,0,0.0125890737399,0.0439508594573,0.0103758089244,0.0,15.8000001907,0.004210392555150501,0.014699284099431437,0.003470170208829431,15.8000001907,0.0,0.01585950074790286,0.0468809154720728
1648125877594181054,42242,9,1,0.032885145396,0.0146502861753,-0.0300292614847,0.0,15.8000001907,0.010998376386622074,0.0048997612626421405,-0.010043231265785952,15.8000001907,0.0,0.016307551217595504,0.04688091528597467
1648125877594187115,42243,9,2,0.190901622176,-0.380907416344,-0.435772567987,0.0,15.8000001907,0.06384669637993311,-0.12739378473043478,-0.14574333377491638,15.8000001907,0.0,0.15614729477389958,0.6094519014534897
1648125877594201945,42244,9,3,1.23133277893,-0.276890397072,-0.0967601016164,0.0,15.8000001907,0.4118169829197324,-0.09260548397056856,-0.032361237998795984,15.8000001907,0.0,0.5897136851927769,1.2657848244164496
1648125877594209551,42245,9,4,1.15651547909,-0.146502867341,0.121023580432,-0.323675245047,15.8000001907,0.38679447461204014,-0.04899761449531772,0.040476113856856184,15.8000001907,-0.04373989797932432,0.5492000522642365,1.172022973552348
1648125877594336771,42246,9,5,1.24002707005,-0.205104023218,0.378624647856,-0.242756426334,15.8000001907,0.4147247725919732,-0.06859666328361204,0.12663031700869565,15.8000001907,-0.03280492247756756,0.5905072194449218,1.3126657681074332
1648125877594346411,42247,9,6,1.21792018414,-0.328166425228,0.812123894691,-0.161837622523,15.8000001907,0.40733116526421403,-0.10975465726688963,0.27161334270602006,15.8000001907,-0.021869948989594594,0.5864157579591268,1.5001893206894303
1648125877694202096,42248,10,0,0.0126571767032,0.0439508594573,0.0102926222607,0.0,21.6000003815,0.004233169465953177,0.014699284099431437,0.0034423485821739124,21.6000003815,0.0,0.015871622490809013,0.046880915542817876
1648125877694208640,42249,10,1,0.0329244062304,0.0146502861753,-0.0299862083048,0.0,21.6000003815,0.011011507100468228,0.0048997612626421405,-0.010028832208963211,21.6000003815,0.0,0.016325263785869217,0.046880914017768956
1648125877694225163,42250,10,2,0.163704112172,-0.380907416344,-0.44670137763,0.0,21.6000003815,0.054750539187959864,-0.12739378473043478,-0.14939845405685617,21.6000003815,0.0,0.14907856811322348,0.6094518987946662
1648125877694229916,42251,10,3,1.8719741106,-1.31852579117,0.501750946045,0.0,21.6000003815,0.6260782978595317,-0.44097852547491634,0.167809680951505,21.6000003815,0.0,0.9891461621173124,2.344045934830243
1648125877694276663,42252,10,4,1.89991235733,-1.17202293873,0.715015053749,0.0,21.6000003815,0.6354221930869565,-0.3919809159632107,0.23913546948127087,21.6000003815,0.0,0.9803936787914498,2.3440459171125956
1648125877694417678,42253,10,5,1.089599967,-0.24612480402,0.134680733085,-0.404594063759,21.6000003815,0.3644147046822742,-0.08231598796655518,0.04504372343979933,21.6000003815,-0.05467487348094594,0.5218927819507071,1.1251419497577173
1648125877694422679,42254,10,6,1.25125682354,-0.328166425228,0.75975728035,-0.323675245047,21.6000003815,0.4184805429899665,-0.10975465726688963,0.2540994248662207,21.6000003815,-0.04373989797932432,0.6019119657509118,1.5001893101029495
1648125877694425271,42255,10,7,1.18127596378,-0.316446185112,0.326588481665,-0.242756426334,21.6000003815,0.3950755731705686,-0.10583484451906354,0.10922691694481604,21.6000003815,-0.03280492247756756,0.5686566902327633,1.265784787012609
1648125877694689075,42256,10,8,1.97335326672,-0.67244809866,-1.17056393623,-0.242756426334,21.6000003815,0.6599843701404682,-0.2248990296521739,-0.3914929552608695,21.6000003815,-0.03280492247756756,0.9600720343796659,2.390926491857961
1648125877694813966,42257,10,9,0.973951935768,-1.64376199245,-1.43735659122,-0.242756426334,21.6000003815,0.3257364333672241,-0.5497531747324415,-0.4807212679665551,21.6000003815,-0.03280492247756756,0.7172426375878656,2.3909265633500763
1648125877794697282,42258,11,0,0.0125994505361,0.0439508594573,0.0103632062674,0.0,19.7999992371,0.004213863055551839,0.014699284099431437,0.003465955273377926,19.7999992371,0.0,0.01586134410249293,0.04688091557326548
1648125877794715019,42259,11,1,0.0329373031855,0.0146502861753,-0.0299720410258,0.0,19.7999992371,0.011015820463377925,0.0048997612626421405,-0.010024093988561873,19.7999992371,0.0,0.016331082676713148,0.04688091370060926
1648125877794718826,42260,11,2,0.295877814293,-1.58955609798,0.279459536076,0.0,19.7999992371,0.0989557907334448,-0.5316241130367892,0.09346472778461537,19.7999992371,0.0,0.5497351131240531,1.6408320760882327
1648125877794722642,42261,11,3,1.86620008945,-1.31852579117,0.52281755209,0.0,19.7999992371,0.6241471871070233,-0.44097852547491634,0.17485536859197323,19.7999992371,0.0,0.9867023270861636,2.3440459100915754
1648125877794728520,42262,11,4,1.67816317081,-0.98449921608,-0.302463710308,-0.485512852669,19.7999992371,0.5612585855551839,-0.3292639518662207,-0.10115843154113711,19.7999992371,-0.06560984495527027,0.8593236583019068,1.968998382523076
1648125877794800364,42263,11,5,1.09590780735,-0.369187235832,0.621110498905,-0.323675245047,19.7999992371,0.3665243502842809,-0.12347399191705685,0.20772926384782608,19.7999992371,-0.04373989797932432,0.5328470938107497,1.3126657568330087
1648125877794804416,42264,11,6,1.12375831604,-0.454158842564,0.801880478859,-0.323675245047,19.7999992371,0.3758389016856187,-0.15189258948628762,0.26818745112341136,19.7999992371,-0.04373989797932432,0.5527939207167117,1.4533084013805424
1648125877794809622,42265,11,7,1.14709794521,-0.380907416344,0.157487928867,-0.242756426334,19.7999992371,0.383644797729097,-0.12739378473043478,0.052671548116053506,19.7999992371,-0.03280492247756756,0.5573112577699681,1.2189038532508145
1648125877794812086,42266,11,8,0.608211100101,-0.366257160902,-2.23393964767,-0.242756426334,19.7999992371,0.20341508364581937,-0.12249403374648829,-0.747137005909699,19.7999992371,-0.03280492247756756,0.31266624508052865,2.34404594656974
1648125877794835144,42267,11,9,2.0249607563,-1.17202293873,0.142995268106,-0.242756426334,19.7999992371,0.6772444001003344,-0.3919809159632107,0.04782450438327759,19.7999992371,-0.03280492247756756,1.0348763179307376,2.344045963748382
1648125877989652610,42268,13,0,0.0125890737399,0.0439508594573,0.0103758089244,0.0,22.7999992371,0.004210392555150501,0.014699284099431437,0.003470170208829431,22.7999992371,0.0,0.01585950074790286,0.0468809154720728
1648125877989662848,42269,13,1,0.0329373031855,0.0146502861753,-0.0299720410258,0.0,22.7999992371,0.011015820463377925,0.0048997612626421405,-0.010024093988561873,22.7999992371,0.0,0.016331082676713148,0.04688091370060926
1648125877989665884,42270,13,2,0.492373079062,-1.53828001022,0.289125025272,0.0,22.7999992371,0.16467327058929765,-0.51447491980602,0.09669733286688963,22.7999992371,0.0,0.5647291520743044,1.6408320813130064
1648125877989672598,42271,13,3,1.74188315868,-1.53828012943,0.306738138199,0.0,22.7999992371,0.5825696182876254,-0.5144749596755852,0.10258800608662205,22.7999992371,0.0,0.9713182817371319,2.3440458571704563
1648125877989678354,42272,13,4,1.54791939259,-0.879017174244,-0.589734375477,-0.323675245047,22.7999992371,0.5176987935083612,-0.29398567700468226,-0.1972355770826087,22.7999992371,-0.04373989797932432,0.7889560570043981,1.8752365909909472
1648125877989683172,42273,13,5,1.03121185303,-0.512760043144,0.217524841428,-0.242756426334,22.7999992371,0.34488690736789296,-0.17149165322541807,0.07275078308628762,22.7999992371,-0.03280492247756756,0.5170138729991355,1.1720229538336184
1648125877989852578,42274,13,6,1.07165503502,-0.527410328388,0.742584764957,-0.161837622523,22.7999992371,0.35841305519063543,-0.1763914141765886,0.2483561086812709,22.7999992371,-0.021869948989594594,0.5366877744623849,1.4064274960766012
1648125877989862383,42275,13,7,0.973971486092,-0.404347896576,0.224786654115,-0.0809188112617,22.7999992371,0.3257429719371237,-0.13523341022608695,0.07517948298160534,22.7999992371,-0.010934974494824324,0.48010940708783933,1.0782609689003453
1648125878094608870,42276,14,0,0.0125683275983,0.0439508594573,0.0104009294882,0.0,30.1000003815,0.004203454046254181,0.014699284099431437,0.003478571735183946,30.1000003815,0.0,0.01585581927475648,0.046880915518705844
1648125878094611643,42277,14,1,0.0329373031855,0.0146502861753,-0.0299720410258,0.0,30.1000003815,0.011015820463377925,0.0048997612626421405,-0.010024093988561873,30.1000003815,0.0,0.016331082676713148,0.04688091370060926
1648125878094620880,42278,14,2,0.903382837772,-0.451228827238,0.209849923849,0.0,30.1000003815,0.30213472835183947,-0.15091265125016723,0.07018392101973243,30.1000003815,0.0,0.45315054502872915,1.0313801416795865
1648125878094623028,42279,14,3,0.301507055759,-1.58955609798,0.27337667346,0.0,30.1000003815,0.10083848018695651,-0.5316241130367892,0.09143032557190635,30.1000003815,0.0,0.5504189274861314,1.6408320751648902
1648125878094624856,42280,14,4,1.68128287792,-1.61153149605,0.266092509031,0.0,30.1000003815,0.5623019658595317,-0.5389737444983277,0.08899415017759198,30.1000003815,0.0,0.960655869121475,2.344045883021602
1648125878094626532,42281,14,5,1.45703017712,-1.08558619022,-0.203593611717,-0.323675245047,30.1000003815,0.4873010625819398,-0.36307230442140465,-0.0680915089354515,30.1000003815,-0.04373989797932432,0.7789391179192661,1.8283557291092685
1648125878094630434,42282,14,6,1.05734837055,-0.533270418644,0.288727372885,-0.0809188112617,30.1000003815,0.3536282175752508,-0.1783513105832776,0.09656433875752507,30.1000003815,-0.010934974494824324,0.5309567049371076,1.2189037746920637
1648125878289600276,42283,16,0,0.0126038333401,0.0439508594573,0.0103578744456,0.0,20.5,0.004215328876287625,0.014699284099431437,0.003464172055384615,20.5,0.0,0.01586212306427883,0.04688091535935669
1648125878289605920,42284,16,1,0.0329373031855,0.0146502861753,-0.0299720410258,0.0,20.5,0.011015820463377925,0.0048997612626421405,-0.010024093988561873,20.5,0.0,0.016331082676713148,0.04688091370060926
1648125878289608454,42285,16,2,2.41578650475,-0.902457654476,0.49184396863,0.0,20.5,0.8079553527591972,-0.30182530250033446,0.16449631057859532,20.5,0.0,1.1818131059240695,2.62533135892067
1648125878289617014,42286,16,3,0.993692457676,-0.586011469364,0.206890419126,0.0809188112617,20.5,0.33233861460735786,-0.19599045798127088,0.0691941201090301,20.5,0.010934974494824324,0.5092250672718147,1.172022946957292
1648125878289717723,42287,16,4,1.39860546589,-1.14272224903,0.284557670355,0.161837622523,20.5,0.4677610253812709,-0.3821813541906354,0.09516978941638796,20.5,0.021869948989594594,0.7639786261555123,1.8283556698310726
1648125878289725464,42288,16,5,0.930796802044,-0.50543487072,0.201989084482,0.242756426334,20.5,0.31130327827558524,-0.16904176278260868,0.06755487775317726,20.5,0.03280492247756756,0.47158729806357663,1.078260954261517
1648125878394614625,42289,17,0,0.0126775633544,0.0439508594573,0.0102675007656,0.0,38.5999984741,0.004239987743946488,0.014699284099431437,0.0034339467443478262,38.5999984741,0.0,0.01587526205054363,0.04688091543060736
1648125878394621819,42290,17,1,0.0329373031855,0.0146502861753,-0.0299720410258,0.0,38.5999984741,0.011015820463377925,0.0048997612626421405,-0.010024093988561873,38.5999984741,0.0,0.016331082676713148,0.04688091370060926
1648125878394625535,42291,17,2,0.212886527181,-0.380907416344,-0.425465017557,0.0,38.5999984741,0.07119950741839465,-0.12739378473043478,-0.14229599249397992,38.5999984741,0.0,0.16238200670390926,0.6094518967447934
1648125878394627543,42292,17,3,0.295508205891,-1.58955609798,0.279850333929,0.0,38.5999984741,0.0988321758832776,-0.5316241130367892,0.0935954294076923,38.5999984741,0.0,0.5496906362144066,1.6408320748249938
1648125878394636638,42293,17,4,2.4113368988,-0.902457654476,0.51321464777,0.0,38.5999984741,0.8064671902341137,-0.30182530250033446,0.1716436949063545,38.5999984741,0.0,1.1797784415209625,2.6253313566714604
1648125878394658393,42294,17,5,0.956050992012,-0.647542655468,0.390360623598,0.0809188112617,38.5999984741,0.31974949565618727,-0.21656944998929767,0.1305553925076923,38.5999984741,0.010934974494824324,0.5013799024825778,1.2189037724256568
1648125878394768082,42295,17,6,0.89344894886,-0.747164607048,0.788373231888,0.161837622523,38.5999984741,0.29881235747826085,-0.24988782844414714,0.26366997722006685,38.5999984741,0.021869948989594594,0.49093948381441416,1.4064275050644315
1648125878394777745,42296,17,7,0.985410034657,-0.586011469364,0.243301153183,0.242756426334,38.5999984741,0.3295685734638796,-0.19599045798127088,0.08137162313812708,38.5999984741,0.03280492247756756,0.5056116581426318,1.172022964693543
1648125878394780707,42297,17,8,0.974915266037,-0.527410328388,0.193191736937,0.323675245047,38.5999984741,0.3260586174036789,-0.1763914141765886,0.06461262104916388,38.5999984741,0.04373989797932432,0.493702719216346,1.1251419811130805
1648125878589645120,42298,19,0,0.0126775633544,0.0439508594573,0.0102675007656,0.0,38.0999984741,0.004239987743946488,0.014699284099431437,0.0034339467443478262,38.0999984741,0.0,0.01587526205054363,0.04688091543060736
1648125878589649737,42299,19,1,0.0329373031855,0.0146502861753,-0.0299720410258,0.0,38.0999984741,0.011015820463377925,0.0048997612626421405,-0.010024093988561873,38.0999984741,0.0,0.016331082676713148,0.04688091370060926
1648125878589745393,42300,19,2,0.119995176792,-0.399952799082,-0.443926274776,0.0,38.0999984741,0.040132166151170566,-0.13376347795384613,-0.14847032601204013,38.0999984741,0.0,0.1453060547750141,0.6094519024364159
1648125878589757238,42301,19,3,0.258179932833,-1.58955609798,0.31461790204,0.0,38.0999984741,0.08634780362307692,-0.5316241130367892,0.10522337860869564,38.0999984741,0.0,0.5454686828253403,1.6408320726470174
1648125878589782910,42302,19,4,2.41516041756,-0.902457654476,0.49490916729,0.0,38.0999984741,0.8077459590501672,-0.30182530250033446,0.16552146063210701,38.0999984741,0.0,1.181526801199688,2.62533135899806
1648125878589789839,42303,19,5,0.919208884239,-0.761814832687,0.245804041624,0.323675245047,38.0999984741,0.30742772048127087,-0.2547875694605351,0.08220870957324414,38.0999984741,0.04373989797932432,0.5039249072949538,1.2189037858028509
1648125878589797916,42304,19,6,0.369765937328,-0.779395282269,-0.989397466183,-0.566431701183,38.0999984741,0.12366753756789296,-0.2606673184846154,-0.33090216260301,38.0999984741,-0.07654482448418919,0.31390248584898517,1.3126656849786884
1648125878589801532,42305,19,7,1.23541033268,-0.287145614624,0.338230371475,-0.566431701183,38.0999984741,0.41318071327090294,-0.0960353226167224,0.11312052557692308,38.0999984741,-0.07654482448418919,0.5921649996649601,1.3126656384161273
1648125878694589840,42306,20,0,0.0125787733123,0.0439508594573,0.0103882942349,0.0,37.9000015259,0.004206947596086956,0.014699284099431437,0.003474345897959866,37.9000015259,0.0,0.01585767224999437,0.04688091554341088
1648125878694601957,42307,20,1,0.0329373031855,0.0146502861753,-0.0299720410258,0.0,37.9000015259,0.011015820463377925,0.0048997612626421405,-0.010024093988561873,37.9000015259,0.0,0.016331082676713148,0.04688091370060926
1648125878694607143,42308,20,2,0.0999315306544,-0.399952799082,-0.448868662119,0.0,37.9000015259,0.03342191660682274,-0.13376347795384613,-0.15012329836755853,37.9000015259,0.0,0.1418686612809746,0.609451907983689
1648125878694610018,42309,20,3,2.41900897026,-0.902457654476,0.4757424891,0.0,37.9000015259,0.8090331004214046,-0.30182530250033446,0.15911120036789297,37.9000015259,0.0,1.1832867904208006,2.6253314328396202
1648125878694616069,42310,20,4,0.904628276825,-0.83067125082,0.306339651346,0.161837622523,37.9000015259,0.3025512631521739,-0.2778164718461538,0.10245473289163878,37.9000015259,0.021869948989594594,0.5101534334874135,1.2657847479555997
1648125878694640097,42311,20,5,0.620908975601,-0.879017174244,-0.905449688435,-0.647350490093,37.9000015259,0.20766186474949833,-0.29398567700468226,-0.30282598275418054,37.9000015259,-0.08747979595851352,0.4155411874006946,1.4064274908024332
1648125878694850073,42312,20,6,1.24929606915,-0.351606875658,0.541913568974,-0.647350490093,37.9000015259,0.4178247722909698,-0.11759427279531771,0.18124199631237456,37.9000015259,-0.08747979595851352,0.6024811147863982,1.406427523778513
1648125878694853940,42313,20,7,0.99633616209,-1.40935754776,0.172747075558,-0.242756426334,37.9000015259,0.3332227966856187,-0.4713570393846154,0.057774941658193975,37.9000015259,-0.03280492247756756,0.6665225600378432,1.7345938998596049
1648125878889627599,42314,22,0,0.0125787733123,0.0439508594573,0.0103882942349,0.0,25.7999992371,0.004206947596086956,0.014699284099431437,0.003474345897959866,25.7999992371,0.0,0.01585767224999437,0.04688091554341088
1648125878889716547,42315,22,1,0.032885145396,0.0146502861753,-0.0300292614847,0.0,25.7999992371,0.010998376386622074,0.0048997612626421405,-0.010043231265785952,25.7999992371,0.0,0.016307551217595504,0.04688091528597467
1648125878889721173,42316,22,2,0.88477152586,-0.870226979256,0.249189421535,0.0,25.7999992371,0.2959102093177257,-0.29104581246020067,0.08334094365719064,25.7999992371,0.0,0.5097385299421054,1.2657847432334628
1648125878889729125,42317,22,3,2.41672444344,-0.902457654476,0.487214505672,0.0,25.7999992371,0.8082690446287625,-0.30182530250033446,0.16294799520802675,25.7999992371,0.0,1.1822420269300205,2.6253313749277276
1648125878889731777,42318,22,4,1.09001243114,-0.807230770588,-0.0928345099092,0.242756426334,25.7999992371,0.3645526525551839,-0.2699768463505016,-0.031048331073311036,25.7999992371,0.03280492247756756,0.58196629673496,1.3595465653128291
1648125878889752122,42319,22,5,1.24464809895,-0.796975553036,0.257388740778,0.485512852669,25.7999992371,0.4162702672073578,-0.2665470077043478,0.08608319089565217,25.7999992371,0.06560984495527027,0.6462268781456803,1.5001892834693134
1648125878994725803,42320,23,0,0.0126571767032,0.0439508594573,0.0102926222607,0.0,36.5999984741,0.004233169465953177,0.014699284099431437,0.0034423485821739124,36.5999984741,0.0,0.015871622490809013,0.046880915542817876
1648125878994730745,42321,23,1,0.0329373031855,0.0146502861753,-0.0299720410258,0.0,36.5999984741,0.011015820463377925,0.0048997612626421405,-0.010024093988561873,36.5999984741,0.0,0.016331082676713148,0.04688091370060926
1648125878994738022,42322,23,2,0.901355564594,-0.83067125082,0.315839290619,0.0,36.5999984741,0.30145671056655515,-0.2778164718461538,0.1056318697722408,36.5999984741,0.0,0.5088558624210401,1.2657847519472436
1648125878994740287,42323,23,3,2.41845846176,-0.902457654476,0.478533059359,0.0,36.5999984741,0.8088489838662206,-0.30182530250033446,0.1600445014578595,36.5999984741,0.0,1.1830350251079862,2.625331414941807
1648125878994762223,42324,23,4,1.13160991669,-0.835066318512,-0.0127156106755,0.161837622523,36.5999984741,0.3784648550802675,-0.2792863941511705,-0.004252712600501672,36.5999984741,0.021869948989594594,0.6037153162044332,1.4064275475897023
1648125878994992903,42325,23,5,1.29523825645,-0.821881055832,0.200738012791,0.323675245047,36.5999984741,0.4331900523244147,-0.27487660730167224,0.06713645912742475,36.5999984741,0.04373989797932432,0.6714643639891368,1.5470702507276257
1648125878995026453,42326,23,6,0.796806454659,-1.21890377998,0.36047321558,-0.404594063759,36.5999984741,0.2664904530632107,-0.407660127083612,0.12055960387290969,36.5999984741,-0.05467487348094594,0.5551766406842936,1.5001892847858775
1648125879189590289,42327,25,0,0.0125787733123,0.0439508594573,0.0103882942349,0.0,27.0,0.004206947596086956,0.014699284099431437,0.003474345897959866,27.0,0.0,0.01585767224999437,0.04688091554341088
1648125879189597429,42328,25,1,0.0329373031855,0.0146502861753,-0.0299720410258,0.0,27.0,0.011015820463377925,0.0048997612626421405,-0.010024093988561873,27.0,0.0,0.016331082676713148,0.04688091370060926
1648125879189679051,42329,25,2,2.39229536057,-0.984499275684,0.447268813848,0.0,27.0,0.800098782799331,-0.32926397180066885,0.14958823205618726,27.0,0.0,1.1784442658012697,2.6253314662853646
1648125879189681698,42330,25,3,1.36962473392,-0.796975553036,0.172158032656,0.323675245047,27.0,0.4580684728829431,-0.2665470077043478,0.05757793734314381,27.0,0.04373989797932432,0.7005003633223646,1.593951169926624
1648125879189689060,42331,25,4,0.893111109734,-1.01965987682,0.104943618178,-0.242756426334,27.0,0.29869936780401335,-0.34102337017391304,0.03509820005953177,27.0,-0.03280492247756756,0.5428992205352742,1.3595465721052606
1648125879189722238,42332,25,5,0.434737890959,-0.509829938412,-1.18298065662,-0.242756426334,27.0,0.14539728794615384,-0.1705116850876254,-0.39564570455518394,27.0,-0.03280492247756756,0.2671235246765344,1.3595465545076968
1648125879189750307,42333,25,6,0.883244454861,-0.870226979256,0.254549145699,-0.0809188112617,27.0,0.29539948323110365,-0.29104581246020067,0.08513349354481604,27.0,-0.010934974494824324,0.5091457299605139,1.265784748700907
1648125879294596936,42334,26,0,0.0125726731494,0.0439508594573,0.0103956768289,0.0,27.7000007629,0.004204907407826087,0.014699284099431437,0.0034768149929431435,27.7000007629,0.0,0.01585658997554579,0.04688091566818964
1648125879294619136,42335,26,1,0.0329615361989,0.0146502861753,-0.0299453921616,0.0,27.7000007629,0.011023925150133779,0.0048997612626421405,-0.010015181324949832,27.7000007629,0.0,0.0163420167623948,0.04688091579013358
1648125879294623597,42336,26,2,0.890782654285,-0.870226979256,0.226764857769,0.0,27.7000007629,0.29792062016220733,-0.29104581246020067,0.07584108955484949,27.7000007629,0.0,0.5120752452387117,1.2657847499946613
1648125879294625721,42337,26,3,2.39579725266,-0.984499275684,0.428114026785,0.0,27.7000007629,0.8012699841672241,-0.32926397180066885,0.14318194875752507,27.7000007629,0.0,1.180034719057299,2.6253313923399446
1648125879294655901,42338,26,4,1.33159160614,-0.846786499023,0.224714189768,0.161837622523,27.7000007629,0.445348363257525,-0.283206186964214,0.07515524741404682,27.7000007629,0.021869948989594594,0.6905621432189303,1.5939510806650317
1648125879294937954,42339,26,5,0.76076567173,-0.952268600464,0.0121056213975,-0.323675245047,27.7000007629,0.2544366795083612,-0.31848448176053507,0.004048702808528428,27.7000007629,-0.04373989797932432,0.48052930491361046,1.2189037865155243
