%time,field.header.seq,field.header.frame_id,field.point_id,field.x,field.y,field.z,field.velocity,field.intensity,normalized_x,normalized_y,normalized_z,normalized_intensity,normalized_velocity,normalized_range,range
1648126803401373523,80583,0,0,0.0126260910183,0.0439508594573,0.0103307310492,0.0,16.3999996185,0.004222772915819397,0.014699284099431437,0.0034550939963879593,16.3999996185,0.0,0.015866082542107033,0.04688091536487569
1648126803401380524,80584,0,1,0.032850060612,0.0146502861753,-0.0300676375628,0.0,16.3999996185,0.010986642345150502,0.0048997612626421405,-0.01005606607451505,16.3999996185,0.0,0.01629172429399039,0.046880915049070465
1648126803401398908,80585,0,2,0.702748000622,0.775000095367,0.261087864637,0.0,16.3999996185,0.2350327761277592,0.25919735631003343,0.08732035606588628,16.3999996185,0.0,0.42150217226813097,1.0782609949626232
1648126803401402259,80586,0,3,1.8904747963,-1.24527442455,0.608233630657,0.0,16.3999996185,0.6322658181605351,-0.4164797406521739,0.2034226189488294,16.3999996185,0.0,0.9863952068020828,2.344045967413194
1648126803401406644,80587,0,4,2.42406320572,-0.902457654476,0.449281066656,0.0,16.3999996185,0.8107234801739129,-0.30182530250033446,0.1502612263063545,16.3999996185,0.0,1.1855984294186714,2.6253315448345567
1648126803701412852,80588,3,0,0.0126302465796,0.0439508594573,0.0103256506845,0.0,13.8999996185,0.004224162735652174,0.014699284099431437,0.003453394877759197,13.8999996185,0.0,0.015866822450331473,0.046880915496128585
1648126803701418168,80589,3,1,0.032850060612,0.0146502861753,-0.0300676375628,0.0,13.8999996185,0.010986642345150502,0.0048997612626421405,-0.01005606607451505,13.8999996185,0.0,0.01629172429399039,0.046880915049070465
1648126803701421210,80590,3,2,1.89018821716,-1.24527442455,0.609123408794,0.0,13.8999996185,0.6321699722943144,-0.4164797406521739,0.2037202036100334,13.8999996185,0.0,0.9862723366874336,2.344045907372476
1648126803701424416,80591,3,3,2.4243927002,-0.902457654476,0.447498887777,0.0,13.8999996185,0.8108336789966554,-0.30182530250033446,0.1496651798585284,13.8999996185,0.0,1.1857491400882063,2.6253314147869067
1648126803701538920,80592,3,4,0.694875776768,1.31266570091,0.21124471724,0.161837622523,13.8999996185,0.23239992534046822,0.4390186290668896,0.07065040710367892,13.8999996185,0.021869948989594594,0.5484129896932435,1.500189294071345
1648126803701546135,80593,3,5,1.44814062119,1.41814780235,0.383047819138,-0.242756426334,13.8999996185,0.48432796695317726,0.47429692386287625,0.1281096385076923,13.8999996185,-0.03280492247756756,0.8331294804121283,2.062760305948578
1648126803701641824,80594,3,6,0.668911337852,0.5845464468,-0.0653926730156,-0.161837622523,13.8999996185,0.2237161665056856,0.19550048387959865,-0.021870459202541808,13.8999996185,-0.021869948989594594,0.3719116635831102,0.890737406903731
1648126803701672256,80595,3,7,0.680077672005,0.808695793152,-0.214830636978,-0.161837622523,13.8999996185,0.22745072642307693,0.2704668204521739,-0.07184971136387959,13.8999996185,-0.021869948989594594,0.42026178373280537,1.0782609741643514
1648126803701709640,80596,3,8,0.753067731857,0.676843225956,0.196258112788,-0.0809188112617,13.8999996185,0.25186211767792643,0.22636897189163876,0.06563816481204013,13.8999996185,-0.010934974494824324,0.42203313149289223,1.0313801472405209
1648126803806300971,80597,4,0,0.0126302465796,0.0439508594573,0.0103256506845,0.0,20.2999992371,0.004224162735652174,0.014699284099431437,0.003453394877759197,20.2999992371,0.0,0.015866822450331473,0.046880915496128585
1648126803806307262,80598,4,1,0.032850060612,0.0146502861753,-0.0300676375628,0.0,20.2999992371,0.010986642345150502,0.0048997612626421405,-0.01005606607451505,20.2999992371,0.0,0.01629172429399039,0.046880915049070465
1648126803806398161,80599,4,2,1.89172768593,-1.24527442455,0.604325473309,0.0,20.2999992371,0.6326848447926421,-0.4164797406521739,0.202115542912709,20.2999992371,0.0,0.9869324191829354,2.344045926990884
1648126803806402635,80600,4,3,2.42402005196,-0.902457654476,0.449513316154,0.0,20.2999992371,0.8107090474782608,-0.30182530250033446,0.1503389017237458,20.2999992371,0.0,1.1855786910009964,2.6253314556120815
1648126803806407082,80601,4,4,1.84862983227,-1.29215526581,0.435739398003,-0.323675245047,20.2999992371,0.6182708469130435,-0.4321589517759197,0.1457322401347826,20.2999992371,-0.04373989797932432,0.9753353473986296,2.297164841862929
1648126803806410140,80602,4,5,0.866683661938,-0.0,2.47814941406,-0.242756426334,20.2999992371,0.2898607565010033,-0.0,0.8288125130635452,20.2999992371,-0.03280492247756756,0.40992501304344414,2.6253314244636208
1648126803806447770,80603,4,6,0.758971333504,0.676843225956,0.172019600868,-0.161837622523,20.2999992371,0.25383656638929764,0.22636897189163876,0.05753163908628762,20.2999992371,-0.021869948989594594,0.42439240840040265,1.0313801339400284
1648126804001390557,80604,6,0,0.0126405349001,0.0439508594573,0.0103130536154,0.0,42.0,0.004227603645518395,0.014699284099431437,0.003449181811170568,42.0,0.0,0.01586865521091812,0.046880915567745665
1648126804001399405,80605,6,1,0.0329016707838,0.0146502861753,-0.030011150986,0.0,42.0,0.01100390327217391,0.0048997612626421405,-0.010037174242809364,42.0,0.0,0.016315006432043106,0.04688091305518946
1648126804001491150,80606,6,2,0.727181315422,0.501039803028,0.116531506181,0.0,42.0,0.24320445331839466,0.16757184047759197,0.03897374788662207,42.0,0.0,0.38259264753631367,0.8907374145336098
1648126804001494612,80607,6,3,2.42290306091,-0.902457654476,0.455495476723,0.0,42.0,0.8103354718762541,-0.30182530250033446,0.15233962432207357,42.0,0.0,1.1850677901247848,2.6253314438379936
1648126804001496651,80608,6,4,0.856250405312,0.5391305089,0.372585952282,0.0809188112617,42.0,0.2863713730140468,0.18031120698996655,0.12461068638193978,42.0,0.010934974494824324,0.44331620535468724,1.0782609860611772
1648126804001500647,80609,6,5,1.13599562645,0.553780794144,-0.0710758268833,0.161837622523,42.0,0.37993164764214044,0.18521096794113712,-0.023771179559632104,42.0,0.021869948989594594,0.5683302001529006,1.2657847385884504
1648126804001501899,80610,6,6,1.15350198746,0.79111546278,-2.44043493271,-0.242756426334,42.0,0.38578661787959867,0.26458711129765883,-0.8161989741505017,42.0,-0.03280492247756756,0.6063571295324222,2.8128549858311303
1648126804001503251,80611,6,7,1.78318870068,-0.439508587122,-2.13054537773,-0.242756426334,42.0,0.5963841808294315,-0.14699283850234113,-0.7125569825183945,42.0,-0.03280492247756756,0.8561279558910335,2.812855017051798
1648126804106369229,80612,7,0,0.0126405349001,0.0439508594573,0.0103130536154,0.0,11.6000003815,0.004227603645518395,0.014699284099431437,0.003449181811170568,11.6000003815,0.0,0.01586865521091812,0.046880915567745665
1648126804106398416,80613,7,1,0.0329016707838,0.0146502861753,-0.030011150986,0.0,11.6000003815,0.01100390327217391,0.0048997612626421405,-0.010037174242809364,11.6000003815,0.0,0.016315006432043106,0.04688091305518946
1648126804106429438,80614,7,2,0.264583468437,-1.58955609798,0.309252142906,0.0,11.6000003815,0.08848945432675584,-0.5316241130367892,0.10342881033645485,11.6000003815,0.0,0.5461547075840754,1.6408320719340872
1648126804106435924,80615,7,3,2.42375898361,-0.902457654476,0.450918734074,0.0,11.6000003815,0.8106217336488294,-0.30182530250033446,0.1508089411618729,11.6000003815,0.0,1.185459279501867,2.625331433074956
1648126804106440171,80616,7,4,0.770220577717,0.44536870718,-0.042663231492,0.0809188112617,11.6000003815,0.25759885542374583,0.14895274487625418,-0.014268639294983277,11.6000003815,0.010934974494824324,0.39357497486173876,0.8907374332513671
1648126804106612987,80617,7,5,0.90385389328,0.471739202738,0.350937455893,0.161837622523,11.6000003815,0.302292272,0.15777230860802674,0.11737038658628762,11.6000003815,0.021869948989594594,0.4556899568625036,1.078261023011566
1648126804106621998,80618,7,6,1.2080848217,0.492249637842,-0.145988553762,0.161837622523,11.6000003815,0.4040417463879598,0.16463198590033443,-0.048825603264882944,11.6000003815,0.021869948989594594,0.5946454039425115,1.3126657229496859
1648126804301394462,80619,9,0,0.0126302465796,0.0439508594573,0.0103256506845,0.0,13.6999998093,0.004224162735652174,0.014699284099431437,0.003453394877759197,13.6999998093,0.0,0.015866822450331473,0.046880915496128585
1648126804301400264,80620,9,1,0.032850060612,0.0146502861753,-0.0300676375628,0.0,13.6999998093,0.010986642345150502,0.0048997612626421405,-0.01005606607451505,13.6999998093,0.0,0.01629172429399039,0.046880915049070465
1648126804301403200,80621,9,2,2.42217540741,-0.902457654476,0.459349304438,0.0,13.6999998093,0.8100921095016722,-0.30182530250033446,0.15362852991237458,13.6999998093,0.0,1.1847349766859916,2.625331465905172
1648126804301410239,80622,9,3,0.961014270782,0.336956560612,0.354342460632,0.0809188112617,13.6999998093,0.32140945511103675,0.11269450187692308,0.11850918415785952,13.6999998093,0.010934974494824324,0.46830345548889013,1.0782609757349415
1648126804301415720,80623,9,4,0.864694178104,0.32230630517,0.165983945131,0.161837622523,13.6999998093,0.28919537729230765,0.10779475089297658,0.05551302512742475,13.6999998093,0.021869948989594594,0.42295110924852675,0.9376182837597291
1648126804301558112,80624,9,5,1.19057893753,-1.7902649641,0.482138872147,-0.242756426334,13.6999998093,0.3981869356287625,-0.5987508241137123,0.16125045891204012,13.6999998093,-0.03280492247756756,0.8219539042961582,2.2034029908777963
1648126804301573706,80625,9,6,1.67711663246,-0.9508035779,-1.98339724541,-0.161837622523,13.6999998093,0.5609085727290969,-0.3179945076588629,-0.6633435603377926,13.6999998093,-0.021869948989594594,0.8546094785474754,2.7659740193503963
1648126804301600043,80626,9,7,1.4864757061,0.7779302001,-2.19905138016,-0.161837622523,13.6999998093,0.49714906558528427,0.26017732444816055,-0.7354686890167222,13.6999998093,-0.021869948989594594,0.7496710124992468,2.7659740406657325
1648126804401708316,80627,10,0,0.0126405349001,0.0439508594573,0.0103130536154,0.0,12.1999998093,0.004227603645518395,0.014699284099431437,0.003449181811170568,12.1999998093,0.0,0.01586865521091812,0.046880915567745665
1648126804401715883,80628,10,1,0.0329016707838,0.0146502861753,-0.030011150986,0.0,12.1999998093,0.01100390327217391,0.0048997612626421405,-0.010037174242809364,12.1999998093,0.0,0.016315006432043106,0.04688091305518946
1648126804401724753,80629,10,2,0.7854205966,0.351606875658,0.372310549021,0.0,12.1999998093,0.2626824737792642,0.11759427279531771,0.12451857826789298,12.1999998093,0.0,0.38965699923887837,0.9376182877300328
1648126804401798806,80630,10,3,1.0096282959,0.26956525445,0.265767097473,0.0,12.1999998093,0.33766832638795985,0.09015560349498328,0.088885316880602,12.1999998093,0.0,0.4859710177910162,1.078261040930189
1648126804401804433,80631,10,4,2.4218518734,-0.902457654476,0.461052328348,0.0,12.1999998093,0.8099839041471572,-0.30182530250033446,0.15419810312642138,12.1999998093,0.0,1.1845870011039124,2.6253315151211902
1648126804401807866,80632,10,5,1.79283106327,0.676843225956,0.45232129097,0.242756426334,12.1999998093,0.5996090512608695,0.22636897189163876,0.15127802373578594,12.1999998093,0.03280492247756756,0.8776701773121823,1.9689983555638462
1648126804401817841,80633,10,6,1.24288654327,-1.72140860558,0.589041888714,-0.242756426334,12.1999998093,0.4156811181505016,-0.5757219416655518,0.1970039761585284,12.1999998093,-0.03280492247756756,0.8228227865639451,2.203403025655154
1648126804401899043,80634,10,7,1.58529734612,-1.10463154316,-1.91313588619,-0.161837622523,12.1999998093,0.5301997813110367,-0.3694419876789297,-0.6398447779899665,12.1999998093,-0.021869948989594594,0.835889345825571,2.7190931283770245
1648126804401905746,80635,10,8,2.63674497604,-0.169943317771,0.641998648643,-0.161837622523,12.1999998093,0.8818545070367892,-0.05683723002374581,0.21471526710468228,12.1999998093,-0.021869948989594594,1.2484250934192926,2.719093059236229
1648126804501844088,80636,11,0,0.0126200383529,0.0439508594573,0.0103381248191,0.0,17.3999996185,0.004220748613010033,0.014699284099431437,0.0034575668291304345,17.3999996185,0.0,0.015865005223580926,0.04688091551835667
1648126804501849096,80637,11,1,0.0328372865915,0.0146502861753,-0.0300815850496,0.0,17.3999996185,0.010982370097491638,0.0048997612626421405,-0.010060730785819396,17.3999996185,0.0,0.01628596224812785,0.04688091333161941
1648126804501854348,80638,11,2,2.42206954956,-0.902457654476,0.459906816483,0.0,17.3999996185,0.8100567055384615,-0.30182530250033446,0.153814988790301,17.3999996185,0.0,1.1846865600677126,2.625331407817998
1648126804501857900,80639,11,3,1.19481194019,-0.0454158857465,-0.826115608215,0.323675245047,17.3999996185,0.39960265558193975,-0.015189259446989964,-0.2762928455568562,17.3999996185,0.04373989797932432,0.565327584944185,1.4533083544916303
1648126804501867369,80640,11,4,1.36876952648,-1.58223104477,0.271295100451,-0.323675245047,17.3999996185,0.45778245032775916,-0.529174262464883,0.09073414730802676,17.3999996185,-0.04373989797932432,0.8361548562984176,2.109641231864548
1648126804502105740,80641,11,5,2.05875825882,0.395557761192,0.235870063305,-0.323675245047,17.3999996185,0.6885479126488294,0.1322935656160535,0.07888630879765886,17.3999996185,-0.04373989797932432,0.9826993657927785,2.1096412485212483
1648126804502113481,80642,11,6,1.55254566669,0.158223092556,-1.99334180355,-0.242756426334,17.3999996185,0.5192460423712374,0.05291742225953177,-0.6666694995150501,17.3999996185,-0.03280492247756756,0.736229012342613,2.531569501308595
1648126804502137848,80643,11,7,2.5218436718,-0.339886635542,0.958252966404,-0.161837622523,17.3999996185,0.8434259771906354,-0.11367446004749163,0.3204859419411371,17.3999996185,-0.021869948989594594,1.1981889003270916,2.7190930799882214
1648126804502152737,80644,11,8,1.54041624069,0.594801604748,-2.1602768898,-0.161837622523,17.3999996185,0.5151893781571906,0.19893030259130434,-0.7225006320401337,17.3999996185,-0.021869948989594594,0.755257211829886,2.719093117970819
1648126804502184252,80645,11,9,0.856865227222,0.263705164194,0.274535298347,-0.0809188112617,17.3999996185,0.286576999070903,0.0881957070882943,0.09181782553411372,17.3999996185,-0.010934974494824324,0.4147664831465688,0.9376182918881598
1648126804502237079,80646,11,10,0.964165329933,0.225614413619,0.288493275642,-0.0809188112617,17.3999996185,0.32246332104782605,0.07545632562508361,0.09648604536521739,17.3999996185,-0.010934974494824324,0.46223245658350876,1.0313801516260177
