%time,field.header.seq,field.header.frame_id,field.point_id,field.x,field.y,field.z,field.velocity,field.intensity,normalized_x,normalized_y,normalized_z,normalized_intensity,normalized_velocity,normalized_range,range
1648218463341503166,36356,0,0,0.00524778757244,0.0454158857465,0.0103768147528,0.0,11.6000003815,0.0017551129004816054,0.015189259446989964,0.003470506606287625,11.6000003815,0.0,0.015390725945674161,0.04688091548763233
1648218463341511731,36357,0,1,0.0335027687252,0.0146502861753,-0.0293386057019,0.0,11.6000003815,0.011204939372976588,0.0048997612626421405,-0.00981224270966555,11.6000003815,0.0,0.01658640989289275,0.04688091489939147
1648218463341524763,36358,0,2,2.07052612305,-1.19546329975,0.0178662259132,0.0,11.6000003815,0.6924836531939799,-0.39982050158862875,0.005975326392374582,11.6000003815,0.0,1.0577918762083318,2.390926625664201
1648218463341567884,36359,0,3,1.28502070904,0.974244058132,0.303150296211,-0.404594063759,11.6000003815,0.4297728123879599,0.32583413315451504,0.1013880589334448,11.6000003815,-0.05467487348094594,0.6896210719404297,1.640832047943966
1648218463341574872,36360,0,4,0.767236351967,0.914177834988,0.247696921229,-0.0809188112617,11.6000003815,0.2566007866110368,0.30574509531371236,0.08284177967525083,11.6000003815,-0.010934974494824324,0.4745186937173253,1.2189038102119882
1648218463536578407,36361,2,0,0.00517798401415,0.0454158857465,0.0104118222371,0.0,30.3999996185,0.0017317672288127087,0.015189259446989964,0.003482214795016722,30.3999996185,0.0,0.015385435905997372,0.04688091550819912
1648218463536581532,36362,2,1,0.0335170030594,0.0146502861753,-0.0293223429471,0.0,30.3999996185,0.011209700019866221,0.0048997612626421405,-0.009806803661237458,30.3999996185,0.0,0.016592842116456903,0.04688091482692462
1648218463536758085,36363,2,2,1.31336224079,0.499574750662,0.370958179235,0.404594063759,30.3999996185,0.43925158554849497,0.16708185640869566,0.124066280680602,30.3999996185,0.05467487348094594,0.6432730816338498,1.4533083904571926
1648218463536768259,36364,2,3,1.18904674053,0.918572962284,0.368535101414,-0.647350490093,30.3999996185,0.3976744951605351,0.30721503755317725,0.1232558867605351,30.3999996185,-0.08747979595851352,0.640836240783223,1.54707031487856
1648218463536901944,36365,2,4,0.81832331419,0.876087069511,0.220329076052,-0.323675245047,30.3999996185,0.2736867271538461,0.2930057088665552,0.07368865419799331,30.3999996185,-0.04373989797932432,0.48544947694766355,1.218903811490146
1648218463536905420,36366,2,5,0.864776670933,0.953733623028,0.674283742905,-0.323675245047,30.3999996185,0.2892229668672241,0.31897445586220735,0.22551295749331104,30.3999996185,-0.04373989797932432,0.5186950478070425,1.453308322493907
1648218463641583067,36367,3,0,0.00518398126587,0.0454158857465,0.0104088373482,0.0,18.3999996185,0.0017337729986187291,0.015189259446989964,0.003481216504414716,18.3999996185,0.0,0.01538588769520474,0.04688091546509428
1648218463641586450,36368,3,1,0.0334209166467,0.0146502861753,-0.0294318106025,0.0,18.3999996185,0.011177564095886288,0.0048997612626421405,-0.00984341491722408,18.3999996185,0.0,0.016549427140121226,0.046880913278916476
1648218463641588385,36369,3,2,1.15068459511,0.817485928535,0.346044749022,-0.566431701183,18.3999996185,0.3848443461906354,0.2734066650618729,0.11573402977324414,18.3999996185,-0.07654482448418919,0.6090661262047418,1.453308380593016
1648218463641590534,36370,3,3,0.80112272501,0.805765748024,0.287370443344,-0.485512852669,18.3999996185,0.26793402174247494,0.26948687224882945,0.09611051616856188,18.3999996185,-0.06560984495527027,0.46497360605592547,1.172022966039425
1648218463836763716,36371,5,0,0.00520934164524,0.0454158857465,0.0103961685672,0.0,42.0999984741,0.001742254730849498,0.015189259446989964,0.0034769794539130433,42.0999984741,0.0,0.015387803795288944,0.0468809155136033
1648218463836766358,36372,5,1,0.0335027687252,0.0146502861753,-0.0293386057019,0.0,42.0999984741,0.011204939372976588,0.0048997612626421405,-0.00981224270966555,42.0999984741,0.0,0.01658640989289275,0.04688091489939147
1648218463836854866,36373,5,2,2.07060289383,-1.19546329975,0.000957302108873,0.0,42.0999984741,0.6925093290401336,-0.39982050158862875,0.0003201679293889632,42.0999984741,0.0,1.0578254936925158,2.390926548728266
1648218463836861729,36374,5,3,0.977584779263,0.723724126816,-0.0792334675789,0.485512852669,42.0999984741,0.3269514311916388,0.24204820294849494,-0.02649948748458194,42.0999984741,0.06560984495527027,0.5219021069770821,1.2189038332726854
1648218463836864673,36375,5,4,1.30744349957,-1.86791145802,0.71974158287,0.566431701183,42.0999984741,0.4372720734347826,-0.6247195511772575,0.240716248451505,42.0999984741,0.07654482448418919,0.8790268767421289,2.390926528708581
1648218463836867518,36376,5,5,0.786364018917,0.707608819008,0.208729922771,-0.647350490093,42.0999984741,0.26299799963779263,0.23665846789565215,0.06980933871939798,42.0999984741,-0.08747979595851352,0.44084365261811154,1.0782610034890348
1648218463836868565,36377,5,6,1.17726814747,0.703213751316,0.312359362841,-0.161837622523,42.0999984741,0.3937351663779264,0.23518854559063543,0.10446801432809365,42.0999984741,-0.021869948989594594,0.6044571237584558,1.4064274750735646
1648218463941688375,36378,6,0,0.00524778757244,0.0454158857465,0.0103768147528,0.0,25.2999992371,0.0017551129004816054,0.015189259446989964,0.003470506606287625,25.2999992371,0.0,0.015390725945674161,0.04688091548763233
1648218463941693391,36379,6,1,0.0334209166467,0.0146502861753,-0.0294318106025,0.0,25.2999992371,0.011177564095886288,0.0048997612626421405,-0.00984341491722408,25.2999992371,0.0,0.016549427140121226,0.046880913278916476
1648218463941695853,36380,6,2,2.07051825523,-1.19546329975,0.0187511984259,0.0,25.2999992371,0.6924810218160535,-0.39982050158862875,0.006271303821371236,25.2999992371,0.0,1.057788430945146,2.390926588946689
1648218463941698153,36381,6,3,0.64645755291,0.584546387196,0.457861185074,-0.566431701183,25.2999992371,0.21620653943478257,0.1955004639451505,0.15313083112842807,25.2999992371,-0.07654482448418919,0.3629200556479312,0.9844992185348087
1648218464136613269,36382,8,0,0.00517798401415,0.0454158857465,0.0104118222371,0.0,41.0,0.0017317672288127087,0.015189259446989964,0.003482214795016722,41.0,0.0,0.015385435905997372,0.04688091550819912
1648218464136619759,36383,8,1,0.0335027687252,0.0146502861753,-0.0293386057019,0.0,41.0,0.011204939372976588,0.0048997612626421405,-0.00981224270966555,41.0,0.0,0.01658640989289275,0.04688091489939147
1648218464136625852,36384,8,2,0.510568201542,-0.483459442854,-0.00983287859708,0.0,41.0,0.1707585958334448,-0.16169212135585284,-0.003288588159558528,41.0,0.0,0.29062232916721203,0.7032137703515463
1648218464136632252,36385,8,3,1.10536360741,1.39177715778,0.121573872864,0.0,41.0,0.36968682522073576,0.46547731029431433,0.04066015814849498,41.0,0.0,0.7000041599036416,1.7814748294791525
1648218464136755476,36386,8,4,1.52923858166,-1.51483952999,0.470824271441,-0.566431701183,41.0,0.5114510306555183,-0.5066352943110367,0.15746631151872909,41.0,-0.07654482448418919,0.8830875579232303,2.203403035269708
1648218464136758024,36387,8,5,0.708629190922,0.501039803028,0.200541764498,-0.404594063759,41.0,0.23699972940535116,0.16757184047759197,0.06707082424682274,41.0,-0.05467487348094594,0.37472398535117396,0.8907374550074094
1648218464136776685,36388,8,6,1.81915271282,-0.615312039852,-2.05529260635,-0.323675245047,41.0,0.608412278535117,-0.20578997988361203,-0.6873888315551839,41.0,-0.04373989797932432,0.8846923290981351,2.812854990337072
1648218464136834195,36389,8,7,1.24808049202,0.79111546278,-2.39344620705,-0.323675245047,41.0,0.4174182247558528,0.26458711129765883,-0.8004836812876255,41.0,-0.04373989797932432,0.6469020700086644,2.812855015114098
1648218464136835981,36390,8,8,0.388722926378,0.512760043144,0.979596555233,-0.242756426334,41.0,0.1300076676849498,0.17149165322541807,0.327624265964214,41.0,-0.03280492247756756,0.25142270072479084,1.172022946175233
1648218464241618666,36391,9,0,0.00517798401415,0.0454158857465,0.0104118222371,0.0,13.6999998093,0.0017317672288127087,0.015189259446989964,0.003482214795016722,13.6999998093,0.0,0.015385435905997372,0.04688091550819912
1648218464241624321,36392,9,1,0.0335027687252,0.0146502861753,-0.0293386057019,0.0,13.6999998093,0.011204939372976588,0.0048997612626421405,-0.00981224270966555,13.6999998093,0.0,0.01658640989289275,0.04688091489939147
1648218464241641084,36393,9,2,0.950569272041,-1.76389443874,-0.221052736044,0.242756426334,13.6999998093,0.3179161444953177,-0.5899312504147156,-0.07393068095117056,13.6999998093,0.03280492247756756,0.7417278679390477,2.0158794220089145
1648218464241679213,36394,9,3,0.527788341045,0.304725944996,0.00363479601219,-0.566431701183,13.6999998093,0.17651783981438127,0.10191503177123744,0.0012156508401973242,13.6999998093,-0.07654482448418919,0.26963636484421655,0.6094519228280346
1648218464241725447,36395,9,4,1.46447741985,-1.55000019073,0.321546822786,-0.485512852669,13.6999998093,0.48979177921404676,-0.518394712618729,0.10754074340668895,13.6999998093,-0.06560984495527027,0.8651734231021996,2.1565219831379694
1648218464241743622,36396,9,5,1.7573581934,-1.77268469334,0.646287798882,-0.404594063759,13.6999998093,0.5877452151839464,-0.592871134896321,0.21614976551237458,13.6999998093,-0.05467487348094594,1.020972604204686,2.5784504573281573
1648218464241747432,36397,9,6,2.30205273628,1.04749548435,0.501710176468,-0.404594063759,13.6999998093,0.7699173031036788,0.35033293790969894,0.16779604564147155,13.6999998093,-0.05467487348094594,1.1438000151343437,2.578450443875047
1648218464241749448,36398,9,7,0.663739919662,0.44536870718,0.393076598644,-0.323675245047,13.6999998093,0.22198659520468225,0.14895274487625418,0.1314637453658863,13.6999998093,-0.04373989797932432,0.34748095934497675,0.8907374353251575
1648218464241755349,36399,9,8,1.04029989243,0.421928226948,-0.075480081141,-0.323675245047,13.6999998093,0.3479263854280936,0.14111311938060198,-0.025244174294648824,13.6999998093,-0.04373989797932432,0.5118773796676708,1.1251420077192054
1648218464241757560,36400,9,9,1.51349186897,-0.703213751316,-2.26428484917,-0.323675245047,13.6999998093,0.5061845715618729,-0.23518854559063543,-0.7572859027324415,13.6999998093,-0.04373989797932432,0.7534980377888134,2.8128549723828695
1648218464241760591,36401,9,10,1.49042284489,0.703213751316,-2.27953577042,-0.323675245047,13.6999998093,0.4984691788929766,0.23518854559063543,-0.7623865452909698,13.6999998093,-0.04373989797932432,0.7431397557589791,2.8128549847502313
1648218464241766503,36402,9,11,0.967904269695,0.354536950588,0.0347836203873,-0.242756426334,13.6999998093,0.32371380257357857,0.11857423096588628,0.01163331785528428,13.6999998093,-0.03280492247756756,0.4729070735381772,1.031380155361396
1648218464338400413,36403,10,0,0.00517798401415,0.0454158857465,0.0104118222371,0.0,19.3999996185,0.0017317672288127087,0.015189259446989964,0.003482214795016722,19.3999996185,0.0,0.015385435905997372,0.04688091550819912
1648218464338404539,36404,10,1,0.0334209166467,0.0146502861753,-0.0294318106025,0.0,19.3999996185,0.011177564095886288,0.0048997612626421405,-0.00984341491722408,19.3999996185,0.0,0.016549427140121226,0.046880913278916476
1648218464338410390,36405,10,2,0.583463788033,0.171408340335,0.0402592271566,0.0,19.3999996185,0.1951383906464883,0.05732720412541805,0.0134646244670903,19.3999996185,0.0,0.28185881455267686,0.6094518983918775
1648218464338414526,36406,10,3,1.23298680782,-1.58223104477,0.653356432915,-0.485512852669,19.3999996185,0.41237016983946484,-0.529174262464883,0.21851385716220734,19.3999996185,-0.06560984495527027,0.787479341952607,2.109641243369008
1648218464338465591,36407,10,4,0.723909795284,0.421928226948,0.100124038756,-0.323675245047,19.3999996185,0.24211029942608694,0.14111311938060198,0.03348630058729097,19.3999996185,-0.04373989797932432,0.37033458741751757,0.8438564116841316
1648218464338576528,36408,10,5,1.584182024,0.4321834445,-2.22580265999,-0.323675245047,19.3999996185,0.5298267638795986,0.14454295802675585,-0.744415605347826,19.3999996185,-0.04373989797932432,0.763102526638053,2.765974095338418
1648218464338598517,36409,10,6,1.70670926571,-0.7779302001,-2.03287482262,-0.323675245047,19.3999996185,0.5708057744849498,-0.26017732444816055,-0.6798912450234114,19.3999996185,-0.04373989797932432,0.8481336595889413,2.765973961976195
1648218464338604650,36410,10,7,0.568641543388,0.246124818921,0.216430649161,-0.161837622523,19.3999996185,0.19018111818996655,0.08231599295016721,0.07238483249531771,19.3999996185,-0.021869948989594594,0.28127146696269073,0.6563328860051381
1648218464441685038,36411,11,0,0.00517798401415,0.0454158857465,0.0104118222371,0.0,25.7999992371,0.0017317672288127087,0.015189259446989964,0.003482214795016722,25.7999992371,0.0,0.015385435905997372,0.04688091550819912
1648218464441713193,36412,11,1,0.0334209166467,0.0146502861753,-0.0294318106025,0.0,25.7999992371,0.011177564095886288,0.0048997612626421405,-0.00984341491722408,25.7999992371,0.0,0.016549427140121226,0.046880913278916476
1648218464441715656,36413,11,2,0.599551975727,0.184593617916,0.192964866757,0.0,25.7999992371,0.2005190554270903,0.061736995958528426,0.0645367447347826,25.7999992371,0.0,0.2902192961343687,0.6563328539514186
1648218464441799271,36414,11,3,0.606690466404,0.0571361146867,-0.00968108419329,0.242756426334,25.7999992371,0.20290651050301003,0.0191090684570903,-0.003237820800431438,25.7999992371,0.03280492247756756,0.28758870024101085,0.6094518693204185
1648218464441802115,36415,11,4,1.43821120262,-1.51630473137,-0.288019090891,-0.485512852669,25.7999992371,0.4810070911772575,-0.5071253282173913,-0.09632745514749162,25.7999992371,-0.06560984495527027,0.8484761293314089,2.1096413198537785
1648218464441806988,36416,11,5,2.09015464783,0.263705164194,0.110900588334,-0.485512852669,25.7999992371,0.6990483772006688,0.0881957070882943,0.03709049777056856,25.7999992371,-0.06560984495527027,0.9925299744000587,2.1096411557325956
1648218464441876344,36417,11,6,1.46466255188,-1.08705127239,-1.68723452091,-0.404594063759,25.7999992371,0.48985369628093645,-0.363562298458194,-0.5642924819096989,25.7999992371,-0.05467487348094594,0.7823623408500672,2.484688549543936
1648218464441879794,36418,11,7,2.33192539215,0.621172130108,0.591562867165,-0.404594063759,25.7999992371,0.7799081579096989,0.20774987629030098,0.19784711276421402,25.7999992371,-0.05467487348094594,1.1223517633286078,2.484688607368198
1648218464441884850,36419,11,8,0.711415231228,0.298865824938,0.199342980981,-0.161837622523,25.7999992371,0.23793151546086955,0.09995512539732442,0.06666989330468227,25.7999992371,-0.021869948989594594,0.35101828897111165,0.7969755558393565
1648218464441898286,36420,11,9,0.699213564396,0.26956525445,0.775294601917,-0.161837622523,25.7999992371,0.2338506904334448,0.09015560349498328,0.25929585348394646,25.7999992371,-0.021869948989594594,0.3427832021466955,1.0782609864052821
1648218464441901720,36421,11,10,0.64570838213,-1.80198526382,0.174487128854,-0.161837622523,25.7999992371,0.21595598064548494,-0.6026706567959866,0.05835689928227424,25.7999992371,-0.021869948989594594,0.6756373966233752,1.9221175728641289
1648218464441907597,36422,11,11,0.842481851578,0.278355449438,0.078458532691,-0.0809188112617,25.7999992371,0.28176650554448157,0.09309546803946488,0.026240311936789298,25.7999992371,-0.010934974494824324,0.4092083741359453,0.8907374292248815
1648218464636609422,36423,13,0,0.00524778757244,0.0454158857465,0.0103768147528,0.0,17.2999992371,0.0017551129004816054,0.015189259446989964,0.003470506606287625,17.2999992371,0.0,0.015390725945674161,0.04688091548763233
1648218464636613053,36424,13,1,0.0334209166467,0.0146502861753,-0.0294318106025,0.0,17.2999992371,0.011177564095886288,0.0048997612626421405,-0.00984341491722408,17.2999992371,0.0,0.016549427140121226,0.046880913278916476
1648218464636615121,36425,13,2,1.85550427437,1.10170149803,0.445356696844,0.0,17.2999992371,0.6205699914280937,0.36846203947491635,0.14894872804147155,17.2999992371,0.0,0.951829030370551,2.2034030249572334
1648218464636619425,36426,13,3,0.649042487144,0.101086974144,0.855085968971,0.0809188112617,17.2999992371,0.21707106593444817,0.03380835255652174,0.2859819294217391,17.2999992371,0.010934974494824324,0.30884089760655264,1.0782609799073382
1648218464636624317,36427,13,4,1.02307486534,1.44744825363,-0.17850536108,0.0809188112617,17.2999992371,0.34216550680267555,0.484096405896321,-0.05970078965886288,17.2999992371,0.010934974494824324,0.6844733729611395,1.7814748920378578
1648218464636741324,36428,13,5,0.616621553898,0.0615312047303,0.216251224279,0.161837622523,17.2999992371,0.20622794444749162,0.020578998237558526,0.07232482417357859,17.2999992371,0.021869948989594594,0.2923754868495935,0.656332859065667
1648218464636744402,36429,13,6,0.311188817024,-1.23062396049,-1.50521790981,-0.242756426334,17.2999992371,0.1040765274327759,-0.41157991989632103,-0.5034173611404682,17.2999992371,-0.03280492247756756,0.43710625434417283,1.9689984174665238
1648218464741673219,36430,14,0,0.00513887451962,0.0454158857465,0.0104311807081,0.0,27.5,0.0017186871303076921,0.015189259446989964,0.0034886892000334448,27.5,0.0,0.01538250218435689,0.04688091552468423
1648218464741683650,36431,14,1,0.0335027687252,0.0146502861753,-0.0293386057019,0.0,27.5,0.011204939372976588,0.0048997612626421405,-0.00981224270966555,27.5,0.0,0.01658640989289275,0.04688091489939147
1648218464741688793,36432,14,2,2.04458928108,-1.19546329975,-0.32718834281,0.0,27.5,0.6838091241070233,-0.39982050158862875,-0.10942753940133777,27.5,0.0,1.046444585209657,2.390926607202142
1648218464741693537,36433,14,3,0.646243333817,-0.0,0.114640176296,0.0809188112617,27.5,0.21613489425317725,-0.0,0.03834119608561873,27.5,0.010934974494824324,0.305660898754918,0.6563328549783932
1648218464741696806,36434,14,4,0.843319952488,-0.0,-0.0300868526101,0.0809188112617,27.5,0.28204680685217387,-0.0,-0.01006249251173913,27.5,0.010934974494824324,0.3988744194743691,0.8438564812599025
1648218464741804995,36435,14,5,1.1475995779,1.46502864361,0.230691492558,0.242756426334,27.5,0.3838125678595317,0.489976134986622,0.07715434533712374,27.5,0.03280492247756756,0.7312323757536203,1.87523659374828
1648218464741807703,36436,14,6,0.970922112465,-0.225614413619,0.264864802361,0.323675245047,27.5,0.3247231145367893,-0.07545632562508361,0.08858354594013378,27.5,0.04373989797932432,0.46538571025095327,1.0313801314917188
1648218464741811232,36437,14,7,0.251145362854,-1.41521763802,-1.34574878216,-0.242756426334,27.5,0.08399510463344481,-0.47331693579264206,-0.45008320473578595,27.5,-0.03280492247756756,0.4879951607474225,1.968998410596387
1648218464741814063,36438,14,8,0.590128719807,1.78440487385,0.58702814579,-0.242756426334,27.5,0.19736746481839462,0.5967909277090301,0.196330483541806,27.5,-0.03280492247756756,0.6588377977419672,1.9689984011446857
1648218464741872884,36439,14,9,0.825822949409,0.105482056737,0.137781381607,-0.0809188112617,27.5,0.27619496635752505,0.035278279845150494,0.046080729634448155,27.5,-0.010934974494824324,0.3921885718774854,0.8438564553178349
1648218464936601744,36440,16,0,0.00520934164524,0.0454158857465,0.0103961685672,0.0,23.7999992371,0.001742254730849498,0.015189259446989964,0.0034769794539130433,23.7999992371,0.0,0.015387803795288944,0.0468809155136033
1648218464936611000,36441,16,1,0.0335027687252,0.0146502861753,-0.0293386057019,0.0,23.7999992371,0.011204939372976588,0.0048997612626421405,-0.00981224270966555,23.7999992371,0.0,0.01658640989289275,0.04688091489939147
1648218464936794632,36442,16,2,0.692913413048,-0.0439508594573,0.111574821174,0.0809188112617,23.7999992371,0.23174361640401336,-0.014699284099431437,0.037315993703678926,23.7999992371,0.010934974494824324,0.3280644394643479,0.703213777416849
1648218464936799326,36443,16,3,0.796324729919,-0.131852567196,0.246120974422,0.0809188112617,23.7999992371,0.2663293411100334,-0.04409784856053511,0.08231470716454849,23.7999992371,0.010934974494824324,0.3792192718202451,0.8438564504743559
1648218464936915610,36444,16,4,1.16584575176,1.46502864361,0.104915775359,0.242756426334,23.7999992371,0.3899149671438127,0.489976134986622,0.03508888807993311,23.7999992371,0.03280492247756756,0.7376611526046017,1.8752366686404616
1648218464936919052,36445,16,5,0.949796795845,-0.32230630517,0.240311771631,0.323675245047,23.7999992371,0.3176577912525083,-0.10779475089297658,0.08037182997692308,23.7999992371,0.04373989797932432,0.46198771954124834,1.0313801701284526
1648218464936925377,36446,16,6,0.761138856411,-0.600661754608,-1.65964126587,-0.323675245047,23.7999992371,0.2545614904384615,-0.20089021893244144,-0.5550639685183946,23.7999992371,-0.04373989797932432,0.41226203425882685,1.9221175909829196
