%time,field.header.seq,field.header.frame_id,field.point_id,field.x,field.y,field.z,field.velocity,field.intensity,normalized_x,normalized_y,normalized_z,normalized_intensity,normalized_velocity,normalized_range,range
1648127460299440579,111110,0,0,0.0125831468031,0.0439508594573,0.0103829959407,0.0,26.2000007629,0.0042084103020401335,0.014699284099431437,0.003472573893210702,26.2000007629,0.0,0.015858448460566152,0.04688091546896556
1648127460299449240,111111,0,1,0.0328101180494,0.0146502861753,-0.0301112178713,0.0,26.2000007629,0.010973283628561871,0.0048997612626421405,-0.010070641428528428,26.2000007629,0.0,0.016273707863195052,0.046880914806844864
1648127460299526491,111112,0,2,0.157525867224,-0.399952799082,-0.4320358634,0.0,26.2000007629,0.05268423652976588,-0.13376347795384613,-0.1444935997993311,26.2000007629,0.0,0.15311409338058243,0.6094519075382268
1648127460299540122,111113,0,3,0.113354034722,-1.58955609798,0.39088639617,0.0,26.2000007629,0.03791104840200669,-0.5316241130367892,0.13073123617725751,26.2000007629,0.0,0.5343207770094959,1.6408320756628114
1648127460299545152,111114,0,4,1.89249157906,-1.24527442455,0.601928889751,0.0,26.2000007629,0.632940327444816,-0.4164797406521739,0.2013140099501672,26.2000007629,0.0,0.9872599913830216,2.3440458949364062
1648127460299568835,111115,0,5,2.42286729813,-0.902457654476,0.455684930086,0.0,26.2000007629,0.8103235110802675,-0.30182530250033446,0.1524029866508361,26.2000007629,0.0,1.1850514328282646,2.625331315849025
1648127460299579956,111116,0,6,0.607643008232,0.421928226948,0.406005173922,-0.485512852669,26.2000007629,0.20322508636521738,0.14111311938060198,0.13578768358595317,26.2000007629,-0.06560984495527027,0.32017773801066207,0.8438564187112348
1648127460299682604,111117,0,7,0.517537117004,0.473204225302,0.378686070442,-0.404594063759,26.2000007629,0.17308933679063543,0.158262282709699,0.12665085967959866,26.2000007629,-0.05467487348094594,0.29149062960878985,0.7969755619009163
1648127460299693764,111118,0,8,0.830485284328,0.354536950588,0.498339980841,-0.404594063759,26.2000007629,0.27775427569498323,0.11857423096588628,0.16666888991337792,26.2000007629,-0.05467487348094594,0.4103105209263356,1.0313801400658271
1648127460299700758,111119,0,9,1.34990417957,-1.51630473137,0.573729038239,-0.404594063759,26.2000007629,0.4514729697558528,-0.5071253282173913,0.19188262148461538,26.2000007629,-0.05467487348094594,0.8153721747520792,2.1096412827099895
1648127460299759887,111120,0,10,0.658867180347,0.448298752308,-0.00960861705244,-0.242756426334,26.2000007629,0.22035691650401334,0.14993269307959864,-0.003213584298474916,26.2000007629,-0.03280492247756756,0.34582387678761356,0.7969755693752325
1648127460299806752,111121,0,11,1.95051527023,-0.4321834445,-1.91293501854,-0.161837622523,26.2000007629,0.6523462442240802,-0.14454295802675585,-0.639777598173913,26.2000007629,-0.021869948989594594,0.933811496728141,2.765974102239015
1648127460299821724,111122,0,12,1.26395618916,0.6914935112,-2.36111497879,-0.161837622523,26.2000007629,0.4227278224615384,0.23126873284280935,-0.7896705614682273,26.2000007629,-0.021869948989594594,0.6410014434904703,2.765974053966175
1648127460399463220,111123,1,0,0.0125831468031,0.0439508594573,0.0103829959407,0.0,17.0,0.0042084103020401335,0.014699284099431437,0.003472573893210702,17.0,0.0,0.015858448460566152,0.04688091546896556
1648127460399470103,111124,1,1,0.0328101180494,0.0146502861753,-0.0301112178713,0.0,17.0,0.010973283628561871,0.0048997612626421405,-0.010070641428528428,17.0,0.0,0.016273707863195052,0.046880914806844864
1648127460399474222,111125,1,2,0.143239095807,-0.399952799082,-0.436980485916,0.0,17.0,0.04790605210936455,-0.13376347795384613,-0.14614731970434783,17.0,0.0,0.14994214781614734,0.6094519055122537
1648127460399478285,111126,1,3,0.101817324758,-1.58955609798,0.394048899412,0.0,17.0,0.03405261697591973,-0.5316241130367892,0.13178892956923077,17.0,0.0,0.5338008608160633,1.6408320728746402
1648127460399490388,111127,1,4,1.88750350475,-1.24527442455,0.617392659187,0.0,17.0,0.6312720751672241,-0.4164797406521739,0.20648583919297658,17.0,0.0,0.985121434212843,2.344045982590756
1648127460399497464,111128,1,5,2.42142486572,-0.902457654476,0.463288754225,0.0,17.0,0.8098410922140468,-0.30182530250033446,0.15494607164715718,17.0,0.0,1.1843917014680148,2.625331344466979
1648127460399509040,111129,1,6,0.626180827618,0.328166425228,0.250691741705,-0.647350490093,17.0,0.2094250259591973,0.10975465726688963,0.08384339187458194,17.0,-0.08747979595851352,0.31585402924102984,0.7500946479494267
1648127460399520987,111130,1,7,1.2788323164,-1.54707026482,0.475543439388,-0.647350490093,17.0,0.42770311585284276,-0.5174148042876254,0.1590446285578595,17.0,-0.08747979595851352,0.7959761242125685,2.0627603012721045
1648127460399523848,111131,1,8,0.511736869812,0.410208046436,0.025050021708,-0.566431701183,17.0,0.17114945478662205,0.13719332656722408,0.008377933681605351,17.0,-0.07654482448418919,0.2782198422149236,0.6563328186776848
1648127460399533204,111132,1,9,0.888067007065,0.870226979256,0.237177103758,-0.566431701183,17.0,0.297012376944816,0.29104581246020067,0.0793234460729097,17.0,-0.07654482448418919,0.5110189517693422,1.2657847301217702
1648127460399650658,111133,1,10,2.18367099762,-1.36980175972,-0.060257229954,-0.404594063759,17.0,0.730324748367893,-0.4581276788361204,-0.020152919717056853,17.0,-0.05467487348094594,1.1298802796194929,2.5784504688941507
1648127460399664990,111134,1,11,2.18639683723,1.28922522068,0.453843533993,-0.404594063759,17.0,0.7312364004113711,0.4311790035719063,0.1517871351147157,17.0,-0.05467487348094594,1.1204145124436848,2.578450455764856
1648127460399671539,111135,1,12,1.0510789156,0.6050568223,-2.48591065407,-0.323675245047,17.0,0.3515314098996655,0.20236014123745819,-0.8314082455083611,17.0,-0.04373989797932432,0.5367478840701072,2.7659740463441413
1648127460399673710,111136,1,13,1.59570002556,-0.6050568223,-2.17675447464,-0.323675245047,17.0,0.5336789383143813,-0.20236014123745819,-0.7280115299799331,17.0,-0.04373989797932432,0.7813936556962658,2.7659740368718615
1648127460499343250,111137,2,0,0.0126038333401,0.0439508594573,0.0103578744456,0.0,22.1000003815,0.004215328876287625,0.014699284099431437,0.003464172055384615,22.1000003815,0.0,0.01586212306427883,0.04688091535935669
1648127460499353783,111138,2,1,0.0328101180494,0.0146502861753,-0.0301112178713,0.0,22.1000003815,0.010973283628561871,0.0048997612626421405,-0.010070641428528428,22.1000003815,0.0,0.016273707863195052,0.046880914806844864
1648127460499431567,111139,2,2,0.144202500582,-0.399952799082,-0.436663508415,0.0,22.1000003815,0.04822826106421404,-0.13376347795384613,-0.14604130716220734,22.1000003815,0.0,0.15014858762194552,0.6094519031465282
1648127460499436324,111140,2,3,0.0689070448279,-1.58955609798,0.401114851236,0.0,22.1000003815,0.023045834390602003,-0.5316241130367892,0.1341521241591973,22.1000003815,0.0,0.5326222099459156,1.640832073471992
1648127460499441907,111141,2,4,2.42142105103,-0.902457654476,0.46330845356,0.0,22.1000003815,0.8098398163979932,-0.30182530250033446,0.1549526600535117,22.1000003815,0.0,1.1843899567610698,2.625331302451885
1648127460499450723,111142,2,5,0.499909162521,-1.95288312435,-0.0104033276439,0.566431701183,22.1000003815,0.16719369983979931,-0.6531381686789297,-0.003479373793946488,22.1000003815,0.07654482448418919,0.6946199924545131,2.015879435226604
1648127460499461572,111143,2,6,0.525525271893,0.307656019926,0.244834154844,-0.647350490093,22.1000003815,0.1757609604993311,0.10289498994180601,0.08188433272374582,22.1000003815,-0.08747979595851352,0.26901897595972524,0.656332843436236
1648127460499468465,111144,2,7,0.9446387887,0.761814832687,0.114115156233,-0.647350490093,22.1000003815,0.3159327052508361,0.2547875694605351,0.038165604091304345,22.1000003815,-0.08747979595851352,0.514338073688727,1.2189038310304088
1648127460499475755,111145,2,8,0.698134958744,0.32230630517,0.536520540714,-0.485512852669,22.1000003815,0.23348995275719062,0.10779475089297658,0.17943830793110366,22.1000003815,-0.06560984495527027,0.3473540332243014,0.9376182941799219
1648127460499480305,111146,2,9,1.72171735764,-0.931758165359,-1.53009581566,-0.485512852669,22.1000003815,0.5758252032240803,-0.311624804467893,-0.5117377309899666,22.1000003815,-0.06560984495527027,0.8719285223547623,2.484688540524199
1648127460499484828,111147,2,10,2.33010482788,0.69881862402,0.505906701088,-0.485512852669,22.1000003815,0.7792992735384615,0.23371860335117053,0.1691995655812709,22.1000003815,-0.06560984495527027,1.126605122049234,2.4846886260440426
1648127460499487077,111148,2,11,1.83061254025,0.424858301878,-1.96515142918,-0.242756426334,22.1000003815,0.6122449967391304,0.14209307755117057,-0.6572412806622073,22.1000003815,-0.03280492247756756,0.8774270993946782,2.7190930452640663
1648127460499490727,111149,2,12,1.54131162167,-0.76474493742,-2.10546708107,-0.242756426334,22.1000003815,0.5154888366789298,-0.2557675375986622,-0.7041695923311037,22.1000003815,-0.03280492247756756,0.7725765429848849,2.719093224564754
