%time,field.header.seq,field.header.frame_id,field.point_id,field.x,field.y,field.z,field.velocity,field.intensity,normalized_x,normalized_y,normalized_z,normalized_intensity,normalized_velocity,normalized_range,range
1648127119708301699,95495,0,0,0.0126362647861,0.0439508594573,0.0103182848543,0.0,12.6000003815,0.004226175513745819,0.014699284099431437,0.003450931389397993,12.6000003815,0.0,0.015867894377697606,0.04688091548929313
1648127119708315622,95496,0,1,0.0327621363103,0.0146502861753,-0.030163416639,0.0,12.6000003815,0.0109572362241806,0.0048997612626421405,-0.010088099210367893,12.6000003815,0.0,0.016252067923063808,0.04688091470919446
1648127119708317679,95497,0,2,0.575270116329,0.39555773139,-0.0843087807298,0.0,12.6000003815,0.19239803221705687,0.13229355564882941,-0.02819691663204013,12.6000003815,0.0,0.30254849275479995,0.7032137627433994
1648127119708383946,95498,0,3,2.42467904091,-0.902457654476,0.445944309235,0.0,12.6000003815,0.8109294451204013,-0.30182530250033446,0.14914525392474914,12.6000003815,0.0,1.1858801133149937,2.6253313308018176
1648127119708432833,95499,0,4,1.62689673901,-1.41521763802,0.030871918425,0.323675245047,12.6000003815,0.5441126217424749,-0.47331693579264206,0.010325056329431436,12.6000003815,0.04373989797932432,0.9034079986291217,2.156521977099125
1648127119708515038,95500,0,5,0.551521778107,0.417533159256,0.126488491893,-0.161837622523,12.6000003815,0.18445544418294313,0.13964319707558526,0.04230384344247491,12.6000003815,-0.021869948989594594,0.2958848496745726,0.7032137295203846
1648127119708531602,95501,0,6,0.699643552303,0.395557701588,0.257151156664,-0.0809188112617,12.6000003815,0.2339944990979933,0.13229354568160534,0.08600373132575251,12.6000003815,-0.010934974494824324,0.35638242583670227,0.8438564528036596
1648127119903125340,95502,2,0,0.0126302465796,0.0439508594573,0.0103256506845,0.0,28.0,0.004224162735652174,0.014699284099431437,0.003453394877759197,28.0,0.0,0.015866822450331473,0.046880915496128585
1648127119903325474,95503,2,1,0.0327866487205,0.0146502861753,-0.0301367696375,0.0,28.0,0.010965434354682274,0.0048997612626421405,-0.010079187169732442,28.0,0.0,0.016263122750707536,0.04688091406450383
1648127119903334555,95504,2,2,0.899579882622,0.399952799082,0.00570049276575,0.0,28.0,0.30086283699732436,0.13376347795384613,0.001906519319648829,28.0,0.0,0.44601520311135834,0.9844992139811541
1648127119903388147,95505,2,3,0.488984018564,-1.53828001022,0.294820576906,0.0,28.0,0.1635398055397993,-0.51447491980602,0.09860219963411371,28.0,0.0,0.5640700125883323,1.6408320855043725
1648127119903393943,95506,2,4,2.39291763306,-0.984499275684,0.443927139044,0.0,28.0,0.8003069006889632,-0.32926397180066885,0.14847061506488293,28.0,0.0,1.178726869850136,2.6253313937885223
1648127119903400039,95507,2,5,0.99484205246,0.892202436924,0.250261932611,-0.404594063759,28.0,0.3327230944682274,0.2983954638541806,0.08369964301371237,28.0,-0.05467487348094594,0.5571796550788422,1.3595465908567248
1648127119903401857,95508,2,6,1.61558318138,-1.54707026482,-0.245443165302,-0.161837622523,28.0,0.5403288232040133,-0.5174148042876254,-0.08208801515117056,28.0,-0.021869948989594594,0.922837230537471,2.2502839304500246
1648127119903464124,95509,2,7,0.659154713154,0.423393249512,0.14636695385,-0.0809188112617,28.0,0.220453081322408,0.14160309348227423,0.04895215847826087,28.0,-0.010934974494824324,0.3424186884690118,0.7969755735182795
1648127120104141837,95510,4,0,0.0126405349001,0.0439508594573,0.0103130536154,0.0,27.7000007629,0.004227603645518395,0.014699284099431437,0.003449181811170568,27.7000007629,0.0,0.01586865521091812,0.046880915567745665
1648127120104150162,95511,4,1,0.0327621363103,0.0146502861753,-0.030163416639,0.0,27.7000007629,0.0109572362241806,0.0048997612626421405,-0.010088099210367893,27.7000007629,0.0,0.016252067923063808,0.04688091470919446
1648127120104154813,95512,4,2,2.41401076317,-0.984499275684,0.309319376945,0.0,27.7000007629,0.8073614592541805,-0.32926397180066885,0.10345129663712374,27.7000007629,0.0,1.1883096460535996,2.625331458211814
1648127120104161457,95513,4,3,1.5585474968,0.779395222664,0.370304137468,-0.242756426334,27.7000007629,0.5212533434113712,0.2606672985498327,0.12384753761471572,27.7000007629,-0.03280492247756756,0.7818935583366404,1.7814747730795772
1648127120104225359,95514,4,4,0.628405272961,0.398487776518,0.285454660654,-0.161837622523,27.7000007629,0.21016898761237457,0.1332735038521739,0.09546978617190635,27.7000007629,-0.021869948989594594,0.3257358339775597,0.7969755695179989
1648127120104233618,95515,4,5,0.872613489628,0.386767566204,0.390770465136,-0.161837622523,27.7000007629,0.291843976464214,0.1293537010715719,0.13069246325618727,27.7000007629,-0.021869948989594594,0.4325253670916921,1.031380147652032
1648127120204054079,95516,5,0,0.0126405349001,0.0439508594573,0.0103130536154,0.0,13.8000001907,0.004227603645518395,0.014699284099431437,0.003449181811170568,13.8000001907,0.0,0.01586865521091812,0.046880915567745665
1648127120204264877,95517,5,1,0.032850060612,0.0146502861753,-0.0300676375628,0.0,13.8000001907,0.010986642345150502,0.0048997612626421405,-0.01005606607451505,13.8000001907,0.0,0.01629172429399039,0.046880915049070465
1648127120204272708,95518,5,2,2.41607189178,-0.902457654476,0.490440577269,0.0,13.8000001907,0.8080507999264214,-0.30182530250033446,0.16402694891939798,13.8000001907,0.0,1.1819436127636873,2.6253314389241718
1648127120204277662,95519,5,3,1.01560771465,0.820416092873,0.136197343469,0.161837622523,13.8000001907,0.33966813198996654,0.2743866531347826,0.04555095099297659,13.8000001907,0.021869948989594594,0.5532060332259711,1.3126657273920148
1648127120204284705,95520,5,4,1.55221760273,0.70467877388,0.320724606514,-0.404594063759,13.8000001907,0.5191363219832776,0.2356785196923077,0.10726575468695651,13.8000001907,-0.05467487348094594,0.7710702991615018,1.7345938815196624
1648127120204465225,95521,5,5,1.63041889668,-1.22476398945,0.310914248228,-0.242756426334,13.8000001907,0.545290600896321,-0.409620063361204,0.10398469840401338,13.8000001907,-0.03280492247756756,0.8731965844870091,2.062760354053735
1648127120204470426,95522,5,6,0.523928701878,0.389697641134,0.0663871541619,-0.161837622523,13.8000001907,0.17522699059464883,0.13033365924214046,0.022203061592608694,13.8000001907,-0.021869948989594594,0.27999260561157807,0.6563328350727898
1648127120204476214,95523,5,7,0.629155755043,0.375047326088,0.161692604423,-0.161837622523,13.8000001907,0.21041998496421405,0.1254338883237458,0.05407779412140468,13.8000001907,-0.021869948989594594,0.3229346690658872,0.750094633519384
1648127120204551828,95524,5,8,0.856416285038,0.380907446146,0.0242645349354,-0.161837622523,13.8000001907,0.2864268511832776,0.12739379469765885,0.008115229075384615,13.8000001907,-0.021869948989594594,0.4246290864801941,0.9376183143813841
1648127120204561223,95525,5,9,0.924243271351,0.386767566204,0.244806438684,-0.161837622523,13.8000001907,0.309111461990301,0.1293537010715719,0.08187506310501672,13.8000001907,-0.021869948989594594,0.45588613912738796,1.0313801274632486
1648127120204573305,95526,5,10,0.593855202198,0.5186201334,-2.65122270584,-0.161837622523,13.8000001907,0.1986137799993311,0.17345154963210702,-0.8866965571371237,13.8000001907,-0.021869948989594594,0.33012165527427106,2.765974092414286
1648127120204578007,95527,5,11,1.78406393528,-0.6050568223,-2.02524924278,-0.161837622523,13.8000001907,0.5966769014314381,-0.20236014123745819,-0.6773408838729097,13.8000001907,-0.021869948989594594,0.8677535803240966,2.7659740379764046
1648127120304278649,95528,6,0,0.0126302465796,0.0439508594573,0.0103256506845,0.0,14.8000001907,0.004224162735652174,0.014699284099431437,0.003453394877759197,14.8000001907,0.0,0.015866822450331473,0.046880915496128585
1648127120304295927,95529,6,1,0.0327621363103,0.0146502861753,-0.030163416639,0.0,14.8000001907,0.0109572362241806,0.0048997612626421405,-0.010088099210367893,14.8000001907,0.0,0.016252067923063808,0.04688091470919446
1648127120304307004,95530,6,2,0.48086553812,-1.53828001022,0.307884484529,0.0,14.8000001907,0.1608245946889632,-0.51447491980602,0.10297139950802675,14.8000001907,0.0,0.5625064831832156,1.6408320789793112
1648127120304311542,95531,6,3,2.42475175858,-0.902457654476,0.445549488068,0.0,14.8000001907,0.8109537654113711,-0.30182530250033446,0.14901320671170568,14.8000001907,0.0,1.1859133747872062,2.6253314562501973
1648127120304464665,95532,6,4,1.12664783001,0.722259104252,0.239527016878,0.242756426334,14.8000001907,0.37680529431772575,0.24155822884682274,0.08010937019331103,14.8000001907,0.03280492247756756,0.5850767792139335,1.3595465193790233
1648127120304467282,95533,6,5,1.52602577209,0.632892370224,0.345061630011,-0.404594063759,14.8000001907,0.5103765124046822,0.21166968903812708,0.11540522742842808,14.8000001907,-0.05467487348094594,0.7521784536173786,1.6877129311220203
1648127120304468950,95534,6,6,1.32376229763,-1.54707026482,0.330464780331,-0.323675245047,14.8000001907,0.4427298654280936,-0.5174148042876254,0.11052333790334448,14.8000001907,-0.04373989797932432,0.8122422958575585,2.0627602856260587
1648127120304471060,95535,6,7,0.558231472969,0.328166425228,0.107038505375,-0.161837622523,14.8000001907,0.18669948928729097,0.10975465726688963,0.03579883122909699,14.8000001907,-0.021869948989594594,0.28593615264957833,0.6563328589160974
1648127120304475463,95536,6,8,1.64924073219,0.594801604748,-2.07838487625,-0.161837622523,14.8000001907,0.551585529160535,0.19893030259130434,-0.6951119987458193,14.8000001907,-0.021869948989594594,0.8050257494314594,2.719093164190983
1648127120304633781,95537,6,9,1.24596560001,-0.679773271084,-2.31925535202,-0.161837622523,14.8000001907,0.4167109030133779,-0.22734892009498325,-0.7756706862943142,14.8000001907,-0.021869948989594594,0.6316513950343218,2.7190931143235852
1648127120304642552,95538,6,10,0.598193287849,0.323771327734,0.415339529514,-0.0809188112617,14.8000001907,0.20006464476555183,0.10828472499464883,0.13890954164347824,14.8000001907,-0.010934974494824324,0.30294769488725215,0.7969755373078554
1648127120404070567,95539,7,0,0.0126260910183,0.0439508594573,0.0103307310492,0.0,19.7999992371,0.004222772915819397,0.014699284099431437,0.0034550939963879593,19.7999992371,0.0,0.015866082542107033,0.04688091536487569
1648127120404097747,95540,7,1,0.0327492877841,0.0146502861753,-0.0301773659885,0.0,19.7999992371,0.010952939058227425,0.0048997612626421405,-0.010092764544648828,19.7999992371,0.0,0.016246273679135663,0.04688091459632442
1648127120404102815,95541,7,2,0.484242320061,-1.53828001022,0.302545696497,0.0,19.7999992371,0.16195395319765885,-0.51447491980602,0.10118585167123746,19.7999992371,0.0,0.5631541609738044,1.6408320794186584
1648127120404112294,95542,7,3,2.42517924309,-0.902457654476,0.443216174841,0.0,19.7999992371,0.811096736819398,-0.30182530250033446,0.14823283439498328,19.7999992371,0.0,1.1861089099182966,2.6253313613480485
1648127120404339800,95543,7,4,0.653642416,0.249054864049,0.381959795952,0.0809188112617,19.7999992371,0.21860950367892973,0.0832959411535117,0.12774575115451506,19.7999992371,0.010934974494824324,0.32018501528045507,0.7969755448095484
1648127120404348464,95544,7,5,1.22620666027,0.659262895584,0.199569806457,0.404594063759,19.7999992371,0.41010256196321065,0.22048926273712371,0.06674575466789298,19.7999992371,0.05467487348094594,0.620470577577969,1.4064275476659263
1648127120404350355,95545,7,6,1.33127772808,0.773535132408,0.150895550847,0.485512852669,19.7999992371,0.44524338731772567,0.2587074021431438,0.050466739413712366,19.7999992371,0.06560984495527027,0.6807443483599249,1.5470702820546736
1648127120404357858,95546,7,7,1.77654659748,0.46880915761,0.374983042479,-0.323675245047,19.7999992371,0.594162741632107,0.15679236040468228,0.1254123887889632,19.7999992371,-0.04373989797932432,0.8547763282688845,1.8752365507912785
1648127120404380671,95547,7,8,1.11059057713,-1.63790202141,0.384233653545,-0.323675245047,19.7999992371,0.3714349756287625,-0.5477933181973244,0.1285062386438127,19.7999992371,-0.04373989797932432,0.7589501971159331,2.0158794513227845
1648127120404384546,95548,7,9,1.98432505131,0.314981162548,0.164349064231,-0.323675245047,19.7999992371,0.6636538633143811,0.1053448704173913,0.05496624221772575,19.7999992371,-0.04373989797932432,0.944441868146189,2.015879375590248
1648127120404388834,95549,7,10,2.32386779785,0.854111671448,0.209303826094,-0.323675245047,19.7999992371,0.7772133103177258,0.2856560774073579,0.07000127963010033,19.7999992371,-0.04373989797932432,1.1356585992409134,2.4846883870629517
1648127120404407011,95550,7,11,1.43085134029,-0.0776465162635,-2.02985525131,-0.323675245047,19.7999992371,0.47854559875919733,-0.025968734536287622,-0.6788813549531771,19.7999992371,-0.04373989797932432,0.6772637265918009,2.48468848767171
1648127120404481476,95551,7,12,1.26550781727,0.594801604748,-2.33198809624,-0.242756426334,19.7999992371,0.4232467616287625,0.19893030259130434,-0.7799291291772574,19.7999992371,-0.03280492247756756,0.6307526517958818,2.719093132937402
1648127120404546055,95552,7,13,0.551693022251,0.247589826584,0.0759322047234,-0.0809188112617,19.7999992371,0.18451271647190634,0.08280596206822742,0.025395386195117053,19.7999992371,-0.010934974494824324,0.27376397212512993,0.6094518953473637
