%time,field.header.seq,field.header.frame_id,field.point_id,field.x,field.y,field.z,field.velocity,field.intensity,normalized_x,normalized_y,normalized_z,normalized_intensity,normalized_velocity,normalized_range,range
1648294490558954924,13151,0,0,0.00641943374649,0.0454158857465,0.00969579443336,0.0,17.3999996185,0.002146967808190635,0.015189259446989964,0.003242740613163879,17.3999996185,0.0,0.015489756101591388,0.04688091549296676
1648294490558966635,13152,0,1,0.0335509069264,0.0146502861753,-0.0292835440487,0.0,17.3999996185,0.011221039105819395,0.0048997612626421405,-0.009793827441036788,17.3999996185,0.0,0.016608163584802046,0.0468809150151135
1648294490558972112,13153,0,2,1.5007815361,-1.68478298187,0.635383784771,0.0,17.3999996185,0.5019336241137123,-0.5634725691872909,0.21250293805050166,17.3999996185,0.0,0.9062979985955929,2.344045961376902
1648294490559104541,13154,0,3,2.23753094673,-1.2306240797,0.609412789345,0.0,17.3999996185,0.7483381092742475,-0.4115799597658863,0.20381698640301002,17.3999996185,0.0,1.1355253915545878,2.625331276416212
1648294490559114534,13155,0,4,0.849379718304,1.13539719582,0.318641602993,-0.0809188112617,17.3999996185,0.2840734843826087,0.37973150361872904,0.10656909799096989,17.3999996185,-0.010934974494824324,0.5528033139364247,1.4533083531377813
1648294490664123741,13156,1,0,0.0126454373822,0.0439508594573,0.0103070409968,0.0,18.6000003815,0.004229243271638795,0.014699284099431437,0.003447170901939799,18.6000003815,0.0,0.015869528989141485,0.046880915389230546
1648294490664127108,13157,1,1,0.0335509069264,0.0146502861753,-0.0292835440487,0.0,18.6000003815,0.011221039105819395,0.0048997612626421405,-0.009793827441036788,18.6000003815,0.0,0.016608163584802046,0.0468809150151135
1648294490664128830,13158,1,2,1.49993360043,-1.68478298187,0.637382805347,0.0,18.6000003815,0.5016500335886287,-0.5634725691872909,0.2131715068050167,18.6000003815,0.0,0.9059839119021215,2.344045934330145
1648294490664129907,13159,1,3,2.23769879341,-1.2306240797,0.608796358109,0.0,18.6000003815,0.7483942452876253,-0.4115799597658863,0.20361082211003342,18.6000003815,0.0,1.1355993818420989,2.6253313164651852
1648294490664131747,13160,1,4,1.04294323921,1.0782610178,-0.0138022433966,-0.161837622523,18.6000003815,0.34881044789632104,0.3606224139799331,-0.004616134915250836,18.6000003815,-0.021869948989594594,0.6110531749266822,1.5001892962702135
1648294490664132834,13161,1,5,1.22999489307,1.07679605484,0.141253709793,-0.161837622523,18.6000003815,0.41136952945484945,0.36013245981270897,0.0472420434090301,18.6000003815,-0.021869948989594594,0.6842113475663502,1.640832042357643
1648294490859385897,13162,3,0,0.0126454373822,0.0439508594573,0.0103070409968,0.0,22.8999996185,0.004229243271638795,0.014699284099431437,0.003447170901939799,22.8999996185,0.0,0.015869528989141485,0.046880915389230546
1648294490859390076,13163,3,1,0.0335509069264,0.0146502861753,-0.0292835440487,0.0,22.8999996185,0.011221039105819395,0.0048997612626421405,-0.009793827441036788,22.8999996185,0.0,0.016608163584802046,0.0468809150151135
1648294490859391238,13164,3,2,1.50288546085,-1.68478298187,0.630390882492,0.0,22.8999996185,0.5026372778762541,-0.5634725691872909,0.21083307106755853,22.8999996185,0.0,0.9070776165512121,2.344045876078821
1648294490859392211,13165,3,3,2.24092006683,-1.2306240797,0.596830368042,0.0,22.8999996185,0.749471594257525,-0.4115799597658863,0.1996088187431438,22.8999996185,0.0,1.1370195268678198,2.6253313809262235
1648294490859393232,13166,3,4,1.00673174858,2.23416876793,1.47413408756,-0.404594063759,22.8999996185,0.33669958146488294,0.7472136347591972,0.4930214339665551,22.8999996185,-0.05467487348094594,0.8860369249005967,2.8597360376963383
1648294490859394134,13167,3,5,1.19565403461,1.04603040218,-0.130046188831,-0.323675245047,22.8999996185,0.39988429251170565,0.34984294387290965,-0.04349370863913043,22.8999996185,-0.04373989797932432,0.6649849473280117,1.5939511234644215
1648294490859395041,13168,3,6,0.972520589828,1.12514197826,-0.197045996785,-0.242756426334,22.8999996185,0.32525772235050165,0.37630166496989964,-0.06590167116555185,22.8999996185,-0.03280492247756756,0.5942963191509693,1.500189285967348
1648294490859395955,13169,3,7,1.17371571064,1.12807202339,0.205364942551,-0.242756426334,22.8999996185,0.3925470604147157,0.377281613173913,0.06868392727458193,22.8999996185,-0.03280492247756756,0.6712136805217688,1.640832050816702
1648294490964146244,13170,4,0,0.0127159571275,0.0439508594573,0.0102199139073,0.0,19.7999992371,0.004252828470735786,0.014699284099431437,0.0034180314071237455,19.7999992371,0.0,0.015882129990615227,0.04688091565846788
1648294490964149016,13171,4,1,0.0335735455155,0.0146502861753,-0.0292575843632,0.0,19.7999992371,0.011228610540301002,0.0048997612626421405,-0.009785145271973245,19.7999992371,0.0,0.016618394921363674,0.046880913880483405
1648294490964150821,13172,4,2,1.49560034275,-1.68478298187,0.647485375404,0.0,19.7999992371,0.500200783528428,-0.5634725691872909,0.2165502927772575,19.7999992371,0.0,0.9043798891568924,2.344045945069069
1648294490964152906,13173,4,3,2.24016666412,-1.2306240797,0.599652051926,0.0,19.7999992371,0.7492196201070235,-0.4115799597658863,0.2005525257277592,19.7999992371,0.0,1.1366873543712508,2.6253313870730803
1648294490964153983,13174,4,4,0.903351008892,1.05482065678,0.222145617008,-0.404594063759,19.7999992371,0.30212408324147155,0.352782828354515,0.07429619297926421,19.7999992371,-0.05467487348094594,0.5540881223513192,1.4064275091137297
1648294490964160494,13175,4,5,1.20077741146,1.04603040218,0.0680752843618,-0.242756426334,19.7999992371,0.4015977964749164,0.34984294387290965,0.02276765363270903,19.7999992371,-0.03280492247756756,0.6670469740915407,1.5939511405618336
1648294491159155025,13176,6,0,0.0062171574682,0.0454158857465,0.00982672441751,0.0,22.6000003815,0.0020793168789966553,0.015189259446989964,0.003286529905521739,22.6000003815,0.0,0.015471286950817462,0.04688091549768652
1648294491159378429,13177,6,1,0.033685464412,0.0146502861753,-0.0291286576539,0.0,22.6000003815,0.011266041609364548,0.0048997612626421405,-0.009742025971204013,22.6000003815,0.0,0.01666898459771186,0.04688091396707632
1648294491159380334,13178,6,2,1.49788022041,-1.68478298187,0.642193496227,0.0,22.6000003815,0.5009632844180602,-0.5634725691872909,0.21478043352073575,22.6000003815,0.0,0.9052235971826998,2.3440459332723274
1648294491159381515,13179,6,3,2.24207901955,-1.2306240797,0.592461705208,0.0,22.6000003815,0.7498592038628763,-0.4115799597658863,0.19814772749431436,22.6000003815,0.0,1.1375305334436618,2.625331374813803
1648294491159382848,13180,6,4,0.863580226898,0.909782767296,0.169515490532,-0.485512852669,22.6000003815,0.2888228183605351,0.30427517300869567,0.056694143990635444,22.6000003815,-0.06560984495527027,0.5093335073612544,1.2657847342610327
1648294491159384257,13181,6,5,0.967705130577,0.892202436924,0.340424060822,-0.404594063759,22.6000003815,0.3236472008618729,0.2983954638541806,0.1138542009438127,22.6000003815,-0.05467487348094594,0.5463834496946285,1.3595465969891263
1648294491159385270,13182,6,6,0.975600242615,0.820416092873,0.313389211893,-0.323675245047,22.6000003815,0.3262877065602006,0.2743866531347826,0.10481244544916388,22.6000003815,-0.04373989797932432,0.5368569365511996,1.3126656836248753
1648294491159386363,13183,6,7,1.18636322021,0.817485928535,-0.190693676472,-0.242756426334,22.6000003815,0.3967769967257525,0.2734066650618729,-0.06377714932173913,22.6000003815,-0.03280492247756756,0.6241916170229065,1.4533082989738206
1648294491159389913,13184,6,8,1.23347568512,0.918572962284,-0.16789290309,-0.242756426334,22.6000003815,0.4125336739531772,0.30721503755317725,-0.056151472605351166,22.6000003815,-0.03280492247756756,0.6593550967342353,1.547070321520468
1648294491264106791,13185,7,0,0.0062171574682,0.0454158857465,0.00982672441751,0.0,14.8999996185,0.0020793168789966553,0.015189259446989964,0.003286529905521739,14.8999996185,0.0,0.015471286950817462,0.04688091549768652
1648294491264109308,13186,7,1,0.0335509069264,0.0146502861753,-0.0292835440487,0.0,14.8999996185,0.011221039105819395,0.0048997612626421405,-0.009793827441036788,14.8999996185,0.0,0.016608163584802046,0.0468809150151135
1648294491264111414,13187,7,2,1.5108230114,-1.68478298187,0.611122906208,0.0,14.8999996185,0.5052919770568561,-0.5634725691872909,0.20438893184214046,14.8999996185,0.0,0.9100226922349679,2.3440458771676473
1648294491264113163,13188,7,3,2.24156713486,-1.2306240797,0.594395875931,0.0,14.8999996185,0.7496880049698996,-0.4115799597658863,0.19879460733478257,14.8999996185,0.0,1.1373048284749279,2.625331465347894
1648294491264116931,13189,7,4,0.931115031242,0.761814832687,0.195932283998,-0.404594063759,14.8999996185,0.3114097094454849,0.2547875694605351,0.06552919197257524,14.8999996185,-0.05467487348094594,0.5087914305739137,1.2189038110611459
1648294491264129301,13190,7,5,1.26872086525,0.796975553036,-0.075798779726,-0.323675245047,14.8999996185,0.4243213596153846,0.2665470077043478,-0.025350762450167225,14.8999996185,-0.04373989797932432,0.6566159758700962,1.5001893617359432
1648294491264176678,13191,7,6,1.20150303841,0.817485928535,0.0145697984844,-0.161837622523,14.8999996185,0.40184048107357856,0.2734066650618729,0.004872842302474916,14.8999996185,-0.021869948989594594,0.6306367805315078,1.4533083202435295
1648294491459334496,13192,9,0,0.0126454373822,0.0439508594573,0.0103070409968,0.0,16.2000007629,0.004229243271638795,0.014699284099431437,0.003447170901939799,16.2000007629,0.0,0.015869528989141485,0.046880915389230546
1648294491459394867,13193,9,1,0.0336356125772,0.0146502861753,-0.0291862115264,0.0,16.2000007629,0.011249368754916387,0.0048997612626421405,-0.00976127475799331,16.2000007629,0.0,0.016646448726352014,0.04688091575177948
1648294491459397318,13194,9,2,1.51261842251,-1.68478298187,0.606665432453,0.0,16.2000007629,0.505892449,-0.5634725691872909,0.20289813794414713,16.2000007629,0.0,0.9106896705996843,2.344045890132869
1648294491459399537,13195,9,3,2.24117207527,-1.2306240797,0.595883071423,0.0,16.2000007629,0.7495558780167224,-0.4115799597658863,0.1992919971314381,16.2000007629,0.0,1.1371306397330643,2.625331318389361
1648294491459403282,13196,9,4,0.980298936367,0.712003946304,0.366436064243,-0.485512852669,16.2000007629,0.3278591760424749,0.23812841013511704,0.12255386763979932,16.2000007629,-0.06560984495527027,0.5212373915443707,1.265784742115594
1648294491459407155,13197,9,5,1.00914287567,0.476134330034,0.35855910182,-0.404594063759,16.2000007629,0.33750597848494984,0.15924225084749163,0.11991943204682273,16.2000007629,-0.05467487348094594,0.5031686252948829,1.1720229832432505
1648294491459409379,13198,9,6,1.07797992229,0.656332850456,0.360940307379,-0.404594063759,16.2000007629,0.36052840210367887,0.21950931453377925,0.12071582186588628,16.2000007629,-0.05467487348094594,0.5551088151110137,1.312665771984209
1648294491459413452,13199,9,7,1.04870223999,0.495179653168,0.37516310811,-0.323675245047,16.2000007629,0.35073653511371233,0.16561192413645484,0.12547261140802674,16.2000007629,-0.04373989797932432,0.5229335938179184,1.2189038660855824
1648294491459420400,13200,9,8,1.3277926445,0.590406537056,-0.0221803989261,-0.323675245047,16.2000007629,0.4440778075250835,0.1974603802862876,-0.00741819362076923,16.2000007629,-0.04373989797932432,0.6583318312639724,1.4533083485218414
1648294491564121181,13201,10,0,0.0062171574682,0.0454158857465,0.00982672441751,0.0,18.5,0.0020793168789966553,0.015189259446989964,0.003286529905521739,18.5,0.0,0.015471286950817462,0.04688091549768652
1648294491564225410,13202,10,1,0.0335646085441,0.0146502861753,-0.0292678363621,0.0,18.5,0.011225621586655517,0.0048997612626421405,-0.009788574034147157,18.5,0.0,0.01661435585403362,0.04688091378221547
1648294491564232556,13203,10,2,1.50939917564,-1.68478298187,0.614631474018,0.0,18.5,0.50481577780602,-0.5634725691872909,0.20556236589230767,18.5,0.0,0.9094939665936879,2.344045950120223
1648294491564305714,13204,10,3,2.24220204353,-1.2306240797,0.591996133327,0.0,18.5,0.7499003490066889,-0.4115799597658863,0.19799201783511702,18.5,0.0,1.137584779329258,2.625331417444605
1648294491564312381,13205,10,4,1.73035526276,-1.59981119633,0.624003887177,-0.647350490093,18.5,0.5787141347023411,-0.5350539118160534,0.20869695223311033,18.5,-0.08747979595851352,0.9778050868952461,2.437807631966899
1648294491564358301,13206,10,5,0.997377514839,0.476134330034,0.39009231329,-0.485512852669,18.5,0.3335710751969899,0.15924225084749163,0.13046565661872908,18.5,-0.06560984495527027,0.4978929793350447,1.1720229606246155
1648294491759079090,13207,12,0,0.00630713393912,0.0454158857465,0.00976921804249,0.0,39.7000007629,0.0021094093441872907,0.015189259446989964,0.0032672970041772577,39.7000007629,0.0,0.015479432099100509,0.04688091549689333
1648294491759325987,13208,12,1,0.033601410687,0.0146502861753,-0.0292255785316,0.0,39.7000007629,0.011237929995652172,0.0048997612626421405,-0.009774440980468226,39.7000007629,0.0,0.01663098919503125,0.04688091430082548
1648294491759329531,13209,12,2,1.50595092773,-1.68478298187,0.623032331467,0.0,39.7000007629,0.5036625176354514,-0.5634725691872909,0.20837201721304346,39.7000007629,0.0,0.9082142916560437,2.344045899461617
1648294491759332823,13210,12,3,2.24047708511,-1.2306240797,0.598491311073,0.0,39.7000007629,0.7493234398361204,-0.4115799597658863,0.20016431808461538,39.7000007629,0.0,1.1368242160758892,2.625331416006435
1648294491759349114,13211,12,4,1.82967698574,-1.92065250874,0.322635710239,-0.566431701183,39.7000007629,0.6119321022541805,-0.6423586985752507,0.10790491981237457,39.7000007629,-0.07654482448418919,1.0777506637315197,2.6722121422142537
1648294491759400908,13212,12,5,0.898588418961,0.399952799082,0.0426066145301,-0.404594063759,39.7000007629,0.3005312437996655,0.13376347795384613,0.014249703856220734,39.7000007629,-0.05467487348094594,0.4455678680446527,0.9844992187838814
1648294491759402296,13213,12,6,1.03022384644,0.316446185112,0.323179751635,-0.404594063759,39.7000007629,0.34455647038127085,0.10583484451906354,0.10808687345652174,39.7000007629,-0.05467487348094594,0.4986374804179621,1.1251419971329961
1648294491860759074,13214,13,0,0.012678119354,0.0439508594573,0.0102668134496,0.0,37.7999992371,0.004240173696989966,0.014699284099431437,0.003433716872775919,37.7999992371,0.0,0.015875361381621805,0.04688091526195381
1648294491860763874,13215,13,1,0.0335509069264,0.0146502861753,-0.0292835440487,0.0,37.7999992371,0.011221039105819395,0.0048997612626421405,-0.009793827441036788,37.7999992371,0.0,0.016608163584802046,0.0468809150151135
1648294491860768585,13216,13,2,1.50252890587,-1.68478298187,0.631240367889,0.0,37.7999992371,0.5025180287190635,-0.5634725691872909,0.21111717989598658,37.7999992371,0.0,0.9069454639623672,2.344045906339359
1648294491860800548,13217,13,3,2.24100923538,-1.2306240797,0.596495807171,0.0,37.7999992371,0.7495014165150501,-0.4115799597658863,0.19949692547525083,37.7999992371,0.0,1.1370588419237686,2.6253314584197756
1648294491860922381,13218,13,4,1.18960309029,-1.7902649641,0.484541743994,-0.566431701183,37.7999992371,0.3978605653143813,-0.5987508241137123,0.1620540949812709,37.7999992371,-0.07654482448418919,0.8216377597465977,2.203403017104279
1648294491860943496,13219,13,5,0.942319452763,0.276890397072,0.0678559914231,-0.323675245047,37.7999992371,0.31515700761304344,0.09260548397056856,0.022694311512742475,37.7999992371,-0.04373989797932432,0.45521824936687133,0.9844992019388646
1648294491860948196,13220,13,6,1.30210328102,0.123062409461,-0.111686348915,-0.323675245047,37.7999992371,0.43548604716387956,0.041157996475250834,-0.037353293951505016,37.7999992371,-0.04373989797932432,0.6172440159472574,1.312665666344389
1648294491860949744,13221,13,7,1.19020330906,-0.879017174244,-2.39225792885,-0.323675245047,37.7999992371,0.3980613073779264,-0.29398567700468226,-0.8000862638294314,37.7999992371,-0.04373989797932432,0.6350851810164911,2.8128549745159224
1648294491860976160,13222,13,8,1.54681360722,0.351606875658,-2.32290625572,-0.323675245047,37.7999992371,0.5173289656254181,0.11759427279531771,-0.7768917243210701,37.7999992371,-0.04373989797932432,0.7410040015711046,2.812854991526232
1648294491964217348,13223,14,0,0.00625035958365,0.0454158857465,0.00980563927442,0.0,18.5,0.0020904212654347825,0.015189259446989964,0.0032794780182006686,18.5,0.0,0.015474279455985594,0.046880915462948404
1648294491964221191,13224,14,1,0.0335509069264,0.0146502861753,-0.0292835440487,0.0,18.5,0.011221039105819395,0.0048997612626421405,-0.009793827441036788,18.5,0.0,0.016608163584802046,0.0468809150151135
1648294491964226396,13225,14,2,1.49079549313,-1.68478298187,0.658472657204,0.0,18.5,0.49859381041137124,-0.5634725691872909,0.22022496896454846,18.5,0.0,0.9026034078085386,2.3440458908947974
1648294491964233537,13226,14,3,2.23990249634,-1.2306240797,0.60063803196,0.0,18.5,0.7491312696789297,-0.4115799597658863,0.20088228493645482,18.5,0.0,1.136570887231597,2.6253313817658177
1648294491964324272,13227,14,4,0.622257590294,-1.81956541538,0.975994050503,-0.566431701183,18.5,0.20811290645284278,-0.6085503061471572,0.3264194148839465,18.5,-0.07654482448418919,0.6759847918232319,2.156522013832166
1648294491964339847,13228,14,5,0.991760253906,0.161153152585,0.232779428363,-0.323675245047,18.5,0.3316923926107023,0.05389737544648829,0.0778526516264214,18.5,-0.04373989797932432,0.47217011098929623,1.0313801443138135
1648294491964391624,13229,14,6,0.647620737553,-1.0372402668,-2.48099422455,-0.323675245047,18.5,0.21659556439899663,-0.34690309926421403,-0.8297639546989966,18.5,-0.04373989797932432,0.462784007193158,2.7659740297100552
1648294491964589531,13230,14,7,0.849324226379,0.0864366889,-2.63092947006,-0.323675245047,18.5,0.28405492521036785,0.02890859160535117,-0.8799095217591972,18.5,-0.04373989797932432,0.40275315981521526,2.7659741175818104
1648294491964593825,13231,14,8,0.914643585682,0.205104008317,-0.0220813192427,-0.242756426334,18.5,0.3059008647765886,0.06859665829999999,-0.007385056602909699,18.5,-0.03280492247756756,0.4380139035145534,0.9376183273147044
1648294491964609685,13232,14,9,1.04044485092,0.134782627225,0.248907342553,-0.242756426334,18.5,0.3479748665284281,0.04507780174749164,0.08324660286053512,18.5,-0.03280492247756756,0.4941710469881262,1.0782609654366657
1648294491964833323,13233,14,10,0.973166704178,0.12306240201,0.0839103460312,-0.161837622523,18.5,0.3254738141063545,0.04115799398327759,0.028063660879999997,18.5,-0.021869948989594594,0.46212594366320003,0.984499230614335
1648294491964925510,13234,14,11,1.26279175282,0.079111546278,-0.0361872054636,-0.161837622523,18.5,0.42233837886956516,0.026458711129765885,-0.012102744302207357,18.5,-0.021869948989594594,0.5978624222402618,1.2657848006608265
1648294492159217334,13235,16,0,0.0126577178016,0.0439508594573,0.0102919563651,0.0,12.0,0.004233350435317726,0.014699284099431437,0.0034421258746153843,12.0,0.0,0.01587171902637542,0.046880915443295264
1648294492159255113,13236,16,1,0.0335509069264,0.0146502861753,-0.0292835440487,0.0,12.0,0.011221039105819395,0.0048997612626421405,-0.009793827441036788,12.0,0.0,0.016608163584802046,0.0468809150151135
1648294492159260898,13237,16,2,1.49263250828,-1.68478298187,0.654297947884,0.0,12.0,0.49920819674916384,-0.5634725691872909,0.21882874511170566,12.0,0.0,0.9032823388230449,2.3440459264652276
1648294492159382829,13238,16,3,2.19597816467,-1.31266570091,0.58902746439,0.0,12.0,0.7344408577491639,-0.4390186290668896,0.19699915196989964,12.0,0.0,1.1276276440964128,2.6253313497268636
1648294492159388930,13239,16,4,0.951152741909,-0.061531201005,0.246497631073,0.0809188112617,12.0,0.318111284919398,-0.020578996991638794,0.08244067928862875,12.0,0.010934974494824324,0.45034772598884376,0.9844992175023438
1648294492159420170,13240,16,5,0.907821595669,-0.310586065054,-2.29195833206,-0.404594063759,12.0,0.30361926276555185,-0.10387493814515049,-0.766541248180602,12.0,-0.05467487348094594,0.441768396582704,2.484688461209573
1648294492159430512,13241,16,6,0.575965762138,-1.52948987484,-2.17310643196,-0.242756426334,12.0,0.19263068967826086,-0.5115350751973244,-0.7267914488160534,12.0,-0.03280492247756756,0.5795526709186812,2.719093121064302
1648294492159776487,13242,16,7,2.63205361366,-0.594801604748,0.334623217583,-0.242756426334,12.0,0.8802854895183946,-0.19893030259130434,0.11191411959297659,12.0,-0.03280492247756756,1.2607054974903327,2.719093207658954
