%time,field.header.seq,field.header.frame_id,field.point_id,field.x,field.y,field.z,field.velocity,field.intensity,normalized_x,normalized_y,normalized_z,normalized_intensity,normalized_velocity,normalized_range,range
1648295448862240410,45281,0,0,0.0126660717651,0.0439508594573,0.0102816736326,0.0,28.2999992371,0.004236144403043478,0.014699284099431437,0.0034386868336454845,28.2999992371,0.0,0.015873209878366476,0.0468809154526797
1648295448862246019,45282,0,1,0.0334552153945,0.0146502861753,-0.0293928217143,0.0,28.2999992371,0.011189035248996655,0.0048997612626421405,-0.00983037515528428,28.2999992371,0.0,0.016564923182359397,0.0468809160580209
1648295448862247933,45283,0,2,0.740160942078,0.741304457188,0.255492180586,0.0,28.2999992371,0.2475454655779264,0.24792791210301002,0.08544888982809364,28.2999992371,0.0,0.4289822428214745,1.0782609947341957
1648295448862253549,45284,0,3,0.988096892834,0.79111546278,-0.00343252066523,0.0,28.2999992371,0.33046718823879595,0.26458711129765883,-0.0011480002224849499,28.2999992371,0.0,0.5370507094025212,1.2657847081063731
1648295448862384768,45285,0,4,2.23820209503,-1.2306240797,0.606943845749,0.0,28.2999992371,0.7485625735886288,-0.4115799597658863,0.20299125275886284,28.2999992371,0.0,1.1358212519741613,2.625331422054507
1648295448862395736,45286,0,5,1.18344295025,0.703213751316,0.288082480431,-0.242756426334,28.2999992371,0.3958003178093645,0.23518854559063543,0.09634865566254179,28.2999992371,-0.03280492247756756,0.6071486104184265,1.4064274997551856
1648295448967087286,45287,1,0,0.0126779936254,0.0439508594573,0.0102669699118,0.0,25.1000003815,0.004240131647290969,0.014699284099431437,0.0034337692012709024,25.1000003815,0.0,0.015875338919484987,0.04688091552615868
1648295448967093330,45288,1,1,0.0334645062685,0.0146502861753,-0.0293822418898,0.0,25.1000003815,0.011192142564715717,0.0048997612626421405,-0.00982683675244147,25.1000003815,0.0,0.016569121002899676,0.04688091512847611
1648295448967106707,45289,1,2,1.80759751797,-0.171408340335,0.214697599411,0.0,25.1000003815,0.6045476648729097,-0.05732720412541805,0.07180521719431437,25.1000003815,0.0,0.8568793185387387,1.8283557272315882
1648295448967110160,45290,1,3,2.23910784721,-1.2306240797,0.603593528271,0.0,25.1000003815,0.7488655007391304,-0.4115799597658863,0.2018707452411371,25.1000003815,0.0,1.1362205506306535,2.6253313551522424
1648295448967147416,45291,1,4,1.17140567303,0.747164607048,0.218156173825,0.0809188112617,25.1000003815,0.39177447258528425,0.24988782844414714,0.07296193104515049,25.1000003815,0.010934974494824324,0.6077979940271988,1.4064275015122618
1648295448967153854,45292,1,5,0.569655358791,0.83799636364,0.192353591323,-0.404594063759,25.1000003815,0.19052018688662206,0.28026634235451503,0.064332304790301,25.1000003815,-0.05467487348094594,0.38877384927410563,1.0313801614186795
1648295448967166258,45293,1,6,0.708133161068,0.843856453896,0.228906601667,-0.323675245047,25.1000003815,0.23683383313311032,0.28222623876120395,0.07655739186187291,25.1000003815,-0.04373989797932432,0.43798650536099853,1.1251420003149932
1648295448967171573,45294,1,7,0.778126060963,0.707608819008,0.237605378032,-0.0809188112617,25.1000003815,0.26024282975351165,0.23665846789565215,0.0794666816160535,25.1000003815,-0.010934974494824324,0.4375613000517161,1.0782609717306013
1648295449162449882,45295,3,0,0.0126779936254,0.0439508594573,0.0102669699118,0.0,29.3999996185,0.004240131647290969,0.014699284099431437,0.0034337692012709024,29.3999996185,0.0,0.015875338919484987,0.04688091552615868
1648295449162457940,45296,3,1,0.0335404723883,0.0146502861753,-0.0292954929173,0.0,29.3999996185,0.011217549293745818,0.0048997612626421405,-0.009797823718160533,29.3999996185,0.0,0.016603447977637752,0.046880913795659694
1648295449162464904,45297,3,2,1.87144124508,-0.117202289402,0.0219914894551,0.0,29.3999996185,0.6259000819665551,-0.03919809010100334,0.0073550131956856175,29.3999996185,0.0,0.8860238797453753,1.8752366080140672
1648295449162505993,45298,3,3,2.24379944801,-1.2306240797,0.585911929607,0.0,29.3999996185,0.7504345979966555,-0.4115799597658863,0.19595716709264213,29.3999996185,0.0,1.1382891702118985,2.625331289129669
1648295449162512144,45299,3,4,1.2430961132,0.726654171944,0.19695353508,0.485512852669,29.3999996185,0.4157512084280936,0.24302815115183943,0.06587074751839464,29.3999996185,0.06560984495527027,0.6362081553007015,1.4533082698578015
1648295449162534780,45300,3,5,1.18225944042,-1.93383777142,1.66573929787,-0.647350490093,29.3999996185,0.39540449512374576,-0.6467684854247491,0.557103444103679,29.3999996185,-0.08747979595851352,0.8549847386162822,2.8128550121009304
1648295449162559964,45301,3,6,0.690886378288,0.556710898876,0.078499302268,-0.404594063759,29.3999996185,0.23106567835719063,0.18619093607892975,0.026253947246822743,29.3999996185,-0.05467487348094594,0.37609807245888066,0.8907374209540072
1648295449162582017,45302,3,7,0.765018701553,0.676843225956,0.142739653587,-0.242756426334,29.3999996185,0.25585909750936453,0.22636897189163876,0.04773901457759197,29.3999996185,-0.03280492247756756,0.4268145580833561,1.0313801311613966
1648295449162583912,45303,3,8,1.03032803535,0.647542655468,-0.0695631504059,-0.161837622523,29.3999996185,0.34459131617056854,0.21656944998929767,-0.023265267694280934,29.3999996185,-0.021869948989594594,0.5332810488185347,1.2189037628021064
1648295449267579443,45304,4,0,0.0126779936254,0.0439508594573,0.0102669699118,0.0,25.1000003815,0.004240131647290969,0.014699284099431437,0.0034337692012709024,25.1000003815,0.0,0.015875338919484987,0.04688091552615868
1648295449267582096,45305,4,1,0.0335269682109,0.0146502861753,-0.0293109472841,0.0,25.1000003815,0.01121303284645485,0.0048997612626421405,-0.00980299240270903,25.1000003815,0.0,0.016597345319726262,0.046880914166899254
1648295449267587078,45306,4,2,1.77945208549,-0.171408340335,0.383476138115,0.0,25.1000003815,0.5951344767525083,-0.05732720412541805,0.12825288900167223,25.1000003815,0.0,0.8435973560720784,1.8283556798923737
1648295449267593935,45307,4,3,1.9023848772,-0.180198520422,-0.207355484366,0.0,25.1000003815,0.6362491228093645,-0.06026706368628762,-0.06934966032307692,25.1000003815,0.0,0.9018081899809619,1.9221175886657391
1648295449267613016,45308,4,4,2.24364447594,-1.2306240797,0.586505711079,0.0,25.1000003815,0.7503827678729097,-0.4115799597658863,0.19615575621371234,25.1000003815,0.0,1.1382208309120452,2.625331428426101
1648295449267731484,45309,4,5,0.702723622322,0.528875350952,0.14100907743,-0.242756426334,25.1000003815,0.23502462285016723,0.17688138827826086,0.047160226565217386,25.1000003815,-0.03280492247756756,0.3765105207175114,0.8907374395025809
1648295449267735172,45310,4,6,0.797817051411,0.612381994724,0.228519842029,-0.242756426334,25.1000003815,0.26682844528795985,0.20481003168026754,0.07642804081237457,25.1000003815,-0.03280492247756756,0.42935065797836125,1.0313801787824153
1648295449462448303,45311,6,0,0.0126660717651,0.0439508594573,0.0102816736326,0.0,37.0,0.004236144403043478,0.014699284099431437,0.0034386868336454845,37.0,0.0,0.015873209878366476,0.0468809154526797
1648295449462453848,45312,6,1,0.0334780961275,0.0146502861753,-0.0293667558581,0.0,37.0,0.011196687668060201,0.0048997612626421405,-0.009821657477625418,37.0,0.0,0.01657526138264707,0.0468809146131938
1648295449462461444,45313,6,2,1.86985123158,-0.117202289402,0.0802010819316,0.0,37.0,0.6253683048762542,-0.03919809010100334,0.02682310432494983,37.0,0.0,0.8852725703167165,1.8752365766551462
1648295449462579918,45314,6,3,2.23902130127,-1.2306240797,0.603914618492,0.0,37.0,0.7488365556086957,-0.4115799597658863,0.20197813327491637,37.0,0.0,1.1361823961462696,2.625331384703008
1648295449462586765,45315,6,4,0.872205674648,0.547920703888,-0.0527743622661,-0.647350490093,37.0,0.29170758349431436,0.18325107153444814,-0.017650288383311036,37.0,-0.08747979595851352,0.45140622919351503,1.0313801287352242
1648295449462624028,45316,6,5,0.69674962759,0.474669247866,0.0363696105778,-0.0809188112617,37.0,0.23302663130100335,0.15875225681137123,0.012163749357123745,37.0,-0.010934974494824324,0.3657937955101085,0.8438564374288192
1648295449462685226,45317,6,6,0.832599699497,0.461484014988,0.251095414162,-0.0809188112617,37.0,0.27846143795886286,0.15434247992909697,0.08397839938528427,37.0,-0.010934974494824324,0.42296943857789415,0.9844991938570217
1648295449565360379,45318,7,0,0.0126660717651,0.0439508594573,0.0102816736326,0.0,34.2999992371,0.004236144403043478,0.014699284099431437,0.0034386868336454845,34.2999992371,0.0,0.015873209878366476,0.0468809154526797
1648295449565364733,45319,7,1,0.0335632227361,0.0146502861753,-0.0292694270611,0.0,34.2999992371,0.011225158105719061,0.0048997612626421405,-0.009789106040501672,34.2999992371,0.0,0.01661372954600108,0.04688091473015751
1648295449565368428,45320,7,2,1.86696302891,-0.175803437829,0.00736719928682,0.0,34.2999992371,0.62440235080602,-0.05879713639765886,0.002463946249772575,34.2999992371,0.0,0.8849936127638058,1.875236538598432
1648295449565370817,45321,7,3,2.23768162727,-1.2306240797,0.608859658241,0.0,34.2999992371,0.748388504103679,-0.4115799597658863,0.20363199272274246,34.2999992371,0.0,1.135591814619132,2.625331364607625
1648295449565374608,45322,7,4,0.669903457165,0.501039743423,0.110825285316,0.323675245047,34.2999992371,0.22404797898494982,0.16757182054280934,0.037065312814715715,34.2999992371,0.04373989797932432,0.35843452514303437,0.8438564512263785
1648295449565517628,45323,7,5,1.35605990887,0.408742964268,0.325785040855,-0.485512852669,34.2999992371,0.45353174209698993,0.13670333253110367,0.1089582076438127,34.2999992371,-0.06560984495527027,0.6557971357852752,1.453308356863057
1648295449565521098,45324,7,6,0.867789208889,0.430718421936,0.175106331706,-0.242756426334,34.2999992371,0.2902305046451505,0.14405298392508362,0.058563990537123745,34.2999992371,-0.03280492247756756,0.43499282043601345,0.9844992115094691
1648295449565524592,45325,7,7,0.756193518639,0.41899818182,0.859266161919,-0.161837622523,34.2999992371,0.2529075313173913,0.14013317117725752,0.2873799872638796,34.2999992371,-0.021869948989594594,0.3841376634206923,1.218903790714881
1648295449665256249,45326,8,0,0.0126779936254,0.0439508594573,0.0102669699118,0.0,22.0,0.004240131647290969,0.014699284099431437,0.0034337692012709024,22.0,0.0,0.015875338919484987,0.04688091552615868
1648295449665282504,45327,8,1,0.0334645062685,0.0146502861753,-0.0293822418898,0.0,22.0,0.011192142564715717,0.0048997612626421405,-0.00982683675244147,22.0,0.0,0.016569121002899676,0.04688091512847611
1648295449665287666,45328,8,2,2.23701095581,-1.2306240797,0.611319482327,0.0,22.0,0.7481641992675585,-0.4115799597658863,0.2044546763635451,22.0,0.0,1.1352961734332687,2.6253314364902565
1648295449665300559,45329,8,3,2.35142207146,-1.35954654217,0.126155659556,0.242756426334,22.0,0.7864287864414715,-0.4546978401906354,0.04219252827959866,22.0,0.03280492247756756,1.2015367652142983,2.7190931960699047
1648295449665391041,45330,8,4,1.29277253151,0.254914969206,0.334849715233,-0.485512852669,22.0,0.43236539515384614,0.0852558425438127,0.11198987131538461,22.0,-0.06560984495527027,0.6173720341422492,1.3595465389399846
1648295449665396194,45331,8,5,1.18456792831,-1.82835566998,0.56364184618,-0.404594063759,22.0,0.3961765646521739,-0.6114901906287625,0.18850897865551838,22.0,-0.05467487348094594,0.8293563733368162,2.2502839295284183
1648295449665410041,45332,8,6,2.17804527283,0.421928226948,0.376660913229,-0.404594063759,22.0,0.7284432350602006,0.14111311938060198,0.12597354957491638,22.0,-0.05467487348094594,1.039794213232246,2.2502840004646294
1648295449665445533,45333,8,7,1.91720843315,-1.83714580536,0.299874514341,-0.404594063759,22.0,0.6412068338294313,-0.6144300352374582,0.10029247971270902,22.0,-0.05467487348094594,1.0953614361027286,2.672212119320727
1648295449665547170,45334,8,8,0.821530938148,0.380907446146,0.243155494332,-0.242756426334,22.0,0.2747595110862876,0.12739379469765885,0.08132290780334447,22.0,-0.03280492247756756,0.4089190100646103,0.9376183441505612
1648295449665550854,45335,8,9,0.799993634224,0.34281668067,0.853354156017,-0.242756426334,22.0,0.26755639940602005,0.1146544082508361,0.28540272776488296,22.0,-0.03280492247756756,0.39537132806714353,1.2189037726317884
1648295449665553383,45336,8,10,0.691832542419,0.83799636364,-0.552137970924,-0.242756426334,22.0,0.23138212121036789,0.28026634235451503,-0.18466152873712371,22.0,-0.03280492247756756,0.4308417281188035,1.2189038153849026
1648295449665559293,45337,8,11,1.02000617981,0.336956560612,0.0932445526123,-0.0809188112617,22.0,0.34113919057190634,0.11269450187692308,0.031185469101103674,22.0,-0.010934974494824324,0.4954310703230054,1.078261043153246
1648295449767470044,45338,9,0,0.0126779936254,0.0439508594573,0.0102669699118,0.0,24.2999992371,0.004240131647290969,0.014699284099431437,0.0034337692012709024,24.2999992371,0.0,0.015875338919484987,0.04688091552615868
1648295449767475635,45339,9,1,0.0334645062685,0.0146502861753,-0.0293822418898,0.0,24.2999992371,0.011192142564715717,0.0048997612626421405,-0.00982683675244147,24.2999992371,0.0,0.016569121002899676,0.04688091512847611
1648295449767579719,45340,9,2,1.87417626381,-0.0586011447012,0.0232732594013,0.0,24.2999992371,0.6268148039498327,-0.019599045050568562,0.007783698796421405,24.2999992371,0.0,0.8866666337853413,1.8752366268266685
1648295449767581377,45341,9,3,2.23574352264,-1.2306240797,0.615938067436,0.0,24.2999992371,0.7477403085752508,-0.4115799597658863,0.20599935365752506,24.2999992371,0.0,1.134737503309603,2.6253312986137547
1648295449767582538,45342,9,4,0.821989059448,0.351606875658,0.282550394535,-0.404594063759,24.2999992371,0.27491272891237456,0.11759427279531771,0.09449845971070234,24.2999992371,-0.05467487348094594,0.4061802925184297,0.9376183308330059
1648295449767583786,45343,9,5,0.792888522148,0.361862063408,0.183838993311,-0.323675245047,24.2999992371,0.265180107741806,0.12102410147424747,0.06148461314749164,24.2999992371,-0.04373989797932432,0.3940657460647406,0.8907374118950752
1648295449767584897,45344,9,6,0.793655753136,0.354536950588,0.555120825768,-0.323675245047,24.2999992371,0.26543670673444814,0.11857423096588628,0.18565913905284281,24.2999992371,-0.04373989797932432,0.39366627848116503,1.0313801602801247
1648295449767585897,45345,9,7,0.797742605209,0.329631447792,0.792835175991,-0.323675245047,24.2999992371,0.26680354689264213,0.11024463136856186,0.2651622662177257,24.2999992371,-0.04373989797932432,0.3930930475276543,1.1720229399750555
1648295449767589813,45346,9,8,2.42505311966,-1.2965502739,-0.297804713249,-0.323675245047,24.2999992371,0.8110545550702339,-0.4336288541471572,-0.09960023854481605,24.2999992371,-0.04373989797932432,1.2262352815627704,2.765974130962938
1648295449767590901,45347,9,9,1.26679551601,0.164083212614,0.302319586277,-0.242756426334,24.2999992371,0.42367743010367886,0.054877328633444813,0.10111022952408026,24.2999992371,-0.03280492247756756,0.6016781953473621,1.3126657275527038
1648295449767591924,45348,9,10,0.890616297722,0.293005734682,-0.0088502978906,-0.0809188112617,24.2999992371,0.297864982515719,0.09799522899063544,-0.0029599658496989967,24.2999992371,-0.010934974494824324,0.43249296008502414,0.9376183008545286
1648295449865576034,45349,10,0,0.0126779936254,0.0439508594573,0.0102669699118,0.0,26.1000003815,0.004240131647290969,0.014699284099431437,0.0034337692012709024,26.1000003815,0.0,0.015875338919484987,0.04688091552615868
1648295449865689893,45350,10,1,0.0334416292608,0.0146502861753,-0.0294082760811,0.0,26.1000003815,0.011184491391571906,0.0048997612626421405,-0.009835543839832775,26.1000003815,0.0,0.016558784852977005,0.04688091461028868
1648295449865693513,45351,10,2,1.86856484413,-0.117202289402,0.106025673449,0.0,26.1000003815,0.6249380749598662,-0.03919809010100334,0.03546009145451505,26.1000003815,0.0,0.8846647304694887,1.8752366242130498
1648295449865771682,45352,10,3,2.23903012276,-1.2306240797,0.603881716728,0.0,26.1000003815,0.7488395059397993,-0.4115799597658863,0.2019671293404682,26.1000003815,0.0,1.136186285163315,2.6253313398431235
1648295449865782697,45353,10,4,0.783561050892,0.263705134392,0.1690723598,0.566431701183,26.1000003815,0.2620605521377926,0.08819569712107023,0.056545939732441465,26.1000003815,0.07654482448418919,0.38095924580485113,0.8438564932664907
1648295449865797620,45354,10,5,1.00741064548,-1.81956541538,0.569993674755,-0.566431701183,26.1000003815,0.3369266372842809,-0.6085503061471572,0.1906333360384615,26.1000003815,-0.07654482448418919,0.7728988245140405,2.156522037618473
1648295449865907265,45355,10,6,2.12689471245,0.134782627225,0.329757094383,-0.566431701183,26.1000003815,0.7113360242307691,0.04507780174749164,0.11028665363979932,26.1000003815,-0.07654482448418919,1.0069905098595822,2.1565220183771276
1648295449865910657,45356,10,7,0.801142334938,0.234404578805,0.427028685808,-0.404594063759,26.1000003815,0.2679405802468227,0.07839618020234114,0.14281895846421405,26.1000003815,-0.05467487348094594,0.38694995820690564,0.9376182836834869
1648295449865913624,45357,10,8,1.290143013,0.0410208031535,0.238619610667,-0.242756426334,26.1000003815,0.43148595752508356,0.013719332158361203,0.07980588985518394,26.1000003815,-0.03280492247756756,0.6103674984446238,1.3126656157906123
1648295449965247694,45358,11,0,0.0126779936254,0.0439508594573,0.0102669699118,0.0,16.7000007629,0.004240131647290969,0.014699284099431437,0.0034337692012709024,16.7000007629,0.0,0.015875338919484987,0.04688091552615868
1648295449965255236,45359,11,1,0.0334416292608,0.0146502861753,-0.0294082760811,0.0,16.7000007629,0.011184491391571906,0.0048997612626421405,-0.009835543839832775,16.7000007629,0.0,0.016558784852977005,0.04688091461028868
1648295449965258468,45360,11,2,1.87286555767,-0.0586011447012,0.0738413631916,0.0,16.7000007629,0.6263764406923076,-0.019599045050568562,0.02469610809083612,16.7000007629,0.0,0.8860468460954094,1.8752365285970847
1648295449965261188,45361,11,3,2.19363808632,-1.31266570091,0.597683310509,0.0,16.7000007629,0.7336582228494983,-0.4390186290668896,0.19989408378227425,16.7000007629,0.0,1.1266082427255446,2.625331338280982
1648295449965341898,45362,11,4,0.727797031403,0.164083212614,0.0776540115476,0.404594063759,16.7000007629,0.24341037839565216,0.054877328633444813,0.025971241320267558,16.7000007629,0.05467487348094594,0.34858104627098163,0.750094637422629
1648295449965450069,45363,11,5,0.709247946739,-1.97778868675,0.189487785101,-0.647350490093,16.7000007629,0.23720667115016722,-0.6614677882107023,0.06337384117090301,16.7000007629,-0.08747979595851352,0.7416694981706108,2.109641287065709
1648295449965454327,45364,11,6,1.06725037098,-2.29423475266,0.0794205740094,-0.485512852669,16.7000007629,0.3569399234046823,-0.7673025928628762,0.026562064886086957,16.7000007629,-0.06560984495527027,0.9184582118171593,2.531569489910522
1648295449965844946,45365,11,7,0.771434485912,0.184593603015,0.287937045097,-0.404594063759,16.7000007629,0.25800484478662206,0.06173699097491638,0.0963000150826087,16.7000007629,-0.05467487348094594,0.37006007069309,0.8438564488510846
1648295449965864768,45366,11,8,0.692025542259,0.175803437829,0.869562149048,-0.323675245047,16.7000007629,0.23144666965183947,0.05879713639765886,0.29082346122006686,16.7000007629,-0.04373989797932432,0.3325540933959772,1.1251420047924325
1648295449965897443,45367,11,9,1.1181473732,-1.35954654217,-2.07240128517,-0.323675245047,16.7000007629,0.373962332173913,-0.4546978401906354,-0.693110797715719,16.7000007629,-0.04373989797932432,0.6974566492936551,2.7190931273670516
1648295449965900141,45368,11,10,2.50928139687,-0.169943317771,-1.03348648548,-0.323675245047,16.7000007629,0.8392245474481606,-0.05683723002374581,-0.34564765400668895,16.7000007629,-0.04373989797932432,1.1882029089326083,2.7190932634984546
1648295450067344055,45369,12,0,0.0126779936254,0.0439508594573,0.0102669699118,0.0,20.1000003815,0.004240131647290969,0.014699284099431437,0.0034337692012709024,20.1000003815,0.0,0.015875338919484987,0.04688091552615868
1648295450067353327,45370,12,1,0.0335404723883,0.0146502861753,-0.0292954929173,0.0,20.1000003815,0.011217549293745818,0.0048997612626421405,-0.009797823718160533,20.1000003815,0.0,0.016603447977637752,0.046880913795659694
1648295450067363673,45371,12,2,1.49366950989,-1.68478298187,0.651927232742,0.0,20.1000003815,0.49955502003010027,-0.5634725691872909,0.21803586379331102,20.1000003815,0.0,0.9036657414669841,2.3440459503952655
1648295450067368449,45372,12,3,2.19662022591,-1.31266570091,0.586629092693,0.0,20.1000003815,0.7346555939498327,-0.4390186290668896,0.1961970209675585,20.1000003815,0.0,1.1279073721327184,2.625331474617301
1648295450067375941,45373,12,4,0.609356641769,0.164083212614,0.180371791124,-0.566431701183,20.1000003815,0.2037982079494983,0.054877328633444813,0.06032501375384615,20.1000003815,-0.07654482448418919,0.2933921272372471,0.6563328428191022
1648295450067524417,45374,12,5,0.758343040943,0.124527432024,0.211136892438,-0.485512852669,20.1000003815,0.25362643509799326,0.04164797057658863,0.07061434529698996,20.1000003815,-0.06560984495527027,0.3610918035821107,0.7969755557239784
1648295450067528076,45375,12,6,2.00090956688,0.0629962310195,0.236986339092,-0.485512852669,20.1000003815,0.6692005240401336,0.021068973585117053,0.0792596451812709,20.1000003815,-0.06560984495527027,0.9466269510208914,2.015879496614517
1648295450067531262,45376,12,7,0.753238201141,0.149432912469,-0.213241681457,-0.323675245047,20.1000003815,0.25191913081638795,0.04997756269866221,-0.07131828811270903,20.1000003815,-0.04373989797932432,0.3597558251312513,0.7969755314297335
1648295450067535212,45377,12,8,0.836366832256,-0.0263705141842,0.109035946429,-0.161837622523,20.1000003815,0.279721348580602,-0.008819569961270902,0.03646687171538461,20.1000003815,-0.021869948989594594,0.39568402863623775,0.8438564568277847
1648295450067653518,45378,12,9,2.511459589,-0.76474493742,0.707957267761,-0.161837622523,20.1000003815,0.8399530397993311,-0.2557675375986622,0.23677500594013376,20.1000003815,-0.021869948989594594,1.2150963959396623,2.7190931538778127
1648295450067656132,45379,12,10,1.62163293362,0.169943317771,-2.17598104477,-0.161837622523,20.1000003815,0.5423521517123745,0.05683723002374581,-0.7277528577826086,20.1000003815,-0.021869948989594594,0.7691047936730451,2.7190931594659205
1648295450262452996,45380,14,0,0.0126779936254,0.0439508594573,0.0102669699118,0.0,16.5,0.004240131647290969,0.014699284099431437,0.0034337692012709024,16.5,0.0,0.015875338919484987,0.04688091552615868
1648295450262463460,45381,14,1,0.0335269682109,0.0146502861753,-0.0293109472841,0.0,16.5,0.01121303284645485,0.0048997612626421405,-0.00980299240270903,16.5,0.0,0.016597345319726262,0.046880914166899254
1648295450262467906,45382,14,2,0.766809999943,-0.0,0.217192143202,0.0,16.5,0.25645819396086955,-0.0,0.07263951277658863,16.5,0.0,0.3626866560811715,0.7969755348072247
1648295450262536273,45383,14,3,1.48669624329,-1.68478298187,0.667676627636,0.0,16.5,0.4972228238428093,-0.5634725691872909,0.22330321994515048,16.5,0.0,0.9010895678715635,2.3440459668920206
1648295450262542265,45384,14,4,2.24456715584,-1.2306240797,0.582964599133,0.0,16.5,0.7506913564682274,-0.4115799597658863,0.19497143783712373,16.5,0.0,1.1386277217041147,2.625331420307813
1648295450262553848,45385,14,5,0.654227077961,-0.146502867341,0.961333274841,0.242756426334,16.5,0.21880504279632104,-0.04899761449531772,0.32151614543177254,16.5,0.03280492247756756,0.3132922912113088,1.1720229626560414
1648295450262674879,45386,14,6,0.597834408283,-0.143572807312,0.229681700468,0.404594063759,16.5,0.1999446181548495,-0.0480176613083612,0.07681662223010033,16.5,0.05467487348094594,0.2868124761158441,0.6563328532508529
1648295450262679521,45387,14,7,0.945393621922,1.72287368774,0.122032672167,-0.242756426334,16.5,0.3161851578334448,0.5762119356989966,0.04081360273143812,16.5,-0.03280492247756756,0.7293602010737256,1.9689984300028893
1648295450367625956,45388,15,0,0.0126069188118,0.0439508594573,0.010354119353,0.0,21.5,0.0042163608066220735,0.014699284099431437,0.003462916171571906,21.5,0.0,0.01586267158895485,0.046880915483156066
1648295450367630338,45389,15,1,0.0334645062685,0.0146502861753,-0.0293822418898,0.0,21.5,0.011192142564715717,0.0048997612626421405,-0.00982683675244147,21.5,0.0,0.016569121002899676,0.04688091512847611
1648295450367633844,45390,15,2,1.51963472366,-1.68478298187,0.588870048523,0.0,21.5,0.5082390380133779,-0.5634725691872909,0.19694650452274245,21.5,0.0,0.9132990615061716,2.3440459303092704
1648295450367637942,45391,15,3,0.75418150425,-0.124527432024,0.225550889969,0.161837622523,21.5,0.25223461680602005,-0.04164797057658863,0.07543508025719063,21.5,0.021869948989594594,0.35913668328883913,0.7969755495905082
1648295450367640205,45392,15,4,0.60338306427,-0.241729721427,0.268337845802,0.323675245047,21.5,0.2018003559431438,-0.08084606067792642,0.08974509893043477,21.5,0.04373989797932432,0.2966190365514291,0.7032137512582414
1648295450367647036,45393,15,5,0.810008645058,-0.194848805666,0.315171420574,0.323675245047,21.5,0.2709059013571906,-0.06516682463745818,0.10540850186421404,21.5,0.04373989797932432,0.3886215766187372,0.890737383567568
1648295450367784393,45394,15,6,0.603223204613,-0.263705164194,0.247165739536,0.485512852669,21.5,0.2017468911749164,-0.0881957070882943,0.08266412693511704,21.5,0.06560984495527027,0.29863372037713914,0.7032137306726453
1648295450367833630,45395,15,7,1.58206450939,-0.747164547443,-1.6295235157,-0.242756426334,21.5,0.529118565013378,-0.2498878085093645,-0.5449911423745819,21.5,-0.03280492247756756,0.7889086312908773,2.3909265695638613
1648295450465461401,45396,16,0,0.0126779936254,0.0439508594573,0.0102669699118,0.0,22.1000003815,0.004240131647290969,0.014699284099431437,0.0034337692012709024,22.1000003815,0.0,0.015875338919484987,0.04688091552615868
1648295450465464521,45397,16,1,0.0334780961275,0.0146502861753,-0.0293667558581,0.0,22.1000003815,0.011196687668060201,0.0048997612626421405,-0.009821657477625418,22.1000003815,0.0,0.01657526138264707,0.0468809146131938
1648295450465469816,45398,16,2,1.47674417496,-1.68478298187,0.68940860033,0.0,22.1000003815,0.49389437289632104,-0.5634725691872909,0.23057143823745815,22.1000003815,0.0,0.897421104824166,2.3440459194491114
1648295450465653476,45399,16,3,2.24013113976,-1.2306240797,0.599785029888,0.0,22.1000003815,0.7492077390501671,-0.4115799597658863,0.2005969999625418,22.1000003815,0.0,1.136671692172465,2.625331451633804
1648295450465657543,45400,16,4,0.9292319417,-0.064461261034,0.44285184145,0.161837622523,22.1000003815,0.3107799136120401,-0.021558950178595316,0.1481109837625418,22.1000003815,0.021869948989594594,0.4400376094633473,1.0313801477269677
1648295450465664905,45401,16,5,0.794265151024,-0.210964113474,0.191652685404,0.323675245047,22.1000003815,0.26564051873712374,-0.07055655969030099,0.06409788809498326,22.1000003815,0.04373989797932432,0.3822407598689436,0.84385646832125
1648295450465667869,45402,16,6,0.856716394424,-0.351606875658,0.146757438779,-0.647350490093,22.1000003815,0.2865272222153846,-0.11759427279531771,0.0490827554444816,22.1000003815,-0.08747979595851352,0.4219290356626199,0.9376183239046744
1648295450465669067,45403,16,7,1.98289501667,-1.27017974854,0.413884848356,-0.161837622523,22.1000003815,0.6631755908595317,-0.42480928044816046,0.13842302620602004,22.1000003815,-0.021869948989594594,1.0295953833320455,2.39092657947385
