%time,field.header.seq,field.header.frame_id,field.point_id,field.x,field.y,field.z,field.velocity,field.intensity,normalized_x,normalized_y,normalized_z,normalized_intensity,normalized_velocity,normalized_range,range
1648127708393222320,125051,0,0,0.0126097733155,0.0439508594573,0.0103506427258,0.0,13.3999996185,0.004217315490133779,0.014699284099431437,0.0034617534199999998,13.3999996185,0.0,0.01586317915559307,0.04688091546611253
1648127708393306225,125052,0,1,0.0328607447445,0.0146502861753,-0.0300559606403,0.0,13.3999996185,0.010990215633612039,0.0048997612626421405,-0.010052160749264214,13.3999996185,0.0,0.016296543798531928,0.04688091509551231
1648127708393311899,125053,0,2,0.496964097023,0.761814892292,0.22758051753,0.0,13.3999996185,0.16620872810133777,0.2547875893953177,0.07611388546153845,13.3999996185,0.0,0.34665169594854983,0.9376183316291229
1648127708393314829,125054,0,3,1.87937033176,-1.24527442455,0.641724288464,0.0,13.3999996185,0.6285519504214047,-0.4164797406521739,0.21462350784749162,13.3999996185,0.0,0.9816366349779362,2.344045925049817
1648127708393317607,125055,0,4,2.39166879654,-0.984499275684,0.450606942177,0.0,13.3999996185,0.79988922961204,-0.32926397180066885,0.15070466293545148,13.3999996185,0.0,1.178159718554593,2.625331421459683
1648127708588124009,125056,2,0,0.0125994505361,0.0439508594573,0.0103632062674,0.0,14.1999998093,0.004213863055551839,0.014699284099431437,0.003465955273377926,14.1999998093,0.0,0.01586134410249293,0.04688091557326548
1648127708588150010,125057,2,1,0.0328607447445,0.0146502861753,-0.0300559606403,0.0,14.1999998093,0.010990215633612039,0.0048997612626421405,-0.010052160749264214,14.1999998093,0.0,0.016296543798531928,0.04688091509551231
1648127708588154021,125058,2,2,1.86245822906,-1.31852579117,0.535994708538,0.0,14.1999998093,0.6228957287826087,-0.44097852547491634,0.1792624443270903,14.1999998093,0.0,0.9851194028143319,2.3440459134911418
1648127708588160542,125059,2,3,2.39151239395,-0.984499275684,0.451436638832,0.0,14.1999998093,0.7998369210535116,-0.32926397180066885,0.15098215345551838,14.1999998093,0.0,1.1780886909255492,2.6253314825215335
1648127708588163738,125060,2,4,0.501239836216,0.761814892292,0.218001917005,-0.0809188112617,14.1999998093,0.16763874120936453,0.2547875893953177,0.0729103401354515,14.1999998093,-0.010934974494824324,0.34802616398540726,0.9376183335161322
1648127708693285841,125061,3,0,0.0126097733155,0.0439508594573,0.0103506427258,0.0,29.7999992371,0.004217315490133779,0.014699284099431437,0.0034617534199999998,29.7999992371,0.0,0.01586317915559307,0.04688091546611253
1648127708693289039,125062,3,1,0.0329129882157,0.0146502861753,-0.029998742044,0.0,29.7999992371,0.011007688366454847,0.0048997612626421405,-0.010033024094983276,29.7999992371,0.0,0.01632011233959066,0.046880915120413834
1648127708693295733,125063,3,2,1.86314070225,-1.31852579117,0.533617377281,0.0,29.7999992371,0.6231239806856187,-0.44097852547491634,0.178467350261204,29.7999992371,0.0,0.9854080629571761,2.344045870647021
1648127708693302046,125064,3,3,2.39169096947,-0.984499275684,0.450489103794,0.0,29.7999992371,0.7998966453076922,-0.32926397180066885,0.15066525210501672,29.7999992371,0.0,1.1781697880504964,2.6253313981103013
1648127708693311940,125065,3,4,0.356456845999,0.76474493742,-0.0140503784642,-0.404594063759,29.7999992371,0.11921633645451504,0.2557675375986622,-0.004699123232173912,29.7999992371,-0.05467487348094594,0.30633658456762125,0.8438564543238748
1648127708693371495,125066,3,5,0.48748460412,0.761814892292,0.247234642506,-0.161837622523,29.7999992371,0.16303832913712374,0.2547875893953177,0.08268717140668895,29.7999992371,-0.021869948989594594,0.34362728245226276,0.9376183327063173
1648127708888178001,125067,5,0,0.0125994505361,0.0439508594573,0.0103632062674,0.0,39.0,0.004213863055551839,0.014699284099431437,0.003465955273377926,39.0,0.0,0.01586134410249293,0.04688091557326548
1648127708888183067,125068,5,1,0.0329129882157,0.0146502861753,-0.029998742044,0.0,39.0,0.011007688366454847,0.0048997612626421405,-0.010033024094983276,39.0,0.0,0.01632011233959066,0.046880915120413834
1648127708888195124,125069,5,2,1.86350083351,-1.31852579117,0.532358765602,0.0,39.0,0.6232444259230769,-0.44097852547491634,0.17804640990033443,39.0,0.0,0.9855603932882058,2.3440459623877308
1648127708888369700,125070,5,3,2.39383149147,-0.984499275684,0.438972592354,0.0,39.0,0.8006125389531772,-0.32926397180066885,0.14681357603812709,39.0,0.0,1.1791419075684049,2.6253314019783853
1648127708888383474,125071,5,4,0.398374289274,0.632892370224,-0.0581992976367,-0.404594063759,39.0,0.1332355482521739,0.21166968903812708,-0.0194646480390301,39.0,-0.05467487348094594,0.2833857439844357,0.7500946506193219
1648127708888389837,125072,5,5,0.579014956951,0.580151319504,0.200648441911,-0.161837622523,39.0,0.19365048727458192,0.19403054164013378,0.06710650231137123,39.0,-0.021869948989594594,0.3356320508123885,0.8438564280353102
1648127708993238696,125073,6,0,0.0126141794026,0.0439508594573,0.0103452727199,0.0,38.2000007629,0.004218789097859532,0.014699284099431437,0.003459957431404682,38.2000007629,0.0,0.015863962806948167,0.0468809154847196
1648127708993250273,125074,6,1,0.0328607447445,0.0146502861753,-0.0300559606403,0.0,38.2000007629,0.010990215633612039,0.0048997612626421405,-0.010052160749264214,38.2000007629,0.0,0.016296543798531928,0.04688091509551231
1648127708993258103,125075,6,2,0.636007130146,0.527410268784,0.171543240547,0.0,38.2000007629,0.21271141476454847,0.17639139424214045,0.05737232125317725,38.2000007629,0.0,0.3487208280343429,0.8438564715594281
1648127708993292114,125076,6,3,1.86284339428,-1.31852579117,0.534654676914,0.0,38.2000007629,0.6230245465819397,-0.44097852547491634,0.17881427321538462,38.2000007629,0.0,0.9852823104152914,2.3440459460384133
1648127708993320180,125077,6,4,2.42347836494,-0.902457654476,0.452424794436,0.0,38.2000007629,0.810527881250836,-0.30182530250033446,0.15131264027959865,38.2000007629,0.0,1.1853309267033223,2.6253314834654757
1648127708993448044,125078,6,5,0.338258743286,1.03138017654,1.75408554077,-0.323675245047,38.2000007629,0.11313001447692306,0.34494320285618724,0.5866506825317725,38.2000007629,-0.04373989797932432,0.3802402050648805,2.0627603181919825
1648127708993450719,125079,6,6,1.09336650372,0.128922522068,-1.7443934679,-0.323675245047,38.2000007629,0.3656744159598662,0.04311790035719063,-0.5834091865886287,38.2000007629,-0.04373989797932432,0.5189361331670701,2.0627602621258387
1648127708993452355,125080,6,7,0.435480982065,0.609451889992,0.039581168443,-0.242756426334,38.2000007629,0.14564581339966554,0.20383006354247488,0.013237848977591971,38.2000007629,-0.03280492247756756,0.2897794001053728,0.7500946345964826
1648127708993454757,125081,6,8,0.515839040279,0.668053030968,0.284654825926,-0.161837622523,38.2000007629,0.17252141815351169,0.22342910734715715,0.09520228291839464,38.2000007629,-0.021869948989594594,0.33082902752531423,0.8907374122514741
1648127709188344090,125082,8,0,0.0125890737399,0.0439508594573,0.0103758089244,0.0,36.0999984741,0.004210392555150501,0.014699284099431437,0.003470170208829431,36.0999984741,0.0,0.01585950074790286,0.0468809154720728
1648127709188417975,125083,8,1,0.0328607447445,0.0146502861753,-0.0300559606403,0.0,36.0999984741,0.010990215633612039,0.0048997612626421405,-0.010052160749264214,36.0999984741,0.0,0.016296543798531928,0.04688091509551231
1648127709188466709,125084,8,2,0.52829182148,0.461484014988,0.049495767802,0.0,36.0999984741,0.17668622791973243,0.15434247992909697,0.016553768495652172,36.0999984741,0.0,0.29369652259376683,0.7032137482745984
1648127709188587152,125085,8,3,2.42340159416,-0.902457654476,0.452835977077,0.0,36.0999984741,0.8105022054046822,-0.30182530250033446,0.15145015955752508,36.0999984741,0.0,1.1852958125131152,2.625331507988055
1648127709188591925,125086,8,4,1.07338964939,0.366257160902,0.295513361692,0.242756426334,36.0999984741,0.3589931937759197,0.12249403374648829,0.09883390023143812,36.0999984741,0.03280492247756756,0.5222614428218456,1.1720229495483812
1648127709188594733,125087,8,5,1.47729301453,-1.41521763802,0.682166874409,-0.323675245047,36.0999984741,0.49407793128093647,-0.47331693579264206,0.22814945632408026,36.0999984741,-0.04373989797932432,0.8439519690514595,2.1565220282396806
1648127709188601753,125088,8,6,1.74466753006,-0.527410328388,-2.14245820045,-0.242756426334,36.0999984741,0.5835008461739131,-0.1763914141765886,-0.7165412041638796,36.0999984741,-0.03280492247756756,0.843836717597997,2.8128550594745283
1648127709188605283,125089,8,7,1.33706831932,0.879017174244,-2.31338071823,-0.242756426334,36.0999984741,0.44718003990635447,0.29398567700468226,-0.7737059258294313,36.0999984741,-0.03280492247756756,0.6974005695905323,2.8128549963735185
1648127709188607871,125090,8,8,0.614452898502,0.501039743423,0.288964569569,-0.161837622523,36.0999984741,0.20550264163946488,0.16757182054280934,0.09664366875217391,36.0999984741,-0.021869948989594594,0.33547427096817445,0.8438564519117527
1648127709289789662,125091,9,0,0.0125890737399,0.0439508594573,0.0103758089244,0.0,40.5,0.004210392555150501,0.014699284099431437,0.003470170208829431,40.5,0.0,0.01585950074790286,0.0468809154720728
1648127709289806254,125092,9,1,0.032885145396,0.0146502861753,-0.0300292614847,0.0,40.5,0.010998376386622074,0.0048997612626421405,-0.010043231265785952,40.5,0.0,0.016307551217595504,0.04688091528597467
1648127709289817816,125093,9,2,0.580440878868,0.46880915761,0.0771254748106,0.0,40.5,0.1941273842367893,0.15679236040468228,0.025794473180802673,40.5,0.0,0.3161561748606341,0.7500946466845465
1648127709289902298,125094,9,3,2.42422366142,-0.902457654476,0.448413610458,0.0,40.5,0.8107771442876254,-0.30182530250033446,0.14997110717658862,40.5,0.0,1.1856718216386068,2.625331397129683
1648127709289906703,125095,9,4,1.02016210556,0.922968029976,0.292296916246,0.323675245047,40.5,0.3411913396521739,0.30868495985819394,0.09775816596856188,40.5,0.04373989797932432,0.5728084016055849,1.4064274575054743
1648127709289910938,125096,9,5,1.53091943264,-1.48260891438,0.329763025045,-0.404594063759,40.5,0.512013188173913,-0.49585582420735785,0.11028863713879597,40.5,-0.05467487348094594,0.8776035597742228,2.1565220042746263
1648127709289925175,125097,9,6,1.18492090702,0.6914935112,-2.40175175667,-0.242756426334,40.5,0.39629461773244146,0.23126873284280935,-0.8032614570802675,40.5,-0.03280492247756756,0.6062871224742634,2.765974029630834
1648127709289930721,125098,9,7,1.96546673775,-0.4321834445,-1.89756965637,-0.242756426334,40.5,0.6573467350334448,-0.14454295802675585,-0.6346386810602006,40.5,-0.03280492247756756,0.9407986643450257,2.765974082972881
1648127709289941244,125099,9,8,0.672833621502,0.448298752308,0.241695746779,-0.161837622523,40.5,0.22502796705752506,0.14993269307959864,0.08083469791939799,40.5,-0.021869948989594594,0.3517882663907173,0.8438564377638322
1648127709289944850,125100,9,9,1.12572991848,0.219754308462,0.240993842483,-0.161837622523,40.5,0.3764983004949833,0.0734964242347826,0.08059994731872909,40.5,-0.021869948989594594,0.5374975952751051,1.172022968018682
1648127709389896758,125101,10,0,0.0125994505361,0.0439508594573,0.0103632062674,0.0,18.1000003815,0.004213863055551839,0.014699284099431437,0.003465955273377926,18.1000003815,0.0,0.01586134410249293,0.04688091557326548
1648127709389911058,125102,10,1,0.0328607447445,0.0146502861753,-0.0300559606403,0.0,18.1000003815,0.010990215633612039,0.0048997612626421405,-0.010052160749264214,18.1000003815,0.0,0.016296543798531928,0.04688091509551231
1648127709389939046,125103,10,2,2.4237279892,-0.902457654476,0.45108512044,0.0,18.1000003815,0.8106113676254181,-0.30182530250033446,0.1508645887759197,18.1000003815,0.0,1.1854451028523083,2.625331401868375
1648127709389984854,125104,10,3,1.10912930965,-1.64815723896,0.709926843643,-0.323675245047,18.1000003815,0.37094625740802667,-0.5512231568428093,0.23743372697090298,18.1000003815,-0.04373989797932432,0.7609528371783605,2.109641256987986
1648127709389989655,125105,10,4,0.70630300045,0.36918720603,0.277363687754,-0.242756426334,18.1000003815,0.23622173928093645,0.12347398194983276,0.09276377516856187,18.1000003815,-0.03280492247756756,0.3561562079149668,0.8438564669571531
1648127709390015574,125106,10,5,0.747326374054,0.336956560612,0.700435817242,-0.242756426334,18.1000003815,0.24994193112173912,0.11269450187692308,0.2342594706494983,18.1000003815,-0.03280492247756756,0.3710013323682493,1.078260992140417
1648127709390020374,125107,10,6,2.20117759705,-1.28922522068,0.375662714243,-0.242756426334,18.1000003815,0.7361797983444816,-0.4311790035719063,0.12563970376020067,18.1000003815,-0.03280492247756756,1.126870322664638,2.578450495600919
1648127709390029533,125108,10,7,1.91285741329,1.6921081543,0.355180382729,-0.242756426334,18.1000003815,0.6397516432408027,0.565922459632107,0.1187894256618729,18.1000003815,-0.03280492247756756,1.0671609814712437,2.578450424906902
1648127709390039066,125109,10,8,1.39615631104,0.6050568223,-2.30981945992,-0.242756426334,18.1000003815,0.4669419100468227,0.20236014123745819,-0.7725148695384615,18.1000003815,-0.03280492247756756,0.6906657089200202,2.7659739949055404
1648127709390042406,125110,10,9,0.855312108994,-0.6050568223,-2.55987501144,-0.242756426334,18.1000003815,0.28605756153645484,-0.20236014123745819,-0.8561454887759197,18.1000003815,-0.03280492247756756,0.45233558757410336,2.7659740845131715
1648127709390167423,125111,10,10,0.558476269245,0.417533159256,0.0909940227866,-0.161837622523,18.1000003815,0.18678136095150502,0.13964319707558526,0.030432783540668893,18.1000003815,-0.021869948989594594,0.298788848666217,0.7032137616479063
1648127709390171467,125112,10,11,1.13038110733,0.190453708172,0.414357721806,-0.161837622523,18.1000003815,0.3780538820501672,0.06369689236521739,0.13858117786153845,18.1000003815,-0.021869948989594594,0.5384299114679547,1.2189037633813922
1648127709489938649,125113,11,0,0.0125890737399,0.0439508594573,0.0103758089244,0.0,14.8000001907,0.004210392555150501,0.014699284099431437,0.003470170208829431,14.8000001907,0.0,0.01585950074790286,0.0468809154720728
1648127709489942825,125114,11,1,0.0328607447445,0.0146502861753,-0.0300559606403,0.0,14.8000001907,0.010990215633612039,0.0048997612626421405,-0.010052160749264214,14.8000001907,0.0,0.016296543798531928,0.04688091509551231
1648127709489946167,125115,11,2,0.751582741737,0.249054864049,-0.0909125357866,0.0,14.8000001907,0.2513654654638796,0.0832959411535117,-0.030405530363411367,14.8000001907,0.0,0.3651128705871583,0.7969755530419498
1648127709489949033,125116,11,3,2.4232711792,-0.902457654476,0.453532755375,0.0,14.8000001907,0.8104585883612039,-0.30182530250033446,0.15168319577759196,14.8000001907,0.0,1.185236162174564,2.6253314050347476
1648127709489957587,125117,11,4,1.07361471653,-0.079111546278,-0.665810585022,0.242756426334,14.8000001907,0.3590684670668896,-0.026458711129765885,-0.22267912542541804,14.8000001907,0.03280492247756756,0.5084883395695327,1.2657847097479202
1648127709490152699,125118,11,5,2.03665232658,0.32230630517,0.0560880452394,-0.485512852669,14.8000001907,0.6811546242742474,0.10779475089297658,0.018758543558327758,14.8000001907,-0.06560984495527027,0.9693105553229374,2.0627602678292116
1648127709490169706,125119,11,6,0.591559886932,0.373582303524,0.0707297250628,-0.404594063759,14.8000001907,0.1978461160307692,0.12494391422207357,0.023655426442408024,14.8000001907,-0.05467487348094594,0.30642642340055154,0.7032137166898538
1648127709490385357,125120,11,7,0.661702871323,0.316446185112,0.417258769274,-0.323675245047,14.8000001907,0.22130530813478258,0.10583484451906354,0.13955142785083613,14.8000001907,-0.04373989797932432,0.33038325189336776,0.8438564798146033
1648127709490388864,125121,11,8,2.0357568264,-1.50311934948,-0.0719021633267,-0.323675245047,14.8000001907,0.6808551258862876,-0.5027155014983277,-0.024047546263110366,14.8000001907,-0.04373989797932432,1.0862091328735826,2.531569385994869
1648127709490442743,125122,11,9,2.37224960327,0.870226979256,0.154858499765,-0.323675245047,14.8000001907,0.7933945161438126,0.29104581246020067,0.0517921403896321,14.8000001907,-0.04373989797932432,1.1591623619859157,2.5315695389598054
1648127709490857798,125123,11,10,1.64601075649,0.594801604748,-2.08094382286,-0.242756426334,14.8000001907,0.550505269729097,0.19893030259130434,-0.6959678337324414,14.8000001907,-0.03280492247756756,0.8035454992021793,2.719093149083122
1648127709490865077,125124,11,11,1.07179057598,-0.0351606868207,0.340548247099,-0.161837622523,14.8000001907,0.3584583866153846,-0.011759427030334446,0.11389573481571906,14.8000001907,-0.021869948989594594,0.5070730854560227,1.125141956047967
1648127709490867858,125125,11,12,1.16792297363,0.817485928535,0.282449603081,-0.161837622523,14.8000001907,0.39060969017725755,0.2734066650618729,0.09446475019431437,14.8000001907,-0.021869948989594594,0.6163627703073908,1.4533083272196878
1648127709593244776,125126,12,0,0.0125890737399,0.0439508594573,0.0103758089244,0.0,20.1000003815,0.004210392555150501,0.014699284099431437,0.003470170208829431,20.1000003815,0.0,0.01585950074790286,0.0468809154720728
1648127709593247619,125127,12,1,0.032885145396,0.0146502861753,-0.0300292614847,0.0,20.1000003815,0.010998376386622074,0.0048997612626421405,-0.010043231265785952,20.1000003815,0.0,0.016307551217595504,0.04688091528597467
1648127709593252164,125128,12,2,1.0606867075,-0.0351606868207,0.373700320721,0.0,20.1000003815,0.3547447182274247,-0.011759427030334446,0.12498338485652173,20.1000003815,0.0,0.5018225925011663,1.1251419888493506
1648127709593256603,125129,12,3,2.42370724678,-0.902457654476,0.451197504997,0.0,20.1000003815,0.8106044303612039,-0.30182530250033446,0.15090217558428093,20.1000003815,0.0,1.1854356154055108,2.6253315647231545
1648127709593260596,125130,12,4,0.632511913776,-1.82689070702,0.571111917496,-0.647350490093,20.1000003815,0.21154244607892975,-0.6110002364615384,0.19100733026622072,20.1000003815,-0.08747979595851352,0.6803100042937555,2.015879410771034
1648127709593408324,125131,12,5,0.58028036356,0.287145614624,0.107679761946,-0.485512852669,20.1000003815,0.19407370018729095,0.0960353226167224,0.036013298309698995,20.1000003815,-0.06560984495527027,0.29077824093090415,0.6563328694068794
1648127709593415352,125132,12,6,0.71337211132,0.187523663044,0.136297643185,-0.323675245047,20.1000003815,0.23858599040802675,0.0627169441618729,0.04558449604849498,20.1000003815,-0.04373989797932432,0.34319085757485085,0.7500946213301224
1648127709593418170,125133,12,7,0.764476418495,0.199243888259,0.105108089745,-0.242756426334,20.1000003815,0.2556777319381271,0.06663675192608695,0.035153207272575246,20.1000003815,-0.03280492247756756,0.36767194878765014,0.7969755529333069
1648127709593420191,125134,12,8,2.55906248093,-0.334026515484,0.693068087101,-0.242756426334,20.1000003815,0.8558737394414716,-0.11171455367357858,0.23179534685652173,20.1000003815,-0.03280492247756756,1.215532746261302,2.6722121674200627
1648127709593426565,125135,12,9,1.28350114822,0.501039743423,-2.28960728645,-0.242756426334,20.1000003815,0.4292645980668896,0.16757182054280934,-0.7657549453010033,20.1000003815,-0.03280492247756756,0.6297749640523098,2.6722121076247625
1648127709593433203,125136,12,10,1.19452500343,0.659262895584,0.341351509094,-0.161837622523,20.1000003815,0.3995066901103678,0.22048926273712371,0.11416438431237458,20.1000003815,-0.021869948989594594,0.6064871852465172,1.4064275317534112
