%time,field.header.seq,field.header.frame_id,field.point_id,field.x,field.y,field.z,field.velocity,field.intensity,normalized_x,normalized_y,normalized_z,normalized_intensity,normalized_velocity,normalized_range,range
1648218616339140177,42193,0,0,0.00535855535418,0.0454158857465,0.0103200506419,0.0,37.2999992371,0.0017921589813311035,0.015189259446989964,0.0034515219538127084,37.2999992371,0.0,0.015399262001041003,0.04688091550806504
1648218616339175086,42194,0,1,0.0335624217987,0.0146502861753,-0.0292703453451,0.0,37.2999992371,0.011224890233678928,0.0048997612626421405,-0.00978941315889632,37.2999992371,0.0,0.01661336756793064,0.046880914652270345
1648218616339185166,42195,0,2,2.10972690582,-1.12074685097,-0.0975155234337,0.0,37.2999992371,0.7055942828829431,-0.3748317227324415,-0.03261388743602006,37.2999992371,0.0,1.0659387432872303,2.390926681939568
1648218616339213782,42196,0,3,0.888959050179,0.94347846508,0.20661906898,0.161837622523,37.2999992371,0.29731071912341134,0.31554463715050163,0.06910336755183946,37.2999992371,0.021869948989594594,0.5256954873743941,1.3126657025423587
1648218616339257346,42197,0,4,1.0995978117,0.908317685127,0.279192894697,0.161837622523,37.2999992371,0.367758465451505,0.3037851789722408,0.09337555006588627,37.2999992371,0.021869948989594594,0.6023105617417712,1.4533083076412903
1648218616339267752,42198,0,5,1.21721279621,0.996219456196,0.258108437061,0.242756426334,37.2999992371,0.40709458067224075,0.3331837646140468,0.08632389199364549,37.2999992371,0.03280492247756756,0.6651792361670676,1.5939511163906166
1648218616444271775,42199,1,0,0.00539573840797,0.0454158857465,0.0103006586432,0.0,21.0,0.0018045947852742474,0.015189259446989964,0.003445036335518394,21.0,0.0,0.015402166316010612,0.04688091551569908
1648218616444297331,42200,1,1,0.0335340574384,0.0146502861753,-0.0293028391898,0.0,21.0,0.01121540382555184,0.0048997612626421405,-0.009800280665484948,21.0,0.0,0.01660054897800956,0.046880915924108986
1648218616444305050,42201,1,2,2.10972094536,-1.12074685097,-0.0976425930858,0.0,21.0,0.7055922894180601,-0.3748317227324415,-0.03265638564742475,21.0,0.0,1.0659361041540008,2.390926608500224
1648218616444319678,42202,1,3,0.546158611774,0.949338555336,0.634569227695,0.0809188112617,21.0,0.18266174306822744,0.3175045335571906,0.2122305109347826,21.0,0.010934974494824324,0.40931620245333,1.265784747340469
1648218616444359795,42203,1,4,0.848513245583,1.06214570999,0.015446622856,0.0809188112617,21.0,0.2837836941749164,0.3552326789264214,0.005166094600668896,21.0,0.010934974494824324,0.5359632695776521,1.3595465550460615
1648218616444399215,42204,1,5,1.2193505764,0.996219456196,0.247812926769,0.0809188112617,21.0,0.4078095573244147,0.3331837646140468,0.08288057751471571,21.0,0.010934974494824324,0.6660545706566833,1.5939511535000954
1648218616444404940,42205,1,6,0.974096000195,0.908317685127,0.581550598145,0.161837622523,21.0,0.3257846154498327,0.3037851789722408,0.19449852780769228,21.0,0.021869948989594594,0.5518665294170204,1.4533083406191463
1648218616639444788,42206,3,0,0.00539573840797,0.0454158857465,0.0103006586432,0.0,24.8999996185,0.0018045947852742474,0.015189259446989964,0.003445036335518394,24.8999996185,0.0,0.015402166316010612,0.04688091551569908
1648218616639535330,42207,3,1,0.0334289707243,0.0146502861753,-0.0294226650149,0.0,24.8999996185,0.011180257767324413,0.0048997612626421405,-0.009840356192274247,24.8999996185,0.0,0.016553065816292893,0.04688091493649962
1648218616639552985,42208,3,2,2.11011266708,-1.12074685097,-0.0887751206756,0.0,24.8999996185,0.7057233000267559,-0.3748317227324415,-0.02969067581123746,24.8999996185,0.0,1.0661095500781703,2.390926597321969
1648218616639741642,42209,3,3,0.912222862244,0.94347846508,0.028090544045,0.0809188112617,24.8999996185,0.30509125827558525,0.31554463715050163,0.009394830784280935,24.8999996185,0.010934974494824324,0.5345369676521928,1.3126657012107432
1648218616639753475,42210,3,4,0.772349953651,0.909782767296,0.421878963709,-0.0809188112617,24.8999996185,0.25831102128795985,0.30427517300869567,0.14109664338093644,24.8999996185,-0.010934974494824324,0.47542880470910615,1.2657847346976694
1648218616639759729,42211,3,5,0.815754532814,0.966918885708,0.61453294754,-0.0809188112617,24.8999996185,0.2728276029478261,0.3233842427117057,0.20552941389297658,24.8999996185,-0.010934974494824324,0.5034353685377465,1.4064275071817915
1648218616744360034,42212,4,0,0.00539573840797,0.0454158857465,0.0103006586432,0.0,11.6999998093,0.0018045947852742474,0.015189259446989964,0.003445036335518394,11.6999998093,0.0,0.015402166316010612,0.04688091551569908
1648218616744418540,42213,4,1,0.0334517285228,0.0146502861753,-0.0293967872858,0.0,11.6999998093,0.011187869071170567,0.0048997612626421405,-0.009831701433377926,11.6999998093,0.0,0.016563347763607406,0.046880914335237424
1648218616744474178,42214,4,2,2.11015176773,-1.12074685097,-0.0878384634852,0.0,11.6999998093,0.705736377167224,-0.3748317227324415,-0.029377412536856183,11.6999998093,0.0,1.0661268632206988,2.39092651130909
1648218616744484237,42215,4,3,0.841533482075,0.984499275684,0.213714435697,0.0809188112617,11.6999998093,0.28144932510869564,0.32926397180066885,0.0714763998986622,11.6999998093,0.010934974494824324,0.5165677190206838,1.3126657172718734
1648218616744630215,42216,4,4,0.89669829607,1.01965987682,-0.0677704587579,-0.242756426334,11.6999998093,0.29989909567558526,0.34102337017391304,-0.022665705270200665,11.6999998093,-0.03280492247756756,0.5442204279323236,1.3595465912029918
1648218616939290753,42217,6,0,0.00539573840797,0.0454158857465,0.0103006586432,0.0,29.7999992371,0.0018045947852742474,0.015189259446989964,0.003445036335518394,29.7999992371,0.0,0.015402166316010612,0.04688091551569908
1648218616939314432,42218,6,1,0.0334376059473,0.0146502861753,-0.0294128507376,0.0,29.7999992371,0.011183145801772574,0.0048997612626421405,-0.00983707382528428,29.7999992371,0.0,0.016556967128018817,0.046880914720357526
1648218616939396146,42219,6,2,2.10974907875,-1.12074685097,-0.0970306247473,0.0,29.7999992371,0.7056016985785953,-0.3748317227324415,-0.03245171396230769,29.7999992371,0.0,1.0659485608792612,2.3909265194448146
1648218616939427205,42220,6,3,1.20746445656,0.966918945312,-0.022887898609,-0.404594063759,29.7999992371,0.4038342664080267,0.32338426264615383,-0.007654815588294314,29.7999992371,-0.05467487348094594,0.6563090817426,1.5470703011052025
1648218616939447891,42221,6,4,0.940773308277,0.902457654476,0.153645560145,-0.242756426334,29.7999992371,0.31463990243377926,0.30182530250033446,0.05138647496488294,29.7999992371,-0.03280492247756756,0.5376755988851407,1.3126656824344292
1648218616939482972,42222,6,5,1.07692170143,0.908317685127,0.356796681881,-0.242756426334,29.7999992371,0.360174482083612,0.3037851789722408,0.11932999394013377,29.7999992371,-0.03280492247756756,0.5930739836239596,1.453308377573958
1648218616939611123,42223,6,6,0.814584434032,1.02552008629,0.0886114984751,-0.0809188112617,29.7999992371,0.2724362655625418,0.342983306451505,0.029635952667257524,29.7999992371,-0.010934974494824324,0.5158299972779158,1.3126657020024122
1648218617044358186,42224,7,0,0.00539573840797,0.0454158857465,0.0103006586432,0.0,16.7000007629,0.0018045947852742474,0.015189259446989964,0.003445036335518394,16.7000007629,0.0,0.015402166316010612,0.04688091551569908
1648218617044417005,42225,7,1,0.0334517285228,0.0146502861753,-0.0293967872858,0.0,16.7000007629,0.011187869071170567,0.0048997612626421405,-0.009831701433377926,16.7000007629,0.0,0.016563347763607406,0.046880914335237424
1648218617044472392,42226,7,2,2.10899662971,-1.12074685097,-0.112205907702,0.0,16.7000007629,0.7053500433812708,-0.3748317227324415,-0.03752705943210702,16.7000007629,0.0,1.065615403305757,2.3909266935250315
1648218617044525049,42227,7,3,1.2403523922,0.843856453896,0.000306525762426,-0.485512852669,16.7000007629,0.414833575986622,0.28222623876120395,0.00010251697739999998,16.7000007629,-0.06560984495527027,0.6510187719083015,1.5001892765835374
1648218617044595544,42228,7,4,0.771822869778,1.02552008629,0.275116860867,-0.404594063759,16.7000007629,0.2581347390561873,0.342983306451505,0.09201232804916387,16.7000007629,-0.05467487348094594,0.5009038186315001,1.3126657140452433
1648218617239582217,42229,9,0,0.00535855535418,0.0454158857465,0.0103200506419,0.0,38.7999992371,0.0017921589813311035,0.015189259446989964,0.0034515219538127084,38.7999992371,0.0,0.015399262001041003,0.04688091550806504
1648218617239618278,42230,9,1,0.0334517285228,0.0146502861753,-0.0293967872858,0.0,38.7999992371,0.011187869071170567,0.0048997612626421405,-0.009831701433377926,38.7999992371,0.0,0.016563347763607406,0.046880914335237424
1648218617239670140,42231,9,2,2.10938167572,-1.12074685097,-0.104716464877,0.0,38.7999992371,0.7054788213110367,-0.3748317227324415,-0.03502222905585284,38.7999992371,0.0,1.0657858860969165,2.390926618664576
1648218617239739735,42232,9,3,0.768809616566,0.586011469364,0.662691533566,0.566431701183,38.7999992371,0.25712696206220736,0.19599045798127088,0.22163596440334446,38.7999992371,0.07654482448418919,0.4130869265159428,1.1720229252922365
1648218617239755286,42233,9,4,0.907541155815,0.632892370224,0.204354465008,-0.647350490093,38.7999992371,0.30352547017224074,0.21166968903812708,0.06834597491906354,38.7999992371,-0.08747979595851352,0.47860158727699287,1.125141968444198
1648218617239966490,42234,9,5,0.975856840611,0.69735366106,0.53337842226,-0.566431701183,38.7999992371,0.3263735252879598,0.23322864918394645,0.17838743219397993,38.7999992371,-0.07654482448418919,0.517141140132894,1.3126657012711327
1648218617240001749,42235,9,6,1.2523226738,0.726654171944,0.125565707684,-0.323675245047,38.7999992371,0.4188370146488294,0.24302815115183943,0.041995219961204006,38.7999992371,-0.04373989797932432,0.6402433692996505,1.453308333377121
1648218617344538457,42236,10,0,0.00535855535418,0.0454158857465,0.0103200506419,0.0,26.8999996185,0.0017921589813311035,0.015189259446989964,0.0034515219538127084,26.8999996185,0.0,0.015399262001041003,0.04688091550806504
1648218617344576573,42237,10,1,0.0334517285228,0.0146502861753,-0.0293967872858,0.0,26.8999996185,0.011187869071170567,0.0048997612626421405,-0.009831701433377926,26.8999996185,0.0,0.016563347763607406,0.046880914335237424
1648218617344631149,42238,10,2,2.10857152939,-1.12074685097,-0.119926765561,0.0,26.8999996185,0.7052078693612039,-0.3748317227324415,-0.040109286140802676,26.8999996185,0.0,1.0654271905599686,2.3909265625717526
1648218617344681200,42239,10,3,0.968698441982,0.438043534756,-0.179966539145,0.566431701183,26.8999996185,0.3239794120341137,0.1465028544334448,-0.06018947797491638,26.8999996185,0.07654482448418919,0.4810284868914596,1.0782609911573886
1648218617344700998,42240,10,4,0.983318209648,0.609451889992,0.383901298046,-0.485512852669,26.8999996185,0.32886896643745817,0.20383006354247488,0.12839508295852842,26.8999996185,-0.06560984495527027,0.5077955188607057,1.2189038166654385
1648218617539561846,42241,12,0,0.00535855535418,0.0454158857465,0.0103200506419,0.0,28.2000007629,0.0017921589813311035,0.015189259446989964,0.0034515219538127084,28.2000007629,0.0,0.015399262001041003,0.04688091550806504
1648218617539629470,42242,12,1,0.0335114225745,0.0146502861753,-0.0293287187815,0.0,28.2000007629,0.011207833636956521,0.0048997612626421405,-0.009808936047324414,28.2000007629,0.0,0.01659032037358762,0.046880913742686436
1648218617539671343,42243,12,2,2.10819625854,-1.12074685097,-0.126350983977,0.0,28.2000007629,0.7050823607157191,-0.3748317227324415,-0.0422578541729097,28.2000007629,0.0,1.0652610436655763,2.390926502348657
1648218617539740766,42244,12,3,0.887473285198,0.293005734682,-0.0752783641219,0.566431701183,28.2000007629,0.2968138077585284,0.09799522899063544,-0.025176710408662206,28.2000007629,0.07654482448418919,0.4310451691611453,0.9376182723270374
1648218617539853497,42245,12,4,0.846075057983,0.547920703888,0.218368843198,-0.485512852669,28.2000007629,0.28296824681705685,0.18325107153444814,0.0730330579257525,28.2000007629,-0.06560984495527027,0.44013976488379347,1.031380169079128
1648218617539921878,42246,12,5,0.819329082966,0.523015201092,0.156184613705,-0.404594063759,28.2000007629,0.274023104670903,0.1749214719371237,0.05223565675752508,28.2000007629,-0.05467487348094594,0.42517625184341057,0.9844992028058691
1648218617539933200,42247,12,6,0.886108696461,0.49224960804,0.488309502602,-0.323675245047,28.2000007629,0.29635742356555184,0.16463197593311035,0.16331421491705686,28.2000007629,-0.04373989797932432,0.45028783295183983,1.1251419772147686
1648218617539943289,42248,12,7,1.09739267826,0.41899818182,0.325417071581,-0.161837622523,28.2000007629,0.36702096262876255,0.14013317117725752,0.10883514099698995,28.2000007629,-0.021869948989594594,0.5376300583878115,1.2189037850230326
1648218617539950862,42249,12,8,1.53515529633,1.35368645191,0.256536841393,-0.0809188112617,28.2000007629,0.513429864993311,0.4527379437826087,0.08579827471337792,28.2000007629,-0.010934974494824324,0.8556822414159381,2.0627602732568397
1648218617641438304,42250,13,0,0.00540081458166,0.0454158857465,0.0102979978547,0.0,11.3000001907,0.0018062925022274247,0.015189259446989964,0.0034441464396989963,11.3000001907,0.0,0.015402564324007217,0.04688091547847609
1648218617641486715,42251,13,1,0.0335340574384,0.0146502861753,-0.0293028391898,0.0,11.3000001907,0.01121540382555184,0.0048997612626421405,-0.009800280665484948,11.3000001907,0.0,0.01660054897800956,0.046880915924108986
1648218617641646031,42252,13,2,2.10809230804,-1.12074685097,-0.128076896071,0.0,11.3000001907,0.7050475946622072,-0.3748317227324415,-0.04283508229799331,11.3000001907,0.0,1.0652150214132816,2.3909266769359045
1648218617641659571,42253,13,3,1.5277235508,-1.6173915863,0.337465554476,-0.485512852669,11.3000001907,0.5109443313712374,-0.54093364090301,0.11286473393846154,11.3000001907,-0.06560984495527027,0.9026280648093036,2.2502839357647257
1648218617641665908,42254,13,4,0.709535300732,0.448298752308,0.0876445546746,-0.404594063759,11.3000001907,0.23730277616454848,0.14993269307959864,0.029312560091839465,11.3000001907,-0.05467487348094594,0.3675663580972893,0.843856434632022
1648218617641671731,42255,13,5,1.74642300606,-0.615312039852,-2.11743974686,-0.323675245047,11.3000001907,0.5840879618929765,-0.20578997988361203,-0.7081738283812709,11.3000001907,-0.04373989797932432,0.8512737575404752,2.8128550094281466
1648218617641852413,42256,13,6,2.19256424904,1.75803434849,-0.118872404099,-0.323675245047,11.3000001907,0.7332990799464882,0.5879713540100334,-0.03975665688929766,11.3000001907,-0.04373989797932432,1.1921264171375132,2.812855027386814
1648218617641868108,42257,13,7,0.848255097866,0.430718421936,0.253345102072,-0.242756426334,11.3000001907,0.28369735714581934,0.14405298392508362,0.08473080336856187,11.3000001907,-0.03280492247756756,0.42628587013970515,0.9844992690675638
1648218617641890128,42258,13,8,1.02653205395,0.316446185112,0.334721148014,-0.161837622523,11.3000001907,0.343321757173913,0.10583484451906354,0.11194687224548494,11.3000001907,-0.021869948989594594,0.49693125501656754,1.1251419878337818
1648218617741606484,42259,14,0,0.00535855535418,0.0454158857465,0.0103200506419,0.0,21.8999996185,0.0017921589813311035,0.015189259446989964,0.0034515219538127084,21.8999996185,0.0,0.015399262001041003,0.04688091550806504
1648218617741651667,42260,14,1,0.0334289707243,0.0146502861753,-0.0294226650149,0.0,21.8999996185,0.011180257767324413,0.0048997612626421405,-0.009840356192274247,21.8999996185,0.0,0.016553065816292893,0.04688091493649962
1648218617741671712,42261,14,2,0.79215502739,0.290075659752,-0.020981669426,0.0,21.8999996185,0.26493479176923074,0.09701527082006689,-0.007017280744481605,21.8999996185,0.0,0.3870308134398374,0.8438564488416923
1648218617741720358,42262,14,3,1.10237801075,0.175803437829,-0.140713527799,0.0,21.8999996185,0.368688297909699,0.05879713639765886,-0.04706138053478261,21.8999996185,0.0,0.5247087051685599,1.1251419573739405
1648218617741763460,42263,14,4,1.52065324783,-1.58369588852,0.185757473111,-0.485512852669,21.8999996185,0.508579681548495,-0.5296641767625418,0.06212624518762541,21.8999996185,-0.06560984495527027,0.8932249017540198,2.2034030058678926
1648218617741900321,42264,14,5,2.1573741436,0.413138061762,0.173316895962,-0.485512852669,21.8999996185,0.7215298139130434,0.1381732648033445,0.05796551704414715,21.8999996185,-0.06560984495527027,1.0297098600271812,2.2034030498245656
1648218617741924767,42265,14,6,1.67158079147,0.527410328388,-2.1999566555,-0.323675245047,21.8999996185,0.5590571208929765,0.1763914141765886,-0.7357714566889632,21.8999996185,-0.04373989797932432,0.8100639850268034,2.8128550056802704
1648218617741972770,42266,14,7,1.67243719101,-0.79111546278,-2.11878347397,-0.323675245047,21.8999996185,0.5593435421438127,-0.26458711129765883,-0.7086232354414715,21.8999996185,-0.04373989797932432,0.8341083477227728,2.812854998554212
1648218617742016335,42267,14,8,0.70951884985,0.323771327734,0.164088875055,-0.161837622523,21.8999996185,0.2372972741973244,0.10828472499464883,0.0548792224264214,21.8999996185,-0.021869948989594594,0.35262667844354467,0.7969755516149285
1648218617742342349,42268,14,9,0.859407544136,0.351606875658,0.130074501038,-0.161837622523,21.8999996185,0.2874272722862876,0.11759427279531771,0.043503177604682274,21.8999996185,-0.021869948989594594,0.4231516119573823,0.937618311333634
1648218617742361192,42269,14,10,0.776536762714,0.336956560612,0.667905509472,-0.161837622523,21.8999996185,0.25971129187759195,0.11269450187692308,0.22337976905418058,21.8999996185,-0.021869948989594594,0.38418740350347685,1.0782610245988025
1648218617841442665,42270,15,0,0.00535855535418,0.0454158857465,0.0103200506419,0.0,22.5,0.0017921589813311035,0.015189259446989964,0.0034515219538127084,22.5,0.0,0.015399262001041003,0.04688091550806504
1648218617841494480,42271,15,1,0.0334517285228,0.0146502861753,-0.0293967872858,0.0,22.5,0.011187869071170567,0.0048997612626421405,-0.009831701433377926,22.5,0.0,0.016563347763607406,0.046880914335237424
1648218617841510561,42272,15,2,0.86904489994,0.205104008317,0.286044448614,0.0,22.5,0.29065046820735785,0.06859665829999999,0.09566703967023411,22.5,0.0,0.41672639809380885,0.9376183226251031
1648218617841530986,42273,15,3,0.957169234753,-0.966918945312,-2.19027423859,-0.485512852669,22.5,0.32012348988394645,-0.32338426264615383,-0.7325331901638795,22.5,-0.06560984495527027,0.5563591276128674,2.5784503933548764
1648218617841560020,42274,15,4,1.60075354576,-2.01441431046,0.167718693614,-0.485512852669,22.5,0.5353690788494982,-0.6737171606889631,0.056093208566555176,22.5,-0.06560984495527027,1.0134766468859155,2.5784504045330863
1648218617841581148,42275,15,5,1.08691549301,-1.78000986576,0.317436754704,-0.404594063759,22.5,0.36351688729431436,-0.5953210253377926,0.10616613869698996,22.5,-0.05467487348094594,0.7865724238145749,2.1096413212641414
1648218617841590555,42276,15,6,2.09004950523,0.263705164194,0.112865239382,-0.404594063759,22.5,0.699013212451505,0.0881957070882943,0.03774757169966555,22.5,-0.05467487348094594,0.9924804406699157,2.1096411804369737
1648218617841617599,42277,15,7,1.60651993752,0.2593100667,-2.23661899567,-0.323675245047,22.5,0.5372976379665552,0.08672577481605351,-0.7480331089197325,22.5,-0.04373989797932432,0.7647868092130796,2.76597406931683
1648218617841683054,42278,15,8,1.70476567745,-0.864366889,-1.99931395054,-0.323675245047,22.5,0.5701557449665551,-0.2890859160535117,-0.6686668730903009,22.5,-0.04373989797932432,0.8565779672027719,2.7659740430154
1648218617841705211,42279,15,9,1.60985517502,1.28922522068,-0.0352812670171,-0.0809188112617,22.5,0.5384131020133779,0.4311790035719063,-0.01179975485521739,22.5,-0.010934974494824324,0.8750386676945185,2.0627603161730645
1648218617944437777,42280,16,0,0.00540081458166,0.0454158857465,0.0102979978547,0.0,12.0,0.0018062925022274247,0.015189259446989964,0.0034441464396989963,12.0,0.0,0.015402564324007217,0.04688091547847609
1648218617944472843,42281,16,1,0.0334289707243,0.0146502861753,-0.0294226650149,0.0,12.0,0.011180257767324413,0.0048997612626421405,-0.009840356192274247,12.0,0.0,0.016553065816292893,0.04688091493649962
1648218617944516984,42282,16,2,2.10620594025,-1.21890377998,0.145175665617,0.0,12.0,0.7044167024247492,-0.407660127083612,0.048553734320066884,12.0,0.0,1.0763793757424664,2.4378075932036265
1648218617944653193,42283,16,3,0.892654240131,0.146502867341,0.246644258499,0.0809188112617,12.0,0.2985465686056856,0.04899761449531772,0.08248971856153846,12.0,0.010934974494824324,0.42504220199727283,0.9376182980368446
1648218617944674420,42284,16,4,0.884475708008,0.101086974144,0.608383834362,0.161837622523,12.0,0.2958112735812709,0.03380835255652174,0.20347285430167225,12.0,0.021869948989594594,0.4197042099599825,1.0782609815396513
1648218617944680900,42285,16,5,1.44250309467,1.02845001221,0.45206195116,0.323675245047,12.0,0.4824425065785953,0.34396321478595315,0.15119128801337792,12.0,0.04373989797932432,0.764076067831969,1.8283557130476176
1648218617944686984,42286,16,6,1.11120200157,-1.1896032095,-2.17796730995,-0.242756426334,12.0,0.3716394654080267,-0.39786060518394645,-0.7284171605183947,12.0,-0.03280492247756756,0.6591849859143212,2.71909310020027
1648218617944694930,42287,16,7,2.12052536011,0.254914969206,-1.68281269073,-0.242756426334,12.0,0.7092058060568561,0.0852558425438127,-0.5628136089397993,12.0,-0.03280492247756756,1.0065854704779746,2.7190932305599382
1648218617944708742,42288,16,8,0.844174087048,0.293005734682,0.283982038498,-0.161837622523,12.0,0.28233247058461536,0.09799522899063544,0.0949772704006689,12.0,-0.021869948989594594,0.4111280977964805,0.9376182847989594
1648218617944722594,42289,16,9,1.56009948254,1.25992465019,0.206032782793,-0.0809188112617,12.0,0.5217724021872909,0.4213794816688963,0.06890728521505016,12.0,-0.010934974494824324,0.8497373399704993,2.015879467419468
1648218618139549891,42290,18,0,0.00540081458166,0.0454158857465,0.0102979978547,0.0,14.1999998093,0.0018062925022274247,0.015189259446989964,0.0034441464396989963,14.1999998093,0.0,0.015402564324007217,0.04688091547847609
1648218618139583132,42291,18,1,0.0334376059473,0.0146502861753,-0.0294128507376,0.0,14.1999998093,0.011183145801772574,0.0048997612626421405,-0.00983707382528428,14.1999998093,0.0,0.016556967128018817,0.046880914720357526
1648218618139610749,42292,18,2,0.793139755726,0.079111546278,0.277063965797,0.0809188112617,14.1999998093,0.26526413234983276,0.026458711129765885,0.09266353371137123,14.1999998093,0.010934974494824324,0.3760720452483375,0.8438564747697065
1648218618139625090,42293,18,3,0.935501933098,-0.061531201005,0.300480753183,0.0809188112617,14.1999998093,0.31287690070167223,-0.020578996991638794,0.10049523517826087,14.1999998093,0.010934974494824324,0.4429530506752945,0.9844991815947007
1648218618139667875,42294,18,4,0.981488347054,-0.0703213736415,0.54560059309,0.0809188112617,14.1999998093,0.32825697225886286,-0.023518854060702338,0.18247511474581937,14.1999998093,0.010934974494824324,0.4648208430884316,1.1251419813400352
1648218618241502055,42295,19,0,0.00540081458166,0.0454158857465,0.0102979978547,0.0,18.1000003815,0.0018062925022274247,0.015189259446989964,0.0034441464396989963,18.1000003815,0.0,0.015402564324007217,0.04688091547847609
1648218618241526027,42296,19,1,0.0334376059473,0.0146502861753,-0.0294128507376,0.0,18.1000003815,0.011183145801772574,0.0048997612626421405,-0.00983707382528428,18.1000003815,0.0,0.016556967128018817,0.046880914720357526
1648218618241557353,42297,19,2,0.838397085667,-0.0263705141842,0.0921339020133,0.0,18.1000003815,0.2804003630993311,-0.008819569961270902,0.0308140140512709,18.1000003815,0.0,0.39664406218519793,0.843856464793305
1648218618241697260,42298,19,3,1.04342019558,-0.105482056737,0.407544195652,0.0,18.1000003815,0.34896996507692307,-0.035278279845150494,0.13630240657257525,18.1000003815,0.0,0.49477735404968826,1.1251419644859526
1648218618241713022,42299,19,4,1.52007246017,1.32292079926,0.055045042187,0.0,18.1000003815,0.5083854381839464,0.44244842784615385,0.018409713106020065,18.1000003815,0.0,0.8441990990391423,2.0158793817962826
1648218618241724339,42300,19,5,0.941508591175,-0.184593603015,0.220738485456,0.0809188112617,18.1000003815,0.3148858164464883,-0.06173699097491638,0.07382558042006689,18.1000003815,0.010934974494824324,0.4495749224022398,0.9844992150793221
1648218618241739429,42301,19,6,1.55274760723,1.02112495899,0.490728408098,0.242756426334,18.1000003815,0.5193135810133779,0.34151336421070233,0.16412321341070232,18.1000003815,0.03280492247756756,0.8099410896999782,1.9221175000881754
1648218618341355855,42302,20,0,0.00539573840797,0.0454158857465,0.0103006586432,0.0,13.1000003815,0.0018045947852742474,0.015189259446989964,0.003445036335518394,13.1000003815,0.0,0.015402166316010612,0.04688091551569908
1648218618341532724,42303,20,1,0.0334289707243,0.0146502861753,-0.0294226650149,0.0,13.1000003815,0.011180257767324413,0.0048997612626421405,-0.009840356192274247,13.1000003815,0.0,0.016553065816292893,0.04688091493649962
1648218618341586489,42304,20,2,0.788264274597,-0.0996219441295,0.0623293220997,0.0,13.1000003815,0.26363353665451505,-0.033318375963043476,0.020845927123645483,13.1000003815,0.0,0.37431991327572967,0.7969755596952042
1648218618341629849,42305,20,3,0.933153569698,-0.210964113474,0.592168092728,0.0,13.1000003815,0.3120914948822742,-0.07055655969030099,0.1980495293404682,13.1000003815,0.0,0.446968041890062,1.1251419874216357
1648218618341693115,42306,20,4,0.921302556992,-0.24612480402,0.244668856263,0.0809188112617,13.1000003815,0.30812794548227423,-0.08231598796655518,0.0818290489173913,13.1000003815,0.010934974494824324,0.4434654253142682,0.9844991975105543
1648218618341728505,42307,20,5,1.49968147278,1.32292079926,0.254176557064,0.0809188112617,13.1000003815,0.5015657099598662,0.44244842784615385,0.085008881961204,13.1000003815,0.010934974494824324,0.8360005586831999,2.015879382075033
1648218618341760535,42308,20,6,0.501756966114,-1.80198526382,0.442295134068,-0.242756426334,13.1000003815,0.16781169435250834,-0.6026706567959866,0.14792479400267555,13.1000003815,-0.03280492247756756,0.6477140187504246,1.9221175639613177
1648218618341772197,42309,20,7,1.90417432785,0.0600661747158,0.255045711994,-0.242756426334,13.1000003815,0.6368476012876254,0.020089021644080267,0.08529956922876254,13.1000003815,-0.03280492247756756,0.9008625329772689,1.9221176164310327
1648218618341877977,42310,20,8,1.25491547585,-0.228544458747,-2.07746481895,-0.242756426334,13.1000003815,0.41970417252508363,-0.07643627382842809,-0.6948042872742474,13.1000003815,-0.03280492247756756,0.5984527456923435,2.4378075180634644
1648218618341893684,42311,20,9,0.88712823391,-0.0,0.303531914949,-0.161837622523,13.1000003815,0.2966984059899665,-0.0,0.10151569061839465,13.1000003815,-0.021869948989594594,0.41959490968548935,0.937618326822211
1648218618441450898,42312,21,0,0.00540081458166,0.0454158857465,0.0102979978547,0.0,27.3999996185,0.0018062925022274247,0.015189259446989964,0.0034441464396989963,27.3999996185,0.0,0.015402564324007217,0.04688091547847609
1648218618441527490,42313,21,1,0.0334148444235,0.0146502861753,-0.0294387042522,0.0,27.3999996185,0.011175533252006688,0.0048997612626421405,-0.009845720485685617,27.3999996185,0.0,0.016546683878176403,0.046880913183441654
1648218618441547190,42314,21,2,0.921341538429,-0.316446185112,0.56297069788,0.0,27.3999996185,0.3081409827521739,-0.10583484451906354,0.1882845143411371,27.3999996185,0.0,0.4484448068796487,1.1251419577893933
1648218618441568343,42315,21,3,0.901152789593,0.105482056737,-0.665388345718,0.0,27.3999996185,0.3013888928404682,0.035278279845150494,-0.2225379082668896,27.3999996185,0.0,0.42768573331833176,1.1251419755311105
1648218618441581153,42316,21,4,2.10750341415,-1.12074685097,-0.137425556779,0.0,27.3999996185,0.7048506401839464,-0.3748317227324415,-0.04596172467525084,27.3999996185,0.0,1.064954304325781,2.390926583621734
1648218618441618679,42317,21,5,0.782835960388,-0.149432912469,0.00277522858232,0.0809188112617,27.3999996185,0.2618180469525083,-0.04997756269866221,0.0009281700944214047,27.3999996185,0.010934974494824324,0.3736243249486714,0.7969755567765263
1648218618441779778,42318,21,6,0.88879853487,-0.293005734682,0.0575576536357,0.161837622523,27.3999996185,0.2972570350735786,-0.09799522899063544,0.019250051383177254,27.3999996185,0.021869948989594594,0.4316555973300897,0.9376183016748577
1648218618441808665,42319,21,7,0.939501225948,-0.354536950588,0.235342413187,0.161837622523,27.3999996185,0.31421445683879595,-0.11857423096588628,0.07870983718628762,27.3999996185,0.021869948989594594,0.45991444641601603,1.0313801696439162
1648218618441831156,42320,21,8,0.511118888855,-1.44158816338,-1.16409492493,-0.404594063759,27.3999996185,0.1709427721923077,-0.4821365094916388,-0.3893294063311037,27.3999996185,-0.05467487348094594,0.539350050073571,1.922117568097611
1648218618441849115,42321,21,9,0.729954183102,-0.540595591068,1.69394779205,-0.404594063759,27.3999996185,0.2441318338133779,-0.18080120102608696,0.5665377230936454,27.3999996185,-0.05467487348094594,0.38973039252108765,1.9221175366510077
1648218618441904803,42322,21,10,2.18473720551,-0.9713139534,0.00151583552361,-0.242756426334,27.3999996185,0.7306813396354513,-0.3248541650167224,0.0005069684025451505,27.3999996185,-0.03280492247756756,1.0831992747004715,2.3909265465435188
1648218618441970215,42323,21,11,0.930040001869,-0.0922968015075,0.309427917004,-0.161837622523,27.3999996185,0.3110501678491639,-0.03086849548745819,0.10348759766020067,27.3999996185,-0.021869948989594594,0.4409731033199704,0.9844992333498481
1648218618441987920,42324,21,12,0.831688940525,-0.105482056737,0.0962325260043,-0.0809188112617,27.3999996185,0.2781568362959866,-0.035278279845150494,0.03218479130578595,27.3999996185,-0.010934974494824324,0.3949519061673425,0.8438564197458196
