%time,field.header.seq,field.header.frame_id,field.point_id,field.x,field.y,field.z,field.velocity,field.intensity,normalized_x,normalized_y,normalized_z,normalized_intensity,normalized_velocity,normalized_range,range
1648218245940156405,26230,0,0,0.00485466001555,0.0454158857465,0.0105664487928,0.0,26.1000003815,0.0016236321122240801,0.015189259446989964,0.003533929362140468,26.1000003815,0.0,0.015361834689244132,0.0468809155424314
1648218245940165903,26231,0,1,0.0334805957973,0.0146502861753,-0.029363906011,0.0,26.1000003815,0.011197523678026755,0.0048997612626421405,-0.009820704351505017,26.1000003815,0.0,0.016576390845742875,0.046880914626137686
1648218245940169713,26232,0,2,0.661628067493,0.234404578805,0.264470696449,0.0,26.1000003815,0.2212802901314381,0.07839618020234114,0.08845173794280936,26.1000003815,0.0,0.3226079581653633,0.7500946310563023
1648218245940174289,26233,0,3,0.785280108452,0.553780794144,0.214244499803,0.0,26.1000003815,0.2626354877765886,0.18521096794113712,0.07165367886387959,26.1000003815,0.0,0.4150396384985248,0.9844992241688065
1648218246135020429,26234,2,0,0.00493015442044,0.0454158857465,0.0105314357206,0.0,23.2999992371,0.001648881077070234,0.015189259446989964,0.003522219304548495,23.2999992371,0.0,0.015367212504570061,0.04688091551031885
1648218246135030750,26235,2,1,0.0334805957973,0.0146502861753,-0.029363906011,0.0,23.2999992371,0.011197523678026755,0.0048997612626421405,-0.009820704351505017,23.2999992371,0.0,0.016576390845742875,0.046880914626137686
1648218246135124011,26236,2,2,0.774572014809,0.553780794144,0.250207334757,-0.161837622523,23.2999992371,0.2590541855548495,0.18521096794113712,0.0836813828618729,23.2999992371,-0.021869948989594594,0.4105133916849311,0.9844992049027944
1648218246135126224,26237,2,3,0.514457285404,0.457088917494,1.00604665279,-0.161837622523,23.2999992371,0.17205929277725754,0.15287254765685618,0.33647045243812707,23.2999992371,-0.021869948989594594,0.28736530112231334,1.2189037880780633
1648218246135197145,26238,2,4,0.742600500584,0.952268600464,-0.16569699347,-0.161837622523,23.2999992371,0.2483613714327759,0.31848448176053507,-0.0554170546722408,23.2999992371,-0.021869948989594594,0.47412984167020655,1.2189038044662384
1648218246135200316,26239,2,5,0.669216930866,0.210964113474,0.26511284709,-0.0809188112617,23.2999992371,0.22381837152709028,0.07055655969030099,0.08866650404347826,23.2999992371,-0.010934974494824324,0.32429547480871246,0.7500946469771298
1648218246236515663,26240,3,0,0.00493015442044,0.0454158857465,0.0105314357206,0.0,20.6000003815,0.001648881077070234,0.015189259446989964,0.003522219304548495,20.6000003815,0.0,0.015367212504570061,0.04688091551031885
1648218246236532295,26241,3,1,0.0334805957973,0.0146502861753,-0.029363906011,0.0,20.6000003815,0.011197523678026755,0.0048997612626421405,-0.009820704351505017,20.6000003815,0.0,0.016576390845742875,0.046880914626137686
1648218246236632182,26242,3,2,2.29700398445,1.1485824585,0.544881999493,-0.323675245047,20.6000003815,0.768228757341137,0.38414129046822737,0.1822347824391304,20.6000003815,-0.04373989797932432,1.1523521068902551,2.6253314765805422
1648218246236642079,26243,3,3,1.98904502392,-1.64083218575,0.493694901466,-0.323675245047,20.6000003815,0.6652324494715718,-0.5487733062709029,0.16511535166086955,20.6000003815,-0.04373989797932432,1.0891375327916089,2.62533141235684
1648218246236645288,26244,3,4,0.598258376122,0.304725944996,0.334471195936,-0.242756426334,20.6000003815,0.20008641341872907,0.10191503177123744,0.11186327623277591,20.6000003815,-0.03280492247756756,0.30075873947480475,0.7500946387388032
1648218246236774086,26245,3,5,0.796261548996,0.439508587122,0.227876707911,-0.242756426334,20.6000003815,0.26630821036655516,0.14699283850234113,0.0762129457896321,20.6000003815,-0.03280492247756756,0.4042858152201857,0.937618284043054
1648218246236784503,26246,3,6,1.0225481987,0.457088917494,0.106814861298,-0.161837622523,20.6000003815,0.34198936411371234,0.15287254765685618,0.035724033878929765,20.6000003815,-0.021869948989594594,0.5072311762509284,1.1251419962629439
1648218246340077382,26247,4,0,0.00493015442044,0.0454158857465,0.0105314357206,0.0,17.1000003815,0.001648881077070234,0.015189259446989964,0.003522219304548495,17.1000003815,0.0,0.015367212504570061,0.04688091551031885
1648218246340080186,26248,4,1,0.0335031487048,0.0146502861753,-0.029338169843,0.0,17.1000003815,0.01120506645645485,0.0048997612626421405,-0.009812096937458194,17.1000003815,0.0,0.01658658159531456,0.04688091368447124
1648218246340100661,26249,4,2,2.09513902664,-1.21890377998,0.259946554899,0.0,17.1000003815,0.7007153935250836,-0.407660127083612,0.08693864712341136,17.1000003815,0.0,1.0715367024324702,2.43780765795897
1648218246340105918,26250,4,3,1.41216480732,-1.65255224705,0.360342174768,-0.485512852669,17.1000003815,0.47229592218060196,-0.5526930592140468,0.12051577751438126,17.1000003815,-0.06560984495527027,0.8669466499850105,2.203403016967089
1648218246340109059,26251,4,4,1.61239349842,-1.54707026482,0.26559099555,-0.404594063759,17.1000003815,0.5392620396053511,-0.5174148042876254,0.08882641991638796,17.1000003815,-0.05467487348094594,0.9215883975043568,2.2502839320749177
1648218246340275386,26252,4,5,1.46061551571,-0.79111546278,-2.269998312,-0.323675245047,17.1000003815,0.48850017247826083,-0.26458711129765883,-0.7591967598662206,17.1000003815,-0.04373989797932432,0.7397777885875061,2.812855079214934
1648218246340278969,26253,4,6,1.87483942509,0.703213751316,-1.9755051136,-0.323675245047,17.1000003815,0.6270365970200669,0.23518854559063543,-0.6607040513712373,17.1000003815,-0.04373989797932432,0.9174221710761354,2.81285493827383
1648218246340280865,26254,4,7,0.642439246178,0.175803437829,0.225553825498,-0.242756426334,17.1000003815,0.2148626241397993,0.05879713639765886,0.07543606203946487,17.1000003815,-0.03280492247756756,0.30949797697730796,0.7032137384743234
1648218246340285113,26255,4,8,0.77088958025,0.389697611332,0.217435464263,-0.161837622523,17.1000003815,0.257822602090301,0.13033364927491636,0.07272089105785953,17.1000003815,-0.021869948989594594,0.3872103413269644,0.8907374216541898
1648218246340395428,26256,4,9,0.878682374954,0.402882874012,0.662752151489,-0.161837622523,17.1000003815,0.2938737039979933,0.13474343612441472,0.22165623795618727,17.1000003815,-0.021869948989594594,0.4368973579476243,1.1720229266231397
1648218246534922352,26257,6,0,0.00493015442044,0.0454158857465,0.0105314357206,0.0,14.1000003815,0.001648881077070234,0.015189259446989964,0.003522219304548495,14.1000003815,0.0,0.015367212504570061,0.04688091551031885
1648218246535072366,26258,6,1,0.0334805957973,0.0146502861753,-0.029363906011,0.0,14.1000003815,0.011197523678026755,0.0048997612626421405,-0.009820704351505017,14.1000003815,0.0,0.016576390845742875,0.046880914626137686
1648218246535075768,26259,6,2,0.643569469452,0.197778865695,0.203005954623,0.0809188112617,14.1000003815,0.2152406252347826,0.06614677782441471,0.06789496810133779,14.1000003815,0.010934974494824324,0.31150032057683785,0.7032137365970073
1648218246535077777,26260,6,3,0.840523540974,-1.84593617916,0.580194830894,-0.323675245047,14.1000003815,0.2811115521652174,-0.6173699595852842,0.1940450939444816,14.1000003815,-0.04373989797932432,0.734297675687327,2.109641259138484
1648218246535185036,26261,6,4,0.878642559052,0.32230630517,0.0568681322038,-0.161837622523,14.1000003815,0.2938603876428093,0.10779475089297658,0.01901944220862876,14.1000003815,-0.021869948989594594,0.4293338598005556,0.9376183047435311
1648218246535188310,26262,6,5,1.62333285809,1.34782624245,0.445804715157,-0.0809188112617,14.1000003815,0.5429206883244146,0.45077800750836117,0.14909856694214046,14.1000003815,-0.010934974494824324,0.890351930235747,2.15652196651176
1648218246636509346,26263,7,0,0.00493015442044,0.0454158857465,0.0105314357206,0.0,12.1999998093,0.001648881077070234,0.015189259446989964,0.003522219304548495,12.1999998093,0.0,0.015367212504570061,0.04688091551031885
1648218246636520325,26264,7,1,0.0335031487048,0.0146502861753,-0.029338169843,0.0,12.1999998093,0.01120506645645485,0.0048997612626421405,-0.009812096937458194,12.1999998093,0.0,0.01658658159531456,0.04688091368447124
1648218246636529865,26265,7,2,0.819362401962,0.175803437829,0.420554995537,0.0809188112617,12.1999998093,0.27403424814782607,0.05879713639765886,0.140653844661204,12.1999998093,0.010934974494824324,0.39197785851302047,0.9376183118799244
1648218246636539109,26266,7,3,0.689343094826,0.210964113474,0.2072250247,0.161837622523,12.1999998093,0.23054953004214043,0.07055655969030099,0.0693060283277592,12.1999998093,0.021869948989594594,0.3335931649788926,0.7500946409754399
1648218246636630457,26267,7,4,0.907218635082,0.234404578805,-0.0337191186845,-0.242756426334,12.1999998093,0.30341760370635446,0.07839618020234114,-0.01127729721889632,12.1999998093,-0.03280492247756756,0.43620000635961786,0.937618332462445
1648218246636632191,26268,7,5,0.636454224586,-1.86937654018,0.596101939678,-0.242756426334,12.1999998093,0.21286094467759195,-0.6252095452107023,0.19936519721672238,12.1999998093,-0.03280492247756756,0.6939067220892495,2.0627603233183898
