%time,field.header.seq,field.header.frame_id,field.point_id,field.x,field.y,field.z,field.velocity,field.intensity,normalized_x,normalized_y,normalized_z,normalized_intensity,normalized_velocity,normalized_range,range
1648218427336206883,34602,0,0,0.00517798401415,0.0454158857465,0.0104118222371,0.0,11.6999998093,0.0017317672288127087,0.015189259446989964,0.003482214795016722,11.6999998093,0.0,0.015385435905997372,0.04688091550819912
1648218427336211030,34603,0,1,0.0335027687252,0.0146502861753,-0.0293386057019,0.0,11.6999998093,0.011204939372976588,0.0048997612626421405,-0.00981224270966555,11.6999998093,0.0,0.01658640989289275,0.04688091489939147
1648218427336238928,34604,0,2,1.35949623585,0.949338495731,0.314485967159,-0.323675245047,11.6999998093,0.45468101533444816,0.317504513622408,0.10517925323043478,11.6999998093,-0.04373989797932432,0.7171323222263317,1.6877129549502927
1648218427336252223,34605,0,3,0.900648713112,0.761814832687,0.306914538145,-0.0809188112617,11.6999998093,0.30122030538862876,0.2547875694605351,0.10264700272408027,11.6999998093,-0.010934974494824324,0.4963708797949821,1.2189038015598206
1648218427441211535,34606,1,0,0.00509315496311,0.0454158857465,0.0104535799474,0.0,26.8999996185,0.0017033963087324413,0.015189259446989964,0.003496180584414715,26.8999996185,0.0,0.015379100120526575,0.04688091551296835
1648218427441216310,34607,1,1,0.0335027687252,0.0146502861753,-0.0293386057019,0.0,26.8999996185,0.011204939372976588,0.0048997612626421405,-0.00981224270966555,26.8999996185,0.0,0.01658640989289275,0.04688091489939147
1648218427441218927,34608,1,2,0.93535810709,0.761814832687,0.174556076527,-0.161837622523,26.8999996185,0.3128287983578595,0.2547875694605351,0.058379958704682273,26.8999996185,-0.021869948989594594,0.510529548327667,1.218903790975075
1648218427441223759,34609,1,3,0.610457539558,1.03138017654,0.902310609818,-0.161837622523,26.8999996185,0.20416640118996654,0.34494320285618724,0.3017761236849498,26.8999996185,-0.021869948989594594,0.4498373616613114,1.5001892923071474
1648218427636139468,34610,3,0,0.00513267470524,0.0454158857465,0.0104342326522,0.0,14.6000003815,0.0017166136137926422,0.015189259446989964,0.0034897099171237456,14.6000003815,0.0,0.01538203910884673,0.04688091550737025
1648218427636141631,34611,3,1,0.0335027687252,0.0146502861753,-0.0293386057019,0.0,14.6000003815,0.011204939372976588,0.0048997612626421405,-0.00981224270966555,14.6000003815,0.0,0.01658640989289275,0.04688091489939147
1648218427636307382,34612,3,2,2.07029676437,-1.19546329975,0.0356145612895,0.0,14.6000003815,0.6924069446053511,-0.39982050158862875,0.011911224511538462,14.6000003815,0.0,1.0576914424188268,2.3909265130040893
1648218427636310723,34613,3,3,1.23785233498,0.681238293648,0.340207338333,-0.647350490093,14.6000003815,0.41399743644816045,0.2278388941966555,0.11378171850602005,14.6000003815,-0.08747979595851352,0.6282502021329178,1.4533083117506418
1648218427636313184,34614,3,4,0.884092569351,0.732514321804,0.235458940268,-0.242756426334,14.6000003815,0.2956831335622073,0.24498806749297658,0.0787488094541806,14.6000003815,-0.03280492247756756,0.4846402626281431,1.172022958555743
1648218427741136404,34615,4,0,0.00513887451962,0.0454158857465,0.0104311807081,0.0,41.7999992371,0.0017186871303076921,0.015189259446989964,0.0034886892000334448,41.7999992371,0.0,0.01538250218435689,0.04688091552468423
1648218427741139191,34616,4,1,0.0335027687252,0.0146502861753,-0.0293386057019,0.0,41.7999992371,0.011204939372976588,0.0048997612626421405,-0.00981224270966555,41.7999992371,0.0,0.01658640989289275,0.04688091489939147
1648218427741144276,34617,4,2,2.070343256,-1.19546329975,0.0328037440777,0.0,41.7999992371,0.6924224936454849,-0.39982050158862875,0.010971151865451504,41.7999992371,0.0,1.0577118004934265,2.3909265535225788
1648218427741146922,34618,4,3,0.842788517475,0.668053030968,0.330691993237,-0.404594063759,41.7999992371,0.28186906938963213,0.22342910734715715,0.11059932884180601,41.7999992371,-0.05467487348094594,0.45696926654546693,1.1251420051550383
1648218427741320712,34619,4,4,1.26241314411,0.57136118412,0.240619599819,-0.323675245047,41.7999992371,0.4222117538829431,0.19109069703010034,0.08047478254816053,41.7999992371,-0.04373989797932432,0.6269299679591585,1.406427510025938
1648218427936322809,34620,6,0,0.00524778757244,0.0454158857465,0.0103768147528,0.0,18.5,0.0017551129004816054,0.015189259446989964,0.003470506606287625,18.5,0.0,0.015390725945674161,0.04688091548763233
1648218427936328579,34621,6,1,0.0334885679185,0.0146502861753,-0.0293548125774,0.0,18.5,0.011200189939297658,0.0048997612626421405,-0.009817663069364548,18.5,0.0,0.01657999305740438,0.04688091389578978
1648218427936331185,34622,6,2,1.29093301296,0.483459442854,0.278921425343,0.161837622523,18.5,0.4317501715585284,0.16169212135585284,0.09328475763979933,18.5,0.021869948989594594,0.6316334090199736,1.4064274735478024
1648218427936407699,34623,6,3,1.60587906837,-1.57930088043,0.451583653688,-0.647350490093,18.5,0.537083300458194,-0.5281942743913043,0.15103132230367894,18.5,-0.08747979595851352,0.9251519522553523,2.2971649155935836
1648218427936409955,34624,6,4,0.844667077065,0.547920703888,0.223753064871,-0.566431701183,18.5,0.2824973501889632,0.18325107153444814,0.07483380096020066,18.5,-0.07654482448418919,0.43953436833323384,1.0313801446924495
1648218427936413445,34625,6,5,1.0927015543,0.615312039852,0.387924849987,-0.404594063759,18.5,0.3654520248494983,0.20578997988361203,0.12974075250401337,18.5,-0.05467487348094594,0.5562911834225795,1.312665716164592
1648218427936420247,34626,6,6,1.11150884628,0.533270418644,0.450845927,-0.404594063759,18.5,0.3717420890568562,0.1783513105832776,0.15078459096989966,18.5,-0.05467487348094594,0.5551518274665804,1.3126657246427718
1648218428037857186,34627,7,0,0.00517798401415,0.0454158857465,0.0104118222371,0.0,13.5,0.0017317672288127087,0.015189259446989964,0.003482214795016722,13.5,0.0,0.015385435905997372,0.04688091550819912
1648218428037858592,34628,7,1,0.0335111618042,0.0146502861753,-0.029329014942,0.0,13.5,0.011207746422809365,0.0048997612626421405,-0.009809035097658863,13.5,0.0,0.016590202536041588,0.04688091261860757
1648218428037860133,34629,7,2,1.3078224659,0.439508587122,0.272893369198,0.161837622523,13.5,0.4373988180267558,0.14699283850234113,0.09126868535050167,13.5,0.021869948989594594,0.6358005556724384,1.4064274568633
1648218428037863351,34630,7,3,1.54203855991,-1.54707026482,0.540803730488,-0.485512852669,13.5,0.5157319598361203,-0.5174148042876254,0.1808708128722408,13.5,-0.06560984495527027,0.8942466038452777,2.250283981956337
1648218428037881077,34631,7,4,0.767375290394,0.451228827238,0.520838499069,-0.404594063759,13.5,0.25664725431237456,0.15091265125016723,0.17419347794949833,13.5,-0.05467487348094594,0.393077924335005,1.0313801592770269
1648218428037882388,34632,7,5,0.688636660576,0.553780794144,0.906265616417,-0.323675245047,13.5,0.23031326440668895,0.18521096794113712,0.3030988683668896,13.5,-0.04373989797932432,0.37468854021576875,1.2657847312049981
1648218428037885126,34633,7,6,1.32795214653,-0.703213751316,-2.37785339355,-0.323675245047,13.5,0.4441311526856187,-0.23518854559063543,-0.7952686934949833,13.5,-0.04373989797932432,0.67068518214491,2.812854998881174
1648218428037886421,34634,7,7,1.89079928398,0.79111546278,-1.92643916607,-0.323675245047,13.5,0.6323743424682274,0.26458711129765883,-0.6442940354749164,13.5,-0.04373989797932432,0.9326312012200138,2.8128550386248796
1648218428137897242,34635,8,0,0.00524778757244,0.0454158857465,0.0103768147528,0.0,14.6000003815,0.0017551129004816054,0.015189259446989964,0.003470506606287625,14.6000003815,0.0,0.015390725945674161,0.04688091548763233
1648218428137905960,34636,8,1,0.0334885679185,0.0146502861753,-0.0293548125774,0.0,14.6000003815,0.011200189939297658,0.0048997612626421405,-0.009817663069364548,14.6000003815,0.0,0.01657999305740438,0.04688091389578978
1648218428137920412,34637,8,2,0.756635308266,0.249054864049,-0.0253900960088,0.161837622523,14.6000003815,0.2530552870454849,0.0832959411535117,-0.008491670905953177,14.6000003815,0.021869948989594594,0.3674400228826397,0.7969755153055751
1648218428138067984,34638,8,3,0.763954222202,0.224149376154,0.0360696353018,0.323675245047,14.6000003815,0.255503084348495,0.07496634653979932,0.01206342317785953,14.6000003815,0.04373989797932432,0.36903062926634367,0.7969755423106126
1648218428138072610,34639,8,4,0.81806153059,0.351606875658,0.293727785349,-0.323675245047,14.6000003815,0.2735991741103679,0.11759427279531771,0.09823671750802675,14.6000003815,-0.04373989797932432,0.40440255827827104,0.9376182990573839
1648218428138076267,34640,8,5,1.05591654778,0.386767566204,0.0373569764197,-0.323675245047,14.6000003815,0.35314934708361206,0.1293537010715719,0.012493972046722406,14.6000003815,-0.04373989797932432,0.5159082308628896,1.1251419687444872
1648218428138080716,34641,8,6,0.732640445232,0.304725944996,0.9252602458,-0.242756426334,14.6000003815,0.24503024924147154,0.10191503177123744,0.3094515872240802,14.6000003815,-0.03280492247756756,0.3612012178656208,1.2189037886565637
1648218428138091611,34642,8,7,0.931466639042,0.761814832687,-0.194253727794,-0.242756426334,14.6000003815,0.31152730402742473,0.2547875694605351,-0.06496780193779264,14.6000003815,-0.03280492247756756,0.508935386724875,1.2189037901786943
1648218428138097369,34643,8,8,1.72898137569,-0.703213751316,-2.10434484482,-0.242756426334,14.6000003815,0.5782546406989967,-0.23518854559063543,-0.7037942624816053,14.6000003815,-0.03280492247756756,0.8509233284831776,2.81285502709317
1648218428138139999,34644,8,9,1.51104438305,0.527410328388,-2.31316590309,-0.242756426334,14.6000003815,0.5053660143979932,0.1763914141765886,-0.7736340813010032,14.6000003815,-0.03280492247756756,0.736140983787917,2.8128550046626057
1648218428241187635,34645,9,0,0.00517798401415,0.0454158857465,0.0104118222371,0.0,15.1000003815,0.0017317672288127087,0.015189259446989964,0.003482214795016722,15.1000003815,0.0,0.015385435905997372,0.04688091550819912
1648218428241306581,34646,9,1,0.0334209166467,0.0146502861753,-0.0294318106025,0.0,15.1000003815,0.011177564095886288,0.0048997612626421405,-0.00984341491722408,15.1000003815,0.0,0.016549427140121226,0.046880913278916476
1648218428241423967,34647,9,2,0.710921823978,0.234404578805,0.0478184707463,-0.485512852669,15.1000003815,0.23776649631371236,0.07839618020234114,0.015992799580702342,15.1000003815,-0.06560984495527027,0.3452705817310753,0.7500946290418767
1648218428241430416,34648,9,3,1.19200134277,0.228544458747,-0.112368427217,-0.485512852669,15.1000003815,0.398662656444816,0.07643627382842809,-0.03758141378494983,15.1000003815,-0.06560984495527027,0.5689519586433016,1.2189037838257228
1648218428241433215,34649,9,4,1.12734425068,0.293005734682,-0.129923939705,-0.404594063759,15.1000003815,0.37703821092976586,0.09799522899063544,-0.0434528226438127,15.1000003815,-0.05467487348094594,0.5421426840852547,1.1720228880897583
1648218428241436017,34650,9,5,1.07184302807,-1.75217413902,0.656982004642,-0.404594063759,15.1000003815,0.3584759291204013,-0.5860114177324415,0.2197264229571906,15.1000003815,-0.05467487348094594,0.7748673210493884,2.156521978718549
1648218428241437714,34651,9,6,2.12782168388,0.26956525445,0.224269345403,-0.404594063759,15.1000003815,0.7116460481204013,0.09015560349498328,0.07500647003444816,15.1000003815,-0.05467487348094594,1.0104495180128068,2.1565220342217937
1648218428241440042,34652,9,7,1.0715880394,0.316446185112,-0.132307484746,-0.323675245047,15.1000003815,0.35839064862876246,0.10583484451906354,-0.04424999489832775,15.1000003815,-0.04373989797932432,0.51777285402333,1.1251419398355422
1648218428241441854,34653,9,8,1.04161500931,0.304725944996,0.554893493652,-0.242756426334,15.1000003815,0.34836622384949834,0.10191503177123744,0.18558310824481605,15.1000003815,-0.03280492247756756,0.5030951456128849,1.2189038183839196
1648218428241445958,34654,9,9,1.51521778107,0.3457467556,-2.28805303574,-0.242756426334,15.1000003815,0.5067617996889632,0.11563436642140468,-0.7652351290100334,15.1000003815,-0.03280492247756756,0.7259382549126843,2.7659740485835456
1648218428241447954,34655,9,10,1.72881817818,-0.864366889,-1.97855257988,-0.242756426334,15.1000003815,0.5782000595919732,-0.2890859160535117,-0.6617232708628762,15.1000003815,-0.03280492247756756,0.8672953849092134,2.7659741002682865
1648218428241449062,34656,9,11,0.852897286415,0.380907446146,0.0812642946839,-0.161837622523,15.1000003815,0.2852499285668896,0.12739379469765885,0.02717869387421405,15.1000003815,-0.021869948989594594,0.42304163202018363,0.9376183388212979
1648218428436149506,34657,11,0,0.00517798401415,0.0454158857465,0.0104118222371,0.0,41.4000015259,0.0017317672288127087,0.015189259446989964,0.003482214795016722,41.4000015259,0.0,0.015385435905997372,0.04688091550819912
1648218428436250925,34658,11,1,0.0334885679185,0.0146502861753,-0.0293548125774,0.0,41.4000015259,0.011200189939297658,0.0048997612626421405,-0.009817663069364548,41.4000015259,0.0,0.01657999305740438,0.04688091389578978
1648218428436254287,34659,11,2,0.713594257832,0.093761831522,0.211267367005,0.0809188112617,41.4000015259,0.23866028690033445,0.03135847208093645,0.07065798227591973,41.4000015259,0.010934974494824324,0.3389702329968677,0.7500946248456845
1648218428436256322,34660,11,3,0.556859254837,-1.97778868675,0.478378564119,-0.404594063759,41.4000015259,0.18624055345719065,-0.6614677882107023,0.1599928308090301,41.4000015259,-0.05467487348094594,0.711976630476338,2.109641289352876
1648218428436258197,34661,11,4,2.07825231552,0.329631447792,0.1509860605,-0.404594063759,41.4000015259,0.6950676640535116,0.11024463136856186,0.05049701020066889,41.4000015259,-0.05467487348094594,0.989136994541808,2.109641289130216
1648218428436262788,34662,11,5,0.787458300591,0.210964113474,0.217938825488,-0.161837622523,41.4000015259,0.2633639801307692,0.07055655969030099,0.07288923929364548,41.4000015259,-0.021869948989594594,0.37907703725756253,0.8438564830577682
1648218428436264926,34663,11,6,0.960390210152,0.215359210968,-0.022579010576,-0.0809188112617,41.4000015259,0.3212007391812709,0.07202649196254181,-0.007551508553846154,41.4000015259,-0.010934974494824324,0.4599213468035809,0.9844992418601212
1648218428541137957,34664,12,0,0.00524778757244,0.0454158857465,0.0103768147528,0.0,16.8999996185,0.0017551129004816054,0.015189259446989964,0.003470506606287625,16.8999996185,0.0,0.015390725945674161,0.04688091548763233
1648218428541140776,34665,12,1,0.0334885679185,0.0146502861753,-0.0293548125774,0.0,16.8999996185,0.011200189939297658,0.0048997612626421405,-0.009817663069364548,16.8999996185,0.0,0.01657999305740438,0.04688091389578978
1648218428541143198,34666,12,2,0.851866722107,0.167013257742,0.199606746435,0.0,16.8999996185,0.28490525822976587,0.05585727683678929,0.06675810917558528,16.8999996185,0.0,0.4067702640429372,0.8907374437606667
1648218428541146095,34667,12,3,0.686891436577,0.093761831522,0.286410331726,0.0809188112617,16.8999996185,0.22972957745050165,0.03135847208093645,0.09578940860401337,16.8999996185,0.010934974494824324,0.326396555255142,0.7500946639008788
1648218428541147897,34668,12,4,0.821574568748,-1.19692838192,-1.39862334728,-0.323675245047,16.8999996185,0.27477410326020063,-0.40031049562541804,-0.46776700577926417,16.8999996185,-0.04373989797932432,0.5578979373978386,2.0158793592414708
1648218428541189708,34669,12,5,0.437598347664,-1.47528386116,-1.95082604885,-0.323675245047,16.8999996185,0.14635396242943144,-0.49340597363210703,-0.6524501835618729,16.8999996185,-0.04373989797932432,0.5350592672344237,2.484688523285992
1648218428736122116,34670,14,0,0.00509315496311,0.0454158857465,0.0104535799474,0.0,12.6999998093,0.0017033963087324413,0.015189259446989964,0.003496180584414715,12.6999998093,0.0,0.015379100120526575,0.04688091551296835
1648218428736202676,34671,14,1,0.0335253626108,0.0146502861753,-0.0293127838522,0.0,12.6999998093,0.011212495856454847,0.0048997612626421405,-0.009803606639531772,12.6999998093,0.0,0.01659661974900078,0.04688091424417414
1648218428736205869,34672,14,2,0.723499596119,-0.0234404578805,0.196572855115,0.0809188112617,12.6999998093,0.24197310906989966,-0.007839618020234113,0.06574342980434782,12.6999998093,0.010934974494824324,0.3422914410799813,0.7500946660376052
1648218428736207575,34673,14,3,0.933775603771,-0.0,0.0848006606102,0.0809188112617,12.6999998093,0.3122995330337792,-0.0,0.028361424953244146,12.6999998093,0.010934974494824324,0.441658235139155,0.937618275332676
1648218428736209217,34674,14,4,1.05304312706,-0.202173948288,0.113458164036,0.242756426334,12.6999998093,0.3521883368093645,-0.06761670511304348,0.03794587425953177,12.6999998093,0.03280492247756756,0.5026383073139542,1.0782610480774506
1648218428736210938,34675,14,5,0.570609629154,1.78440487385,0.606018602848,-0.242756426334,12.6999998093,0.1908393408541806,0.5967909277090301,0.20268180697257523,12.6999998093,-0.03280492247756756,0.6549799381898052,1.968998387429696
1648218428841162378,34676,15,0,0.00520934164524,0.0454158857465,0.0103961685672,0.0,26.5,0.001742254730849498,0.015189259446989964,0.0034769794539130433,26.5,0.0,0.015387803795288944,0.0468809155136033
1648218428841170748,34677,15,1,0.0335111618042,0.0146502861753,-0.029329014942,0.0,26.5,0.011207746422809365,0.0048997612626421405,-0.009809035097658863,26.5,0.0,0.016590202536041588,0.04688091261860757
1648218428841173332,34678,15,2,2.10925674438,-1.12074685097,-0.107203274965,0.0,26.5,0.7054370382541806,-0.3748317227324415,-0.03585393811538461,26.5,0.0,1.0657305711333567,2.390926611135296
1648218428841179339,34679,15,3,0.871970295906,-0.0586011447012,0.339649528265,0.0809188112617,26.5,0.2916288615070234,-0.019599045050568562,0.11359515995484949,26.5,0.010934974494824324,0.4128909157327871,0.9376183088833777
