%time,field.header.seq,field.header.frame_id,field.point_id,field.x,field.y,field.z,field.velocity,field.intensity,normalized_x,normalized_y,normalized_z,normalized_intensity,normalized_velocity,normalized_range,range
1648127742691962923,127049,0,0,0.0125890737399,0.0439508594573,0.0103758089244,0.0,15.8999996185,0.004210392555150501,0.014699284099431437,0.003470170208829431,15.8999996185,0.0,0.01585950074790286,0.0468809154720728
1648127742691988167,127050,0,1,0.0328737124801,0.0146502861753,-0.0300417765975,0.0,15.8999996185,0.010994552668929765,0.0048997612626421405,-0.010047416922240803,15.8999996185,0.0,0.016302393603720582,0.04688091507614338
1648127742691991947,127051,0,2,0.740034103394,0.615311980247,0.207314670086,0.0,15.8999996185,0.2475030446133779,0.2057899599488294,0.06933601006220735,15.8999996185,0.0,0.40603573956183253,0.9844992024651483
1648127742692000807,127052,0,3,1.86526107788,-1.31852579117,0.526157915592,0.0,15.8999996185,0.6238331364147157,-0.44097852547491634,0.17597254702073575,15.8999996185,0.0,0.9863050360350362,2.3440459259098683
1648127742692040772,127053,0,4,2.3945980072,-0.984499275684,0.434771835804,0.0,15.8999996185,0.800868898729097,-0.32926397180066885,0.14540864073712373,15.8999996185,0.0,1.1794900376981,2.6253314055785246
1648127742692053967,127054,0,5,0.60104238987,0.523015201092,0.0193168949336,0.0809188112617,15.8999996185,0.20101752169565218,0.1749214719371237,0.006460499977792642,15.8999996185,0.010934974494824324,0.33378677235920234,0.7969755312579063
1648127742692060827,127055,0,6,1.14427030087,0.193383783102,-1.7053527832,0.161837622523,15.8999996185,0.38269909728093643,0.06467685053578595,-0.5703521014046822,15.8999996185,0.021869948989594594,0.5450690718748549,2.062760268229914
1648127742886979783,127056,2,0,0.0125890737399,0.0439508594573,0.0103758089244,0.0,16.0,0.004210392555150501,0.014699284099431437,0.003470170208829431,16.0,0.0,0.01585950074790286,0.0468809154720728
1648127742886992965,127057,2,1,0.0328981243074,0.0146502861753,-0.0300150439143,0.0,16.0,0.011002717159665552,0.0048997612626421405,-0.010038476225518393,16.0,0.0,0.016313406456717926,0.04688091647078464
1648127742886996279,127058,2,2,0.701975822449,0.646077632904,0.243006855249,0.0,16.0,0.23477452255819398,0.2160794758876254,0.0812731957354515,16.0,0.0,0.39614201088085416,0.9844992101265466
1648127742887076641,127059,2,3,1.86830019951,-1.31852579117,0.515262365341,0.0,16.0,0.6248495650535116,-0.44097852547491634,0.1723285502812709,16.0,0.0,0.9875910174891005,2.3440459045433353
1648127742887097440,127060,2,4,2.39245820045,-0.984499275684,0.446396976709,0.0,16.0,0.8001532442976589,-0.32926397180066885,0.14929664772876253,16.0,0.0,1.1785182187162357,2.6253314696505865
1648127742887123036,127061,2,5,0.584518909454,0.606521844864,0.0506223849952,0.242756426334,16.0,0.19549127406488293,0.20285011533913042,0.01693056354354515,16.0,0.03280492247756756,0.3429020935545901,0.8438564627169278
1648127742887128252,127062,2,6,1.055367589,0.672448158264,0.190325334668,-0.161837622523,16.0,0.35296574882943144,0.22489904958662205,0.06365395808294314,16.0,-0.021869948989594594,0.5474935818787362,1.2657847393932369
1648127742991913111,127063,3,0,0.0126038333401,0.0439508594573,0.0103578744456,0.0,24.7000007629,0.004215328876287625,0.014699284099431437,0.003464172055384615,24.7000007629,0.0,0.01586212306427883,0.04688091535935669
1648127742991928556,127064,3,1,0.0328981243074,0.0146502861753,-0.0300150439143,0.0,24.7000007629,0.011002717159665552,0.0048997612626421405,-0.010038476225518393,24.7000007629,0.0,0.016313406456717926,0.04688091647078464
1648127742991950516,127065,3,2,1.87124073505,-1.24527442455,0.665057063103,0.0,24.7000007629,0.6258330217558528,-0.4164797406521739,0.22242711140568558,24.7000007629,0.0,0.9781560798838933,2.3440458993227895
1648127742991955373,127066,3,3,2.39419746399,-0.984499275684,0.43697270751,0.0,24.7000007629,0.8007349377892976,-0.32926397180066885,0.14614471823076922,24.7000007629,0.0,1.1793081210263976,2.6253314966889585
1648127742991976840,127067,3,4,1.03631317616,0.672448158264,0.275824964046,0.242756426334,24.7000007629,0.3465930355050167,0.22489904958662205,0.09224915185484948,24.7000007629,0.03280492247756756,0.5392893907969352,1.2657847113259229
1648127742992101050,127068,3,5,0.684564530849,0.676843225956,0.206139177084,-0.0809188112617,24.7000007629,0.22895134811003345,0.22636897189163876,0.06894286858996655,24.7000007629,-0.010934974494824324,0.3950700583922819,0.9844992177487523
1648127743186951242,127069,5,0,0.0126038333401,0.0439508594573,0.0103578744456,0.0,29.7000007629,0.004215328876287625,0.014699284099431437,0.003464172055384615,29.7000007629,0.0,0.01586212306427883,0.04688091535935669
1648127743186958383,127070,5,1,0.0328981243074,0.0146502861753,-0.0300150439143,0.0,29.7000007629,0.011002717159665552,0.0048997612626421405,-0.010038476225518393,29.7000007629,0.0,0.016313406456717926,0.04688091647078464
1648127743186964164,127071,5,2,1.86352264881,-1.31852579117,0.532282352448,0.0,29.7000007629,0.6232517220100334,-0.44097852547491634,0.17802085366153847,29.7000007629,0.0,0.9855696210349503,2.344045952479578
1648127743186969975,127072,5,3,2.39420461655,-0.984499275684,0.436933279037,0.0,29.7000007629,0.8007373299498328,-0.32926397180066885,0.14613153145050167,29.7000007629,0.0,1.179311369518808,2.6253314571805366
1648127743187135066,127073,5,4,0.561661183834,0.49224960804,0.0697783380747,-0.323675245047,29.7000007629,0.1878465497772575,0.16463197593311035,0.023337236814280935,29.7000007629,-0.04373989797932432,0.3125321423887143,0.7500946463652511
1648127743187137944,127074,5,5,1.35168993473,1.2306240797,0.418343067169,-0.323675245047,29.7000007629,0.4520702122842809,0.4115799597658863,0.13991406928729097,29.7000007629,-0.04373989797932432,0.760350588183108,1.8752365789511014
1648127743187142307,127075,5,6,0.662675201893,0.615312039852,0.247751370072,-0.161837622523,29.7000007629,0.22163050230535117,0.20578997988361203,0.08285998999063544,29.7000007629,-0.021869948989594594,0.3749528969413918,0.9376182970501966
1648127743187148907,127076,5,7,1.18925702572,0.197778880596,-1.73122429848,-0.161837622523,29.7000007629,0.39774482465551836,0.06614678280802674,-0.5790047821003343,29.7000007629,-0.021869948989594594,0.5663720402318165,2.1096412800478084
1648127743292006791,127077,6,0,0.0126038333401,0.0439508594573,0.0103578744456,0.0,13.5,0.004215328876287625,0.014699284099431437,0.003464172055384615,13.5,0.0,0.01586212306427883,0.04688091535935669
1648127743292012342,127078,6,1,0.0328607447445,0.0146502861753,-0.0300559606403,0.0,13.5,0.010990215633612039,0.0048997612626421405,-0.010052160749264214,13.5,0.0,0.016296543798531928,0.04688091509551231
1648127743292020309,127079,6,2,1.86422514915,-1.31852579117,0.529816448689,0.0,13.5,0.6234866719565216,-0.44097852547491634,0.17719613668528428,13.5,0.0,0.9858667862063667,2.344045890763497
1648127743292032194,127080,6,3,2.39334821701,-0.984499275684,0.441600114107,0.0,13.5,0.8004509086989965,-0.32926397180066885,0.14769234585518393,13.5,0.0,1.1789224222144772,2.6253314404978623
1648127743292035398,127081,6,4,0.661567389965,0.556710898876,0.362670242786,-0.242756426334,13.5,0.22125999664381268,0.18619093607892975,0.12129439558060201,13.5,-0.03280492247756756,0.36411404382087226,0.9376183346089615
1648127743292043777,127082,6,5,1.3498262167,0.193383783102,-1.54775702953,-0.242756426334,13.5,0.45144689521739123,0.06467685053578595,-0.5176444914816053,13.5,-0.03280492247756756,0.6417099760780355,2.062760268503591
1648127743292177515,127083,6,6,0.580414891243,0.46880915761,0.0773208588362,-0.161837622523,13.5,0.19411869272341137,0.15679236040468228,0.025859819008762542,13.5,-0.021869948989594594,0.3161455013289991,0.7500946523251508
1648127743292181905,127084,6,7,0.774697780609,0.676843225956,-0.0739699751139,-0.161837622523,13.5,0.2590962476953177,0.22636897189163876,-0.024739122111672236,13.5,-0.021869948989594594,0.4307024989187599,1.0313801244068
1648127743486947207,127085,8,0,0.0125831468031,0.0439508594573,0.0103829959407,0.0,22.0,0.0042084103020401335,0.014699284099431437,0.003472573893210702,22.0,0.0,0.015858448460566152,0.04688091546896556
1648127743487041053,127086,8,1,0.0329502373934,0.0146502861753,-0.0299578215927,0.0,22.0,0.011020146285418059,0.0048997612626421405,-0.010019338325317725,22.0,0.0,0.016336918581388457,0.046880914068303366
1648127743487045408,127087,8,2,0.634583771229,0.398487776518,0.0339547917247,0.0,22.0,0.21223537499297657,0.1332735038521739,0.01135611763367893,22.0,0.0,0.32840453045878365,0.7500946597747161
1648127743487071429,127088,8,3,2.42877745628,-0.902457654476,0.423054665327,0.0,22.0,0.8123001526020067,-0.30182530250033446,0.14148985462441468,22.0,0.0,1.1877548522586237,2.6253314076724124
1648127743487075284,127089,8,4,1.34960877895,-1.58369588852,0.724878072739,-0.323675245047,22.0,0.45137417356187287,-0.5296641767625418,0.2424341380397993,22.0,-0.04373989797932432,0.8294705716677769,2.2034029917089315
1648127743487078118,127090,8,5,0.714461445808,0.473204255104,0.242972642183,-0.0809188112617,22.0,0.2389503163237458,0.15826229267692307,0.08126175323846153,22.0,-0.010934974494824324,0.3731507210575807,0.8907374076819594
1648127743588790000,127091,9,0,0.0126038333401,0.0439508594573,0.0103578744456,0.0,19.7999992371,0.004215328876287625,0.014699284099431437,0.003464172055384615,19.7999992371,0.0,0.01586212306427883,0.04688091535935669
1648127743588797399,127092,9,1,0.0328737124801,0.0146502861753,-0.0300417765975,0.0,19.7999992371,0.010994552668929765,0.0048997612626421405,-0.010047416922240803,19.7999992371,0.0,0.016302393603720582,0.04688091507614338
1648127743588799372,127093,9,2,0.77100789547,0.417533159256,0.156926929951,0.0,19.7999992371,0.2578621723979933,0.13964319707558526,0.05248392306053511,19.7999992371,0.0,0.3904945868986094,0.8907374334220051
1648127743588924059,127094,9,3,2.42281603813,-0.902457654476,0.45595818758,0.0,19.7999992371,0.8103063672675586,-0.30182530250033446,0.15249437711705685,19.7999992371,0.0,1.1850279873902192,2.625331453657521
1648127743588927747,127095,9,4,0.631599128246,0.398487776518,0.0702282860875,0.0809188112617,19.7999992371,0.21123716663745817,0.1332735038521739,0.023487721099498326,19.7999992371,0.010934974494824324,0.32711482382655477,0.7500946466961048
1648127743588929655,127096,9,5,1.36715650558,-1.55000019073,0.615604877472,-0.242756426334,19.7999992371,0.45724297845484946,-0.518394712618729,0.2058879188869565,19.7999992371,-0.03280492247756756,0.8287794403600867,2.1565219375605875
1648127743588940175,127097,9,6,2.08580780029,0.471739202738,0.278306633234,-0.242756426334,19.7999992371,0.6975945820367893,0.15777230860802674,0.09307914154983277,19.7999992371,-0.03280492247756756,0.9990838318868301,2.1565218842507803
1648127743588945368,127098,9,7,0.734040081501,0.556710898876,0.174316629767,-0.161837622523,19.7999992371,0.24549835501705683,0.18619093607892975,0.05829987617625417,19.7999992371,-0.021869948989594594,0.39396186276099093,0.9376183411125466
1648127743688755951,127099,10,0,0.0125994505361,0.0439508594573,0.0103632062674,0.0,33.0999984741,0.004213863055551839,0.014699284099431437,0.003465955273377926,33.0999984741,0.0,0.01586134410249293,0.04688091557326548
1648127743688764829,127100,10,1,0.0328981243074,0.0146502861753,-0.0300150439143,0.0,33.0999984741,0.011002717159665552,0.0048997612626421405,-0.010038476225518393,33.0999984741,0.0,0.016313406456717926,0.04688091647078464
1648127743688791106,127101,10,2,2.42324185371,-0.902457654476,0.453689813614,0.0,33.0999984741,0.8104487805050167,-0.30182530250033446,0.1517357236167224,33.0999984741,0.0,1.1852227490533396,2.6253314736755256
1648127743688847148,127102,10,3,0.618538558483,0.398487776518,0.145806565881,0.161837622523,33.0999984741,0.20686908310468224,0.1332735038521739,0.048764737752842804,33.0999984741,0.021869948989594594,0.3214832218299724,0.7500946680376401
1648127743688933901,127103,10,4,0.645816922188,0.351606875658,0.148104965687,0.161837622523,33.0999984741,0.21599228166822743,0.11759427279531771,0.04953343334013377,33.0999984741,0.021869948989594594,0.32731291522754397,0.7500946425988583
1648127743688936825,127104,10,5,1.0331312418,0.303260922432,0.0576128065586,0.161837622523,33.0999984741,0.34552884341137124,0.10142505766956521,0.019268497176789297,33.0999984741,0.021869948989594594,0.4990665342233182,1.078260907821978
1648127743688941626,127105,10,6,1.33321344852,-1.6173915863,0.507122814655,-0.242756426334,33.0999984741,0.44589078545819394,-0.54093364090301,0.16960629252675583,33.0999984741,-0.03280492247756756,0.8308106817883584,2.156522012846665
1648127743688948836,127106,10,7,2.12199807167,0.336956560612,0.184854149818,-0.242756426334,33.0999984741,0.709698351729097,0.11269450187692308,0.06182413037391304,33.0999984741,-0.03280492247756756,1.009972054884333,2.1565218748289117
1648127743688952887,127107,10,8,0.735494792461,0.34281668067,0.23155541718,-0.161837622523,33.0999984741,0.24598488042173913,0.1146544082508361,0.07744328333779264,33.0999984741,-0.021869948989594594,0.3662823448155043,0.8438564910624614
1648127743688955488,127108,10,9,1.27222669125,0.287145614624,0.148586526513,-0.161837622523,33.0999984741,0.42549387667224076,0.0960353226167224,0.04969449047257525,33.0999984741,-0.021869948989594594,0.6093544628221262,1.3126657281227068
1648127743688959436,127109,10,10,0.7228474617,0.473204255104,0.216754391789,-0.0809188112617,33.0999984741,0.24175500391304347,0.15826229267692307,0.07249310762173912,33.0999984741,-0.010934974494824324,0.37674648919047327,0.8907374395940051
1648127743791980321,127110,11,0,0.0125890737399,0.0439508594573,0.0103758089244,0.0,21.2999992371,0.004210392555150501,0.014699284099431437,0.003470170208829431,21.2999992371,0.0,0.01585950074790286,0.0468809154720728
1648127743792008898,127111,11,1,0.0328981243074,0.0146502861753,-0.0300150439143,0.0,21.2999992371,0.011002717159665552,0.0048997612626421405,-0.010038476225518393,21.2999992371,0.0,0.016313406456717926,0.04688091647078464
1648127743792014974,127112,11,2,0.816837847233,0.306190997362,0.180100440979,0.0,21.2999992371,0.2731899154625418,0.10240501584013377,0.06023426119698996,21.2999992371,0.0,0.39969018888393987,0.8907374272919086
1648127743792055316,127113,11,3,2.42529726028,-0.902457654476,0.442570328712,0.0,21.2999992371,0.8111362074515049,-0.30182530250033446,0.1480168323451505,21.2999992371,0.0,1.186162892400129,2.6253314294961396
1648127743792082300,127114,11,4,0.672092735767,0.398487776518,0.157063305378,0.0809188112617,21.2999992371,0.22478017918628762,0.1332735038521739,0.052529533571237456,21.2999992371,0.010934974494824324,0.34469419017307873,0.7969755550839015
1648127743792268413,127115,11,5,1.22080135345,-1.64815723896,0.493769168854,-0.323675245047,21.2999992371,0.40829476704013373,-0.5512231568428093,0.1651401902521739,21.2999992371,-0.04373989797932432,0.7982832844451062,2.1096412541075256
1648127743792275745,127116,11,6,0.993493020535,-1.78000986576,0.543252110481,-0.323675245047,21.2999992371,0.332271913222408,-0.5953210253377926,0.1816896690571906,21.2999992371,-0.04373989797932432,0.7584302023536508,2.10964128694827
1648127743792350131,127117,11,7,1.80182480812,0.594801604748,-1.94758975506,-0.161837622523,21.2999992371,0.6026169926822742,0.19893030259130434,-0.6513678110568561,21.2999992371,-0.021869948989594594,0.8751387004514908,2.7190931286335416
1648127743792352137,127118,11,8,1.97970819473,-1.01965987682,-1.56029367447,-0.161837622523,21.2999992371,0.6621097641237458,-0.34102337017391304,-0.5218373493210702,21.2999992371,-0.021869948989594594,0.9965317950275236,2.719093075138986
1648127743792361101,127119,11,9,0.784774899483,0.32230630517,0.399218171835,-0.0809188112617,21.2999992371,0.26246652156622075,0.10779475089297658,0.13351778322240804,21.2999992371,-0.010934974494824324,0.3865191563250413,0.9376183370296091
