%time,field.header.seq,field.header.frame_id,field.point_id,field.x,field.y,field.z,field.velocity,field.intensity,normalized_x,normalized_y,normalized_z,normalized_intensity,normalized_velocity,normalized_range,range
1648218414535577800,33940,0,0,0.00517798401415,0.0454158857465,0.0104118222371,0.0,30.7000007629,0.0017317672288127087,0.015189259446989964,0.003482214795016722,30.7000007629,0.0,0.015385435905997372,0.04688091550819912
1648218414535587615,33941,0,1,0.0334293618798,0.0146502861753,-0.0294222198427,0.0,30.7000007629,0.011180388588561872,0.0048997612626421405,-0.009840207305250835,30.7000007629,0.0,0.01655324253472345,0.0468809144661341
1648218414535596897,33942,0,2,0.685560107231,0.615311980247,0.34732863307,-0.161837622523,30.7000007629,0.22928431679966554,0.2057899599488294,0.11616342243143812,30.7000007629,-0.021869948989594594,0.38404700685764964,0.9844991990917714
1648218414535635330,33943,0,3,1.18337059021,0.747164607048,0.139346107841,-0.161837622523,30.7000007629,0.39577611712709027,0.24988782844414714,0.046604049445150494,30.7000007629,-0.021869948989594594,0.6129611705327868,1.4064274746923824
1648218414640927277,33944,1,0,0.0052032484673,0.0454158857465,0.01039921958,0.0,22.7999992371,0.001740216878695652,0.015189259446989964,0.0034779998595317724,22.7999992371,0.0,0.015387342594410783,0.0468809155267328
1648218414640930034,33945,1,1,0.0335027687252,0.0146502861753,-0.0293386057019,0.0,22.7999992371,0.011204939372976588,0.0048997612626421405,-0.00981224270966555,22.7999992371,0.0,0.01658640989289275,0.04688091489939147
1648218414640934253,33946,1,2,2.07058501244,-1.19546329975,-0.00868258439004,0.0,22.7999992371,0.6925033486421405,-0.39982050158862875,-0.002903874377939799,22.7999992371,0.0,1.0578176635185,2.3909266366959074
1648218414640943311,33947,1,3,1.16494035721,0.679773271084,0.170848637819,-0.323675245047,22.7999992371,0.3896121596020067,0.22734892009498325,0.057140012648494984,22.7999992371,-0.04373989797932432,0.5960560387143428,1.3595466130226692
1648218414640950417,33948,1,4,0.773144423962,0.553780794144,0.254584342241,-0.0809188112617,22.7999992371,0.2585767304220736,0.18521096794113712,0.08514526496354514,22.7999992371,-0.010934974494824324,0.4099109094391516,0.9844991902386587
1648218414835860915,33949,3,0,0.00517798401415,0.0454158857465,0.0104118222371,0.0,30.2000007629,0.0017317672288127087,0.015189259446989964,0.003482214795016722,30.2000007629,0.0,0.015385435905997372,0.04688091550819912
1648218414835863496,33950,3,1,0.0335027687252,0.0146502861753,-0.0293386057019,0.0,30.2000007629,0.011204939372976588,0.0048997612626421405,-0.00981224270966555,30.2000007629,0.0,0.01658640989289275,0.04688091489939147
1648218414835868101,33951,3,2,2.09876012802,-1.21890377998,0.228877916932,0.0,30.2000007629,0.7019264642207357,-0.407660127083612,0.07654779830501672,30.2000007629,0.0,1.0731208233748304,2.4378075397116956
1648218414835999830,33952,3,3,2.07879853249,-0.228544458747,-1.25270497799,0.0,30.2000007629,0.6952503453143812,-0.07643627382842809,-0.41896487558193973,30.2000007629,0.0,0.9861990616890218,2.437807553968825
1648218414836003783,33953,3,4,0.826381325722,0.49224960804,0.209816336632,-0.0809188112617,30.2000007629,0.2763817142882943,0.16463197593311035,0.07017268783678929,30.2000007629,-0.010934974494824324,0.42411954857741807,0.9844991961577503
1648218414937592688,33954,4,0,0.00517798401415,0.0454158857465,0.0104118222371,0.0,30.7999992371,0.0017317672288127087,0.015189259446989964,0.003482214795016722,30.7999992371,0.0,0.015385435905997372,0.04688091550819912
1648218414937601767,33955,4,1,0.0335027687252,0.0146502861753,-0.0293386057019,0.0,30.7999992371,0.011204939372976588,0.0048997612626421405,-0.00981224270966555,30.7999992371,0.0,0.01658640989289275,0.04688091489939147
1648218414937604217,33956,4,2,0.797295451164,0.439508587122,0.224232465029,-0.0809188112617,30.7999992371,0.266653997044816,0.14699283850234113,0.07499413546120401,30.7999992371,-0.010934974494824324,0.4047414024422617,0.9376182767916615
1648218415037565678,33957,5,0,0.00513887451962,0.0454158857465,0.0104311807081,0.0,32.7000007629,0.0017186871303076921,0.015189259446989964,0.0034886892000334448,32.7000007629,0.0,0.01538250218435689,0.04688091552468423
1648218415037568951,33958,5,1,0.0334066413343,0.0146502861753,-0.0294480137527,0.0,32.7000007629,0.011172789743913041,0.0048997612626421405,-0.009848834031003345,32.7000007629,0.0,0.016542978019518293,0.04688091385879712
1648218415037571415,33959,5,2,2.40565943718,0.805765748024,0.460380733013,-0.323675245047,32.7000007629,0.804568373638796,0.26948687224882945,0.15397348930200666,32.7000007629,-0.04373989797932432,1.1693090737841776,2.5784503461791655
1648218415037644012,33960,5,3,1.85810124874,-1.04749548435,-1.44866132736,-0.323675245047,32.7000007629,0.6214385447290969,-0.35033293790969894,-0.484502116173913,32.7000007629,-0.04373989797932432,0.9460998346551364,2.578450441969212
1648218415037648318,33961,5,4,1.16653633118,-1.68478286266,0.671778857708,-0.242756426334,32.7000007629,0.3901459301605351,-0.5634725293177257,0.22467520324682275,32.7000007629,-0.03280492247756756,0.7886247427879585,2.1565220008011012
1648218415037716567,33962,5,5,0.874758958817,-1.81956541538,0.758001089096,-0.242756426334,32.7000007629,0.2925615246879599,-0.6085503061471572,0.25351206993177255,32.7000007629,-0.03280492247756756,0.7358790434353232,2.1565220119322492
1648218415037830665,33963,5,6,1.67368805408,-0.7779302001,-2.06014680862,-0.242756426334,32.7000007629,0.5597618909966555,-0.26017732444816055,-0.6890123105752507,32.7000007629,-0.03280492247756756,0.833282058717999,2.7659739643866668
1648218415037833964,33964,5,7,0.893478929996,0.2593100667,-2.60481595993,-0.242756426334,32.7000007629,0.2988223846140468,0.08672577481605351,-0.8711759063311035,32.7000007629,-0.03280492247756756,0.4314058357397307,2.7659740588343924
1648218415037835589,33965,5,8,0.786762654781,0.389697611332,0.150178089738,-0.161837622523,32.7000007629,0.2631313226692308,0.13033364927491636,0.05022678586555184,32.7000007629,-0.021869948989594594,0.3942880242571851,0.8907374258855796
1648218415037837218,33966,5,9,1.2663475275,0.297400802374,0.395327299833,-0.161837622523,32.7000007629,0.42352760117056854,0.09946515129565217,0.13221648823846155,32.7000007629,-0.021869948989594594,0.6071610776629702,1.359546605178106
1648218415037841547,33967,5,10,0.859594166279,0.307655990124,0.368353635073,-0.0809188112617,32.7000007629,0.28748968771872907,0.10289497997458194,0.12319519567658863,32.7000007629,-0.010934974494824324,0.4193900547142175,0.9844992328242622
1648218415137674459,33968,6,0,0.00517798401415,0.0454158857465,0.0104118222371,0.0,25.1000003815,0.0017317672288127087,0.015189259446989964,0.003482214795016722,25.1000003815,0.0,0.015385435905997372,0.04688091550819912
1648218415137765759,33969,6,1,0.0334209166467,0.0146502861753,-0.0294318106025,0.0,25.1000003815,0.011177564095886288,0.0048997612626421405,-0.00984341491722408,25.1000003815,0.0,0.016549427140121226,0.046880913278916476
1648218415137772107,33970,6,2,0.89951980114,0.263705164194,-0.0212570223957,0.0,25.1000003815,0.3008427428561873,0.0881957070882943,-0.007109372038695652,25.1000003815,0.0,0.43450108700355655,0.9376183377401813
1648218415137833353,33971,6,3,1.70778310299,1.30827057362,0.476329237223,0.0809188112617,25.1000003815,0.5711649173879598,0.4375486868294314,0.15930743719832777,25.1000003815,0.010934974494824324,0.9186444247127121,2.203402950640577
1648218415137941566,33972,6,4,0.908013164997,-1.81956541538,0.717830717564,-0.404594063759,25.1000003815,0.3036833327749164,-0.6085503061471572,0.24007716306488291,25.1000003815,-0.05467487348094594,0.7448359606801755,2.1565220026082064
1648218415137946737,33973,6,5,2.13843369484,0.202173948288,0.191869035363,-0.404594063759,25.1000003815,0.7151952156655517,0.06761670511304348,0.06417024594080267,25.1000003815,-0.05467487348094594,1.0136964100913715,2.156521898642474
1648218415137948562,33974,6,6,0.724456250668,0.395557701588,0.175473511219,-0.242756426334,25.1000003815,0.24229306042408025,0.13229354568160534,0.05868679304983278,25.1000003815,-0.03280492247756756,0.3673056445092357,0.8438564496151237
1648218415137950946,33975,6,7,0.676992416382,0.256380021572,0.921731173992,-0.242756426334,25.1000003815,0.22641886835518393,0.08574582661270903,0.3082712956494983,25.1000003815,-0.03280492247756756,0.3314865829501716,1.1720229538744833
1648218415137952781,33976,6,8,1.85600984097,0.2593100667,-2.03435444832,-0.242756426334,25.1000003815,0.6207390772474917,0.08672577481605351,-0.6803861031170567,25.1000003815,-0.03280492247756756,0.8821311490144647,2.7659740168462923
1648218415137955552,33977,6,9,1.47187638283,-0.9508035779,-2.14013195038,-0.242756426334,25.1000003815,0.49226634877257525,-0.3179945076588629,-0.7157631941070233,25.1000003815,-0.03280492247756756,0.7653579706052378,2.76597402285659
1648218415240912282,33978,7,0,0.00513887451962,0.0454158857465,0.0104311807081,0.0,17.1000003815,0.0017186871303076921,0.015189259446989964,0.0034886892000334448,17.1000003815,0.0,0.01538250218435689,0.04688091552468423
1648218415240966096,33979,7,1,0.0335027687252,0.0146502861753,-0.0293386057019,0.0,17.1000003815,0.011204939372976588,0.0048997612626421405,-0.00981224270966555,17.1000003815,0.0,0.01658640989289275,0.04688091489939147
1648218415241053988,33980,7,2,1.29530978203,-0.0,0.212752819061,0.0809188112617,17.1000003815,0.43321397392307687,-0.0,0.07115478898361204,17.1000003815,0.010934974494824324,0.6126570773315596,1.3126656822820533
1648218415241059608,33981,7,3,2.00620365143,0.471739202738,0.634977161884,-0.647350490093,17.1000003815,0.6709711208795985,0.15777230860802674,0.21236694377391302,17.1000003815,-0.08747979595851352,0.9619233812899841,2.156521959666817
1648218415241062989,33982,7,4,0.967722177505,-1.6173915863,1.04792428017,-0.647350490093,17.1000003815,0.3236529021755853,-0.54093364090301,0.3504763478829431,17.1000003815,-0.08747979595851352,0.7085983390002721,2.1565219806992144
1648218415241065005,33983,7,5,1.02053356171,-1.84593617916,-0.0402125641704,-0.485512852669,17.1000003815,0.34131557247826083,-0.6173699595852842,-0.013449018117190634,17.1000003815,-0.06560984495527027,0.7836697691187668,2.1096412440093877
1648218415241066033,33984,7,6,0.703856647015,0.323771327734,0.186890333891,-0.404594063759,17.1000003815,0.23540356087458192,0.10828472499464883,0.06250512839163878,17.1000003815,-0.05467487348094594,0.35007892626096865,0.7969755636854401
1648218415241068251,33985,7,7,0.853689491749,0.205104008317,0.329051196575,-0.242756426334,17.1000003815,0.28551488018361204,0.06859665829999999,0.11005056741638794,17.1000003815,-0.03280492247756756,0.4095643968199038,0.9376183085444766
1648218415241071744,33986,7,8,0.724717438221,0.210964113474,0.834399938583,-0.242756426334,17.1000003815,0.24238041412073577,0.07055655969030099,0.27906352460969897,17.1000003815,-0.03280492247756756,0.3499639387337069,1.1251419821261643
1648218415241073601,33987,7,9,1.324670434,-1.27457487583,-2.0035405159,-0.242756426334,17.1000003815,0.4430335899665551,-0.4262792226856187,-0.6700804401003344,17.1000003815,-0.03280492247756756,0.7578070330702683,2.7190931340547433
1648218415241074668,33988,7,10,1.77545523643,0.424858301878,-2.01512312889,-0.242756426334,17.1000003815,0.5937977379364549,0.14209307755117057,-0.67395422370903,17.1000003815,-0.03280492247756756,0.8516935774354908,2.71909306531218
1648218415436112080,33989,9,0,0.00517798401415,0.0454158857465,0.0104118222371,0.0,12.3999996185,0.0017317672288127087,0.015189259446989964,0.003482214795016722,12.3999996185,0.0,0.015385435905997372,0.04688091550819912
1648218415436149228,33990,9,1,0.0335027687252,0.0146502861753,-0.0293386057019,0.0,12.3999996185,0.011204939372976588,0.0048997612626421405,-0.00981224270966555,12.3999996185,0.0,0.01658640989289275,0.04688091489939147
1648218415436154400,33991,9,2,2.09782028198,-1.21890377998,0.237338349223,0.0,12.3999996185,0.7016121344414714,-0.407660127083612,0.07937737432207358,12.3999996185,0.0,1.07270963154288,2.43780759133039
1648218415436156831,33992,9,3,0.538962304592,1.88988697529,0.449017554522,-0.485512852669,12.3999996185,0.18025495136856187,0.6320692225050167,0.1501730951578595,12.3999996185,-0.06560984495527027,0.6815388448385473,2.0158794382132137
1648218415436209805,33993,9,4,0.67313349247,0.0879017189145,0.183505341411,-0.242756426334,12.3999996185,0.22512825835117053,0.02939856819882943,0.06137302388327759,12.3999996185,-0.03280492247756756,0.31973385999703563,0.7032137805812333
1648218415436215091,33994,9,5,0.816354215145,0.0263705141842,0.212047427893,-0.161837622523,12.3999996185,0.27302816560033444,0.008819569961270902,0.07091887220501672,12.3999996185,-0.021869948989594594,0.38622084774966386,0.843856457153339
1648218415436222771,33995,9,6,0.844561576843,0.197778865695,0.92185151577,-0.161837622523,12.3999996185,0.28246206583377925,0.06614677782441471,0.30831154373578595,12.3999996185,-0.021869948989594594,0.40490126387395353,1.265784718632115
1648218415540966280,33996,10,0,0.00513887451962,0.0454158857465,0.0104311807081,0.0,12.5,0.0017186871303076921,0.015189259446989964,0.0034886892000334448,12.5,0.0,0.01538250218435689,0.04688091552468423
1648218415540970313,33997,10,1,0.0335253626108,0.0146502861753,-0.0293127838522,0.0,12.5,0.011212495856454847,0.0048997612626421405,-0.009803606639531772,12.5,0.0,0.01659661974900078,0.04688091424417414
1648218415540982900,33998,10,2,0.840501368046,-0.0527410283685,0.0535677336156,0.0,12.5,0.2811041364702341,-0.017639139922575247,0.017915629971772574,12.5,0.0,0.39793241931081735,0.8438564260851938
1648218415541145055,33999,10,3,2.09779024124,-1.21890377998,0.237604245543,0.0,12.5,0.7016020873712373,-0.407660127083612,0.07946630285719063,12.5,0.0,1.072696488864013,2.43780764183546
1648218415541149688,34000,10,4,0.688768684864,-0.0439508594573,0.134816989303,0.0809188112617,12.5,0.2303574196869565,-0.014699284099431437,0.0450892940812709,12.5,0.010934974494824324,0.326106041898492,0.703213765437683
1648218415541151207,34001,10,5,0.683628201485,-0.0879017189145,0.139410734177,0.0809188112617,12.5,0.22863819447658862,-0.02939856819882943,0.046625663604347826,12.5,0.010934974494824324,0.3246769529227012,0.7032137533193658
1648218415541153616,34002,10,6,0.904652535915,-1.47674882412,-0.936894595623,-0.323675245047,12.5,0.30255937656020065,-0.49389592779933106,-0.31334267412140465,12.5,-0.04373989797932432,0.6534657911365802,1.9689984214277134
1648218415541158593,34003,10,7,1.10162162781,-0.430718421936,1.57412397861,-0.323675245047,12.5,0.3684353270267558,-0.14405298392508362,0.5264628691003345,12.5,-0.04373989797932432,0.5405926771427314,1.9689984433434091
1648218415735925652,34004,12,0,0.00513887451962,0.0454158857465,0.0104311807081,0.0,23.6000003815,0.0017186871303076921,0.015189259446989964,0.0034886892000334448,23.6000003815,0.0,0.01538250218435689,0.04688091552468423
1648218415736016822,34005,12,1,0.0335111618042,0.0146502861753,-0.029329014942,0.0,23.6000003815,0.011207746422809365,0.0048997612626421405,-0.009809035097658863,23.6000003815,0.0,0.016590202536041588,0.04688091261860757
1648218415736020430,34006,12,2,0.855880320072,-0.194848805666,0.151380091906,0.161837622523,23.6000003815,0.2862475986862876,-0.06516682463745818,0.050628793279598655,23.6000003815,0.021869948989594594,0.4100269387987345,0.890737397655159
1648218415736038317,34007,12,3,0.652880489826,-0.281285494566,0.239306330681,0.485512852669,23.6000003815,0.2183546788715719,-0.09407541624280935,0.08003556210066888,23.6000003815,0.06560984495527027,0.32281219851714466,0.75009464959609
1648218415736076965,34008,12,4,0.796522915363,-0.237334623933,0.146004244685,-0.566431701183,23.6000003815,0.26639562386722404,-0.07937612840568561,0.04883085106521739,23.6000003815,-0.07654482448418919,0.38501146293570393,0.8438564557327441
1648218415736132027,34009,12,5,0.268583089113,-0.480529397726,-1.84160006046,-0.161837622523,23.6000003815,0.08982712010468227,-0.16071217315250835,-0.6159197526622073,23.6000003815,-0.021869948989594594,0.20485659767750672,1.9221176240081328
1648218415840884183,34010,13,0,0.00517798401415,0.0454158857465,0.0104118222371,0.0,24.8999996185,0.0017317672288127087,0.015189259446989964,0.003482214795016722,24.8999996185,0.0,0.015385435905997372,0.04688091550819912
1648218415840886770,34011,13,1,0.0335027687252,0.0146502861753,-0.0293386057019,0.0,24.8999996185,0.011204939372976588,0.0048997612626421405,-0.00981224270966555,24.8999996185,0.0,0.01658640989289275,0.04688091489939147
1648218415840891195,34012,13,2,2.08571577072,-1.21890377998,0.327060639858,0.0,24.8999996185,0.6975638029163879,-0.407660127083612,0.10938482938394647,24.8999996185,0.0,1.0674161782042528,2.4378074910098992
1648218415840894963,34013,13,3,0.88704508543,-0.175803437829,0.247734293342,0.242756426334,24.8999996185,0.29667059713377925,-0.05879713639765886,0.082854278709699,24.8999996185,0.03280492247756756,0.4236555082327989,0.937618319165998
1648218415840982015,34014,13,4,0.854673147202,-0.250519901514,0.0136650754139,0.323675245047,24.8999996185,0.28584386194046824,-0.08378592023879598,0.004570259335752508,24.8999996185,0.04373989797932432,0.412835932603189,0.8907374157903234
1648218415841002213,34015,13,5,0.574375331402,0.0278355441988,0.680243611336,0.323675245047,24.8999996185,0.19209877304414716,0.009309546554782609,0.22750622452709027,24.8999996185,0.04373989797932432,0.27182815319092535,0.8907374526803303
1648218415841024436,34016,13,6,0.668181836605,-0.373582303524,0.221673876047,0.404594063759,24.8999996185,0.22347218615551837,-0.12494391422207357,0.0741384200826087,24.8999996185,0.05467487348094594,0.33983910556524566,0.796975540149652
1648218415841026764,34017,13,7,0.706347584724,-0.36918720603,0.277250140905,0.485512852669,24.8999996185,0.23623665040936456,-0.12347398194983276,0.09272579963377926,24.8999996185,0.06560984495527027,0.35617598769684106,0.8438564713110331
1648218416035911335,34018,15,0,0.00520934164524,0.0454158857465,0.0103961685672,0.0,41.4000015259,0.001742254730849498,0.015189259446989964,0.0034769794539130433,41.4000015259,0.0,0.015387803795288944,0.0468809155136033
1648218416036078731,34019,15,1,0.0335111618042,0.0146502861753,-0.029329014942,0.0,41.4000015259,0.011207746422809365,0.0048997612626421405,-0.009809035097658863,41.4000015259,0.0,0.016590202536041588,0.04688091261860757
1648218416036101691,34020,15,2,0.735725164413,-0.473204255104,0.167926907539,0.323675245047,41.4000015259,0.2460619278973244,-0.15826229267692307,0.05616284533076923,41.4000015259,0.04373989797932432,0.38228248456403574,0.8907374646183236
1648218416036103821,34021,15,3,0.732282400131,-0.417533159256,0.287822365761,0.485512852669,41.4000015259,0.2449105017160535,-0.13964319707558526,0.09626166078963211,41.4000015259,0.06560984495527027,0.37344682377964983,0.8907374286804014
1648218416036106324,34022,15,4,0.70134305954,-0.451228827238,1.01370692253,0.485512852669,41.4000015259,0.23456289616722406,-0.15091265125016723,0.33903241556187286,41.4000015259,0.06560984495527027,0.3644367336370834,1.3126657101032053
1648218416036110659,34023,15,5,0.864538311958,-0.386767566204,0.408325046301,0.566431701183,41.4000015259,0.2891432481464883,-0.1293537010715719,0.13656356063578595,41.4000015259,0.07654482448418919,0.4288822867388172,1.0313801367814233
1648218416036163033,34024,15,6,1.55042350292,-1.05482065678,-0.00727797485888,-0.0809188112617,41.4000015259,0.5185362886020066,-0.352782828354515,-0.002434105303973244,41.4000015259,-0.010934974494824324,0.813766237427001,1.8752366851399214
1648218416137640248,34025,16,0,0.00513887451962,0.0454158857465,0.0104311807081,0.0,13.8999996185,0.0017186871303076921,0.015189259446989964,0.0034886892000334448,13.8999996185,0.0,0.01538250218435689,0.04688091552468423
1648218416137642697,34026,16,1,0.0335027687252,0.0146502861753,-0.0293386057019,0.0,13.8999996185,0.011204939372976588,0.0048997612626421405,-0.00981224270966555,13.8999996185,0.0,0.01658640989289275,0.04688091489939147
1648218416137646180,34027,16,2,0.745602369308,-0.527410328388,0.212234571576,0.323675245047,13.8999996185,0.24936534090568557,-0.1763914141765886,0.07098146206555184,13.8999996185,0.04373989797932432,0.39430962134499636,0.9376182917264837
1648218416137663555,34028,16,3,0.901035308838,-0.451228827238,0.219711139798,0.566431701183,13.8999996185,0.3013496016180602,-0.15091265125016723,0.07348198655451504,13.8999996185,0.07654482448418919,0.45210374152187877,1.031380175907365
