%time,field.header.seq,field.header.frame_id,field.point_id,field.x,field.y,field.z,field.velocity,field.intensity,normalized_x,normalized_y,normalized_z,normalized_intensity,normalized_velocity,normalized_range,range
1648125487889894474,26397,0,0,0.0126866931096,0.0439508594573,0.0102562177926,0.0,13.1999998093,0.004243041173779264,0.014699284099431437,0.0034301731747826084,13.1999998093,0.0,0.015876893582831942,0.04688091544009944
1648125487889915924,26398,0,1,0.0328266397119,0.0146502861753,-0.0300932060927,0.0,13.1999998093,0.01097880926819398,0.0048997612626421405,-0.010064617422307692,13.1999998093,0.0,0.016281159858119832,0.0468809152292358
1648125487889925552,26399,0,2,0.578777968884,1.1485824585,-0.262422740459,0.0,13.1999998093,0.193571227051505,0.38414129046822737,-0.08776680282909698,13.1999998093,0.0,0.4717034777559369,1.3126657213279413
1648125487889961622,26400,0,3,1.92214417458,-1.17202293873,0.652897715569,0.0,13.1999998093,0.6428575834715718,-0.3919809159632107,0.2183604399896321,13.1999998093,0.0,0.9900407990245531,2.344045951720306
1648125487889968184,26401,0,4,2.39068627357,-0.984499275684,0.455790787935,0.0,13.1999998093,0.7995606266120401,-0.32926397180066885,0.15243839061371237,13.1999998093,0.0,1.177713528147838,2.625331393333943
1648125487889980275,26402,0,5,0.585520446301,1.02845001221,0.291860967875,-0.0809188112617,13.1999998093,0.1958262362210702,0.34396321478595315,0.09761236383779263,13.1999998093,-0.010934974494824324,0.4415954287703944,1.2189037883361438
1648125487889996376,26403,0,6,0.825230717659,1.18081307411,0.19178070128,-0.0809188112617,13.1999998093,0.27599689553812706,0.39492076057190634,0.06414070276923076,13.1999998093,-0.010934974494824324,0.5552575797087876,1.4533083261099637
1648125488084869287,26404,2,0,0.0126866931096,0.0439508594573,0.0102562177926,0.0,13.6000003815,0.004243041173779264,0.014699284099431437,0.0034301731747826084,13.6000003815,0.0,0.015876893582831942,0.04688091544009944
1648125488084873189,26405,2,1,0.0328266397119,0.0146502861753,-0.0300932060927,0.0,13.6000003815,0.01097880926819398,0.0048997612626421405,-0.010064617422307692,13.6000003815,0.0,0.016281159858119832,0.0468809152292358
1648125488084877476,26406,2,2,2.39289140701,-0.984499275684,0.44406875968,0.0,13.6000003815,0.8002981294347825,-0.32926397180066885,0.14851797982608694,13.6000003815,0.0,1.1787149592159996,2.6253314405781896
1648125488084882643,26407,2,3,0.544843912125,1.02845001221,0.362163126469,-0.161837622523,13.6000003815,0.1822220441889632,0.34396321478595315,0.121124791461204,13.6000003815,-0.021869948989594594,0.42979115847431837,1.2189037888070677
1648125488085027366,26408,2,4,0.698931097984,1.1075617075,-0.088846065104,-0.161837622523,13.6000003815,0.23375622006153846,0.3704219757525083,-0.029714403044816054,13.6000003815,-0.021869948989594594,0.49648401883173304,1.3126656996104908
1648125488085031865,26409,2,5,0.848161041737,1.13539719582,0.321871459484,-0.161837622523,13.6000003815,0.2836659002464883,0.37973150361872904,0.10764931755317725,13.6000003815,-0.021869948989594594,0.5523845587684744,1.4533083573098562
1648125488189895818,26410,3,0,0.0126866931096,0.0439508594573,0.0102562177926,0.0,11.3999996185,0.004243041173779264,0.014699284099431437,0.0034301731747826084,11.3999996185,0.0,0.015876893582831942,0.04688091544009944
1648125488189901221,26411,3,1,0.0328266397119,0.0146502861753,-0.0300932060927,0.0,11.3999996185,0.01097880926819398,0.0048997612626421405,-0.010064617422307692,11.3999996185,0.0,0.016281159858119832,0.0468809152292358
1648125488189910591,26412,3,2,0.456543564796,-1.53828001022,0.342917650938,0.0,11.3999996185,0.1526901554501672,-0.51447491980602,0.11468817757123743,11.3999996185,0.0,0.557954308391111,1.6408320851701792
1648125488189914829,26413,3,3,2.39199280739,-0.984499275684,0.44888433814,0.0,11.3999996185,0.799997594444816,-0.32926397180066885,0.15012854118394647,11.3999996185,0.0,1.1783068638351115,2.6253315149624816
1648125488189917290,26414,3,4,0.708850800991,0.952268600464,0.276480764151,-0.242756426334,11.3999996185,0.23707384648528423,0.31848448176053507,0.09246848299364548,11.3999996185,-0.03280492247756756,0.46242878640600743,1.2189038347797452
1648125488189925236,26415,3,5,0.872468233109,1.0987714529,-0.0976665243506,-0.161837622523,11.3999996185,0.2917953956886287,0.3674820912709029,-0.03266438941491639,11.3999996185,-0.021869948989594594,0.5525687226897692,1.4064274860336894
1648125488384942471,26416,5,0,0.00647791754454,0.0454158857465,0.00965681858361,0.0,23.2999992371,0.002166527606869565,0.015189259446989964,0.003229705211909699,23.2999992371,0.0,0.015495202040974806,0.04688091550950937
1648125488385033432,26417,5,1,0.0328022278845,0.0146502861753,-0.030119812116,0.0,23.2999992371,0.010970644777424748,0.0048997612626421405,-0.010073515757859532,23.2999992371,0.0,0.01627014917251106,0.04688091425204926
1648125488385037551,26418,5,2,0.4920566082,-1.53828001022,0.289663314819,0.0,23.2999992371,0.1645674274916388,-0.51447491980602,0.09687736281571906,23.2999992371,0.0,0.5646674415014933,1.6408320850920923
1648125488385153699,26419,5,3,2.392141819,-0.984499275684,0.448088467121,0.0,23.2999992371,0.8000474311036788,-0.32926397180066885,0.14986236358561872,23.2999992371,0.0,1.1783745360271254,2.625331327737091
1648125488385155467,26420,5,4,0.624413430691,0.914177834988,0.200826376677,-0.323675245047,23.2999992371,0.20883392330802672,0.30574509531371236,0.06716601226655518,23.2999992371,-0.04373989797932432,0.42509208220906286,1.1251419821426376
1648125488385160525,26421,5,5,0.55646187067,1.06654083729,0.196385636926,-0.323675245047,23.2999992371,0.18610764905351168,0.35670262116722407,0.06568081502541806,23.2999992371,-0.04373989797932432,0.4432932144980547,1.2189038065030566
1648125488385171351,26422,5,6,1.1173992157,1.06361079216,0.116522207856,-0.242756426334,23.2999992371,0.37371211227424744,0.3557226729632107,0.03897063807892976,23.2999992371,-0.03280492247756756,0.6370715075884738,1.5470702470701951
1648125488490013381,26423,6,0,0.0125987837091,0.0439508594573,0.010364016518,0.0,14.0,0.0042136400364882936,0.014699284099431437,0.003466226260200669,14.0,0.0,0.0158612256068058,0.046880915481349095
1648125488490027547,26424,6,1,0.0328392535448,0.0146502861753,-0.0300794392824,0.0,14.0,0.010983027941404683,0.0048997612626421405,-0.01006001313792642,14.0,0.0,0.016286849479080982,0.04688091430359943
1648125488490062715,26425,6,2,0.482042312622,-1.53828001022,0.306038767099,0.0,14.0,0.16121816475652173,-0.51447491980602,0.10235410270869565,14.0,0.0,0.5627317623915791,1.6408320779311591
1648125488490068701,26426,6,3,2.39219594002,-0.984499275684,0.447799623013,0.0,14.0,0.8000655317792642,-0.32926397180066885,0.14976576020501672,14.0,0.0,1.1783991146502213,2.6253313584462203
1648125488490072500,26427,6,4,0.754201233387,0.808695793152,0.207692354918,-0.242756426334,14.0,0.25224121517959863,0.2704668204521739,0.06946232605953177,14.0,-0.03280492247756756,0.44766456441857183,1.1251419913040304
1648125488684979976,26428,8,0,0.0126092731953,0.0439508594573,0.0103512527421,0.0,34.7999992371,0.004217148225852843,0.014699284099431437,0.003461957438829431,34.7999992371,0.0,0.01586309022080583,0.04688091563610805
1648125488684983749,26429,8,1,0.0328022278845,0.0146502861753,-0.030119812116,0.0,34.7999992371,0.010970644777424748,0.0048997612626421405,-0.010073515757859532,34.7999992371,0.0,0.01627014917251106,0.04688091425204926
1648125488684985800,26430,8,2,0.282432794571,-1.58955609798,0.293040990829,0.0,34.7999992371,0.09445912861906354,-0.5316241130367892,0.09800702034414714,34.7999992371,0.0,0.5481507561986012,1.640832073790804
1648125488684987336,26431,8,3,2.3919801712,-0.984499275684,0.448951244354,0.0,34.7999992371,0.7999933682943143,-0.32926397180066885,0.15015091784414716,34.7999992371,0.0,1.178301125245884,2.6253314425122225
1648125488684988373,26432,8,4,0.64272749424,0.805765748024,0.0372547395527,-0.242756426334,34.7999992371,0.21495902817391302,0.26948687224882945,0.012459779114615384,34.7999992371,-0.03280492247756756,0.40624862079938584,1.0313801375631804
1648125488684991594,26433,8,5,0.769585371017,0.773535132408,0.274456143379,-0.0809188112617,34.7999992371,0.2573864117113712,0.2587074021431438,0.09179135230066889,34.7999992371,-0.010934974494824324,0.4465703189767154,1.125141955040034
1648125488789951388,26434,9,0,0.0125987837091,0.0439508594573,0.010364016518,0.0,21.7999992371,0.0042136400364882936,0.014699284099431437,0.003466226260200669,21.7999992371,0.0,0.0158612256068058,0.046880915481349095
1648125488789961355,26435,9,1,0.0328022278845,0.0146502861753,-0.030119812116,0.0,21.7999992371,0.010970644777424748,0.0048997612626421405,-0.010073515757859532,21.7999992371,0.0,0.01627014917251106,0.04688091425204926
1648125488789970136,26436,9,2,2.39181113243,-0.984499275684,0.449851155281,0.0,21.7999992371,0.7999368335886287,-0.32926397180066885,0.15045189139832774,21.7999992371,0.0,1.1782243583416336,2.6253314798223193
1648125488789987926,26437,9,3,0.808710813522,0.707608819008,-0.0890130698681,-0.404594063759,21.7999992371,0.27047184398729096,0.23665846789565215,-0.029770257480969897,21.7999992371,-0.05467487348094594,0.44979691773787017,1.0782609829037935
1648125488790037338,26438,9,4,0.798079550266,0.673913121223,0.267501294613,-0.161837622523,21.7999992371,0.26691623754715715,0.22538900375351167,0.08946531592408026,21.7999992371,-0.021869948989594594,0.43964617449224025,1.0782610102052923
1648125488984847677,26439,11,0,0.0125987837091,0.0439508594573,0.010364016518,0.0,46.7000007629,0.0042136400364882936,0.014699284099431437,0.003466226260200669,46.7000007629,0.0,0.0158612256068058,0.046880915481349095
1648125488985053408,26440,11,1,0.0328266397119,0.0146502861753,-0.0300932060927,0.0,46.7000007629,0.01097880926819398,0.0048997612626421405,-0.010064617422307692,46.7000007629,0.0,0.016281159858119832,0.0468809152292358
1648125488985057990,26441,11,2,2.39096140862,-0.984499275684,0.454345881939,0.0,46.7000007629,0.7996526450234113,-0.32926397180066885,0.151955144461204,46.7000007629,0.0,1.1778384730139473,2.6253314955958196
1648125488985064336,26442,11,3,1.34014523029,0.54499065876,0.138205975294,-0.404594063759,46.7000007629,0.44820910712040135,0.18227112333110365,0.04622273421204013,46.7000007629,-0.05467487348094594,0.6595495203634957,1.4533082770051446
1648125488985067924,26443,11,4,1.75643289089,-1.46502864361,0.513016581535,-0.404594063759,46.7000007629,0.5874357494615384,-0.489976134986622,0.1715774520183946,46.7000007629,-0.05467487348094594,0.9644885340673092,2.344045955122855
1648125488985069767,26444,11,5,0.775921404362,0.64461261034,0.214861690998,-0.242756426334,46.7000007629,0.25950548640869564,0.21558950178595315,0.07186009732374582,46.7000007629,-0.03280492247756756,0.4256348531696423,1.0313801381716476
1648125488985072265,26445,11,6,1.07050991058,0.571361124516,0.115245476365,-0.0809188112617,46.7000007629,0.3580300704280936,0.19109067709565214,0.038543637580267555,46.7000007629,-0.010934974494824324,0.5411900863230646,1.2189038202749154
1648125489088950687,26446,12,0,0.012588663958,0.0439508594573,0.0103763062507,0.0,15.3000001907,0.004210255504347826,0.014699284099431437,0.003470336538695652,15.3000001907,0.0,0.015859427980213545,0.04688091550611081
1648125489088957207,26447,12,1,0.0328902117908,0.0146502861753,-0.0300237089396,0.0,15.3000001907,0.011000070833043477,0.0048997612626421405,-0.01004137422729097,15.3000001907,0.0,0.016309836819994126,0.046880913121991157
1648125489088959678,26448,12,2,0.486349314451,-1.53828001022,0.299146920443,0.0,15.3000001907,0.16265863359565216,-0.51447491980602,0.10004913727190635,15.3000001907,0.0,0.5635602055466833,1.640832083279679
1648125489088961936,26449,12,3,1.91067504883,-1.17202293873,0.685736298561,0.0,15.3000001907,0.6390217554615384,-0.3919809159632107,0.2293432436658863,15.3000001907,0.0,0.9850617474989322,2.344045900210781
1648125489089093826,26450,12,4,2.39079475403,-0.984499275684,0.455221146345,0.0,15.3000001907,0.799596907702341,-0.32926397180066885,0.15224787503177256,15.3000001907,0.0,1.1777627913719486,2.625331345144712
1648125489089100920,26451,12,5,1.51801657677,-1.57930088043,0.691665410995,-0.485512852669,15.3000001907,0.5076978517625418,-0.5281942743913043,0.23132622441304346,15.3000001907,-0.06560984495527027,0.8913492070273895,2.297164913331728
1648125489089204091,26452,12,6,0.737608969212,0.668053030968,0.524959683418,-0.404594063759,15.3000001907,0.24669196294715717,0.22342910734715715,0.1755718004742475,15.3000001907,-0.05467487348094594,0.41428784096976656,1.1251419967550085
1648125489089223285,26453,12,7,0.244521185756,0.69735366106,1.08489561081,-0.404594063759,15.3000001907,0.08177966078795985,0.23322864918394645,0.36284134140802676,15.3000001907,-0.05467487348094594,0.2603294617160261,1.31266569439142
1648125489089229621,26454,12,8,0.548820793629,1.1896033287,-0.082041606307,-0.404594063759,15.3000001907,0.18355210489264215,0.3978606450501672,-0.027438664316722407,15.3000001907,-0.05467487348094594,0.47505351624924763,1.3126656727206356
1648125489089233228,26455,12,9,0.834199547768,0.580151319504,0.176863104105,-0.323675245047,15.3000001907,0.2789965042702341,0.19403054164013378,0.05915153983444816,15.3000001907,-0.04373989797932432,0.4396884691223835,1.0313801416607866
1648125489089239324,26456,12,10,1.2985252142,0.483459442854,0.241117104888,-0.242756426334,15.3000001907,0.4342893692976589,0.16169212135585284,0.08064117220334448,15.3000001907,-0.03280492247756756,0.6351053886391396,1.4064274681146651
1648125489189196824,26457,13,0,0.0125987837091,0.0439508594573,0.010364016518,0.0,19.2999992371,0.0042136400364882936,0.014699284099431437,0.003466226260200669,19.2999992371,0.0,0.0158612256068058,0.046880915481349095
1648125489189218603,26458,13,1,0.0328022278845,0.0146502861753,-0.030119812116,0.0,19.2999992371,0.010970644777424748,0.0048997612626421405,-0.010073515757859532,19.2999992371,0.0,0.01627014917251106,0.04688091425204926
1648125489189232429,26459,13,2,0.486640632153,-1.53828001022,0.298672765493,0.0,19.2999992371,0.16275606426521738,-0.51447491980602,0.09989055702107022,19.2999992371,0.0,0.5636164618068016,1.6408320802422016
1648125489189403355,26460,13,3,1.91269028187,-1.17202293873,0.68009519577,0.0,19.2999992371,0.639695746444816,-0.3919809159632107,0.2274565872140468,19.2999992371,0.0,0.9859362730514271,2.344045937813225
1648125489189415268,26461,13,4,2.39149665833,-0.984499275684,0.451519876719,0.0,19.2999992371,0.7998316583043478,-0.32926397180066885,0.15100999221371236,19.2999992371,0.0,1.178081544876125,2.625331462824879
1648125489189418255,26462,13,5,0.686082065105,0.556710898876,0.113037832081,-0.566431701183,19.2999992371,0.22945888465050165,0.18619093607892975,0.03780529501036789,19.2999992371,-0.07654482448418919,0.3741254123526662,0.8907374340778755
1648125489189469448,26463,13,6,1.572717309,-1.54707026482,0.443747550249,-0.566431701183,19.2999992371,0.5259924110367893,-0.5174148042876254,0.14841055192274247,19.2999992371,-0.07654482448418919,0.9061203632148387,2.2502839880047176
1648125489189609708,26464,13,7,0.806749522686,0.451228827238,0.457485258579,-0.485512852669,19.2999992371,0.26981589387491633,0.15091265125016723,0.15300510320367894,19.2999992371,-0.06560984495527027,0.4103362785355383,1.031380147521642
1648125489189616387,26465,13,8,1.08188664913,0.439508616924,0.0999559015036,-0.161837622523,19.2999992371,0.3618349997090301,0.1469928484695652,0.03343006739250836,19.2999992371,-0.021869948989594594,0.5324058898341228,1.1720229213465
1648125489189622093,26466,13,9,1.27225279808,0.467344135046,0.106438435614,-0.0809188112617,19.2999992371,0.4255026080535117,0.15630238630301002,0.03559813900133779,19.2999992371,-0.010934974494824324,0.6217196915690351,1.3595465653519334
1648125489289144043,26467,14,0,0.0126866931096,0.0439508594573,0.0102562177926,0.0,15.6000003815,0.004243041173779264,0.014699284099431437,0.0034301731747826084,15.6000003815,0.0,0.015876893582831942,0.04688091544009944
1648125489289152484,26468,14,1,0.0328022278845,0.0146502861753,-0.030119812116,0.0,15.6000003815,0.010970644777424748,0.0048997612626421405,-0.010073515757859532,15.6000003815,0.0,0.01627014917251106,0.04688091425204926
1648125489289157328,26469,14,2,0.486068695784,-1.53828001022,0.299602657557,0.0,15.6000003815,0.16256478119866222,-0.51447491980602,0.10020155771137122,15.6000003815,0.0,0.5635060419212455,1.6408320813778658
1648125489289187629,26470,14,3,2.39094018936,-0.984499275684,0.454456984997,0.0,15.6000003815,0.7996455482809365,-0.32926397180066885,0.15199230267458191,15.6000003815,0.0,1.1778288368421748,2.625331400820041
1648125489289319354,26471,14,4,0.670397877693,0.501039743423,0.10779414326,-0.647350490093,15.6000003815,0.2242133370210702,0.16757182054280934,0.03605155292976588,15.6000003815,-0.08747979595851352,0.35864126371107874,0.8438564547515304
1648125489289326024,26472,14,5,1.42083334923,-1.58369588852,0.572821736336,-0.647350490093,15.6000003815,0.47519510007692306,-0.5296641767625418,0.191579176032107,15.6000003815,-0.08747979595851352,0.855666352277437,2.203403007898982
1648125489289328543,26473,14,6,2.1291012764,0.481994390488,0.299322336912,-0.647350490093,15.6000003815,0.7120740054849498,0.1612021372869565,0.10010780498729097,15.6000003815,-0.08747979595851352,1.0198455312647319,2.2034029815275438
1648125489289333991,26474,14,7,1.64900267124,-1.85326123238,0.703291773796,-0.566431701183,15.6000003815,0.5515059101137124,-0.6198198101605351,0.23521464006555184,15.6000003815,-0.07654482448418919,0.9962399986188821,2.5784503726634758
1648125489289336487,26475,14,8,1.52568089962,-0.886342346668,-1.88018667698,-0.566431701183,15.6000003815,0.5102611704414716,-0.2964355674474916,-0.6288249755785953,15.6000003815,-0.07654482448418919,0.7801326616470543,2.5784504849337955
1648125489289347334,26476,14,9,0.759007394314,0.380907446146,0.397423535585,-0.485512852669,15.6000003815,0.25384862686086956,0.12739379469765885,0.13291757042976587,15.6000003815,-0.06560984495527027,0.380929691210553,0.9376183518840048
1648125489289360274,26477,14,10,1.47634446621,0.6050568223,-2.25940823555,-0.323675245047,15.6000003815,0.49376069104013376,0.20236014123745819,-0.755654928277592,15.6000003815,-0.04373989797932432,0.7270136634166546,2.7659740266300092
1648125489289466597,26478,14,11,1.5747358799,-0.6050568223,-2.19196844101,-0.323675245047,15.6000003815,0.526667518361204,-0.20236014123745819,-0.7330998130468228,15.6000003815,-0.04373989797932432,0.7718205598162972,2.765974059176986
1648125489389222907,26479,15,0,0.0125987837091,0.0439508594573,0.010364016518,0.0,26.2999992371,0.0042136400364882936,0.014699284099431437,0.003466226260200669,26.2999992371,0.0,0.0158612256068058,0.046880915481349095
1648125489389243474,26480,15,1,0.0328022278845,0.0146502861753,-0.030119812116,0.0,26.2999992371,0.010970644777424748,0.0048997612626421405,-0.010073515757859532,26.2999992371,0.0,0.01627014917251106,0.04688091425204926
1648125489389251029,26481,15,2,0.286736130714,-1.58955609798,0.288831621408,0.0,26.2999992371,0.09589837147625417,-0.5316241130367892,0.09659920448428093,26.2999992371,0.0,0.5486503375245003,1.6408320763586424
1648125489389275473,26482,15,3,2.42079854012,-0.902457654476,0.46655100584,0.0,26.2999992371,0.8096316187692306,-0.30182530250033446,0.15603712569899664,26.2999992371,0.0,1.1841052442461304,2.625331451649441
1648125489389446692,26483,15,4,1.09586060047,-1.71408355236,0.558205664158,-0.647350490093,26.2999992371,0.3665085620301003,-0.573272091090301,0.18669085757792642,26.2999992371,-0.08747979595851352,0.7728505305075427,2.1096413068651314
1648125489389451125,26484,15,5,2.07538318634,0.329631447792,0.186316281557,-0.647350490093,26.2999992371,0.694108089076923,0.11024463136856186,0.062313137644481605,26.2999992371,-0.08747979595851352,0.9877884173190257,2.109641206056008
1648125489389453270,26485,15,6,0.649182736874,0.351606875658,0.132575973868,-0.566431701183,26.2999992371,0.2171179721986622,0.11759427279531771,0.04433979059130434,26.2999992371,-0.07654482448418919,0.32879908865077123,0.7500946671669156
1648125489389456131,26486,15,7,0.826912820339,0.306190997362,0.125997856259,-0.404594063759,26.2999992371,0.2765594716852843,0.10240501584013377,0.04213975125719063,26.2999992371,-0.05467487348094594,0.40429824390776814,0.8907374467756474
1648125489389459473,26487,15,8,0.643226087093,0.32230630517,0.601254463196,-0.242756426334,26.2999992371,0.21512578163645482,0.10779475089297658,0.20108844922943142,26.2999992371,-0.03280492247756756,0.3227660331718165,0.9376183034595789
1648125489389541248,26488,15,9,1.54780828953,-0.849716603756,-2.06778597832,-0.242756426334,26.2999992371,0.5176616352943144,-0.28418615510234113,-0.6915672168294313,26.2999992371,-0.03280492247756756,0.7853081612099925,2.7190931686820177
1648125489389545064,26489,15,10,2.18939137459,0.424858301878,-1.5554831028,-0.242756426334,26.2999992371,0.7322379179230769,0.14209307755117057,-0.5202284624749164,26.2999992371,-0.03280492247756756,1.0452440765565756,2.71909301990573
1648125489489896569,26490,16,0,0.0126866931096,0.0439508594573,0.0102562177926,0.0,25.7999992371,0.004243041173779264,0.014699284099431437,0.0034301731747826084,25.7999992371,0.0,0.015876893582831942,0.04688091544009944
1648125489489914992,26491,16,1,0.0328022278845,0.0146502861753,-0.030119812116,0.0,25.7999992371,0.010970644777424748,0.0048997612626421405,-0.010073515757859532,25.7999992371,0.0,0.01627014917251106,0.04688091425204926
1648125489489923891,26492,16,2,0.26634696126,-1.58955609798,0.307734638453,0.0,25.7999992371,0.08907925125752508,-0.5316241130367892,0.10292128376354513,25.7999992371,0.0,0.5463464318281537,1.6408320755341292
1648125489489941909,26493,16,3,2.4216234684,-0.902457654476,0.462249308825,0.0,25.7999992371,0.80990751451505,-0.30182530250033446,0.15459843104515048,25.7999992371,0.0,1.184482535694516,2.6253313056330927
1648125489489949569,26494,16,4,2.19814062119,1.08705127239,0.400217920542,-0.647350490093,25.7999992371,0.735164087354515,0.363562298458194,0.13385214733846154,25.7999992371,-0.08747979595851352,1.101412736230973,2.4846885203689495
1648125489490000093,26495,16,5,0.652841985226,0.241729721427,0.0993662700057,-0.485512852669,25.7999992371,0.21834180107892975,0.08084606067792642,0.03323286622264214,25.7999992371,-0.06560984495527027,0.31919017798785854,0.7032137452509339
1648125489490018290,26496,16,6,0.95888286829,-1.74045407772,0.553483009338,-0.404594063759,25.7999992371,0.3206966114682274,-0.5820916647892976,0.1851113743605351,25.7999992371,-0.05467487348094594,0.7379182471192743,2.062760333479894
1648125489490022902,26497,16,7,0.860862374306,0.194848805666,0.119845926762,-0.161837622523,25.7999992371,0.28791383756053507,0.06516682463745818,0.04008224975317725,25.7999992371,-0.021869948989594594,0.4123535749220535,0.8907374084019785
1648125489490026002,26498,16,8,1.33740210533,-1.01965987682,-2.13661336899,-0.161837622523,25.7999992371,0.44729167402341136,-0.34102337017391304,-0.7145864110334448,25.7999992371,-0.021869948989594594,0.7186352498354817,2.7190931106316483
1648125489490042303,26499,16,9,2.69285440445,-0.0849716588855,0.367126196623,-0.161837622523,25.7999992371,0.9006202021571905,-0.028418615011872907,0.12278468114481604,25.7999992371,-0.021869948989594594,1.2739863086966476,2.7190929867561326
1648125489589158962,26500,17,0,0.0126764141023,0.0439508594573,0.0102689201012,0.0,22.2000007629,0.004239603378695652,0.014699284099431437,0.003434421438528428,22.2000007629,0.0,0.01587505674487789,0.04688091553684885
1648125489589262657,26501,17,1,0.0328266397119,0.0146502861753,-0.0300932060927,0.0,22.2000007629,0.01097880926819398,0.0048997612626421405,-0.010064617422307692,22.2000007629,0.0,0.016281159858119832,0.0468809152292358
1648125489589265094,26502,17,2,0.283643037081,-1.58955609798,0.291869729757,0.0,22.2000007629,0.09486389200033445,-0.5316241130367892,0.09761529423311036,22.2000007629,0.0,0.5482905375556422,1.6408320755818864
1648125489589267221,26503,17,3,2.41904163361,-0.902457654476,0.475576043129,0.0,22.2000007629,0.809044024618729,-0.30182530250033446,0.15905553281906354,22.2000007629,0.0,1.183301728542623,2.6253313726192924
1648125489589270987,26504,17,4,0.673438429832,-1.82689070702,0.522226810455,-0.323675245047,22.2000007629,0.22523024409096987,-0.6110002364615384,0.17465779613879595,22.2000007629,-0.04373989797932432,0.6890418090817215,2.0158794149771526
1648125489589273871,26505,17,5,0.631598711014,0.102552011609,0.146078705788,-0.161837622523,22.2000007629,0.21123702709498327,0.03429833164180602,0.04885575444414715,22.2000007629,-0.021869948989594594,0.30069675552833075,0.6563328691481906
1648125489589333242,26506,17,6,0.814049601555,0.210964113474,0.0700795724988,-0.0809188112617,22.2000007629,0.27225739182441466,0.07055655969030099,0.023437984113311033,22.2000007629,-0.010934974494824324,0.39144144251905255,0.8438564791760146
1648125489689987108,26507,18,0,0.0126767531037,0.0439508594573,0.0102685010061,0.0,20.1000003815,0.004239716757090301,0.014699284099431437,0.0034342812729431437,20.1000003815,0.0,0.01587511730339346,0.04688091540488284
1648125489690000967,26508,18,1,0.0328022278845,0.0146502861753,-0.030119812116,0.0,20.1000003815,0.010970644777424748,0.0048997612626421405,-0.010073515757859532,20.1000003815,0.0,0.01627014917251106,0.04688091425204926
1648125489690112090,26509,18,2,0.278222382069,-1.58955609798,0.297041445971,0.0,20.1000003815,0.09305096390267559,-0.5316241130367892,0.0993449652076923,20.1000003815,0.0,0.5476688427586391,1.6408320764581898
1648125489690116189,26510,18,3,2.42202401161,-0.902457654476,0.460146695375,0.0,20.1000003815,0.8100414754548495,-0.30182530250033446,0.1538952158444816,20.1000003815,0.0,1.184665732239925,2.625331429020392
1648125489690119653,26511,18,4,0.644335329533,0.0205104015768,0.123223617673,0.0809188112617,20.1000003815,0.21549676573010032,0.006859666079197324,0.041211912265217386,20.1000003815,0.010934974494824324,0.30483563948296066,0.6563328068972806
1648125489690126065,26512,18,5,1.69690394402,0.325236350298,0.153474360704,0.323675245047,20.1000003815,0.5675264026822742,0.10877469909632106,0.05132921762675585,20.1000003815,0.04373989797932432,0.8099409673837106,1.734593917370661
1648125489690129388,26513,18,6,0.392980933189,-1.81663548946,0.248825058341,-0.404594063759,20.1000003815,0.13143175023043477,-0.607570397812709,0.08321908305719063,20.1000003815,-0.05467487348094594,0.6353663496248163,1.8752366317545297
1648125489690133420,26514,18,7,0.178034856915,-1.95288312435,0.46724832058,-0.242756426334,20.1000003815,0.059543430406354514,-0.6531381686789297,0.15627034133110365,20.1000003815,-0.03280492247756756,0.6585440817396956,2.0158794360607466
1648125489690139937,26515,18,8,1.9568259716,0.314981162548,0.367952048779,-0.242756426334,20.1000003815,0.6544568466889632,0.1053448704173913,0.12306088587926421,20.1000003815,-0.03280492247756756,0.9315176166232065,2.0158793927437815
1648125489690197503,26516,18,9,0.82134783268,0.184593603015,0.0583667270839,-0.0809188112617,20.1000003815,0.2746982717993311,0.06173699097491638,0.01952064450966555,20.1000003815,-0.010934974494824324,0.39335700974269583,0.8438564660845346
1648125489884968698,26517,20,0,0.0126866931096,0.0439508594573,0.0102562177926,0.0,22.7999992371,0.004243041173779264,0.014699284099431437,0.0034301731747826084,22.7999992371,0.0,0.015876893582831942,0.04688091544009944
1648125489884986233,26518,20,1,0.0328266397119,0.0146502861753,-0.0300932060927,0.0,22.7999992371,0.01097880926819398,0.0048997612626421405,-0.010064617422307692,22.7999992371,0.0,0.016281159858119832,0.0468809152292358
1648125489885182807,26519,20,2,0.273894816637,-1.58955609798,0.301036447287,0.0,22.7999992371,0.09160361760434782,-0.5316241130367892,0.10068108604916388,22.7999992371,0.0,0.5471806311251889,1.640832076052025
1648125489885189475,26520,20,3,2.42439603806,-0.902457654476,0.447480648756,0.0,22.7999992371,0.8108347953377926,-0.30182530250033446,0.149659079851505,22.7999992371,0.0,1.1857506668310915,2.62533138831928
1648125489885193515,26521,20,4,0.836846888065,0.079111546278,0.0743126571178,0.0809188112617,22.7999992371,0.27988190236287624,0.026458711129765885,0.02485373147752508,22.7999992371,0.010934974494824324,0.3966961329975042,0.8438564580700194
1648125489885195416,26522,20,5,0.353866487741,-0.0,1.01854074001,0.161837622523,22.7999992371,0.11834999589999999,-0.0,0.3406490769264214,22.7999992371,0.021869948989594594,0.16737216930858018,1.0782609749992205
1648125489885236869,26523,20,6,0.671675145626,-0.0879017189145,0.188773423433,0.242756426334,22.7999992371,0.22464051693177253,-0.02939856819882943,0.0631349242250836,22.7999992371,0.03280492247756756,0.3190470177056811,0.7032137788997359
1648125489885280472,26524,20,7,0.432234168053,-1.90746724606,0.227369979024,-0.242756426334,22.7999992371,0.1445599224257525,-0.6379489117257524,0.07604347124548494,22.7999992371,-0.03280492247756756,0.669905930945197,1.968998420056645
1648125489885308640,26525,20,8,1.29658281803,-0.457088917494,1.20533287525,-0.0809188112617,22.7999992371,0.4336397384715719,-0.15287254765685618,0.4031213629598662,22.7999992371,-0.010934974494824324,0.6320259974008066,1.8283557155720234
1648125489989921065,26526,21,0,0.0126866931096,0.0439508594573,0.0102562177926,0.0,13.6999998093,0.004243041173779264,0.014699284099431437,0.0034301731747826084,13.6999998093,0.0,0.015876893582831942,0.04688091544009944
1648125489989953615,26527,21,1,0.0328266397119,0.0146502861753,-0.0300932060927,0.0,13.6999998093,0.01097880926819398,0.0048997612626421405,-0.010064617422307692,13.6999998093,0.0,0.016281159858119832,0.0468809152292358
1648125489989959321,26528,21,2,0.28558164835,-1.58955609798,0.289973169565,0.0,13.6999998093,0.09551225697324414,-0.5316241130367892,0.09698099316555184,13.6999998093,0.0,0.5485156151162871,1.640832077199638
1648125489989964191,26529,21,3,2.42931103706,-0.902457654476,0.419979631901,0.0,13.6999998093,0.8124786077123746,-0.30182530250033446,0.14046141535150503,13.6999998093,0.0,1.187998943269688,2.6253313741536624
1648125489989968137,26530,21,4,0.71125549078,-0.140642747283,0.192294552922,0.242756426334,13.6999998093,0.23787809056187292,-0.047037708121404675,0.06431255950568562,13.6999998093,0.03280492247756756,0.3396829667852654,0.7500946277713768
1648125489990133774,26531,21,5,0.709943294525,-0.140642747283,0.861478149891,0.242756426334,13.6999998093,0.23743922893812708,-0.047037708121404675,0.2881197825722408,13.6999998093,0.03280492247756756,0.3390683129736235,1.12514197617187
1648125489990158116,26532,21,6,1.172727108,-0.281285494566,-0.892276465893,0.242756426334,13.6999998093,0.3922164240802675,-0.09407541624280935,-0.29842022270668894,13.6999998093,0.03280492247756756,0.5625989962467782,1.5001892183580658
1648125489990169287,26533,21,7,0.832631647587,-0.0263705141842,0.134621158242,0.323675245047,13.6999998093,0.278472122938796,-0.008819569961270902,0.04502379874314381,13.6999998093,0.04373989797932432,0.39391779767152124,0.843856457478521
1648125490184933874,26534,23,0,0.0126193286851,0.0439508594573,0.0103389909491,0.0,39.0,0.004220511265919732,0.014699284099431437,0.0034578565047157185,39.0,0.0,0.015864878938312406,0.04688091549173817
1648125490184936797,26535,23,1,0.0328266397119,0.0146502861753,-0.0300932060927,0.0,39.0,0.01097880926819398,0.0048997612626421405,-0.010064617422307692,39.0,0.0,0.016281159858119832,0.0468809152292358
1648125490184946044,26536,23,2,0.284750282764,-1.58955609798,0.290789604187,0.0,39.0,0.09523420828227423,-0.5316241130367892,0.09725404822307691,39.0,0.0,0.5484189150790261,1.640832077350639
1648125490185086967,26537,23,3,1.90885412693,-1.0987714529,0.802202284336,0.0,39.0,0.6384127514816053,-0.3674820912709029,0.2682950783732441,39.0,0.0,0.9747742148382178,2.3440459228862314
1648125490185200799,26538,23,4,0.748844146729,-0.249054864049,0.1112389341,0.242756426334,39.0,0.25044954740100334,-0.0832959411535117,0.037203656889632106,39.0,0.03280492247756756,0.3638518453977994,0.7969755214913781
1648125490185212092,26539,23,5,0.920884430408,-0.175803437829,0.0138969104737,0.242756426334,39.0,0.3079881038153846,-0.05879713639765886,0.004647796145050166,39.0,0.03280492247756756,0.43951160102113024,0.9376183162892434
1648125490185222353,26540,23,6,0.670383810997,-0.293005734682,0.915625989437,0.242756426334,39.0,0.2242086324404682,-0.09799522899063544,0.3062294279053512,39.0,0.03280492247756756,0.3318766135577754,1.1720229379734364
1648125490185230124,26541,23,7,0.325190186501,-0.761814892292,1.6823798418,-0.161837622523,39.0,0.1087592596993311,-0.2547875893953177,0.5626688434113712,39.0,-0.021869948989594594,0.29761362342905284,1.875236656960774
1648125490289959154,26542,24,0,0.012588663958,0.0439508594573,0.0103763062507,0.0,28.3999996185,0.004210255504347826,0.014699284099431437,0.003470336538695652,28.3999996185,0.0,0.015859427980213545,0.04688091550611081
1648125490289966110,26543,24,1,0.0328266397119,0.0146502861753,-0.0300932060927,0.0,28.3999996185,0.01097880926819398,0.0048997612626421405,-0.010064617422307692,28.3999996185,0.0,0.016281159858119832,0.0468809152292358
1648125490289972119,26544,24,2,0.299337178469,-1.58955609798,0.275750905275,0.0,28.3999996185,0.10011276871872908,-0.5316241130367892,0.09222438303511706,28.3999996185,0.0,0.5501539152666391,1.6408320745277891
1648125490289976467,26545,24,3,1.82808816433,-1.39177727699,0.464327931404,0.0,28.3999996185,0.6114007238561873,-0.4654773501638796,0.1552936225431438,28.3999996185,0.0,0.9819831229605356,2.3440458086801645
1648125490289979598,26546,24,4,0.913797199726,-0.329631447792,0.655709981918,0.161837622523,28.3999996185,0.30561779255050164,-0.11024463136856186,0.21930099729698996,28.3999996185,0.021869948989594594,0.4460474739223091,1.1720229494286505
1648125490290043291,26547,24,5,0.748964011669,-0.249054864049,0.110429361463,0.242756426334,28.3999996185,0.250489636009699,-0.0832959411535117,0.03693289681036789,28.3999996185,0.03280492247756756,0.36390703388254564,0.7969755704881509
1648125490290050645,26548,24,6,0.95323240757,-0.24612480402,0.00303674978204,0.242756426334,28.3999996185,0.3188068252742475,-0.08231598796655518,0.0010156353786086956,28.3999996185,0.03280492247756756,0.4583137632210047,0.9844991944358414
1648125490290228922,26549,24,7,1.5412222147,-0.879017174244,-0.607021808624,-0.161837622523,28.3999996185,0.5154589346822742,-0.29398567700468226,-0.20301732729899666,28.3999996185,-0.021869948989594594,0.7860174329946324,1.875236674088322
1648125490484910060,26550,26,0,0.0125850513577,0.0439508594573,0.0103806881234,0.0,28.1000003815,0.004209047276822742,0.014699284099431437,0.0034718020479598656,28.1000003815,0.0,0.0158587865548678,0.04688091563340654
1648125490484914934,26551,26,1,0.0328022278845,0.0146502861753,-0.030119812116,0.0,28.1000003815,0.010970644777424748,0.0048997612626421405,-0.010073515757859532,28.1000003815,0.0,0.01627014917251106,0.04688091425204926
1648125490484928920,26552,26,2,0.27370595932,-1.58955609798,0.301208168268,0.0,28.1000003815,0.09154045462207358,-0.5316241130367892,0.1007385178153846,28.1000003815,0.0,0.5471594897532023,1.640832075937099
1648125490484934041,26553,26,3,0.750238656998,-0.34281668067,0.178079843521,0.161837622523,28.1000003815,0.2509159387953177,-0.1146544082508361,0.059558476093979934,28.1000003815,0.021869948989594594,0.37291185287467155,0.8438564745667496
1648125490485042802,26554,26,4,0.908343434334,-0.36918720603,0.0886096656322,0.161837622523,28.1000003815,0.3037937907471572,-0.12347398194983276,0.02963533967632107,28.1000003815,0.021869948989594594,0.44702031140833265,0.9844991928068675
1648125490485326087,26555,26,5,0.588977277279,-0.628497242928,-1.61275589466,-0.0809188112617,28.1000003815,0.1969823669829431,-0.2101997467986622,-0.5393832423612039,28.1000003815,-0.010934974494824324,0.34898143125190406,1.8283557075360524
1648125490589938167,26556,27,0,0.0126193286851,0.0439508594573,0.0103389909491,0.0,12.0,0.004220511265919732,0.014699284099431437,0.0034578565047157185,12.0,0.0,0.015864878938312406,0.04688091549173817
1648125490589950197,26557,27,1,0.0327896587551,0.0146502861753,-0.0301334951073,0.0,12.0,0.010966441055217392,0.0048997612626421405,-0.010078092009130433,12.0,0.0,0.01626448029498648,0.04688091438608856
1648125490589956844,26558,27,2,0.280833005905,-1.58955609798,0.29457449913,0.0,12.0,0.09392408224247491,-0.5316241130367892,0.09851989937458193,12.0,0.0,0.547966845723658,1.6408320759202424
1648125490589981864,26559,27,3,1.68878471851,-1.50751447678,0.390349537134,0.0,12.0,0.5648109426454849,-0.5041854437391304,0.13055168466020067,12.0,0.0,0.9445770289090172,2.29716487965381
1648125490590010266,26560,27,4,0.716757535934,-0.395557701588,0.204661756754,0.0809188112617,12.0,0.23971823944280937,-0.13229354568160534,0.06844874807826086,12.0,0.010934974494824324,0.36391104802153396,0.8438564423415834
1648125490590154932,26561,27,5,0.941547572613,-0.41899818182,0.0409114249051,0.161837622523,12.0,0.3148988537167224,-0.14013317117725752,0.013682750804381269,12.0,0.021869948989594594,0.46686173735743863,1.031380168778547
1648125490590166417,26562,27,6,1.09107577801,-0.41899818182,-0.346006780863,0.161837622523,12.0,0.3649082869598662,-0.14013317117725752,-0.1157213313923077,12.0,0.021869948989594594,0.5347461280347551,1.2189038198856252
1648125490590177230,26563,27,7,0.941592693329,-0.0,0.774034678936,0.161837622523,12.0,0.3149139442571906,-0.0,0.2588744745605351,12.0,0.021869948989594594,0.4453555709489238,1.2189038043775713
1648125490590254094,26564,27,8,1.30611431599,-1.25699448586,0.238568305969,-0.242756426334,12.0,0.43682753043143807,-0.4203994935986622,0.07978873109331103,12.0,-0.03280492247756756,0.7472431444340387,1.8283557040492393
1648125490689090506,26565,28,0,0.0126965874806,0.0439508594573,0.0102439671755,0.0,30.7000007629,0.004246350327959866,0.014699284099431437,0.003426075978428093,30.7000007629,0.0,0.015878662892426666,0.04688091556465794
1648125490689259943,26566,28,1,0.0328022278845,0.0146502861753,-0.030119812116,0.0,30.7000007629,0.010970644777424748,0.0048997612626421405,-0.010073515757859532,30.7000007629,0.0,0.01627014917251106,0.04688091425204926
1648125490689270335,26567,28,2,1.70180904865,-1.50751447678,0.328956574202,0.0,30.7000007629,0.56916690590301,-0.5041854437391304,0.11001892113779263,30.7000007629,0.0,0.9497920273559025,2.297164853352717
1648125490689279266,26568,28,3,0.890260159969,-0.515690088272,0.0724263489246,0.0809188112617,30.7000007629,0.2977458728993311,-0.17247160142876253,0.02422285917210702,30.7000007629,0.010934974494824324,0.45502929900894423,1.0313801411645274
1648125490689432175,26569,28,4,0.735696554184,-0.473204255104,0.168051913381,0.161837622523,30.7000007629,0.24605235925886287,-0.15826229267692307,0.05620465330468227,30.7000007629,0.021869948989594594,0.3822701666061074,0.8907374093849196
1648125490689447483,26570,28,5,1.20217061043,-1.2804350853,0.298202127218,-0.323675245047,30.7000007629,0.4020637493076923,-0.42823915896321063,0.09973315291571905,30.7000007629,-0.04373989797932432,0.7118281353558846,1.781474864522707
1648125490790009218,26571,29,0,0.0126866931096,0.0439508594573,0.0102562177926,0.0,29.2999992371,0.004243041173779264,0.014699284099431437,0.0034301731747826084,29.2999992371,0.0,0.015876893582831942,0.04688091544009944
1648125490790014902,26572,29,1,0.0328022278845,0.0146502861753,-0.030119812116,0.0,29.2999992371,0.010970644777424748,0.0048997612626421405,-0.010073515757859532,29.2999992371,0.0,0.01627014917251106,0.04688091425204926
1648125490790045227,26573,29,2,0.820429027081,-0.580151319504,0.232520148158,0.0,29.2999992371,0.27439097895685616,-0.19403054164013378,0.07776593583879599,29.2999992371,0.0,0.43385328136936735,1.031380124541251
1648125490790067372,26574,29,3,2.41835474968,-0.820416092873,0.608968436718,0.0,29.2999992371,0.8088142975518394,-0.2743866531347826,0.20366837348428093,29.2999992371,0.0,1.1762861774530289,2.6253313729248697
1648125490790072496,26575,29,4,0.66777074337,-0.556710898876,0.193825617433,0.161837622523,29.2999992371,0.22333469677926418,-0.18619093607892975,0.06482462121505016,29.2999992371,0.021869948989594594,0.3666385662323589,0.8907374251717113
1648125490790078564,26576,29,5,1.18717169762,-0.467344135046,-0.469659298658,0.485512852669,29.2999992371,0.3970473905083612,-0.15630238630301002,-0.15707668851438125,29.2999992371,0.06560984495527027,0.5828582131041935,1.3595466292142286
1648125490790112472,26577,29,6,0.965604662895,-0.410208046436,-0.788941144943,0.566431701183,29.2999992371,0.32294470330936453,-0.13719332656722408,-0.26385991469665554,29.2999992371,0.07654482448418919,0.47687374811969674,1.3126656606117866
1648125490790116446,26578,29,7,1.22377192974,0.082041606307,0.467699408531,0.566431701183,29.2999992371,0.4092882708160535,0.027438664316722407,0.15642120686655517,29.2999992371,0.07654482448418919,0.5794710152843506,1.3126657220805469
1648125490790119354,26579,29,8,1.03320097923,-1.30094540119,0.4988514781,-0.242756426334,29.2999992371,0.34555216696655516,-0.43509879638461535,0.16683995923076922,29.2999992371,-0.03280492247756756,0.6543115181669241,1.7345938998975512
1648125490790140448,26580,29,9,0.900551497936,-0.483459472656,0.137909278274,-0.161837622523,29.2999992371,0.3011877919518394,-0.16169213132307692,0.046123504439464884,29.2999992371,-0.021869948989594594,0.45560127016224194,1.031380158413786
1648125490984868352,26581,31,0,0.0126866931096,0.0439508594573,0.0102562177926,0.0,30.5,0.004243041173779264,0.014699284099431437,0.0034301731747826084,30.5,0.0,0.015876893582831942,0.04688091544009944
1648125490984873994,26582,31,1,0.0328022278845,0.0146502861753,-0.030119812116,0.0,30.5,0.010970644777424748,0.0048997612626421405,-0.010073515757859532,30.5,0.0,0.01627014917251106,0.04688091425204926
1648125490984879217,26583,31,2,0.289474636316,-1.58955609798,0.286086946726,0.0,30.5,0.0968142596374582,-0.5316241130367892,0.09568125308561871,30.5,0.0,0.5489719476443684,1.6408320739133206
1648125490985044466,26584,31,3,2.42660522461,-0.902457654476,0.435342043638,0.0,30.5,0.811573653715719,-0.30182530250033446,0.14559934569832775,30.5,0.0,1.1867611823953386,2.6253314893905837
1648125490985152394,26585,31,4,0.747997283936,-0.709073901176,-0.0382009632885,0.0809188112617,30.5,0.25016631569765885,-0.23714846193177255,-0.01277624190250836,30.5,0.010934974494824324,0.42591755542133597,1.031380166427857
1648125490985212623,26586,31,5,0.573427915573,-0.703213751316,0.236217975616,0.161837622523,30.5,0.19178191156287624,-0.23518854559063543,0.07900266743010033,30.5,0.021869948989594594,0.3589906059807974,0.9376183052833588
1648125490985218322,26587,31,6,0.693050801754,-0.761814832687,0.651954948902,0.161837622523,30.5,0.23178956580401336,-0.2547875694605351,0.21804513341204013,30.5,0.021869948989594594,0.41517407335096573,1.2189038142985662
1648125490985230473,26588,31,7,1.08033192158,-1.35515141487,-0.0725515559316,-0.0809188112617,30.5,0.3613150239397993,-0.4532278979498327,-0.024264734425284276,30.5,-0.010934974494824324,0.6830172915302067,1.7345939427649901
1648125491088989663,26589,32,0,0.0126193286851,0.0439508594573,0.0103389909491,0.0,13.1000003815,0.004220511265919732,0.014699284099431437,0.0034578565047157185,13.1000003815,0.0,0.015864878938312406,0.04688091549173817
1648125491088994714,26590,32,1,0.0328022278845,0.0146502861753,-0.030119812116,0.0,13.1000003815,0.010970644777424748,0.0048997612626421405,-0.010073515757859532,13.1000003815,0.0,0.01627014917251106,0.04688091425204926
1648125491088998181,26591,32,2,0.263327777386,-1.58955609798,0.310322076082,0.0,13.1000003815,0.08806949076454848,-0.5316241130367892,0.10378664751906354,13.1000003815,0.0,0.5460189263836983,1.6408320748547967
1648125491089005617,26592,32,3,2.08312416077,-1.12074685097,0.347922533751,0.0,13.1000003815,0.696697043735786,-0.3748317227324415,0.11636205142173912,13.1000003815,0.0,1.0541690385639948,2.3909265698959903
1648125491089153717,26593,32,4,2.41933393478,-0.902457654476,0.474087446928,0.0,13.1000003815,0.8091417842073578,-0.30182530250033446,0.15855767455785952,13.1000003815,0.0,1.1834354089387182,2.625331486390835
1648125491089156813,26594,32,5,0.565401434898,-0.703213751316,0.254832834005,0.0809188112617,13.1000003815,0.18909746986555181,-0.23518854559063543,0.08522837257692308,13.1000003815,0.010934974494824324,0.35613109692379424,0.9376183316849444
1648125491189917358,26595,33,0,0.0126866931096,0.0439508594573,0.0102562177926,0.0,28.2999992371,0.004243041173779264,0.014699284099431437,0.0034301731747826084,28.2999992371,0.0,0.015876893582831942,0.04688091544009944
1648125491189929931,26596,33,1,0.0328266397119,0.0146502861753,-0.0300932060927,0.0,28.2999992371,0.01097880926819398,0.0048997612626421405,-0.010064617422307692,28.2999992371,0.0,0.016281159858119832,0.0468809152292358
1648125491189965852,26597,33,2,0.540814936161,-0.732514321804,0.223763361573,0.0,28.2999992371,0.18087456058896317,-0.24498806749297658,0.07483724467324414,28.2999992371,0.0,0.35418973241815505,0.937618295899376
1648125491189981943,26598,33,3,0.276663422585,-1.58955609798,0.298493981361,0.0,28.2999992371,0.092529572770903,-0.5316241130367892,0.09983076299698997,28.2999992371,0.0,0.5474921380590634,1.64083207395839
1648125491189993983,26599,33,4,2.42037534714,-0.902457654476,0.468740880489,0.0,28.2999992371,0.8094900826555183,-0.30182530250033446,0.15676952524715718,28.2999992371,0.0,1.1839116947917585,2.6253313414133084
1648125491189999287,26600,33,5,0.764242768288,-0.741304457188,0.170433104038,0.0809188112617,28.2999992371,0.25559958805618727,-0.24792791210301002,0.05700103813979932,28.2999992371,0.010934974494824324,0.43832698802234743,1.0782609842145494
1648125491190025163,26601,33,6,0.669520974159,-0.741304516792,0.256815701723,0.161837622523,28.2999992371,0.2239200582471572,-0.2479279320374582,0.08589153903779263,28.2999992371,0.021869948989594594,0.4021798658003543,1.0313801559592437
1648125491190028546,26602,33,7,0.45705857873,-0.723724126816,0.867783010006,0.161837622523,28.2999992371,0.15286240091304346,-0.24204820294849494,0.29022843144013377,28.2999992371,0.021869948989594594,0.32453221685434536,1.2189038143271775
1648125491190031351,26603,33,8,0.462411046028,-0.83799636364,0.754761278629,0.161837622523,28.2999992371,0.15465252375518393,-0.28026634235451503,0.252428521280602,28.2999992371,0.021869948989594594,0.3555053148188838,1.2189037979595663
1648125491190038319,26604,33,9,1.21050047874,-1.71408355236,0.21723857522,-0.242756426334,28.2999992371,0.4048496584414715,-0.573272091090301,0.07265504187959866,28.2999992371,-0.03280492247756756,0.8102144051443412,2.1096413041236324
1648125491384860207,26605,35,0,0.012629323639,0.0439508594573,0.0103267794475,0.0,18.6000003815,0.0042238540598662205,0.014699284099431437,0.003453772390468227,18.6000003815,0.0,0.015866658100365513,0.04688091548136884
1648125491384869956,26606,35,1,0.0328533500433,0.0146502861753,-0.0300640445203,0.0,18.6000003815,0.010987742489397993,0.0048997612626421405,-0.0100548643880602,18.6000003815,0.0,0.016293208108212835,0.04688091580808087
1648125491384872797,26607,35,2,0.584697544575,-0.703213751316,0.206754222512,0.0,18.6000003815,0.19555101825250834,-0.23518854559063543,0.06914856940200668,18.6000003815,0.0,0.36303450725271846,0.9376183163731907
1648125491384875984,26608,35,3,0.263170480728,-1.58955609798,0.310455471277,0.0,18.6000003815,0.08801688318662206,-0.5316241130367892,0.10383126129665551,18.6000003815,0.0,0.5460019606319447,1.640832072516208
1648125491385077086,26609,35,4,2.41888785362,-0.902457654476,0.476357340813,0.0,18.6000003815,0.8089925931839463,-0.30182530250033446,0.15931683639230768,18.6000003815,0.0,1.1832313995505657,2.625331328167766
1648125491385079940,26610,35,5,0.813593804836,-0.707608819008,-0.00127099093515,0.161837622523,18.6000003815,0.2721049514501672,-0.23665846789565215,-0.0004250805803177257,18.6000003815,0.021869948989594594,0.45176259211461184,1.0782609774184415
1648125491385156406,26611,35,6,0.76776599884,-0.707608819008,0.269206106663,0.404594063759,18.6000003815,0.2567779260334448,-0.23665846789565215,0.09003548717826086,18.6000003815,0.05467487348094594,0.4334478481003129,1.0782610062398297
1648125491385158670,26612,35,7,0.826127827168,-0.640217483044,0.265105873346,0.404594063759,18.6000003815,0.2762969321632107,-0.21411955954648826,0.08866417168762541,18.6000003815,0.05467487348094594,0.4455638845620074,1.0782609779172483
1648125491385159786,26613,35,8,0.830353498459,-1.51776957512,0.125318422914,-0.0809188112617,18.6000003815,0.27771020015351167,-0.5076152425150501,0.04191251602474916,18.6000003815,-0.010934974494824324,0.6418092746075116,1.7345939359644662
1648125491489935489,26614,36,0,0.0125987837091,0.0439508594573,0.010364016518,0.0,15.8000001907,0.0042136400364882936,0.014699284099431437,0.003466226260200669,15.8000001907,0.0,0.0158612256068058,0.046880915481349095
1648125491489944350,26615,36,1,0.0327896587551,0.0146502861753,-0.0301334951073,0.0,15.8000001907,0.010966441055217392,0.0048997612626421405,-0.010078092009130433,15.8000001907,0.0,0.01626448029498648,0.04688091438608856
1648125491489967239,26616,36,2,0.49879193306,-1.53828001022,0.277904897928,0.0,15.8000001907,0.16682004450167223,-0.51447491980602,0.09294478191571906,15.8000001907,0.0,0.5659878952808889,1.640832079958381
1648125491489970841,26617,36,3,2.01683974266,-1.19546329975,0.468780726194,0.0,15.8000001907,0.6745283420267558,-0.39982050158862875,0.15678285156989966,15.8000001907,0.0,1.0343275119058328,2.3909266860096294
1648125491490082168,26618,36,4,2.42040514946,-0.902457654476,0.468587756157,0.0,15.8000001907,0.8095000499866221,-0.30182530250033446,0.1567183130959866,15.8000001907,0.0,1.1839253249618853,2.625331482094225
1648125491490089072,26619,36,5,0.577749550343,-0.703213751316,0.225441738963,0.0809188112617,15.8000001907,0.19322727436220735,-0.23518854559063543,0.07539857490401337,15.8000001907,0.010934974494824324,0.3605373920856669,0.9376183128694326
1648125491490096278,26620,36,6,0.813570857048,-0.707608819008,0.00624441169202,0.242756426334,15.8000001907,0.27209727660468225,-0.23665846789565215,0.0020884320040200667,15.8000001907,0.03280492247756756,0.451753346748076,1.078260994774963
1648125491490102456,26621,36,7,0.608669877052,-0.902457654476,0.733609139919,0.323675245047,15.8000001907,0.20356852075317725,-0.30182530250033446,0.24535422739765886,15.8000001907,0.04373989797932432,0.4171076581803455,1.3126656876469025
1648125491490124888,26622,36,8,0.806209504604,-1.47674882412,0.132717698812,-0.0809188112617,15.8000001907,0.26963528582073576,-0.49389592779933106,0.04438719023812708,15.8000001907,-0.010934974494824324,0.6239708023746158,1.687712902845618
1648125491684881233,26623,38,0,0.0126088457182,0.0439508594573,0.0103517724201,0.0,16.0,0.004217005256923077,0.014699284099431437,0.0034621312441806018,16.0,0.0,0.01586301420631122,0.04688091540934595
1648125491684986525,26624,38,1,0.0328022278845,0.0146502861753,-0.030119812116,0.0,16.0,0.010970644777424748,0.0048997612626421405,-0.010073515757859532,16.0,0.0,0.01627014917251106,0.04688091425204926
1648125491684990330,26625,38,2,0.50120228529,-1.53828001022,0.273533940315,0.0,16.0,0.16762618237123744,-0.51447491980602,0.09148292318227425,16.0,0.0,0.56646404752828,1.6408320868165065
1648125491684997596,26626,38,3,2.4204158783,-0.902457654476,0.468532085419,0.0,16.0,0.8095036382274247,-0.30182530250033446,0.15669969412006687,16.0,0.0,1.1839302318279963,2.6253314375743417
1648125491685000282,26627,38,4,0.732982397079,-0.808695793152,0.273299008608,0.323675245047,16.0,0.2451446144076923,-0.2704668204521739,0.09140435070501671,16.0,0.04373989797932432,0.43970906848926916,1.1251419592191623
1648125491685076257,26628,38,5,0.747407913208,-1.01086974144,0.630525290966,0.323675245047,16.0,0.249969201741806,-0.33808352556521737,0.21087802373444814,16.0,0.04373989797932432,0.48915199467801257,1.4064275187270294
1648125491685081099,26629,38,6,0.714582145214,-0.676843225956,0.0222336575389,0.485512852669,16.0,0.23899068401806017,-0.22636897189163876,0.007436005865852842,16.0,0.06560984495527027,0.40678742056523587,0.9844992281910252
1648125491685084126,26630,38,7,0.836086511612,-0.949338555336,-0.0438939556479,-0.0809188112617,16.0,0.27962759585685615,-0.3175045335571906,-0.014680252725050167,16.0,-0.010934974494824324,0.5071413151762926,1.265784747454869
1648125491789741692,26631,39,0,0.012629323639,0.0439508594573,0.0103267794475,0.0,15.6000003815,0.0042238540598662205,0.014699284099431437,0.003453772390468227,15.6000003815,0.0,0.015866658100365513,0.04688091548136884
1648125491789750388,26632,39,1,0.0328022278845,0.0146502861753,-0.030119812116,0.0,15.6000003815,0.010970644777424748,0.0048997612626421405,-0.010073515757859532,15.6000003815,0.0,0.01627014917251106,0.04688091425204926
1648125491789755488,26633,39,2,0.523148357868,-1.53828001022,0.228780120611,0.0,15.6000003815,0.17496600597591971,-0.51447491980602,0.07651509050535117,15.6000003815,0.0,0.5708858463858969,1.6408320870123219
1648125491789760633,26634,39,3,2.4201335907,-0.902457654476,0.469987630844,0.0,15.6000003815,0.8094092276588628,-0.30182530250033446,0.15718649861003345,15.6000003815,0.0,1.1838011272456417,2.625331367295023
1648125491789768361,26635,39,4,0.692550063133,-0.915642917156,0.235818296671,0.161837622523,15.6000003815,0.23162209469331105,-0.30623508934983273,0.07886899554214045,15.6000003815,0.021869948989594594,0.4484166806100486,1.1720229565705118
1648125491789770316,26636,39,5,0.69213694334,-1.05482065678,0.621561050415,0.242756426334,15.6000003815,0.2314839275384615,-0.352782828354515,0.2078799499715719,15.6000003815,0.03280492247756756,0.4812747047155861,1.4064274974910107
1648125491789870473,26637,39,6,1.10876023769,-0.527410328388,-0.685950040817,0.242756426334,15.6000003815,0.3708228219698997,-0.1763914141765886,-0.22941472937023408,15.6000003815,0.03280492247756756,0.5532929256575188,1.4064275230773777
1648125491789874434,26638,39,7,0.9656509161,-0.354536950588,-0.0746115893126,-0.404594063759,15.6000003815,0.32296017260869564,-0.11857423096588628,-0.024953708800200664,15.6000003815,-0.05467487348094594,0.4718754013847599,1.0313801580197086
1648125491984851312,26639,41,0,0.0125850513577,0.0439508594573,0.0103806881234,0.0,26.7999992371,0.004209047276822742,0.014699284099431437,0.0034718020479598656,26.7999992371,0.0,0.0158587865548678,0.04688091563340654
1648125491985011953,26640,41,1,0.0328022278845,0.0146502861753,-0.030119812116,0.0,26.7999992371,0.010970644777424748,0.0048997612626421405,-0.010073515757859532,26.7999992371,0.0,0.01627014917251106,0.04688091425204926
1648125491985020573,26641,41,2,0.718749940395,-0.915642917156,0.136507868767,0.0,26.7999992371,0.24038459544983273,-0.30623508934983273,0.045654805607692306,26.7999992371,0.0,0.4575471969188092,1.1720229634231039
1648125491985160249,26642,41,3,2.42379760742,-0.902457654476,0.450711399317,0.0,26.7999992371,0.8106346513110367,-0.30182530250033446,0.15073959843377926,26.7999992371,0.0,1.1854769458077836,2.625331488656533
1648125491985163941,26643,41,4,0.499450922012,-1.0987714529,0.722002983093,0.0809188112617,26.7999992371,0.16704044214448158,-0.3674820912709029,0.24147256959632107,26.7999992371,0.010934974494824324,0.4368616554797228,1.406427472997383
1648125491985287935,26644,41,5,0.94915407896,-0.83067125082,0.106314890087,0.404594063759,26.7999992371,0.31744283577257526,-0.2778164718461538,0.0355568194270903,26.7999992371,0.05467487348094594,0.5279411899025432,1.2657847559516113
1648125491985291992,26645,41,6,0.941543161869,-0.761814832687,0.137335568666,0.566431701183,26.7999992371,0.314897378551505,-0.2547875694605351,0.04593162831638795,26.7999992371,0.07654482448418919,0.5130666853234838,1.2189037793792459
1648125491985297772,26646,41,7,0.997264385223,-0.68563336134,0.145248562098,0.566431701183,26.7999992371,0.3335332392050167,-0.2293088165016722,0.048578114414046816,26.7999992371,0.07654482448418919,0.524472474620527,1.2189038128614298
1648125491985301181,26647,41,8,1.1086742878,-0.533270418644,0.457771897316,-0.647350490093,26.7999992371,0.37079407618729093,-0.1783513105832776,0.15310096900200668,26.7999992371,-0.08747979595851352,0.5538823736660572,1.3126656565180161
1648125492089856090,26648,42,0,0.0126193286851,0.0439508594573,0.0103389909491,0.0,30.6000003815,0.004220511265919732,0.014699284099431437,0.0034578565047157185,30.6000003815,0.0,0.015864878938312406,0.04688091549173817
1648125492089860535,26649,42,1,0.0328266397119,0.0146502861753,-0.0300932060927,0.0,30.6000003815,0.01097880926819398,0.0048997612626421405,-0.010064617422307692,30.6000003815,0.0,0.016281159858119832,0.0468809152292358
1648125492089869394,26650,42,2,2.42564225197,-0.902457654476,0.440675079823,0.0,30.6000003815,0.8112515892876253,-0.30182530250033446,0.14738296984046823,30.6000003815,0.0,1.1863206967227766,2.6253313464478008
1648125492089876246,26651,42,3,0.72855335474,-0.879017233849,0.26490855217,0.0809188112617,30.6000003815,0.2436633293444816,-0.29398569693946486,0.08859817798327758,30.6000003815,0.010934974494824324,0.4529583050783565,1.1720229644163385
1648125492089946090,26652,42,4,0.954988121986,-0.83067125082,0.0139277530834,0.404594063759,30.6000003815,0.3193940207311037,-0.2778164718461538,0.004658111399130435,30.6000003815,0.05467487348094594,0.5302896123691337,1.2657847456732771
1648125492089951878,26653,42,5,0.955180823803,-0.892202436924,0.374127298594,0.404594063759,30.6000003815,0.31945846949933104,-0.2983954638541806,0.12512618682073579,30.6000003815,0.05467487348094594,0.5414307714920363,1.3595465531445938
1648125492089960121,26654,42,6,0.860259652138,-0.38237246871,-0.980872869492,0.404594063759,30.6000003815,0.2877122582401338,-0.1278837687993311,-0.32805112692040134,30.6000003815,0.05467487348094594,0.42651019378860766,1.3595466009039348
1648125492284874050,26655,44,0,0.0125987837091,0.0439508594573,0.010364016518,0.0,30.7000007629,0.0042136400364882936,0.014699284099431437,0.003466226260200669,30.7000007629,0.0,0.0158612256068058,0.046880915481349095
1648125492284877234,26656,44,1,0.0328022278845,0.0146502861753,-0.030119812116,0.0,30.7000007629,0.010970644777424748,0.0048997612626421405,-0.010073515757859532,30.7000007629,0.0,0.01627014917251106,0.04688091425204926
1648125492284879787,26657,44,2,0.330151319504,-1.58955609798,0.237994551659,0.0,30.7000007629,0.11041850150635452,-0.5316241130367892,0.07959684001973244,30.7000007629,0.0,0.554083647576763,1.6408320721557719
1648125492284971455,26658,44,3,2.42342209816,-0.902457654476,0.452725231647,0.0,30.7000007629,0.8105090629297659,-0.30182530250033446,0.1514131209521739,30.7000007629,0.0,1.1853051908314554,2.6253313351541685
1648125492284977663,26659,44,4,0.772733449936,-0.842391490936,0.258645385504,0.161837622523,30.7000007629,0.25843928091505014,-0.2817362845939799,0.08650347341270903,30.7000007629,0.021869948989594594,0.46147270547302843,1.1720229708047032
1648125492285002591,26660,44,5,1.16877746582,-0.918572962284,0.428496718407,0.404594063759,30.7000007629,0.39089547351839465,-0.30721503755317725,0.14330993926655516,30.7000007629,0.05467487348094594,0.6324394213939704,1.5470702923052309
1648125492285109939,26661,44,6,0.753661930561,-1.18667316437,-0.0428815297782,-0.0809188112617,30.7000007629,0.2520608463414715,-0.3968806569799331,-0.014341648755250834,30.7000007629,-0.010934974494824324,0.5334637723422099,1.4064275062046252
1648125492389903058,26662,45,0,0.0126193286851,0.0439508594573,0.0103389909491,0.0,14.0,0.004220511265919732,0.014699284099431437,0.0034578565047157185,14.0,0.0,0.015864878938312406,0.04688091549173817
1648125492389922051,26663,45,1,0.0328140594065,0.0146502861753,-0.0301069207489,0.0,14.0,0.01097460180819398,0.0048997612626421405,-0.010069204263846153,14.0,0.0,0.016275485557356428,0.04688091356545905
1648125492389970458,26664,45,2,2.42553710938,-0.902457654476,0.441254675388,0.0,14.0,0.811216424541806,-0.30182530250033446,0.14757681451103677,14.0,0.0,1.186272602786645,2.6253315553761163
1648125492390025549,26665,45,3,0.806466281414,-0.876087069511,0.26040366292,0.0809188112617,14.0,0.26972116435250837,-0.2930057088665552,0.08709152606020067,14.0,0.010934974494824324,0.48098997747119243,1.2189038042783564
1648125492390029282,26666,45,4,0.720032691956,-1.05482065678,0.589020073414,0.0809188112617,14.0,0.24081360934983273,-0.352782828354515,0.1969966800715719,14.0,0.010934974494824324,0.49034489176292934,1.406427510517278
1648125492390030543,26667,45,5,0.899981439114,-0.999149501324,0.55121576786,0.161837622523,14.0,0.30099713682742474,-0.3341637128173913,0.1843530996187291,14.0,0.021869948989594594,0.5411690491154486,1.4533083428795122
1648125492390033513,26668,45,6,1.1561858654,-0.862901806831,0.175327524543,0.404594063759,14.0,0.3866842359197324,-0.28859592201705686,0.05863796807458193,14.0,0.05467487348094594,0.6183340543933592,1.4533083033015837
1648125492390034801,26669,45,7,0.792189180851,-1.10463154316,0.0243397597224,-0.0809188112617,14.0,0.2649462143314381,-0.3694419876789297,0.00814038786702341,14.0,-0.010934974494824324,0.5261942371760443,1.3595466039473474
1648125492585050819,26670,47,0,0.0125987837091,0.0439508594573,0.010364016518,0.0,13.5,0.0042136400364882936,0.014699284099431437,0.003466226260200669,13.5,0.0,0.0158612256068058,0.046880915481349095
1648125492585053939,26671,47,1,0.0327389426529,0.0146502861753,-0.0301885884255,0.0,13.5,0.010949479148127089,0.0048997612626421405,-0.0100965178680602,13.5,0.0,0.01624160853060522,0.04688091426340034
1648125492585168447,26672,47,2,2.420109272,-0.902457654476,0.470113903284,0.0,13.5,0.8094010943143812,-0.30182530250033446,0.15722873019531772,13.5,0.0,1.1837900051039687,2.6253315578424776
1648125492585172466,26673,47,3,0.847743988037,-0.83799636364,0.254595249891,0.0809188112617,13.5,0.2835264174036789,-0.28026634235451503,0.08514891300702342,13.5,0.010934974494824324,0.48920719678711655,1.2189038173678024
