%time,field.header.seq,field.header.frame_id,field.point_id,field.x,field.y,field.z,field.velocity,field.intensity,normalized_x,normalized_y,normalized_z,normalized_intensity,normalized_velocity,normalized_range,range
1648219354852215672,71481,0,0,0.00566155510023,0.0454158857465,0.0101569853723,0.0,17.2000007629,0.0018934966890401337,0.015189259446989964,0.003396985074347826,17.2000007629,0.0,0.015423497073322436,0.04688091547895794
1648219354852221761,71482,0,1,0.0334466174245,0.0146502861753,-0.0294026006013,0.0,17.2000007629,0.011186159673745819,0.0048997612626421405,-0.009833645686053511,17.2000007629,0.0,0.016561038521903233,0.04688091321933288
1648219354852224949,71483,0,2,1.2600325346,1.31413066387,0.168116539717,0.0,17.2000007629,0.42141556341137126,0.43950858323411374,0.05622626746387959,17.2000007629,0.0,0.7405065488617267,1.828355698681284
1648219354852227601,71484,0,3,0.703816890717,1.06654083729,0.300372570753,-0.323675245047,17.2000007629,0.23539026445384614,0.35670262116722407,0.10045905376354515,17.2000007629,-0.04373989797932432,0.48790768916555455,1.3126657055498046
1648219354852234873,71485,0,4,0.980564832687,2.5066640377,0.636977314949,-0.323675245047,17.2000007629,0.32794810457759194,0.8383491764882942,0.21303589128729095,17.2000007629,-0.04373989797932432,0.9580862488892488,2.7659739855538388
1648219354852302660,71486,0,5,0.857514262199,1.21890377998,-0.171786770225,-0.242756426334,17.2000007629,0.2867940676250836,0.407660127083612,-0.05745376930602006,17.2000007629,-0.03280492247756756,0.5750551744517293,1.5001892644425117
1648219354852328920,71487,0,6,0.960040807724,1.20864868164,0.104481823742,-0.0809188112617,17.2000007629,0.3210838821819398,0.40423032830769223,0.03494375375986622,17.2000007629,-0.010934974494824324,0.6079406855259781,1.54707027623761
1648219354957332905,71488,1,0,0.00566155510023,0.0454158857465,0.0101569853723,0.0,14.1000003815,0.0018934966890401337,0.015189259446989964,0.003396985074347826,14.1000003815,0.0,0.015423497073322436,0.04688091547895794
1648219354957334618,71489,1,1,0.0334981679916,0.0146502861753,-0.0293438583612,0.0,14.1000003815,0.011203400666086955,0.0048997612626421405,-0.009813999451906355,14.1000003815,0.0,0.016584330960296344,0.04688091474506239
1648219354957340763,71490,1,2,1.22662377357,1.31413066387,0.333675563335,0.0,14.1000003815,0.41024206473913044,0.43950858323411374,0.11159717837290968,14.1000003815,0.0,0.7278495023693481,1.8283557271979225
1648219354957353041,71491,1,3,2.10925173759,-1.12074685097,-0.107301041484,0.0,14.1000003815,0.705435363742475,-0.3748317227324415,-0.03588663594782609,14.1000003815,0.0,1.0657283543208962,2.3909265797989607
1648219354957494122,71492,1,4,0.759570598602,1.02552008629,0.307330995798,-0.404594063759,14.1000003815,0.25403698949899667,0.342983306451505,0.10278628622006689,14.1000003815,-0.05467487348094594,0.49669621759364513,1.312665716251872
1648219354957496901,71493,1,5,0.900142788887,1.17202293873,-0.258211284876,-0.323675245047,14.1000003815,0.3010510999622073,0.3919809159632107,-0.08635828925618728,14.1000003815,-0.04373989797932432,0.57871631051515,1.5001892803682761
1648219355152330633,71494,3,0,0.00566155510023,0.0454158857465,0.0101569853723,0.0,26.2999992371,0.0018934966890401337,0.015189259446989964,0.003396985074347826,26.2999992371,0.0,0.015423497073322436,0.04688091547895794
1648219355152355722,71495,3,1,0.0334753356874,0.0146502861753,-0.0293699018657,0.0,26.2999992371,0.011195764443946488,0.0048997612626421405,-0.009822709654080268,26.2999992371,0.0,0.016574014100378984,0.046880914240265734
1648219355152403715,71496,3,2,2.10807132721,-1.12074685097,-0.128421485424,0.0,26.2999992371,0.7050405776622073,-0.3748317227324415,-0.04295032957324414,26.2999992371,0.0,1.0652057325545559,2.390926661878739
1648219355152406037,71497,3,3,1.16862797737,2.17556762695,-0.741363883018,0.566431701183,26.2999992371,0.39084547738127084,0.7276145909531772,-0.2479477869625418,26.2999992371,0.07654482448418919,0.9137523555902586,2.5784503594151813
1648219355152407767,71498,3,4,1.07715463638,0.879017174244,-0.212379306555,-0.566431701183,26.2999992371,0.3602523867491638,0.29398567700468226,-0.07102986841304347,26.2999992371,-0.07654482448418919,0.5882101177307644,1.4064274859172867
1648219355152409617,71499,3,5,0.821111261845,0.83799636364,0.330552399158,-0.323675245047,26.2999992371,0.2746191511187291,0.28026634235451503,0.11055264185886286,26.2999992371,-0.04373989797932432,0.4789369258880766,1.2189038101473229
1648219355257368396,71500,4,0,0.0122471889481,0.0439508594573,0.0107772238553,0.0,29.5,0.00409604981541806,0.014699284099431437,0.003604422694080267,29.5,0.0,0.015799500030588644,0.0468809155007989
1648219355257376845,71501,4,1,0.0334842801094,0.0146502861753,-0.0293597038835,0.0,29.5,0.011198755889431438,0.0048997612626421405,-0.009819298957692306,29.5,0.0,0.016578055596873812,0.046880914150534136
1648219355257381347,71502,4,2,2.10881948471,-1.12074685097,-0.115486249328,0.0,29.5,0.7052907975618729,-0.3748317227324415,-0.0386241636548495,29.5,0.0,1.0655369719617875,2.3909266397854143
1648219355257382848,71503,4,3,0.775214850903,0.879017233849,-0.00291363801807,-0.485512852669,29.5,0.25926918090401335,0.29398569693946486,-0.0009744608756086956,29.5,-0.06560984495527027,0.46996660130083595,1.1720229740711607
1648219355257387257,71504,4,4,0.899654507637,0.799905598164,0.191047728062,-0.323675245047,29.5,0.30088779519632103,0.26752695590769227,0.06389556122474915,29.5,-0.04373989797932432,0.5026306822443719,1.2189037835216245
1648219355452500606,71505,6,0,0.0122471889481,0.0439508594573,0.0107772238553,0.0,33.4000015259,0.00409604981541806,0.014699284099431437,0.003604422694080267,33.4000015259,0.0,0.015799500030588644,0.0468809155007989
1648219355452503768,71506,6,1,0.0334614515305,0.0146502861753,-0.0293857175857,0.0,33.4000015259,0.011191120913210702,0.0048997612626421405,-0.009827999192541806,33.4000015259,0.0,0.016567740794057963,0.04688091319047343
1648219355452505049,71507,6,2,0.257221639156,-0.747164607048,0.103692419827,0.0,33.4000015259,0.08602730406555183,-0.24988782844414714,0.03467973907257525,33.4000015259,0.0,0.27793042455640826,0.7969755577211076
1648219355452508530,71508,6,3,1.08773303032,1.4284029007,0.345523506403,0.0,33.4000015259,0.36379031114381266,0.47772672264214044,0.11555970113812708,33.4000015259,0.0,0.7020752114201331,1.8283556780490846
1648219355452509619,71509,6,4,2.10876560211,-1.12074685097,-0.116462372243,0.0,33.4000015259,0.705272776625418,-0.3748317227324415,-0.03895062616822742,33.4000015259,0.0,1.0655131154821247,2.3909264632669047
1648219355452510666,71510,6,5,2.14267754555,1.04603040218,-0.176869392395,0.0,33.4000015259,0.7166145637290968,0.34984294387290965,-0.05915364294147157,33.4000015259,0.0,1.0721300999761882,2.3909264832811568
1648219355452511615,71511,6,6,0.800489366055,0.707608819008,-0.145441830158,-0.566431701183,33.4000015259,0.2677221960050167,0.23665846789565215,-0.04864275256120401,33.4000015259,-0.07654482448418919,0.44649476916780845,1.078261003590847
1648219355452515411,71512,6,7,1.19339025021,0.637287437916,0.134355053306,-0.404594063759,33.4000015259,0.39912717398327757,0.21313961134314377,0.044934800436789296,33.4000015259,-0.05467487348094594,0.6033518840173299,1.3595465597656757
1648219355452516541,71513,6,8,0.894160926342,0.632892370224,0.256647646427,-0.323675245047,33.4000015259,0.29905047703745813,0.21166968903812708,0.08583533325317726,33.4000015259,-0.04373989797932432,0.47293385678143196,1.1251420038826454
1648219355557508051,71514,7,0,0.00566155510023,0.0454158857465,0.0101569853723,0.0,34.7999992371,0.0018934966890401337,0.015189259446989964,0.003396985074347826,34.7999992371,0.0,0.015423497073322436,0.04688091547895794
1648219355557540377,71515,7,1,0.0334237031639,0.0146502861753,-0.0294286478311,0.0,34.7999992371,0.011178496041438125,0.0048997612626421405,-0.009842357134147156,34.7999992371,0.0,0.01655068602589585,0.04688091436153514
1648219355557548711,71516,7,2,2.10831737518,-1.12074685097,-0.124315425754,0.0,34.7999992371,0.7051228679531772,-0.3748317227324415,-0.04157706546956521,34.7999992371,0.0,1.0653146662782775,2.3909265951771617
1648219355557661545,71517,7,3,1.4864127636,-1.86791145802,0.13421395421,0.566431701183,34.7999992371,0.4971280145819397,-0.6247195511772575,0.04488761010367893,34.7999992371,0.07654482448418919,0.9405036115759878,2.390926494959658
1648219355557666403,71518,7,4,0.847259998322,0.580151319504,0.0965400487185,-0.485512852669,34.7999992371,0.28336454793377924,0.19403054164013378,0.03228764171187291,34.7999992371,-0.06560984495527027,0.4452401432267691,1.0313801623481993
1648219355557668712,71519,7,5,0.917261779308,0.527410328388,0.382640451193,-0.485512852669,34.7999992371,0.3067765148187291,0.1763914141765886,0.12797339504782607,34.7999992371,-0.06560984495527027,0.4683349133727579,1.125142009329844
1648219355557768000,71520,7,6,1.23676049709,0.55231577158,-0.117207214236,-0.161837622523,34.7999992371,0.41363227327424745,0.18472099383946486,-0.03919973720267558,34.7999992371,-0.021869948989594594,0.6134371691975332,1.35954653093128
1648219355752358539,71521,9,0,0.0056965239346,0.0454158857465,0.0101374145597,0.0,18.6000003815,0.0019051919513712373,0.015189259446989964,0.0033904396520735786,18.6000003815,0.0,0.015426377257512969,0.04688091548841415
1648219355752361793,71522,9,1,0.0334614515305,0.0146502861753,-0.0293857175857,0.0,18.6000003815,0.011191120913210702,0.0048997612626421405,-0.009827999192541806,18.6000003815,0.0,0.016567740794057963,0.04688091319047343
1648219355752363531,71523,9,2,1.57483887672,-1.51483952999,0.283069491386,-0.647350490093,18.6000003815,0.5267019654581939,-0.5066352943110367,0.09467207069765886,18.6000003815,-0.08747979595851352,0.9008380777235606,2.20340296500721
1648219355752450853,71524,9,3,1.98081636429,-1.72287368774,-0.0209294594824,-0.566431701183,18.6000003815,0.6624803893946488,-0.5762119356989966,-0.006999819224882942,18.6000003815,-0.07654482448418919,1.0999003261691287,2.625331456258449
1648219355752453196,71525,9,4,2.37756633759,1.06654083729,0.319427847862,-0.566431701183,18.6000003815,0.7951726881571906,0.35670262116722407,0.10683205614113712,18.6000003815,-0.07654482448418919,1.1797609791520625,2.625331445215657
1648219355752454918,71526,9,5,0.856162488461,0.380907446146,-0.0319912545383,-0.404594063759,18.6000003815,0.2863419693849498,0.12739379469765885,-0.01069941623354515,18.6000003815,-0.05467487348094594,0.42451457665193587,0.93761832828936
1648219355752460579,71527,9,6,1.27111327648,-0.703213751316,-2.4087164402,-0.404594063759,18.6000003815,0.4251214971505016,-0.23518854559063543,-0.8055907826755853,18.6000003815,-0.05467487348094594,0.6455774366069544,2.8128550319867895
1648219355752463711,71528,9,7,1.78599977493,0.879017174244,-1.98738193512,-0.404594063759,18.6000003815,0.5973243394414716,0.29398567700468226,-0.6646762324816052,18.6000003815,-0.05467487348094594,0.8944385452686406,2.8128550166525175
1648219355752523572,71529,9,8,0.916205227375,0.338421612978,0.123602293432,-0.242756426334,18.6000003815,0.3064231529682274,0.11318448594581938,0.041338559676254175,18.6000003815,-0.03280492247756756,0.4478850580325256,0.9844992299344661
1648219355855318664,71530,10,0,0.00566155510023,0.0454158857465,0.0101569853723,0.0,35.9000015259,0.0018934966890401337,0.015189259446989964,0.003396985074347826,35.9000015259,0.0,0.015423497073322436,0.04688091547895794
1648219355855323208,71531,10,1,0.0334466174245,0.0146502861753,-0.0294026006013,0.0,35.9000015259,0.011186159673745819,0.0048997612626421405,-0.009833645686053511,35.9000015259,0.0,0.016561038521903233,0.04688091321933288
1648219355855330647,71532,10,2,1.19672727585,1.37126672268,0.174229368567,0.0,35.9000015259,0.4002432360702341,0.4586176330033444,0.05827069182842809,35.9000015259,0.0,0.7285049274655159,1.8283556739223814
1648219355855332519,71533,10,3,1.31889927387,1.25699448586,0.152820751071,0.0,35.9000015259,0.44110343607692304,0.4203994935986622,0.05111061908729096,35.9000015259,0.0,0.7522501025960369,1.8283557132175248
1648219355855334661,71534,10,4,1.0360211134,0.351606875658,-1.52300536633,0.242756426334,35.9000015259,0.3464953556521739,0.11759427279531771,-0.5093663432541806,35.9000015259,0.03280492247756756,0.503931023029256,1.875236648610125
1648219355855336546,71535,10,5,0.918756246567,-1.68478286266,0.983860135078,-0.485512852669,35.9000015259,0.30727633664448156,-0.5634725293177257,0.32905021240066884,35.9000015259,-0.06560984495527027,0.7115748628352613,2.156521991613906
1648219355855579959,71536,10,6,2.1144618988,0.26956525445,0.327067375183,-0.485512852669,35.9000015259,0.7071778925752509,0.09015560349498328,0.10938708200100333,35.9000015259,-0.06560984495527027,1.0041559521986068,2.1565221111300232
1648219355855582197,71537,10,7,1.29375219345,-0.7779302001,-2.31768035889,-0.323675245047,35.9000015259,0.4326930412876254,-0.26017732444816055,-0.7751439327391304,35.9000015259,-0.04373989797932432,0.6649351668504779,2.765974038249237
1648219355855583838,71538,10,8,1.27047586441,0.4321834445,-2.41861963272,-0.323675245047,35.9000015259,0.42490831585618727,0.14454295802675585,-0.8089028871973244,35.9000015259,-0.04373989797932432,0.6180508235433453,2.7659740381151177
1648219355855584863,71539,10,9,0.898178577423,0.234404578805,0.132128089666,-0.161837622523,35.9000015259,0.30039417305117055,0.07839618020234114,0.04418999654381271,35.9000015259,-0.021869948989594594,0.43199453639659746,0.937618310180182
1648219355855585853,71540,10,10,0.869409143925,0.225614413619,0.506922960281,-0.0809188112617,35.9000015259,0.29077228893812707,0.07545632562508361,0.16953945159899667,35.9000015259,-0.010934974494824324,0.41807978318195915,1.0313801485548861
1648219355957390845,71541,11,0,0.00560000818223,0.0454158857465,0.0101910484955,0.0,20.2000007629,0.001872912435528428,0.015189259446989964,0.003408377423244147,20.2000007629,0.0,0.015418469591055006,0.046880915511728405
1648219355957397543,71542,11,1,0.0334326848388,0.0146502861753,-0.029418444261,0.0,20.2000007629,0.011181499946086955,0.0048997612626421405,-0.009838944568896321,20.2000007629,0.0,0.016554743807125908,0.04688091470189418
1648219355957399977,71543,11,2,0.909470438957,0.175803437829,0.145206108689,0.0,20.2000007629,0.3041707153702341,0.05879713639765886,0.048563915949498326,20.2000007629,0.0,0.4341621257390433,0.9376183349795028
1648219355957478072,71544,11,3,0.956928431988,0.161153152585,0.349374741316,0.0,20.2000007629,0.32004295384214043,0.05389737544648829,0.11684773957056856,20.2000007629,0.0,0.4558068798164685,1.031380178404025
1648219355957481043,71545,11,4,2.10900187492,-1.12074685097,-0.112104900181,0.0,20.2000007629,0.705351797632107,-0.3748317227324415,-0.03749327765250836,20.2000007629,0.0,1.0656177256466126,2.390926582105741
1648219355957482642,71546,11,5,1.17469155788,1.63790202141,0.0338603779674,0.161837622523,20.2000007629,0.3928734307290969,0.5477933181973244,0.011324541126220734,20.2000007629,0.021869948989594594,0.7802413630456515,2.0158794143225927
1648219355957498877,71547,11,6,1.08438694477,-1.78000986576,0.325969785452,-0.485512852669,20.2000007629,0.3626712189866221,-0.5953210253377926,0.10901999513444816,20.2000007629,-0.06560984495527027,0.7857912886840407,2.1096413129293263
1648219355957499926,71548,11,7,1.72699725628,0.2593100667,-2.14495944977,-0.323675245047,20.2000007629,0.57759105561204,0.08672577481605351,-0.7173777423979932,20.2000007629,-0.04373989797932432,0.8214281557528366,2.7659740192287106
1648219355957500873,71549,11,8,1.44397950172,-0.864366889,-2.19508671761,-0.323675245047,20.2000007629,0.4829362882006688,-0.2890859160535117,-0.7341427149197325,20.2000007629,-0.04373989797932432,0.741637097091682,2.765974081226164
1648219355957501830,71550,11,9,0.634436070919,-1.1896032095,0.175219684839,-0.242756426334,20.2000007629,0.21218597689598662,-0.39786060518394645,0.05860190128394648,20.2000007629,-0.03280492247756756,0.4983360700771563,1.3595465648851155
1648219355957504017,71551,11,10,1.28466165066,0.297400802374,0.331004709005,-0.242756426334,20.2000007629,0.4296527259732441,0.09946515129565217,0.11070391605518394,20.2000007629,-0.03280492247756756,0.6157079227967968,1.3595465829873794
1648219356152417005,71552,13,0,0.00562640046701,0.0454158857465,0.0101765012369,0.0,12.6000003815,0.001881739286625418,0.015189259446989964,0.0034035121193645487,12.6000003815,0.0,0.015420618925115585,0.04688091549638231
1648219356152422132,71553,13,1,0.0334614515305,0.0146502861753,-0.0293857175857,0.0,12.6000003815,0.011191120913210702,0.0048997612626421405,-0.009827999192541806,12.6000003815,0.0,0.016567740794057963,0.04688091319047343
1648219356152423924,71554,13,2,2.14140057564,-1.14272224903,0.226925581694,0.0,12.6000003815,0.7161874834916387,-0.3821813541906354,0.07589484337591973,12.6000003815,0.0,1.0825486642692608,2.437807577190346
1648219356152581936,71555,13,3,0.937437295914,-0.0,0.018423486501,0.242756426334,12.6000003815,0.3135241792354515,-0.0,0.00616170117090301,12.6000003815,0.03280492247756756,0.44339014640666863,0.9376183171341125
1648219356257480373,71556,14,0,0.00562640046701,0.0454158857465,0.0101765012369,0.0,40.5,0.001881739286625418,0.015189259446989964,0.0034035121193645487,40.5,0.0,0.015420618925115585,0.04688091549638231
1648219356257482175,71557,14,1,0.0333628132939,0.0146502861753,-0.0294976588339,0.0,40.5,0.011158131536421404,0.0048997612626421405,-0.0098654377370903,40.5,0.0,0.016523179451880688,0.04688091373451434
1648219356257489812,71558,14,2,1.03350543976,-0.134782627225,0.276309400797,0.242756426334,40.5,0.34565399323076923,-0.04507780174749164,0.09241117083511705,40.5,0.03280492247756756,0.4909026118112833,1.0782609774929173
1648219356257491532,71559,14,3,0.822119891644,1.82689070702,0.224408209324,-0.242756426334,40.5,0.27495648549966556,0.6110002364615384,0.07505291281739129,40.5,-0.03280492247756756,0.7242398958858256,2.0158794150555686
1648219356452501804,71560,16,0,0.00560000818223,0.0454158857465,0.0101910484955,0.0,26.6000003815,0.001872912435528428,0.015189259446989964,0.003408377423244147,26.6000003815,0.0,0.015418469591055006,0.046880915511728405
1648219356452525182,71561,16,1,0.0334466174245,0.0146502861753,-0.0294026006013,0.0,26.6000003815,0.011186159673745819,0.0048997612626421405,-0.009833645686053511,26.6000003815,0.0,0.016561038521903233,0.04688091321933288
1648219356452638613,71562,16,2,2.10976719856,-1.12074685097,-0.0966344103217,0.0,26.6000003815,0.7056077587157191,-0.3748317227324415,-0.0323192007764883,26.6000003815,0.0,1.065956583865502,2.390926461716693
1648219356452641655,71563,16,3,0.988538682461,-0.290075659752,0.0489124469459,0.323675245047,26.6000003815,0.3306149439668896,-0.09701527082006689,0.01635867790832776,26.6000003815,0.04373989797932432,0.4775190521023743,1.0313801639398168
1648219356452643728,71564,16,4,0.719691634178,-0.540595591068,-1.69833338261,-0.242756426334,26.6000003815,0.24069954320334447,-0.18080120102608696,-0.5680044757892976,26.6000003815,-0.03280492247756756,0.3854369137603103,1.922117561408637
1648219356452646152,71565,16,5,2.136698246,-1.04603040218,0.238475218415,-0.242756426334,26.6000003815,0.714614797993311,-0.34984294387290965,0.07975759813210702,26.6000003815,-0.03280492247756756,1.0694572008265244,2.3909264786986677
1648219356557513448,71566,17,0,0.00566155510023,0.0454158857465,0.0101569853723,0.0,19.0,0.0018934966890401337,0.015189259446989964,0.003396985074347826,19.0,0.0,0.015423497073322436,0.04688091547895794
1648219356557522304,71567,17,1,0.0334981679916,0.0146502861753,-0.0293438583612,0.0,19.0,0.011203400666086955,0.0048997612626421405,-0.009813999451906355,19.0,0.0,0.016584330960296344,0.04688091474506239
1648219356557662312,71568,17,2,1.2375305891,1.2804350853,0.0515415854752,0.0,19.0,0.4138898291304347,0.42823915896321063,0.017237988453244146,19.0,0.0,0.7252574429709487,1.7814748108403633
1648219356557669167,71569,17,3,2.10870575905,-1.12074685097,-0.117542229593,0.0,19.0,0.7052527622240802,-0.3748317227324415,-0.039311782472575246,19.0,0.0,1.065486620101801,2.3909265270910147
1648219356557672081,71570,17,4,0.954294621944,-0.386767566204,0.0589707531035,0.323675245047,19.0,0.31916208091772574,-0.1293537010715719,0.01972265990083612,19.0,0.04373989797932432,0.46953301031171324,1.0313801071671886
1648219356557673578,71571,17,5,1.08297502995,-0.402882874012,0.196184173226,0.323675245047,19.0,0.3621990066722408,-0.13474343612441472,0.06561343586153846,19.0,0.04373989797932432,0.5296527489283239,1.1720229330058956
1648219356557728257,71572,17,6,1.38012504578,-0.900992631912,0.988940417767,-0.161837622523,19.0,0.4615802828695652,-0.30133532839866217,0.33074930360100335,19.0,-0.021869948989594594,0.7189684938917875,1.922117586060262
1648219356752441158,71573,19,0,0.0122110880911,0.0439508594573,0.0108181107789,0.0,24.7999992371,0.004083975950200668,0.014699284099431437,0.0036180972504682276,24.7999992371,0.0,0.01579324767612516,0.046880915522507595
1648219356752450434,71574,19,1,0.0334753356874,0.0146502861753,-0.0293699018657,0.0,24.7999992371,0.011195764443946488,0.0048997612626421405,-0.009822709654080268,24.7999992371,0.0,0.016574014100378984,0.046880914240265734
1648219356752453573,71575,19,2,1.05608713627,-0.571361124516,0.209649458528,0.323675245047,24.7999992371,0.35320640009030096,-0.19109067709565214,0.07011687576187291,24.7999992371,0.04373989797932432,0.534813209450154,1.2189037982811608
1648219356857427808,71576,20,0,0.00566155510023,0.0454158857465,0.0101569853723,0.0,37.0999984741,0.0018934966890401337,0.015189259446989964,0.003396985074347826,37.0999984741,0.0,0.015423497073322436,0.04688091547895794
1648219356857429402,71577,20,1,0.0334326848388,0.0146502861753,-0.029418444261,0.0,37.0999984741,0.011181499946086955,0.0048997612626421405,-0.009838944568896321,37.0999984741,0.0,0.016554743807125908,0.04688091470189418
1648219356857431209,71578,20,2,1.15026938915,1.33610606194,0.25564327836,0.0,37.0999984741,0.3847054813210702,0.4468582146956522,0.08549942420066889,37.0999984741,0.0,0.704044656792407,1.7814748278151387
1648219356857432793,71579,20,3,1.06742703915,-0.571361124516,0.140969276428,0.323675245047,37.0999984741,0.3569990097491639,-0.19109067709565214,0.04714691519331103,37.0999984741,0.04373989797932432,0.5398261134815933,1.2189037514969578
1648219356857433784,71580,20,4,1.13603019714,-0.219754308462,0.186497092247,-0.647350490093,37.0999984741,0.37994320974581935,-0.0734964242347826,0.06237360944715719,37.0999984741,-0.08747979595851352,0.5423240817437581,1.1720229222665166
