%time,field.header.seq,field.header.frame_id,field.point_id,field.x,field.y,field.z,field.velocity,field.intensity,normalized_x,normalized_y,normalized_z,normalized_intensity,normalized_velocity,normalized_range,range
1648219620857200877,81296,0,0,0.0121983094141,0.0439508594573,0.0108325183392,0.0,13.8999996185,0.004079702145183947,0.014699284099431437,0.0036229158325083613,13.8999996185,0.0,0.015791038351629535,0.046880915660496236
1648219620857279132,81297,0,1,0.0334246940911,0.0146502861753,-0.0294275209308,0.0,13.8999996185,0.01117882745521739,0.0048997612626421405,-0.009841980244414716,13.8999996185,0.0,0.01655113370672634,0.04688091347482975
1648219620857312405,81298,0,2,2.11094355583,-1.14272224903,0.425451666117,0.0,13.8999996185,0.7060011892408027,-0.3821813541906354,0.14229152712943144,13.8999996185,0.0,1.0690827591490957,2.4378076122881636
1648219620857328073,81299,0,3,1.07986724377,1.14565241337,0.249093621969,-0.0809188112617,13.8999996185,0.3611596133010033,0.383161342264214,0.08330890366856186,13.8999996185,-0.010934974494824324,0.6385022684103594,1.5939511752037943
1648219620962351166,81300,1,0,0.0122193302959,0.0439508594573,0.0108088003471,0.0,15.6000003815,0.004086732540434782,0.014699284099431437,0.0036149833936789297,15.6000003815,0.0,0.01579467374623151,0.046880915571894555
1648219620962357733,81301,1,1,0.0334385335445,0.0146502861753,-0.0294117927551,0.0,15.6000003815,0.011183456034949833,0.0048997612626421405,-0.009836719984983276,15.6000003815,0.0,0.01655738621287189,0.046880912573176205
1648219620962361103,81302,1,2,0.949555277824,-0.761814832687,0.0609047375619,0.0,15.6000003815,0.31757701599464877,-0.2547875694605351,0.020369477445451502,15.6000003815,0.0,0.5163593978303657,1.2189037911184046
1648219620962365900,81303,1,3,2.11286616325,-1.14272224903,0.415797591209,0.0,15.6000003815,0.7066442017558529,-0.3821813541906354,0.1390627395347826,15.6000003815,0.0,1.0699320741249516,2.4378074573456705
1648219620962374548,81304,1,4,1.00008201599,1.19546329975,0.333741903305,-0.161837622523,15.6000003815,0.33447559063210697,0.39982050158862875,0.11161936565384614,15.6000003815,-0.021869948989594594,0.6193579538102149,1.5939511277882472
1648219621157338361,81305,3,0,0.00556838465855,0.0454158857465,0.0102083617821,0.0,21.5,0.0018623360062040132,0.015189259446989964,0.003414167820100334,21.5,0.0,0.015415907152937246,0.04688091547867806
1648219621157436656,81306,3,1,0.0334246940911,0.0146502861753,-0.0294275209308,0.0,21.5,0.01117882745521739,0.0048997612626421405,-0.009841980244414716,21.5,0.0,0.01655113370672634,0.04688091347482975
1648219621157439537,81307,3,2,0.945624411106,-0.761814832687,0.105636775494,0.0,21.5,0.316262344851505,-0.2547875694605351,0.03533002524882943,21.5,0.0,0.5147430884368934,1.2189038085584363
1648219621157445602,81308,3,3,2.12466526031,-1.14272224903,0.350555807352,0.0,21.5,0.7105903880635451,-0.3821813541906354,0.11724274493377924,21.5,0.0,1.0751464954635657,2.4378076176894177
1648219621157447301,81309,3,4,1.05899620056,1.11195671558,0.188429936767,-0.242756426334,21.5,0.35417933129096985,0.37189187812040136,0.06302004574147158,21.5,-0.03280492247756756,0.6238505962482978,1.5470703058342217
1648219621157543786,81310,3,5,1.16404736042,1.21304368973,-0.14796435833,-0.161837622523,21.5,0.3893134984682274,0.4057002306789298,-0.04948640746822742,21.5,-0.021869948989594594,0.6839025349800056,1.6877128611913077
1648219621262301256,81311,4,0,0.0121619980782,0.0439508594573,0.0108732702211,0.0,16.7000007629,0.004067557885685619,0.014699284099431437,0.0036365452244481603,16.7000007629,0.0,0.015784771374416685,0.04688091562235679
1648219621262315645,81312,4,1,0.0334246940911,0.0146502861753,-0.0294275209308,0.0,16.7000007629,0.01117882745521739,0.0048997612626421405,-0.009841980244414716,16.7000007629,0.0,0.01655113370672634,0.04688091347482975
1648219621262321166,81313,4,2,2.05671191216,-1.19546329975,0.239443793893,0.0,16.7000007629,0.6878635157725752,-0.39982050158862875,0.08008153641906354,16.7000007629,0.0,1.051745628064409,2.3909265402985254
1648219621262450928,81314,4,3,0.977311432362,1.03138017654,0.48133701086,-0.404594063759,16.7000007629,0.3268600108234114,0.34494320285618724,0.16098227787959865,16.7000007629,-0.05467487348094594,0.57676749782529,1.5001893288544568
1648219621262454265,81315,4,4,1.13265573978,1.01526486874,0.282408386469,-0.323675245047,16.7000007629,0.37881462868896315,0.3395534678060201,0.09445096537424749,16.7000007629,-0.04373989797932432,0.6342693460325889,1.5470702231321798
1648219621262461033,81316,4,5,1.25960707664,1.02552008629,-0.232440620661,-0.323675245047,16.7000007629,0.4212732697792642,0.342983306451505,-0.07773933801371237,16.7000007629,-0.04373989797932432,0.6874444589677281,1.6408321294511168
1648219621457274105,81317,6,0,0.00560413487256,0.0454158857465,0.0101887797937,0.0,22.2999992371,0.0018742925995183946,0.015189259446989964,0.003407618660100334,22.2999992371,0.0,0.015418805013527888,0.04688091551466859
1648219621457383958,81318,6,1,0.0334246940911,0.0146502861753,-0.0294275209308,0.0,22.2999992371,0.01117882745521739,0.0048997612626421405,-0.009841980244414716,22.2999992371,0.0,0.01655113370672634,0.04688091347482975
1648219621457386358,81319,6,2,1.01729679108,-0.75155967474,-0.0497631020844,0.0,22.2999992371,0.3402330404949832,-0.25135775074916383,-0.016643177954648827,22.2999992371,0.0,0.5428607211344366,1.2657847653396772
1648219621457392712,81320,6,3,2.05792236328,-1.19546329975,0.228807479143,0.0,22.2999992371,0.6882683489230769,-0.39982050158862875,0.07652424051605351,22.2999992371,0.0,1.0522751891730504,2.390926560321097
1648219621457400773,81321,6,4,1.03961849213,0.879017174244,0.352931380272,-0.404594063759,22.2999992371,0.34769849235117056,0.29398567700468226,0.11803725092709029,22.2999992371,-0.05467487348094594,0.5729014413059679,1.4064275171423732
1648219621457414717,81322,6,5,1.30028223991,0.896597504616,-0.2146140486,-0.404594063759,22.2999992371,0.4348770033143812,0.2998653861591973,-0.07177727377926421,22.2999992371,-0.05467487348094594,0.6842187266070676,1.5939511217617333
1648219621457465129,81323,6,6,1.11191177368,0.69735366106,0.0210037883371,-0.242756426334,22.2999992371,0.37187684738461535,0.23322864918394645,0.007024678373612039,22.2999992371,-0.03280492247756756,0.5753089448649389,1.3126656391353049
1648219621562325374,81324,7,0,0.012296365574,0.0439508594573,0.0107210809365,0.0,25.1000003815,0.004112496847491639,0.014699284099431437,0.0035856457981605348,25.1000003815,0.0,0.015808042689626545,0.04688091541140993
1648219621562328530,81325,7,1,0.0334385335445,0.0146502861753,-0.0294117927551,0.0,25.1000003815,0.011183456034949833,0.0048997612626421405,-0.009836719984983276,25.1000003815,0.0,0.01655738621287189,0.046880912573176205
1648219621562330182,81326,7,2,0.980488240719,-0.723724126816,-0.0243453588337,0.0,25.1000003815,0.32792248853478256,-0.24204820294849494,-0.008142260479498327,25.1000003815,0.0,0.5231191542318873,1.2189038101591785
1648219621562332234,81327,7,3,2.07962417603,-1.21890377998,0.363789767027,0.0,25.1000003815,0.6955264802775919,-0.407660127083612,0.12166881840367892,25.1000003815,0.0,1.0647539381230282,2.4378076488869147
1648219621562430089,81328,7,4,1.09492146969,0.79111546278,0.391563266516,-0.323675245047,25.1000003815,0.3661944714682274,0.26458711129765883,0.13095761421939797,25.1000003815,-0.04373989797932432,0.5815523375695678,1.40642756369548
1648219621562434164,81329,7,5,1.09275901318,0.632892370224,-0.0868096351624,-0.242756426334,25.1000003815,0.3654712418662207,0.21166968903812708,-0.029033322796789298,25.1000003815,-0.03280492247756756,0.5585181416211765,1.2657847075750714
1648219621757368452,81330,9,0,0.0122741637751,0.0439508594573,0.0107464920729,0.0,29.6000003815,0.004105071496688963,0.014699284099431437,0.003594144505986622,29.6000003815,0.0,0.015804182263617888,0.04688091546979662
1648219621757455314,81331,9,1,0.0334246940911,0.0146502861753,-0.0294275209308,0.0,29.6000003815,0.01117882745521739,0.0048997612626421405,-0.009841980244414716,29.6000003815,0.0,0.01655113370672634,0.04688091347482975
1648219621757457405,81332,9,2,1.03244900703,-0.647542655468,0.021541705355,0.0,29.6000003815,0.34530067124749164,-0.21656944998929767,0.00720458373076923,29.6000003815,0.0,0.5341979350358849,1.2189038058179094
1648219621757557585,81333,9,3,2.08304262161,-1.21890377998,0.343676030636,0.0,29.6000003815,0.6966697731137124,-0.407660127083612,0.11494181626622073,29.6000003815,0.0,1.0662477783116124,2.4378076631119017
1648219621757577172,81334,9,4,1.52380025387,-1.05482065678,0.286179244518,-0.647350490093,29.6000003815,0.5096321919297658,-0.352782828354515,0.09571212191237456,29.6000003815,-0.08747979595851352,0.802437328446332,1.875236622844424
1648219621757586458,81335,9,5,1.62389099598,0.93761831522,0.0190436281264,-0.647350490093,29.6000003815,0.5431073565150502,0.31358472080936456,0.006369106396789298,29.6000003815,-0.08747979595851352,0.8296183330463586,1.8752367134932926
1648219621757590663,81336,9,6,1.09884059429,0.615312039852,0.370177924633,-0.323675245047,29.6000003815,0.3675052154816053,0.20578997988361203,0.12380532596421404,29.6000003815,-0.04373989797932432,0.5589898770397007,1.312665705323341
1648219621862329456,81337,10,0,0.012296365574,0.0439508594573,0.0107210809365,0.0,37.5,0.004112496847491639,0.014699284099431437,0.0035856457981605348,37.5,0.0,0.015808042689626545,0.04688091541140993
1648219621862332259,81338,10,1,0.0334385335445,0.0146502861753,-0.0294117927551,0.0,37.5,0.011183456034949833,0.0048997612626421405,-0.009836719984983276,37.5,0.0,0.01655738621287189,0.046880912573176205
1648219621862336463,81339,10,2,0.980727553368,-0.723724126816,0.0111050531268,0.0,37.5,0.3280025262100334,-0.24204820294849494,0.0037140645909030097,37.5,0.0,0.523219501692094,1.2189037976295396
1648219621862395746,81340,10,3,2.0813536644,-1.21890377998,0.353761076927,0.0,37.5,0.6961049044816052,-0.407660127083612,0.11831474144715717,37.5,0.0,1.0655096692665516,2.4378077038005666
1648219621862403769,81341,10,4,1.44425284863,-1.08558619022,0.28021594882,-0.647350490093,37.5,0.4830277085719063,-0.36307230442140465,0.0937177086354515,37.5,-0.08747979595851352,0.7735974616907181,1.8283557217197468
1648219621862411350,81342,10,5,2.41344809532,1.2965502739,0.380576103926,-0.647350490093,37.5,0.8071732760267558,0.4336288541471572,0.12728297790167223,37.5,-0.08747979595851352,1.2211025256760824,2.7659740585250243
1648219621862429282,81343,10,6,1.48962569237,0.398487776518,0.403612554073,-0.566431701183,37.5,0.4982025726989966,0.1332735038521739,0.1349874762785953,37.5,-0.07654482448418919,0.7170588774409207,1.5939511614878266
1648219621862438285,81344,10,7,0.600660741329,0.996219456196,-1.08969426155,-0.566431701183,37.5,0.20088988004314381,0.3331837646140468,-0.36444624132107023,37.5,-0.07654482448418919,0.43786403004801155,1.59395110173818
1648219621862451043,81345,10,8,1.16668772697,0.533270418644,0.278484672308,-0.404594063759,37.5,0.39019656420401333,0.1783513105832776,0.09313868639063544,37.5,-0.05467487348094594,0.5799275018655402,1.3126657245367788
1648219621862455930,81346,10,9,1.09490954876,0.533270418644,0.0502222552896,-0.242756426334,37.5,0.36619048453511704,0.1783513105832776,0.01679674089953177,37.5,-0.03280492247756756,0.5477226779264306,1.2189038248741972
1648219622057320757,81347,12,0,0.0121983094141,0.0439508594573,0.0108325183392,0.0,34.9000015259,0.004079702145183947,0.014699284099431437,0.0036229158325083613,34.9000015259,0.0,0.015791038351629535,0.046880915660496236
1648219622057322789,81348,12,1,0.0334246940911,0.0146502861753,-0.0294275209308,0.0,34.9000015259,0.01117882745521739,0.0048997612626421405,-0.009841980244414716,34.9000015259,0.0,0.01655113370672634,0.04688091347482975
1648219622057443132,81349,12,2,2.08542346954,-1.21890377998,0.328920513391,0.0,34.9000015259,0.6974660433244146,-0.407660127083612,0.11000686066588627,34.9000015259,0.0,1.0672884063808878,2.4378076577710517
1648219622057445703,81350,12,3,1.67042124271,0.210964113474,-0.116456225514,0.566431701183,34.9000015259,0.5586693119431437,0.07055655969030099,-0.03894857040602007,34.9000015259,0.07654482448418919,0.7932219288001198,1.6877129607050065
1648219622057447878,81351,12,4,1.71707129478,-2.00415897369,0.419202357531,-0.647350490093,34.9000015259,0.5742713360468227,-0.6702872821705685,0.14020145736822742,34.9000015259,-0.08747979595851352,1.0530242995532502,2.672212124764643
1648219622057448997,81352,12,5,1.21808922291,-1.08558619022,-2.1162416935,-0.647350490093,34.9000015259,0.40738769996989965,-0.36307230442140465,-0.707773141638796,34.9000015259,-0.08747979595851352,0.6809926390287924,2.6722121241910437
1648219622057450003,81353,12,6,1.07966685295,0.281285494566,0.14540463686,-0.323675245047,34.9000015259,0.3610925929598662,0.09407541624280935,0.048630313331103674,34.9000015259,-0.04373989797932432,0.5192551447238795,1.1251420138065171
1648219622057558870,81354,12,7,1.21349537373,0.356001973152,-0.0538775697351,-0.323675245047,34.9000015259,0.4058512955618729,0.11906420506755852,-0.01801925409200669,34.9000015259,-0.04373989797932432,0.5861798641602004,1.265784823527597
1648219622160724922,81355,13,0,0.0122741637751,0.0439508594573,0.0107464920729,0.0,25.8999996185,0.004105071496688963,0.014699284099431437,0.003594144505986622,25.8999996185,0.0,0.015804182263617888,0.04688091546979662
1648219622160727226,81356,13,1,0.0334246940911,0.0146502861753,-0.0294275209308,0.0,25.8999996185,0.01117882745521739,0.0048997612626421405,-0.009841980244414716,25.8999996185,0.0,0.01655113370672634,0.04688091347482975
1648219622160729944,81357,13,2,2.08031368256,-1.21890377998,0.359824955463,0.0,25.8999996185,0.6957570844682274,-0.407660127083612,0.12034279446923075,25.8999996185,0.0,1.0650552194084975,2.437807507017285
1648219622160741185,81358,13,3,0.449058830738,-0.647542655468,-1.38553774357,-0.566431701183,25.8999996185,0.15018689991237458,-0.21656944998929767,-0.4633905496889632,25.8999996185,-0.07654482448418919,0.30333897949199695,1.5939511168700802
1648219622160748157,81359,13,4,2.53244519234,0.483459472656,0.0373435243964,-0.566431701183,25.8999996185,0.8469716362341136,0.16169213132307692,0.012489473042274246,25.8999996185,-0.07654482448418919,1.2086630012133168,2.5784503587855134
1648219622160997680,81360,13,5,1.65332388878,0.4321834445,-2.17493677139,-0.323675245047,25.8999996185,0.5529511333712374,0.14454295802675585,-0.7274036024715719,25.8999996185,-0.04373989797932432,0.7952374353035679,2.7659740364751912
1648219622161001489,81361,13,6,1.40886497498,-0.9508035779,-2.18212842941,-0.323675245047,25.8999996185,0.47119229932441464,-0.3179945076588629,-0.7298088392675585,25.8999996185,-0.04373989797932432,0.7383528105089464,2.7659740497539365
1648219622161011293,81362,13,7,1.14864456654,0.183128580451,-0.14393478632,-0.242756426334,25.8999996185,0.38416206238795986,0.061247016873244145,-0.04813872452173913,25.8999996185,-0.03280492247756756,0.5467286140602237,1.1720228837069895
1648219622161308332,81363,13,8,1.12571620941,0.114272229373,0.453245252371,-0.0809188112617,25.8999996185,0.3764937155217391,0.03821813691404682,0.15158704092675584,25.8999996185,-0.010934974494824324,0.5338123843111072,1.218903763769374
1648219622262295890,81364,14,0,0.00571550894529,0.0454158857465,0.0101267229766,0.0,17.5,0.0019115414532742475,0.015189259446989964,0.003386863871772575,17.5,0.0,0.01542794814624244,0.046880915508206854
1648219622262302748,81365,14,1,0.0334246940911,0.0146502861753,-0.0294275209308,0.0,17.5,0.01117882745521739,0.0048997612626421405,-0.009841980244414716,17.5,0.0,0.01655113370672634,0.04688091347482975
1648219622262304224,81366,14,2,0.980610907078,-0.723724126816,-0.018763916567,0.0,17.5,0.3279635140729097,-0.24204820294849494,-0.006275557380267558,17.5,0.0,0.5231705894607409,1.2189037892224526
1648219622262307079,81367,14,3,1.07059192657,0.076181486249,0.577715933323,0.0,17.5,0.35805750052508356,0.02547875794280936,0.19321603121170566,17.5,0.0,0.5070103691946041,1.218903766381594
1648219622262320752,81368,14,4,2.08262681961,-1.21890377998,0.346187055111,0.0,17.5,0.6965307088996655,-0.407660127083612,0.11578162378294314,17.5,0.0,1.066066056158983,2.4378076978578154
1648219622262404372,81369,14,5,0.647998631001,-0.0483459457755,1.40398967266,-0.485512852669,17.5,0.2167219501675585,-0.016169212633946488,0.46956176343143813,17.5,-0.06560984495527027,0.3069173354603177,1.5470703142352749
1648219622262405870,81370,14,6,1.48385190964,-0.079111546278,-2.04957771301,-0.404594063759,17.5,0.4962715416856187,-0.026458711129765885,-0.6854774959899665,17.5,-0.05467487348094594,0.7023325064160778,2.531569459478462
1648219622262408142,81371,14,7,2.61403727531,-0.509829938412,0.548041939735,-0.242756426334,17.5,0.8742599582976588,-0.1705116850876254,0.18329161864046822,17.5,-0.03280492247756756,1.248092618404848,2.7190931228113193
1648219622262409234,81372,14,8,0.694627404213,-1.35954654217,-2.25002074242,-0.242756426334,17.5,0.23231685759632104,-0.4546978401906354,-0.7525152984682273,17.5,-0.03280492247756756,0.5609744829498818,2.7190931157888545
1648219622262418856,81373,14,9,1.11896920204,0.0703213736415,0.0943792462349,-0.161837622523,17.5,0.3742371913177257,0.023518854060702338,0.03156496529595318,17.5,-0.021869948989594594,0.529773618847795,1.1251420411773483
1648219622457401724,81374,16,0,0.00554603198543,0.0454158857465,0.0102205229923,0.0,36.5,0.0018548601957959865,0.015189259446989964,0.003418235114481605,36.5,0.0,0.015414104425488706,0.04688091551109777
1648219622457408587,81375,16,1,0.0334476083517,0.0146502861753,-0.0294014774263,0.0,36.5,0.011186491087525082,0.0048997612626421405,-0.009833270042240803,36.5,0.0,0.01656148622960647,0.04688091577940992
1648219622457549707,81376,16,2,2.07662606239,-1.21890377998,0.380530446768,0.0,36.5,0.6945237666856187,-0.407660127083612,0.12726770794916387,36.5,0.0,1.0634440766660869,2.4378075495749005
1648219622457551605,81377,16,3,1.18783795834,-0.152362972498,0.227053210139,0.242756426334,36.5,0.397270220180602,-0.05095751588561872,0.07593752847458193,36.5,0.03280492247756756,0.5641311231530495,1.2189038727053871
1648219622457553195,81378,16,4,1.11213552952,-0.105482056737,-0.134061962366,0.485512852669,36.5,0.3719516821137123,-0.035278279845150494,-0.04483677671103678,36.5,0.06560984495527027,0.5272007821345421,1.1251419955132869
1648219622457661655,81379,16,5,2.31571173668,-0.761814832687,0.00482498854399,-0.323675245047,36.5,0.7744855306622073,-0.2547875694605351,0.0016137085431404683,36.5,-0.04373989797932432,1.1245320715576983,2.4378076148896315
