%time,field.header.seq,field.header.frame_id,field.point_id,field.x,field.y,field.z,field.velocity,field.intensity,normalized_x,normalized_y,normalized_z,normalized_intensity,normalized_velocity,normalized_range,range
1648294567864184251,16895,0,0,0.0126351611689,0.0439508594573,0.0103196371347,0.0,19.2999992371,0.0042258064110033446,0.014699284099431437,0.003451383657090301,19.2999992371,0.0,0.015867697775113813,0.04688091568422373
1648294567864188440,16896,0,1,0.0335509069264,0.0146502861753,-0.0292835440487,0.0,19.2999992371,0.011221039105819395,0.0048997612626421405,-0.009793827441036788,19.2999992371,0.0,0.016608163584802046,0.0468809150151135
1648294567864198033,16897,0,2,0.351839035749,-0.5845464468,-0.572649896145,0.0,19.2999992371,0.11767191831070233,-0.19550048387959865,-0.19152170439632105,19.2999992371,0.0,0.25673683007118087,0.8907374243278265
1648294567864217305,16898,0,3,1.49050462246,-1.68478298187,0.659130990505,0.0,19.2999992371,0.4984965292508361,-0.5634725691872909,0.22044514732608694,19.2999992371,0.0,0.90249593659849,2.3440459441353743
1648294567864221882,16899,0,4,2.23685860634,-1.2306240797,0.611876070499,0.0,19.2999992371,0.7481132462675586,-0.4115799597658863,0.2046408262538461,19.2999992371,0.0,1.13522901731891,2.625331288798444
1648294567864292383,16900,0,5,1.10595178604,1.14565241337,0.0709329023957,-0.161837622523,19.2999992371,0.3698835404816054,0.383161342264214,0.023723378727658864,19.2999992371,-0.021869948989594594,0.648413665220073,1.5939511541913225
1648294568059439277,16901,2,0,0.00631333654746,0.0454158857465,0.00976521056145,0.0,32.4000015259,0.0021114837951371236,0.015189259446989964,0.0032659567095150496,32.4000015259,0.0,0.015479997744903816,0.04688091545405326
1648294568059520674,16902,2,1,0.033601410687,0.0146502861753,-0.0292255785316,0.0,32.4000015259,0.011237929995652172,0.0048997612626421405,-0.009774440980468226,32.4000015259,0.0,0.01663098919503125,0.04688091430082548
1648294568059527513,16903,2,2,0.355848312378,-0.5845464468,-0.570167183876,0.0,32.4000015259,0.11901281350434782,-0.19550048387959865,-0.19069136584481602,32.4000015259,0.0,0.2579700346040186,0.8907374402470485
1648294568059528965,16904,2,3,1.50433492661,-1.68478298187,0.626924216747,0.0,32.4000015259,0.5031220490334447,-0.5634725691872909,0.20967365108595318,32.4000015259,0.0,0.9076149671935508,2.344045912724689
1648294568059535372,16905,2,4,2.23885083199,-1.2306240797,0.60454595089,0.0,32.4000015259,0.7487795424715717,-0.4115799597658863,0.20218928123411367,32.4000015259,0.0,1.1361072439381596,2.6253313086498777
1648294568059537598,16906,2,5,0.736246585846,1.14272236824,0.360783696175,-0.647350490093,32.4000015259,0.24623631633645482,0.3821813940602007,0.12066344353678929,32.4000015259,-0.08747979595851352,0.5170370053793941,1.4064275030984073
1648294568059538943,16907,2,6,0.843452870846,1.18081307411,0.0798303559422,-0.485512852669,32.4000015259,0.2820912611525083,0.39492076057190634,0.02669911569973244,32.4000015259,-0.06560984495527027,0.561349593718494,1.4533083454853364
1648294568059679709,16908,2,7,0.873434901237,1.0987714529,0.088606223464,-0.242756426334,32.4000015259,0.29211869606588625,0.3674820912709029,0.029634188449498326,32.4000015259,-0.03280492247756756,0.5529102572636029,1.4064274937740007
1648294568059684871,16909,2,8,1.12784814835,0.98449921608,0.0963732004166,-0.161837622523,32.4000015259,0.3772067385785953,0.3292639518662207,0.032231839604214045,32.4000015259,-0.021869948989594594,0.6268848357208542,1.5001893033738096
1648294568164535276,16910,3,0,0.00631333654746,0.0454158857465,0.00976521056145,0.0,26.2999992371,0.0021114837951371236,0.015189259446989964,0.0032659567095150496,26.2999992371,0.0,0.015479997744903816,0.04688091545405326
1648294568164545078,16911,3,1,0.033601410687,0.0146502861753,-0.0292255785316,0.0,26.2999992371,0.011237929995652172,0.0048997612626421405,-0.009774440980468226,26.2999992371,0.0,0.01663098919503125,0.04688091430082548
1648294568164548424,16912,3,2,0.392172336578,-0.5845464468,-0.545819997787,0.0,26.2999992371,0.1311613165812709,-0.19550048387959865,-0.1825484942431438,26.2999992371,0.0,0.2694940094544254,0.8907374248496321
1648294568164551086,16913,3,3,1.49791061878,-1.68478298187,0.6421225667,0.0,26.2999992371,0.5009734510969899,-0.5634725691872909,0.214756711270903,26.2999992371,0.0,0.9052348499889863,2.344045927134971
1648294568164553169,16914,3,4,2.23892402649,-1.2306240797,0.604274809361,0.0,26.2999992371,0.7488040222374581,-0.4115799597658863,0.20209859844849495,26.2999992371,0.0,1.1361395119961633,2.6253313061706973
1648294568164564791,16915,3,5,0.890057504177,1.01965987682,-0.128289565444,-0.404594063759,26.2999992371,0.2976780950424749,0.34102337017391304,-0.04290620917859531,26.2999992371,-0.05467487348094594,0.5417761858378487,1.359546555929652
1648294568164680376,16916,3,6,1.02328145504,1.16030263901,0.00437511783093,-0.242756426334,26.2999992371,0.34223460034782605,0.3880610832809364,0.0014632501106789295,26.2999992371,-0.03280492247756756,0.6203550980750028,1.5470702285217643
1648294568359550277,16917,5,0,0.0126556539908,0.0439508594573,0.0102944942191,0.0,23.7000007629,0.004232660197591973,0.014699284099431437,0.003442974655217391,23.7000007629,0.0,0.01587135084774943,0.04688091547951333
1648294568359652219,16918,5,1,0.0335509069264,0.0146502861753,-0.0292835440487,0.0,23.7000007629,0.011221039105819395,0.0048997612626421405,-0.009793827441036788,23.7000007629,0.0,0.016608163584802046,0.0468809150151135
1648294568359659379,16919,5,2,0.357681214809,-0.5845464468,-0.569019138813,0.0,23.7000007629,0.11962582435083612,-0.19550048387959865,-0.19030740428528428,23.7000007629,0.0,0.25853648659404227,0.8907374361893832
1648294568359667798,16920,5,3,1.50270056725,-1.68478298187,0.630831837654,0.0,23.7000007629,0.5025754405518394,-0.5634725691872909,0.21098054771036787,23.7000007629,0.0,0.9070090865687496,2.344045967597513
1648294568359669160,16921,5,4,2.23646068573,-1.2306240797,0.613328933716,0.0,23.7000007629,0.747980162451505,-0.4115799597658863,0.20512673368428092,23.7000007629,0.0,1.1350536155278517,2.6253312943867826
1648294568359671203,16922,5,5,0.796517491341,1.06214570999,-0.292870610952,-0.647350490093,23.7000007629,0.26639380981304345,0.3552326789264214,-0.0979500371076923,23.7000007629,-0.08747979595851352,0.5178045770275287,1.3595465486778007
1648294568464498666,16923,6,0,0.0126067763194,0.0439508594573,0.010354292579,0.0,19.6000003815,0.004216313150301003,0.014699284099431437,0.003462974106688963,19.6000003815,0.0,0.015862646254600783,0.04688091542423479
1648294568464505337,16924,6,1,0.0335372425616,0.0146502861753,-0.0292991939932,0.0,19.6000003815,0.011216469084147156,0.0048997612626421405,-0.00979906153618729,19.6000003815,0.0,0.016601988370738802,0.04688091607791967
1648294568464530764,16925,6,2,0.358705312014,-0.612381994724,-0.538267552853,0.0,19.6000003815,0.11996833177725752,-0.20481003168026754,-0.18002259292742473,19.6000003815,0.0,0.26595479002211725,0.8907374286418884
1648294568464532981,16926,6,3,1.50356161594,-1.68478298187,0.628776848316,0.0,19.6000003815,0.5028634167023411,-0.5634725691872909,0.2102932603063545,19.6000003815,0.0,0.9073282580971626,2.3440459794775945
1648294568464564059,16927,6,4,2.24088692665,-1.2306240797,0.596954643726,0.0,19.6000003815,0.7494605105852842,-0.4115799597658863,0.19965038251705686,19.6000003815,0.0,1.1370049151760067,2.6253313486557066
1648294568659735577,16928,8,0,0.00628323899582,0.0454158857465,0.00978460349143,0.0,14.8999996185,0.002101417724354515,0.015189259446989964,0.0032724426392742472,14.8999996185,0.0,0.01547725800820147,0.0468809154763667
1648294568659986169,16929,8,1,0.0335509069264,0.0146502861753,-0.0292835440487,0.0,14.8999996185,0.011221039105819395,0.0048997612626421405,-0.009793827441036788,14.8999996185,0.0,0.016608163584802046,0.0468809150151135
1648294568660024384,16930,8,2,0.384260445833,-0.5845464468,-0.551418662071,0.0,14.8999996185,0.12851519927525082,-0.19550048387959865,-0.18442095721438126,14.8999996185,0.0,0.2669321113816621,0.8907374358240777
1648294568660412427,16931,8,3,1.50141727924,-1.68478298187,0.633879840374,0.0,14.8999996185,0.5021462472374582,-0.5634725691872909,0.21199994661337793,14.8999996185,0.0,0.906533531346663,2.3440459027996403
1648294568660441617,16932,8,4,2.24161624908,-1.2306240797,0.594210326672,0.0,14.8999996185,0.7497044311304346,-0.4115799597658863,0.1987325507264214,14.8999996185,0.0,1.1373264840819042,2.6253313973669314
1648294568660595146,16933,8,5,0.858296751976,1.3829870224,-2.23635554314,0.485512852669,14.8999996185,0.2870557698916388,0.4625374656856187,-0.7479449977056857,14.8999996185,0.06560984495527027,0.6154209431105168,2.7659740660231025
1648294568660606412,16934,8,6,1.06805181503,-1.1236770153,-2.29068279266,0.485512852669,14.8999996185,0.35720796489297657,-0.37581171080267556,-0.7661146463745819,14.8999996185,0.06560984495527027,0.6296264784317744,2.765974036554033
1648294568660610986,16935,8,7,0.838021099567,0.547920703888,0.247484534979,-0.566431701183,14.8999996185,0.2802746152397993,0.18325107153444814,0.08277074748461538,14.8999996185,-0.07654482448418919,0.43667914435447736,1.0313801705105528
1648294568764982578,16936,9,0,0.0064564216882,0.0454158857465,0.0096712037921,0.0,37.2000007629,0.002159338357257525,0.015189259446989964,0.0032345163184280936,37.2000007629,0.0,0.015493194855491268,0.046880915540796875
1648294568765044260,16937,9,1,0.0335877910256,0.0146502861753,-0.0292412284762,0.0,37.2000007629,0.011233374924949833,0.0048997612626421405,-0.009779675075652174,37.2000007629,0.0,0.016624833377807784,0.04688091332082697
1648294568765060944,16938,9,2,1.5177719593,-1.68478298187,0.593654513359,0.0,37.2000007629,0.5076160398996655,-0.5634725691872909,0.19854665998628762,37.2000007629,0.0,0.9126058427127036,2.3440458821592296
1648294568765080419,16939,9,3,2.24089002609,-1.2306240797,0.596943378448,0.0,37.2000007629,0.749461547187291,-0.4115799597658863,0.19964661486555185,37.2000007629,0.0,1.1370062817353406,2.6253314327223576
1648294568765100466,16940,9,4,1.0356773138,-1.96899843216,0.337928563356,0.485512852669,37.2000007629,0.3463803725083612,-0.6585279037324414,0.11301958640668897,37.2000007629,0.06560984495527027,0.8207421793183933,2.2502839905443874
1648294568765175206,16941,9,5,0.710670530796,0.632892370224,-2.03915977478,0.485512852669,37.2000007629,0.23768245177123742,0.21166968903812708,-0.6819932357123745,37.2000007629,0.06560984495527027,0.3972278351493896,2.2502839693493
1648294568765189746,16942,9,6,0.646500229836,-1.25259947777,-2.27018713951,0.566431701183,37.2000007629,0.21622081265418058,-0.41892959122742474,-0.7592599128795986,37.2000007629,0.07654482448418919,0.5186568056582751,2.6722121261764147
1648294568765204036,16943,9,7,0.536026060581,1.50311934948,-2.14336776733,0.566431701183,37.2000007629,0.17927292996020067,0.5027155014983277,-0.7168454071337792,37.2000007629,0.07654482448418919,0.5630279231794326,2.6722120242286826
1648294568765222789,16944,9,8,1.10022962093,0.402882874012,-0.0285989642143,-0.647350490093,37.2000007629,0.36796977288628757,0.13474343612441472,-0.009564870974682274,37.2000007629,-0.08747979595851352,0.5375493475901411,1.1720229220019853
1648294568765238552,16945,9,9,2.30917048454,1.60860145092,0.508156478405,-0.566431701183,37.2000007629,0.7722978209163879,0.5379937962943143,0.16995199946655518,37.2000007629,-0.07654482448418919,1.2175077713245082,2.859735995003315
1648294568765249401,16946,9,10,1.94891273975,-0.357466995716,-2.06204915047,-0.566431701183,37.2000007629,0.6518102808528428,-0.11955417916923075,-0.6896485453076923,37.2000007629,-0.07654482448418919,0.9295194921074824,2.8597360401163114
1648294568765303058,16947,9,11,0.824371635914,0.351606875658,0.275521546602,-0.485512852669,37.2000007629,0.2757095772287625,0.11759427279531771,0.09214767444882943,37.2000007629,-0.06560984495527027,0.40725907595237887,0.9376183188011329
1648294568765324146,16948,9,12,0.917703807354,1.02845013142,-2.12342977524,-0.404594063759,37.2000007629,0.3069243502856187,0.3439632546555184,-0.710177182354515,37.2000007629,-0.05467487348094594,0.5538193154357434,2.531569466008318
1648294568765337171,16949,9,13,1.49223959446,-0.237334638834,-2.03119111061,-0.404594063759,37.2000007629,0.49907678744481604,-0.07937613338929765,-0.6793281306387959,37.2000007629,-0.05467487348094594,0.710250554441397,2.5315694866793
1648294568959861404,16950,11,0,0.0126678450033,0.0439508594573,0.0102794887498,0.0,18.3999996185,0.004236737459297658,0.014699284099431437,0.0034379561036120398,18.3999996185,0.0,0.015873526439762208,0.046880915445629195
1648294568959920055,16951,11,1,0.033601410687,0.0146502861753,-0.0292255785316,0.0,18.3999996185,0.011237929995652172,0.0048997612626421405,-0.009774440980468226,18.3999996185,0.0,0.01663098919503125,0.04688091430082548
1648294568959945997,16952,11,2,1.50342071056,-1.68478298187,0.629113316536,0.0,18.3999996185,0.5028162911571906,-0.5634725691872909,0.21040579148361202,18.3999996185,0.0,0.9072760227916704,2.3440458813731504
1648294568960139907,16953,11,3,2.24119520187,-1.2306240797,0.595796525478,0.0,18.3999996185,0.7495636126655518,-0.4115799597658863,0.1992630519993311,18.3999996185,0.0,1.1371408365481188,2.62533141873445
1648294568960181209,16954,11,4,0.991365492344,1.80491530895,0.120229952037,0.323675245047,18.3999996185,0.33156036533244143,0.603650605,0.0402106863,18.3999996185,0.04373989797932432,0.764368108070732,2.062760299516004
1648294568960196200,16955,11,5,0.890511751175,0.0849716588855,-2.56772971153,-0.566431701183,18.3999996185,0.2978300171153846,0.028418615011872907,-0.8587724787725752,18.3999996185,-0.07654482448418919,0.42215288210444996,2.7190930902174824
1648294568960211865,16956,11,6,0.794132649899,0.079111546278,0.274205029011,-0.485512852669,18.3999996185,0.26559620397959866,0.026458711129765885,0.09170736756220736,18.3999996185,-0.06560984495527027,0.37654050317514787,0.843856445330026
1648294569064995536,16957,12,0,0.0126678450033,0.0439508594573,0.0102794887498,0.0,45.2000007629,0.004236737459297658,0.014699284099431437,0.0034379561036120398,45.2000007629,0.0,0.015873526439762208,0.046880915445629195
1648294569065010836,16958,12,1,0.0335372425616,0.0146502861753,-0.0292991939932,0.0,45.2000007629,0.011216469084147156,0.0048997612626421405,-0.00979906153618729,45.2000007629,0.0,0.016601988370738802,0.04688091607791967
1648294569065028706,16959,12,2,1.48519325256,-1.68478298187,0.671012997627,0.0,45.2000007629,0.4967201513578595,-0.5634725691872909,0.22441906275150497,45.2000007629,0.0,0.9005349264500939,2.3440458904281063
1648294569065063524,16960,12,3,2.19549441338,-1.31266570091,0.59082877636,0.0,45.2000007629,0.7342790680200668,-0.4390186290668896,0.19760159744481604,45.2000007629,0.0,1.127416895444009,2.625331522780197
1648294569065129375,16961,12,4,0.804955601692,-0.079111546278,0.240585997701,0.0809188112617,45.2000007629,0.26921592029832775,-0.026458711129765885,0.08046354438160534,45.2000007629,0.010934974494824324,0.3816470710994642,0.8438564923845828
1648294569065176922,16962,12,5,0.934313893318,-0.23293954134,2.29051828384,-0.566431701183,45.2000007629,0.31247956298260865,-0.07790620111705684,0.7660596267023411,45.2000007629,-0.07654482448418919,0.4487274570784537,2.484688569976541
1648294569065191583,16963,12,6,0.702710568905,-0.0,-0.0265970695764,-0.161837622523,45.2000007629,0.23502025715886288,-0.0,-0.008895340995451504,45.2000007629,-0.021869948989594594,0.33236883510647636,0.7032137283648839
1648294569065241311,16964,12,7,0.776268720627,-0.0,0.180490791798,-0.0809188112617,45.2000007629,0.2596216456946488,-0.0,0.060364813310367894,45.2000007629,-0.010934974494824324,0.3671604524269948,0.7969755658411043
1648294569260120325,16965,14,0,0.00631333654746,0.0454158857465,0.00976521056145,0.0,22.8999996185,0.0021114837951371236,0.015189259446989964,0.0032659567095150496,22.8999996185,0.0,0.015479997744903816,0.04688091545405326
1648294569260148299,16966,14,1,0.0335372425616,0.0146502861753,-0.0292991939932,0.0,22.8999996185,0.011216469084147156,0.0048997612626421405,-0.00979906153618729,22.8999996185,0.0,0.016601988370738802,0.04688091607791967
1648294569260167900,16967,14,2,1.50338709354,-1.68478298187,0.629193782806,0.0,22.8999996185,0.5028050480066889,-0.5634725691872909,0.21043270327959865,22.8999996185,0.0,0.9072635608402576,2.3440459179254876
1648294569260181933,16968,14,3,2.18178057671,-1.31266570091,0.639615297318,0.0,22.8999996185,0.7296925005719063,-0.4390186290668896,0.21391815963812708,22.8999996185,0.0,1.1214453385919148,2.6253314944627
1648294569260239644,16969,14,4,0.714614927769,-0.210964113474,0.0863810032606,0.404594063759,22.8999996185,0.2390016480832776,-0.07055655969030099,0.028889967645685615,22.8999996185,0.05467487348094594,0.3452851049326871,0.7500946806160351
1648294569260248861,16970,14,5,0.873654007912,-0.64461261034,-1.52895903587,-0.323675245047,22.8999996185,0.292191975890301,-0.21558950178595315,-0.5113575370802675,22.8999996185,-0.04373989797932432,0.4660806097979962,1.8752366454180043
1648294569260265371,16971,14,6,2.07041072845,-1.19546329975,0.0282340664417,-0.242756426334,22.8999996185,0.6924450596822742,-0.39982050158862875,0.009442831585852842,22.8999996185,-0.03280492247756756,1.0577413459099343,2.390926650493037
1648294569365006833,16972,15,0,0.00631333654746,0.0454158857465,0.00976521056145,0.0,22.7000007629,0.0021114837951371236,0.015189259446989964,0.0032659567095150496,22.7000007629,0.0,0.015479997744903816,0.04688091545405326
1648294569365108762,16973,15,1,0.0335877910256,0.0146502861753,-0.0292412284762,0.0,22.7000007629,0.011233374924949833,0.0048997612626421405,-0.009779675075652174,22.7000007629,0.0,0.016624833377807784,0.04688091332082697
1648294569365132466,16974,15,2,1.51230537891,-1.68478298187,0.607445597649,0.0,22.7000007629,0.5057877521438127,-0.5634725691872909,0.20315906275886286,22.7000007629,0.0,0.9105733560037369,2.3440459486072447
1648294569365156555,16975,15,3,0.713524401188,-0.417533159256,0.331605404615,0.566431701183,22.7000007629,0.23863692347424748,-0.13964319707558526,0.11090481759698996,22.7000007629,0.07654482448418919,0.36523332950320736,0.8907374217685411
1648294569365167144,16976,15,4,1.00149476528,-0.586011469364,-0.165034934878,0.566431701183,22.7000007629,0.3349480820334448,-0.19599045798127088,-0.05519563039397993,22.7000007629,0.07654482448418919,0.5126330997267684,1.1720229250486451
1648294569365183318,16977,15,5,0.86289191246,-0.263705164194,0.254961282015,-0.647350490093,22.7000007629,0.28859261286287624,-0.0881957070882943,0.08527133177759197,22.7000007629,-0.08747979595851352,0.41755224241626115,0.9376183240200636
1648294569365310606,16978,15,6,0.238402858377,-0.586011469364,-0.692013561726,-0.647350490093,22.7000007629,0.07973339745050168,-0.19599045798127088,-0.2314426627846154,22.7000007629,-0.08747979595851352,0.22611300041728613,0.9376183310501042
1648294569365342105,16979,15,7,0.785111308098,-0.124527432024,-0.0571241751313,-0.566431701183,22.7000007629,0.26257903280869566,-0.04164797057658863,-0.01910507529474916,22.7000007629,-0.07654482448418919,0.37367104570015663,0.7969755446776745
