%time,field.header.seq,field.header.frame_id,field.point_id,field.x,field.y,field.z,field.velocity,field.intensity,normalized_x,normalized_y,normalized_z,normalized_intensity,normalized_velocity,normalized_range,range
1648294296458137610,3141,0,0,0.00630097556859,0.0454158857465,0.0097731910646,0.0,21.7000007629,0.002107349688491639,0.015189259446989964,0.0032686257741137118,21.7000007629,0.0,0.015478871017201011,0.04688091546504064
1648294296458144552,3142,0,1,0.033480156213,0.0146502861753,-0.0293644089252,0.0,21.7000007629,0.01119737665986622,0.0048997612626421405,-0.009820872550234113,21.7000007629,0.0,0.016576192221276938,0.04688091569702361
1648294296458152807,3143,0,2,1.72308635712,-1.43572807312,0.496613353491,0.0,21.7000007629,0.5762830625819397,-0.480176613083612,0.1660914225722408,21.7000007629,0.0,0.9459248998678957,2.297164886747035
1648294296458160980,3144,0,3,1.84452235699,-1.44744825363,0.66748547554,0.0,21.7000007629,0.616897109361204,-0.484096405896321,0.22323928947826086,21.7000007629,0.0,0.9977341415818917,2.4378076282654755
1648294296458165770,3145,0,4,2.34070181847,-1.06654083729,0.525329589844,0.0,21.7000007629,0.7828434175484948,-0.35670262116722407,0.1756955149979933,21.7000007629,0.0,1.163152781342839,2.6253315102214585
1648294296458209708,3146,0,5,0.780700087547,1.26578474045,-0.197140410542,-0.242756426334,21.7000007629,0.26110370820969897,0.42333937807692307,-0.06593324767290969,21.7000007629,-0.03280492247756756,0.5617530791302058,1.5001893138269702
1648294296563200111,3147,1,0,0.0127037558705,0.0439508594573,0.0102350758389,0.0,20.3999996185,0.004248747782775919,0.014699284099431437,0.0034231022872575245,20.3999996185,0.0,0.0158799454809859,0.04688091549533386
1648294296563203986,3148,1,1,0.0335029289126,0.0146502861753,-0.0293384213001,0.0,20.3999996185,0.011204992947357858,0.0048997612626421405,-0.009812181036822742,20.3999996185,0.0,0.01658648227719088,0.04688091397491176
1648294296563206023,3149,1,2,1.72583329678,-1.43572807312,0.486981749535,0.0,20.3999996185,0.5772017714983277,-0.480176613083612,0.16287015034615385,20.3999996185,0.0,0.9470445342189903,2.2971649685208857
1648294296563211466,3150,1,3,1.84100532532,-1.44744825363,0.677125513554,0.0,20.3999996185,0.6157208445886287,-0.484096405896321,0.22646338245953174,20.3999996185,0.0,0.9962799040046949,2.437807624875044
1648294296563223087,3151,1,4,2.33706998825,-1.06654083729,0.541256904602,0.0,20.3999996185,0.7816287586120401,-0.35670262116722407,0.18102237612107025,20.3999996185,0.0,1.1615178829989514,2.62533131706561
1648294296758250374,3152,3,0,0.00633364822716,0.0454158857465,0.00975204911083,0.0,15.0,0.002118276999050167,0.015189259446989964,0.0032615548865652173,15.0,0.0,0.015481853811394289,0.046880915518626436
1648294296758432946,3153,3,1,0.0335029289126,0.0146502861753,-0.0293384213001,0.0,15.0,0.011204992947357858,0.0048997612626421405,-0.009812181036822742,15.0,0.0,0.01658648227719088,0.04688091397491176
1648294296758541460,3154,3,2,1.72387421131,-1.43572807312,0.493871629238,0.0,15.0,0.5765465589665552,-0.480176613083612,0.1651744579391304,15.0,0.0,0.9462459770402196,2.29716490103143
1648294296758546641,3155,3,3,1.84158694744,-1.44744825363,0.675542056561,0.0,15.0,0.6159153670367893,-0.484096405896321,0.22593379818093642,15.0,0.0,0.9965203504725135,2.437807622044976
1648294296758571165,3156,3,4,2.33997368813,-1.06654083729,0.528562366962,0.0,15.0,0.7825998956956521,-0.35670262116722407,0.1767767113585284,15.0,0.0,1.1628249883078965,2.625331292335587
1648294296758578043,3157,3,5,0.73472982645,0.952268600464,0.197694391012,-0.647350490093,15.0,0.24572903894648826,0.31848448176053507,0.06611852542207358,15.0,-0.08747979595851352,0.47137870792538566,1.2189038015949076
1648294296758581384,3158,3,6,0.683262526989,0.879017233849,0.366222381592,-0.485512852669,15.0,0.2285158953140468,0.29398569693946486,0.1224824018702341,15.0,-0.06560984495527027,0.4368828433657514,1.1720229566735705
1648294296863217596,3159,4,0,0.00630097556859,0.0454158857465,0.0097731910646,0.0,30.2000007629,0.002107349688491639,0.015189259446989964,0.0032686257741137118,30.2000007629,0.0,0.015478871017201011,0.04688091546504064
1648294296863319326,3160,4,1,0.0335872508585,0.0146502861753,-0.0292418505996,0.0,30.2000007629,0.011233194267056856,0.0048997612626421405,-0.00977988314367893,30.2000007629,0.0,0.01662458923744483,0.046880914365435775
1648294296863394876,3161,4,2,1.72952663898,-1.43572807312,0.473697602749,0.0,30.2000007629,0.5784370030033444,-0.480176613083612,0.15842729188929766,30.2000007629,0.0,0.9485506378888957,2.297164973121537
1648294296863400605,3162,4,3,1.83245360851,-1.44744825363,0.699938237667,0.0,30.2000007629,0.612860738632107,-0.484096405896321,0.23409305607591974,30.2000007629,0.0,0.992746644474369,2.437807664855093
1648294296863404347,3163,4,4,2.34063410759,-1.06654083729,0.525630950928,0.0,30.2000007629,0.7828207717692307,-0.35670262116722407,0.17579630465819399,30.2000007629,0.0,1.163122298545736,2.6253314609386686
1648294296863406244,3164,4,5,0.747244000435,0.775000095367,0.0603989362717,-0.647350490093,30.2000007629,0.24991438141638797,0.25919735631003343,0.020200313134347826,30.2000007629,-0.08747979595851352,0.4382894769391368,1.0782609960059366
1648294296863410115,3165,4,6,0.792475581169,0.842391490936,0.189728349447,-0.485512852669,30.2000007629,0.26504200039096987,0.2817362845939799,0.06345429747391304,30.2000007629,-0.06560984495527027,0.4689028236205385,1.1720229593887674
1648294296863411842,3166,4,7,1.00705111027,0.779395282269,-0.318562597036,-0.485512852669,30.2000007629,0.3368063913946488,0.2606673184846154,-0.10654267459397992,30.2000007629,-0.06560984495527027,0.5429774778888445,1.3126656363863323
1648294297058312693,3167,6,0,0.0126124918461,0.0439508594573,0.0103473290801,0.0,17.8999996185,0.004218224697692308,0.014699284099431437,0.0034606451772909697,17.8999996185,0.0,0.01586366263623381,0.04688091527151703
1648294297058380577,3168,6,1,0.033480156213,0.0146502861753,-0.0293644089252,0.0,17.8999996185,0.01119737665986622,0.0048997612626421405,-0.009820872550234113,17.8999996185,0.0,0.016576192221276938,0.04688091569702361
1648294297058386483,3169,6,2,1.72801733017,-1.43572807312,0.479173928499,0.0,17.8999996185,0.5779322174481605,-0.480176613083612,0.16025883896287624,17.8999996185,0.0,0.9479350587891264,2.2971649150781244
1648294297058391756,3170,6,3,1.83599460125,-1.44744825363,0.690596461296,0.0,17.8999996185,0.6140450171404681,-0.484096405896321,0.23096871615250836,17.8999996185,0.0,0.9942091813857942,2.437807641121473
1648294297058396658,3171,6,4,2.34192609787,-1.06654083729,0.519843637943,0.0,17.8999996185,0.783252875541806,-0.35670262116722407,0.17386074847591973,17.8999996185,0.0,1.1637039546364805,2.62533133402275
1648294297058400533,3172,6,5,0.787613749504,0.584546387196,0.0849047899246,-0.404594063759,17.8999996185,0.26341596973377923,0.1955004639451505,0.02839625081090301,17.8999996185,-0.05467487348094594,0.42070937430053024,0.9844992232316825
1648294297058404832,3173,6,6,0.865061461926,0.451228827238,0.334374338388,-0.242756426334,17.8999996185,0.28931821469096985,0.15091265125016723,0.11183088240401337,17.8999996185,-0.03280492247756756,0.43610169342860255,1.0313801363282802
1648294297159666499,3174,7,0,0.012589732185,0.0439508594573,0.0103750098497,0.0,36.5999984741,0.00421061277090301,0.014699284099431437,0.003469902959765886,36.5999984741,0.0,0.015859617676627042,0.04688091544441868
1648294297159692560,3175,7,1,0.0335872508585,0.0146502861753,-0.0292418505996,0.0,36.5999984741,0.011233194267056856,0.0048997612626421405,-0.00977988314367893,36.5999984741,0.0,0.01662458923744483,0.046880914365435775
1648294297159696050,3176,7,2,1.72834086418,-1.43572807312,0.478005707264,0.0,36.5999984741,0.5780404228026755,-0.480176613083612,0.15986812951973242,36.5999984741,0.0,0.9480670021365794,2.2971649263638634
1648294297159698866,3177,7,3,1.83981335163,-1.44744825363,0.680357515812,0.0,36.5999984741,0.6153221911806019,-0.484096405896321,0.2275443196695652,36.5999984741,0.0,0.9957871901768621,2.4378076144549277
1648294297159725065,3178,7,4,2.34212088585,-1.06654083729,0.518966257572,0.0,36.5999984741,0.7833180220234113,-0.35670262116722407,0.17356731022474914,36.5999984741,0.0,1.1637916511132511,2.625331517740251
1648294297159858932,3179,7,5,0.810159265995,-1.75803434849,1.14749085903,-0.566431701183,36.5999984741,0.27095627625250834,-0.5879713540100334,0.3837762070334448,36.5999984741,-0.07654482448418919,0.7018154461235826,2.25028399947776
1648294297159866604,3180,7,6,2.36370015144,1.16909277439,0.432274788618,-0.566431701183,36.5999984741,0.7905351677056854,0.39100092788963203,0.14457350789899664,36.5999984741,-0.07654482448418919,1.1843873641547624,2.672212157356358
1648294297159873178,3181,7,7,2.06474161148,-1.67013263702,0.297012001276,-0.566431701183,36.5999984741,0.6905490339397993,-0.5585727883010033,0.09933511748361204,36.5999984741,-0.07654482448418919,1.1250419976075283,2.672212019342474
1648294297159884623,3182,7,8,0.835536658764,0.36918720603,0.367175638676,-0.323675245047,36.5999984741,0.27944369858327756,0.12347398194983276,0.12280121694849498,36.5999984741,-0.04373989797932432,0.414033073044112,0.98449918784724
1648294297259602569,3183,8,0,0.00630097556859,0.0454158857465,0.0097731910646,0.0,38.5999984741,0.002107349688491639,0.015189259446989964,0.0032686257741137118,38.5999984741,0.0,0.015478871017201011,0.04688091546504064
1648294297259610636,3184,8,1,0.0335872508585,0.0146502861753,-0.0292418505996,0.0,38.5999984741,0.011233194267056856,0.0048997612626421405,-0.00977988314367893,38.5999984741,0.0,0.01662458923744483,0.046880914365435775
1648294297259621601,3185,8,2,1.72614681721,-1.43572807312,0.48586884141,0.0,38.5999984741,0.5773066278294314,-0.480176613083612,0.162497940270903,38.5999984741,0.0,0.9471723522274224,2.297164875572099
1648294297259630681,3186,8,3,1.84406244755,-1.44744825363,0.668755173683,0.0,38.5999984741,0.6167432934949832,-0.484096405896321,0.22366393768662204,38.5999984741,0.0,0.9975439390542221,2.437807670782995
1648294297259637731,3187,8,4,2.34082269669,-1.06654083729,0.524789690971,0.0,38.5999984741,0.7828838450468227,-0.35670262116722407,0.17551494681304347,38.5999984741,0.0,1.1632071997791982,2.6253313076059057
1648294297259661721,3188,8,5,0.956224799156,-1.51483952999,-1.28291857243,0.566431701183,38.5999984741,0.3198076251357859,-0.5066352943110367,-0.4290697566655518,38.5999984741,0.07654482448418919,0.6791414842517084,2.203402988930324
1648294297259699066,3189,8,6,0.588724255562,0.619707107544,-2.03084993362,0.566431701183,38.5999984741,0.19689774433511706,0.20725990218862878,-0.6792140246220735,38.5999984741,0.07654482448418919,0.34712261594968746,2.2034029593136024
1648294297259711437,3190,8,7,1.04331731796,-0.527410328388,-2.55841374397,-0.485512852669,38.5999984741,0.3489355578461538,-0.1763914141765886,-0.8556567705585284,38.5999984741,-0.06560984495527027,0.524047686812975,2.812855055949414
1648294297259713804,3191,8,8,1.26230990887,0.79111546278,-2.38597226143,-0.485512852669,38.5999984741,0.42217722704682276,0.26458711129765883,-0.7979840339230769,38.5999984741,-0.06560984495527027,0.6530494326915297,2.8128550644841956
1648294297259752733,3192,8,9,0.860999882221,0.32230630517,0.18418982625,-0.404594063759,38.5999984741,0.28795982682976584,0.10779475089297658,0.061601948578595314,38.5999984741,-0.05467487348094594,0.4212617144433331,0.9376182824747596
1648294297259759222,3193,8,10,1.10938668251,0.366257160902,0.0935658290982,-0.404594063759,38.5999984741,0.3710323352876254,0.12249403374648829,0.03129291943083612,38.5999984741,-0.05467487348094594,0.5388272227360674,1.1720229023433675
1648294297363345247,3194,9,0,0.00633364822716,0.0454158857465,0.00975204911083,0.0,16.7000007629,0.002118276999050167,0.015189259446989964,0.0032615548865652173,16.7000007629,0.0,0.015481853811394289,0.046880915518626436
1648294297363348183,3195,9,1,0.0335029289126,0.0146502861753,-0.0293384213001,0.0,16.7000007629,0.011204992947357858,0.0048997612626421405,-0.009812181036822742,16.7000007629,0.0,0.01658648227719088,0.04688091397491176
1648294297363352886,3196,9,2,1.78784382343,-1.46502864361,0.389688104391,0.0,16.7000007629,0.5979410780702341,-0.489976134986622,0.1303304696959866,16.7000007629,0.0,0.9773145238581161,2.344045921537888
1648294297363356492,3197,9,3,1.78253889084,-1.52362966537,0.666343688965,0.0,16.7000007629,0.5961668531237457,-0.5095751389197325,0.2228574210585284,16.7000007629,0.0,0.9851378866595296,2.4378076557382617
1648294297363363850,3198,9,4,2.36691379547,-0.984499275684,0.566431939602,0.0,16.7000007629,0.7916099650401337,-0.32926397180066885,0.1894421202682274,16.7000007629,0.0,1.166922206759146,2.6253313850273847
1648294297363366886,3199,9,5,2.30852198601,-1.1485824585,0.493811875582,0.0,16.7000007629,0.7720809317759197,-0.38414129046822737,0.16515447343879597,16.7000007629,0.0,1.1574897241299984,2.625331520461992
1648294297363394721,3200,9,6,0.179319828749,2.08913064003,0.503949224949,0.404594063759,16.7000007629,0.05997318687257524,0.6987058996755853,0.16854489128729094,16.7000007629,0.05467487348094594,0.7038348531642736,2.156522027112505
1648294297363548129,3201,9,7,1.06483483315,0.0424858294427,-0.844208776951,0.485512852669,16.7000007629,0.3561320512207357,0.01420930750591973,-0.28234407255886285,16.7000007629,0.06560984495527027,0.5038471794435048,1.359546515082925
1648294297363622237,3202,9,8,2.48541283607,0.237334638834,0.418615460396,0.566431701183,16.7000007629,0.8312417511939799,0.07937613338929765,0.14000517070100332,16.7000007629,0.07654482448418919,1.1782301423779244,2.531569394698581
1648294297363667951,3203,9,9,0.793344438076,0.263705134392,0.114708036184,-0.485512852669,16.7000007629,0.26533258798528425,0.08819569712107023,0.03836389170033444,16.7000007629,-0.06560984495527027,0.385462378818749,0.843856462258847
1648294297363675784,3204,9,10,1.43889069557,-0.7779302001,-2.23047757149,-0.485512852669,16.7000007629,0.4812343463444816,-0.26017732444816055,-0.7459791208996654,16.7000007629,-0.06560984495527027,0.7286049906226311,2.7659739743796345
1648294297363698851,3205,9,11,1.37793242931,0.2593100667,-2.38425517082,-0.485512852669,16.7000007629,0.4608469663244147,0.08672577481605351,-0.7974097561270902,16.7000007629,-0.06560984495527027,0.6574809599967723,2.765974007473321
1648294297363760172,3206,9,12,0.865915775299,0.175803437829,0.313705533743,-0.323675245047,16.7000007629,0.2896039382270903,0.05879713639765886,0.10491823871003343,16.7000007629,-0.04373989797932432,0.4137607827257745,0.9376183341664901
1648294297459745474,3207,10,0,0.00618360564113,0.0454158857465,0.00984787195921,0.0,39.7000007629,0.0020680955321505014,0.015189259446989964,0.0032936026619431436,39.7000007629,0.0,0.015468278534089552,0.046880915509289606
1648294297459772723,3208,10,1,0.0335029289126,0.0146502861753,-0.0293384213001,0.0,39.7000007629,0.011204992947357858,0.0048997612626421405,-0.009812181036822742,39.7000007629,0.0,0.01658648227719088,0.04688091397491176
1648294297459776045,3209,10,2,1.73197710514,-1.43572807312,0.464657485485,0.0,39.7000007629,0.5792565569030099,-0.480176613083612,0.1554038412993311,39.7000007629,0.0,0.9495503657956795,2.297164855096657
1648294297459794182,3210,10,3,1.78479588032,-1.52362966537,0.660274326801,0.0,39.7000007629,0.5969216991036789,-0.5095751389197325,0.22082753404715716,39.7000007629,0.0,0.9860516476973762,2.43780759663991
1648294297459800220,3211,10,4,2.36826395988,-0.984499275684,0.560760378838,0.0,39.7000007629,0.7920615250434783,-0.32926397180066885,0.18754527720334446,39.7000007629,0.0,1.1675348740120581,2.6253314476392036
1648294297459811394,3212,10,5,0.612212121487,-1.93383789062,0.374763220549,-0.566431701183,39.7000007629,0.20475321788862874,-0.6467685252909698,0.12533886974882943,39.7000007629,-0.07654482448418919,0.7086305707338292,2.0627603206309457
1648294297459817625,3213,10,6,0.833127319813,0.131852567196,0.024647783488,-0.323675245047,39.7000007629,0.27863789960301,0.04409784856053511,0.008243405848829431,39.7000007629,-0.04373989797932432,0.39651327649654056,0.8438564710457814
1648294297459930399,3214,10,7,0.890931487083,0.0879017189145,0.278643935919,-0.0809188112617,39.7000007629,0.2979703970177257,0.02939856819882943,0.09319195181237458,39.7000007629,-0.010934974494824324,0.4224180285096073,0.9376182964770265
1648294297559501011,3215,11,0,0.00630097556859,0.0454158857465,0.0097731910646,0.0,30.0,0.002107349688491639,0.015189259446989964,0.0032686257741137118,30.0,0.0,0.015478871017201011,0.04688091546504064
1648294297559506371,3216,11,1,0.0335029289126,0.0146502861753,-0.0293384213001,0.0,30.0,0.011204992947357858,0.0048997612626421405,-0.009812181036822742,30.0,0.0,0.01658648227719088,0.04688091397491176
1648294297559511788,3217,11,2,0.791869044304,-0.0,0.0900751054287,0.0,30.0,0.2648391452521739,-0.0,0.03012545332063545,30.0,0.0,0.37453911106292237,0.7969756005957283
1648294297559517927,3218,11,3,1.72767269611,-1.43572807312,0.48041498661,0.0,30.0,0.5778169552207357,-0.480176613083612,0.16067390856521738,30.0,0.0,0.9477945174105895,2.297164905745417
1648294297559614933,3219,11,4,1.78659665585,-1.52362966537,0.655386030674,0.0,30.0,0.5975239651672241,-0.5095751389197325,0.2191926523993311,30.0,0.0,0.9867809281210235,2.437807584099394
1648294297559617362,3220,11,5,2.36682128906,-0.984499275684,0.566818833351,0.0,30.0,0.7915790264414716,-0.32926397180066885,0.189571516170903,30.0,0.0,1.1668802309277537,2.625331489166911
1648294297559619367,3221,11,6,2.30925154686,-1.1485824585,0.490388721228,0.0,30.0,0.7723249320602007,-0.38414129046822737,0.1640096057618729,30.0,0.0,1.1578152410493576,2.625331496888886
1648294297559627662,3222,11,7,0.851470828056,-0.0879017189145,0.382620930672,0.161837622523,30.0,0.28477285219264215,-0.02939856819882943,0.12796686644548494,30.0,0.021869948989594594,0.40380122647659955,0.9376182911008091
1648294297559631733,3223,11,8,0.487874090672,-1.25992465019,-1.4961078167,-0.404594063759,30.0,0.1631685921979933,-0.4213794816688963,-0.5003705072575251,30.0,-0.05467487348094594,0.48042548488948605,2.0158794238982316
1648294297559646849,3224,11,9,0.886556506157,0.083506628871,-0.0213849525899,-0.242756426334,30.0,0.2965071926946488,0.027928638418394644,-0.007152158056822741,30.0,-0.03280492247756756,0.4202535419044421,0.8907373978182223
1648294297559650912,3225,11,10,1.05668032169,-1.35954654217,-2.10440659523,-0.242756426334,30.0,0.35340478986287627,-0.4546978401906354,-0.703814914792642,30.0,-0.03280492247756756,0.6756774503193635,2.719093087891771
1648294297559682563,3226,11,11,2.68448448181,-0.339886635542,0.267370998859,-0.242756426334,30.0,0.8978208969264214,-0.11367446004749163,0.08942173874882943,30.0,-0.03280492247756756,1.2747888487049988,2.719093067390233
1648294297559702979,3227,11,12,0.83976572752,0.079111546278,0.0250730924308,-0.161837622523,30.0,0.2808581028494983,0.026458711129765885,0.008385649642408026,30.0,-0.021869948989594594,0.3980736254351538,0.8438564888864305
1648294297663140282,3228,12,0,0.0126124918461,0.0439508594573,0.0103473290801,0.0,34.7000007629,0.004218224697692308,0.014699284099431437,0.0034606451772909697,34.7000007629,0.0,0.01586366263623381,0.04688091527151703
1648294297663153712,3229,12,1,0.0335872508585,0.0146502861753,-0.0292418505996,0.0,34.7000007629,0.011233194267056856,0.0048997612626421405,-0.00977988314367893,34.7000007629,0.0,0.01662458923744483,0.046880914365435775
1648294297663158663,3230,12,2,1.71360087395,-1.43572807312,0.528415858746,0.0,34.7000007629,0.5731106601839464,-0.480176613083612,0.1767277119551839,34.7000007629,0.0,0.9420622258563426,2.297164855843251
1648294297663163230,3231,12,3,1.88464891911,-1.47528386116,0.667317688465,0.0,34.7000007629,0.6303173642508361,-0.49340597363210703,0.2231831733996655,34.7000007629,0.0,1.018847100485686,2.484688494890239
1648294297663252065,3232,12,4,2.36756157875,-0.984499275684,0.563718020916,0.0,34.7000007629,0.7918266149665552,-0.32926397180066885,0.18853445515585282,34.7000007629,0.0,1.1672161494190947,2.625331342916731
1648294297663253888,3233,12,5,0.790583074093,-0.0996219441295,-0.014962637797,0.0809188112617,34.7000007629,0.264409054880602,-0.033318375963043476,-0.005004226687959866,34.7000007629,0.010934974494824324,0.3754123210318504,0.7969755387239457
1648294297663256147,3234,12,6,0.892173051834,-0.146502867341,0.248379260302,0.161837622523,34.7000007629,0.2983856360648829,-0.04899761449531772,0.08306998672307692,34.7000007629,0.021869948989594594,0.42481612710197486,0.937618313337627
1648294297663261934,3235,12,7,0.841316342354,1.68185293674,-0.397609829903,-0.566431701183,34.7000007629,0.28137670312842805,0.5624926209832776,-0.13297987622173912,34.7000007629,-0.07654482448418919,0.6890164343377335,1.9221175993076927
1648294297663267735,3236,12,8,0.569561898708,1.84593605995,0.38088580966,-0.404594063759,34.7000007629,0.19048892933377926,0.6173699197157191,0.12738655841471572,34.7000007629,-0.05467487348094594,0.6735856902928183,1.9689983986494113
1648294297663268920,3237,12,9,1.63469111919,-0.597731649876,-1.63921678066,-0.323675245047,34.7000007629,0.5467194378561873,-0.19991025079464883,-0.5482330370100335,34.7000007629,-0.04373989797932432,0.7986040294365851,2.3909265639955306
1648294297858474769,3238,14,0,0.0126124918461,0.0439508594573,0.0103473290801,0.0,22.1000003815,0.004218224697692308,0.014699284099431437,0.0034606451772909697,22.1000003815,0.0,0.01586366263623381,0.04688091527151703
1648294297858513943,3239,14,1,0.0335872508585,0.0146502861753,-0.0292418505996,0.0,22.1000003815,0.011233194267056856,0.0048997612626421405,-0.00977988314367893,22.1000003815,0.0,0.01662458923744483,0.046880914365435775
1648294297858536774,3240,14,2,1.83017623425,-1.39177727699,0.456028550863,0.0,22.1000003815,0.6120990749999999,-0.4654773501638796,0.1525179099876254,22.1000003815,0.0,0.9828528469446981,2.344045877614476
1648294297858539029,3241,14,3,1.8455272913,-1.44744825363,0.664701759815,0.0,22.1000003815,0.6172332077926421,-0.484096405896321,0.22230828087458193,22.1000003815,0.0,0.9981497862574161,2.4378075927707687
1648294297858543253,3242,14,4,2.32359957695,0.152362972498,-0.721510231495,0.0,22.1000003815,0.7771236043311036,0.05095751588561872,-0.24130776973076923,22.1000003815,0.0,1.1001994642983446,2.4378077207898525
1648294297858549355,3243,14,5,0.945681214333,-0.354536950588,0.209130749106,0.323675245047,22.1000003815,0.3162813425862876,-0.11857423096588628,0.06994339434983277,22.1000003815,0.04373989797932432,0.46273926090782547,1.031380181454061
1648294297858559029,3244,14,6,0.879224181175,-0.32230630517,0.0470275916159,0.485512852669,22.1000003815,0.2940549100919732,-0.10779475089297658,0.015728291510334447,22.1000003815,0.06560984495527027,0.42960014969559285,0.9376183175943067
1648294297858562009,3245,14,7,1.37879920006,-0.879017174244,0.918016314507,-0.404594063759,22.1000003815,0.46113685620735784,-0.29398567700468226,0.3070288677280936,22.1000003815,-0.05467487348094594,0.7153474530530686,1.8752366198437513
1648294297858565013,3246,14,8,0.772056519985,-0.586011469364,-1.60531353951,-0.161837622523,22.1000003815,0.25821288293812705,-0.19599045798127088,-0.5368941603712374,22.1000003815,-0.021869948989594594,0.4144394352015094,1.8752365910496807
1648294297963332662,3247,15,0,0.00633364822716,0.0454158857465,0.00975204911083,0.0,22.7999992371,0.002118276999050167,0.015189259446989964,0.0032615548865652173,22.7999992371,0.0,0.015481853811394289,0.046880915518626436
1648294297963336543,3248,15,1,0.0335029289126,0.0146502861753,-0.0293384213001,0.0,22.7999992371,0.011204992947357858,0.0048997612626421405,-0.009812181036822742,22.7999992371,0.0,0.01658648227719088,0.04688091397491176
1648294297963338235,3249,15,2,0.437726348639,-0.580151319504,-0.428851723671,0.0,22.7999992371,0.14639677212006688,-0.19403054164013378,-0.14342867012408025,22.7999992371,0.0,0.28374615568058936,0.8438564514836937
1648294297963339570,3250,15,3,1.71779716015,-1.43572807312,0.514610886574,0.0,22.7999992371,0.5745141003846154,-0.480176613083612,0.17211066440602005,22.7999992371,0.0,0.9437703549242986,2.2971648935034574
1648294297963346798,3251,15,4,0.98139578104,-0.527410328388,0.156987935305,0.161837622523,22.7999992371,0.3282260137257525,-0.1763914141765886,0.0525043261889632,22.7999992371,0.021869948989594594,0.4965667761417517,1.1251420111989316
1648294297963349670,3252,15,5,0.905222415924,-0.451228827238,0.201766937971,0.323675245047,22.7999992371,0.30274997188093644,-0.15091265125016723,0.06748058126120401,22.7999992371,0.04373989797932432,0.4539710555257573,1.0313801307374781
1648294297963430146,3253,15,6,0.842785716057,-0.410208016634,0.0238683316857,0.566431701183,22.7999992371,0.2818681324605351,-0.13719331659999998,0.007982719627324414,22.7999992371,0.07654482448418919,0.42157003488541184,0.9376183004602507
1648294297963431834,3254,15,7,1.36766433716,-0.317911207676,0.37487590313,-0.647350490093,22.7999992371,0.4574128217926421,-0.10632481862073578,0.12537655623076924,22.7999992371,-0.08747979595851352,0.6555592621078181,1.4533083698420126
1648294297963433584,3255,15,8,1.00611126423,0.227079421282,-1.02385544777,-0.647350490093,22.7999992371,0.33649206161538464,0.07594629474314381,-0.34242657116053504,22.7999992371,-0.08747979595851352,0.48189382102861217,1.4533082665107784
1648294297963436116,3256,15,9,1.43930149078,-0.996219456196,-0.672659277916,-0.242756426334,22.7999992371,0.4813717360468227,-0.3331837646140468,-0.22496965816588627,22.7999992371,-0.03280492247756756,0.757924084280116,1.8752366491809664
