%time,field.header.seq,field.header.frame_id,field.point_id,field.x,field.y,field.z,field.velocity,field.intensity,normalized_x,normalized_y,normalized_z,normalized_intensity,normalized_velocity,normalized_range,range
1648219640157604996,82075,0,0,0.012296365574,0.0439508594573,0.0107210809365,0.0,12.8999996185,0.004112496847491639,0.014699284099431437,0.0035856457981605348,12.8999996185,0.0,0.015808042689626545,0.04688091541140993
1648219640157606999,82076,0,1,0.0334385335445,0.0146502861753,-0.0294117927551,0.0,12.8999996185,0.011183456034949833,0.0048997612626421405,-0.009836719984983276,12.8999996185,0.0,0.01655738621287189,0.046880912573176205
1648219640157746191,82077,0,2,1.45250618458,-0.53180539608,-0.0289054308087,0.0,12.8999996185,0.4857880215986622,-0.17786133648160535,-0.009667368163444814,12.8999996185,0.0,0.7096581281663076,1.5470703666844605
1648219640157756332,82078,0,3,1.77819871902,-1.46502864361,0.431568831205,0.0,12.8999996185,0.5947152906421403,-0.489976134986622,0.14433740174080267,12.8999996185,0.0,0.9733700050358853,2.344045918276725
1648219640157759943,82079,0,4,0.915932834148,0.799905598164,0.0833342522383,-0.323675245047,12.8999996185,0.30633205155451504,0.26752695590769227,0.027870987370668895,12.8999996185,-0.04373989797932432,0.5091653206537464,1.2189038191098636
1648219640262746529,82080,1,0,0.0121756950393,0.0439508594573,0.0108579294756,0.0,27.7000007629,0.004072138809130434,0.014699284099431437,0.0036314145403344477,27.7000007629,0.0,0.01578713343192647,0.04688091540512487
1648219640262748661,82081,1,1,0.0334385335445,0.0146502861753,-0.0294117927551,0.0,27.7000007629,0.011183456034949833,0.0048997612626421405,-0.009836719984983276,27.7000007629,0.0,0.01655738621287189,0.046880912573176205
1648219640262761424,82082,1,2,0.98725438118,0.934688270092,0.00731132784858,0.0,27.7000007629,0.3301854117658862,0.31260477260602004,0.0024452601500267557,27.7000007629,0.0,0.5619310955464888,1.3595465534219817
1648219640262767726,82083,1,3,1.76489555836,-1.46502864361,0.483100563288,0.0,27.7000007629,0.5902660730301003,-0.489976134986622,0.1615720947451505,27.7000007629,0.0,0.967938369317582,2.344045949371683
1648219640262771553,82084,1,4,1.19703710079,-0.637287437916,0.0966110378504,-0.323675245047,27.7000007629,0.400346856451505,-0.21313961134314377,0.03231138389645485,27.7000007629,-0.04373989797932432,0.6049658708263718,1.359546539044471
1648219640262939370,82085,1,5,1.14696288109,-0.722259104252,0.10575786978,-0.323675245047,27.7000007629,0.3835996257826087,-0.24155822884682274,0.03537052501003344,27.7000007629,-0.04373989797932432,0.5938414971393704,1.3595465388480008
1648219640457740941,82086,3,0,0.0122741637751,0.0439508594573,0.0107464920729,0.0,34.2999992371,0.004105071496688963,0.014699284099431437,0.003594144505986622,34.2999992371,0.0,0.015804182263617888,0.04688091546979662
1648219640457893103,82087,3,1,0.0334246940911,0.0146502861753,-0.0294275209308,0.0,34.2999992371,0.01117882745521739,0.0048997612626421405,-0.009841980244414716,34.2999992371,0.0,0.01655113370672634,0.04688091347482975
1648219640457897268,82088,3,2,0.864611625671,0.984499275684,-0.0793670192361,0.0809188112617,34.2999992371,0.2891677677829431,0.32926397180066885,-0.026544153590668893,34.2999992371,0.010934974494824324,0.5250245317840795,1.3126656888980506
1648219640457901703,82089,3,3,0.762753844261,0.914177834988,0.261174082756,0.161837622523,34.2999992371,0.2551016201541806,0.30574509531371236,0.08734919155719063,34.2999992371,0.021869948989594594,0.47289928792393704,1.2189037871881927
1648219640457909367,82090,3,4,1.12007260323,-0.457088917494,0.149109318852,-0.323675245047,34.2999992371,0.37460622181605346,-0.15287254765685618,0.049869337408695646,34.2999992371,-0.04373989797932432,0.5513888452568607,1.2189038124359006
1648219640457911854,82091,3,5,1.18705403805,-0.533270418644,0.172095090151,-0.323675245047,34.2999992371,0.39700803948160535,-0.1783513105832776,0.05755688633812708,34.2999992371,-0.04373989797932432,0.5891009733592609,1.312665741423017
1648219640562649329,82092,4,0,0.012296365574,0.0439508594573,0.0107210809365,0.0,32.2000007629,0.004112496847491639,0.014699284099431437,0.0035856457981605348,32.2000007629,0.0,0.015808042689626545,0.04688091541140993
1648219640562655396,82093,4,1,0.0334108844399,0.0146502861753,-0.0294432006776,0.0,32.2000007629,0.011174208842775918,0.0048997612626421405,-0.009847224306889632,32.2000007629,0.0,0.01654489489101794,0.04688091456249508
1648219640562663393,82094,4,2,2.13882184029,-1.14272224903,0.250065863132,0.0,32.2000007629,0.7153250301973243,-0.3821813541906354,0.08363406793712375,32.2000007629,0.0,1.0814075943623633,2.437807609068779
1648219640562680013,82095,4,3,0.945248901844,0.97717410326,0.00145798688754,0.161837622523,32.2000007629,0.3161367564695652,0.3268140813578595,0.00048762103262207354,32.2000007629,0.021869948989594594,0.553798105229673,1.3595465568508633
1648219640562693159,82096,4,4,0.809337496758,0.949338555336,0.214336544275,0.242756426334,32.2000007629,0.27068143704280934,0.3175045335571906,0.07168446296822742,32.2000007629,0.03280492247756756,0.4973389282456079,1.2657847488880951
1648219640562759608,82097,4,5,2.01316571236,-1.19546329975,0.484315305948,0.242756426334,32.2000007629,0.6732995693511706,-0.39982050158862875,0.16197836319331102,32.2000007629,0.03280492247756756,1.0327250619925548,2.3909265990503785
1648219640562761933,82098,4,6,0.386687934399,-0.448298752308,-2.31646943092,0.242756426334,32.2000007629,0.12932706836086955,-0.14993269307959864,-0.7747389401070233,32.2000007629,0.03280492247756756,0.23649692107030734,2.3909265890690796
1648219640562765527,82099,4,7,1.15556097031,-0.380907416344,0.0729037895799,-0.242756426334,32.2000007629,0.3864752409063545,-0.12739378473043478,0.024382538321036786,32.2000007629,-0.03280492247756756,0.5612088738207851,1.2189038429936794
1648219640757848285,82100,6,0,0.0121983094141,0.0439508594573,0.0108325183392,0.0,32.4000015259,0.004079702145183947,0.014699284099431437,0.0036229158325083613,32.4000015259,0.0,0.015791038351629535,0.046880915660496236
1648219640757851605,82101,6,1,0.0334246940911,0.0146502861753,-0.0294275209308,0.0,32.4000015259,0.01117882745521739,0.0048997612626421405,-0.009841980244414716,32.4000015259,0.0,0.01655113370672634,0.04688091347482975
1648219640757858319,82102,6,2,2.140583992,-1.14272224903,0.234503388405,0.0,32.4000015259,0.7159143785953176,-0.3821813541906354,0.07842922689130434,32.4000015259,0.0,1.082187313938778,2.4378075814978226
1648219640757927186,82103,6,3,0.815208554268,0.949338555336,0.190793856978,0.0809188112617,32.4000015259,0.2726450014274247,0.3175045335571906,0.0638106545076923,32.4000015259,0.010934974494824324,0.49947945146531303,1.2657847271395353
1648219640757930698,82104,6,4,1.0058734417,1.52362978458,0.42811602354,-0.242756426334,32.4000015259,0.33641252230769225,0.5095751787892976,0.14318261656856188,32.4000015259,-0.03280492247756756,0.6971467802184785,1.8752366332781583
1648219640757943406,82105,6,5,1.1568646431,-0.228544458747,0.308476954699,-0.0809188112617,32.4000015259,0.3869112518729097,-0.07643627382842809,0.10316955006655518,32.4000015259,-0.010934974494824324,0.5524881334549175,1.2189037712876347
1648219640862693314,82106,7,0,0.0122741637751,0.0439508594573,0.0107464920729,0.0,21.8999996185,0.004105071496688963,0.014699284099431437,0.003594144505986622,21.8999996185,0.0,0.015804182263617888,0.04688091546979662
1648219640862698527,82107,7,1,0.0334246940911,0.0146502861753,-0.0294275209308,0.0,21.8999996185,0.01117882745521739,0.0048997612626421405,-0.009841980244414716,21.8999996185,0.0,0.01655113370672634,0.04688091347482975
1648219640862700394,82108,7,2,2.09436249733,-1.21890377998,0.266130715609,0.0,21.8999996185,0.7004556847257525,-0.407660127083612,0.0890069282973244,21.8999996185,0.0,1.0711970461792135,2.437807673476816
1648219640862716584,82109,7,3,1.05395877361,1.4855389595,0.158837899566,-0.242756426334,21.8999996185,0.35249457311371235,0.4968357724080267,0.05312304333311037,21.8999996185,-0.03280492247756756,0.7038115038087379,1.8283557025372215
1648219640862803522,82110,7,4,1.14917957783,-0.152362972498,0.376694113016,-0.0809188112617,21.8999996185,0.38434099592976584,-0.05095751588561872,0.12598465318260868,21.8999996185,-0.010934974494824324,0.5459236858113061,1.2189038650651964
1648219641057628873,82111,9,0,0.0122741637751,0.0439508594573,0.0107464920729,0.0,23.6000003815,0.004105071496688963,0.014699284099431437,0.003594144505986622,23.6000003815,0.0,0.015804182263617888,0.04688091546979662
1648219641057632240,82112,9,1,0.0334385335445,0.0146502861753,-0.0294117927551,0.0,23.6000003815,0.011183456034949833,0.0048997612626421405,-0.009836719984983276,23.6000003815,0.0,0.01655738621287189,0.046880912573176205
1648219641057698735,82113,9,2,2.09439611435,-1.21890377998,0.26586535573,0.0,23.6000003815,0.7004669278762541,-0.407660127083612,0.08891817917391302,23.6000003815,0.0,1.0712117499871916,2.4378076002899305
1648219641057701389,82114,9,3,2.42003464699,-0.543525636196,-0.147272586823,0.242756426334,23.6000003815,0.8093761361170568,-0.18178114922943142,-0.04925504576020067,23.6000003815,0.03280492247756756,1.1589753429847962,2.4846885166281547
1648219641057759736,82115,9,4,0.618620157242,1.67013263702,-0.040232334286,-0.404594063759,23.6000003815,0.20689637365953176,0.5585727883010033,-0.013455630195986622,23.6000003815,-0.05467487348094594,0.6305678224404466,1.7814748285921966
1648219641057763794,82116,9,5,1.49662125111,0.093761831522,-0.0436065047979,-0.242756426334,23.6000003815,0.500542224451505,0.03135847208093645,-0.014584115317023411,23.6000003815,-0.03280492247756756,0.708567844803144,1.5001893139151177
1648219641057766973,82117,9,6,1.10807693005,-0.0366257168353,0.380081355572,-0.0809188112617,23.6000003815,0.37059429098662205,-0.012249403623846153,0.12711751022474915,23.6000003815,-0.010934974494824324,0.524242601199954,1.172022936164724
1648219641162690076,82118,10,0,0.0121983094141,0.0439508594573,0.0108325183392,0.0,24.7000007629,0.004079702145183947,0.014699284099431437,0.0036229158325083613,24.7000007629,0.0,0.015791038351629535,0.046880915660496236
1648219641162697094,82119,10,1,0.0334246940911,0.0146502861753,-0.0294275209308,0.0,24.7000007629,0.01117882745521739,0.0048997612626421405,-0.009841980244414716,24.7000007629,0.0,0.01655113370672634,0.04688091347482975
1648219641162700440,82120,10,2,2.14179182053,-1.14272224903,0.223202049732,0.0,24.7000007629,0.7163183346254179,-0.3821813541906354,0.07464951496053511,24.7000007629,0.0,1.0827218020027363,2.4378075182265637
1648219641162704715,82121,10,3,1.1684627533,0.0732514336705,0.0544686578214,0.0809188112617,24.7000007629,0.39079021849498324,0.02449880724765886,0.018216942415183946,24.7000007629,0.010934974494824324,0.553203562261914,1.1720229575691192
1648219641162872449,82122,10,4,0.801159858704,-0.39555773139,2.36865377426,0.242756426334,24.7000007629,0.26794644103812704,-0.13229355564882941,0.7921918977458192,24.7000007629,0.03280492247756756,0.40136289738366066,2.531569422389431
1648219641162875483,82123,10,5,1.11922192574,0.0366257168353,0.345888227224,-0.242756426334,24.7000007629,0.3743217142943144,0.012249403623846153,0.11568168134581938,24.7000007629,-0.03280492247756756,0.529512548929304,1.1720229639060045
1648219641162878555,82124,10,6,1.12053060532,-0.0,0.101762719452,-0.161837622523,24.7000007629,0.3747593997725752,-0.0,0.03403435433177257,24.7000007629,-0.021869948989594594,0.5299898257851765,1.1251419859418064
1648219641357743202,82125,12,0,0.0122741637751,0.0439508594573,0.0107464920729,0.0,35.5999984741,0.004105071496688963,0.014699284099431437,0.003594144505986622,35.5999984741,0.0,0.015804182263617888,0.04688091546979662
1648219641357884209,82126,12,1,0.0334246940911,0.0146502861753,-0.0294275209308,0.0,35.5999984741,0.01117882745521739,0.0048997612626421405,-0.009841980244414716,35.5999984741,0.0,0.01655113370672634,0.04688091347482975
1648219641358047535,82127,12,2,0.843263983727,1.06214570999,0.0954944118857,0.0,35.5999984741,0.28202808820301,0.3552326789264214,0.03193793039655518,35.5999984741,0.0,0.5341066759067252,1.3595465560997486
1648219641358051659,82128,12,3,2.10089635849,-1.21890377998,0.208360701799,0.0,35.5999984741,0.7026409225719064,-0.407660127083612,0.0696858534444816,35.5999984741,0.0,1.074055543889247,2.437807645410164
1648219641358055148,82129,12,4,1.2176078558,0.0380907431245,0.0413106456399,0.0809188112617,35.5999984741,0.40722670762541807,0.01273937897140468,0.013816269444782607,35.5999984741,0.010934974494824324,0.5760464170389853,1.2189037552903166
1648219641358058866,82130,12,5,1.4415858984,0.328166425228,-0.254371643066,-0.161837622523,35.5999984741,0.48213575197324415,0.10975465726688963,-0.08507412811571906,35.5999984741,-0.021869948989594594,0.6906199037483525,1.5001893340204617
1648219641462612171,82131,13,0,0.0121756950393,0.0439508594573,0.0108579294756,0.0,20.7999992371,0.004072138809130434,0.014699284099431437,0.0036314145403344477,20.7999992371,0.0,0.01578713343192647,0.04688091540512487
1648219641462616873,82132,13,1,0.0334246940911,0.0146502861753,-0.0294275209308,0.0,20.7999992371,0.01117882745521739,0.0048997612626421405,-0.009841980244414716,20.7999992371,0.0,0.01655113370672634,0.04688091347482975
1648219641462704497,82133,13,2,1.21123456955,-0.0,-0.13651894033,0.0,20.7999992371,0.4050951737625418,-0.0,-0.04565850847157191,20.7999992371,0.0,0.5728910887868721,1.218903853280397
1648219641462717702,82134,13,3,2.14560818672,-1.14272224903,0.182913511992,0.0,20.7999992371,0.717594711277592,-0.3821813541906354,0.06117508762274247,20.7999992371,0.0,1.0844108662301983,2.437807617966872
1648219641462724226,82135,13,4,1.13508498669,-0.0732514336705,0.282584756613,0.242756426334,20.7999992371,0.3796270858494983,-0.02449880724765886,0.0945099520444816,20.7999992371,0.03280492247756756,0.5374324517348413,1.1720229708558827
1648219641462727274,82136,13,5,2.50047540665,-0.39555773139,-0.000842906767502,-0.323675245047,20.7999992371,0.8362794002173913,-0.13229355564882941,-0.00028190861789364547,20.7999992371,-0.04373989797932432,1.1900538035408859,2.5315694516674245
1648219641462729504,82137,13,6,1.43526673317,0.227079421282,0.0234354324639,-0.161837622523,20.7999992371,0.48002231878595314,0.07594629474314381,0.00783793727889632,20.7999992371,-0.021869948989594594,0.6830890811237572,1.453308253058869
1648219641657692065,82138,15,0,0.012287533842,0.0439508594573,0.0107312016189,0.0,28.8999996185,0.004109543090969899,0.014699284099431437,0.003589030641772575,28.8999996185,0.0,0.015806506314454016,0.04688091534024388
1648219641657695276,82139,15,1,0.0334476083517,0.0146502861753,-0.0294014774263,0.0,28.8999996185,0.011186491087525082,0.0048997612626421405,-0.009833270042240803,28.8999996185,0.0,0.01656148622960647,0.04688091577940992
1648219641657699434,82140,15,2,0.84704720974,1.06214570999,-0.0521945059299,0.0,28.8999996185,0.2832933811839465,0.3552326789264214,-0.01745635649829431,28.8999996185,0.0,0.5354442415625623,1.3595465241130027
1648219641657706036,82141,15,3,2.09295964241,-1.21890377998,0.276946812868,0.0,28.8999996185,0.6999865024782608,-0.407660127083612,0.09262435212976587,28.8999996185,0.0,1.070583479471509,2.437807627103556
1648219641657877559,82142,15,4,1.20385026932,-0.190453708172,-0.0140829458833,0.161837622523,28.8999996185,0.40262550813377923,-0.06369689236521739,-0.004710015345585284,28.8999996185,0.021869948989594594,0.5729501668530641,1.218903776047582
1648219641657882228,82143,15,5,1.21461844444,-0.356001973152,0.0132509693503,-0.0809188112617,28.8999996185,0.4062269044949832,-0.11906420506755852,0.00443176232451505,28.8999996185,-0.010934974494824324,0.586699992159129,1.2657847204997716
