%time,field.header.seq,field.header.frame_id,field.point_id,field.x,field.y,field.z,field.velocity,field.intensity,normalized_x,normalized_y,normalized_z,normalized_intensity,normalized_velocity,normalized_range,range
1648126766205968713,78729,0,0,0.0125994505361,0.0439508594573,0.0103632062674,0.0,29.3999996185,0.004213863055551839,0.014699284099431437,0.003465955273377926,29.3999996185,0.0,0.01586134410249293,0.04688091557326548
1648126766205977755,78730,0,1,0.0328124724329,0.0146502861753,-0.0301086530089,0.0,29.3999996185,0.010974071047792642,0.0048997612626421405,-0.010069783615016722,29.3999996185,0.0,0.01627476977271537,0.04688091528744241
1648126766205984417,78731,0,2,0.589950144291,0.523015201092,0.1165503636,0.0,29.3999996185,0.19730774056555184,0.1749214719371237,0.03898005471571906,29.3999996185,0.0,0.3293299414247301,0.7969755708787875
1648126766205993030,78732,0,3,0.268375903368,-1.58955609798,0.305966794491,0.0,29.3999996185,0.08975782721337791,-0.5316241130367892,0.10233003160234114,29.3999996185,0.0,0.5465685068262587,1.6408320735118178
1648126766206017941,78733,0,4,1.90060901642,-1.24527442455,0.575784862041,0.0,29.3999996185,0.635655189438127,-0.4164797406521739,0.19257018797357858,29.3999996185,0.0,0.9907423550514758,2.3440459110458796
1648126766206103067,78734,0,5,2.42373991013,-0.902457654476,0.451022028923,0.0,29.3999996185,0.8106153545585284,-0.30182530250033446,0.1508434879341137,29.3999996185,0.0,1.1854505554098476,2.6253315677554188
1648126766206141441,78735,0,6,0.574349403381,0.421928226948,0.233968570828,0.242756426334,29.3999996185,0.1920901014652174,0.14111311938060198,0.07825035813645484,29.3999996185,0.03280492247756756,0.3061210979713078,0.7500946326930293
1648126766206146154,78736,0,7,1.66545808315,0.864366889,-2.03217411041,0.323675245047,29.3999996185,0.5570093923578595,0.2890859160535117,-0.6796568931137124,29.3999996185,0.04373989797932432,0.8391004666964748,2.765974034684687
1648126766206217461,78737,0,8,1.32663273811,-0.5186201334,-2.37101054192,0.323675245047,29.3999996185,0.44368987896655515,-0.17345154963210702,-0.792980114354515,29.3999996185,0.04373989797932432,0.6510044988051096,2.7659740155122288
1648126766206239013,78738,0,9,0.767536818981,0.389697611332,0.228989467025,0.485512852669,29.3999996185,0.25670127725117053,0.13033364927491636,0.0765851060284281,29.3999996185,0.06560984495527027,0.385717450497228,0.8907374320066113
1648126766206246085,78739,0,10,1.4032241106,-1.55000019073,0.528250455856,0.485512852669,29.3999996185,0.46930572260869563,-0.518394712618729,0.17667239326287623,29.3999996185,0.06560984495527027,0.8421572303421699,2.1565219776167988
1648126766401356026,78740,2,0,0.0126141794026,0.0439508594573,0.0103452727199,0.0,24.0,0.004218789097859532,0.014699284099431437,0.003459957431404682,24.0,0.0,0.015863962806948167,0.0468809154847196
1648126766401359841,78741,2,1,0.0329001024365,0.0146502861753,-0.0300128757954,0.0,24.0,0.011003378741304349,0.0048997612626421405,-0.010037751102140467,24.0,0.0,0.016314298877980183,0.04688091657444943
1648126766401363456,78742,2,2,0.260585665703,-1.58955609798,0.312628239393,0.0,24.0,0.08715239655618728,-0.5316241130367892,0.10455793959632106,24.0,0.0,0.5457245440816517,1.6408320736325352
1648126766401367479,78743,2,3,1.89305698872,-1.24527442455,0.600148499012,0.0,24.0,0.6331294276655518,-0.4164797406521739,0.2007185615424749,24.0,0.0,0.9875024651746043,2.344045941496524
1648126766401375382,78744,2,4,2.42344284058,-0.902457654476,0.452614605427,0.0,24.0,0.8105160001939798,-0.30182530250033446,0.15137612221638794,24.0,0.0,1.1853146782058819,2.6253314077896186
1648126766401384760,78745,2,5,0.607853651047,0.473204225302,0.204356878996,0.161837622523,24.0,0.20329553546722404,0.158262282709699,0.06834678227290969,24.0,0.021869948989594594,0.32818455114507655,0.796975554159486
1648126766401393339,78746,2,6,0.742356181145,0.556710898876,0.134567543864,0.161837622523,24.0,0.24827965924581938,0.18619093607892975,0.045005867513043474,24.0,0.021869948989594594,0.3974325641771047,0.9376183383835351
1648126766401397036,78747,2,7,2.01150774956,-1.50311934948,0.913885235786,0.323675245047,24.0,0.6727450667424748,-0.5027155014983277,0.30564723604882943,24.0,0.04373989797932432,1.0760551682415678,2.6722120854282405
1648126766506265131,78748,3,0,0.0126200793311,0.0439508594573,0.0103380745277,0.0,12.3999996185,0.004220762318093645,0.014699284099431437,0.0034575500092642137,12.3999996185,0.0,0.015865012515831067,0.0468809154592663
1648126766506279971,78749,3,1,0.0328124724329,0.0146502861753,-0.0301086530089,0.0,12.3999996185,0.010974071047792642,0.0048997612626421405,-0.010069783615016722,12.3999996185,0.0,0.01627476977271537,0.04688091528744241
1648126766506283689,78750,3,2,0.281710147858,-1.58955609798,0.293735772371,0.0,12.3999996185,0.09421744075518394,-0.5316241130367892,0.09823938875284281,12.3999996185,0.0,0.5480675595645723,1.6408320755037573
1648126766506317240,78751,3,3,1.89105904102,-1.24527442455,0.606414735317,0.0,12.3999996185,0.6324612177324415,-0.4164797406521739,0.2028142927481605,12.3999996185,0.0,0.9866457105997611,2.3440459723033173
1648126766506319873,78752,3,4,1.83276736736,-1.39177727699,0.445500582457,0.0,12.3999996185,0.6129656747023411,-0.4654773501638796,0.14899685032006688,12.3999996185,0.0,0.9839324165013467,2.3440458571826044
1648126766506344072,78753,3,5,2.42348146439,-0.902457654476,0.452407419682,0.0,12.3999996185,0.8105289178561872,-0.30182530250033446,0.1513068293250836,12.3999996185,0.0,1.1853323443623995,2.6253313504675075
1648126766506457149,78754,3,6,0.546324491501,0.523015201092,0.251305967569,0.161837622523,12.3999996185,0.18271722123779263,0.1749214719371237,0.08404881858494982,12.3999996185,0.021869948989594594,0.3120395603419074,0.7969755579206446
1648126766506460623,78755,3,7,0.805740177631,0.612381994724,0.198786586523,0.161837622523,12.3999996185,0.2694783202779264,0.20481003168026754,0.06648380820167224,12.3999996185,0.021869948989594594,0.4326479854067248,1.0313801667147022
1648126766506465985,78756,3,8,0.966718673706,0.659262895584,0.0668224021792,0.161837622523,12.3999996185,0.3233172821759197,0.22048926273712371,0.022348629491371237,12.3999996185,0.021869948989594594,0.5076254966898401,1.1720229490153706
1648126766506469518,78757,3,9,1.88442528248,2.14480209351,0.1638764292,0.242756426334,12.3999996185,0.6302425693913043,0.7173251148862876,0.054808170301003344,12.3999996185,0.03280492247756756,1.1441008316545056,2.8597360279616804
1648126766506471318,78758,3,10,2.41124176979,-0.357466995716,-1.49539983273,0.242756426334,12.3999996185,0.8064353745117057,-0.11955417916923075,-0.5001337233210702,12.3999996185,0.03280492247756756,1.146721076933924,2.859736034170837
1648126766701283674,78759,5,0,0.0126200793311,0.0439508594573,0.0103380745277,0.0,11.5,0.004220762318093645,0.014699284099431437,0.0034575500092642137,11.5,0.0,0.015865012515831067,0.0468809154592663
1648126766701290959,78760,5,1,0.0329001024365,0.0146502861753,-0.0300128757954,0.0,11.5,0.011003378741304349,0.0048997612626421405,-0.010037751102140467,11.5,0.0,0.016314298877980183,0.04688091657444943
1648126766701301922,78761,5,2,0.261646032333,-1.58955609798,0.311741352081,0.0,11.5,0.0875070342250836,-0.5316241130367892,0.10426132176622073,11.5,0.0,0.5458380342554856,1.640832077166428
1648126766701359224,78762,5,3,1.89278697968,-1.24527442455,0.600999414921,0.0,11.5,0.633039123638796,-0.4164797406521739,0.20100314880301,11.5,0.0,0.9873866712126773,2.344045912438546
1648126766701368576,78763,5,4,2.42348217964,-0.902457654476,0.452403903008,0.0,11.5,0.8105291570702341,-0.30182530250033446,0.1513056531799331,11.5,0.0,1.1853326715109926,2.6253314047205243
1648126766701373650,78764,5,5,0.566694796085,0.606521844864,0.151927620173,0.161837622523,11.5,0.18953003213545147,0.20285011533913042,0.050811913101337786,11.5,0.021869948989594594,0.33614198704658876,0.8438564700104403
1648126766701380410,78765,5,6,0.9899700284,0.820416092873,-0.264514565468,0.485512852669,11.5,0.3310936549832776,0.2743866531347826,-0.08846640985551839,11.5,0.06560984495527027,0.5427099152944221,1.3126656763700424
1648126766701390584,78766,5,7,0.732062637806,0.646077632904,0.126121670008,-0.0809188112617,11.5,0.24483700261070232,0.2160794758876254,0.04218116053779264,11.5,-0.010934974494824324,0.4081429352502099,0.9844992072398644
1648126767001334760,78767,8,0,0.0126097733155,0.0439508594573,0.0103506427258,0.0,21.2000007629,0.004217315490133779,0.014699284099431437,0.0034617534199999998,21.2000007629,0.0,0.01586317915559307,0.04688091546611253
1648126767001346741,78768,8,1,0.0328478105366,0.0146502861753,-0.0300700943917,0.0,21.2000007629,0.010985889811571906,0.0048997612626421405,-0.010056887756421403,21.2000007629,0.0,0.016290709325713453,0.04688091422735167
1648126767001358006,78769,8,2,0.271477520466,-1.58955609798,0.303218185902,0.0,21.2000007629,0.09079515734648828,-0.5316241130367892,0.10141076451571905,21.2000007629,0.0,0.5469110702457027,1.640832075809548
1648126767001424376,78770,8,3,1.89535236359,-1.24527442455,0.592859447002,0.0,21.2000007629,0.6338971115685619,-0.4164797406521739,0.1982807515056856,21.2000007629,0.0,0.9884869601990881,2.344045924998922
1648126767001431569,78771,8,4,2.42387628555,-0.902457654476,0.450288146734,0.0,21.2000007629,0.8106609650668896,-0.30182530250033446,0.15059804238595317,21.2000007629,0.0,1.1855129327830127,2.625331499232645
1648126767001434518,78772,8,5,0.484710901976,0.723724126816,0.186257660389,0.0809188112617,21.2000007629,0.1621106695571906,0.24204820294849494,0.06229353190267558,21.2000007629,0.010934974494824324,0.3333872686818696,0.8907374395878692
1648126767001440984,78773,8,6,0.529701650143,0.668053030968,0.257942795753,0.323675245047,21.2000007629,0.17715774252274244,0.22342910734715715,0.08626849356287625,21.2000007629,0.04373989797932432,0.335693755499646,0.8907374339448312
1648126767001524220,78774,8,7,0.688405871391,0.741304516792,0.200773328543,0.404594063759,21.2000007629,0.2302360773882943,0.2479279320374582,0.06714827041571907,21.2000007629,0.05467487348094594,0.40924999956831737,1.031380123832168
1648126767106394738,78775,9,0,0.0126097733155,0.0439508594573,0.0103506427258,0.0,34.0999984741,0.004217315490133779,0.014699284099431437,0.0034617534199999998,34.0999984741,0.0,0.01586317915559307,0.04688091546611253
1648126767106450892,78776,9,1,0.0327595062554,0.0146502861753,-0.0301662702113,0.0,34.0999984741,0.01095635660715719,0.0048997612626421405,-0.010089053582374581,34.0999984741,0.0,0.016250881841835,0.046880912891889635
1648126767106488891,78777,9,2,0.271827071905,-1.58955609798,0.302904844284,0.0,34.0999984741,0.09091206418227424,-0.5316241130367892,0.10130596798795986,34.0999984741,0.0,0.5469499103116453,1.640832072558482
1648126767106493626,78778,9,3,1.88962483406,-1.24527442455,0.610869050026,0.0,34.0999984741,0.6319815498528427,-0.4164797406521739,0.2043040301090301,34.0999984741,0.0,0.9860307972282125,2.3440459471209785
1648126767106498121,78779,9,4,1.83106684685,-1.39177727699,0.452439367771,0.0,34.0999984741,0.6123969387458194,-0.4654773501638796,0.15131751430468227,34.0999984741,0.0,0.9832238731266082,2.3440458971376654
1648126767106504277,78780,9,5,2.42374181747,-0.902457654476,0.45101082325,0.0,34.0999984741,0.8106159924648828,-0.30182530250033446,0.1508397402173913,34.0999984741,0.0,1.1854514278151898,2.6253314035686515
1648126767106521524,78781,9,6,0.562861800194,0.668053030968,0.17408311367,0.242756426334,34.0999984741,0.18824809371036788,0.22342910734715715,0.05822177714715719,34.0999984741,0.03280492247756756,0.34755611860694147,0.8907374409825849
1648126767106524469,78782,9,7,0.712833344936,0.808695793152,0.0229448061436,0.404594063759,34.0999984741,0.23840580098193978,0.2704668204521739,0.007673848208561873,34.0999984741,0.05467487348094594,0.43223483530274265,1.078260973810773
1648126767301299770,78783,11,0,0.0126097733155,0.0439508594573,0.0103506427258,0.0,37.2000007629,0.004217315490133779,0.014699284099431437,0.0034617534199999998,37.2000007629,0.0,0.01586317915559307,0.04688091546611253
1648126767301307536,78784,11,1,0.0329001024365,0.0146502861753,-0.0300128757954,0.0,37.2000007629,0.011003378741304349,0.0048997612626421405,-0.010037751102140467,37.2000007629,0.0,0.016314298877980183,0.04688091657444943
1648126767301312725,78785,11,2,0.274208366871,-1.58955609798,0.300750851631,0.0,37.2000007629,0.09170848390334446,-0.5316241130367892,0.10058556910735786,37.2000007629,0.0,0.5472157614706038,1.6408320730179051
1648126767301319549,78786,11,3,1.893679142,-1.24527442455,0.598182439804,0.0,37.2000007629,0.6333375056856188,-0.4164797406521739,0.20006101665685616,37.2000007629,0.0,0.9877692881386141,2.3440459288533697
1648126767301462745,78787,11,4,2.42421984673,-0.902457654476,0.448434740305,0.0,37.2000007629,0.8107758684715718,-0.30182530250033446,0.14997817401505018,37.2000007629,0.0,1.1856700768009123,2.6253314837776887
1648126767301465723,78788,11,5,0.536801695824,0.914177834988,0.376918166876,0.323675245047,37.2000007629,0.1795323397404682,0.30574509531371236,0.12605958758394648,37.2000007629,0.04373989797932432,0.3974214203257857,1.1251419817712045
1648126767301469671,78789,11,6,0.692899048328,0.647542655468,-0.765706121922,-0.485512852669,37.2000007629,0.23173881214983275,0.21656944998929767,-0.25608900398729095,37.2000007629,-0.06560984495527027,0.39282067254906256,1.2189037890552419
1648126767301486262,78790,11,7,0.28143247962,1.10463154316,0.431638091803,-0.485512852669,37.2000007629,0.09412457512374582,0.3694419876789297,0.14436056582040133,37.2000007629,-0.06560984495527027,0.392691040825494,1.2189038227130309
