%time,field.header.seq,field.header.frame_id,field.point_id,field.x,field.y,field.z,field.velocity,field.intensity,normalized_x,normalized_y,normalized_z,normalized_intensity,normalized_velocity,normalized_range,range
1648218224235188636,25065,0,0,0.00485466001555,0.0454158857465,0.0105664487928,0.0,37.0999984741,0.0016236321122240801,0.015189259446989964,0.003533929362140468,37.0999984741,0.0,0.015361834689244132,0.0468809155424314
1648218224235198704,25066,0,1,0.0334805957973,0.0146502861753,-0.029363906011,0.0,37.0999984741,0.011197523678026755,0.0048997612626421405,-0.009820704351505017,37.0999984741,0.0,0.016576390845742875,0.046880914626137686
1648218224235216242,25067,0,2,2.11167478561,-1.12074685097,-0.0358642488718,0.0,37.0999984741,0.7062457476956521,-0.3748317227324415,-0.011994732064147157,37.0999984741,0.0,1.0668012620178846,2.3909266296746434
1648218224235230759,25068,0,3,2.13915944099,0.9713139534,0.443932265043,0.0,37.0999984741,0.7154379401304347,0.3248541650167224,0.1484723294458194,37.0999984741,0.0,1.062653810459865,2.3909265496857897
1648218224235244775,25069,0,4,0.709459960461,0.556710898876,0.256647020578,0.161837622523,37.0999984741,0.2372775787494983,0.18619093607892975,0.08583512393913043,37.0999984741,0.021869948989594594,0.3837556037797974,0.9376183411155159
1648218224235248467,25070,0,5,1.04834485054,0.672448158264,0.225826010108,0.161837622523,37.0999984741,0.35061700686956515,0.22489904958662205,0.07552709368160535,37.0999984741,0.021869948989594594,0.5444668525422932,1.2657846728601507
1648218224235251517,25071,0,6,0.203638494015,-0.862901866436,0.0857023075223,-0.566431701183,37.0999984741,0.0681065197374582,-0.28859594195183946,0.02866297910444816,37.0999984741,-0.07654482448418919,0.3042443323589892,0.890737420825058
1648218224340118934,25072,1,0,0.00493015442044,0.0454158857465,0.0105314357206,0.0,39.0,0.001648881077070234,0.015189259446989964,0.003522219304548495,39.0,0.0,0.015367212504570061,0.04688091551031885
1648218224340126557,25073,1,1,0.0334805957973,0.0146502861753,-0.029363906011,0.0,39.0,0.011197523678026755,0.0048997612626421405,-0.009820704351505017,39.0,0.0,0.016576390845742875,0.046880914626137686
1648218224340150957,25074,1,2,0.705397307873,0.586011469364,0.195277497172,0.0,39.0,0.2359188320645485,0.19599045798127088,0.06531019972307692,39.0,0.0,0.38694657288198014,0.9376183152447433
1648218224340154351,25075,1,3,2.12018275261,0.952268660069,0.304238200188,0.0,39.0,0.7090912216086955,0.3184845016953177,0.1017519064173913,39.0,0.0,1.052165908469353,2.344045944060858
1648218224340259476,25076,1,4,2.12074995041,-0.952268660069,-0.300258040428,0.0,39.0,0.7092809198695652,-0.3184845016953177,-0.1004207493070234,39.0,0.0,1.0524216001214286,2.3440458280407594
1648218224340262571,25077,1,5,0.462180793285,0.79111546278,0.199131429195,0.242756426334,39.0,0.15457551614882942,0.26458711129765883,0.06659914019899664,39.0,0.03280492247756756,0.34321060567848677,0.9376183057216879
1648218224340265259,25078,1,6,1.09269368649,0.69735366106,0.206904500723,0.485512852669,39.0,0.3654493934749164,0.23322864918394645,0.06919882967324414,39.0,0.06560984495527027,0.5670115705896458,1.3126656442172644
1648218224535152020,25079,3,0,0.0049711689353,0.0454158857465,0.0105121377856,0.0,30.7999992371,0.0016625983061204013,0.015189259446989964,0.003515765145685618,30.7999992371,0.0,0.015370168144916397,0.046880915515227224
1648218224535155405,25080,3,1,0.0334805957973,0.0146502861753,-0.029363906011,0.0,30.7999992371,0.011197523678026755,0.0048997612626421405,-0.009820704351505017,30.7999992371,0.0,0.016576390845742875,0.046880914626137686
1648218224535162351,25081,3,2,2.09282326698,-1.21890377998,0.27797460556,0.0,30.7999992371,0.6999408919665552,-0.407660127083612,0.09296809550501671,30.7999992371,0.0,1.0705238361230918,2.4378075258310714
1648218224535255004,25082,3,3,0.589167416096,0.668053030968,0.000279476749711,-0.647350490093,30.7999992371,0.1970459585605351,0.22342910734715715,9.347048485317726e-05,30.7999992371,-0.08747979595851352,0.3571761268338461,0.8907374329632849
1648218224535261426,25083,3,4,0.437020301819,0.68563336134,0.225862517953,-0.485512852669,30.7999992371,0.1461606360598662,0.2293088165016722,0.0755393036632107,30.7999992371,-0.06560984495527027,0.30872057980032186,0.8438564613726828
1648218224535359251,25084,3,5,1.08110284805,0.659262895584,-0.61206805706,-0.323675245047,30.7999992371,0.3615728588795986,0.22048926273712371,-0.20470503580602006,30.7999992371,-0.04373989797932432,0.5568531040939726,1.4064274741446232
1648218224535361921,25085,3,6,0.721270442009,0.556710898876,0.221291840076,-0.0809188112617,30.7999992371,0.24122757257826086,0.18619093607892975,0.0740106488548495,30.7999992371,-0.010934974494824324,0.38864964713987366,0.9376183412921294
1648218224535362945,25086,3,7,0.958181977272,0.659262895584,0.144559830427,-0.0809188112617,30.7999992371,0.32046219975652174,0.22048926273712371,0.04834776937357859,30.7999992371,-0.010934974494824324,0.5039916248589237,1.172022956957654
1648218224640058155,25087,4,0,0.00493015442044,0.0454158857465,0.0105314357206,0.0,11.3999996185,0.001648881077070234,0.015189259446989964,0.003522219304548495,11.3999996185,0.0,0.015367212504570061,0.04688091551031885
1648218224640060732,25088,4,1,0.0334805957973,0.0146502861753,-0.029363906011,0.0,11.3999996185,0.011197523678026755,0.0048997612626421405,-0.009820704351505017,11.3999996185,0.0,0.016576390845742875,0.046880914626137686
1648218224640062503,25089,4,2,2.0941991806,-1.21890377998,0.267411738634,0.0,11.3999996185,0.7004010637458193,-0.407660127083612,0.08943536409163878,11.3999996185,0.0,1.0711256132715608,2.437807554101534
1648218224640073658,25090,4,3,0.495079427958,0.597731649876,0.181061565876,-0.566431701183,11.3999996185,0.16557840399933108,0.19991025079464883,0.060555707650836114,11.3999996185,-0.07654482448418919,0.30789044173977015,0.7969755679367936
1648218224640184990,25091,4,4,0.685939848423,0.586011469364,0.255353152752,-0.242756426334,11.3999996185,0.22941132054280935,0.19599045798127088,0.08540239222474916,11.3999996185,-0.03280492247756756,0.37904006068765284,0.9376183394650026
1648218224640254182,25092,4,5,0.953114032745,0.597731649876,-0.0153304906562,-0.0809188112617,11.3999996185,0.3187672350317725,0.19991025079464883,-0.005127254400066889,11.3999996185,-0.010934974494824324,0.49314217892245027,1.1251419948711725
1648218224835161136,25093,6,0,0.00493749091402,0.0454158857465,0.010527998209,0.0,11.8000001907,0.0016513347538528427,0.015189259446989964,0.0035210696351170565,11.8000001907,0.0,0.015367739439700892,0.04688091553024406
1648218224835167340,25094,6,1,0.0334805957973,0.0146502861753,-0.029363906011,0.0,11.8000001907,0.011197523678026755,0.0048997612626421405,-0.009820704351505017,11.8000001907,0.0,0.016576390845742875,0.046880914626137686
1648218224835171196,25095,6,2,0.360491752625,-1.58955609798,0.188910081983,0.0,11.8000001907,0.1205658035535117,-0.5316241130367892,0.0631806294257525,11.8000001907,0.0,0.5582977910892724,1.6408320789803177
1648218224835315692,25096,6,3,2.09420490265,-1.21890377998,0.267367750406,0.0,11.8000001907,0.7004029774749163,-0.407660127083612,0.089420652309699,11.8000001907,0.0,1.071128116018473,2.437807644809162
1648218224835324007,25097,6,4,1.49677062035,-1.41814780235,0.0592855550349,-0.485512852669,11.8000001907,0.5005921807190635,-0.47429692386287625,0.019827944827725753,11.8000001907,-0.06560984495527027,0.8521400323772625,2.062760348729065
1648218224835328080,25098,6,5,1.38832032681,-1.58369588852,0.647656321526,-0.485512852669,11.8000001907,0.46432117953511703,-0.5296641767625418,0.216607465393311,11.8000001907,-0.06560984495527027,0.8436423742767465,2.203402983560104
1648218224835333423,25099,6,6,0.590667545795,0.351606875658,0.148303970695,-0.242756426334,11.8000001907,0.19754767417892977,0.11759427279531771,0.049599990198996656,11.8000001907,-0.03280492247756756,0.3031147969685228,0.7032137743171505
1648218224835337339,25100,6,7,0.754029035568,0.473204255104,0.0305146779865,-0.161837622523,11.8000001907,0.25218362393578597,0.15826229267692307,0.010205577921906354,11.8000001907,-0.021869948989594594,0.39017959152950055,0.8907374467825856
1648218224835384900,25101,6,8,0.391359329224,0.512760043144,-0.978546261787,-0.161837622523,11.8000001907,0.13088940776722408,0.17149165322541807,-0.3272729972531772,11.8000001907,-0.021869948989594594,0.2523360086418432,1.1720229404209663
1648218224936536586,25102,7,0,0.00485466001555,0.0454158857465,0.0105664487928,0.0,11.3999996185,0.0016236321122240801,0.015189259446989964,0.003533929362140468,11.3999996185,0.0,0.015361834689244132,0.0468809155424314
1648218224936542226,25103,7,1,0.0334805957973,0.0146502861753,-0.029363906011,0.0,11.3999996185,0.011197523678026755,0.0048997612626421405,-0.009820704351505017,11.3999996185,0.0,0.016576390845742875,0.046880914626137686
1648218224936560703,25104,7,2,0.585719466209,0.329631447792,0.206846386194,0.0,11.3999996185,0.19589279806321067,0.11024463136856186,0.06917939337591973,11.3999996185,0.0,0.2981641417267639,0.7032137740055461
1648218224936568667,25105,7,3,0.726729035378,0.361862063408,0.366516023874,0.0,11.3999996185,0.2430531890896321,0.12102410147424747,0.12258060999130434,11.3999996185,0.0,0.3644125938972608,0.8907374694890411
1648218224936744244,25106,7,4,2.09415817261,-1.21890377998,0.267734110355,0.0,11.3999996185,0.7003873486989965,-0.407660127083612,0.08954318072073578,11.3999996185,0.0,1.0711076769629868,2.437807709932506
1648218224936745913,25107,7,5,1.64962792397,-1.44598317146,-0.206990614533,-0.566431701183,11.3999996185,0.5517150247391304,-0.48360641185953174,-0.06922763027859531,11.3999996185,-0.07654482448418919,0.9179619265729105,2.203402989512323
1648218224936748653,25108,7,6,1.24695181847,-1.68478286266,0.507153689861,-0.404594063759,11.3999996185,0.41704074196321067,-0.5634725293177257,0.16961661868260866,11.3999996185,-0.05467487348094594,0.8156882077179771,2.156521967668795
1648218224936757742,25109,7,7,1.45670199394,-0.864366889,-2.1866645813,-0.323675245047,11.3999996185,0.4871913023210702,-0.2890859160535117,-0.7313259469230768,11.3999996185,-0.04373989797932432,0.7471823050468331,2.765974115761067
1648218224936760621,25110,7,8,1.72664070129,0.5186201334,-2.09770298004,-0.323675245047,11.3999996185,0.577471806451505,0.17345154963210702,-0.7015729030234114,11.3999996185,-0.04373989797932432,0.8348849109682772,2.765974104468036
1648218224936762020,25111,7,9,1.33244562149,-1.51190948486,0.049880027771,-0.242756426334,11.3999996185,0.4456339871204013,-0.5056553461070235,0.016682283535451505,11.3999996185,-0.03280492247756756,0.8080016274737729,2.0158793718394805
