%time,field.header.seq,field.header.frame_id,field.point_id,field.x,field.y,field.z,field.velocity,field.intensity,normalized_x,normalized_y,normalized_z,normalized_intensity,normalized_velocity,normalized_range,range
1648295694269981692,60294,0,0,0.0126919997856,0.0439508594573,0.0102496510372,0.0,14.3999996185,0.00424481598180602,0.014699284099431437,0.0034279769355183946,14.3999996185,0.0,0.015877842374661284,0.04688091564781326
1648295694270050358,60295,0,1,0.0335276499391,0.0146502861753,-0.0293101686984,0.0,14.3999996185,0.011213260849197323,0.0048997612626421405,-0.009802732006153845,14.3999996185,0.0,0.01659765339363283,0.0468809149290592
1648295694270236561,60296,0,2,0.356378763914,-0.0,1.06721067429,0.0,14.3999996185,0.11919022204481604,-0.0,0.3569266469197324,14.3999996185,0.0,0.16856042851803948,1.1251419673478484
1648295694270240637,60297,0,3,0.532748878002,0.0703213736415,0.988523185253,0.0,14.3999996185,0.17817688227491638,0.023518854060702338,0.3306097609541806,14.3999996185,0.0,0.2530753627889278,1.1251420134302845
1648295694270246079,60298,0,4,2.24172973633,-1.2306240797,0.593782067299,0.0,14.3999996185,0.7497423867324414,-0.4115799597658863,0.1985893201668896,14.3999996185,0.0,1.137376523499322,2.625331403790675
1648295694270248740,60299,0,5,1.27963387966,0.246124818921,0.158274531364,0.0809188112617,14.3999996185,0.4279711972107023,0.08231599295016721,0.052934625874247486,14.3999996185,0.010934974494824324,0.6108147132963446,1.3126656542094381
1648295694270265541,60300,0,6,1.08360826969,0.281285494566,-0.112321302295,-0.485512852669,14.3999996185,0.36241079253846153,0.09407541624280935,-0.037565652941471565,14.3999996185,-0.06560984495527027,0.5210886191790888,1.1251419850592368
1648295694270316403,60301,0,7,1.24354887009,-1.68478286266,0.515441358089,-0.485512852669,14.3999996185,0.4159026321371237,-0.5634725293177257,0.17238841407658864,14.3999996185,-0.06560984495527027,0.8145251930621241,2.1565219405894234
1648295694270416764,60302,0,8,2.11081933975,0.26956525445,0.349805682898,-0.485512852669,14.3999996185,0.7059596454013377,0.09015560349498328,0.11699186718996656,14.3999996185,-0.06560984495527027,1.0024400604085562,2.1565221369735705
1648295694270421212,60303,0,9,0.783427834511,0.361862063408,0.220703065395,-0.323675245047,14.3999996185,0.262015998164214,0.12102410147424747,0.0738137342458194,14.3999996185,-0.04373989797932432,0.3898096968081063,0.8907374292659087
1648295694270426221,60304,0,10,0.981902658939,0.720794081688,1.48689579964,-0.161837622523,14.3999996185,0.3283955381066889,0.24106825474515048,0.49728956509698996,14.3999996185,-0.021869948989594594,0.5232601287530289,1.9221175975509408
1648295694270437735,60305,0,11,1.92027914524,0.0600661747158,-0.0587883666158,-0.161837622523,14.3999996185,0.6422338278394649,0.020089021644080267,-0.019661661075518394,14.3999996185,-0.021869948989594594,0.9084779293044379,1.9221175856429824
1648295694368176449,60306,1,0,0.0127121871337,0.0439508594573,0.0102246021852,0.0,15.1000003815,0.004251567603244147,0.014699284099431437,0.003419599393043478,15.1000003815,0.0,0.01588145482018912,0.04688091550517269
1648295694368181506,60307,1,1,0.0335276499391,0.0146502861753,-0.0293101686984,0.0,15.1000003815,0.011213260849197323,0.0048997612626421405,-0.009802732006153845,15.1000003815,0.0,0.01659765339363283,0.0468809149290592
1648295694368297770,60308,1,2,2.24077916145,-1.2306240797,0.597358942032,0.0,15.1000003815,0.7494244687123744,-0.4115799597658863,0.199785599341806,15.1000003815,0.0,1.1369574010887735,2.6253313279568404
1648295694368305220,60309,1,3,0.575670421124,0.190453708172,0.061339545995,-0.404594063759,15.1000003815,0.192531913419398,0.06369689236521739,0.020514898326086956,15.1000003815,-0.05467487348094594,0.2796325615282584,0.6094518755541094
1648295694368306385,60310,1,4,1.05003881454,0.134782627225,-0.204692319036,-0.404594063759,15.1000003815,0.35118355001337787,0.04507780174749164,-0.06845896957725751,15.1000003815,-0.05467487348094594,0.4986900638777391,1.0782610139083102
1648295694368312103,60311,1,5,0.995212614536,-1.78000986576,0.540095448494,-0.404594063759,15.1000003815,0.3328470282729097,-0.5953210253377926,0.18063392926220737,15.1000003815,-0.05467487348094594,0.7589343922036048,2.109641287948842
1648295694368315237,60312,1,6,2.07886505127,0.197778880596,0.299650639296,-0.404594063759,15.1000003815,0.6952725923979933,0.06614678280802674,0.10021760511571906,15.1000003815,-0.05467487348094594,0.9854863532061237,2.109641413281444
1648295694368319147,60313,1,7,0.312857806683,0.316446185112,1.03340518475,-0.323675245047,15.1000003815,0.1046347179541806,0.10583484451906354,0.3456204631270903,15.1000003815,-0.04373989797932432,0.18192818010708564,1.1251419782154684
1648295694368323746,60314,1,8,0.758917748928,0.34281668067,0.13643425703,-0.242756426334,15.1000003815,0.2538186451264214,0.1146544082508361,0.04563018629765886,15.1000003815,-0.03280492247756756,0.37682017270705376,0.8438564644978834
1648295694468364490,60315,2,0,0.0127004906535,0.0439508594573,0.0102391270921,0.0,35.7999992371,0.004247655736956521,0.014699284099431437,0.003424457221438127,35.7999992371,0.0,0.01587936118221376,0.046880915450566385
1648295694468373475,60316,2,1,0.0334426723421,0.0146502861753,-0.0294070895761,0.0,35.7999992371,0.011184840248193979,0.0048997612626421405,-0.009835147015418058,35.7999992371,0.0,0.016559256118139135,0.046880914408061795
1648295694468381498,60317,2,2,2.2394258976,-1.2306240797,0.602412760258,0.0,35.7999992371,0.7489718721070233,-0.4115799597658863,0.20147583955117054,35.7999992371,0.0,1.136360767404387,2.6253314286201466
1648295694468518966,60318,2,3,0.789148688316,-1.78440487385,0.26476085186,-0.485512852669,35.7999992371,0.2639293271959866,-0.5967909277090301,0.0885487798862876,35.7999992371,-0.06560984495527027,0.7039011229597926,1.9689984039526622
1648295694468523664,60319,2,4,2.05945301056,0.0659262910485,0.452651560307,-0.404594063759,35.7999992371,0.6887802710903009,0.022048926772073575,0.15138848170802674,35.7999992371,-0.05467487348094594,0.9743319141125663,2.1096412997484717
1648295694468648430,60320,2,5,0.776150286198,0.290075659752,0.159814223647,-0.242756426334,35.7999992371,0.25958203551772574,0.09701527082006689,0.05344957312608695,35.7999992371,-0.03280492247756756,0.37970729397700875,0.8438564695643974
1648295694468652633,60321,2,6,1.41299593449,-1.1896032095,-1.99543333054,-0.242756426334,35.7999992371,0.47257389113377923,-0.39786060518394645,-0.6673690068695652,35.7999992371,-0.03280492247756756,0.7777822486531678,2.71909313624376
1648295694468654470,60322,2,7,1.92271232605,-0.0,-1.92266607285,-0.242756426334,35.7999992371,0.6430476006856187,-0.0,-0.6430321313879598,35.7999992371,-0.03280492247756756,0.9094066381410804,2.7190931422871567
1648295694468656131,60323,2,8,1.064260602,0.168478280306,-0.0401403419673,-0.161837622523,35.7999992371,0.3559400006688963,0.05634725093846154,-0.013424863534214047,35.7999992371,-0.021869948989594594,0.5065190824052631,1.0782610105895147
1648295694468741367,60324,2,9,0.596425056458,0.076181486249,0.0995246395469,-0.0809188112617,35.7999992371,0.19947326302943144,0.02547875794280936,0.03328583262438127,35.7999992371,-0.010934974494824324,0.2832460634034051,0.6094519018716534
1648295694569970075,60325,3,0,0.0127121871337,0.0439508594573,0.0102246021852,0.0,18.7999992371,0.004251567603244147,0.014699284099431437,0.003419599393043478,18.7999992371,0.0,0.01588145482018912,0.04688091550517269
1648295694569976474,60326,3,1,0.0334292426705,0.0146502861753,-0.0294223539531,0.0,18.7999992371,0.011180348719230768,0.0048997612626421405,-0.009840252158227423,18.7999992371,0.0,0.0165531886776566,0.04688091362892647
1648295694569977880,60327,3,2,1.41927278042,-1.68478298187,0.80107575655,0.0,18.7999992371,0.4746731707090301,-0.5634725691872909,0.2679183132274247,18.7999992371,0.0,0.8764305872163833,2.344045922965683
1648295694569979033,60328,3,3,2.0200574398,-0.879017233849,-0.800779879093,0.0,18.7999992371,0.6756044949163879,-0.29398569693946486,-0.26781935755618724,18.7999992371,0.0,0.999655169099544,2.344046026053046
1648295694569980180,60329,3,4,2.24477243423,-1.2306240797,0.582173407078,0.0,18.7999992371,0.7507600114481605,-0.4115799597658863,0.194706825109699,18.7999992371,0.0,1.1387182499899495,2.6253313663088624
1648295694569998216,60330,3,5,1.20750761032,-1.13393211365,-1.1488660574,-0.404594063759,18.7999992371,0.4038486991036789,-0.37924150958193975,-0.3842361395986622,18.7999992371,-0.05467487348094594,0.6855739683837595,2.015879432206523
1648295694570001067,60331,3,6,1.35311019421,-2.13601183891,-0.124057225883,-0.404594063759,18.7999992371,0.45254521545484944,-0.7143852304046823,-0.04149071099765886,18.7999992371,-0.05467487348094594,0.9591353405450678,2.5315694675304665
1648295694570124706,60332,3,7,0.705562829971,0.224149376154,0.295140981674,-0.242756426334,18.7999992371,0.23597419062575248,0.07496634653979932,0.09870935841939799,18.7999992371,-0.03280492247756756,0.34203448714491236,0.7969755635716856
1648295694570129088,60333,3,8,0.409674018621,1.86205136776,0.243860274553,-0.242756426334,18.7999992371,0.13701472194682274,0.6227596547692307,0.08155862025183946,18.7999992371,-0.03280492247756756,0.6522082916282357,1.9221175643583903
1648295694570130260,60334,3,9,0.681141674519,-1.4445182085,-2.20065450668,-0.242756426334,18.7999992371,0.22780658010668894,-0.4831164576923076,-0.7360048517324413,18.7999992371,-0.03280492247756756,0.5806833797974364,2.7190930644657216
1648295694570131587,60335,3,10,2.09772014618,0.0849716588855,-1.72795188427,-0.242756426334,18.7999992371,0.7015786442073578,0.028418615011872907,-0.5779103291872909,18.7999992371,-0.03280492247756756,0.9925889409493045,2.719093177670717
1648295694570135020,60336,3,11,0.842179834843,0.0527410283685,-0.00672080367804,-0.161837622523,18.7999992371,0.28166549660301,0.017639139922575247,-0.002247760427438127,18.7999992371,-0.021869948989594594,0.3987255236506044,0.8438564211355083
1648295694570136620,60337,3,12,0.529018223286,0.134782627225,0.929849565029,-0.161837622523,18.7999992371,0.17692917166755853,0.04507780174749164,0.31098647659832773,18.7999992371,-0.021869948989594594,0.25424372516214233,1.0782610308988125
1648295694570139282,60338,3,13,0.578285932541,0.0571361146867,0.183718413115,-0.0809188112617,18.7999992371,0.19340666640167223,0.0191090684570903,0.06144428532274247,18.7999992371,-0.010934974494824324,0.2741850355408063,0.6094518936665958
1648295694764923670,60339,5,0,0.0127121871337,0.0439508594573,0.0102246021852,0.0,12.8000001907,0.004251567603244147,0.014699284099431437,0.003419599393043478,12.8000001907,0.0,0.01588145482018912,0.04688091550517269
1648295694764931702,60340,5,1,0.0334292426705,0.0146502861753,-0.0294223539531,0.0,12.8000001907,0.011180348719230768,0.0048997612626421405,-0.009840252158227423,12.8000001907,0.0,0.0165531886776566,0.04688091362892647
1648295694764935047,60341,5,2,1.41922736168,-1.68478298187,0.801156282425,0.0,12.8000001907,0.47465798049498326,-0.5634725691872909,0.267945244958194,12.8000001907,0.0,0.8764141333420394,2.344045944304204
1648295694764938930,60342,5,3,1.97906541824,-0.879017233849,-0.897318303585,0.0,12.8000001907,0.6618947887090301,-0.29398569693946486,-0.30010645604849495,12.8000001907,0.0,0.981140669142466,2.34404593918841
1648295694765101979,60343,5,4,2.23979759216,-1.2306240797,0.601029217243,0.0,12.8000001907,0.7490961846688963,-0.4115799597658863,0.2010131161347826,12.8000001907,0.0,1.1365246372392825,2.625331407529903
1648295694765105412,60344,5,5,0.636436700821,-0.0205104015768,0.159061208367,0.0809188112617,12.8000001907,0.21285508388662205,-0.006859666079197324,0.05319772855083611,12.8000001907,0.010934974494824324,0.301100694936893,0.6563328566603465
1648295694765107809,60345,5,6,0.841711521149,-0.0,0.0601279325783,0.0809188112617,12.8000001907,0.2815088699494983,-0.0,0.02010967644759197,12.8000001907,0.010934974494824324,0.39811366181090435,0.8438564173549338
1648295694765109818,60346,5,7,0.902132034302,1.66134238243,0.550503611565,-0.242756426334,12.8000001907,0.301716399432107,0.5556329038227424,0.18411492025585285,12.8000001907,-0.03280492247756756,0.7005665530005285,1.968998462497663
1648295694869980686,60347,6,0,0.0127238156274,0.0439508594573,0.0102101275697,0.0,23.7000007629,0.004255456731571906,0.014699284099431437,0.00341475838451505,23.7000007629,0.0,0.01588353792529735,0.04688091547895533
1648295694869982736,60348,6,1,0.0334521085024,0.0146502861753,-0.0293963532895,0.0,23.7000007629,0.011187996154648827,0.0048997612626421405,-0.009831556284113712,23.7000007629,0.0,0.016563519443154658,0.04688091333363319
1648295694869987940,60349,6,2,0.6467217803,-0.0615312047303,0.0934756025672,0.0,23.7000007629,0.2162949097993311,-0.020578998237558526,0.03126274333351171,23.7000007629,0.0,0.3065786541471258,0.656332871754314
1648295694870010266,60350,6,3,0.831712663174,-0.0263705141842,0.140186682343,0.0,23.7000007629,0.2781647702923077,-0.008819569961270902,0.04688517804113712,23.7000007629,0.0,0.3934832444689943,0.8438564238119326
1648295694870015909,60351,6,4,1.39457523823,-1.68478298187,0.843337059021,0.0,23.7000007629,0.46641312315384614,-0.5634725691872909,0.2820525281006689,23.7000007629,0.0,0.867515843732422,2.3440459010440087
1648295694870105765,60352,6,5,2.24980258942,-1.2306240797,0.562420845032,0.0,23.7000007629,0.7524423375986622,-0.4115799597658863,0.1881006170675585,23.7000007629,0.0,1.1409368983877972,2.6253313169626646
1648295694870119430,60353,6,6,0.606307148933,-0.0571361146867,0.0236374270171,0.0809188112617,23.7000007629,0.2027783106799331,-0.0191090684570903,0.007905493985652174,23.7000007629,0.010934974494824324,0.28740779923605536,0.6094519032743629
1648295694870129545,60354,6,7,0.801385104656,-0.131852567196,0.229108169675,0.161837622523,23.7000007629,0.26802177413244144,-0.04409784856053511,0.07662480591137123,23.7000007629,0.021869948989594594,0.38159659729336004,0.8438564681582481
1648295695065052026,60355,8,0,0.0127121871337,0.0439508594573,0.0102246021852,0.0,25.3999996185,0.004251567603244147,0.014699284099431437,0.003419599393043478,25.3999996185,0.0,0.01588145482018912,0.04688091550517269
1648295695065057594,60356,8,1,0.0335142984986,0.0146502861753,-0.0293254330754,0.0,25.3999996185,0.011208795484481605,0.0048997612626421405,-0.00980783714896321,25.3999996185,0.0,0.016591619958785185,0.04688091417550657
1648295695065059608,60357,8,2,1.34031534195,-1.68478298187,0.927152752876,0.0,25.3999996185,0.44826600065217387,-0.5634725691872909,0.31008453273444814,25.3999996185,0.0,0.8481663462481377,2.344045890982269
1648295695065067942,60358,8,3,2.24102902412,-1.2306240797,0.596421480179,0.0,25.3999996185,0.7495080348227424,-0.4115799597658863,0.19947206694949832,25.3999996185,0.0,1.1370675669495578,2.6253314637402685
1648295695065187131,60359,8,4,0.813186109066,-0.210964113474,0.079474940896,0.0809188112617,25.3999996185,0.2719685983498327,-0.07055655969030099,0.026580247791304346,25.3999996185,0.010934974494824324,0.39103972316387026,0.8438564874326641
1648295695065190449,60360,8,5,0.644952774048,-0.102552011609,0.0655118823051,0.161837622523,25.3999996185,0.21570326891237457,-0.03429833164180602,0.021910328530133777,25.3999996185,0.021869948989594594,0.3069725981132187,0.6563328443407509
1648295695170043569,60361,9,0,0.0127121871337,0.0439508594573,0.0102246021852,0.0,31.1000003815,0.004251567603244147,0.014699284099431437,0.003419599393043478,31.1000003815,0.0,0.01588145482018912,0.04688091550517269
1648295695170045254,60362,9,1,0.0335276499391,0.0146502861753,-0.0293101686984,0.0,31.1000003815,0.011213260849197323,0.0048997612626421405,-0.009802732006153845,31.1000003815,0.0,0.01659765339363283,0.0468809149290592
1648295695170070775,60363,9,2,0.67233723402,-0.153828009963,0.137146398425,0.0,31.1000003815,0.22486195117725752,-0.05144749497090301,0.045868360677257525,31.1000003815,0.0,0.32213760866013114,0.7032137281792712
1648295695170090273,60364,9,3,0.741046011448,-0.249054864049,0.15489526093,0.0,31.1000003815,0.24784147540066886,-0.0832959411535117,0.05180443509364548,31.1000003815,0.0,0.36026241501190487,0.796975569417299
1648295695170297089,60365,9,4,1.87088048458,-0.117202289402,-0.050816077739,0.0,31.1000003815,0.6257125366488294,-0.03919809010100334,-0.01699534372541806,31.1000003815,0.0,0.8857589103738058,1.8752366351957137
1648295695170315677,60366,9,5,1.36023890972,-1.7580344677,0.744053781033,0.0,31.1000003815,0.45492940124414716,-0.5879713938795986,0.2488474184056856,31.1000003815,0.0,0.8715686319811163,2.344045884833951
1648295695170347420,60367,9,6,0.803071260452,-0.361862063408,0.132459774613,0.242756426334,31.1000003815,0.26858570583678926,-0.12102410147424747,0.04430092796421404,31.1000003815,0.03280492247756756,0.3986519734020409,0.89073744402511
1648295695170354243,60368,9,7,0.721186637878,-0.996219456196,-1.41560912132,-0.323675245047,31.1000003815,0.24119954444080266,-0.3331837646140468,-0.4734478666622073,31.1000003815,-0.04373989797932432,0.4768289645976742,1.8752366666428026
1648295695365187390,60369,11,0,0.0127121871337,0.0439508594573,0.0102246021852,0.0,27.2000007629,0.004251567603244147,0.014699284099431437,0.003419599393043478,27.2000007629,0.0,0.01588145482018912,0.04688091550517269
1648295695365192509,60370,11,1,0.0334426723421,0.0146502861753,-0.0294070895761,0.0,27.2000007629,0.011184840248193979,0.0048997612626421405,-0.009835147015418058,27.2000007629,0.0,0.016559256118139135,0.046880914408061795
1648295695365207503,60371,11,2,1.90523219109,-0.180198520422,-0.17931830883,0.0,27.2000007629,0.6372014017023411,-0.06026706368628762,-0.059972678538461534,27.2000007629,0.0,0.9031519094970809,1.9221176510842233
1648295695365209267,60372,11,3,1.48161303997,-1.68478298187,0.678881824017,0.0,27.2000007629,0.49552275584280936,-0.5634725691872909,0.22705077726321068,27.2000007629,0.0,0.899214623625879,2.344045952448152
1648295695365210756,60373,11,4,0.59739947319,-0.351606875658,0.11830496043,0.0809188112617,27.2000007629,0.19979915491304345,-0.11759427279531771,0.039566876397993306,27.2000007629,0.010934974494824324,0.30605198513029164,0.7032137578574623
1648295695365212388,60374,11,5,0.723146677017,-0.501039803028,0.139395684004,0.161837622523,27.2000007629,0.24185507592541802,-0.16757184047759197,0.046620630101672236,27.2000007629,0.021869948989594594,0.38087803457645986,0.8907374233846972
1648295695365216571,60375,11,6,0.971558332443,-0.290075659752,0.188879728317,-0.242756426334,27.2000007629,0.3249358971381271,-0.09701527082006689,0.0631704776979933,27.2000007629,-0.03280492247756756,0.4696580003259925,1.0313801595382204
1648295695470019316,60376,12,0,0.0127121871337,0.0439508594573,0.0102246021852,0.0,19.0,0.004251567603244147,0.014699284099431437,0.003419599393043478,19.0,0.0,0.01588145482018912,0.04688091550517269
1648295695470030988,60377,12,1,0.0334292426705,0.0146502861753,-0.0294223539531,0.0,19.0,0.011180348719230768,0.0048997612626421405,-0.009840252158227423,19.0,0.0,0.0165531886776566,0.04688091362892647
1648295695470051956,60378,12,2,0.607877373695,-0.474669247866,0.342444032431,0.0,19.0,0.20330346946321068,-0.15875225681137123,0.11452977673277592,19.0,0.0,0.32843093708458837,0.8438564520507078
1648295695470057677,60379,12,3,1.86471533775,-0.175803437829,-0.09188298136,0.0,19.0,0.623650614632107,-0.05879713639765886,-0.03073009410033445,19.0,0.0,0.8839328489826445,1.8752366842231394
1648295695470238801,60380,12,4,0.696889340878,-0.474669247866,0.0335866324604,0.161837622523,19.0,0.23307335815317726,-0.15875225681137123,0.011232987444949832,19.0,0.021869948989594594,0.3658533307273586,0.8438564511687265
1648295695470242419,60381,12,5,1.9315507412,-0.36918720603,-0.0988305062056,0.242756426334,19.0,0.6460035923745818,-0.12347398194983276,-0.033053681005217384,19.0,0.03280492247756756,0.9218932188384278,1.9689984580703364
1648295695470262217,60382,12,6,0.508699178696,-0.461484014988,0.150888100266,0.404594063759,19.0,0.170133504580602,-0.15434247992909697,0.050464247580602,19.0,0.05467487348094594,0.2858538435501946,0.7032137436777754
1648295695470275595,60383,12,7,0.544673383236,-0.515690088272,0.00605146959424,0.566431701183,19.0,0.18216501111571906,-0.17247160142876253,0.0020239028743277592,19.0,0.07654482448418919,0.3100236053093087,0.7500946485824197
1648295695665114747,60384,14,0,0.0127121871337,0.0439508594573,0.0102246021852,0.0,37.0999984741,0.004251567603244147,0.014699284099431437,0.003419599393043478,37.0999984741,0.0,0.01588145482018912,0.04688091550517269
1648295695665216762,60385,14,1,0.0333916135132,0.0146502861753,-0.0294650550932,0.0,37.0999984741,0.011167763716789295,0.0048997612626421405,-0.009854533475986622,37.0999984741,0.0,0.016536189201232534,0.04688091519668124
1648295695665219118,60386,14,2,0.438160806894,-0.0,1.0363202095,0.0,37.0999984741,0.14654207588428092,-0.0,0.3465953877926421,37.0999984741,0.0,0.20724179117385735,1.1251419774037963
1648295695665220592,60387,14,3,0.898416936398,-0.5391305089,0.254621446133,0.161837622523,37.0999984741,0.30047389177190637,-0.18031120698996655,0.08515767429197323,37.0999984741,0.021869948989594594,0.46160724716937573,1.078260997191497
1648295695665221665,60388,14,4,0.618117690086,-0.5845464468,0.263911217451,0.242756426334,37.0999984741,0.20672832444347825,-0.19550048387959865,0.08826462122107022,37.0999984741,0.03280492247756756,0.35170106546835084,0.8907374236890615
1648295695665222676,60389,14,5,1.36098718643,-0.0,-1.48710584641,0.242756426334,37.0999984741,0.4551796610133779,-0.0,-0.49735981485284275,37.0999984741,0.03280492247756756,0.643721249921507,2.0158794408529124
1648295695665226244,60390,14,6,1.42026388645,-0.125992462039,-1.42504262924,0.242756426334,37.0999984741,0.4750046442976588,-0.04213794717023411,-0.4766028860334448,37.0999984741,0.03280492247756756,0.673078324417309,2.0158794861786653
1648295695665344415,60391,14,7,0.442749589682,-0.68563336134,0.214414134622,0.566431701183,37.0999984741,0.14807678584682274,-0.2293088165016722,0.07171041291705686,37.0999984741,0.07654482448418919,0.31054146637582747,0.8438564608223768
1648295695665364009,60392,14,8,0.962870299816,-1.33610606194,0.679230451584,-0.0809188112617,37.0999984741,0.3220302006073578,-0.4468582146956522,0.22716737511170565,37.0999984741,-0.010934974494824324,0.6380353941964473,1.7814748466873096
1648295695768277495,60393,15,0,0.0127121871337,0.0439508594573,0.0102246021852,0.0,12.1000003815,0.004251567603244147,0.014699284099431437,0.003419599393043478,12.1000003815,0.0,0.01588145482018912,0.04688091550517269
1648295695768293222,60394,15,1,0.0334426723421,0.0146502861753,-0.0294070895761,0.0,12.1000003815,0.011184840248193979,0.0048997612626421405,-0.009835147015418058,12.1000003815,0.0,0.016559256118139135,0.046880914408061795
1648295695768298848,60395,15,2,0.348302692175,-0.0,1.06987369061,0.0,12.1000003815,0.11648919470735784,-0.0,0.3578172878294314,12.1000003815,0.0,0.16474059902506563,1.125141981811991
1648295695768307615,60396,15,3,0.569437682629,0.0703213736415,0.967853367329,0.0,12.1000003815,0.1904473854946488,0.023518854060702338,0.323696778370903,12.1000003815,0.0,0.2703581879282063,1.1251419957671107
1648295695768448840,60397,15,4,0.472018539906,1.27457487583,0.0320031046867,0.0,12.1000003815,0.15786573241003343,0.4262792226856187,0.010703379493879598,12.1000003815,0.0,0.4812038597436307,1.3595465475009083
1648295695768457152,60398,15,5,1.81967771053,-0.171408340335,0.047716986388,0.0,12.1000003815,0.6085878630535116,-0.05732720412541805,0.015958858323745818,12.1000003815,0.0,0.8625803049252383,1.8283557367553105
1648295695768459199,60399,15,6,2.1932015419,-1.31266570091,0.599283456802,0.0,12.1000003815,0.7335122213712375,-0.4390186290668896,0.20042924976655518,12.1000003815,0.0,1.1264180904396492,2.625331390002914
1648295695768462939,60400,15,7,1.30213475227,-0.314981162548,-1.50632059574,0.161837622523,12.1000003815,0.4354965726655518,-0.1053448704173913,-0.5037861524214047,12.1000003815,0.021869948989594594,0.6248296338444116,2.0158794068544506
1648295695768463984,60401,15,8,0.858583927155,-0.606521844864,0.240024134517,0.242756426334,12.1000003815,0.28715181510200666,-0.20285011533913042,0.08027563027324414,12.1000003815,0.03280492247756756,0.45393887157397367,1.0782609579395739
1648295695768464968,60402,15,9,0.869140207767,-0.240264698863,-1.69746994972,0.242756426334,12.1000003815,0.2906823437347826,-0.08035608657625418,-0.5677157022474917,12.1000003815,0.03280492247756756,0.41886698433768094,1.9221175969433846
1648295695768465937,60403,15,10,0.770501315594,-0.961058795452,-1.47554385662,0.242756426334,12.1000003815,0.257692747690301,-0.3214243463050167,-0.4934929286354515,12.1000003815,0.03280492247756756,0.4859266558051344,1.9221175714447742
1648295695768466886,60404,15,11,1.48953151703,-0.257845044136,-1.40349280834,0.242756426334,12.1000003815,0.4981710759297659,-0.08623580071438126,-0.46939558807357856,12.1000003815,0.03280492247756756,0.7097784549497763,2.062760352070325
1648295695768490620,60405,15,12,0.594049632549,-0.612381994724,0.255942285061,0.323675245047,12.1000003815,0.19867880687257525,-0.20481003168026754,0.085599426441806,12.1000003815,0.04373989797932432,0.34769769294243574,0.8907374061281996
1648295695870165446,60406,16,0,0.0127121871337,0.0439508594573,0.0102246021852,0.0,39.0,0.004251567603244147,0.014699284099431437,0.003419599393043478,39.0,0.0,0.01588145482018912,0.04688091550517269
1648295695870172618,60407,16,1,0.0334426723421,0.0146502861753,-0.0294070895761,0.0,39.0,0.011184840248193979,0.0048997612626421405,-0.009835147015418058,39.0,0.0,0.016559256118139135,0.046880914408061795
1648295695870177341,60408,16,2,0.366623967886,-0.0,1.06373465061,0.0,39.0,0.12261671166755851,-0.0,0.35576409719397994,39.0,0.0,0.17340621661385258,1.1251420091423365
1648295695870187032,60409,16,3,0.576222360134,0.0703213736415,0.96382945776,0.0,39.0,0.19271650840602003,0.023518854060702338,0.32235098921739125,39.0,0.0,0.2735551895335634,1.1251420032845454
1648295695870309342,60410,16,4,0.574735164642,1.23208904266,-0.00171114120167,0.0,39.0,0.19221911860936455,0.4120699139331103,-0.0005722880273143812,39.0,0.0,0.4936577691951813,1.3595465591597493
1648295695870330599,60411,16,5,1.87140321732,-0.117202289402,0.02501511015,0.0,39.0,0.6258873636521738,-0.03919809010100334,0.008366257575250835,39.0,0.0,0.8860059109433206,1.875236554190573
1648295695870339727,60412,16,6,2.18644380569,-1.31266570091,0.623487889767,0.0,39.0,0.7312521089264215,-0.4390186290668896,0.20852437784849495,39.0,0.0,1.1234752557517451,2.6253313898385895
1648295695870352031,60413,16,7,0.614392697811,-0.673913180828,0.217923671007,0.404594063759,39.0,0.20548250762909698,-0.2253890236882943,0.07288417090535117,39.0,0.05467487348094594,0.367758526593533,0.937618306563155
1648295695870365845,60414,16,8,0.84189504385,-0.703213751316,0.250295102596,0.404594063759,39.0,0.2815702487792642,-0.23518854559063543,0.0837107366541806,39.0,0.05467487348094594,0.4624686605298481,1.1251419836103604
1648295695870371282,60415,16,9,0.79445964098,-1.51776957512,0.272076189518,-0.0809188112617,39.0,0.26570556554515046,-0.5076152425150501,0.09099538110969899,39.0,-0.010934974494824324,0.6315632427215422,1.7345939170908709
1648295695870443081,60416,16,10,1.65820455551,-0.271030306816,-0.430947870016,-0.0809188112617,39.0,0.5545834633812708,-0.09064558756387958,-0.1441297224133779,39.0,-0.010934974494824324,0.7895202709599872,1.7345938549984026
